﻿[
  {
    "label": "001",
    "locale": {
      "CNzh": "给身在某处的你",
      "EUde": "An den Bewohner einer anderen Insel.",
      "EUen": "To someone on an island out there,",
      "EUes": "Habitante de otra isla:",
      "EUfr": "À toi, qui vis sur une île lointaine,",
      "EUit": "A qualcuno su un'isola lontana.",
      "EUnl": "Aan iemand op een eiland ergens,",
      "EUru": "Привет, островитянин!",
      "JPja": "どこかのしまの　あなたへ",
      "KRko": "어딘지 모를 섬에 사는 당신께",
      "TWzh": "給身在某座島上的你",
      "USen": "To someone on an island out there,",
      "USes": "Habitante de otra isla:",
      "USfr": "À toi, qui vis sur une île lointaine,"
    }
  },
  {
    "label": "002",
    "locale": {
      "CNzh": "给不知名的你",
      "EUde": "Hallo, Freund in der Ferne!",
      "EUen": "Hello, faraway friend!",
      "EUes": "Querida persona anónima:",
      "EUfr": "Coucou à toi, qui que tu sois !",
      "EUit": "Salut, chiunque tu sia!",
      "EUnl": "Hallo verre vriend of vriendin!",
      "EUru": "Здравствуй, далекий друг!",
      "JPja": "なまえもしらない　あなたへ",
      "KRko": "이름 모를 당신께",
      "TWzh": "給不知名的你",
      "USen": "Hello, faraway friend!",
      "USes": "Querida persona anónima:",
      "USfr": "Coucou à toi, qui que tu sois!"
    }
  },
  {
    "label": "003",
    "locale": {
      "CNzh": "给捡到这个瓶子的人",
      "EUde": "An den Finder.",
      "EUen": "To whoever finds this,",
      "EUes": "A quien encuentre la botella:",
      "EUfr": "À qui trouvera ce message,",
      "EUit": "A chiunque riceva questo messaggio.",
      "EUnl": "Beste vinder,",
      "EUru": "Привет, нашедшему бутылку!",
      "JPja": "このボトルを　ひろわれたかたへ",
      "KRko": "이 병을 주운 분께",
      "TWzh": "給撿到這個瓶子的人",
      "USen": "To whoever finds this,",
      "USes": "A quien encuentre la botella:",
      "USfr": "À qui trouvera ce message,"
    }
  },
  {
    "label": "004",
    "locale": {
      "CNzh": "给素未谋面的你",
      "EUde": "An einen unbekannten Freund.",
      "EUen": "To a friend I've yet to meet,",
      "EUes": "Posible amigo o amiga:",
      "EUfr": "Chère personne inconnue,",
      "EUit": "A un amico che ancora non conosco.",
      "EUnl": "Aan een toekomstige vriend/vriendin,",
      "EUru": "Привет, незнакомый друг!",
      "JPja": "まだ　おあいしていない　あなたへ",
      "KRko": "아직 만난 적 없는 당신께",
      "TWzh": "給素未謀面的你",
      "USen": "To a friend I've yet to meet,",
      "USes": "Querida persona desconocida:",
      "USfr": "Chère personne inconnue,"
    }
  },
  {
    "label": "005",
    "locale": {
      "CNzh": "给看到这封信的你",
      "EUde": "An den Leser dieser Nachricht:",
      "EUen": "To the reader of this message:",
      "EUes": "A quien lea este mensaje:",
      "EUfr": "Cher destinataire anonyme,",
      "EUit": "A chi legge questo messaggio.",
      "EUnl": "Aan de ontvanger van deze kaart,",
      "EUru": "Привет, получивший это послание!",
      "JPja": "みてくださった　あなたへ",
      "KRko": "이 글을 보신 당신께",
      "TWzh": "給看到這封信的你",
      "USen": "To the reader of this message:",
      "USes": "A quien lea este mensaje:",
      "USfr": "Cher destinataire anonyme,"
    }
  },
  {
    "label": "101",
    "locale": {
      "CNzh": "我特别喜欢看书，\n所以照着现在正在读的故事情节\n制作了一本DIY的手册。",
      "EUde": "Diese Bastelanleitung wurde durch\neine Szene aus einem Buch\ninspiriert, das ich zurzeit lese.",
      "EUen": "This new DIY recipe was inspired\nby a scene in a novel I'm reading\nright now and really enjoying.",
      "EUes": "Estaba yo leyendo una novela de\nespías cuando se me ocurrió un\nproyecto de bricolaje.",
      "EUfr": "J'ai eu l'idée de mettre au point\nce plan de bricolage pendant que\nje lisais un roman passionnant.",
      "EUit": "Questo schema fai da te è ispirato\na un romanzo che sto leggendo\nadesso. Lo adoooro!",
      "EUnl": "Dit doe-het-zelfplan is geïnspireerd\ndoor een stukje uit een boek dat ik \nnu lees en dat gewoon zo leuk is!",
      "EUru": "Идея для проекта «Сделай сам»\nпришла мне в голову, когда я\nчитала один роман.",
      "JPja": "どくしょが　だいすきな　わたしが\nいまよんでいる　ものがたりをイメージした\nDIYのレシピを　かんがえたんです。",
      "KRko": "저는 독서를 좋아하는데요,\n요즘 읽고 있는 책에서 영감을 받아\nDIY 레시피를 하나 생각해냈어요.",
      "TWzh": "我非常熱愛讀書，所以就仿照\n最近正在閱讀的這本書當中的故事形象，\n想出了一個DIY方程式。",
      "USen": "This new DIY recipe was inspired\nby a scene in a novel I'm reading\nright now and really enjoying.",
      "USes": "Estaba leyendo una novela de\nespionaje cuando se me ocurrió\nun proyecto de taller.",
      "USfr": "J'ai eu l'idée de mettre au point\nce plan de bricolage pendant que\nje lisais un roman passionnant."
    }
  },
  {
    "label": "102",
    "locale": {
      "CNzh": "我整理房间的时候，\n突然从书本中间掉出来了一本\n以前制作的DIY手册。",
      "EUde": "Beim Aufräumen fand ich diese\nBastelanleitung auf einem Stück\nPapier, das als Lesezeichen diente.",
      "EUen": "I was cleaning and found this DIY\nrecipe written on a piece of paper\nthat I'd used as a bookmark.",
      "EUes": "Ayer encontré esta nota dentro\nde un libro viejo. Resultó ser un\nproyecto de bricolaje.",
      "EUfr": "Je faisais du ménage quand j'ai\ntrouvé ce plan de bricolage coincé\nentre deux coussins.",
      "EUit": "Stavo pulendo il mio pied-à-terre e\ndentro un libro ho trovato questo\nfoglietto con uno schema fai da te.",
      "EUnl": "Toen ik op mijn kamer aan het\nhobbyen was, vond ik een stukje\npapier met dit doe-het-zelfplan.",
      "EUru": "Я делала уборку дома и нашла\nв старой книге закладку, которая\nбыла инструкцией «Сделай сам».",
      "JPja": "へやの　おかたづけをしていたら\nほんのあいだから　むかし　おもいついた\nDIYレシピのメモが　でてきたんです。",
      "KRko": "방 정리를 하다가 옛날에 생각해낸\nDIY 레시피 메모가 책장 사이에\n끼워져 있는 걸 발견했어요.",
      "TWzh": "我在整理房間的時候，\n在書本之間意外發現了\n以前想到的DIY方程式筆記。",
      "USen": "I was cleaning and found this DIY\nrecipe written on a piece of paper\nthat I'd used as a bookmark.",
      "USes": "Ayer encontré esta nota dentro\nde un libro viejo. Resultó ser un\nproyecto de taller.",
      "USfr": "Je faisais du ménage quand j'ai\ntrouvé ce plan de bricolage coincé\nentre deux coussins."
    }
  },
  {
    "label": "103",
    "locale": {
      "CNzh": "我参考了一下\n小时候画的画册，\n制作了可以在DIY时使用的手册。",
      "EUde": "Diese Bastelanleitung schrieb ich,\nwährend mein Backofen vorheizte.\nWarum dauert das immer so lange?",
      "EUen": "I thought up this DIY recipe while\nI was waiting for my oven to heat\nup. Why does that take so long?",
      "EUes": "Se me ocurrió un proyecto de\nbricolaje mientras esperaba a\nque el horno se calentara.",
      "EUfr": "Ce plan de bricolage est apparu\ndans mon esprit pendant que\nj'attendais que ma pizza cuise.",
      "EUit": "Ho creato questo schema fai da te\nmentre aspettavo che si scaldasse\nil forno... Ci mette sempre tanto!",
      "EUnl": "Toen ik cakejes aan het bakken\nwas, zag ik dit doe-het-zelfplan\nliggen. Het valt vast in de smaak.",
      "EUru": "Я включила духовку, и мне вдруг\nпришла в голову отличная идея\nдля проекта «Сделай сам».",
      "JPja": "ちいさいころにかいた　おえかきちょうを\nヒントにして、DIYでつくれるような\nレシピを　かんがえたんです。",
      "KRko": "어릴 적 쓰던 그림 공책의 내용을\n참고해서 DIY로 만들 수 있는\n레시피를 생각해봤어요.",
      "TWzh": "這是我參考小時候的塗鴉冊\n構思出來的方程式，\n能夠使用ＤＩＹ來製作。",
      "USen": "I thought up this DIY recipe while\nI was waiting for my oven to heat\nup. Why does that take so long?",
      "USes": "Se me ocurrió un proyecto de\ntaller mientras esperaba a\nque el horno se calentara.",
      "USfr": "Ce plan de bricolage est apparu\ndans mon esprit pendant que\nj'attendais que ma pizza cuise."
    }
  },
  {
    "label": "104",
    "locale": {
      "CNzh": "因为天气非常晴朗，于是我就在外面散步。\n走在路上的时候，我突然间灵光乍现，\n制作出了一本DIY的手册。",
      "EUde": "Heute unternahm ich einen langen\nSpaziergang. Dabei fiel mir diese\nBastelanleitung ein.",
      "EUen": "Our weather was so nice out today\nthat I went for a long walk. On my\nwalk, I thought up this DIY recipe.",
      "EUes": "El otro día, mientras observaba la\nnaturaleza en uno de mis paseos,\nrecordé un proyecto de bricolaje...",
      "EUfr": "Je faisais une longue promenade\npour profiter du beau temps quand\nj'ai eu l'idée de dessiner ce plan.",
      "EUit": "Oggi il tempo era bello e mentre\npasseggiavo all'aria aperta ho\ncreato questo schema fai da te.",
      "EUnl": "We hadden echt een heel lekker\nweertje vandaag. Toen ik buiten\nwas, had ik een doe-het-zelfidee!",
      "EUru": "Погода была такой хорошей, что\nя вышла прогуляться. И написала\nинструкцию «Сделай сам».",
      "JPja": "てんきがよかったので　おさんぽしてたら\nそらから　なにかおりてきたのか　きゅうに\nDIYのレシピを　おもいついたんです。",
      "KRko": "날씨가 좋아서 산책하다가\n하늘의 계시를 받은 것처럼 갑자기\nDIY 레시피가 생각난 거 있죠!",
      "TWzh": "某天天氣相當晴朗，於是我決定出門散步。\n就在散步時，我突然靈機一動，\n想出了一個DIY方程式。",
      "USen": "Our weather was so nice out today\nthat I went for a long walk. On my\nwalk, I thought up this DIY recipe.",
      "USes": "Mientras daba uno de mis paseos\nde meditación, recordé un\nproyecto de taller...",
      "USfr": "Je faisais une longue promenade\npour profiter du beau temps quand\nj'ai eu l'idée de dessiner ce plan."
    }
  },
  {
    "label": "105",
    "locale": {
      "CNzh": "我早上醒来之后，\n发现枕头边上放着一本DIY的手册，\n难道是我睡迷糊的时候制作出来的吗？",
      "EUde": "Mein Traumtagebuch enthielt diese\nBastelanleitung. Doch wann habe\nich sie nur aufgeschrieben?",
      "EUen": "I found this DIY recipe written in\nmy dream journal this morning.\nI don't remember writing it down...",
      "EUes": "He encontrado un proyecto de\nbricolaje que me trajo mucha\nfelicidad.",
      "EUfr": "J'ai trouvé ce plan sur ma table de\nchevet en me levant, mais je ne me\nsouviens pas l'avoir mis au point...",
      "EUit": "Ce matin ho trovato questo schema\nfai da te nel mio diario dei sogni,\nma non ricordo di averlo sognato...",
      "EUnl": "Dit doe-het-zelfplan stond opeens\nin mijn droomdagboek. Geen idee \nhoe het daar terecht gekomen is.",
      "EUru": "Эту инструкцию «Сделай сам» я\nнашла у себя в сонном дневнике.\nНикогда ее раньше не видела!",
      "JPja": "あさおきたら　DIYのレシピが\nまくらもとに　おいてあったんです。\nわたしが　ねぼけて　かいてたのかしら？",
      "KRko": "아침에 일어났더니 머리맡에\nDIY 레시피를 적은 종이가 있었어요.\n제가 잠결에 써놓았나 봐요.",
      "TWzh": "我早上起床之後，發現枕頭旁邊\n放著一個DIY的方程式。\n難道是我在半夢半醒之間寫下來的嗎？",
      "USen": "I found this DIY recipe written in\nmy dream journal this morning.\nI don't remember writing it down...",
      "USes": "Encontré un proyecto de taller que\nme iluminó el día.",
      "USfr": "J'ai trouvé ce plan sur ma table de\nchevet en me levant, mais je ne me\nsouviens pas l'avoir mis au point..."
    }
  },
  {
    "label": "201",
    "locale": {
      "CNzh": "我想把这事也分享给大家，\n于是决定用这种形式把这件事情写下来。",
      "EUde": "Ich möchte auf diese Weise\nmeine Idee mit anderen teilen.",
      "EUen": "This seemed like a good way of\npassing along my recipe idea.",
      "EUes": "He pensado que podría compartirlo\ncon los demás, así que ahí va.",
      "EUfr": "Du coup je me suis dit que je\npourrais aussi bien le transmettre.",
      "EUit": "Ho pensato che questo fosse un\nbuon modo per farlo conoscere.",
      "EUnl": "Dit leek me een leuke manier om\nmijn doe-het-zelfplan te delen.",
      "EUru": "И я подумала, что ей надо\nобязательно поделиться!",
      "JPja": "みんなにも　おしえたくなったので\nこういうかたちで　おつたえいたします。",
      "KRko": "다른 분들께도 가르쳐드리고 싶어서\n이걸 쓰게 됐어요.",
      "TWzh": "我很想要把這個方程式告訴大家，\n所以決定用這種方式傳達出去。",
      "USen": "This seemed like a good way of\npassing along my recipe idea.",
      "USes": "Lo positivo hay que compartirlo,\nasí que ahí va.",
      "USfr": "Du coup je me suis dit que je\npourrais aussi bien le transmettre."
    }
  },
  {
    "label": "202",
    "locale": {
      "CNzh": "我想让其他人也用用看这本手册，\n所以就决定把它放到海上漂流了。",
      "EUde": "Ich vertraue meine Idee dem Meer\nan und hoffe, jemand findet sie.",
      "EUen": "I've entrusted my recipe to the sea\nin the hopes someone makes it.",
      "EUes": "Lo he lanzado al mar para que\nalguien lo encuentre algún día.",
      "EUfr": "Je le confie à la mer, pour qu'elle\nle transmette à quelqu'un.",
      "EUit": "L'ho affidato alle onde del mare\nsperando che qualcuno lo realizzi.",
      "EUnl": "Ik hoop dat de zee mijn idee naar\niemand toe zal brengen.",
      "EUru": "Я засунула инструкцию в бутылку\nи доверилась волнам.",
      "JPja": "だれかにも　つくってもらいたいので\nレシピを　うみに　ながすことにしました。",
      "KRko": "다른 분들도 만들어주셨으면 해서\n레시피를 바다에 띄워보기로 했어요.",
      "TWzh": "我想讓其他人也能做做看，\n所以就把方程式放到海上漂流了。",
      "USen": "I've entrusted my recipe to the sea\nin the hopes someone makes it.",
      "USes": "Decidí lanzarlo al mar para que\nalguien lo encuentre algún día.",
      "USfr": "Je le confie à la mer, pour qu'elle\nle transmette à quelqu'un."
    }
  },
  {
    "label": "203",
    "locale": {
      "CNzh": "我想让这本手册传遍世界，\n所以就像这样把它装进了瓶子里。",
      "EUde": "Ich hoffe, jemand findet diese\nBastelanleitung und freut sich.",
      "EUen": "I wanted to get my idea out into\nthe world, so I put it in this bottle.",
      "EUes": "Lo metí en una botella y lo lancé\nal mar para que recorriera mundo.",
      "EUfr": "Je pense qu'il mérite d'être\npartagé, alors je l'ai embouteillé.",
      "EUit": "Gli schemi sono come le torte,\ncondividili e il mondo ti ringrazierà!",
      "EUnl": "Ik wilde mijn idee met de wereld\ndelen en stopte het dus in een fles.",
      "EUru": "О моей идее должны узнать все!\nИ вот бутылка мчит по волнам!",
      "JPja": "せかいじゅうに　このレシピをひろめたくて\nこうして　ボトルにつめてみました。",
      "KRko": "온 세상에 이 레시피를 알리고 싶어서\n이렇게 작은 병에 넣어보았어요.",
      "TWzh": "我想讓這個方程式能夠傳遍全世界，\n所以才把它塞進瓶子裡。",
      "USen": "I wanted to get my idea out into\nthe world, so I put it in this bottle.",
      "USes": "Lo lancé al mar en una botella\npara que encontrara su destino.",
      "USfr": "Je pense qu'il mérite d'être\npartagé, alors je l'ai embouteillé."
    }
  },
  {
    "label": "204",
    "locale": {
      "CNzh": "只有我一个人拿着这本手册实在太可惜了，\n所以我决定把它托付给你。",
      "EUde": "Ich wollte diese Bastelanleitung\nnicht für mich allein behalten.",
      "EUen": "I didn't want to waste a good idea,\nso now I'm sharing this with you.",
      "EUes": "He decidido compartirlo porque\nsería una pena no hacerlo.",
      "EUfr": "Je ne voulais pas le garder que\npour moi, alors je te l'envoie.",
      "EUit": "Non volevo tenere questa idea\ngeniale tutta per me. Et voilà!",
      "EUnl": "Ik wil niet dat dit idee verspild\nwordt, dus ik deel het met jou.",
      "EUru": "Хорошими идеями нужно делиться\nс миром! И я делюсь своей!",
      "JPja": "わたししかしらないのが　もったいないので\nこのレシピを　あなたにたくします。",
      "KRko": "저만 알기에는 너무 아까워서\n당신에게도 이 레시피를 드릴게요.",
      "TWzh": "如果只有我自己知道，那就太浪費了。\n所以我想把這個方程式交給你。",
      "USen": "I didn't want to waste a good idea,\nso now I'm sharing this with you.",
      "USes": "Decidí compartirlo porque el\nconocimiento para eso es.",
      "USfr": "Je ne voulais pas le garder que\npour moi, alors je te l'envoie."
    }
  },
  {
    "label": "205",
    "locale": {
      "CNzh": "之后我照着手册制作出了非常精美的东西，\n于是便想把这事跟其他人也分享一下。",
      "EUde": "Mir gefällt diese Bastelanleitung\nso gut, dass ich sie teilen wollte.",
      "EUen": "I tried the recipe myself and loved\nit, so it seemed worth sharing out!",
      "EUes": "Quiero compartirlo con el resto\ndel mundo con mucho cariño.",
      "EUfr": "Je pense honnêtement que ce plan\nmérite d'être partagé.",
      "EUit": "È stupendo e ho sentito il bisogno\ndi condividerlo con il mondo!",
      "EUnl": "Ik heb het idee zelf ook al een keer\nuitgeprobeerd. Het is leuk, echt!",
      "EUru": "Инструкция оказалась классной!\nИ я решила ей поделиться.",
      "JPja": "つくってみたら　すごくよかったので\nだれかに　おしえたくなっちゃいました。",
      "KRko": "실제로 만들어봤더니 정말 괜찮아서\n다른 분들께도 알려드리고 싶어졌어요.",
      "TWzh": "我實際做了之後，發現真的很棒，\n所以想把這個方程式告訴其他人。",
      "USen": "I tried the recipe myself and loved\nit, so it seemed worth sharing out!",
      "USes": "Quisiera que el resto del mundo\nse iluminara igual que yo.",
      "USfr": "Je pense honnêtement que ce plan\nmérite d'être partagé."
    }
  },
  {
    "label": "301",
    "locale": {
      "CNzh": "如果有兴趣的话，就请尝试制作一下吧。",
      "EUde": "Probiere sie doch einmal aus!",
      "EUen": "I'd love for you to try it out.",
      "EUes": "Ojalá te diviertas haciéndolo.",
      "EUfr": "J'espère qu'il te sera utile.",
      "EUit": "Sarei così feliiice se lo provassi!",
      "EUnl": "Probeer het alsjeblieft voor me!",
      "EUru": "Буду рада, если тебе понравится.",
      "JPja": "もしよかったら　つくってみてくださいね。",
      "KRko": "괜찮다면 한번 만들어보세요.",
      "TWzh": "如果你方便的話，就請你試做看看吧。",
      "USen": "I'd love for you to try it out.",
      "USes": "Que disfrutes la experiencia.",
      "USfr": "J'espère qu'il te sera utile."
    }
  },
  {
    "label": "302",
    "locale": {
      "CNzh": "如果手边有材料的话，就请尝试制作一下吧。",
      "EUde": "Wenn du magst, probiere sie aus.",
      "EUen": "Try it if you have the materials.",
      "EUes": "¡Hazlo! No te arrepentirás.",
      "EUfr": "N'hésite pas à t'en servir.",
      "EUit": "Provalo, se hai il materiale giusto!",
      "EUnl": "Maak er gebruik van als je wilt!",
      "EUru": "Найди материалы и используй ее.",
      "JPja": "ざいりょうがあれば　おためしください。",
      "KRko": "재료가 있다면 한번 만들어보세요.",
      "TWzh": "如果你有材料的話，還請你嘗試一下。",
      "USen": "Try it if you have the materials.",
      "USes": "Su destino es ser creado por ti.",
      "USfr": "N'hésite pas à t'en servir."
    }
  },
  {
    "label": "303",
    "locale": {
      "CNzh": "只要有材料，制作起来并不困难哦。",
      "EUde": "Sie ist auch nicht sehr kompliziert.",
      "EUen": "It's simple if you have the parts.",
      "EUes": "Que te traiga mucha felicidad.",
      "EUfr": "C'est pas compliqué à faire.",
      "EUit": "Se hai il materiale, è facilissimo!",
      "EUnl": "Met alle materialen is het zo gelukt.",
      "EUru": "Все просто, если есть материалы.",
      "JPja": "ざいりょうさえあれば　かんたんでしたよ。",
      "KRko": "재료만 있다면 아주 만들기 쉽답니다.",
      "TWzh": "只要有材料，就能輕鬆地製作出來喔。",
      "USen": "It's simple if you have the parts.",
      "USes": "Espero que te llene de felicidad.",
      "USfr": "C'est pas compliqué à faire."
    }
  },
  {
    "label": "304",
    "locale": {
      "CNzh": "希望你能尝试制作一下。",
      "EUde": "Es wäre schön, wenn sie dir gefällt.",
      "EUen": "It'd make me happy if you used it.",
      "EUes": "Espero que te guste.",
      "EUfr": "En espérant qu'il te servira.",
      "EUit": "Spero tanto che vorrai realizzarlo!",
      "EUnl": "Als jij er wat aan hebt, ben ik blij.",
      "EUru": "Буду рада, если воспользуешься.",
      "JPja": "つくってもらえたら　うれしいです。",
      "KRko": "한번 만들어보셨으면 좋겠어요.",
      "TWzh": "希望你願意做做看。",
      "USen": "It'd make me happy if you used it.",
      "USes": "Espero que te guste.",
      "USfr": "En espérant qu'il te servira."
    }
  },
  {
    "label": "305",
    "locale": {
      "CNzh": "就请你先尝试制作一下吧。",
      "EUde": "Meine Idee gehört nun dir!",
      "EUen": "My recipe is yours to try now!",
      "EUes": "Disfruta de la experiencia.",
      "EUfr": "À toi d'en faire bon usage !",
      "EUit": "Il mio schema è tuo, usalo pure!",
      "EUnl": "Nu kun je mijn idee proberen.",
      "EUru": "Теперь эта инструкция твоя.",
      "JPja": "まずは、あなたが　つくってみてください。",
      "KRko": "당신도 한번 만들어보세요.",
      "TWzh": "那就先請你試做看看吧。",
      "USen": "My recipe is yours to try now!",
      "USes": "Que disfrutes la experiencia.",
      "USfr": "À toi d'en faire bon usage!"
    }
  },
  {
    "label": "401",
    "locale": {
      "CNzh": "诚挚的(resident name)敬上",
      "EUde": "Liebe Grüße, (Einwohnername)",
      "EUen": "Best wishes, (resident name)",
      "EUes": "Con amor, (resident name)",
      "EUfr": "Amitiés, (nom du résident)",
      "EUit": "Tanti saluti, (resident name)",
      "EUnl": "Succes, (resident name)",
      "EUru": "Всего наилучшего! (resident name)",
      "JPja": "(resident name)より　こころをこめて",
      "KRko": "(resident name)이 마음을 담아 보냅니다",
      "TWzh": "誠摯的(resident name)　筆",
      "USen": "Best wishes, (resident name)",
      "USes": "Con estima, (resident name)",
      "USfr": "Amitiés, (nom du résident)"
    }
  },
  {
    "label": "402",
    "locale": {
      "CNzh": "喜好手工制作的(resident name)",
      "EUde": "(Einwohnername), großer Bastel-Fan",
      "EUen": "–(resident name), handicrafts lover",
      "EUes": "De la soñadora (resident name)",
      "EUfr": "(nom du résident) la bricoleuse",
      "EUit": "(resident name), esperta di fai da te",
      "EUnl": "(resident name), knutselvriend",
      "EUru": "Мастерица (resident name)",
      "JPja": "ハンドメイドだいすき　(resident name)",
      "KRko": "핸드메이드를 좋아하는 (resident name)",
      "TWzh": "最喜歡親手做東西的(resident name)",
      "USen": "–(resident name), handicrafts lover",
      "USes": "De la soñadora (resident name)",
      "USfr": "(nom du résident) la bricoleuse"
    }
  },
  {
    "label": "403",
    "locale": {
      "CNzh": "身在远方的(resident name)敬上",
      "EUde": "Viele Grüße, (Einwohnername)",
      "EUen": "Wishing you well, (resident name)",
      "EUes": "De tu nueva amiga, (resident name)",
      "EUfr": "Amicalement, (nom du résident)",
      "EUit": "Tanti auguri, (resident name)",
      "EUnl": "Veel plezier, (resident name)",
      "EUru": "Всех благ! (resident name)",
      "JPja": "とおいしまにすむ　(resident name)より",
      "KRko": "머나먼 섬에 사는 (resident name) 드림",
      "TWzh": "住在遙遠島嶼上的(resident name)　筆",
      "USen": "Wishing you well, (resident name)",
      "USes": "Tu amiga distante, (resident name)",
      "USfr": "Amicalement, (nom du résident)"
    }
  },
  {
    "label": "404",
    "locale": {
      "CNzh": "感觉真浪漫呀！(resident name)",
      "EUde": "Viel Vergnügen, (Einwohnername)",
      "EUen": "Good luck! –(resident name)",
      "EUes": "¡Suerte! (resident name)",
      "EUfr": "Bon bricolage ! - (nom du résident)",
      "EUit": "Bonne chance, (resident name)",
      "EUnl": "Groetjes, (resident name)",
      "EUru": "Удачи! (resident name)",
      "JPja": "なんだかロマンチックですね　(resident name)",
      "KRko": "왠지 로맨틱하네요! (resident name) 드림",
      "TWzh": "總覺得有些浪漫呢，(resident name)",
      "USen": "Good luck! –(resident name)",
      "USes": "¡Suerte! (resident name)",
      "USfr": "Bon bricolage! - (nom du résident)"
    }
  },
  {
    "label": "405",
    "locale": {
      "CNzh": "身在天涯的(resident name)敬上",
      "EUde": "Frohes Schaffen, (Einwohnername)",
      "EUen": "Wishing you well, (resident name)",
      "EUes": "En la distancia, (resident name)",
      "EUfr": "Amitiés sincères, (nom du résident)",
      "EUit": "Buon divertimento, (resident name)",
      "EUnl": "Geniet ervan, (resident name)",
      "EUru": "Всего хорошего! (resident name)",
      "JPja": "どこかのしまの　(resident name)より",
      "KRko": "어떤 섬에 사는 (resident name) 드림",
      "TWzh": "某座島上的(resident name)　筆",
      "USen": "Wishing you well, (resident name)",
      "USes": "En la distancia, (resident name)",
      "USfr": "Amitiés sincères, (nom du résident)"
    }
  },
  {
    "label": "501",
    "locale": {
      "CNzh": "只要有一面镜子，\n整理仪容的时候就会非常方便呢。\n我在里面放上了制作精美镜子的方法，\n请你也试着做做看吧。\n愿你能善加使用这面镜子，\n成为你心目中的自己。",
      "EUde": "Die besten Ideen kommen einem\noft unerwartet. Dieser Spiegel hier\nzum Beispiel. Vielleicht gefällt er\ndir ja genauso gut wie mir. Etwas\nSelbstreflexion ist nie verkehrt,\nauf welcher Insel man auch wohnt.",
      "EUen": "Sometimes good ideas come from\nunexpected places. I came up with\na new way of crafting a mirror that\nI hope works just as well for you.\nWhoever and wherever you are, we\ncan all use some quiet reflection.",
      "EUes": "Todo el mundo tiene un espejito\nen casa. He metido aquí dentro\nlos detalles para crear un espejo\nmaravilloso. Espero que te sirvan\ny que te guste el resultado.",
      "EUfr": "Parfois, les bonnes idées nous\nviennent par surprise. J'ai eu celle\nd'élaborer un plan de miroir et\nj'espère que qui que tu sois, où\nque tu sois, il te sera utile.",
      "EUit": "A volte le buone idee arrivano nei\nmomenti più inaspettati. Questo è\nun nuovo modo per realizzare uno\nspecchio. Spero che, dovunque tu\nsia, possa esserti utile per qualche\nbel momento di riflessione.",
      "EUnl": "Soms komt een goed idee uit een\nonverwachte hoek. Ik heb nieuwe\nmanier bedacht om spiegels te\nmaken en ik hoop dat die ook voor\njou werkt! Iedereen kan wel een\nmooie spiegel gebruiken.",
      "EUru": "Порой классные идеи приходят\nочень неожиданно. Я придумала\nновый способ сделать зеркало.\nНадеюсь, ты им воспользуешься.\nНе знаю, как ты выглядишь, но\nуверена, что зеркало тебе нужно!",
      "JPja": "かがみが　ひとつあると、みだしなみを\nととのえるのに　すごくべんりなんですよ。\nステキなかがみの　つくりかたを\nいれておくので　つくってみてくださいね。\nかがみをつかって　いまのイメージに\nピッタリのあなたに　なれますように。",
      "KRko": "거울이 하나 있으면 매무새를\n정리하기가 참 편하지 않나요?\n아주 근사한 거울 제작법을\n함께 보내드리니 만들어보세요.\n거울을 사용해서 당신이 원하는\n모습을 꾸며 보세요.",
      "TWzh": "只要有鏡子就能整理自己的儀容，\n非常方便呢。\n我也在這個瓶子裡放了鏡子的製作方法，\n請一定要試著做做看喔。\n希望你能用鏡子打扮成\n最適合自己的造型。",
      "USen": "Sometimes good ideas come from\nunexpected places. I came up with\na new way of crafting a mirror that\nI hope works just as well for you.\nWhoever and wherever you are, we\ncan all use some quiet reflection.",
      "USes": "A veces mirarse al espejo es bueno\npara facilitar la introspección...\nTe mando los detalles para que\npuedas crear un espejo para tus\nfuturas reflexiones.",
      "USfr": "Parfois, les bonnes idées nous\nviennent par surprise. J'ai eu celle\nd'élaborer un plan de miroir et\nj'espère que qui que tu sois, où\nque tu sois, il te sera utile."
    }
  }
]