﻿[
  {
    "label": "001",
    "locale": {
      "CNzh": "你还好吗？(nickname)！",
      "EUde": "(Spitzname), alte Sportskanone!",
      "EUen": "To stone-abs (nickname),",
      "EUes": "Muy molón (nickname):",
      "EUfr": "(surnom) le généreux,",
      "EUit": "Uuuh, (nickname)!",
      "EUnl": "Tik hem aan, (nickname)!",
      "EUru": "Физкульт-привет, (nickname)!",
      "JPja": "げんきかー？　(nickname)！",
      "KRko": "안녕－? (nickname)아!",
      "TWzh": "你過得好嗎～？(nickname)！",
      "USen": "To stone-abs (nickname),",
      "USes": "Genial (nickname):",
      "USfr": "(surnom) le généreux,"
    }
  },
  {
    "label": "002",
    "locale": {
      "CNzh": "嘿！(nickname)！",
      "EUde": "Hey, (Spitzname)!",
      "EUen": "Hey, (nickname)!",
      "EUes": "¡Eh, (nickname)!",
      "EUfr": "Yo, (surnom) !",
      "EUit": "Ehi, (nickname)!",
      "EUnl": "Hé, (nickname)!",
      "EUru": "Йо, (nickname)!",
      "JPja": "よお！　(nickname)！",
      "KRko": "여어! (nickname)!",
      "TWzh": "嗨！(nickname)！",
      "USen": "Hey, (nickname)!",
      "USes": "¡Ey, (nickname)!",
      "USfr": "Yo, (surnom)!"
    }
  },
  {
    "label": "003",
    "locale": {
      "CNzh": "给俯卧撑迷(nickname)",
      "EUde": "Hallo (Spitzname)!",
      "EUen": "Yo, push-up partner (nickname),",
      "EUes": "Galáctico (nickname):",
      "EUfr": "(surnom), mon p'tit gars !",
      "EUit": "Buone flessioni, (nickname)!",
      "EUnl": "Yo, krachtpatser (nickname),",
      "EUru": "Салют, (nickname)!",
      "JPja": "うでたてマニアの　(nickname)へ",
      "KRko": "팔 굽혀 펴기는 (nickname)!",
      "TWzh": "給熱愛伏地挺身的(nickname)",
      "USen": "Yo, push-up partner (nickname),",
      "USes": "Ese (nickname):",
      "USfr": "(surnom), mon chum!"
    }
  },
  {
    "label": "004",
    "locale": {
      "CNzh": "给肌肉酸痛的(nickname)",
      "EUde": "Hey ho, (Spitzname)!",
      "EUen": "To mega-delts (nickname),",
      "EUes": "Musculado (nickname):",
      "EUfr": "Admirable (surnom),",
      "EUit": "Muscolosissimo (nickname)...",
      "EUnl": "Mede-spierbonk (nickname),",
      "EUru": "Как здоровье, (nickname)?!",
      "JPja": "キンニクつうの　(nickname)へ",
      "KRko": "운동 친구 (nickname)에게",
      "TWzh": "給肌肉痠痛的(nickname)",
      "USen": "To mega-delts (nickname),",
      "USes": "Fiera (nickname):",
      "USfr": "Admirable (surnom),"
    }
  },
  {
    "label": "005",
    "locale": {
      "CNzh": "给我的好对手(nickname)",
      "EUde": "(Spitzname), mein Rivale!",
      "EUen": "To my favorite rival, (nickname)!",
      "EUes": "Deportivo (nickname):",
      "EUfr": "Mon fidèle rival (surnom),",
      "EUit": "Al mio rivale (nickname).",
      "EUnl": "Mijn beste rivaal (nickname),",
      "EUru": "Кач-привет, (nickname)!",
      "JPja": "オイラのライバル　(nickname)へ",
      "KRko": "내 라이벌 (nickname)에게",
      "TWzh": "給我的好對手(nickname)",
      "USen": "To my favorite rival, (nickname)!",
      "USes": "Energético (nickname):",
      "USfr": "Mon fidèle rival (surnom),"
    }
  },
  {
    "label": "101",
    "locale": {
      "CNzh": "真心多谢你的礼物啦！\n我这就已经用上了哦！",
      "EUde": "Danke für dein Geschenk!\nIch finde es wirklich nützlich.",
      "EUen": "I've been finding all sorts of ways\nto use your present in my routines.",
      "EUes": "Estoy usando tu regalito a tope\ndurante los entrenos, crack.",
      "EUfr": "J'ai trouvé des tas de façons de\nfaire du sport avec ton cadeau.",
      "EUit": "Sto usando il tuo regalo in palestra\ntutti i giorni.",
      "EUnl": "Je cadeau komt op allerlei\nmanieren in mijn training van pas.",
      "EUru": "Твой подарок просто идеальный\nснаряд для тренировок.",
      "JPja": "プレゼント　マジ　サンキューな！\nさっそく　つかってるぞー。",
      "KRko": "선물 준 거 진짜 고맙다!\n바로 사용하고 있다구－!",
      "TWzh": "真的很謝謝你送我禮物！\n我馬上就拿來用啦──！",
      "USen": "I've been finding all sorts of ways\nto use your present in my routines.",
      "USes": "Estoy usando el regalo que me\nmandaste en mis entrenamientos.",
      "USfr": "J'ai trouvé des tas de façons de\nfaire du sport avec ton cadeau."
    }
  },
  {
    "label": "102",
    "locale": {
      "CNzh": "我收到你的礼物啦！\n好帅啊，谢啦！",
      "EUde": "Dein Geschenk war echt cool. Da\nwird ein Eisbeutel blass vor Neid!",
      "EUen": "Your present is cooler than an\nice-cold compress.",
      "EUes": "Tu detalle mola más que\nunas mancuernas de titanio.",
      "EUfr": "Merci pour ton cadeau. Il est\nsi chouette que ça m'effraie !",
      "EUit": "Per mille deltoidi, il tuo regalo mi\nha dato una carica extra!",
      "EUnl": "Je cadeau is nog cooler dan een\nijsbad na de sauna.",
      "EUru": "Твой подарок круче, чем гора, где\nя занимаюсь скалолазанием.",
      "JPja": "プレゼント、うけとったぞー！\nイカしてるな、サンキュー！",
      "KRko": "니가 보낸 선물 받았어－!\n멋지더라, 고마워－!",
      "TWzh": "我收到你的禮物了──！\n真的很帥耶，謝啦──！",
      "USen": "Your present is cooler than an\nice-cold compress.",
      "USes": "Tu detalle es más atómico que unas\npesas de titanio.",
      "USfr": "Merci pour ton cadeau. Il est\nsi cool que ça m'fait peur!"
    }
  },
  {
    "label": "103",
    "locale": {
      "CNzh": "多谢你的礼物！\n你的心意我全都了解啦！",
      "EUde": "Danke für dein Geschenk!\nEs hat mir super gefallen.",
      "EUen": "Thanks for the gift! I'm dedicating\nan entire day of jogging to you.",
      "EUes": "¡Para agradecerte el detalle voy\na dedicarte mi próximo esprint!",
      "EUfr": "Ton cadeau a bien atterri dans mes\nfilets, c'est gentil de penser à moi !",
      "EUit": "Grazie del regalo. Per sdebitarmi,\nti dedico l'allenamento di oggi.",
      "EUnl": "Bedankt voor je cadeau! Ik zal\ntijdens het joggen aan je denken.",
      "EUru": "Спасибо за подарок. Сегодня\nпосвящаю мою пробежку тебе!",
      "JPja": "プレゼント　サンキュー！\nオマエのキモチが　つたわってきたぞ！",
      "KRko": "선물 땡큐－!\n니 마음이 찐～하게 전해지더라!",
      "TWzh": "謝謝你送給我的禮物！\n我感受到你的心意了──！",
      "USen": "Thanks for the gift! I'm dedicating\nan entire day of jogging to you.",
      "USes": "¡Para agradecerte el detalle voy\na dedicarte mi siguiente maratón!",
      "USfr": "Ton cadeau a bien atterri dans mes\nfilets, c'est gentil de penser à moi!"
    }
  },
  {
    "label": "104",
    "locale": {
      "CNzh": "那么帅气的礼物，\n我真的可以收下吗？",
      "EUde": "Dein Geschenk ist klasse!\nWomit hab ich das verdient?",
      "EUen": "What a muscular gift! You really\nknow how to juice up arm day!",
      "EUes": "¡Qué detalle más atlético por tu\nparte! ¡Me has alegrado el día!",
      "EUfr": "Merci pour le cadeau, t'as parfois\nde drôles d'idées, tu sais ?",
      "EUit": "Grazie mille del regalo! È proprio\nforte... anzi, forzuto!",
      "EUnl": "Wat een strak cadeau! Ik sta er\nhelemaal van op spanning!",
      "EUru": "Мощный подарок! Ты умеешь меня\nзарядить энергией на весь день!",
      "JPja": "あの　イカしたプレゼント、\nもらっちゃって　いいのかー？",
      "KRko": "이렇게 멋진 선물을\n내가 받아도 되는 건지 모르겠네－",
      "TWzh": "我真的可以收下\n這麼帥的禮物嗎～？",
      "USen": "What a muscular gift! You really\nknow how to juice up arm day!",
      "USes": "¡Qué detalle tan atlético enviaste!\n¡Me alegraste el día!",
      "USfr": "Merci pour le cadeau, t'as parfois\nde drôles d'idées, tu sais?"
    }
  },
  {
    "label": "105",
    "locale": {
      "CNzh": "竟然会送礼物给我，\n这是某种挑战吗！？",
      "EUde": "Tolles Geschenk! Dir zu Ehren hab\nich grad 500 Push-ups gemacht.",
      "EUen": "I just did  fingertip push-ups\nin honor of your present!",
      "EUes": "¡Te he dedicado dos mil sentadillas\npor el detalle, crack!",
      "EUfr": "Si offrir des cadeaux était un sport,\ntu serais champion du monde !",
      "EUit": "Il tuo regalo mi ha dato la forza\ndi fare quattrocento flessioni extra.",
      "EUnl": "Je cadeau inspireerde me tot wel\nvijfhonderd vingeroefeningen!",
      "EUru": "Я сделал пятьсот скручиваний\nв твою честь!",
      "JPja": "オイラに　プレゼントなんて、\nなにかの　ちょうせんかー！",
      "KRko": "나한테 선물을 보내다니\n이거 도전장은 아니겠지?!",
      "TWzh": "你居然會送我禮物啊，\n感覺好像是挑戰書喔──！",
      "USen": "I just did  fingertip push-ups\nin honor of your present!",
      "USes": "¡Te dediqué dos mil sentadillas\npor el detalle!",
      "USfr": "Si offrir des cadeaux était un sport,\ntu serais champion du monde!"
    }
  },
  {
    "label": "201",
    "locale": {
      "CNzh": "偶尔在锻炼的间歇，\n像这样写一张心意卡，\n感觉也不错呢！",
      "EUde": "Das wollte ich dir unbedingt sagen.\nAnsonsten hab ich aber nicht so\nviel zu berichten.",
      "EUen": "The best part? Writing this note\nmeans today I'm toning up my word\nmuscles AND my muscle-muscles!",
      "EUes": "Te escribo este mensaje para\nejercitar las manos, ¡que ya las\ntenía un poco olvidadas!",
      "EUfr": "En plus, ça me muscle les doigts\nd'écrire des cartes, alors hésite\npas à recommencer, hein !",
      "EUit": "Scrivere aiuta a sviluppare tanti\nmuscoli di tutto il corpo: zampe,\ntronco e cervello!",
      "EUnl": "En met het schrijven van dit\nberichtje kan ik mijn schrijfspieren\nén mijn denkspieren trainen!",
      "EUru": "Как дополнение к тренировке рук,\nпишу это письмо и прокачиваю\nпальцы.",
      "JPja": "トレーニングの　あいまに、\nこうやって　メッセージカードをかくのも\nたまには　いいもんだな！",
      "KRko": "운동하다가 짬 내서\n이렇게 메시지 카드를 쓰는 것도\n가끔은 좋은 것 같아!",
      "TWzh": "偶爾利用訓練的空檔，\n像這樣寫寫心意卡，\n好像也挺不錯的耶！",
      "USen": "The best part? Writing this note\nmeans today I'm toning up my word\nmuscles AND my muscle-muscles!",
      "USes": "Es agradable escribir mensajes\nde vez en cuando, ayuda a tonificar\nlos músculos de las manos.",
      "USfr": "En plus, ça me muscle les doigts\nd'écrire des cartes, alors hésite\npas à recommencer, hein!"
    }
  },
  {
    "label": "202",
    "locale": {
      "CNzh": "我很喜欢在\n肌肉酸痛的日子，让身体休息，\n安安静静地写一张心意卡哦。",
      "EUde": "Ich hab so Muskelkater, dass ich\nden Stift kaum halten kann, aber\nich wollte dir unbedingt danken.",
      "EUen": "My body is so sore from working\nout that I can barely hold this pen,\nbut I had to say thanks!",
      "EUes": "Con tantas agujetas apenas puedo\nsujetar el boli, pero escribo esto\npara agradecerte el detalle.",
      "EUfr": "J'ai pris mon stylo le plus lourd\npour te répondre. Toute occasion\nest bonne pour s'entraîner !",
      "EUit": "Ho ancora tutti i muscoli indolenziti\ndall'allenamento, ma dovevo per\nforza scriverti e ringraziarti!",
      "EUnl": "Ik heb zoveel spierpijn dat ik mijn\npen zowat niet kan vasthouden,\nmaar ik wilde je toch bedanken!",
      "EUru": "Все руки болят после вчерашней\nтренировки, еле ручку держу, но\nя обязан тебя поблагодарить.",
      "JPja": "キンニクつうのひは　からだをやすめて\nしずかに　メッセージカードをかくのも\nオイラ　すきだなー。",
      "KRko": "근육통이 있을 땐 운동을 쉬고\n차분하게 메시지 카드 쓰는 것도\n사실 좋아하거든－",
      "TWzh": "我滿喜歡在肌肉痠痛的日子裡，\n讓身體好好休息一下，\n安靜地書寫心意卡喔。",
      "USen": "My body is so sore from working\nout that I can barely hold this pen,\nbut I had to say thanks!",
      "USes": "No sabía que escribir notas fuera\nun buen ejercicio para estirar\ndespués del entrenamiento.",
      "USfr": "J'ai pris mon stylo le plus lourd\npour te répondre. Toute occasion\nest bonne pour s'entraîner!"
    }
  },
  {
    "label": "203",
    "locale": {
      "CNzh": "一边想着会读到这些的你，\n一边给你写信，\n感觉很叫人兴奋呢！",
      "EUde": "Ich habe mich mehr gefreut als\nmancher Profi über den Gewinn\neiner Meisterschaft!",
      "EUen": "It's just too bad I don't know\nenough muscular words say thanks.\nYou really know how to gift!",
      "EUes": "Aprovecho esta tarjeta para darte\nmis más tonificadas y musculadas\ngracias por el detalle.",
      "EUfr": "Les mots me manquent... Faut dire\nqu'à force de le soulever, mon dico\na les pages collées par la sueur.",
      "EUit": "Siamo una bella coppia: tu sai fare\nregali azzeccati, mentre io so fare\nmille flessioni su una zampa sola.",
      "EUnl": "Ik ken helaas niet genoeg kracht-\ntermen om je mee te bedanken.\nWat een topcadeau!",
      "EUru": "Вот это подарок! Жаль, что я не\nзнаю каких-то мегамощных слов\nблагодарности.",
      "JPja": "よんでくれる　オマエのことを\nかんがえながら　メッセージかくのも\nなんかテンション　あがるなー！",
      "KRko": "니가 카드 읽을 걸 상상하면서\n메시지를 쓰니까\n왠지 기분이 좋더라구－",
      "TWzh": "邊寫邊想像\n你讀著心意卡的樣子，\n感覺心情都亢奮起來啦──！",
      "USen": "It's just too bad I don't know\nenough muscular words say thanks.\nYou really know how to gift!",
      "USes": "¡Te doy las más atléticas gracias\nen esta nota!",
      "USfr": "Mon dictionnaire est taché de\nsueur à force de chercher les bons\nmots à utiliser pour cette carte."
    }
  },
  {
    "label": "204",
    "locale": {
      "CNzh": "我想了想该写些什么，\n眨眼之间就过去了好久，\n竟然都已经晚上了！",
      "EUde": "Ich hab so lang überlegt, was ich\ndir Nettes schreiben könnte, dass\nes mittlerweile dunkel ist...",
      "EUen": "Well, I've been staring at this paper\nall day trying to figure out how to\nsay that. It's dark now.",
      "EUes": "Llevo tanto tiempo pensando\nen cómo darte las gracias, que se\nme ha hecho de noche...",
      "EUfr": "J'ai eu tellement de mal à trouver\nquoi écrire que j'en ai oublié de\nm'entraîner. Tu te rends compte !",
      "EUit": "Per scrivere questo messaggio\nho dovuto saltare l'allenamento\ndi oggi. Dovrò recuperare domani!",
      "EUnl": "Ik heb dus de hele dag zitten\ndenken hoe ik dat moest zeggen.\nEn nu is het donker.",
      "EUru": "Весь день смотрел на листок, но\nтак и не придумал, что написать.\nА теперь уже темно.",
      "JPja": "なにをかこうか　かんがえてたら\nあっというまに　じかんが　すぎて、\nよるに　なってたぞー！",
      "KRko": "뭘 쓸까 고민하다 보니까\n순식간에 시간이 가버려서\n밤이 됐지 뭐냐－!",
      "TWzh": "我只是想了一下\n該在心意卡上寫些什麼，\n結果一轉眼就晚上了──！",
      "USen": "Well, I've been staring at this paper\nall day trying to figure out how to\nsay that. It's dark now.",
      "USes": "Llevo tanto tiempo pensando\nen cómo darte las gracias, que se\nme hizo de noche...",
      "USfr": "J'ai eu tellement de mal à trouver\nquoi écrire que j'en ai oublié de\nm'entraîner. Tu te rends compte!"
    }
  },
  {
    "label": "205",
    "locale": {
      "CNzh": "正式地给你写回信，\n意外地很花费力气，\n我的精神都肌肉酸痛了！",
      "EUde": "Um keinen Schreibkrampf zu\nriskieren, halte ich meine\nDankeskarte bewusst kurz.",
      "EUen": "Is my brain supposed to get sore\nfrom writing that? I mean, it's a\nmuscle, so I guess so. Ow!",
      "EUes": "Ya verás las agujetas cerebrales\nque voy a tener después de\nescribir esto... Mola.",
      "EUfr": "À force de chercher comment te\nrépondre, je crois que je vais avoir\ndes courbatures à la tête...",
      "EUit": "Mi fa già male la materia grigia.\nÈ normale, vero? Beh, dopotutto\nè pur sempre un muscolo, no?",
      "EUnl": "Kun je van het schrijven ook spier-\npijn aan je hoofd krijgen? Als dat\nzo is, heb ik daar last van. Au!",
      "EUru": "Мозг - это же тоже мышца? А то\nон у меня уже болит от\nнапряжения. Не привык писать!",
      "JPja": "あらためて　へんじをかこうとしたら\nおもわず、ちからがはいって\nぜんしんが　キンニクツウだぞー！",
      "KRko": "마음 먹고 답장을 쓰려고 했더니\n무심코 몸에 힘이 팍! 들어가서\n온몸에 근육통이 생겼지 뭐냐－!",
      "TWzh": "我想要好好寫回信給你的時候，\n不知不覺用力過了頭，\n現在全身肌肉都好痠痛啊～！",
      "USen": "Is my brain supposed to get sore\nfrom writing that? I mean, it's a\nmuscle, so I guess so. Ow!",
      "USes": "¿Será posible que el cerebro se\npuede entrenar al escribir notas?",
      "USfr": "À force de chercher comment te\nrépondre, je crois que je vais avoir\ndes courbatures à la tête..."
    }
  },
  {
    "label": "301",
    "locale": {
      "CNzh": "那就回头再见啦～！",
      "EUde": "Immer genug Wasser trinken, ja?",
      "EUen": "Anyway, stay hydrated!",
      "EUes": "¡No te olvides de hidratarte bien!",
      "EUfr": "Oublie pas de t'hydrater, surtout.",
      "EUit": "Mi raccomando, tieniti in forma!",
      "EUnl": "Nou, goed blijven drinken, hè?!",
      "EUru": "Не забывай пить воду!",
      "JPja": "じゃあ、またな～！",
      "KRko": "그럼 다음에 또 보자－!",
      "TWzh": "那我們下次見啦──！",
      "USen": "Anyway, stay hydrated!",
      "USes": "¡No olvides de hidratarte bien!",
      "USfr": "Oublie pas de t'hydrater, surtout."
    }
  },
  {
    "label": "302",
    "locale": {
      "CNzh": "锻炼可不能偷懒哦～！",
      "EUde": "Sieh zu, dass du fit bleibst!",
      "EUen": "Well, don't skip leg day!",
      "EUes": "¡No racanees con el entreno!",
      "EUfr": "Le sport ? J'adore !",
      "EUit": "Ricordati di bere tanta acqua!",
      "EUnl": "Benendag niet overslaan, hè!",
      "EUru": "Не пропускай день ног!",
      "JPja": "キントレ　さぼるなよー！",
      "KRko": "운동 빼먹으면 안 된다－!",
      "TWzh": "健身的時候不要偷懶喔──！",
      "USen": "Well, don't skip leg day!",
      "USes": "¡Come frutas y verduras!",
      "USfr": "Le sport? J'adore!"
    }
  },
  {
    "label": "303",
    "locale": {
      "CNzh": "要再寄卡片给我哦～！",
      "EUde": "Schick mir noch mehr Karten, ja?",
      "EUen": "Send more letters, alright?",
      "EUes": "¡Espero más tarjetas tuyas!",
      "EUfr": "J'aime bien recevoir du courrier !",
      "EUit": "Ci sentiamo prestissimo!",
      "EUnl": "Blijf je me schrijven?",
      "EUru": "Пиши еще, ладно?",
      "JPja": "また　カード　くれよなー！",
      "KRko": "또 카드 보내주라－!",
      "TWzh": "要再寫卡片給我喔──！",
      "USen": "Send more letters, alright?",
      "USes": "¡Espero más tarjetas tuyas!",
      "USfr": "J'aime bien recevoir du courrier!"
    }
  },
  {
    "label": "304",
    "locale": {
      "CNzh": "下次再一起玩吧～！",
      "EUde": "Lass uns bald mal joggen gehen!",
      "EUen": "Let's go jogging soon!",
      "EUes": "¡Tenemos que quedar para correr!",
      "EUfr": "On se voit bientôt !",
      "EUit": "Andiamo a correre qualche volta?",
      "EUnl": "Laten we eens samen gaan joggen!",
      "EUru": "Увидимся на пробежке!",
      "JPja": "また　あそぼうなー！",
      "KRko": "또 같이 놀자－!",
      "TWzh": "有機會再一起玩吧──！",
      "USen": "Let's go jogging soon!",
      "USes": "¡Luego salimos a correr!",
      "USfr": "On se voit bientôt!"
    }
  },
  {
    "label": "305",
    "locale": {
      "CNzh": "下次让你看看我的肌肉！",
      "EUde": "Bleib schön im Training!",
      "EUen": "Keep working that core!",
      "EUes": "¡Refuerza los abdominales!",
      "EUfr": "Oublie pas ton entraînement !",
      "EUit": "Non dimenticare di fare gli squat!",
      "EUnl": "Hou die kern sterk!",
      "EUru": "Качай пресс!",
      "JPja": "こんど　キンニク　みせてやるよ！",
      "KRko": "다음에 만나면 근육 자랑 좀 해!",
      "TWzh": "下次就讓你瞧瞧我的肌肉！",
      "USen": "Keep working that core!",
      "USes": "¡Salud y mancuernas!",
      "USfr": "Oublie pas ton entraînement!"
    }
  },
  {
    "label": "401",
    "locale": {
      "CNzh": "运动员(resident name)",
      "EUde": "Bis die Tage, (Einwohnername)",
      "EUen": "Yours in soreness, (resident name)",
      "EUes": "Entrenadamente, (resident name)",
      "EUfr": "(nom du résident) et ses muscles",
      "EUit": "Sua Allenosità, (resident name)",
      "EUnl": "Hou je taai! (resident name)",
      "EUru": "Твой качок (resident name)",
      "JPja": "アスリートの　(resident name)より",
      "KRko": "운동선수 (resident name)이",
      "TWzh": "職業運動員(resident name)　筆",
      "USen": "Yours in soreness, (resident name)",
      "USes": "Entrenadamente, (resident name)",
      "USfr": "(nom du résident) et ses muscles"
    }
  },
  {
    "label": "402",
    "locale": {
      "CNzh": "是我(resident name)哦！",
      "EUde": "Bis dann, (Einwohnername)",
      "EUen": "Buds, (resident name)",
      "EUes": "Sin sudores, (resident name)",
      "EUfr": "Ton pote (nom du résident)",
      "EUit": "Con amicizia, (resident name)",
      "EUnl": "Geef nooit op! (resident name)",
      "EUru": "Жму руку! (resident name)",
      "JPja": "(resident name)だぜ！",
      "KRko": "(resident name) 보냄!",
      "TWzh": "我是(resident name)啦！",
      "USen": "Buds, (resident name)",
      "USes": "¡A trotar! (resident name)",
      "USfr": "Ton chum (nom du résident)"
    }
  },
  {
    "label": "403",
    "locale": {
      "CNzh": "是(resident name)哦！",
      "EUde": "Schöne Grüße, (Einwohnername)",
      "EUen": "–(resident name)",
      "EUes": "Anaeróbicamente, (resident name)",
      "EUfr": "(nom du résident)",
      "EUit": "(resident name)",
      "EUnl": "(resident name)",
      "EUru": "(resident name)",
      "JPja": "(resident name)だぞー",
      "KRko": "(resident name) 씀",
      "TWzh": "我是(resident name)喔～",
      "USen": "–(resident name)",
      "USes": "(resident name)",
      "USfr": "(nom du résident)"
    }
  },
  {
    "label": "404",
    "locale": {
      "CNzh": "放马过来！(resident name)",
      "EUde": "Man sieht sich, (Einwohnername)",
      "EUen": "In it to win it, (resident name)",
      "EUes": "Olímpicamente, (resident name)",
      "EUfr": "En sueur, (nom du résident)",
      "EUit": "Il tuo competitivo (resident name)",
      "EUnl": "Blijf winnen! (resident name)",
      "EUru": "Мы победим! (resident name)",
      "JPja": "ばっちこーい！　(resident name)より",
      "KRko": "다 덤벼라－! (resident name) 보냄",
      "TWzh": "放馬過來吧！(resident name)　筆",
      "USen": "In it to win it, (resident name)",
      "USes": "¡Fuerza! (resident name)",
      "USfr": "En sueur, (nom du résident)"
    }
  },
  {
    "label": "405",
    "locale": {
      "CNzh": "是肌肉饱满的(resident name)哦！",
      "EUde": "Dein Muskelpaket (Einwohnername)",
      "EUen": "Rippedly yours, (resident name)",
      "EUes": "Abdominalmente, (resident name)",
      "EUfr": "(nom du résident) le baraqué",
      "EUit": "Ginnicamente tuo, (resident name)",
      "EUnl": "Krachtige groet, (resident name)!",
      "EUru": "Ура качкам! (resident name)",
      "JPja": "ムキムキの　(resident name)だ－っ！",
      "KRko": "근육맨 (resident name)이다～!",
      "TWzh": "我是擁有結實肌肉的(resident name)！",
      "USen": "Rippedly yours, (resident name)",
      "USes": "¡Felices trotes! (resident name)",
      "USfr": "(nom du résident) le baraqué"
    }
  }
]