﻿[
  {
    "label": "001",
    "attribute": "0x00000C0100000000",
    "locale": {
      "CNzh": "你也是来找\n的吗？。",
      "EUde": "Bist du hier, um \nzu treffen? Ich auch, (Floskel)!",
      "EUen": "You here to see\n?\nMe too, !",
      "EUes": "¿Has venido a ver a \n?\n¡Yo también, !",
      "EUfr": "T'es là pour discuter avec  ? J'étais là avant, alors tu patienteras !",
      "EUit": "Sei qui per ?\nAnch'io, !",
      "EUnl": "Ben je hier voor ? Ik ook, !",
      "EUru": "Привет! Ты к \nпришел? Я тоже! !",
      "JPja": "オメェも　に\n会いに来たのかい、",
      "KRko": "너도 \n만나러 왔냐? ?",
      "TWzh": "你也是來找\n的嗎？。",
      "USen": "You here to see\n?\nMe too, !",
      "USes": "¿Vienes a ver a \n?\n¡Yo también, !",
      "USfr": "T'es là pour discuter avec ? J'étais là avant, alors tu patienteras!"
    }
  },
  {
    "label": "002",
    "attribute": "0x00000C0100000000",
    "locale": {
      "CNzh": "真巧啊！\n你知道我在这里吗？。",
      "EUde": "Das ist ja mal ein Zufall!\nHast du gewusst, dass ich hier bin?",
      "EUen": "Well now, ain't that a coincidence!\nDidja know I was here?",
      "EUes": "Anda, qué casualidad.\n¿Sabías que estaba aquí?",
      "EUfr": "Tiens, tiens, quelle coïncidence !\nTu savais que je viendrais ?",
      "EUit": "Beh, ma che coincidenza! Per caso\nsapevi che ero qui?",
      "EUnl": "Nou, dat is toevallig! Wist je dat ik\nhier was?",
      "EUru": "Ну надо же, какая встреча!\nТы что, знал, что я здесь?",
      "JPja": "奇遇だな！\nオレが来てること　知ってたのか？　",
      "KRko": "이런 데서 다 만나다니!\n나 여기 있는 줄 알고 왔어? ?",
      "TWzh": "真巧啊！\n你早就知道我來了嗎？。",
      "USen": "Well now, ain't that a coincidence!\nDidja know I was here?",
      "USes": "Anda, qué casualidad.\n¿Sabías que estaba aquí?",
      "USfr": "Tiens, tiens, quelle coïncidence!\nTu savais que je viendrais?"
    }
  },
  {
    "label": "003",
    "attribute": "0x00000C0100000000",
    "locale": {
      "CNzh": "我也刚好来\n见见呢，啊哈哈哈！",
      "EUde": "Oh, ich besuche \nauch gerade. Große Geister denken\neben ähnlich! Bwa ha ha ha!",
      "EUen": "Oh, hey! I came to see\n too.\nGreat minds think alike! Gahaha!",
      "EUes": "¡Hola! Yo también he venido a ver\na . Estamos sincronizados, ¡ja, ja, ja!",
      "EUfr": "C'est marrant, je suis aussi venu voir\n. Les grands esprits se rencontrent, mon cher !",
      "EUit": "Oh, ehi! Ma pensa, anche tu qui da . Le grandi menti si riconoscono anche così! AHAHAH!",
      "EUnl": "O, hoi! Het leek mij ook leuk om naar  te gaan. Twee zielen, één gedachte! Bwahaha!",
      "EUru": "О, привет! Я тоже к \nпришел. Гении мыслят одинаково!\nБу-га-га!",
      "JPja": "オレも　の顔を\n拝みに来てたのさ、がーっはっは！",
      "KRko": "나도  얼굴 좀\n구경하러 왔지, 으－하하핫!",
      "TWzh": "我也是來\n見一面的啦，哇～哈哈！",
      "USen": "Oh, hey! I came to see\n too.\nGreat minds think alike! Gahaha!",
      "USes": "¡Hola! Yo también vine a ver a\n. Los genios\npensamos igual, ¡ja, ja, ja!",
      "USfr": "C'est drôle, je suis aussi venu voir\n. Les grands esprits se rencontrent, mon cher!"
    }
  }
]