﻿[
  {
    "label": "101",
    "attribute": "0x00000C0100000000",
    "locale": {
      "CNzh": "我准备好啦！\n你是要说什么来着？。",
      "EUde": "Na? Was wolltest du denn mit\nmir bequatschen, (Floskel)?",
      "EUen": "I'm ready whenever! What did you\nneed, ?",
      "EUes": "Dime, ¿qué querías, ?",
      "EUfr": "Debout, on est mieux qu'assis !\nC'était pour quoi,  ?",
      "EUit": "Eccomi qua! Che cosa ti serve,\n?",
      "EUnl": "Ik ben er helemaal klaar voor! Wat\nwilde je, ?",
      "EUru": "Я готова! Что ты хотел?\n!",
      "JPja": "準備オッケー！\nなんの用だったかな？　",
      "KRko": "준비 오케이!\n무슨 얘기 하려고 했어? ?",
      "TWzh": "我好啦！\n你剛才找我有什麼事啊？。",
      "USen": "I'm ready whenever! What did you\nneed, ?",
      "USes": "Dime, ¿qué querías, ?",
      "USfr": "Debout, on est mieux qu'assis!\nC'était pour quoi, ?"
    }
  },
  {
    "label": "102",
    "attribute": "0x00000C0100000000",
    "locale": {
      "CNzh": "那么，你刚才想说什么呀～？。",
      "EUde": "Hm... Was wolltest du noch mal,\n(Floskel)?",
      "EUen": "So, what is it again, ?",
      "EUes": "Dime, .",
      "EUfr": "Donc, de quoi s'agissait-il,  ?",
      "EUit": "Allora, cos'è che volevi,\n⁠?",
      "EUnl": "Dusss, wat zei je nou precies, ?",
      "EUru": "Ну, что случилось?\n!",
      "JPja": "それで、なんだったっけ～？　",
      "KRko": "음～ 무슨 얘기 중이었지～? ?",
      "TWzh": "然後呢？剛才你想說什麼～？。",
      "USen": "So, what is it again, ?",
      "USes": "Dime, .",
      "USfr": "Donc, de quoi s'agissait-il, ?"
    }
  },
  {
    "label": "103",
    "attribute": "0x00000C0100000000",
    "locale": {
      "CNzh": "那么，你找我是什么事呀～？。",
      "EUde": "Du wolltest mit mir plaudern,\n(Floskel)?",
      "EUen": "So, did you need something from\nme, ?",
      "EUes": "¿Qué quieres, guapi? Pide por\nesa boquita, .",
      "EUfr": "Alors, tu voulais me demander\nquelque chose,  ?",
      "EUit": "Allora, volevi chiedermi qualcosa,\n?",
      "EUnl": "Oké, had je iets van me nodig, ?",
      "EUru": "Так, ты что-то хотел?\n!",
      "JPja": "で、アタイに　なんか用～？　",
      "KRko": "나한테 무슨 말 하려구～? ?",
      "TWzh": "是說，你找我有什麼事嗎～？。",
      "USen": "So, did you need something from\nme, ?",
      "USes": "¿Qué quieres, guapi? Soy toda oídos\ny talento, .",
      "USfr": "Alors, tu voulais me demander\nquelque chose, ?"
    }
  },
  {
    "label": "201",
    "attribute": "0x0000000000000000",
    "locale": {
      "CNzh": "",
      "EUde": "",
      "EUen": "",
      "EUes": "",
      "EUfr": "",
      "EUit": "",
      "EUnl": "",
      "EUru": "",
      "JPja": "",
      "KRko": "",
      "TWzh": "",
      "USen": "",
      "USes": "",
      "USfr": ""
    }
  },
  {
    "label": "201_01",
    "attribute": "0x0000000000000000",
    "locale": {
      "CNzh": "哈罗～！！\n我站起来，你等我一下呀～。",
      "EUde": "(Spitzname)! Kleines Momentchen! Lass mich erst aufstehen, (Floskel).",
      "EUen": "(nickname)! Hang on one\nsec and I'll stand up, .",
      "EUes": "Espera, (nickname), que me levanto, que si no es como raro.",
      "EUfr": "(surnom) ! Attends, je me lève, .",
      "EUit": "Ah, (nickname)! Aspetta un attimo che mi alzo, .",
      "EUnl": "(nickname)! Wacht, laat me even overeind komen, .",
      "EUru": "(nickname)! Сейчас\nя встану! !",
      "JPja": "ヤッホ～！　！\n立つから　ちょっと待って～？　",
      "KRko": "안녕～! 아!\n일어설 테니까 잠깐만～! !",
      "TWzh": "嗨嗨～！！\n我先站起來，等我一下唷～。",
      "USen": "(nickname)! Hang on one\nsec and I'll stand up, .",
      "USes": "Espera, (nickname), me levanto, que si no es como raro.",
      "USfr": "(surnom)! Attends, je me lève, ."
    }
  },
  {
    "label": "201_02",
    "attribute": "0x0000000000000000",
    "locale": {
      "CNzh": "这不是嘛～\n怎么啦？……啊，我站起来！。",
      "EUde": "Hallöchen, (Spitzname)!\nHui, Moment! Ich sitze doch noch.",
      "EUen": "Hey, (nickname)! Oh?\nI'll stand up, .",
      "EUes": "¡Ey, (nickname)! Espera, espera, que por ti me levanto y todo, .",
      "EUfr": "Attattatta, (surnom) ! Je peux quand même me lever, .",
      "EUit": "Ciao, (nickname)! Dammi un secondo che mi alzo, .",
      "EUnl": "Hé hoi, (nickname)! Wat? Ik ga er even bij staan, .",
      "EUru": "А, это ты, (nickname)! Что\nтам? Сейчас я встану. !",
      "JPja": "じゃん～\nどうかした？　・・・あ、立つね！　",
      "KRko": "이다～!\n무슨 일이야? ...앗!\n일단 일어날게! !",
      "TWzh": "這不是嗎～？\n怎麼啦？……啊，我先站起來！。",
      "USen": "Hey, (nickname)! Oh?\nI'll stand up, .",
      "USes": "¡Ey, (nickname)! Espera, espera, que por ti me levanto y todo, .",
      "USfr": "Attattatta, (surnom)! Je peux quand même me lever, ."
    }
  },
  {
    "label": "201_03",
    "attribute": "0x0000000000000000",
    "locale": {
      "CNzh": "嗯？你怎么啦？\n啊，我站起来听比较好对吧！。",
      "EUde": "Na, alles im Trend? Ach, lass mich\nganz kurz aufstehen, (Floskel).",
      "EUen": "What's trending? You know what,\nlet me stand up, .",
      "EUes": "¡Espera, que me voy a levantar!\nQueda como feo que hablemos\nasí, ¿no, ?",
      "EUfr": "Tu croques la mode par les deux\nbouts ? À propos de « debout »,\n...",
      "EUit": "Come butta? Anzi, sai cosa? Prima\nmi alzo, .",
      "EUnl": "Wat is er aan het handje? Oké, ik ga eerst even rechtop staan, .",
      "EUru": "Что нового? Хотя, знаешь, дай-ка\nя встану. !",
      "JPja": "んんっ　どうしたの？\nあ、立って聞いたほうがいいよね！　",
      "KRko": "으응? 무슨 일이야?\n아! 일어나서 얘기하자! !",
      "TWzh": "嗯？怎麼啦？\n啊，我站起來聽比較好吧！。",
      "USen": "What's trending? You know what,\nlet me stand up, .",
      "USes": "¡Espera, que me voy a levantar!\nEstá como feíto que hablemos así,\n¿no, ?",
      "USfr": "Tu croques la mode par les deux\nbouts? À propos de « debout »,\n..."
    }
  },
  {
    "label": "202",
    "attribute": "0x0000000000000000",
    "locale": {
      "CNzh": "",
      "EUde": "",
      "EUen": "",
      "EUes": "",
      "EUfr": "",
      "EUit": "",
      "EUnl": "",
      "EUru": "",
      "JPja": "",
      "KRko": "",
      "TWzh": "",
      "USen": "",
      "USes": "",
      "USfr": ""
    }
  },
  {
    "label": "202_01",
    "attribute": "0x0000000000000000",
    "locale": {
      "CNzh": "哈罗～！！\n我站起来，你等我一下呀～。",
      "EUde": "Ah, du bist's, (Spitzname)! Sekunde mal, für dich steh ich natürlich sofort auf, (Floskel)!",
      "EUen": "It's (nickname)! I'll stand\nup. One sec, .",
      "EUes": "¡Eh, (nickname)! Como que mejor me levanto, ¿no?",
      "EUfr": "Me dites pas que c'est (surnom) ! Attends, je peux quand même me lever, .",
      "EUit": "Ah, sei tu, (nickname)! Mi alzo subito, solo un secondo, .",
      "EUnl": "Hé, daar heb je (nickname)! Daar kom ik even voor overeind. Momentje, .",
      "EUru": "О, (nickname)! Сейчас\nвстану. Секунду. !",
      "JPja": "ヤッホ～！　！\n立つから　ちょっと待って～？　",
      "KRko": "안녕～! 아!\n일어날 테니까 잠깐만～! !",
      "TWzh": "嗨嗨～！！\n我先站起來，等我一下唷～。",
      "USen": "It's (nickname)! I'll stand\nup. One sec, .",
      "USes": "¡Eh, (nickname)! Como que mejor me levanto, ¿no?",
      "USfr": "Me dites pas que c'est (surnom)! Attends, je peux quand même me lever, ."
    }
  },
  {
    "label": "202_02",
    "attribute": "0x0000000000000000",
    "locale": {
      "CNzh": "这不是嘛～\n怎么啦？……啊，我站起来！。",
      "EUde": "Du bist's, (Spitzname)!\nBin gleich bei dir, muss mich\nnur kurz aufrappeln!",
      "EUen": "It's you, (nickname)!\nHang on a sec! I'll stand up.",
      "EUes": "¡Ey, (nickname)! Espera, que así se me va a quedar el cuello torcido. Mejor me levanto.",
      "EUfr": "(surnom) ! C'te surprise ! Attends, je me lève.",
      "EUit": "Sei tu, (nickname)! Aspetta un secondo che mi alzo.",
      "EUnl": "Hai, jij bent het, (nickname)! Wacht! Ik ga er even bij staan.",
      "EUru": "А, это ты, (nickname)!\nСекунду! Я встану.",
      "JPja": "じゃん～\nどうかした？　・・・あ、立つね！　",
      "KRko": "이다～!\n무슨 일이야? ...앗!\n일어나서 들을게! !",
      "TWzh": "這不是嗎～？\n怎麼啦？……啊，我先站起來！。",
      "USen": "It's you, (nickname)!\nHang on a sec! I'll stand up.",
      "USes": "¡Ey, (nickname)! Espera, que así se me va a quedar el cuello torcido. Mejor me levanto.",
      "USfr": "(surnom)! C'te surprise! Attends, je me lève."
    }
  },
  {
    "label": "202_03",
    "attribute": "0x0000000000000000",
    "locale": {
      "CNzh": "嗯？你怎么啦？\n啊，我站起来听比较好对吧！。",
      "EUde": "Huhuuu! Sekündchen, ich hab gehört\nim Stehen kann man besser zuhören!",
      "EUen": "Hey! Hang on, I read it's better to\nlisten standing up. It lets the\nwords sink in easier.",
      "EUes": "¡Espera, que me levanto! Que si no\nparece que estemos ensayando una\nobra o algo así.",
      "EUfr": "Oh ! J'ai lu qu'on écoute mieux\ndebout. L'information circule plus\nfacilement, à ce qu'on raconte.",
      "EUit": "Ehilà! Aspetta, ho letto che è meglio\nascoltare stando in piedi... Le parole\nentrano subito nelle orecchie.",
      "EUnl": "Hé hoi! Wacht even, ik las pas dat je\nbeter kunt luisteren als je rechtop\nstaat. Dan valt de boodschap beter.",
      "EUru": "Ой! Сейчас встану. Я недавно\nчитала, что слушать стоя полезнее.\nТак слова лучше запоминаются.",
      "JPja": "んんっ　どうしたの？\nあ、立って聞いたほうがいいよね！　",
      "KRko": "응? 왜?\n앗, 일어나서 들어야겠다! !",
      "TWzh": "嗯？怎麼啦？\n啊，我站起來聽比較好吧！。",
      "USen": "Hey! Hang on, I read it's better to\nlisten standing up. It lets the\nwords sink in easier.",
      "USes": "¡Espera, me levanto! Que si no\nparece que estamos ensayando\nuna obra o algo así.",
      "USfr": "Oh! J'ai lu qu'on écoute mieux\ndebout. L'information circule plus\nfacilement, à ce qu'on raconte."
    }
  }
]