﻿[
  {
    "label": "001",
    "attribute": "0x0000000000000000",
    "locale": {
      "CNzh": "",
      "EUde": "",
      "EUen": "",
      "EUes": "",
      "EUfr": "",
      "EUit": "",
      "EUnl": "",
      "EUru": "",
      "JPja": "",
      "KRko": "",
      "TWzh": "",
      "USen": "",
      "USes": "",
      "USfr": ""
    }
  },
  {
    "label": "001_01",
    "attribute": "0x0000000000000000",
    "locale": {
      "CNzh": "呜啊啊……住手……\n我最怕别人碰我这里了…………",
      "EUde": "N-nein... La-lasst mich...\nIch... Ich schaff das alleine...",
      "EUen": "Zzz... Heehee... Quit it. I said I\nwasn't ticklish, and I ain't a fan of\nbein' proven wrong... Zzz...",
      "EUes": "Ji, ji... Deja ese trasto analógico...\nDame la última tecnología... digital...\nZzz... Zzz...",
      "EUfr": "Hmm... Celui qui essaiera de me chatouiller...\nrisque de le regretter...",
      "EUit": "Mmmmh... non voglio andare a scuola...\nHo sonno... Non ho fatto i compiti...\nZzz... Zzz...",
      "EUnl": "Hieee-hieee... Ik kan best tegen kietelen... Ik heb\ngewoon een kriebel in mijn keel...",
      "EUru": "Хи-хи... Хватит. Я же сказал, что не боюсь\nщекотки... Нечего меня переубеждать...",
      "JPja": "うへへ・・・　や、やめろ・・・\nそこは　弱いんだ・・・・・・",
      "KRko": "흐하핫... 자, 잠깐만...\n거긴 간지럽다고......",
      "TWzh": "嘿嘿……別、別這樣……\n我最怕別人……像這樣碰我了……",
      "USen": "Zzz... Heehee... Quit it. I said I\nwasn't ticklish, and I ain't a fan of\nbein' proven wrong... Zzz...",
      "USes": "Ji, ji... Deja ese cachivache analógico...\nDame la última tecnología... digital...\nZzz... Zzz...",
      "USfr": "Hmm... Celui qui essaiera de me chatouiller...\nrisque de le regretter..."
    }
  },
  {
    "label": "001_02",
    "attribute": "0x0000000000000000",
    "locale": {
      "CNzh": "……嗯～\n别担心，交给我就好了……\n……嗯啊、嗯啊。",
      "EUde": "...Hrrrrrrrrm.\nImmer mit der Ruhe. Ich mach das...\n...Pfff...",
      "EUen": "Mmm... You got it all wrong, kiddo...\nYou'll never move the moon like\nthat... Lemme show you... Zzz...",
      "EUes": "Mmm... No, joven...\nAntes no era todo... mejor...\nZzz... Zzz...",
      "EUfr": "... Grm... Nan, attends, gamin... J'vais te montrer\ncomment faire pour attraper la lune...",
      "EUit": "Non così... Ora ti faccio vedere\nio come si cattura una carota...\nZzz... Zzz...",
      "EUnl": "Mmm... Dacht het niet, jochie... Zo vang je nooit\neen haai... Laat mij maar effe...",
      "EUru": "М-м-м... Ну что ты делаешь, козявка... Кто так\nлуну перемещает... Давай покажу как...",
      "JPja": "・・・んん\n気にすんなって、オレに任せときな・・・\n・・・ふがふが",
      "KRko": "...응응\n신경쓰지 마, 나한테 맡겨...\n...웅얼웅얼",
      "TWzh": "嗯嗯……\n別放在心上，都交給我處理吧……\n唔嗯……",
      "USen": "Mmm... You got it all wrong, kiddo...\nYou'll never move the moon like\nthat... Lemme show you... Zzz...",
      "USes": "Mmm... No, joven...\nAntes no era todo... mejor...\nZzz... Zzz...",
      "USfr": "... Grm... Non, attendez, les jeunes... J'vais vous\nmontrer comment faire pour attraper la lune..."
    }
  },
  {
    "label": "001_03",
    "attribute": "0x0000000000000000",
    "locale": {
      "CNzh": "呼噜……呼噜……",
      "EUde": "Mmmm... bin doch k...\nGzzz... Grrrzzz...",
      "EUen": "Mmm...so you're sayin' I'm\n... How long\nhas that been going on... Zzz...",
      "EUes": "Mmm... Que no, joven... Que no soy\n... Por ahora.\nZzz... Zzz...",
      "EUfr": "Zzzz... Zzzz... Tu veux ma photo...?",
      "EUit": "Mmm... No, cosa dici? Io non sono\n... Per adesso.\nZzz... Zzz...",
      "EUnl": "Mmm... Dus volgens jou ben ik ... En dat is al een poosje zo? Zzz...",
      "EUru": "М-м-м... Говоришь, я ...\nИ как давно со мной такое...",
      "JPja": "グゥ～～～・・・グゥ～～～・・・",
      "KRko": "쿠울～～～... 쿨～～～...",
      "TWzh": "呼……呼……",
      "USen": "Mmm...so you're sayin' I'm\n... How long\nhas that been going on... Zzz...",
      "USes": "Mmm... Te digo que no, joven...\nNo soy  en este momento...\nZzz... Zzz...",
      "USfr": "Zzzz... Zzzz... Tu veux ma photo...?"
    }
  },
  {
    "label": "101",
    "attribute": "0x0000000000000000",
    "locale": {
      "CNzh": "",
      "EUde": "",
      "EUen": "",
      "EUes": "",
      "EUfr": "",
      "EUit": "",
      "EUnl": "",
      "EUru": "",
      "JPja": "",
      "KRko": "",
      "TWzh": "",
      "USen": "",
      "USes": "",
      "USfr": ""
    }
  },
  {
    "label": "101_01",
    "attribute": "0x0000000000000000",
    "locale": {
      "CNzh": "呜啊啊……住手……\n我最怕别人碰我这里了…………",
      "EUde": "H-he... Gzzz... Grrrzzz... Pfoten weg,\nsag ich... Das... Das ist meine Strandliege...",
      "EUen": "Zzz... Heehee... Quit it. I said I\nwasn't ticklish, and I ain't a fan of\nbein' proven wrong... Zzz...",
      "EUes": "Zzz... Je, je... Ay, esta juventud...\nZzz...",
      "EUfr": "Zzz... Hi hi hi... Arrête tout de suite.\nJ'ai dit que j'suis pas chatouilleux...\nAlors me donne pas tort... Zzz...",
      "EUit": "Zzz... ... Basta, ho detto che non soffro il solletico, ... Zzz... È lui che soffre me... Zzz...",
      "EUnl": "Hieee-hieee... Ik kan best tegen kietelen... Ik heb\ngewoon een kriebel in mijn keel...",
      "EUru": "Хр-р-кхе... Хи-хи... Хватит. Я же\nсказал, что не боюсь щекотки...\nНечего меня переубеждать... Хр-р...",
      "JPja": "うへへ・・・　や、やめろ・・・\nそこは　弱いんだ・・・・・・",
      "KRko": "흐하핫... 자, 잠깐만...\n거긴 간지럽다고......",
      "TWzh": "哇哈哈……停、停手……\n我那裡很弱啦…………",
      "USen": "Zzz... Heehee... Quit it. I said I\nwasn't ticklish, and I ain't a fan of\nbein' proven wrong... Zzz...",
      "USes": "Zzz... Je, je... Ay, esta juventud...\nZzz...",
      "USfr": "Zzz... Hi hi hi... Arrête tout de suite.\nJ'ai dit que j'suis pas chatouilleux...\nAlors me donne pas tort... Zzz..."
    }
  },
  {
    "label": "101_02",
    "attribute": "0x0000000000000000",
    "locale": {
      "CNzh": "……嗯～\n别担心，交给我就好了……\n……嗯啊、嗯啊。",
      "EUde": "...Hrrrrrrrrmpfff. Ihr habt doch keine Ahnung...\nPfff... Grrrzzz...",
      "EUen": "Mmm... You got it all wrong, kiddo...\nYou'll never move the moon like\nthat... Lemme show you... Zzz...",
      "EUes": "Mmm... No se hace así, jovenzuelo...\nDéjame ver... Ah, pues sí... Zzz...",
      "EUfr": "Mmm... Si tu veux attraper la lune...\ntends-lui un bout d'fromage...\nAttends, j'te montre... Zzz...",
      "EUit": "Mmmh... Non si può mica volere\nla luna... Zzz... Magari il sole sì...\nZzz...",
      "EUnl": "Mmm... Dacht het niet, jochie... Zo vang je nooit\neen haai... Laat mij maar effe...",
      "EUru": "М-м... Ну что ты делаешь, козявка...\nКто так луну перемещает... Давай\nпокажу как... Хр-р...",
      "JPja": "・・・んん\n気にすんなって、オレに任せときな・・・\n・・・ふがふが",
      "KRko": "...응응\n신경쓰지 마, 나한테 맡겨...\n...웅얼웅얼",
      "TWzh": "唔唔……\n別在意，放心交給我吧……\n呼……",
      "USen": "Mmm... You got it all wrong, kiddo...\nYou'll never move the moon like\nthat... Lemme show you... Zzz...",
      "USes": "Mmm... No se hace así, jovencito...\nDéjame ver... Se hace así... Zzz...",
      "USfr": "Mmm... Si tu veux attraper la lune...\ntends-lui un bout d'fromage...\nAttends, j'te montre... Zzz..."
    }
  },
  {
    "label": "101_03",
    "attribute": "0x0000000000000000",
    "locale": {
      "CNzh": "呼噜……呼噜……",
      "EUde": "Grrrmm... Das lässt sich  nicht bieten... Gzzz... Grrrzzz...",
      "EUen": "Mmm...so you're sayin' I'm\n... How long\nhas that been going on... Zzz...",
      "EUes": "Mmm... Mira que te gusta insistir en que soy\n... Zzz...",
      "EUfr": "Mmm... comment ça, je suis ...? Depuis quand...? Zzz...",
      "EUit": "Mmmh... Zzz... Quindi dici che sono ... Ma da quanto va avanti questa storia... Zzz...",
      "EUnl": "Mmm... Dus volgens jou ben ik ... En dat is al een poosje zo? Zzz...",
      "EUru": "М-м... Говоришь, я ...\nИ как давно со мной такое...",
      "JPja": "グゥ～～～・・・グゥ～～～・・・",
      "KRko": "쿠울～～～... 쿨～～～...",
      "TWzh": "咕～～～……咕～～～……",
      "USen": "Mmm...so you're sayin' I'm\n... How long\nhas that been going on... Zzz...",
      "USes": "Mmm... Cómo insistes con eso de que soy\n... Zzz...",
      "USfr": "Mmm... comment ça, je suis ...? Depuis quand...? Zzz..."
    }
  },
  {
    "label": "102",
    "attribute": "0x0000000000000000",
    "locale": {
      "CNzh": "",
      "EUde": "",
      "EUen": "",
      "EUes": "",
      "EUfr": "",
      "EUit": "",
      "EUnl": "",
      "EUru": "",
      "JPja": "",
      "KRko": "",
      "TWzh": "",
      "USen": "",
      "USes": "",
      "USfr": ""
    }
  },
  {
    "label": "102_01",
    "attribute": "0x0000000000000000",
    "locale": {
      "CNzh": "啊，我应该只是稍微闭了下眼睛，\n竟然一不小心睡着了，\n谢谢你叫醒我哦！。",
      "EUde": "Hä?! Was ist los? Worum geht's?\nAch, bin ich gerade eingedöst?\nDann danke fürs Aufwecken!",
      "EUen": "Huh?! What happened? I was just\nthinkin' that I... Oh, I conked out,\ndidn't I? Thanks for waking me up!",
      "EUes": "¡¿Eh?! ¿Qué ha pasado? Vaya, ya\nme he vuelto a quedar dormido.\n¡Gracias por despertarme!",
      "EUfr": "Wouah ?! Keskispasse ? Oh, je... je\nme suis assoupi ? Merci de m'avoir\nréveillé !",
      "EUit": "Eh?! Ma che è successo? Credevo\nche... Ah, mi sono addormentato, eh?\nGrazie di avermi svegliato!\nComunque, tu hai molto più tatto\ndella mia sveglia... che non mi tocca\nneanche. AHAHAH!",
      "EUnl": "Huh?! Wat krijgen we nou? Hoe?\nWaar? O... ik ben ingedut, zeker?\nBedankt voor het wakker maken!",
      "EUru": "Ась?! Что случилось? Только\nя хотел... Задремал я тут, да?\nСпасибо, что разбудил, козявка!",
      "JPja": "ふがっ、ちょっと　目をつむっただけのはずが\nうっかり　眠っちまったみてぇだな\n起こしてくれて　ありがとよ！　",
      "KRko": "으헉! 잠깐 눈을 감았을 뿐인데\n나도 모르게 잠이 들었던 모양이네\n깨워줘서 고맙다! !",
      "TWzh": "哇，我剛才明明只是閉了一下眼睛，\n看來是不小心睡著了。\n謝謝你把我叫醒！。",
      "USen": "Huh?! What happened? I was just\nthinkin' that I... Oh, I conked out,\ndidn't I? Thanks for waking me up!",
      "USes": "¡¿Eh?! ¿Qué pasó? Vaya, me volví\na quedar dormido. ¡Gracias por\ndespertarme!",
      "USfr": "Wouah?! Keskispasse? Oh, je... je\nme suis assoupi? Merci de m'avoir\nréveillé!"
    }
  },
  {
    "label": "102_02",
    "attribute": "0x0000000000000000",
    "locale": {
      "CNzh": "呃……我刚刚在这种地方睡着了？\n没什么～幸亏你叫醒我，\n谢谢了哦，(nickname)！",
      "EUde": "He, was sind das für Fisimatenten?!\nOh, hab ich etwa gedöst? Danke fürs\nWecken, (Floskel).",
      "EUen": "Hey, what's the big idea?! Oh, I was\nsleeping again, wasn't I? Thanks for\nsnappin' me out of it, .",
      "EUes": "¡¿Cómo que me había quedado\ndormido?! La edad no perdona. \nGracias por el aviso, .",
      "EUfr": "Hé, mais c'est quoi ton problème ?! Oh, je pionçais ? Merci de m'avoir\nréveillé, .",
      "EUit": "Uffa, ma che sta succedendo?! Ah,\nmi sono addormentato di nuovo, eh?\nBeh, grazie per avermi svegliato.\nIn effetti devo fare un sacco di cose.\nTra cui dormire. AHAHAH!",
      "EUnl": "Hé, ben je helemaal... O, ik was zeker\nweer aan het maffen? Bedankt dat je\nme hebt gewekt, .",
      "EUru": "Кто посмел?! Тьфу, опять глаза\nслипаются. Спасибо, что разбудил!\n.",
      "JPja": "へっ・・・、オレ　こんな所で　寝てたのか？\nいや～、起こしてくれて　助かったぜ\nありがとよ、(nickname)！",
      "KRko": "헉... 나 이런 데서 자고 있었던 거냐?\n이야～ 니가 깨워줘서 다행이다!\n고맙다, (nickname)!",
      "TWzh": "啊……我竟然在這種地方睡著了？\n不會吧～還好你把我叫醒了。\n謝謝你，(nickname)！",
      "USen": "Hey, what's the big idea?! Oh, I was\nsleeping again, wasn't I? Thanks for\nsnappin' me out of it, .",
      "USes": "¡¿Cómo que me había quedado\ndormido?! La edad no perdona. \nGracias por avisarme, .",
      "USfr": "Hé, mais c'est quoi ton problème?! Oh, je dormais? Merci de m'avoir\nréveillé, ."
    }
  },
  {
    "label": "102_03",
    "attribute": "0x0000000000000000",
    "locale": {
      "CNzh": "糟糕……竟然睡着了。\n我说，关于我在这儿睡着的事情，\n不要告诉其他人哦？。",
      "EUde": "Hey, ich hab nicht geschlafen, ich\nhab nur, äh... Ja, ja. Schon gut. Ich\nbin kurz eingenickt. Jetzt zufrieden?",
      "EUen": "Hey, I wasn't snoozin'. I was just...\njust, uh... OK, yeah, you caught me\nsnoozin'. Happy now, ?",
      "EUes": "Eh, que no estaba durmiendo...\nEstaba... Vale, me has pillado.\n¿Contento, ?",
      "EUfr": "Hem, non, je dormais pas. Je, euh,\nje... Bon, OK, oui, je dormais,  !",
      "EUit": "Che cosa vai a pensare, guarda che\nnon mi ero mica addormentato...\nSemmai \"appisolato\". AHAHAH!",
      "EUnl": "Ik was heus niet aan het tukken, ik\nwas... eh, gewoon... Oké, ik was in\ndromenland. Ben je nu blij, jochie?",
      "EUru": "Я вовсе не сплю... Я тут просто...\nНу да, признаю, я тут прикорнул!\nДоволен, козявка? !",
      "JPja": "いっけねぇ・・・、眠っちまってたわ\nなあ、オレが　こんな所で居眠ってたことは\n他のヤツには　ナイショだぜ？　",
      "KRko": "어이쿠... 잠들어버렸네\n저기, 내가 여기서 자고 있었다는 건\n다른 녀석들한테는 비밀이다? !",
      "TWzh": "糟了……我睡著了。\n喂，你可別跟其他人說\n我在這裡睡覺的事喔，。",
      "USen": "Hey, I wasn't snoozin'. I was just...\njust, uh... OK, yeah, you caught me\nsnoozin'. Happy now, ?",
      "USes": "Te digo que no estaba durmiendo...\nEstaba... Bueno, lo admito.\n¿Contento, ?",
      "USfr": "Hem, non, je dormais pas. Je, euh,\nje... Bon, OK, oui, je dormais, !"
    }
  }
]