﻿[
  {
    "label": "101",
    "attribute": "0x0000020000000000",
    "locale": {
      "CNzh": "哦，！\n你居然会来听我上课，真勤奋啊。\n作为奖励，我就给你个好东西吧！\n嘿嘿，就是这个鸡蛋花苗，\n出于种种缘故，我正在找能收下它的人。\n怎么样？你要吗？。",
      "EUde": "Ach, sieh mal an, !Danke, dass du zu meinem Unterricht gekommen bist!\nSag mal, möchtest du vielleicht einen\nFrangipanisetzling haben? Ich hab\ndavon eine ganze Menge.",
      "EUen": "Well, now... Look who decided\nto show up to class. Thanks for\ncoming, .\nHey, any chance you want a plumeria\nstart? 'Cause I've got a great, big\npile of 'em I'm tryin' to get rid of.",
      "EUes": "Vaya, vaya... ¡Pero mira quién se ha\ndejado caer por aquí! Gracias por\nvenir, .\nPor cierto, ¿no te interesará una\nplumeria de vivero? Es que tengo un\nmontón y no sé qué hacer con ellas.",
      "EUfr": "Regardez-moi qui voilà... Tu t'es dit\nque t'allais venir apprendre un truc\nou deux ? Merci d'être venu.\nDis-moi, tu voudrais pas une pousse\nde frangipanier à tout hasard ?\nTu verras, c'est génial, un\nfrangipanier... Et surtout, ça me\ndébarrasserait...",
      "EUit": "Cavoli... Guardate chi ha deciso\ndi presentarsi in classe. Grazie di\nessere qui, .\nSenti, non vorresti un germoglio di\nfrangipani? Perché ne ho una\nmontagna e vorrei liberarmene...\nSai, una montagna del genere è un\npo' difficile da scalare. AHAHAH!",
      "EUnl": "Sapperloot... Kijk nou eens wie er in\nonze klas is. Bedankt voor je komst,\n.\nZeg, ben jij misschien geïnteresseerd\nin een plumeria-zaailing? Ik heb er\neen grote stapel van die ik kwijt wil.",
      "EUru": "Итак... Да ты только глянь, кто на\nурок пожаловал. \nсобственной персоной.\nКстати, тебе побег плюмерии не\nнужен? У меня их как раз целая\nкуча, не знаю, что с ними делать.",
      "JPja": "おう、！\nオレの授業を　受けに来るとは、感心だな\nそんな　に、いいモンを　やろう！\nへへっ、プルメリアのなえ　なんだがな、\n訳あって　もらい手を　募集中なんだわ\nどうだ、もらってくれるかい？　",
      "KRko": "야, !\n내 수업을 들으러 오다니 감동이다\n그런 너한테 내가 좋은 걸 주마!\n헤헷, 플루메리아 묘목인데\n사정이 있어서 돌봐줄 사람을 구하고 있거든\n어떠냐, 한번 키워볼래? ?",
      "TWzh": "嗨，！\n你居然會來上我的課，真令人佩服。\n我給你一樣好東西吧！\n嘿嘿，那樣好東西就是雞蛋花苗，\n因為一些原因，我需要找人接手樹苗。\n如何？你要嗎？。",
      "USen": "Well, now... Look who decided\nto show up to class. Thanks for\ncoming, .\nHey, any chance you want a plumeria\nstart? 'Cause I've got a great, big\npile of 'em I'm tryin' to get rid of.",
      "USes": "Vaya, vaya... ¡Pero mira quién decidió\npasar por aquí! Gracias por venir, .\nPor cierto, ¿no te interesará una\nplumeria de vivero? Es que tengo un\nmontón y no sé qué hacer con ellas.",
      "USfr": "Regardez-moi qui voilà... Tu t'es dit\nque t'allais venir apprendre un truc\nou deux? Merci d'être venu.\nDis-moi, tu voudrais pas une pousse\nde frangipanier à tout hasard?\nTu verras, c'est génial, un\nfrangipanier... Et surtout, ça me\ndébarrasserait..."
    }
  },
  {
    "label": "101_a",
    "attribute": "0x0000000000000000",
    "locale": {
      "CNzh": "那我就收下了",
      "EUde": "Gerne!",
      "EUen": "Thanks!",
      "EUes": "¡Gracias!",
      "EUfr": "Si !",
      "EUit": "Sì, grazie!",
      "EUnl": "Ja, graag!",
      "EUru": "Ух ты, спасибо!",
      "JPja": "いただきます",
      "KRko": "키워볼게",
      "TWzh": "那我就收下了",
      "USen": "Thanks!",
      "USes": "¡Gracias!",
      "USfr": "Si!"
    }
  },
  {
    "label": "101_b",
    "attribute": "0x0000000000000000",
    "locale": {
      "CNzh": "不用了",
      "EUde": "Nein, danke...",
      "EUen": "I'm good.",
      "EUes": "Ahora no, gracias",
      "EUfr": "Non, ça va aller.",
      "EUit": "No, sono a posto così.",
      "EUnl": "Nee, dank je.",
      "EUru": "Мне не надо.",
      "JPja": "エンリョしておきます",
      "KRko": "아니, 됐어",
      "TWzh": "不用了",
      "USen": "I'm good.",
      "USes": "Ahora no, gracias",
      "USfr": "Non, ça va aller."
    }
  },
  {
    "label": "102",
    "attribute": "0x0000020000000000",
    "locale": {
      "CNzh": "哟，！\n我说，如果你对植物感兴趣的话，\n要不要试着种种鸡蛋花啊？\n我正在寻找能收下花苗的人，\n我想如果是你的话，\n一定能好好培育这株花苗的。。",
      "EUde": "Schön, dass du das Lernen ernst\nnimmst, !\nHör mal, magst du Pflanzen? Ich hab\nnämlich Frangipani im Überfluss.\nHättest du zufällig Interesse an\neinem Frangipanisetzling?",
      "EUen": "Nice to see you takin' your education\nseriously, .\nListen—do you like plants? 'Cause if\nso, I've got plumeria coming out of\nmy ears. Figuratively, of course.\nAnyway, is there any chance you'd\nlike a plumeria start?",
      "EUes": "Me gusta cuando los jóvenes os\ntomáis en serio vuestra educación.\nPor cierto, ¿te gustan las plantas?\nEs que me salen plumerias hasta por\nlas orejas. En sentido figurado, claro.\n¿Quieres llevarte una plumeria\nde vivero?",
      "EUfr": "Ça me fait plaisir de te voir ici, . Enfin quelqu'un qui n'a pas peur d'apprendre.\nEt sinon, t'aimes bien les plantes ?\nParce que je cherche quelqu'un à qui\nrefour... confier des frangipaniers.\nAlors, ça te dit une pousse de\nfrangipanier ?",
      "EUit": "È bello vedere che prendi sul serio\nl'istruzione, .\nSenti, ti piacciono le piante? Ne\nho così tanti di frangipani che mi\nescono dalle orecchie, !\nOvviamente è un modo di dire. In\nrealtà mi escono dal naso. AHAHAH!\nComunque, non è che ti piacerebbe\navere un germoglio di frangipani?",
      "EUnl": "Goed om te zien dat je onderwijs zo\nserieus neemt, .\nHou je van planten? De plumeria's\nkomen me momenteel de oren uit.\nFiguurlijk dan, natuurlijk.\nZou ik je kunnen interesseren voor\neen plumeria-zaailing?",
      "EUru": "Рад видеть, как серьезно ты\nотносишься к учебе, .\nСлушай, ты растения любишь?\nУ меня плюмерий куры не клюют.\nОбразно выражаясь, конечно.\nВ общем, побег плюмерии не\nхочешь?",
      "JPja": "よう、！\nなあ　さ、もし　植物とか興味あるなら\nプルメリアを　育ててみねぇかい？\nなえの　もらい手を　探してるんだが、\nだったら、きっと　うまく\n育てられそうな気が　するんだわ、",
      "KRko": "여어, !\n너 말이다, 혹시 식물에 관심 있으면\n플루메리아 하나 키워볼래?\n묘목을 키울 사람을 찾고 있는데\n너라면 틀림없이\n잘 키울 것 같거든, ",
      "TWzh": "喲，！\n我問你喔，如果你對植物感興趣的話，\n要不要試著栽培雞蛋花啊？\n我正好在找人接手我手邊的樹苗，\n我想如果是你的話，\n一定能好好栽培這種植物的，。",
      "USen": "Nice to see you takin' your education\nseriously, .\nListen—do you like plants? 'Cause if\nso, I've got plumeria coming out of\nmy ears. Figuratively, of course.\nAnyway, is there any chance you'd\nlike a plumeria start?",
      "USes": "Me gusta cuando los jóvenes se\ntoman en serio su educación.\nPor cierto, ¿te gustan las plantas?\nEs que me salen plumerias hasta por\nlas orejas. En sentido figurado, claro.\n¿Quieres llevarte una plumeria\nde vivero?",
      "USfr": "Ça me fait plaisir de te voir ici, . Enfin quelqu'un qui n'a pas peur d'apprendre.\nEt sinon, t'aimes bien les plantes?\nParce que je cherche quelqu'un à qui\nrefour... confier des frangipaniers.\nAlors, ça te dit une pousse de\nfrangipanier?"
    }
  },
  {
    "label": "102_a",
    "attribute": "0x0000000000000000",
    "locale": {
      "CNzh": "那我就收下了",
      "EUde": "Gerne!",
      "EUen": "Thanks!",
      "EUes": "¡Gracias!",
      "EUfr": "Oui, merci !",
      "EUit": "Sì, grazie!",
      "EUnl": "Ja, graag!",
      "EUru": "Ух ты, спасибо!",
      "JPja": "いただきます",
      "KRko": "좋아!",
      "TWzh": "那我就收下了",
      "USen": "Thanks!",
      "USes": "¡Gracias!",
      "USfr": "Oui, merci!"
    }
  },
  {
    "label": "102_b",
    "attribute": "0x0000000000000000",
    "locale": {
      "CNzh": "不用了",
      "EUde": "Nein, danke...",
      "EUen": "I'm good.",
      "EUes": "Ahora no, gracias",
      "EUfr": "Sans façon.",
      "EUit": "No, sono a posto così.",
      "EUnl": "Nee, dank je.",
      "EUru": "Мне не надо.",
      "JPja": "エンリョしておきます",
      "KRko": "사양할게",
      "TWzh": "不用了",
      "USen": "I'm good.",
      "USes": "Ahora no, gracias",
      "USfr": "Sans façon."
    }
  },
  {
    "label": "103",
    "attribute": "0x0000020000000000",
    "locale": {
      "CNzh": "哟，！\n你要不要鸡蛋花苗啊？\n就是种在学校周边的那种灌木。\n我现在正把花苗分给对它们感兴趣的人。\n植物这种东西，既可用于学习又能治愈身心，\n是当之无愧的好教材啊！。",
      "EUde": "He, Kleiner! Sind dir schon die\nFrangipani aufgefallen, die in der\nNähe der Schule wachsen?\nDas ist eine sehr interessante und\nschöne Pflanzenart, die sich zu\nstudieren lohnt.\nWie sieht's aus? Möchtest du einen\nFrangipanisetzling von mir haben?",
      "EUen": "Hey, kiddo. You seen the plumeria\nstarts growin' around the school?\nWhich I've got nothing to do with...\nWell, I picked a couple, and I've been\ngivin' them away to any and all that\nwant 'em.\nThey're very educational. You can\nread to 'em, study 'em, sing at 'em...\nAnything you like! Want one?",
      "EUes": "¡Buenas, jovencito! Chiste del día:\nla escuela huele a plumerias de\nvivero y no he sido yo, ¡ja, ja, ja!\nBromas aparte, habrás visto que\ntenemos una invasión de plumerias\nen toda regla...\nAsí que he aprovechado para coger\nunas cuantas y se las estoy dando\na cualquiera que pase por aquí.\n¿Qué me dices? ¿Quieres una?\nLo mismo te da clases de algo,\n¡ja, ja, ja!",
      "EUfr": "Coucou, gamin. T'as déjà remarqué\nles pousses de frangipaniers autour\nde l'école ? Les machins verts, là...\nEh bien, j'en ai prélevé deux ou trois\npour les distribuer aux amateurs.\nC'est une plante très versatile. Tu\npeux la sentir, l'écouter, lui parler,\net j'en passe. T'en veux une ?",
      "EUit": "Ehilà. Hai visto i germogli di\nfrangipani che crescono intorno\nalla scuola... spontaneamente?\nBeh, ne ho raccolti un paio e li do\na tutti quelli che ne vogliono uno,\n.\nSai, sono dei germogli altamente\nistruttivi. Puoi leggergli qualcosa,\nstudiarli, cantargli una canzone...\nUhm, forse anche fargli l'autostop,\nse hai il pollice verde. AHAHAH!\nNe vuoi uno?",
      "EUnl": "Hé. Vraag je je af waar die plumeria-\nzaailingen rondom de school vandaan\nkomen? Mijn naam is haas...\nNou ja, ik heb er een paar geplant,\nen ik geef ze weg aan Jan en\nalleman.\nZe zijn heel intelligent. Je kunt ze\nvoorlezen, ze bestuderen, ertegen\nzingen... Noem maar op! Interesse?",
      "EUru": "Привет, козявка. Видел, сколько\nпобегов плюмерии выросло вокруг\nшколы? И я тут ни при чем...\nНу, я выкопал несколько и раздаю\nих всем кому не лень. В качестве\nдидактического материала.\nИм можно читать, их можно изучать,\nпеть им тоже можно...\nВозможностей масса! Возьмешь?",
      "JPja": "よっ、\n、プルメリアのなえ　いらねぇかい？\n学校の周りにも植わってる　あの低木だよ\n今、興味があるヤツに　分けてやってんだわ\n植物ってのは、学べるし　癒されるし、\n教材として　文句ナシだからな！　",
      "KRko": "여어, !\n너 혹시 플루메리아 묘목 안 필요하냐?\n학교 주변에도 있는 그 낮은 나무 말이다\n지금 관심 있는 녀석들한테 나눠주고 있어\n식물을 키우면 공부도 되고 힐링도 되니까\n교재로도 흠잡을 데 없거든, !",
      "TWzh": "喲，！\n你需不需要雞蛋花苗？\n就是那種在學校附近也有生長的灌木。\n我正在分送樹苗給有興趣的人喔。\n植物既能用來教學又能療癒身心，\n作為教材簡直無可挑剔啊！。",
      "USen": "Hey, kiddo. You seen the plumeria\nstarts growin' around the school?\nWhich I've got nothing to do with...\nWell, I picked a couple, and I've been\ngivin' them away to any and all that\nwant 'em.\nThey're very educational. You can\nread to 'em, study 'em, sing at 'em...\nAnything you like! Want one?",
      "USes": "¡Buenas, jovencito! Chiste del día:\nla escuela huele a plumerias de\nvivero y no fui yo, ¡ja, ja, ja!\nBromas aparte, habrás visto que\ntenemos prácticamente una invasión\nde plumerias...\nAsí que aproveché para recoger\nunas cuantas y se las estoy dando\na cualquiera que pase por aquí.\n¿Qué me dices? ¿Quieres una?\nQuizá te da clases de algo, ¡ja, ja, ja!",
      "USfr": "Coucou, le jeune. T'as déjà remarqué\nles pousses de frangipaniers autour\nde l'école? Les machins verts, là...\nEh bien, j'en ai prélevé deux ou trois\npour les distribuer aux amateurs.\nC'est une plante très versatile. Tu\npeux la sentir, l'écouter, lui parler,\net j'en passe. T'en veux une?"
    }
  },
  {
    "label": "103_a",
    "attribute": "0x0000000000000000",
    "locale": {
      "CNzh": "那我就收下了",
      "EUde": "Gerne!",
      "EUen": "Thanks!",
      "EUes": "¡Gracias!",
      "EUfr": "Oui, merci !",
      "EUit": "Sì, grazie!",
      "EUnl": "Ja, graag!",
      "EUru": "Ух ты, спасибо!",
      "JPja": "いただきます",
      "KRko": "하나 주라",
      "TWzh": "那我就收下了",
      "USen": "Thanks!",
      "USes": "¡Gracias!",
      "USfr": "Oui, merci!"
    }
  },
  {
    "label": "103_b",
    "attribute": "0x0000000000000000",
    "locale": {
      "CNzh": "不用了",
      "EUde": "Nein, danke...",
      "EUen": "I'm good.",
      "EUes": "Ahora no, gracias",
      "EUfr": "Non, merci.",
      "EUit": "No, sono a posto così.",
      "EUnl": "Nee, dank je.",
      "EUru": "Мне не надо.",
      "JPja": "エンリョしておきます",
      "KRko": "딱히 필요 없어",
      "TWzh": "不用了",
      "USen": "I'm good.",
      "USes": "Ahora no, gracias",
      "USfr": "Non, merci."
    }
  },
  {
    "label": "106_01",
    "attribute": "0x0000000000000000",
    "locale": {
      "CNzh": "不错不错，觉悟很高嘛。\n那么……这个白色鸡蛋花苗\n就送给你了！",
      "EUde": "So ist's recht. Hier hast du deinen\neigenen Weiß-Frangipanisetzling!",
      "EUen": "That's the spirit. Here's your very\nown white-plumeria start!",
      "EUes": "¡Así me gusta! Aquí tienes tu\nplumeria blanca de vivero.",
      "EUfr": "Ça fait plaisir à entendre. Tiens,\nta propre pousse de frangipanier\nblanc !",
      "EUit": "Mitico! Ecco a te il tuo germoglio\ndi frangipani bianco!",
      "EUnl": "Zo mag ik het horen. Hier is je eigen\nwitte-plumeria-zaailing!",
      "EUru": "Вот это правильно. Держи побег\nбелой плюмерии!",
      "JPja": "よしよし、いい心がけだ\nそれじゃ、には・・・\nしろいプルメリアのなえを　やるよ！",
      "KRko": "그래, 잘 생각했어\n그럼 너한테는...\n하얀 플루메리아 묘목을 주도록 하지!",
      "TWzh": "很好，回答得真不錯。\n那麼就給你……\n白色雞蛋花苗吧！",
      "USen": "That's the spirit. Here's your very\nown white-plumeria start!",
      "USes": "¡Así me gusta! Aquí tienes tu\nplumeria blanca de vivero.",
      "USfr": "Ça fait plaisir à entendre. Tiens,\nta propre pousse de frangipanier\nblanc!"
    }
  },
  {
    "label": "106_02",
    "attribute": "0x0000000000000000",
    "locale": {
      "CNzh": "不错不错，觉悟很高嘛。\n那么……这个粉红鸡蛋花苗\n就送给你了！",
      "EUde": "Hier, bitte! Ein wunderschöner\nPink-Frangipanisetzling!",
      "EUen": "You got it! And now you're the proud\nowner of a pink-plumeria start!",
      "EUes": "Toma. ¡Vas a causar sensación\nentre tus vecinos con esta\nplumeria rosa de vivero!",
      "EUfr": "Ça marche ! Voilà ta pousse de\nfrangipanier rose rien qu'à toi !",
      "EUit": "Troppo bello! Ora sei il proprietario\ndi un germoglio di frangipani rosa!",
      "EUnl": "Komt voor de bakker! Je bent nu de\ntrotse eigenaar van een roze-\nplumeria-zaailing.",
      "EUru": "Пожалуйста! Теперь ты счастливый\nобладатель побега розовой\nплюмерии!",
      "JPja": "よしよし、いい心がけだ\nそれじゃ、には・・・\nピンクのプルメリアのなえを　やるよ！",
      "KRko": "그래, 좋은 마음가짐이다\n그럼 너한테는...\n핑크색 플루메리아 묘목을 주마!",
      "TWzh": "很好，回答得真不錯。\n那麼就給你……\n粉紅雞蛋花苗吧！",
      "USen": "You got it! And now you're the proud\nowner of a pink-plumeria start!",
      "USes": "Toma. ¡Vas a causar sensación\nentre tus vecinos con esta\nplumeria rosa de vivero!",
      "USfr": "Ça marche! Voilà ta pousse de\nfrangipanier rose rien qu'à toi!"
    }
  },
  {
    "label": "107",
    "attribute": "0x0000000000000000",
    "locale": {
      "CNzh": "",
      "EUde": "",
      "EUen": "",
      "EUes": "",
      "EUfr": "",
      "EUit": "",
      "EUnl": "",
      "EUru": "",
      "JPja": "",
      "KRko": "",
      "TWzh": "",
      "USen": "",
      "USes": "",
      "USfr": ""
    }
  },
  {
    "label": "107_01",
    "attribute": "0x0000000000000000",
    "locale": {
      "CNzh": "等它长大，到了花期，\n就会开出很多漂亮的花朵。\n你要好好地培育它哦！。",
      "EUde": "Pfleg die Pflanze aber auch gut!\nWenn sie wächst, wird sie Unmengen\nvon Blüten haben, (Floskel)!",
      "EUen": "Take care of it. Once it grows, you'll\nget more gorgeous flowers than you\ncan shake a stick at, !",
      "EUes": "Esta planta es muy agradecida... Si\nla cuidas bien, ¡ya verás la de flores\nque te va a regalar, !",
      "EUfr": "Prends-en soin. Quand il aura\npoussé, tu seras à coup sûr séduit\npar ses délicates fleurs odorantes...\nOui, enfin t'auras des fleurs quoi,  !",
      "EUit": "Mi raccomando, prenditene cura.\nQuando crescerà, farà meravigliosi\nfiori, in quantità industriale!\nE senza nemmeno la catena di\nmontaggio. AHAHAH!",
      "EUnl": "Zorg er goed voor. Voor je het weet,\nheb je gigantisch veel prachtige\nbloemen, !",
      "EUru": "Хорошенько о нем заботься. Он\nвырастет и так зацветет, что дар\nречи потеряешь! .",
      "JPja": "大きく成長したら、開花の時期には\nキレイな花が　咲き乱れるからな\n大事に　育ててやってくれよ！　",
      "KRko": "잘 크면 개화 시기엔\n예쁜 꽃이 활짝 필 거다\n소중하게 키워라! !",
      "TWzh": "等雞蛋花長大後，到了開花時期\n就會開出漂亮的花朵喔。\n你就好好地栽培吧！。",
      "USen": "Take care of it. Once it grows, you'll\nget more gorgeous flowers than you\ncan shake a stick at, !",
      "USes": "Esta planta es muy agradecida... Si la\ncuidas bien, ¡ya verás que te regalará\nun montón de flores, !",
      "USfr": "Prends-en soin. Quand il aura\npoussé, tu seras à coup sûr séduit\npar ses délicates fleurs odorantes...\nOui, enfin t'auras des fleurs quoi, !"
    }
  },
  {
    "label": "107_02",
    "attribute": "0x0000000000000000",
    "locale": {
      "CNzh": "无论是植物观察还是自由研究，它都能胜任。\n并且如果养成了时刻观察周围环境的好习惯，\n到紧要关头也许还能派上用场。。",
      "EUde": "Wenn du dich fragst, was du mit\ndem Ding anstellen kannst, empfehle\nich, beim Wachsen zuzugucken.\nDas klingt vielleicht etwas eintönig,\naber damit kriegt man schon gut\ndie Zeit rum, gra ha ha!",
      "EUen": "If you need ideas on what to do with\nit, may I suggest watchin' it grow?\nSure, that may sound dull, but it\ndoes pass the time, !",
      "EUes": "Si no sabes qué hacer con ella,\npuedes hablarle o cantarle. Ten por\nseguro que no se quejará, ja, ja, ja.",
      "EUfr": "Si tu ne sais pas quoi en faire,\ntu peux toujours la regarder pousser,\n.\nÇa détend. Enfin au début, parce\nqu'après ça m'endort.\nD'ailleurs, mon record, c'est cinq\nminutes. J'ai dû m'y reprendre à\nplusieurs fois pour y arriver...",
      "EUit": "Se ti serve un consiglio su cosa farci,\nbeh, il mio è di guardare la pianta\ncrescere, .\nForse è un po' noioso, ma di sicuro\nfa passare il tempo. AHAHAH!",
      "EUnl": "Je vraagt je wellicht af wat je ermee\nkunt. Nou, je kunt bijvoorbeeld\ntoekijken hoe hij groeit.\nIk weet dat het saai klinkt, maar voor je het doorhebt, is de dag om, !",
      "EUru": "Если не знаешь, что с ним делать,\nпопробуй наблюдать, как он растет.\nМожет, и не самое захватывающее\nзанятие, зато такого хобби надолго\nхватит! .",
      "JPja": "植物観察は　自由研究にも　ピッタリだからな\n日頃から　観察するクセをつけときゃ、\nいざって時に　困らないだろうよ、",
      "KRko": "식물 관찰은 방학 숙제로도 딱이지\n평소에 관찰하는 습관을 들이면\n나중에 쓸 데가 있을 거거든, ",
      "TWzh": "觀察植物也是完成自由研究作業時的優秀主題。\n只要從平時開始觀察，\n就不用擔心作業寫不完囉，。",
      "USen": "If you need ideas on what to do with\nit, may I suggest watchin' it grow?\nSure, that may sound dull, but it\ndoes pass the time, !",
      "USes": "Si no sabes qué hacer con ella,\npuedes hablarle o cantarle. Ten por\nseguro que no se quejará, ja, ja, ja.",
      "USfr": "Si tu ne sais pas quoi en faire,\ntu peux toujours la regarder pousser,\n.\nÇa détend. Enfin au début, parce\nqu'après ça m'endort.\nD'ailleurs, mon record, c'est cinq\nminutes. J'ai dû m'y reprendre à\nplusieurs fois pour y arriver..."
    }
  },
  {
    "label": "107_03",
    "attribute": "0x0000000000000000",
    "locale": {
      "CNzh": "因为这种灌木只在这周边自然生长，\n所以如果你把它种在家附近，\n邻居们肯定会觉得很稀奇的。。",
      "EUde": "Die kleinen Kerlchen gedeihen\nhier in der Gegend wirklich sehr\ngut, (Floskel).\nPflanz die doch mal bei dir zu Hause.\nDeine Nachbarn wären bestimmt\nbegeistert, (Floskel)!",
      "EUen": "These little fellas grow all over the\nplace here, .\nHey, why don't you plant that one\nback home and confound your\nneighbors with it? Gahaha!",
      "EUes": "Estas amiguitas crecen muy rápido,\nasí que, como te descuides, se te\nmeterán hasta la cocina, ¡ja, ja, ja!",
      "EUfr": "Ici, elles poussent un peu partout,\n.\nTu devrais en planter chez toi.\nJ'imagine la tête des voisins...\nHa ha ha !",
      "EUit": "Questi piccoletti crescono in\nquantità qui intorno, .\nPerché non ne pianti uno a casa tua?\nIn breve tempo, potresti trasformarla\nin una giungla. AHAHAH!",
      "EUnl": "Deze kleine rakkers groeien hier\noveral, .\nHé, waarom plant je de jouwe niet\nthuis? Je buren zullen met groeiende\nverbazing toekijken. Bwahaha!",
      "EUru": "Эти сорванцы тут повсюду\nразрослись. .\nСлушай, может, посадишь побег\nперед домом и сразишь соседей\nнаповал? Бу-га-га!",
      "JPja": "この低木は　この辺りにしか自生してねぇし、\nん家の近くなんかに　植えてみたら\nご近所さんが　珍しがるかもな、",
      "KRko": "이 낮은 나무는 요 주변에서만 나니까\n너네 집 근처에 심으면\n이웃이 신기해할지도 모르겠군, ",
      "TWzh": "這種灌木只會生長在這地區的野外，\n如果種在你家周邊的話，\n附近鄰居可能會覺得很稀奇喔，。",
      "USen": "These little fellas grow all over the\nplace here, .\nHey, why don't you plant that one\nback home and confound your\nneighbors with it? Gahaha!",
      "USes": "Estas amiguitas crecen muy rápido,\nasí que, como te descuides, se te\nmeterán hasta la cocina, ¡ja, ja, ja!",
      "USfr": "Ici, elles poussent un peu partout,\n.\nTu devrais en planter chez toi.\nJ'imagine la tête des voisins...\nHa ha ha!"
    }
  },
  {
    "label": "108",
    "attribute": "0x0000000000000000",
    "locale": {
      "CNzh": "",
      "EUde": "",
      "EUen": "",
      "EUes": "",
      "EUfr": "",
      "EUit": "",
      "EUnl": "",
      "EUru": "",
      "JPja": "",
      "KRko": "",
      "TWzh": "",
      "USen": "",
      "USes": "",
      "USfr": ""
    }
  },
  {
    "label": "108_01",
    "attribute": "0x0000000000000000",
    "locale": {
      "CNzh": "为什么？没必要客气啊～\n不过，既然你真的不需要，我也不会勉强。\n如果你又想要了，明天可以再来。。",
      "EUde": "Nein? Na, zwingen kann ich dich\nnicht. Sonst würde ich es tun...\nEs wird schon noch der Tag kommen,\nan dem du deine Meinung änderst.\nDann komm wieder zu mir!",
      "EUen": "No, huh? Well, I can't force you. If\nyou change your mind, there's\nalways other days, .",
      "EUes": "Lástima... En fin, no puedo\nobligarte. Avísame si cambias\nde opinión, joven.",
      "EUfr": "T'en veux pas ? Bon, rien t'y oblige,\nbien sûr. Si tu changes d'avis,\nreviens me voir un autre jour.",
      "EUit": "No? Va bene, non voglio insistere.\nPerò fammi sapere se cambi idea,\nun altro giorno.",
      "EUnl": "Geen interesse? Nou, graag of niet.\nKom maar terug als je van gedachten\nverandert.",
      "EUru": "Нет, значит? Ну, я никого не\nзаставляю. Скажи, если\nпередумаешь.",
      "JPja": "なんでぃ、エンリョなんかすんなよ～\nま、いらねぇってなら　無理にとは言わねぇが\n気が変わったら　また明日　来いよ、",
      "KRko": "뭐냐, 거절할 거 없어～\n필요 없다는데 억지로 주진 않겠지만\n마음이 변하면 내일 다시 와라, ",
      "TWzh": "什麼嘛，你不要喔？\n算了，你不想要我也不會強迫你收下。\n如果你改變主意的話，就明天再來吧，。",
      "USen": "No, huh? Well, I can't force you. If\nyou change your mind, there's\nalways other days, .",
      "USes": "Lástima... En fin, no puedo\nobligarte. Avísame si cambias\nde opinión, joven.",
      "USfr": "T'en veux pas? Bon, rien t'y oblige,\nbien sûr. Si tu changes d'avis,\nreviens me voir un autre jour."
    }
  },
  {
    "label": "108_02",
    "attribute": "0x0000000000000000",
    "locale": {
      "CNzh": "这样啊，但这花苗可是优秀的教材啊……\n不过，也许到了明天你又会改变主意呢。\n如果你又想要了，可以再来啊。。",
      "EUde": "Sicher? Aber mehr Spaß kann Lernen\nnicht machen, als eine Pflanze bei\nder Entwicklung zu beobachten.\nFalls du deine Meinung änderst,\ndarfst du mich ab morgen gern\nnoch mal belästigen.",
      "EUen": "If you don't want a flower for a study buddy, that's on you. If you change\nyour mind, find me on another day.",
      "EUes": "Tú te lo pierdes... Podrías aprender\nmucho de ellas... En fin, ya sabes\ndónde estoy si cambias de idea.",
      "EUfr": "Bon, si tu ne t'intéresses pas aux\nplantes, tant pis pour toi.\nRepasse me voir un autre jour,\nsi tu changes d'avis.",
      "EUit": "Beh, se non vuoi un fiorellino come\ncompagno di studio, liberissimo.\nFammi sapere se cambi idea,\nun altro giorno.",
      "EUnl": "Goed, maar dan ook geen smoesjes\nover planten die huiswerk opvreten.\nAls je je bedenkt, hoor ik het wel.",
      "EUru": "Ну, дело твое, а то мог бы уроки\nделать и на цветочки глядеть. Если\nпередумаешь, дай знать.",
      "JPja": "そうかい、いい教材なんだがな・・・\n明日になりゃ　その気になるかもしれねぇし、\nもし欲しくなったら　また来いよ、",
      "KRko": "그렇군, 좋은 교재인데 말이다...\n내일이 되면 마음이 변할지도 모르니까\n혹시 필요해지면 다시 와라, ",
      "TWzh": "這樣啊，真可惜，這明明是個好教材……\n明天你說不定會改變主意，\n到時候如果想要的話，就再來找我吧，。",
      "USen": "If you don't want a flower for a study buddy, that's on you. If you change\nyour mind, find me on another day.",
      "USes": "Tú te lo pierdes... Podrías aprender\nmucho de ellas... En fin, ya sabes\ndónde estoy si cambias de idea.",
      "USfr": "Bon, si tu ne t'intéresses pas aux\nplantes, tant pis pour toi.\nRepasse me voir un autre jour,\nsi tu changes d'avis."
    }
  },
  {
    "label": "108_03",
    "attribute": "0x0000000000000000",
    "locale": {
      "CNzh": "这样啊，那今天就算了吧。\n如果你在外面看过实物，又想要了的话，\n明天还可以再来啊。。",
      "EUde": "Wie du meinst, Kleiner. Aber wenn\ndu wilde Frangipani siehst, willst du\nsicher doch selbst so was haben.\nAlso, wenn du morgen oder an einem\nTag danach zurückkommst, rück ich\nden Setzling schon noch raus!",
      "EUen": "It's your choice, kiddo. But don't say\nI didn't try when you see one in the\nwild and want one for yourself.\nIn fact, if that happens and you do\nend up wantin' one, come find me\non another day, .",
      "EUes": "Tú verás, jovencito. Luego querrás\ntener una cuando las veas tan\nbonitas por ahí...\nEn ese caso, no dudes en venir\na verme. Con todas las que tengo,\nseguro que podré darte una.",
      "EUfr": "Comme tu veux, gamin. Mais viens\npas te plaindre quand tout le monde\nen aura sauf toi.\nEnfin si, en fait, si tu changes d'avis\net que tu en veux une, tu n'auras\nqu'à revenir me voir un de ces jours.",
      "EUit": "Beh, la scelta è tua. Però non dire\nche non ci ho provato, quando\ndeciderai di volere una pianta così.\nIn effetti, se succede, torna a parlare\ncon me, un altro giorno.",
      "EUnl": "Wat jij wilt. Je bedenkt je vast zodra\nje er buiten eentje in het wild ziet.\nEn als dat gebeurt, weet je me wel\nte vinden, .",
      "EUru": "Как хочешь, козявка. Будешь потом\nлокти кусать, когда такой в диком\nвиде увидишь и залюбуешься.\nА вообще, если пожалеешь, просто\nснова ко мне подойди — мы все\nуладим. .",
      "JPja": "そうかい、今日のところは　まあいいや\nもし、外で　実物でも見て　気が変わったら、\nまた明日にでも　ここに来な、",
      "KRko": "그러냐, 오늘은 그럼 됐다\n만약 밖에서 실제로 보고 관심이 생기면\n내일이라도 다시 받으러 와, ",
      "TWzh": "這樣啊，那今天這事就先算了吧。\n如果你在外面看到實物後改變主意，\n就明天再來找我拿吧，。",
      "USen": "It's your choice, kiddo. But don't say\nI didn't try when you see one in the\nwild and want one for yourself.\nIn fact, if that happens and you do\nend up wantin' one, come find me\non another day, .",
      "USes": "Tú verás, jovencito. Luego querrás\ntener una cuando las veas tan\nbonitas por ahí...\nEn ese caso, no dudes en venir\na verme. Con todas las que tengo,\nseguro que podré darte una.",
      "USfr": "Comme tu veux, le jeune. Mais viens\npas te plaindre quand tout le monde\nen aura sauf toi.\nEnfin si, en fait, si tu changes d'avis\net que tu en veux une, tu n'auras\nqu'à revenir me voir un de ces jours."
    }
  },
  {
    "label": "113",
    "attribute": "0x0000000000000000",
    "locale": {
      "CNzh": "……哎哟，慢着！\n你的持有物好像满了，收不下其他东西了啊。\n花苗先放我这儿，收拾好再来吧。。",
      "EUde": "He... Was ist das denn, Kleiner? So\nviel herumzuschleppen, das kann\ndoch nicht gut sein, (Floskel).\nAußerdem passt in deine Tasche\ngar nichts rein. Schaff mal Platz\nfür den Setzling!",
      "EUen": "Wait... What happened, kiddo?\nCouldn't make it to your locker\nbetween classes, ?\nYour pockets are too full to carry\nanything else. Go do somethin' about\nthat so I can give this to you!",
      "EUes": "Un segundo... ¿Cómo es que llevas\nlos bolsillos tan llenos? ¿No tienes\notro sitio donde guardar cosas?\nEl caso es que no podré darte\nnada hasta que no hagas algo\nde espacio...",
      "EUfr": "Oh... T'aurais pas un problème, là ?\nT'as pas eu le temps de déposer tes\naffaires chez toi,  ?\nTes poches sont pleines à craquer,\ngamin. Va faire de la place et\nreviens me voir ensuite !",
      "EUit": "Capperi! Cos'è successo, il tuo\narmadietto se l'è data a gambe?\nAHAHAH!\nHai le tasche pienissime e non entra\npiù nulla. Provvedi, così posso darti\nquesto, !",
      "EUnl": "Wacht... Wat is er loos, jochie? Had\nje geen tijd om naar je kluisje te gaan\ntussen de lessen, ?\nJe zakken zitten ramvol. Ga die effe\ngauw ergens binnenstebuiten keren,\nzodat ik je je zaailing kan geven.",
      "EUru": "Стой... В чем дело, козявка? Не\nуспел в шкафчике вещи оставить\nперед уроками? .\nУ тебя все карманы забиты.\nРазберись с этим недоразумением,\nчтобы я мог тебе побег отдать!",
      "JPja": "・・・っと、ちょっと待った！\nもちものいっぱいで、それ以上は　持てねぇか\n預かっとくから　あとで取りに来な、",
      "KRko": "...이런, 잠깐만!\n주머니가 가득 차서 더 넣을 공간이 없어\n정리하면 다시 가지러 와라, ",
      "TWzh": "哦……等等！你的持有物品太滿，\n沒辦法再拿更多東西了。\n我先幫你保管，你之後再來拿吧，。",
      "USen": "Wait... What happened, kiddo?\nCouldn't make it to your locker\nbetween classes, ?\nYour pockets are too full to carry\nanything else. Go do somethin' about\nthat so I can give this to you!",
      "USes": "Un segundo... ¿Cómo es que llevas\nlos bolsillos tan llenos? ¿No tienes\notro sitio donde guardar cosas?\nEl caso es que no podré darte\nnada hasta que no hagas algo\nde espacio...",
      "USfr": "Oh... T'aurais pas un problème, là?\nT'as pas eu le temps de déposer tes\naffaires chez toi, ?\nTes poches sont pleines à craquer,\nle jeune. Va faire de la place et\nreviens me voir ensuite!"
    }
  },
  {
    "label": "115_01",
    "attribute": "0x0000000000000000",
    "locale": {
      "CNzh": "哦，等你好久了。\n你是来取白色鸡蛋花苗的，对吧？",
      "EUde": "Ah, endlich! Hier hast du deinen\nWeiß-Frangipanisetzling!",
      "EUen": "Been waitin' for you! Here's your\nvery own white-plumeria start!",
      "EUes": "¡Buenas! ¡Te estaba esperando, \njoven! Aquí tienes tu plumeria\nblanca de vivero. ¡Cuídala bien!",
      "EUfr": "Je t'attendais ! Voilà ta pousse\nde frangipanier blanc !",
      "EUit": "Ti aspettavo! O meglio, ti aspettava\nil tuo personalissimo germoglio di\nfrangipani bianco!",
      "EUnl": "Daar ben je eindelijk! Hier is je eigen\nwitte-plumeria-zaailing!",
      "EUru": "Я как раз тебя ждал! Держи, вот\nтвой побег белой плюмерии!",
      "JPja": "おう、待ってたぜ\nしろいプルメリアのなえ、取りに来たんだろ？",
      "KRko": "오, 왔구만\n하얀 플루메리아 묘목을 가지러 온 거지?",
      "TWzh": "嗨，我等你很久了。\n你來拿白色雞蛋花苗對吧？",
      "USen": "Been waitin' for you! Here's your\nvery own white-plumeria start!",
      "USes": "¡Buenas! ¡Te estaba esperando, \njoven! Aquí tienes tu plumeria\nblanca de vivero. ¡Cuídala bien!",
      "USfr": "Je t'attendais! Voilà ta pousse\nde frangipanier blanc!"
    }
  },
  {
    "label": "115_02",
    "attribute": "0x0000000000000000",
    "locale": {
      "CNzh": "哦，等你好久了。\n你是来取粉红鸡蛋花苗的，对吧？",
      "EUde": "Da bist du ja. Dann bekommst du\njetzt deinen Pink-Frangipanisetzling!",
      "EUen": "There you are. And now you're the\nproud owner of a pink-plumeria start!",
      "EUes": "Aquí tienes. ¡Ya puedes presumir\nde tu plumeria rosa de vivero!",
      "EUfr": "Te revoilà. Tiens, ta pousse de\nfrangipanier rose !",
      "EUit": "Eccoti qui. Ed ecco a te il tuo\ngermoglio di frangipani rosa!",
      "EUnl": "Alsjeblieft. Nu ben jij de trotse\nbezitter van een roze-plumeria-\nzaailing!",
      "EUru": "А вот и ты. Теперь ты счастливый\nобладатель побега розовой\nплюмерии!",
      "JPja": "おう、待ってたぜ\nピンクのプルメリアのなえ、取りに来たんだろ？",
      "KRko": "그래, 잘 왔다\n핑크색 플루메리아 묘목을 가지러 온 거지?",
      "TWzh": "嗨，我等你很久了。\n你來拿粉紅雞蛋花苗對吧？",
      "USen": "There you are. And now you're the\nproud owner of a pink-plumeria start!",
      "USes": "Aquí tienes. ¡Ya puedes presumir\nde tu plumeria rosa de vivero!",
      "USfr": "Te revoilà. Tiens, ta pousse de\nfrangipanier rose!"
    }
  }
]