﻿[
  {
    "label": "001",
    "attribute": "0x00000000",
    "locale": {
      "CNzh": "哎呀哎呀！\n(player name)，您～好！\n欢迎您大驾光临！",
      "EUde": "Das ist doch (Spielername)!\nWie ist es dir so ergangen?",
      "EUen": "Well, if it isn't (player name)!\nHow ya been?",
      "EUes": "¡Vaya! ¡Pero si tenemos por aquí\na (player name)! ¿Cómo va eso⁠, primo⁠?",
      "EUfr": "Mais c'est (nom du joueur), mon cousin préféré ! Comment ça va, cousin ?",
      "EUit": "Ma guarda un po' chi c'è... (player name)! Come vanno le cose?",
      "EUnl": "Nou, als dat (player name) niet is! Hoe staat 't leven?",
      "EUru": "Да это же сам (player name)!\nКак поживаешь?",
      "JPja": "これはこれは！\nど～も　(player name)さん！\nようこそ　いらっしゃいましたぁぁぁ！",
      "KRko": "아이고! 이게 누구야!\n(player name)님 아니십니까요!\n잘 와주셨습니다요～!!",
      "TWzh": "哎呀！這不是(player name)嗎？\n您好～！\n歡迎您大駕光臨！",
      "USen": "Well, if it isn't (player name)!\nHow ya been?",
      "USes": "¡Vaya! ¡Pero si tenemos por aquí\na (player name)! ¿Cómo va eso⁠, primo⁠?",
      "USfr": "Mais c'est (nom du joueur)! Comment ça va, l'ami?"
    }
  },
  {
    "label": "002",
    "attribute": "0x02000000",
    "locale": {
      "CNzh": "能抽中诱人奖品的九尾抽奖！\n绝无空奖，一次只需！\n来试试今天的运气吧！",
      "EUde": "Ein Los kostet nur ,\nund jedes Los gewinnt! Jedes!\nAlso, was meinst du?",
      "EUen": "It's only  a ticket, and each\nticket nets a prize! Yep! Every ticket\nis a winner! Whaddaya say?",
      "EUes": "Por solo  el boleto,\nte llevas un premio. ¡Sin trampa\nni cartón! Bien, ¿cómo lo ves?",
      "EUfr": "Seulement  le ticket, et chaque ticket est gagnant ! Oui, tu as bien entendu ! Ça te tente ?",
      "EUit": "Un biglietto costa appena\n, premio garantito! Già!\nSi vince sempre! Allora, cosa mi dici?",
      "EUnl": "Voor een schamele  heb\nje al een lot! En je hebt altijd prijs!\nJa, ja! Dus, eh, wat denk je ervan?",
      "EUru": "Всего  за билет. И приз\nгарантирован! О да! Каждый билет\nвыигрышный! Ну, что скажешь?",
      "JPja": "素敵な景品が当たる　いなりくじ！\n空くじナシで、一回　たったの っ！\n今日の　運だめしにやってみましょ！",
      "KRko": "멋진 경품을 받을 수 있는 여욱 행운권!\n무조건 당첨인데도 1회에 단돈 !\n오늘의 운을 한번 시험해보시죠!",
      "TWzh": "這是能抽到精美獎品的九尾抽獎喔！\n人人有獎，一次只要！\n趕緊來試試您今天的手氣吧！",
      "USen": "It's only  a ticket, and each\nticket nets a prize! Yep! Every ticket\nis a winner! Whaddaya say?",
      "USes": "Pagando solo  el boleto,\nte llevas un premio. ¡Sin trampa\nni secretos! Bien, ¿qué me dices?",
      "USfr": "Seulement  le billet, et chaque billet est gagnant! Oui, t'as bien entendu! Ça te tente?"
    }
  },
  {
    "label": "002_a",
    "attribute": "0x00000000",
    "locale": {
      "CNzh": "要玩！",
      "EUde": "Ich bin dabei!",
      "EUen": "I'm in!",
      "EUes": "¡Dame uno!",
      "EUfr": "Ça me tente !",
      "EUit": "Ci sto!",
      "EUnl": "Ik doe mee!",
      "EUru": "Давай!",
      "JPja": "やる！",
      "KRko": "할래!",
      "TWzh": "要！",
      "USen": "I'm in!",
      "USes": "¡Dame uno!",
      "USfr": "Ça me tente!"
    }
  },
  {
    "label": "002_b",
    "attribute": "0x00000000",
    "locale": {
      "CNzh": "不玩",
      "EUde": "Nein, danke.",
      "EUen": "No, thanks.",
      "EUes": "No me interesa",
      "EUfr": "Non merci.",
      "EUit": "No, non mi interessa.",
      "EUnl": "Nee, dank je!",
      "EUru": "Спасибо, но нет.",
      "JPja": "やらない",
      "KRko": "안 할래",
      "TWzh": "不要",
      "USen": "No, thanks.",
      "USes": "No me interesa",
      "USfr": "Non merci."
    }
  },
  {
    "label": "003",
    "attribute": "0x02000000",
    "locale": {
      "CNzh": "哟！\n您要再玩一次九尾抽奖？\n收您～！",
      "EUde": "Na siehste! Ich wusste doch,\ndass eine Tombola was für dich ist!\nDas macht dann , bitte!",
      "EUen": "Back again? I knew you couldn't\nresist. That'll be , please!",
      "EUes": "¿Vuelves a probar suerte? Sabía\nque no podrías resistirte, primo.\n Venga, apoquina esas \nsi quieres otro boleto.",
      "EUfr": "Te revoilà ? Je savais que tu ne\nrésisterais pas. Ça fera , merci.",
      "EUit": "Sei tornato? Sapevo che non avresti\nresistito. Fanno , prego!",
      "EUnl": "Ben je er weer? Dit buitenkansje kon\nje gewoon niet laten liggen! Dat\nwordt dan , alsjeblieft!",
      "EUru": "Ты опять здесь? Я так и знал, что\nты не сможешь устоять. С тебя\n!",
      "JPja": "おっ！\nいなりくじ、もう一回　引いちゃいます？\n　いただきまっせ～！",
      "KRko": "오옷!\n여욱 행운권, 한 번 더 뽑으시겠습니까요?\n 받겠습니다요～!",
      "TWzh": "哦！\n您要再抽一次九尾抽獎嗎？\n那麼收您～！",
      "USen": "Back again? I knew you couldn't\nresist. That'll be , please!",
      "USes": "¿Vuelves a probar suerte? Sabía\nque no podrías resistirte, primo.\nVamos, entrega esas \nsi quieres otro boleto.",
      "USfr": "Te r'voilà? J'savais que tu pourrais \npas résister. Ça fera , \nmerci."
    }
  },
  {
    "label": "003_a",
    "attribute": "0x00000000",
    "locale": {
      "CNzh": "要玩！",
      "EUde": "Ich bin dabei!",
      "EUen": "I'm in!",
      "EUes": "¡Dame uno!",
      "EUfr": "Ça me tente !",
      "EUit": "Ci sto!",
      "EUnl": "Ik doe mee!",
      "EUru": "Давай!",
      "JPja": "やる！",
      "KRko": "할래!",
      "TWzh": "要！",
      "USen": "I'm in!",
      "USes": "¡Dame uno!",
      "USfr": "Ça me tente!"
    }
  },
  {
    "label": "003_b",
    "attribute": "0x00000000",
    "locale": {
      "CNzh": "不玩",
      "EUde": "Nein, danke.",
      "EUen": "No, thanks.",
      "EUes": "No me interesa",
      "EUfr": "Non merci.",
      "EUit": "No, non mi interessa.",
      "EUnl": "Nee, dank je!",
      "EUru": "Спасибо, но нет.",
      "JPja": "やらない",
      "KRko": "안 할래",
      "TWzh": "不要",
      "USen": "No, thanks.",
      "USes": "No me interesa",
      "USfr": "Non merci."
    }
  },
  {
    "label": "004",
    "attribute": "0x00000000",
    "locale": {
      "CNzh": "哎呀～～！难得您长途跋涉\n来到这座岛上，\n还是玩一次再走吧～",
      "EUde": "Huch? Da verpasst du aber was!\nTrau deinem Freund Reiner ruhig,\ndie Tombola lohnt sich!",
      "EUen": "No? How could anyone say no to\nRedd's Raffle? C'mon! You trust\nyour old pal Redd, don'tcha?",
      "EUes": "¿Rechazas la oportunidad de\nparticipar en mi tómbola? ¿Acaso\nno te fías de tu primo Ladino?",
      "EUfr": "Non ? Comment peut-on dire non à\nla tombola de Rounard ? Tu fais pas\nconfiance à ton cousin Rounard ?",
      "EUit": "No? Ma come si fa a dire di no alla\nlotteria di Volpolo? E dai! Cos'è?\nNon ti fidi di Volpolo, forse?",
      "EUnl": "Nee? Wie kan Redds Schattenloterij\nnou weerstaan? Kom! Je vertrouwt\nje broertje Redd toch wel?",
      "EUru": "Нет? Как можно сказать «нет»\nРозыгрышу Рэдда? Да брось ты!\nКузену Рэдду можно доверять!",
      "JPja": "えぇぇ～～！　こんな遠い島まで\nはるばる　来てくれはったんですし、\nせっかくなら　引いていきましょうよ～",
      "KRko": "에잉～～!\n기껏 이렇게 먼 섬까지 오셨으니\n한번 뽑아보시지 그러십니까요～",
      "TWzh": "什麼～！您都從那麼遠的小島\n長途跋涉來到這裡了，\n還是抽一次獎再走吧～",
      "USen": "No? How could anyone say no to\nRedd's Raffle? C'mon! You trust\nyour old pal Redd, don'tcha?",
      "USes": "¿Rechazas la oportunidad de\nparticipar en mi lotería? ¿Acaso\nno confías en tu primo Ladino?",
      "USfr": "Non? Comment peut-on dire non au \ntirage de Rounard? Tu fais pas\nconfiance à ton chum Rounard?"
    }
  },
  {
    "label": "005",
    "attribute": "0x00000000",
    "locale": {
      "CNzh": "再见啊！\n请您下次再来玩～！",
      "EUde": "Zu aufregend, was? Verständlich!\nDanke jedenfalls fürs Spielen.\nKomm bald mal wieder!",
      "EUen": "Too excitin', huh? I understand!\nWell, thanks for playing, and come\nback again soon!",
      "EUes": "Demasiadas emociones para un solo\ndía, ¿eh? ¡Es comprensible!\nBueno, espero que te animes\nen otro momento.",
      "EUfr": "Trop d'émotion pour toi, hm ? Je\ncomprends. Merci d'avoir participé,\net à très bientôt !",
      "EUit": "Troppo divertimento? Ma certo,\ncapisco! Grazie per aver partecipato\ne torna presto!",
      "EUnl": "Genoeg spanning voor een dag, hè?\nDat snap ik helemaal! Nou, bedankt\nvoor 't meedoen en tot kijk!",
      "EUru": "Слишком затягивает, да? Понимаю!\nНу, благодарю за игру, и приходи еще!",
      "JPja": "ほな！\nまた　引きに来てくださいね～！",
      "KRko": "예!\n또 놀러와주십쇼～!",
      "TWzh": "好的，我知道了！\n請您下次再來抽抽看吧～！",
      "USen": "Too excitin', huh? I understand!\nWell, thanks for playing, and come\nback again soon!",
      "USes": "Demasiadas emociones para un solo\ndía, ¿eh? ¡Te comprendo!\nBueno, espero que te animes\nen otro momento.",
      "USfr": "Trop d'émotion pour toi, hm? \nJ'comprends. Merci d'avoir participé,\net à très bientôt!"
    }
  },
  {
    "label": "007",
    "attribute": "0x00000000",
    "locale": {
      "CNzh": "多谢惠顾……咦？这位客人～！\n您的钱不够啊！\n一次，一分不多一分不少！",
      "EUde": "Das hört man gern, das ist Musik\nin mei–  ei, ei, ei! Was seh ich da!\nDu hast ja gar keine !\nBedaure! Du bist zwar mein liebster\nKunde auf der Welt, aber bei meinen\nMargen muss ich eisern sein.\nEinmal mitmachen kostet bei mir\n. Daran ändert auch\ndie liebe Liebe nix, entschuldige.",
      "EUen": "Now that's what I like to— Haaang on\na minute! You don't have .\nSorry, but even though you're like\nfamily, if I bend the rules for you, I'd\nhave to bend them for everyone else.\nIt's  a ticket. No discounts.\nMy margins are too thin as it is...",
      "EUes": "Así, me gusta, pri... ¡Un momento!\nNo tienes .\nPor mucho que seamos como de la\nfamilia, no puedo saltarme las reglas\npor ti. Lo entiendes, ¿verdad?\n el boleto, sin descuentos\nni ofertas de otro tipo. (Que no soy\nuna ONG...)",
      "EUfr": "Tu fais le bon choix ! Oh, mais !\nTu n'as pas les \nrequises !\nDésolé, cousin, mais je ne fais pas\ncrédit. Sinon, je vais devoir faire\npareil pour tout le monde, imagine !\nC'est  le ticket. Pas de\nprix d'ami ni de réduction étudiant.\nFaut bien que je mange, aussi...",
      "EUit": "Benissimo, allora... Eeehi, aspetta\nun attimo, cugino. Dove sono le tue\n?\nD'accordo che siamo quasi parenti,\nma se infrango le regole per te, poi\ndevo infrangerle con tutti gli altri.\nPurtroppo non si fanno sconti.\nSono  a biglietto.\nAnch'io devo pagare le tasse!",
      "EUnl": "Zo mag ik 't horen! Maar wacht eens even... Je hebt geen .\nOok al ben je als een broertje voor\nme, ik kan geen uitzondering voor\nje maken.\nDan moet ik namelijk voor Jan en\nalleman een uitzondering maken,\nen is 't eind zoek.\nEen lot kost . Korting is\nuit den boze. M'n winstmarge is al om te\njanken...",
      "EUru": "Вот это я понима-а-ама дорогая,\nу тебя же нет !\nПрости! Ты мне, конечно, как\nродной, но правила есть правила,\nдаже для самых близких.\n за билет. Скидок не\nделаю. Навар и без этого так себе...",
      "JPja": "まいどぉ～・・・って、お客さ～ん！\nお金　足りてませんやん！\n一回　、きっちり頂きますからね",
      "KRko": "감사합니... 아니 손니이～임!\n돈이 부족하시지 않습니까요!\n1회 , 딱 맞춰 주셔야 합니다요～!",
      "TWzh": "謝謝惠顧～呃……這位客人～！\n你身上的錢不夠耶！\n一次要，還請您帶夠錢再來。",
      "USen": "Now that's what I like to— Haaang on\na minute! You don't have .\nSorry, but even though you're like\nfamily, if I bend the rules for you, I'd\nhave to bend them for everyone else.\nIt's  a ticket. No discounts.\nMy margins are too thin as it is...",
      "USes": "Así, me gusta, pri... ¡Un momento!\nNo tienes .\nAunque seamos como de la familia,\nno puedo hacer excepciones a las\nreglas por ti. Me entiendes, ¿verdad?\n el boleto, sin descuentos\nni ofertas de otro tipo. (No soy\nuna ONG...).",
      "USfr": "Tu fais le bon choix! Oh, mais! \nT'as pas les \nqui faut!\nDésolé, l'ami, mais j'fais pas de\ncrédit. Sinon, j'vais devoir faire\npareil pour tout le monde, imagine!\nC'est  le billet. Pas de\nprix d'ami ni de réduction étudiant.\nFaut bien que j'mange, aussi..."
    }
  },
  {
    "label": "008",
    "attribute": "0x00000000",
    "locale": {
      "CNzh": "哎呀哎呀，这位客人～！\n您身上带的东西已经满了啊。\n还请您整理好之后再来光顾啊！",
      "EUde": "Wart mal, deine Tasche ist ja voll!\nPuh. Jetzt stell dir nur mal vor, du\nstaubst hier deinen Traumpreis ab...\n...und dann kannst du ihn nicht\nnach Hause tragen! Das wäre\ndoch tragisch!",
      "EUen": "Hold on! Your pockets are full. Like\nI said, EVERY ticket's a winner. You\ngotta have room for your prize!",
      "EUes": "¡No tienes hueco en los bolsillos,\nprimo! Y, como te vas a llevar un\npremio sí o sí, ¡lo necesitarás!",
      "EUfr": "Hé là ! Mais tes poches sont pleines !\nComme chaque ticket est gagnant,\nil te faut de la place pour ton prix !",
      "EUit": "Ehi, hai le tasche piene. Guarda\nche si vince un premio con TUTTI i\nbiglietti. Dai, un posticino si trova!",
      "EUnl": "Ho even! Je zakken zijn vol. Zoals ik\nal zei: \"Altijd prijs\". Dus je moet er\nwel plek voor hebben.",
      "EUru": "Погоди! У тебя же карманы полны!\nА розыгрыш-то беспроигрышный!\nОсвободи место для приза!",
      "JPja": "ありゃりゃ、お客さ～ん！\nお荷物が　いっぱいやないですか\nいっぺん整理してから　また来てくださいね！",
      "KRko": "이런이런, 손니이～임!\n짐이 너무 많으시지 않습니까요～!\n한번 좀 정리를 하고 다시 와주십쇼!",
      "TWzh": "謝謝，謝謝這位客人～！\n不過您的包包好像滿了，\n請先整理好包包再過來吧！",
      "USen": "Hold on! Your pockets are full. Like\nI said, EVERY ticket's a winner. You\ngotta have room for your prize!",
      "USes": "¡No tienes lugar en los bolsillos,\nprimo! Y, como te vas a llevar un\npremio sí o sí, ¡necesitarás espacio!",
      "USfr": "Hé oh! Mais tes poches sont pleines!\nComme chaque billet est gagnant,\nil faut d'la place pour ton prix!"
    }
  },
  {
    "label": "009",
    "attribute": "0x00000000",
    "locale": {
      "CNzh": "多谢惠顾～！\n来来，请抽一张！",
      "EUde": "Vorzüglich! Wunderprächtig!\nDann steck gleich das Pfötchen in\ndie Kiste und schnapp dir dein Los!",
      "EUen": "Excellent! Wonderful! Now, if you\nplease, reach your hand into the\nbox and pull yourself a ticket!",
      "EUes": "¡Fantástico! Es justo lo que quería\noír, primo. Pues bien, coge tú mismo\nun boleto de la caja. ¡Adelante!",
      "EUfr": "Formidable ! Et maintenant, choisis\nun ticket dans la boîte de ta main la\nplus innocente.",
      "EUit": "Splendido! Meraviglioso! Ora metti\npure la mano nell'urna e pesca un\nbel biglietto!",
      "EUnl": "Prachtig! Hartstikke mooi! Nou, steek\nje hand maar in de doos en haal er\neen lot uit!",
      "EUru": "Прекрасно! Чудесно! Ну, давай,\nхватай билет из ящика!",
      "JPja": "まいどぉ～！\nほな、一枚　引いてくださいね",
      "KRko": "감사합니다～～～!\n자자, 한 장 뽑아주십쇼!",
      "TWzh": "謝謝惠顧～！\n那麼，請抽一張。",
      "USen": "Excellent! Wonderful! Now, if you\nplease, reach your hand into the\nbox and pull yourself a ticket!",
      "USes": "¡Fantástico! Es justo lo que quería\noír, primo. Pues bien, toma un boleto\nde la caja tú mismo. ¡Adelante!",
      "USfr": "Formidable! Et maintenant, choisis\nun billet dans la boîte de ta main la\nplus innocente."
    }
  },
  {
    "label": "010",
    "attribute": "0x00000000",
    "locale": {
      "CNzh": "我看看……",
      "EUde": "Was mag es sein?\nWas winkt dir wohl?\nGleich erfahren wir's!",
      "EUen": "What'll it be? What'll you win?\nLet's find out!",
      "EUes": "¿Qué será, será? ¿Qué premio te\nllevarás? ¡Averigüémoslo!",
      "EUfr": "Qu'est-ce que le destin t'a réservé ?\nQuel prix vas-tu gagner ?\nDécouvrons-le sans plus tarder !",
      "EUit": "Cosa vincerai? Quale premio ti\naspetta? Tra poco lo sapremo!",
      "EUnl": "Welke prijs neem je mee naar huis?\nDaar gaan we nu achter komen!",
      "EUru": "Что там будет? Что ты выиграешь?\nДавай посмотрим!",
      "JPja": "どれどれ～・・・",
      "KRko": "어디어디...",
      "TWzh": "我看看……",
      "USen": "What'll it be? What'll you win?\nLet's find out!",
      "USes": "¿Qué será, será? ¿Qué premio te\nllevarás? ¡Averigüémoslo!",
      "USfr": "Qu'est-ce que le destin t'réserve?\nQuel prix t'vas gagner?\nDécouvrons-le sans plus tarder!"
    }
  },
  {
    "label": "011",
    "attribute": "0x02000000",
    "locale": {
      "CNzh": "这位客人，您很走运呢！\n花再来一次，您觉得如何？",
      "EUde": "Das klappt ja hervorragend!\nWie wär's mit noch 'ner Runde?\nNur schlappe !",
      "EUen": "You're a natural at this! Why don't\nyou pull another? Only !",
      "EUes": "Se nota que tienes un talento innato\npara esto. ¿Te animas a tentar a la\nsuerte de nuevo? ¡Solo !",
      "EUfr": "Tu as la chance dans la peau ! Tu\nn'as pas envie de retenter ? Pour\n, une misère !",
      "EUit": "Sembra che questo gioco ti piaccia\nparecchio! Perché non peschi un\naltro biglietto? Solo !",
      "EUnl": "Zo, zo, een waar natuurtalent! Voor\n't luttele bedrag van \nkun je 't nog eens proberen!",
      "EUru": "Да ты просто везунчик! Может,\nпопробуешь еще разок? Всего-то\n!",
      "JPja": "お客さん　ツイてはりますねぇ\nで　もう一回、いっときます？",
      "KRko": "손님 운이 좋으시구만요～!\n로 한 번 더, 어떠십니까?",
      "TWzh": "這位客人，您的運氣很好耶。\n再抽一次要，要試試看嗎？",
      "USen": "You're a natural at this! Why don't\nyou pull another? Only !",
      "USes": "Se nota que tienes un talento innato\npara esto. ¿Te animas a probar\nsuerte de nuevo? ¡Solo !",
      "USfr": "T'as la chance dans la peau! \nT'as pas envie de retenter? Pour\n, c'est presque rien!"
    }
  },
  {
    "label": "011_a",
    "attribute": "0x00000000",
    "locale": {
      "CNzh": "要玩！",
      "EUde": "Ich bin dabei!",
      "EUen": "I'm in!",
      "EUes": "¡Dame uno!",
      "EUfr": "Ça me tente !",
      "EUit": "Ci sto!",
      "EUnl": "Ik doe mee!",
      "EUru": "Давай!",
      "JPja": "やる！",
      "KRko": "할래!",
      "TWzh": "要！",
      "USen": "I'm in!",
      "USes": "¡Dame uno!",
      "USfr": "Ça me tente!"
    }
  },
  {
    "label": "011_b",
    "attribute": "0x00000000",
    "locale": {
      "CNzh": "不玩",
      "EUde": "Nein, danke.",
      "EUen": "No, thanks.",
      "EUes": "No me interesa",
      "EUfr": "Non merci.",
      "EUit": "No, non mi interessa.",
      "EUnl": "Nee, dank je!",
      "EUru": "Спасибо, но нет.",
      "JPja": "やらない",
      "KRko": "안 할래",
      "TWzh": "不要",
      "USen": "No, thanks.",
      "USes": "No me interesa",
      "USfr": "Non merci."
    }
  },
  {
    "label": "012",
    "attribute": "0x02000000",
    "locale": {
      "CNzh": "趁着这势头再来一次吧！\n，您看如何？",
      "EUde": "Oha, oha, oha! Fortuna lacht!\nWie wär's mit noch 'nem Ründchen\nfür nur , hm?",
      "EUen": "You're on a roll. Care to keep it going\nfor another ?",
      "EUes": "¡La suerte te sonríe! ¿No quieres\naprovechar para intentarlo de\nnuevo? ¡Serán  de nada!",
      "EUfr": "La chance te sourit. Tu veux la\nretenter, pour la somme modique de\n ?",
      "EUit": "Sei lanciatissimo! Al tuo posto,\nio spenderei altre  per\nun'altra estrazione.",
      "EUnl": "Je bent op dreef. Wil je nog een lot\nvoor 't schandalig lage bedrag van\n?",
      "EUru": "Тебе везет по-крупному! Может,\nпопробуешь еще разок? Всего-то\n!",
      "JPja": "この調子で　もう一回、いっちゃいましょ！\nですけど　どないです？",
      "KRko": "이 기세로 한 번 더 어떠십니까요?\n단돈 , 솔깃하지 않으십니까?",
      "TWzh": "就一鼓作氣再來一次吧！\n要再收您，可以嗎？",
      "USen": "You're on a roll. Care to keep it going\nfor another ?",
      "USes": "¡La suerte te sonríe! ¿No quieres\naprovechar para intentarlo de\nnuevo? ¡Son solo !",
      "USfr": "La chance te sourit. Tu veux la\nretenter, pour la somme modique de\n?"
    }
  },
  {
    "label": "012_a",
    "attribute": "0x00000000",
    "locale": {
      "CNzh": "要玩！",
      "EUde": "Ich bin dabei!",
      "EUen": "I'm in!",
      "EUes": "¡Dame uno!",
      "EUfr": "Ça me tente !",
      "EUit": "Ci sto!",
      "EUnl": "Ik doe mee!",
      "EUru": "Давай!",
      "JPja": "やる！",
      "KRko": "할래!",
      "TWzh": "要！",
      "USen": "I'm in!",
      "USes": "¡Dame uno!",
      "USfr": "Ça me tente!"
    }
  },
  {
    "label": "012_b",
    "attribute": "0x00000000",
    "locale": {
      "CNzh": "不玩",
      "EUde": "Nein, danke.",
      "EUen": "No, thanks.",
      "EUes": "No me interesa",
      "EUfr": "Non merci.",
      "EUit": "No, non mi interessa.",
      "EUnl": "Nee, dank je!",
      "EUru": "Спасибо, но нет.",
      "JPja": "やらない",
      "KRko": "안 할래",
      "TWzh": "不要",
      "USen": "No, thanks.",
      "USes": "No me interesa",
      "USfr": "Non merci."
    }
  },
  {
    "label": "013",
    "attribute": "0x02000000",
    "locale": {
      "CNzh": "您抽奖的运气很好啊，这位客人～\n怎么样？花再来一次？",
      "EUde": "Geschickt gegriffen! Dann sag mal,\nwie wär's mit noch 'ner Runde für\nsparsame ?",
      "EUen": "Way to pull that ticket! How'd you\nlike to pull another for ?",
      "EUes": "¡Qué buen ojo tienes para elegir\nboletos, primo! ¿No te animas a\nsacar otro por ?",
      "EUfr": "Tu es un vrai pro de la tombola !\nVeux-tu retenter ta chance pour la\nsomme ridicule de  ?",
      "EUit": "Hai proprio l'occhio per queste cose!\nFacciamo un altro giro? Sono solo\n!",
      "EUnl": "Goed bezig, broertje! Wil je nog een\nlot trekken voor maar ?",
      "EUru": "Отлично вытянул! Может быть,\nпопробуешь еще разок? Всего-то\n!",
      "JPja": "引きが　ヨロシイわ　お客さん～\nどうです？　で、もう一回！",
      "KRko": "햐아～ 정말 운이 좋으십니다 손니임～\n로 한 번 더, 어떠십니까요～?",
      "TWzh": "您的手氣很好耶，這位客人～\n怎麼樣？就能再來一次喔！",
      "USen": "Way to pull that ticket! How'd you\nlike to pull another for ?",
      "USes": "¡Qué buen ojo tienes para elegir\nboletos, primo! ¿Te animas a sacar\notro por ?",
      "USfr": "T'es un vrai pro des tirages!\nVeux-tu retenter ta chance pour la\nmodique somme de ?"
    }
  },
  {
    "label": "013_a",
    "attribute": "0x00000000",
    "locale": {
      "CNzh": "要玩！",
      "EUde": "Ich bin dabei!",
      "EUen": "I'm in!",
      "EUes": "¡Dame uno!",
      "EUfr": "Ça me tente !",
      "EUit": "Ci sto!",
      "EUnl": "Ik doe mee!",
      "EUru": "Давай!",
      "JPja": "やる！",
      "KRko": "할래!",
      "TWzh": "要！",
      "USen": "I'm in!",
      "USes": "¡Dame uno!",
      "USfr": "Ça me tente!"
    }
  },
  {
    "label": "013_b",
    "attribute": "0x00000000",
    "locale": {
      "CNzh": "不玩",
      "EUde": "Nein, danke.",
      "EUen": "No, thanks.",
      "EUes": "No me interesa",
      "EUfr": "Non merci.",
      "EUit": "No, non mi interessa.",
      "EUnl": "Nee, dank je!",
      "EUru": "Спасибо, но нет.",
      "JPja": "やらない",
      "KRko": "안 할래",
      "TWzh": "不要",
      "USen": "No, thanks.",
      "USes": "No me interesa",
      "USfr": "Non merci."
    }
  },
  {
    "label": "014",
    "attribute": "0x00000000",
    "locale": {
      "CNzh": "抱歉抱歉～！\n今天小店已经打烊了～！\n请您下次多关照～！",
      "EUde": "Tut mir leid, aber ich habe leider\ngeschlossen. Komm bitte an einem\nanderen Tag wieder. Man sieht sich!",
      "EUen": "Sorry, but I'm closed up for the\nnight. You'll have to come back\non another day. See ya then!",
      "EUes": "Ya he echado el cierre por hoy.\nPásate otro día a primera hora\nsin falta, primo.",
      "EUfr": "Désolé, mais tu arrives après la\nfermeture. Reviens un autre jour.\nBonne soirée !",
      "EUit": "Chiedo scusa, ma di notte non\nlavoro. Sarò qui, al tuo servizio,\nun altro giorno. Ci vediamo!",
      "EUnl": "Sorry, broertje, maar deze vos moet\nook slapen! Je zult op een andere\ndag moeten terugkomen. Tot dan!",
      "EUru": "Извини, но на сегодня уже закрыто.\nПриходи как-нибудь в другой раз.\nДо скорого!",
      "JPja": "すんませぇ～ん！\n今日はもう　閉店なんですわ～！\nまた今度　よろしゅう　たのんます～！",
      "KRko": "죄송합니다～!\n오늘은 영업이 끝났습니다요～!\n다음에 또 잘 부탁드립니다요～!",
      "TWzh": "很抱歉～！\n今天已經打烊了～！\n請您下次再來捧場吧～！",
      "USen": "Sorry, but I'm closed up for the\nnight. You'll have to come back\non another day. See ya then!",
      "USes": "Ya cerré por hoy. Pasa otro día\na primera hora sin falta, primo.",
      "USfr": "Désolé, mais t'arrives après la\nfermeture. Reviens un autre jour. \nBonne soirée!"
    }
  },
  {
    "label": "100",
    "attribute": "0x00000000",
    "locale": {
      "CNzh": "来！1号！\n您抽中了桃红色扇子。",
      "EUde": "Die Nummer 1! Damit hast du\neinen Rosa-Fächer gewonnen!\nGlückwunsch!",
      "EUen": "Big number 1! Just like that, you've\nwon a peachy-pink folding fan!\nCongratulations!",
      "EUes": "¡Has sacado el número 1! Y con él\nte llevas un bonito abanico rosa\nflor de cerezo. ¡Enhorabuena, primo!",
      "EUfr": "Numéro 1 ! Te voilà l'heureux propriétaire d'un superbe éventail\nrose pêche ! Félicitations !",
      "EUit": "Numero... 1! Significa che hai\nvinto un ventaglio rosa pesca!\nCongratulazioni!",
      "EUnl": "Een dikke 1! En wat heb je\ngewonnen? Een perzikroze waaier!\nProficiat!",
      "EUru": "Потрясающий номер 1! Именно\nтак — тебе достается персиковый\nвеер! Мои поздравления!",
      "JPja": "はいっ！　1番！\nもものせんすの　当たりですわ",
      "KRko": "옙! 1번!\n분홍색 쥘부채 당첨이십니다요～!",
      "TWzh": "好！是1號！\n中了桃紅色扇子喔。",
      "USen": "Big number 1! Just like that, you've\nwon a peachy-pink folding fan!\nCongratulations!",
      "USes": "¡Sacaste el número 1! Te llevas un\nbonito abanico rosa flor de cerezo.\n¡Felicitaciones, primo!",
      "USfr": "Numéro 1! Te voilà l'heureux propriétaire d'un superbe éventail\nrose pêche! Félicitations!"
    }
  },
  {
    "label": "101",
    "attribute": "0x00000000",
    "locale": {
      "CNzh": "哎哟！是2号！\n给您拿天空蓝扇子～！",
      "EUde": "Die Nummer 2! Sehr schön! Hier,\nein Himmelblau-Fächer für dich!\nGlückwunsch!",
      "EUen": "Very nice! It's number 2! Here, your\nvery own sky-blue folding fan!\nCongratulations!",
      "EUes": "¡Has sacado el número 2! Te llevas\nun bonito abanico azul cielo.\n¡Enhorabuena, primo!",
      "EUfr": "Numéro 2 ! Joli ! Et voilà pour toi,\nun sublime éventail bleu ciel !\nFélicitations !",
      "EUit": "Ottimo! Numero 2! E allora ecco il\ntuo ventaglio azzurro cielo! Evvivaaa!",
      "EUnl": "Heel goed! Nummertje 2! Kijk eens\naan. Een hemelsblauwe waaier!\nProficiat!",
      "EUru": "Замечательно! Тебе выпал номер 2!\nА с ним и небесно-голубой веер!\nПоздравляю!",
      "JPja": "おっと！　2番！\nそらいろのせんすの　お渡しです～！",
      "KRko": "오호라! 2번!\n하늘색 쥘부채 드리겠습니다요～!",
      "TWzh": "哎呀！是2號！\n請收下天空藍扇子～！",
      "USen": "Very nice! It's number 2! Here, your\nvery own sky-blue folding fan!\nCongratulations!",
      "USes": "¡Sacaste el número 2! Te llevas\nun bonito abanico azul cielo.\n¡Felicitaciones, primo!",
      "USfr": "Numéro 2! Joli! Et voilà pour toi,\nun sublime éventail bleu ciel!\nFélicitations!"
    }
  },
  {
    "label": "102",
    "attribute": "0x00000000",
    "locale": {
      "CNzh": "好嘞，3号！\n恭喜您抽中嫩绿色扇子！",
      "EUde": "Die Nummer 3! Du gewinnst etwas,\nwas mir selbst sehr gut gefällt: \nden Grasgrün-Fächer! Glückwunsch!",
      "EUen": "One of my favorites, it's number 3!\nYou won a grass-green folding fan!\nCongratulations!",
      "EUes": "¡Has sacado el número 3! Te llevas\nun estupendo abanico verde hierba.\n¡Enhorabuena, primo!",
      "EUfr": "Numéro 3, mon numéro préféré !\nTu repars donc avec un éventail vert\nherbe ! Félicitations !",
      "EUit": "Numero 3, uno dei miei preferiti! Ti\nsei aggiudicato un ventaglio verde\nerba! Congratulazioni!",
      "EUnl": "Mijn lievelingsgetal. Nummer 3!\nJe wint een grasgroene waaier!\nProficiat!",
      "EUru": "Это же мой любимый номер 3!\nТы получаешь изумрудный веер!\nУра-ура!",
      "JPja": "はい、3番！\nわかくさのせんすの　当たりィ～！",
      "KRko": "예, 3번!\n어린잎색 쥘부채 당처엄～!",
      "TWzh": "好，是3號！\n中了嫩綠色扇子～！",
      "USen": "One of my favorites, it's number 3!\nYou won a grass-green folding fan!\nCongratulations!",
      "USes": "¡Sacaste el número 3! Te llevas\nun estupendo abanico verde hierba.\n¡Felicitaciones, primo!",
      "USfr": "Numéro 3, mon numéro préféré!\nTu repars donc avec un éventail vert\nherbe! Félicitations!"
    }
  },
  {
    "label": "103",
    "attribute": "0x00000000",
    "locale": {
      "CNzh": "来了！4号！\n奖品是橙色扇子～！",
      "EUde": "Die Nummer 4! Damit räumst du den\nOrange-Fächer mit deinem Namen\ndrauf ab! Glückwunsch!",
      "EUen": "Big score! It's number 4! I've got\na bitter-orange folding fan with your\nname on it! Congratulations!",
      "EUes": "¡Has sacado el número 4! Y con él te\nllevas un bonito abanico naranja\namarga. ¡Enhorabuena, primo!",
      "EUfr": "Numéro 4 ! Bien joué ! Tu remportes\nun éventail orange amère à ton\nnom ! Félicitations !",
      "EUit": "Numero 4! Significa che ti aggiudichi\nun ventaglio arancia amara nuovo\nfiammante! Congratulazioni!",
      "EUnl": "En je hebt nummer... 4 gescoord!\nEen oranje waaier! Helemaal voor\njou! Proficiat!",
      "EUru": "Вот это удача! Номер 4! А приз за\nнего — померанцевый веер с твоим\nименем на нем! Поздравляю!",
      "JPja": "来ました！　4番！\n景品は　だいだいのせんす～！",
      "KRko": "아핫! 4번!\n경품은 노을색 쥘부채 되겠습니다요～!",
      "TWzh": "來了！是4號！\n獎品是橙色扇子～！",
      "USen": "Big score! It's number 4! I've got\na bitter-orange folding fan with your\nname on it! Congratulations!",
      "USes": "¡Sacaste el número 4! Así que te\nllevas un bonito abanico naranja amarga. ¡Felicitaciones, primo!",
      "USfr": "Numéro 4! Bien joué! Tu remportes\nun éventail orange amer à ton\nnom! Félicitations!"
    }
  },
  {
    "label": "104",
    "attribute": "0x00000000",
    "locale": {
      "CNzh": "出来了！5号！\n您的奖品是香草冰淇淋～！",
      "EUde": "Die Nummer 5! Die bringt dir\nein leckeres Vanilleeis ein!\nLass es dir schmecken!",
      "EUen": "A nice, round number 5! That'll win\nyou a tasty vanilla cone! Enjoy!",
      "EUes": "¡Has sacado el número 5! Te llevas\nun delicioso cucurucho de vainilla.\n¡Enhorabuena, primo!",
      "EUfr": "Un beau numéro 5 tout rond ! Voilà\nun succulent cône à la vanille pour\ntoi ! Savoure-le bien !",
      "EUit": "Ah, bene, numero 5! Ti meriti un\nbel cono alla vaniglia! È tutto tuo!",
      "EUnl": "Een mooie ronde 5! En daarmee win\nje een vanillehoorntje! Eet\nsmakelijk!",
      "EUru": "Такое приятное число 5! А с ним не\nменее приятный ванильный\nрожок! Ешь на здоровье!",
      "JPja": "出たッ！　5番！\n景品は　バニラアイスクリームです～！",
      "KRko": "어어! 5번!\n경품은 바닐라 아이스크림 입니다요～!",
      "TWzh": "來啦！是5號！\n獎品是香草冰淇淋～！",
      "USen": "A nice, round number 5! That'll win\nyou a tasty vanilla cone! Enjoy!",
      "USes": "¡Sacaste el número 5! Te llevas\nun delicioso cucurucho de vainilla.\n¡Felicitaciones, primo!",
      "USfr": "Un beau numéro 5 tout rond! Voilà\nun succulent cône à la vanille pour\ntoi! Savoure-le bien!"
    }
  },
  {
    "label": "105",
    "attribute": "0x00000000",
    "locale": {
      "CNzh": "是6号～！\n您抽中了巧克力冰淇淋～！",
      "EUde": "Ist das eine 9?\nHalt, nein, das ist die Nummer 6!\nDu gewinnst ein leckeres Schokoeis!\nLass es dir schmecken!",
      "EUen": "Is that a 9?\nNo, wait—that's a 6! You won a\nchocolate cone! Enjoy!",
      "EUes": "¡Has sacado el número 9! \nNo, espera...\n¡Es el 6! Y de premio te llevas un\nrefrescante cucurucho de chocolate.\n¡Que lo disfrutes, primo!",
      "EUfr": "9 ? Aaah non, pardon, c'est un 6 !\nTu repars avec un délicieux cône au\nchocolat ! Régale-toi !",
      "EUit": "Hai pescato il numero 9!\nNo, aspetta... è un 6! Quindi ti\naggiudichi un cono al cioccolato!\nEvvivaaa!",
      "EUnl": "Is dat een 9?\nNee! Het is een 6! En dat is goed\nvoor een chocoladehoorntje!\nEet smakelijk!",
      "EUru": "Это что, номер 9?\nНет, постой, это 6! Ты получаешь\nшоколадный рожок! Приятного\nаппетита!",
      "JPja": "6番ですね～！\nチョコレートアイスクリームの　当たりィ～！",
      "KRko": "6번이네요～!\n초콜릿 아이스크림 당처엄～!",
      "TWzh": "是6號呢～！\n中了巧克力冰淇淋～！",
      "USen": "Is that a 9?\nNo, wait—that's a 6! You won a\nchocolate cone! Enjoy!",
      "USes": "¡Sacaste el número 9! \nAh, no, espera...\n¡Es un 6! Y de premio te llevas un\nrefrescante cucurucho de chocolate.\n¡Que lo disfrutes, primo!",
      "USfr": "9? Aaah non, pardon, c'est un 6!\nTu repars avec un délicieux cône au\nchocolat! Régale-toi!"
    }
  },
  {
    "label": "106",
    "attribute": "0x00000000",
    "locale": {
      "CNzh": "幸运的7号！\n抽中了草莓冰淇淋！",
      "EUde": "Die Nummer 7! So ein Glück,\ndu bekommst ein Erdbeereis!\nLass es dir schmecken!",
      "EUen": "It's lucky number 7! Here's a\nstrawberry cone for the big winner!\nEnjoy!",
      "EUes": "¡Has sacado el número 7! ¡El de la\nbuena suerte! Y con él te llevas un\ncucurucho de fresa. ¡Enhorabuena!",
      "EUfr": "7, le numéro de la chance ! Et tu\nremportes... un cône à la fraise,\npetit veinard ! Savoure-le bien !",
      "EUit": "Hai pescato il numero 7! Ti vale\nun freschissimo cono alla fragola!\nCongratulazioni!",
      "EUnl": "Het geluksgetal 7! En hier is een\naardbeienhoorntje voor de gelukkige\nwinnaar! Eet smakelijk!",
      "EUru": "Счастливое число 7! И клубничный\nрожок для нашего победителя!\nЕшь с удовольствием!",
      "JPja": "ラッキーな　7番！\nストロベリーアイスクリームの　当た～り～！",
      "KRko": "럭키 세븐! 7번!\n딸기 아이스크림 다앙～ 처엄～!",
      "TWzh": "是代表幸運數字的7號！\n中了～草莓冰淇淋～！",
      "USen": "It's lucky number 7! Here's a\nstrawberry cone for the big winner!\nEnjoy!",
      "USes": "¡Sacaste el número 7! ¡El número\nde la suerte! Así que te llevas un\ncucurucho de fresa. ¡Felicitaciones!",
      "USfr": "7, le numéro de la chance! Et tu\nremportes... un cône à la fraise,\npetit chanceux! Savoure-le bien!"
    }
  },
  {
    "label": "107",
    "attribute": "0x00000000",
    "locale": {
      "CNzh": "噢！8号！\n您的奖品是苏打&柠檬双球冰淇淋～",
      "EUde": "Die Nummer 8! Du hast ein leckeres\nZitronenlimo-Eis gewonnen!\nLass es dir schmecken!",
      "EUen": "We have a number 8! You've won a\ndelicious ramune-soda-lemon cone!\nEnjoy!",
      "EUes": "¡Has sacado el número 8! Y viene\ncon un cucurucho de limón y lima\nde premio. ¡Enhorabuena, primo!",
      "EUfr": "Un 8, je répète, un 8 ! Tu repars\navec un cône ramune citron !\nRégale-toi !",
      "EUit": "Hai pescato un bel numero 8!\nTi meriti un cono al limone e ramune!\nComplimentoni!",
      "EUnl": "En we hebben een 8! Dit over-\nheerlijke ramune-citroenhoorntje\nis voor jou! Eet smakelijk!",
      "EUru": "Это номер 8! Ты забираешь\nвкуснейший рожок из рамунэ!\nЕшь и наслаждайся!",
      "JPja": "おっ！　8番！\n景品は　ソーダ&レモンのダブルアイスです～",
      "KRko": "오옷! 8번!\n경품은 소다&레몬 더블 아이스크림입니다요～!",
      "TWzh": "哦！是8號！\n獎品是蘇打&檸檬雙球冰淇淋～",
      "USen": "We have a number 8! You've won a\ndelicious ramune-soda-lemon cone!\nEnjoy!",
      "USes": "¡Sacaste el número 8! Y viene\ncon un cucurucho de limón y lima\nde premio. ¡Felicitaciones, primo!",
      "USfr": "Un 8, j'répète, un 8! Tu repars\navec un cône ramune citron! \nRégale-toi!"
    }
  },
  {
    "label": "108",
    "attribute": "0x00000000",
    "locale": {
      "CNzh": "我看看，6……啊不，9号！\n请让我给您递上\n哈密瓜&芝士双球冰淇淋～",
      "EUde": "Die Nummer 9! Damit hast du ein\nMelonen-Cheesecake-Eis gewonnen!\nLass es dir schmecken!",
      "EUen": "It's nuuumber 9! Here's a\nmelon-cheesecake cone,\njust for you! Enjoy!",
      "EUes": "¡Has sacado el número 9! Y viene\ncon un cucurucho pastel y melón\nde premio. ¡Enhorabuena, primo!",
      "EUfr": "C'est un 9 qui roule ! Pour toi,\nun délicieux cône cheesecake\nmelon ! Quel délice !",
      "EUit": "Numerooo 9! Goditi il tuo\ncono melone e cheesecake!\nCongratulazioni!",
      "EUnl": "Nummerrrrr 9! Alsjeblieft. Een\nmeloen-kwarktaarthoorntje! Eet\nsmakelijk!",
      "EUru": "Это же но-о-омер 9! А с ним\nдынно-сливочный рожок только\nдля тебя! Приятного аппетита!",
      "JPja": "う～んと　ろく・・・ちゃうわ、9番！\nメロン&チーズのダブルアイスを\nお渡しします～",
      "KRko": "어디보자... 6...이 아니라 9번!\n멜론&치즈 더블 아이스크림을\n드리겠습니다요～!",
      "TWzh": "嗯～這是6號……不對，是9號！\n請收下哈密瓜&起司雙球冰淇淋～",
      "USen": "It's nuuumber 9! Here's a\nmelon-cheesecake cone,\njust for you! Enjoy!",
      "USes": "¡Sacaste el número 9! Y viene\ncon un cucurucho pastel y melón\nde premio. ¡Felicitaciones, primo!",
      "USfr": "C'est un 9! Pour toi, un délicieux \ncône gâteau fromage melon! \nQuel luxe!"
    }
  },
  {
    "label": "109",
    "attribute": "0x00000000",
    "locale": {
      "CNzh": "喔！10号！\n橘子&薄荷双球冰淇淋，\n请您慢用！",
      "EUde": "Du hast die Nummer 10 gezogen!\nDafür gibt es ein Orange-Minze-Eis!\nLass es dir schmecken!",
      "EUen": "You pulled the number 10! You won\nyour very own orange-mint cone!\nEnjoy!",
      "EUes": "¡Has sacado el número 10! Y viene\ncon un cucurucho menta y naranja\nde premio. ¡Enhorabuena, primo!",
      "EUfr": "Tu as tiré le 10 ! Tu repars donc avec\nun cône orange-menthe des plus\nexquis ! Savoure-le bien !",
      "EUit": "Hai pescato il numero 10! Significa\nche ti porti a casa un bel cono alla\nmenta e arancia! Congratulazioni!",
      "EUnl": "Je hebt een 10 getrokken! En een\nsinaasappel-munthoorntje\ngewonnen! Eet smakelijk!",
      "EUru": "Тебе достался номер 10!\nИ аппетитный мятно-апельсиновый\nрожок в придачу! Ешь на здоровье!",
      "JPja": "おお！　10番！\nオレンジ&ミントのダブルアイスを\nど～ぞ～！",
      "KRko": "오오! 10번!\n오렌지&민트 더블 아이스크림 받으십쇼～～!",
      "TWzh": "哦～！是10號！\n來～這是橘子&薄荷巧克力雙球冰淇淋～！",
      "USen": "You pulled the number 10! You won\nyour very own orange-mint cone!\nEnjoy!",
      "USes": "¡Sacaste el número 10! Y viene\ncon un cucurucho menta y naranja\nde premio. ¡Felicitaciones, primo!",
      "USfr": "T'as tiré le 10! Tu repars donc avec\nun cône orange menthe des plus\nexquis! Savoure-le bien!"
    }
  },
  {
    "label": "110",
    "attribute": "0x00000000",
    "locale": {
      "CNzh": "11号～！\n奖品是香草软冰淇淋。",
      "EUde": "Nummer 11! Die bringt dir ein\nleckeres Vanille-Softeis ein!\nLass es dir schmecken!",
      "EUen": "Heeere's the number 11! And\nhere's a vanilla soft serve for\nthe lucky winner! Enjoy!",
      "EUes": "¡Has sacado el número 11!\nEso quiere decir que te llevas un\nbarquillo de vainilla. ¡Enhorabuena!",
      "EUfr": "Le 11, on a le 11 ! Et voici une glace\nitalienne à la vanille pour l'heureux\ngagnant ! Miam miam !",
      "EUit": "Ecco il numero 11! Hai vinto\nun bel gelato soft alla vaniglia!\nCongratulazioni!",
      "EUnl": "En het is... nummer 11! Je bent de\ngelukkige eigenaar van een\nvanillesoftijsje! Eet smakelijk!",
      "EUru": "А вот и номер 11! Победителю\nдостается ванильное желато!\nПриятного аппетита!",
      "JPja": "11番～っ！\n景品は　バニラソフトクリームですわ",
      "KRko": "11버언～!\n경품은 바닐라 소프트아이스크림 되겠습니다요!",
      "TWzh": "是11號～！\n獎品是香草霜淇淋喔。",
      "USen": "Heeere's the number 11! And\nhere's a vanilla soft serve for\nthe lucky winner! Enjoy!",
      "USes": "¡Sacaste el número 11!\nEso quiere decir que te llevas un\ncono de vainilla. ¡Felicitaciones!",
      "USfr": "Le 11, on a le 11! Et voici une crème \nmolle vanille pour l'heureux\ngagnant! Miam miam!"
    }
  },
  {
    "label": "111",
    "attribute": "0x00000000",
    "locale": {
      "CNzh": "12号出来了～！\n奖品是巧克力软冰淇淋～",
      "EUde": "Du hast die Nummer 12 gezogen!\nDafür gibt es ein Schoko-Softeis!\nLass es dir schmecken!",
      "EUen": "There it is! The number 12! Here's\na yummy chocolate soft serve! Enjoy!",
      "EUes": "¡Has sacado el número 12!\nY de premio te llevas un barquillo\nde chocolate. ¡Enhorabuena, primo!",
      "EUfr": "Mais oui ! C'est le numéro 12 ! Tiens,\nune glace italienne au chocolat !\nSavoure-la bien !",
      "EUit": "Hai pescato il numero 12! E per te\nc'è un bel gelato soft al cioccolato!\nCongratulazioni!",
      "EUnl": "Kijk eens aan! Een nummer 12!\nGoed voor een chocoladesoftijsje!\nEet smakelijk!",
      "EUru": "А вот и он! Номер 12! Получи\nшоколадное желато! Вкуснятина!\nВезет же некоторым!",
      "JPja": "12番　出ました～！\n景品は　チョコレートソフトクリームです～",
      "KRko": "12번이네요～!\n경품은 초콜릿 소프트아이스크림입니다요～!",
      "TWzh": "出現12號啦～！\n獎品是巧克力霜淇淋～",
      "USen": "There it is! The number 12! Here's\na yummy chocolate soft serve! Enjoy!",
      "USes": "¡Sacaste el número 12!\nY de premio te llevas un cono de chocolate. ¡Felicitaciones, primo!",
      "USfr": "Mais oui! C'est l'numéro 12! Tiens,\nune crème molle chocolat!\nSavoure-la bien!"
    }
  },
  {
    "label": "112",
    "attribute": "0x00000000",
    "locale": {
      "CNzh": "来了！13号！\n给您抹茶&香草软冰淇淋！",
      "EUde": "Die Nummer 13! Offensichtlich eine\nGlückszahl! Du bekommst nämlich\nein leckeres Matcha-Vanille-Softeis!",
      "EUen": "Lucky number 13! Don't let anyone\ntell you otherwise! You've won a\nmatcha-vanilla soft serve! Enjoy!",
      "EUes": "¡Has sacado el número 13!\nNo es cierto que dé mala suerte,\nporque te llevas un barquillo vainilla\ny té verde de premio. ¡Enhorabuena!",
      "EUfr": "Le 13, numéro de la chance ! Tu as\ngagné une glace italienne\nmatcha-vanille ! Tu vas te régaler !",
      "EUit": "E il numero fortunato è il 13! Non\nè vero che porta sfortuna! Vinci un\ngelato soft vaniglia-tè verde! Yeah!",
      "EUnl": "Het geluksgetal 13! En zo is het! Je\nwint een matcha-vanillesoftijsje! Eet\nsmakelijk!",
      "EUru": "Счастливый номер 13! Если кто\nскажет иначе — не верь! Вот тебе\nмаття-ванильное желато! Везет!",
      "JPja": "はいっ！　13番！\nまっちゃ&バニラソフトで～す！",
      "KRko": "예! 13번!\n녹차&바닐라 소프트아이스크림을 드립니다～!",
      "TWzh": "好！是13號！\n中了抹茶&香草霜淇淋喔～！",
      "USen": "Lucky number 13! Don't let anyone\ntell you otherwise! You've won a\nmatcha-vanilla soft serve! Enjoy!",
      "USes": "¡Sacaste el número 13!\nNo es cierto que da mala suerte,\nporque ganaste un cono de vainilla y té verde de premio. ¡Felicitaciones!",
      "USfr": "Le 13, numéro chanceux! T'as gagné\nune crème molle matcha vanille!\nTu vas te régaler!"
    }
  },
  {
    "label": "113",
    "attribute": "0x00000000",
    "locale": {
      "CNzh": "14号！\n请拿好您的\n草莓&香草软冰淇淋～！",
      "EUde": "Die Nummer 14! Dafür bekommst du\nein leckeres Erdbeer-Vanille-Softeis!\nLass es dir schmecken!",
      "EUen": "Big number 14 it is! And here's your\nberry-vanilla soft serve! Enjoy!",
      "EUes": "¡Has sacado el número 14!\nY de premio te llevas un barquillo\nvainilla y cereza. ¡Enhorabuena!",
      "EUfr": "Le 14, je répète, le 14 ! Tu repars\navec une glace italienne\nbaies-vanille ! Savoure-la bien !",
      "EUit": "È uscito il 14! Ecco a te un\ngelato soft vaniglia-ciliegia!\nCongratulazioni!",
      "EUnl": "Nummer 14 is het geworden! Dit\naardbei-vanillesoftijsje is voor jou!\nEet smakelijk!",
      "EUru": "Чудесное число 14! И не одно,\nа с ягодно-ванильным желато!\nУплетай за обе щеки!",
      "JPja": "おっと！　14番！\nストロベリー＆バニラソフトの\nお渡しです～！",
      "KRko": "어이쿠! 14번!\n딸기&바닐라 소프트아이스크림을\n드리겠습니다요～!",
      "TWzh": "哎呀！是14號！\n請收下草莓&香草霜淇淋～！",
      "USen": "Big number 14 it is! And here's your\nberry-vanilla soft serve! Enjoy!",
      "USes": "¡Sacaste el número 14!\nY de premio te llevas un cono de vainilla y cereza. ¡Felicitaciones!",
      "USfr": "Le 14, je répète, le 14! Tu repars\navec une crème molle\nbaies vanille! Savoure-la bien!"
    }
  },
  {
    "label": "114",
    "attribute": "0x00000000",
    "locale": {
      "CNzh": "来了，15号！\n恭喜您抽中了彩虹软冰淇淋～！",
      "EUde": "Die Nummer 15! Du hast ein leckeres\nRegenbogen-Softeis gewonnen!\nLass es dir schmecken!",
      "EUen": "And we've got the number 15! Chow\ndown on this rainbow soft serve!\nEnjoy!",
      "EUes": "¡Has sacado el número 15!\n¡Que disfrutes del barquillo arcoíris\nque te llevas de premio, primo!",
      "EUfr": "Et nous avons le numéro 15 ! Et une\nglace italienne arc-en-ciel pour toi,\nune ! Savoure-la bien !",
      "EUit": "E il numero vincente è il 15! Pappati\nquesto gelato soft arcobaleno!\nEvvai!",
      "EUnl": "Een nummertje 15 voor jou! Doe je\ntegoed aan dit regenboogsoftijsje!\nEet smakelijk!",
      "EUru": "Что тут у нас? Номер 15!\nРадужному желато пора улыбаться!\nУплетай, рот не разевай!",
      "JPja": "はい、15番！\nレインボーソフトクリームの　当たりィ～！",
      "KRko": "예예, 15번!\n레인보우 소프트아이스크림 당첨이십니다～!",
      "TWzh": "好，是15號！\n中了彩虹霜淇淋～！",
      "USen": "And we've got the number 15! Chow\ndown on this rainbow soft serve!\nEnjoy!",
      "USes": "¡Sacaste el número 15!\n¡Que disfrutes el cono arcoíris que\nte ganaste de premio, primo!",
      "USfr": "Et nous avons le numéro 15! Et une\ncrème molle arc-en-ciel pour toi,\nune! Savoure-la bien!"
    }
  },
  {
    "label": "115",
    "attribute": "0x00000000",
    "locale": {
      "CNzh": "不要拿着它跑来跑去摔倒哦～\n请小心一些～！",
      "EUde": "Ah! Aus Haftungsgründen muss ich\nerwähnen, dass es keine Erstattung gibt, wenn das runterfallen sollte.\nPass auf, dass du nicht stolperst!",
      "EUen": "Oh! I'm legally obligated to warn you\nthat there are no refunds if you trip\nand drop that. Watch your step!",
      "EUes": "Por cierto, por imperativo legal (que\nno moral) debo advertirte que no\npuedes presentar una reclamación.\nSi tropiezas y se te cae, no asumo\nninguna responsabilidad. ¡Mira\nsiempre por dónde vas!",
      "EUfr": "Ah ! Sache que tout remboursement\nest exclu si tu le fais tomber. Alors\nattention où tu mets les pieds !",
      "EUit": "Ah! Per legge sono obbligato a dirti\nche non è previsto alcun rimborso, se\ninciampi e fai cadere cos'hai in mano.\nQuindi fai attenzione a dove vai!",
      "EUnl": "Ik ben wettelijk verplicht je te melden\ndat je je geld niet terugkrijgt als je 't\nlaat vallen. Kijk dus uit waar je loopt!",
      "EUru": "Ах да! Должен предупредить: если\nты уронишь свой выигрыш, я ничего\nне возмещаю. Смотри под ноги!",
      "JPja": "持ったまま走って、コケたりせんように\n気を付けてくださいねぇ～！",
      "KRko": "손에 들고 뛰다가 넘어지지 않게\n조심하셔야 합니다요～!",
      "TWzh": "拿著跑的時候，\n要小心不要跌倒喔～！",
      "USen": "Oh! I'm legally obligated to warn you\nthat there are no refunds if you trip\nand drop that. Watch your step!",
      "USes": "Por cierto, tengo la obligación legal\n(aunque no moral) de advertirte que\nno se aceptan reclamos.\nSi tropiezas y se te cae, no asumo\nninguna responsabilidad. ¡Mira\nsiempre por dónde vas!",
      "USfr": "Ah! Sache que tout remboursement\nest exclu si tu l'fais tomber. Alors\nattention où tu mets les pieds!"
    }
  },
  {
    "label": "116",
    "attribute": "0x00000000",
    "locale": {
      "CNzh": "噢！16号！\n您的奖品是罐装橘子汁～",
      "EUde": "Die Nummer 16! Das bringt dir eine\nOrangensaftdose ein! Lass dir\nden Saft schmecken!",
      "EUen": "Why, it's sweet number 16! That'll\nget you some canned orange juice!\nEnjoy!",
      "EUes": "¡Has sacado el número 16!\nTe llevas una lata de zumo\nde naranja. ¡Enhorabuena!",
      "EUfr": "16, c'est deux fois mieux que 8 ! Tu\nremportes donc une canette de jus\nd'orange ! Allez, cul sec !",
      "EUit": "Se dici sedici, sedici dici... Cioè,\nil 16 vince! E tu ricevi in premio un\nsucco d'arancia in lattina! Slurp!",
      "EUnl": "Wat hebben we hier? Een 16! Dat\nlevert je een blikje sinaasappelsap\nop! Geniet ervan!",
      "EUru": "Да это же наш сладкий номер 16!\nПринес тебе апельсинный сок\nв банке! Пей на здоровье!",
      "JPja": "おっ！　16番！\n景品は　オレンジのかんジュースです～",
      "KRko": "오옷! 16번!\n경품은 캔 오렌지 주스입니다요～",
      "TWzh": "哦！是16號！\n獎品是罐裝橘子汁～",
      "USen": "Why, it's sweet number 16! That'll\nget you some canned orange juice!\nEnjoy!",
      "USes": "¡Sacaste el número 16!\nTe llevas una lata de jugo de naranja.\n¡Felicitaciones!",
      "USfr": "16, c'est deux fois mieux que 8! Tu\nremportes donc une canette de jus\nd'orange! Allez, bois-la vite!"
    }
  },
  {
    "label": "117",
    "attribute": "0x00000000",
    "locale": {
      "CNzh": "17号～！\n那我给您拿\n罐装葡萄汁～",
      "EUde": "Die Nummer 17! Du hast eine\nTraubensaftdose gewonnen!\nLass dir das Getränk schmecken!",
      "EUen": "Number 17, in its prime! You've won\nyourself some canned grape juice!\nEnjoy!",
      "EUes": "¡Has sacado el número 17!\nDe premio te llevas una lata de\nzumo de uva. ¡Enhorabuena!",
      "EUfr": "Le 17, le nombre qui aime être\npremier ! Tiens, une canette de jus\nde pamplemousse ! Délicieux !",
      "EUit": "Numero 17, in tutto il suo splendore!\nTi aggiudichi un succo d'uva in\nlattina! Molto bene!",
      "EUnl": "En het is het priemgetal 17! Dat\nbetekent een blikje druivensap!\nGeniet ervan!",
      "EUru": "Номер 17, куда уж лучше! Твой\nприз — виноградный сок в банке!\nСмотри не разлей!",
      "JPja": "17番ですね～！\nほんなら　グレープのかんジュースを\nお渡しします～",
      "KRko": "17번이네요～!\n그럼 캔 포도 주스를 드리겠습니다요～",
      "TWzh": "是17號啊～！\n這樣的話～\n請收下罐裝葡萄汁。",
      "USen": "Number 17, in its prime! You've won\nyourself some canned grape juice!\nEnjoy!",
      "USes": "¡Sacaste el número 17!\nDe premio te llevas una lata de jugo de uva. ¡Felicitaciones!",
      "USfr": "Le 17, l'nombre qui aime être\npremier! Tiens, une canette de jus\nde raisin! Délicieux!"
    }
  },
  {
    "label": "118",
    "attribute": "0x00000000",
    "locale": {
      "CNzh": "来了来了，18号～！\n奖品是罐装苹果汁～！",
      "EUde": "Das ist die Nummer 18! Dafür\nbekommst du eine Apfelsaftdose!\nProst!",
      "EUen": "Looks like it's the number 18! Here's\nyour canned apple juice! Enjoy!",
      "EUes": "¡Has sacado el número 18! Viene\ncon una lata de zumo de manzana\nde premio. ¡Enhorabuena, primo!",
      "EUfr": "Le 18 ? Mais oui, c'est bien lui !\nEt voilà donc une canette de jus de\npomme pour toi ! Bravo !",
      "EUit": "Il 18? Ma sì, è proprio lui! Eccoti\nun succo di mela in lattina!\nChe fortuna sfacciata!",
      "EUnl": "Ja hoor, nummertje 18! Dit blikje\nappelsap is voor jou! Geniet ervan!",
      "EUru": "Очень похоже на номер 18! Так\nи есть — держи яблочный сок\nв банке! Пей — не жалей!",
      "JPja": "はいはい　18番～！\n景品は　リンゴのかんジュース～！",
      "KRko": "예예, 18번～!\n경품은 캔 사과 주스 되겠습니다～!",
      "TWzh": "好喔～是18號～！\n獎品是罐裝蘋果汁！",
      "USen": "Looks like it's the number 18! Here's\nyour canned apple juice! Enjoy!",
      "USes": "¡Sacaste el número 18! Viene\ncon una lata de jugo de manzana\nde premio. ¡Felicitaciones, primo!",
      "USfr": "Le 18? Ouais, c'est bien lui!\nEt voilà donc une canette de jus de\npomme pour toi! Bravo!"
    }
  },
  {
    "label": "119",
    "attribute": "0x00000000",
    "locale": {
      "CNzh": "19号～！\n奖品是罐装绿茶。",
      "EUde": "Nummer 19! Dafür gibt es eine\nGrünteedose! Lass dir den Tee\nschmecken!",
      "EUen": "Number 19! That'll get you some\ntasty canned green tea! Enjoy!",
      "EUes": "¡Has sacado el número 19!\nTe llevas una lata de té verde.\n¡Que la disfrutes!",
      "EUfr": "Le numéro 19 ! Quelle chance, ce lot\nest un de mes préférés, une canette\nde thé vert ! Allez, à la tienne !",
      "EUit": "Numero... 19! Che invidia! Hai vinto\nuno dei miei premi preferiti: il\ntè verde in lattina! Vai così!",
      "EUnl": "Nummer 19, kijk eens aan! Daarmee\nwin jij een blikje groene thee! Geniet\nervan!",
      "EUru": "Номер 19! Предлагает утолить\nжажду зеленым чаем в банке! \nПей и ни о чем не жалей!",
      "JPja": "19番～っ！\n景品は　りょくちゃのかんドリンクですわ",
      "KRko": "19번～!\n경품은 캔 녹차입니다요!",
      "TWzh": "是19號～！\n獎品是罐裝綠茶喔。",
      "USen": "Number 19! That'll get you some\ntasty canned green tea! Enjoy!",
      "USes": "¡Sacaste el número 19!\nTe llevas una lata de té verde.\n¡Que la disfrutes!",
      "USfr": "Le numéro 19! Quelle chance, ce lot\nest un d'mes préférés, une canette\nde thé vert! Allez, bois-la vite!"
    }
  },
  {
    "label": "120",
    "attribute": "0x00000000",
    "locale": {
      "CNzh": "20号出来了～！\n奖品是罐装红茶～",
      "EUde": "Die Nummer 20! Die bringt dir eine\nEisteedose ein! Lass dir den Eistee\nschmecken!",
      "EUen": "It's biiig number 20! That wins you\nsome canned tea! Enjoy!",
      "EUes": "¡Has sacado el número 20! Viene\ncon una lata de té con limón de\npremio. ¡Enhorabuena, primo!",
      "EUfr": "20 ! La double dizaine ! Tu repars\ndonc avec une canette de thé au\ncitron ! Ça désaltère !",
      "EUit": "Numerooooo 20! Hai vinto del tè\nin lattina! Spero che ti piaccia!",
      "EUnl": "En we hebben een... 20! Dus dit\nblikje thee is voor jou! Geniet ervan!",
      "EUru": "Это круглый номер 20! Держи\nчай в банке! Пей на здоровье!",
      "JPja": "20番　出ました～！\n景品は　こうちゃのかんドリンクです～",
      "KRko": "20번 나왔습니다～!\n경품은 캔 홍차입니다요～",
      "TWzh": "出現20號啦～！\n獎品是罐裝紅茶～",
      "USen": "It's biiig number 20! That wins you\nsome canned tea! Enjoy!",
      "USes": "¡Sacaste el número 20! Viene\ncon una lata de té con limón\nde premio. ¡Felicitaciones, primo!",
      "USfr": "20! La double dizaine! Tu repars\ndonc avec une canette de thé au\ncitron! Ça rafraîchit!"
    }
  },
  {
    "label": "121",
    "attribute": "0x00000000",
    "locale": {
      "CNzh": "来了～！21号！\n给您拿罐装咖啡！",
      "EUde": "Da hätten wir die Nummer 21!\nDu bekommst eine Eiskaffeedose!\nLass dir das Getränk schmecken!",
      "EUen": "How about that! Number 21! I sure\nhope you like canned coffee! Enjoy!",
      "EUes": "¡Has sacado el número 21!\nEspero que te guste tu premio:\n¡una lata de café! ¡Enhorabuena!",
      "EUfr": "Qui l'eût cru ? Le numéro 21 !\nJ'espère que tu aimeras cette canette de café ! Félicitations !",
      "EUit": "Ma guarda: il numero 21! Spero\nvivamente che ti piaccia il caffè\nin lattina! Gran bel premio!",
      "EUnl": "Wat een verrassing! Nummer 21!\nIk hoop maar dat je een blikje koffie\nlust! Geniet ervan!",
      "EUru": "Вот это да! Номер 21! Надеюсь,\nтебе понравится этот кофе в банке!\nПриятного кофепития!",
      "JPja": "はい～！　21番！\nもってけ　かんコーヒー！",
      "KRko": "네～! 21번!\n캔 커피 받으십쇼!",
      "TWzh": "好～！是21號！\n收下罐裝咖啡吧！",
      "USen": "How about that! Number 21! I sure\nhope you like canned coffee! Enjoy!",
      "USes": "¡Sacaste el número 21!\nEspero que te guste tu premio:\n¡una lata de café! ¡Felicitaciones!",
      "USfr": "Qui l'eût cru? L'numéro 21!\nJ'espère que t'aimeras cette canette de café! Félicitations!"
    }
  },
  {
    "label": "122",
    "attribute": "0x00000000",
    "locale": {
      "CNzh": "叠数来了！22号！\n罐装运动饮料，请慢用～！",
      "EUde": "Die Nummer 22! So ein Glück,\ndafür gibt es eine Isodrink-Dose!\nLass dir das Getränk schmecken!",
      "EUen": "It's number 22! The double deuces!\nA canned sports drink for the lucky\nwinner! Enjoy!",
      "EUes": "¡Has sacado el número 22! Los dos\npatitos vienen con una lata de bebida\nenergética. ¡Enhorabuena!",
      "EUfr": "22 ! Les 2 qui font la paire !\nEt une canette de boisson sportive pour toi ! Allez, du nerf !",
      "EUit": "Ed ecco il numero 22! Ripeto: 22!\nIl fortunato vincitore si aggiudica\nuna bevanda isotonica in lattina!",
      "EUnl": "Het is 22! Tweemaal een twee! Dat\nbetekent een blikje sportdrank voor\nde gelukkige winnaar! Geniet ervan!",
      "EUru": "Номер 22! Две двойки! Спортивный\nнапиток в банке для этого\nсчастливчика! Пей и не болей!",
      "JPja": "来ました　ゾロ目！　22番！\nかんのスポーツドリンクを　ど～ぞ～！",
      "KRko": "오옷! 2가 2개 22번!\n캔 스포츠 드링크 대령이오～!",
      "TWzh": "來啦！是純位數的22號！\n請收下罐裝運動飲料～！",
      "USen": "It's number 22! The double deuces!\nA canned sports drink for the lucky\nwinner! Enjoy!",
      "USes": "¡Sacaste el número 22! Los dos\npatitos vienen con una lata de bebida energética. ¡Felicitaciones!",
      "USfr": "22! Les 2 qui font la paire!\nEt une canette de boisson sportive pour toi! Allez, bois-la vite!"
    }
  },
  {
    "label": "123",
    "attribute": "0x00000000",
    "locale": {
      "CNzh": "23号出来了～！\n请拿好罐装苏打水！",
      "EUde": "Die Nummer 23! Du bekommst eine\nLimodose! Lass dir die Limo\nschmecken!",
      "EUen": "Number 23 sounds great to me!\nHere's your canned soda!\nWho knows what's in there?",
      "EUes": "¡Has sacado el número 23!\nTe llevas una lata de refresco.\n¡A saber lo que lleva eso!",
      "EUfr": "23 ! Je l'aime bien, celui-là ! Tiens,\ntu remportes une canette mystère !\nQu'y a-t-il dedans ?",
      "EUit": "23 e meglio non ce n'è! Ecco a\nte una soda in lattina! Che bontà!",
      "EUnl": "Nummer 23! Wat dacht je daarvan?!\nKijk eens. Een blikje frisdrank voor\njou! Spannend, hè?",
      "EUru": "Номер 23! Отличное число! А вот\nи твой лимонад в банке! Надеюсь,\nтебе будет вкусно!",
      "JPja": "23番　出ましたね～！\nソーダのかんジュースを　ど～ぞ！",
      "KRko": "23번이 나왔네요～!\n캔 소다 받으십쇼～!",
      "TWzh": "出現23號了呢～！\n請收下罐裝蘇打～！",
      "USen": "Number 23 sounds great to me!\nHere's your canned soda!\nWho knows what's in there?",
      "USes": "¡Sacaste el número 23!\nTe llevas una lata de refresco.\n¡Quién sabe qué tiene adentro!",
      "USfr": "23! J'l'aime bien, celui-là! Tiens,\ntu remportes une canette mystère!\nY'a quoi dedans?"
    }
  },
  {
    "label": "124",
    "attribute": "0x00000000",
    "locale": {
      "CNzh": "留神脚下，不要洒了哦～！",
      "EUde": "Ach so, das Kleingedruckte. Keine\nErstattung, wenn du stolperst und\ndas verschüttest. Schön vorsichtig!",
      "EUen": "Ah! The fine print. No refunds if you\ntrip and spill that. But come back and\ntry for another if you do!",
      "EUes": "Por cierto, por imperativo legal debo\nadvertirte que, si te tropiezas y se\nderrama, no te devolveré el dinero.\nEso sí, siempre puedes pasarte\na intentar hacerte con otro.",
      "EUfr": "Ah ! Un détail, mais... Tout\nremboursement est exclu si tu fais\ntomber ton prix.\nPar contre, tu peux tout à fait revenir\net racheter un ticket ! Aucun\nproblème !",
      "EUit": "Ah! Ti avevo avvertito. Nessun\nrimborso se inciampi e lo fai cadere.\nPerò puoi sempre prenderne un\naltro, eh eh eh.",
      "EUnl": "Ah! Dan komen we nu bij de kleine\nlettertjes. Je krijgt je geld niet terug\nals je struikelt en je prijsje morst.\nMaar kom vooral terug als je nog een\npoging wilt wagen!",
      "EUru": "Кстати! Это важно. Если ты пролил\nвыигрыш, я ничего не возмещаю.\nНо можешь купить еще один билет!",
      "JPja": "こぼさんように、足元には　お気を付けて～！",
      "KRko": "흘리지 않게 조심하십쇼～!",
      "TWzh": "要小心看路，不要弄倒囉～！",
      "USen": "Ah! The fine print. No refunds if you\ntrip and spill that. But come back and\ntry for another if you do!",
      "USes": "Por cierto, la letra pequeña del trato\nadvierte que, si te tropiezas y se\nderrama, no te devolveré el dinero.\nEso sí, siempre puedes pasar\ne intentar conseguir otro.",
      "USfr": "Ah! Un détail, mais... Tout\nremboursement est exclu si tu fais\ntomber ton prix.\nPar contre, tu peux tout à fait \nrevenir et racheter un billet! \nPas de problème!"
    }
  },
  {
    "label": "125",
    "attribute": "0x00000000",
    "locale": {
      "CNzh": "来了来了～！24号！\n恭喜您抽中了巧克力甜甜圈！",
      "EUde": "Die Nummer 24! Deine Glückszahl!\nDafür gibt es einen richtig leckeren\nSchokoladen-Donut! Genieß ihn!",
      "EUen": "Ah! The number 24! It's like a two-\nfor-one deal on the number 12!\nHere's your chocolate donut! Enjoy!",
      "EUes": "¡Has sacado el número 24! ¡El doble\nque 12! Te llevas una rosquilla de\nchocolate. ¡Enhorabuena!",
      "EUfr": "Ah ! Le 24 ! Qui refuserait une\ndouble ration de 12 ?! Tu gagnes un\nbeignet au chocolat ! Bon appétit !",
      "EUit": "Ah! Numero 24! Che sarebbe due\nnumeri 12 al prezzo di uno! Ecco una\nciambella al cioccolato! Tutta tua!",
      "EUnl": "Aha! Nummer 24! Dat is 12 voor de\nprijs van twee! En voor jou een\nchocoladedonut! Geniet ervan!",
      "EUru": "О! Номер 24! Две дюжины по цене\nодной! И пончик с шоколадом\nв придачу! Приятного аппетита!",
      "JPja": "来た来た～！　24番！　\nチョコドーナツの当たりで～す！",
      "KRko": "번호는～! 24번!\n초콜릿 도넛 다앙～처엄～!",
      "TWzh": "來啦來啦～！是24號！\n中了巧克力甜甜圈～！",
      "USen": "Ah! The number 24! It's like a two-\nfor-one deal on the number 12!\nHere's your chocolate donut! Enjoy!",
      "USes": "¡Sacaste el número 24! ¡El doble de\n12! Te llevas una rosquilla de chocolate. ¡Felicitaciones!",
      "USfr": "Ah! Le 24! Qui refuserait une\ndouble ration de 12?! Tu gagnes un\nbeigne au chocolat! Bon appétit!"
    }
  },
  {
    "label": "126",
    "attribute": "0x00000000",
    "locale": {
      "CNzh": "25号～！\n帮您拿抹茶甜甜圈～",
      "EUde": "Die Nummer 25! Die hat es in sich!\nDu bekommst einen Matcha-Donut!\nLass ihn dir schmecken!",
      "EUen": "The spectacular number 25! Here's a\nmatcha donut for the winner! Enjoy!",
      "EUes": "¡Has sacado el número 25!\nDe premio te llevas una rosquilla\nde té verde. ¡Que la disfrutes!",
      "EUfr": "Le numéro 25, rien que ça ! Voilà\nun beignet au matcha pour toi !\nBon appétit !",
      "EUit": "C'è un numero migliore del 25?\nGiudica tu! Hai vinto una ciambella\nal tè verde! Ecco!",
      "EUnl": "Het spectaculaire getal 25! Met een\nmatchadonut voor de winnaar! Geniet\nervan!",
      "EUru": "Невероятный номер 25!\nПобедителю достается пончик\nс маття! Ешь на здоровье!",
      "JPja": "25番ですね～！\nほんなら　まっちゃドーナツをお渡しします～",
      "KRko": "25번이네요～!\n그럼 녹차 도넛을 드리겠습니다요～",
      "TWzh": "是25號呢～！\n這樣的話……請收下抹茶甜甜圈～",
      "USen": "The spectacular number 25! Here's a\nmatcha donut for the winner! Enjoy!",
      "USes": "¡Sacaste el número 25!\nDe premio te llevas una rosquilla de té verde. ¡Que la disfrutes!",
      "USfr": "Le numéro 25, rien que ça! Voilà\nun beigne au matcha pour toi! Bon appétit!"
    }
  },
  {
    "label": "127",
    "attribute": "0x00000000",
    "locale": {
      "CNzh": "出来了！26号！\n奖品是草莓甜甜圈～！",
      "EUde": "Die Nummer 26! Dafür gibt es einen\nErdbeer-Donut! So was mag ich ja\nsehr. Lass ihn dir schmecken!",
      "EUen": "The one, the only, the number 26!\nThat gets you one of my favorites—\na strawberry donut. Enjoy!",
      "EUes": "¡Has sacado el número 26! Te llevas\nuno de mis premios favoritos:\n¡una rosquilla de fresa! ¡Qué suerte!",
      "EUfr": "Le seul et l'unique numéro 26 !\nTu remportes un beignet à la fraise,\nmon préféré ! Bon appétit !",
      "EUit": "Numero 26! Ti invidio, perché hai\nappena vinto una ciambella alla\nfragola. Che bontà!",
      "EUnl": "Het enige echte nummer 26!\nDaarmee win je mijn lievelingsprijs:\neen aardbeiendonut. Geniet ervan!",
      "EUru": "Единственный и неповторимый\nномер 26! А приз — мой любимый\nклубничный пончик. Наслаждайся!",
      "JPja": "来ました！　26番！\n景品は　ストロベリードーナツ～！",
      "KRko": "아핫! 26번!\n경품은 딸기 도넛입니다～!",
      "TWzh": "來啦！是26號！\n獎品是草莓甜甜圈～！",
      "USen": "The one, the only, the number 26!\nThat gets you one of my favorites—\na strawberry donut. Enjoy!",
      "USes": "¡Sacaste el número 26! Te llevas\nuno de mis premios favoritos:\n¡una rosquilla de fresa! ¡Qué suerte!",
      "USfr": "Le seul et l'unique numéro 26!\nTu remportes un beigne à la fraise,\nmon préféré! Bon appétit!"
    }
  },
  {
    "label": "128",
    "attribute": "0x00000000",
    "locale": {
      "CNzh": "出来了！27号！\n奖品是白巧克力甜甜圈～！",
      "EUde": "Wow! Die Nummer 27! Damit hast du\ndir einen Weiße-Schokolade-Donut\ngesichert! Lass ihn dir schmecken!",
      "EUen": "Wow! The number 27! You won\nyourself a white-chocolate donut!\nEnjoy!",
      "EUes": "¡Oh! ¡Has sacado el número 27!\nTe llevas una deliciosa rosquilla de\nchocolate blanco. ¡Que la disfrutes!",
      "EUfr": "Mazette, le numéro 27 ! Tu as gagné\nun beignet au chocolat blanc !\nBon appétit !",
      "EUit": "Wow! Il 27! Eccoti una ciambella\ncioccolato bianco! Buon appetito!",
      "EUnl": "Hoera! Nummer 27! Dat levert je een\nwitte-chocoladedonut op! Geniet\nervan!",
      "EUru": "Не поверишь! Номер 27! Ты честно\nвыиграл пончик с белым\nшоколадом! Уплетай за обе щеки!",
      "JPja": "出たッ！　27番！\n景品は　ホワイトチョコドーナツです～！",
      "KRko": "어어! 27번!\n경품은 화이트 초콜릿 도넛 되겠습니다～!",
      "TWzh": "出現啦！是27號！\n獎品是白巧克力甜甜圈～！",
      "USen": "Wow! The number 27! You won\nyourself a white-chocolate donut!\nEnjoy!",
      "USes": "¡Oh! ¡Sacaste el número 27!\nTe llevas una deliciosa rosquilla chocolate blanco. ¡Que la disfrutes!",
      "USfr": "Wow, le numéro 27! T'as gagné\nun beigne au chocolat blanc!\nBon appétit!"
    }
  },
  {
    "label": "129",
    "attribute": "0x00000000",
    "locale": {
      "CNzh": "没错没错，是28号！\n抽中了口袋书～！",
      "EUde": "Die Nummer 28! Du bekommst ein\nFachbuch! Bildung für Unterwegs!",
      "EUen": "Number 28! That's fate! No library is\ncomplete without a pocketbook!\nHappy reading!",
      "EUes": "¡Has sacado el número 28!\nCon este premio no te aburrirás\nen ningún sitio. ¡Te llevas un\nlibro de bolsillo! ¡Enhorabuena!",
      "EUfr": "Le 28 ! Le numéro du destin !\nTiens, un livre de poche pour ta\nbibliothèque ! Bonne lecture !",
      "EUit": "Numero 28! Era destino! Non puoi\nfare a meno di un libro tascabile!\nBuona lettura!",
      "EUnl": "Nummer 28! Het moest zo wezen!\nGeen bibliotheek is compleet zonder\neen pocketboek! Lees ze!",
      "EUru": "Номер 28! Это судьба! Ни одна\nбиблиотека не будет полной без\nкниги в мягкой обложке. Читай!",
      "JPja": "はいはい、28番！\nポケットブックの　当たりです～！",
      "KRko": "예예, 28번!\n포켓북 당첨입니다요～!",
      "TWzh": "好喔～是28號！\n中了口袋書！",
      "USen": "Number 28! That's fate! No library is\ncomplete without a pocketbook!\nHappy reading!",
      "USes": "¡Sacaste el número 28!\nCon este premio no te aburrirás\nen ningún lugar. ¡Te llevas un libro de bolsillo! ¡Felicitaciones!",
      "USfr": "Le 28! Le numéro du destin! \nTiens, un livre de poche pour ta \nbibliothèque! Bonne lecture!"
    }
  },
  {
    "label": "130",
    "attribute": "0x00000000",
    "locale": {
      "CNzh": "这个是……29号！\n恭喜您抽中了口袋杂志～～！",
      "EUde": "Klasse! Die Nummer 29! Eine gute\nZeitschrift kann man doch immer\ngebrauchen! Viel Spaß beim Lesen!",
      "EUen": "Outstanding! It's number 29! Now,\nwho doesn't love a pocket magazine!\nHappy reading!",
      "EUes": "¡Has sacado el número 29!\nTe llevas una revista de bolsillo.\n¡Que la disfrutes allá donde vayas!",
      "EUfr": "Le numéro 29 ! Tiens, pour toi,\nun bon magazine de poche ! Bonne\nlecture !",
      "EUit": "Incredibile! Numero 29! A chi\nnon piace una rivista tascabile?\nGoditela!",
      "EUnl": "Fantastisch! Nummer 29! Wie houdt\ner nu niet van een pockettijdschrift!\nLees ze!",
      "EUru": "Невероятно! Номер 29! Кто же\nоткажется от журнала малого\nформата! Наслаждайся чтением!",
      "JPja": "これは・・・　29番！\nポケットマガジンの　当た～り～～！",
      "KRko": "이건... 29번!\n포켓 매거진 다앙～처엄～～!",
      "TWzh": "這是……29號！\n中了～～口袋雜誌喔～！",
      "USen": "Outstanding! It's number 29! Now,\nwho doesn't love a pocket magazine!\nHappy reading!",
      "USes": "¡Sacaste el número 29!\nTe llevas una revista de bolsillo.\n¡Que la disfrutes!",
      "USfr": "Le numéro 29! Tiens, pour toi,\nun bon magazine de poche! Bonne\nlecture!"
    }
  },
  {
    "label": "131",
    "attribute": "0x00000000",
    "locale": {
      "CNzh": "竟然抽中了～！30号！\n出人意料的奖品是\n彩色荧光棒～！",
      "EUde": "Die Nummer 30! Ein Volltreffer!\nViel Spaß mit dem formidablen\nFarbwechsel-Leuchtstab!",
      "EUen": "I can't believe it! It's the number 30!\nHere's a special prize for a special\nnumber—a colorful light stick. Enjoy!",
      "EUes": "¡Has sacado el número 30! Te llevas\nun premio muy especial: ¡una vara de\nluz colorida! ¡Enhorabuena, primo!",
      "EUfr": "Oh, incroyable, le numéro 30 ! Un\nnuméro si spécial mérite bien une\nbaguette fluo colorée ! Félicitations !",
      "EUit": "Non ci credo! Il 30, è proprio il\n30! Un numero speciale merita un\npremio speciale.\nEcco a te un bastoncino\nfluorescente. Congratulazioni!",
      "EUnl": "Niet te geloven! Het is nummer 30!\nMet een speciale prijs: een kleurrijk\nlichtstaafje. Veel plezier ermee!",
      "EUru": "Поверить не могу! Номер 30! А вот\nи особый приз за особый номер —\nрадужная светопалочка. Она твоя!",
      "JPja": "あ～～っと　出ました～！　30番！\n景品は\nなんと　カラフルスティックライトです～！",
      "KRko": "오옷～～ 나왔습니다～! 30번!\n경품은 무려...\n컬러풀 형광봉 되겠습니다요～!",
      "TWzh": "哎呀～出現啦～！是30號！\n獎品是……\n彩色螢光棒喔～！",
      "USen": "I can't believe it! It's the number 30!\nHere's a special prize for a special\nnumber—a colorful light stick. Enjoy!",
      "USes": "¡Sacaste el número 30! Te llevas\nun premio muy especial: ¡una vara de luz colorida! ¡Felicitaciones, primo!",
      "USfr": "Oh, incroyable, le numéro 30! Un\nnuméro si spécial mérite bien une\nbaguette fluo colorée! Félicitations!"
    }
  }
]