﻿[
  {
    "label": "001",
    "attribute": "0x0000000000000000",
    "locale": {
      "CNzh": "今天你真的帮了我好多，谢谢你～\n实在令我心花怒放了！",
      "EUde": "Du hast SO viel für mich getan! Bin\nganz hibbelig vor Aufregung! Könnt\naber auch am vielen Kaffee liegen...",
      "EUen": "You helped me SO much today! I am\nlegit tingling from excitement. Or too\nmuch coffee. Maybe both!",
      "EUes": "¡Gracias, gracias, gracias! O sea,\nte lo has currado un montón\ny ha merecido la pena total.",
      "EUfr": "Comment tu m'as trop aidée ! J'suis\ntellement contente que j'ai le cœur\nqui bat à cent à l'heure, j'te jure !\nOu alors c'est parce que j'ai bu un\npeu trop de café. Disons que c'est\nles deux !",
      "EUit": "Cioè, oggi mi hai aiutata un sacco!\nSono troppo emozionata! O magari\nho bevuto troppo caffè...",
      "EUnl": "Onwijs bedankt voor je hulp vandaag!\nIk loop over van het enthousiasme.\nOf te veel koffie. Misschien allebei!",
      "EUru": "Ты мне та-а-ак помог сегодня!\nЯ готова прыгать от восторга!\nИли это я от кофе? А, неважно!",
      "JPja": "今日は　ちょーお世話になったよ～\nアタイ、テンションあがりまくっちゃった！",
      "KRko": "오늘 정말 신세 많이 졌어～\n나도 모르게 엄청 신난 거 있지!",
      "TWzh": "今天真是受了超多關照啊～\n我現在感覺超興奮的喔！",
      "USen": "You helped me SO much today! I am\nlegit tingling from excitement. Or too\nmuch coffee. Maybe both!",
      "USes": "¡Gracias, gracias, gracias!\nO sea, trabajaste un montón\ny supervalió la pena total.",
      "USfr": "Comment tu m'as trop aidée! J'suis\ntellement contente que j'ai le cœur\nqui bat à cent à l'heure, j'te jure!\nOu alors c'est parce que j'ai bu un\npeu trop de café. Disons que c'est\nles deux!"
    }
  },
  {
    "label": "002",
    "attribute": "0x0000010000000000",
    "locale": {
      "CNzh": "对了对了，你不介意的话，\n就当作庆祝“顺利完工～！”，\n给这栋别墅拍张纪念照片吧？。",
      "EUde": "Ah! Wie wär's, wenn wir mein Palais\ngleich mal mit 'nem feschen Foto-\nshooting für die Ewigkeit festhalten?",
      "EUen": "Hey! How about a photo shoot to\ncommemorate le completion of my\nvacay palace, ?",
      "EUes": "¿Por qué no lo celebramos sacando\nunas fotitos a mi nuevo palacio de\nvacaciones, ?",
      "EUfr": "Hé ! Qu'est-ce que tu dirais de\nprendre mon nouveau palace trop\nchanmé en photo,  ?",
      "EUit": "Ehi! Perché non fai una foto per\ncelebrare il completamento della\nmia casa vacanze sconvolgente?",
      "EUnl": "Hé! Wat dacht je van een fotosessie\nom te vieren dat mijn vakantiepaleis\naf is, ?",
      "EUru": "У меня идея! Давай сделаем фото\nмоей новой летней резиденции?\n.",
      "JPja": "ねぇねぇ、よかったら\n完成おめでとう～！　ってことで\n別荘の記念写真　とってかない？　",
      "KRko": "저기, 시간 괜찮으면\n완성을 축하하는 의미로\n별장 기념사진을 찍고 가지 않을래? ?",
      "TWzh": "那個，如果方便的話，\n要不要拍張別墅的紀念照\n來慶賀別墅完工啊～？。",
      "USen": "Hey! How about a photo shoot to\ncommemorate le completion of my\nvacay palace, ?",
      "USes": "¿Por qué no lo celebramos \ntomándole unas fotitos a mi nuevo\npalacio de vacaciones, ?",
      "USfr": "Hé! Qu'est-ce que tu dirais de\nprendre mon nouveau palace trop\ncool en photo, ?"
    }
  },
  {
    "label": "002_a",
    "attribute": "0x0000000000000000",
    "locale": {
      "CNzh": "好哦",
      "EUde": "Okay!",
      "EUen": "OK!",
      "EUes": "¡Vamos a ello!",
      "EUfr": "D'accord !",
      "EUit": "OK!",
      "EUnl": "Oké!",
      "EUru": "Хорошо!",
      "JPja": "いいですよ",
      "KRko": "오케이!",
      "TWzh": "好喔",
      "USen": "OK!",
      "USes": "¡En marcha!",
      "USfr": "D'accord!"
    }
  },
  {
    "label": "002_b",
    "attribute": "0x0000000000000000",
    "locale": {
      "CNzh": "当然可以！",
      "EUde": "Klar doch!",
      "EUen": "I'd be happy to!",
      "EUes": "¡Será un placer!",
      "EUfr": "Avec plaisir !",
      "EUit": "Con piacere!",
      "EUnl": "Natuurlijk!",
      "EUru": "С радостью!",
      "JPja": "よろこんで！",
      "KRko": "좋아!",
      "TWzh": "當然可以！",
      "USen": "I'd be happy to!",
      "USes": "¡Será un placer!",
      "USfr": "Avec plaisir!"
    }
  },
  {
    "label": "003",
    "attribute": "0x0000000000000000",
    "locale": {
      "CNzh": "谢谢你！我太开心了～！\n那么，麻烦你用手机里的照相机软件\n咔嚓咔嚓地拍个够吧～！。",
      "EUde": "Cool, cool! Dann nutz einfach die\nKamera-App auf deinem NookPhone\nund knips, was das Zeug hält!",
      "EUen": "Cool, cool! Snap away using the\nCamera app on your NookPhone!",
      "EUes": "¡Qué chipi! Vamos a darle uso\na la cámara de tu Nookófono.\n¿No te encanta sacar fotos?",
      "EUfr": "Cool ! Fais-toi plaiz avec l'appli\nAppareil photo de ton NookPhone !",
      "EUit": "Allucinante! Allora scatta a tutto\nspiano con l'app Fotocamera del tuo\nNook Phone, !",
      "EUnl": "Cool! Schiet er zoveel als je wilt met\nde camera-app op je NookPhone!",
      "EUru": "Круто-круто! Ты можешь сделать\nснимки с помощью приложения\n«Камера» на твоем нукофоне!",
      "JPja": "ありがとう！　マジで　うれしい～！\nそれじゃ、スマホの　カメラアプリで\nパシャっと　とっちゃってよ～！　",
      "KRko": "고마워! 정말 기뻐～!\n사진은 스마트폰의 카메라 앱으로\n찍으면 돼～! !",
      "TWzh": "謝謝你！我真的超開心的～！\n那就麻煩你用手機的\n照相機應用程式拍照吧～！。",
      "USen": "Cool, cool! Snap away using the\nCamera app on your NookPhone!",
      "USes": "¡Qué supergenial! Vamos a darle uso\na la cámara de tu Nookófono.\n¿No te encanta tomar fotos?",
      "USfr": "Cool! Fais-toi plaisir avec l'appli\nAppareil photo de ton NookPhone!"
    }
  },
  {
    "label": "004",
    "attribute": "0x0000000000000000",
    "locale": {
      "CNzh": "哇，好厉害～！也就是说，\n我的别墅会被拿来当成宣传示例？！\n当然没问题～！。",
      "EUde": "Was? Wie crazy ist das denn?! Meine\nFerienwohnung, ein Model? Die wird\nbestimmt bald so berühmt wie ich!",
      "EUen": "Ohmigosh! My palace is going to be\na model! I should take a minute and\ngive it some pointers on poses...",
      "EUes": "¡No me lo creo! ¿Estás diciendo que\nesta casa será modelo como la moi?\nClaro que sí, nada me haría más feliz.",
      "EUfr": "J'y crois paaas ! Le premier shooting\nphoto de ma villa ! Si elle est comme\nmoi, t'inquiète, elle va assurer !",
      "EUit": "Sconvolgente! 'Sta casa vacanze\ndiventerà supermegaextratrendy,\ngrazie alle tue foto, !\nCioè, sarà meglio che le dia qualche\nconsiglio su come mettersi in posa...",
      "EUnl": "Sjeempie! Mijn paleis gaat een model\nzijn! Ik moet het snel nog wat tips\ngeven over de beste poses...",
      "EUru": "Обалдеть! Моя дача будет моделью\nдля съемок! Интересно, она умеет\nпозировать?",
      "JPja": "えっ、スゴ～イ！　アタイのお部屋が\nモデルになっちゃうカンジ？！\nもちろん　オッケーだよ～！　",
      "KRko": "어, 진짜～?! 그러니까 내 방이\n홍보용으로 쓰일 거라는 뜻이지?!\n무조건 오케이야～! !",
      "TWzh": "咦，聽起來好厲害～！\n也就是說要在我的房間取景嗎！？\n那當然OK囉～！。",
      "USen": "Ohmigosh! My palace is going to be\na model! I should take a minute and\ngive it some pointers on poses...",
      "USes": "¡No me lo creo! ¿Estás diciendo que\nesta casa será modelo así como yo?\nClaro que sí, nada me haría más feliz.",
      "USfr": "J'y crois paaas! La première séance\nphoto de ma villa! Si elle est comme\nmoi, t'inquiète, elle va être cool!"
    }
  },
  {
    "label": "005",
    "attribute": "0x0000000000000000",
    "locale": {
      "CNzh": "拜托你多拍些好照片哦～！\n啊，等你拍完了，记得叫我一声～。",
      "EUde": "Gib Laut, wenn alles im Kasten ist!\nUnd denk dran: Es muss natürlich\nwaaahnsinnig cool aussehen!",
      "EUen": "Make sure it looks très perfect,\nand let me know when you're all\nfinished, !",
      "EUes": "Con el buen ojo que tienes, fijo\nque te queda mejor que chachi.\n¡Quiero verla cuando acabes!",
      "EUfr": "Surtout tu la prends sous son\nmeilleur profil, et tu me dis quand\nt'as fini,  !",
      "EUit": "Mi raccomando, fai foto troppo\nperfette! E fammi sapere quando\nhai finito, !",
      "EUnl": "Zorg dat het er onwijs perfect uitziet,\nen laat het me weten wanneer je\nklaar bent, !",
      "EUru": "Сфотографируй мою дачу с лучшего\nракурса! И дай мне знать, когда\nзакончишь. .",
      "JPja": "めっちゃイイカンジに　お願いね～！\nあ、終わったら　声かけて～、",
      "KRko": "근사하게 잘 찍어줘～!\n아, 다 찍으면 말해～ ～",
      "TWzh": "麻煩你拍得好看一點喔～！\n啊，還有拍完記得跟我說一聲～。",
      "USen": "Make sure it looks très perfect,\nand let me know when you're all\nfinished, !",
      "USes": "Con el buen ojo que tienes, seguro\nque te queda superfabs.\n¡Quiero verla cuando acabes!",
      "USfr": "Surtout tu la prends sous son\nmeilleur profil, et tu me dis quand\nt'as fini, !"
    }
  },
  {
    "label": "011",
    "attribute": "0x0000000000000000",
    "locale": {
      "CNzh": "",
      "EUde": "",
      "EUen": "",
      "EUes": "",
      "EUfr": "",
      "EUit": "",
      "EUnl": "",
      "EUru": "",
      "JPja": "",
      "KRko": "",
      "TWzh": "",
      "USen": "",
      "USes": "",
      "USfr": ""
    }
  },
  {
    "label": "011_01",
    "attribute": "0x0000000000000000",
    "locale": {
      "CNzh": "拍照要使用手机里的照相机软件哦！\n要不要让我这位明日之星给你当模特呀？\n……开玩笑的啦！呀哈哈！。",
      "EUde": "Zum Knipsen nutzt du einfach\ndie Kamera-App auf deinem\nNookPhone!",
      "EUen": "Use the Camera app on your\nNookPhone to take photos!",
      "EUes": "Lo primero es abrir la cámara\nde tu Nookófono y lo segundo,\n¡sacar la foto más cuqui del mundo!",
      "EUfr": "Utilise l'appli Appareil photo de\nton NookPhone pour prendre des\nphotos,  !",
      "EUit": "Per fare delle foto, usa l'app\nFotocamera del tuo Nook Phone!",
      "EUnl": "Gebruik de camera-app op je\nNookPhone om foto's te maken!",
      "EUru": "Чтобы сделать снимки, используй\nприложение «Камера» на своем\nнукофоне!",
      "JPja": "写真は　スマホの　カメラアプリを使ってね！\nモデルに　未来のトップアイドルも　どう？\n・・・なんてねっ！　キャハハ！　",
      "KRko": "사진은 스마트폰의 카메라 앱으로 찍으면 돼!\n훗날 아이돌이 될 나를 함께 찍는 건 어때?\n...농담이야! 꺄하하! !",
      "TWzh": "使用手機的照相機應用程式就能拍照囉！\n取景時……也拍一下未來的頂尖偶像如何？\n開玩笑的啦！哈哈哈！。",
      "USen": "Use the Camera app on your\nNookPhone to take photos!",
      "USes": "Lo primero es abrir la cámara\nde tu Nookófono y lo segundo,\n¡tomar la foto más linda del mundo!",
      "USfr": "Utilise l'appli Appareil photo de\nton NookPhone pour prendre des\nphotos, !"
    }
  },
  {
    "label": "011_02",
    "attribute": "0x0000000000000000",
    "locale": {
      "CNzh": "别墅建得这么漂亮，\n我感觉自己就像是名媛一样～\n太幸福了～！。",
      "EUde": "Bei diesem Prachtbau fühl ich mich\nglatt wie 'n Star! Ich könnt platzen\nvor Freude, (Floskel)!",
      "EUen": "This gorgeous vacation palace makes\nme feel like royalty! I'm SO happy\nhere, !",
      "EUes": "Con mi propia casa de vacaciones\nya voy anticipando lo que se siente\nser famosa.\n¡Qué contenta estoy, !",
      "EUfr": "Ce palace me donne l'impression\nd'être une princesse ! Je suis TROP\ncontente,  !",
      "EUit": "'Sta casa vacanze stratosferica mi\nfa sentire tipo regina del mondo!\nSono troppo felice, !",
      "EUnl": "In dit prachtige vakantiepaleis voel\nik me als een echte superster! Ik ben\nonwijs gelukkig hier, !",
      "EUru": "Чувствую себя принцессой во\nдворце! Я ужасно рада, что у меня\nтеперь есть дача. .",
      "JPja": "こんなに　ステキな別荘が　できて\nアタイ、セレブに　なった気分～\nちょーシアワセだよ～！　",
      "KRko": "이렇게 근사한 별장이 생기니까\n내가 꼭 연예인이 된 것 같아～\n너무 행복해～! !",
      "TWzh": "居然能擁有這麼棒的別墅，\n我感覺自己就像名媛一樣呢～\n超幸福的～！。",
      "USen": "This gorgeous vacation palace makes\nme feel like royalty! I'm SO happy\nhere, !",
      "USes": "Con mi propia casa de vacaciones\nya voy vislumbrando qué se siente\nser famosa.\n¡Qué contenta estoy, !",
      "USfr": "Ce palace me donne l'impression\nd'être une princesse! Je suis TROP\ncontente, !"
    }
  },
  {
    "label": "012",
    "attribute": "0x0000020000000000",
    "locale": {
      "CNzh": "怎么样？\n拍到满意的照片了吗？。",
      "EUde": "Na? Schon ein paar preisverdächtige\nFotos geknipst?",
      "EUen": "So? Did you get a good photo?",
      "EUes": "¿Ya tienes la foti perfecta?",
      "EUfr": "Alors ? T'as pris une photo de star ?",
      "EUit": "Quindi? Hai fatto qualche foto\ntroppo sconvolgente?",
      "EUnl": "En? Heb je wat mooie foto's kunnen\nschieten?",
      "EUru": "Ну как? Хорошие фоточки\nполучились?",
      "JPja": "どう？\nいい写真は　とれた？　",
      "KRko": "어때?\n근사한 사진은 찍었어? ?",
      "TWzh": "如何？\n拍到好照片了嗎？。",
      "USen": "So? Did you get a good photo?",
      "USes": "¿Ya tienes la fotito perfecta?",
      "USfr": "Alors? T'as pris une photo de star?"
    }
  },
  {
    "label": "012_a",
    "attribute": "0x0000000000000000",
    "locale": {
      "CNzh": "拍好了！",
      "EUde": "Jawoll!",
      "EUen": "I sure did!",
      "EUes": "¡Sí, ya está!",
      "EUfr": "Et comment !",
      "EUit": "Decisamente sì!",
      "EUnl": "Jazeker!",
      "EUru": "Ага, уже!",
      "JPja": "撮れました！",
      "KRko": "잘 찍혔어!",
      "TWzh": "拍好了！",
      "USen": "I sure did!",
      "USes": "¡Sí, ya está!",
      "USfr": "Et comment!"
    }
  },
  {
    "label": "012_b",
    "attribute": "0x0000000000000000",
    "locale": {
      "CNzh": "请稍等一下",
      "EUde": "Noch nicht...",
      "EUen": "Not yet.",
      "EUes": "Todavía no...",
      "EUfr": "Pas encore.",
      "EUit": "Non ancora.",
      "EUnl": "Nog niet.",
      "EUru": "Еще нет.",
      "JPja": "もう少し　お待ちください",
      "KRko": "조금만 더 기다려",
      "TWzh": "請再等一下",
      "USen": "Not yet.",
      "USes": "Todavía no...",
      "USfr": "Pas encore."
    }
  },
  {
    "label": "013",
    "attribute": "0x0000000000000000",
    "locale": {
      "CNzh": "哇～！拍得很棒嘛！\n多亏了你，\n我们俩的美好回忆才能如此圆满～！",
      "EUde": "Ist das abgefahren! Vielen, vielen\nDank, !",
      "EUen": "This is so awesome! Thank you so\nmuch, !",
      "EUes": "¡Qué chipiguay! No sé cómo darte\nlas gracias, .",
      "EUfr": "Ça déchire ! Merci un million de fois,  !",
      "EUit": "Allucinante! Grazie una cifra,\n!",
      "EUnl": "Dit is zo geweldig! Heel erg bedankt,\n!",
      "EUru": "Как круто! Обалдеть! Спасибо тебе\nогромное, !",
      "JPja": "わぁ～！　ちょーいいカンジ\nの　おかげで\nすっごく　いい思い出ができたよ～！",
      "KRko": "와아～! 너무 좋은데\n 덕분에\n잊지 못할 좋은 추억이 생겼어～!",
      "TWzh": "哇～！感覺超棒的\n多虧了，\n我留下了很美好的回憶喔～！",
      "USen": "This is so awesome! Thank you so\nmuch, !",
      "USes": "¡Qué megafabu! No sé cómo darte\nlas gracias, .",
      "USfr": "C'est génial! Merci un million de fois, !"
    }
  },
  {
    "label": "014",
    "attribute": "0x0000000000000000",
    "locale": {
      "CNzh": "今天真是谢谢你了！。",
      "EUde": "Also im Ernst jetzt, du hast mir\ntotal den Tag versüßt, (Floskel)!",
      "EUen": "Seriously, thank you so much for\ntoday, !",
      "EUes": "Jo, por tu culpa no puedo borrarme\nesta sonrisilla de la cara.",
      "EUfr": "Merci pour tout ce que t'as fait !\nT'es trop cool,  !",
      "EUit": "No, cioè, grazie mille per oggi,\n!",
      "EUnl": "Serieus, echt onwijs bedankt voor\nvandaag, !",
      "EUru": "Серьезно, я очень благодарна тебе\nза все! !",
      "JPja": "今日は、マジで　ありがとうね！　",
      "KRko": "오늘은 정말 고마웠어! !",
      "TWzh": "今天真的很謝謝你！。",
      "USen": "Seriously, thank you so much for\ntoday, !",
      "USes": "Ay, por tu culpa no puedo borrarme\nesta sonrisita de la cara.",
      "USfr": "Merci pour tout ce que t'as fait!\nT'es trop cool, !"
    }
  },
  {
    "label": "015",
    "attribute": "0x0000000000000000",
    "locale": {
      "CNzh": "OK～！\n你不用担心我这边哦！\n慢慢拍照吧～！。",
      "EUde": "Alles klärchen! Nimm dir alle Zeit der\nWelt. Die Fotos sollen schließlich so\nperfekt wie ich sein, (Floskel)!",
      "EUen": "OK! Take your time with the photos.\nShow off just how gorgeous this\nplace is, !",
      "EUes": "¡Vale! Sé que estas cosis llevan\nsu tiempo, y no tengo prisa por\nvacilar de casa, .",
      "EUfr": "OK ! Prends ton temps. Faut que\ntout le monde comprenne bien que\nc'est une villa de star,  !",
      "EUit": "OK, mettici il tempo che ti serve\nper le foto! Fai vedere a tutti quanto\n'sta casa sia una meraviglia!",
      "EUnl": "Oké! Neem je tijd met de foto's. Laat\nze maar eens goed zien hoe geweldig\ndit huis is, !",
      "EUru": "Хорошо! Фотографируй, не спеши.\nГлавное, чтобы моя дача на фото\nполучилась отлично! .",
      "JPja": "オッケー！\nコッチのことは　心配いらないからね！\nゆっくり　写真とっちゃって～！　",
      "KRko": "오케이!\n난 계속 기다릴 수 있으니까 걱정 마!\n천천히 찍어～! !",
      "TWzh": "OK！\n你不用在意我這邊！\n請慢慢拍攝吧～！。",
      "USen": "OK! Take your time with the photos.\nShow off just how gorgeous this\nplace is, !",
      "USes": "¡Está bien! Tómate el tiempo que\nnecesites con las fotos. ¡Muestra lo\nsuperlinda que es, !",
      "USfr": "OK! Prends ton temps. Faut que\ntout le monde comprenne bien que\nc'est une villa de star, !"
    }
  },
  {
    "label": "021",
    "attribute": "0x0000000000000000",
    "locale": {
      "CNzh": "呀嚯～！\n等你很久了～！",
      "EUde": "Endlich! Ich saß hier schon dermaßen\nauf glühenden Kohlen, dass ich glatt\nLust auf 'n Barbecue bekommen hab!",
      "EUen": "Wow! I've been waiting on pins and\nneedles! I've even been experiencing\nat least two other waiting clichés!",
      "EUes": "¡Ay, por fin! Podrías haber avisado\nde que te lo tomarías tan en serio...\ny que me harías esperar tanto.",
      "EUfr": "Super ! Je suis pas impatiente,\nhein... Mais carrément impatiente\nde chez impatiente !",
      "EUit": "Allucinante! Mentre ti aspettavo\nero troppo sulle spine! Quasi come\nquando sto per salire sul palco!",
      "EUnl": "Wauw! Ik ben echt zo benieuwd! Dit\nvoelt als wachten tot een feest waar\nje een nieuwe jurk kunt dragen!",
      "EUru": "Ох! Я сгораю от нетерпения! Сижу\nвесь день как на иголках! Локти\nкусаю! Ой, нет, это про другое...",
      "JPja": "キャッホ～！\n待ってました～！",
      "KRko": "야호～!\n드디어 완성했구나～!",
      "TWzh": "呀呼～！\n我等好久了～！",
      "USen": "Wow! I've been waiting on pins and\nneedles! I've even been experiencing\nat least two other waiting clichés!",
      "USes": "¡Ay, por fin! ¡Ya no sabía qué hacer\ncon tanta emoción que tengo por\nverla!...",
      "USfr": "Super! Je suis pas impatiente,\nhein... Mais carrément impatiente\nde chez impatiente!"
    }
  },
  {
    "label": "022",
    "attribute": "0x0000000000000000",
    "locale": {
      "CNzh": "感觉这是额外的服务呀～？\n谢谢你啦，那请你继续加油哦～！\n等你工作结束了，记得叫我一声。。",
      "EUde": "Wow, hat der Service hier kein\nEnde?! Abgefahren! Hau mich ein-\nfach wieder an, wenn du fertig bist!",
      "EUen": "Wow, you'll do that too?! Thanks!\nOK, just let me know when you're\ndone, .",
      "EUes": "Hala, ¡sí que eres todoterreno!\n¡Pues mil gracias! Te esperaré aquí\ntoda nerviosita hasta que acabes.",
      "EUfr": "Tu t'occupes de ça aussi ?! Merci !\nFais-moi signe quand t'as terminé\nalors, .",
      "EUit": "Da paura, farai anche quello?! Grazie\nuna cifra! OK, fammi sapere quando\nhai finito, .",
      "EUnl": "Wauw, doe je dat ook?! Bedankt!\nOké, laat het me weten als je klaar\nbent, .",
      "EUru": "Ой, ты и это сможешь сделать?\nСпасибо! Дай знать, когда\nзакончишь. .",
      "JPja": "なんか　サービスしてくれるカンジ～？\nサンキュー、じゃあ　引き続きファイト～！\n終わったら　また　声かけてね、",
      "KRko": "뭔가 서비스해주려구～?\n땡큐! 그럼 계속해서 힘내～!\n다 끝나면 나한테 말해줘, ",
      "TWzh": "是要幫我做些額外服務嗎～？\n謝啦，那麼請繼續加油～！\n完成後再跟我說一聲吧，。",
      "USen": "Wow, you'll do that too?! Thanks!\nOK, just let me know when you're\ndone, .",
      "USes": "Guauuu, ¡sí que eres todoterreno!\n¡Pues mil gracias! Te esperaré aquí\ntoda nerviosita hasta que acabes.",
      "USfr": "Tu t'occupes de ça aussi?! Merci!\nFais-moi signe quand t'as terminé\nalors, ."
    }
  },
  {
    "label": "031",
    "attribute": "0x0000000000000000",
    "locale": {
      "CNzh": "唔～这样啊……\n其实，我不太懂关于\n选址这方面的事情，\n可以先听听你的推荐吗～？",
      "EUde": "Na ja, eigentlich hab ich null Peilung,\nwas so was angeht... Mein Ding ist\neher die Welt von Glanz und Glamour.\nAber ihr habt da sicher schon 'n\npaar Empfehlungen für mich\nparat, stimmt's?",
      "EUen": "To be totally honest, I've always\nfocused more on the pop-star part of\nmy career than the land-baron part.\nSo I'd love to hear any and all of\nyour recommendations.",
      "EUes": "Bueno, la verdad es que en esos\ntemas estoy así como perdida...\nCreo que prefiero dejarlo en manos\nde una agencia profesional como\nla vuestra, .",
      "EUfr": "Pour être honnête, je me concentre\nsur ma carrière de star, et j'ai pas\ntrop le temps de réfléchir à tout ça.\nCe serait super méga génial si tu\npouvais me donner ton avis sur\nla question !",
      "EUit": "Cioè, mi sono sempre concentrata\nsul mondo dello spettacolo, non\nsu quello dei proprietari terrieri.\nQuindi mi piacerebbe una cifra\nsentire se hai qualche consiglio.",
      "EUnl": "Ik heb me altijd meer gericht op het\npopstergedeelte van mijn carrière\ndan op het planmatige deel.\nDus als iemand me iets kan\naanraden, dan hoor ik het graag.",
      "EUru": "Ну, если честно, я разбираюсь\nв поп-звездах гораздо лучше, чем\nв земельных участках.\nПоэтому я буду рада любому\nсовету!",
      "JPja": "う～ん、そうだなぁ～・・・\n実は　アタイ、\n土地のこととか　よくわかんないし、\nよかったら　オススメしてもらえるかな～？",
      "KRko": "으음～ 글쎄～...\n실은 내가\n이런 쪽은 잘 몰라서 그런데\n혹시 추천해줄 수 있을까～?",
      "TWzh": "嗯～我想想……\n其實我對土地的事不太熟悉，\n方便的話，能請你幫我推薦嗎～？",
      "USen": "To be totally honest, I've always\nfocused more on the pop-star part of\nmy career than the land-baron part.\nSo I'd love to hear any and all of\nyour recommendations.",
      "USes": "Bueno, la verdad es que en esos\ntemas estoy así como perdida...\nCreo que prefiero dejarlo en manos\nde una agencia profesional como\nla tuya, .",
      "USfr": "Pour être honnête, je me concentre\nsur ma carrière de star, et j'ai pas\ntrop le temps de réfléchir à tout ça.\nCe serait super méga génial si tu\npouvais me donner ton avis sur\nla question!"
    }
  },
  {
    "label": "032",
    "attribute": "0x0000000000000000",
    "locale": {
      "CNzh": "嗯，真不错！\n听起来很棒嘛～！\n我好想快点儿去现场看看呀～！。",
      "EUde": "Sieht voll nice aus! Los, lasst uns\nsofort hingehen! Ich muss das\neinfach live und in Farbe sehen!",
      "EUen": "Oh, nice! Let's go see it right away.\nMaybe even right now—or sooner,\nif we can, !",
      "EUes": "¡Chachi! Vamos a verla ¡pero ya!\nPerdón, cuando podáis, es la ilusión\nla que habla por mí, .",
      "EUfr": "Oh, trop cool ! Je veux voir ça tout\nde suite alors,  !",
      "EUit": "Oh, mitico! Andiamo subito\na dare un'occhiata! Cioè, anche\nprima di subito, !",
      "EUnl": "O, leuk! Laten we het meteen gaan\nbekijken. Ik ben er helemaal klaar\nvoor, !",
      "EUru": "Чудненько! Пойдем, посмотрим!\nМы же можем прямо сейчас пойти\nпосмотреть, да? .",
      "JPja": "うんっ、ステキ！\nいいじゃん　いいじゃん～！\n早く、直接　見た～い！　",
      "KRko": "응, 좋아!\n그렇게 하자～!\n빨리 내 눈으로 보고 싶어～! !",
      "TWzh": "嗯，很棒喔！\n看起來真不錯～！\n真想早點親眼看看～！。",
      "USen": "Oh, nice! Let's go see it right away.\nMaybe even right now—or sooner,\nif we can, !",
      "USes": "¡Superfabs! Vamos a verla ¡pero ya!\nDigo, cuando puedas, es la emoción\nla que habla por mí, .",
      "USfr": "Oh, trop cool! Je veux voir ça tout\nde suite alors, !"
    }
  },
  {
    "label": "041",
    "attribute": "0x0000000000000000",
    "locale": {
      "CNzh": "哇～！\n这里比照片上看见的还要好\n我真的非常满意～！",
      "EUde": "Ich kipp aus den Latschen! Das ist ja\nnoch mal 'ne Nummer krasser als auf\ndem Bild! Ich LIEBE diesen Look!",
      "EUen": "Ohmigosh! It's even better than in\nthe picture! I am in LOVE with it!",
      "EUes": "Ay, me muero. ¡Es muchísimo mejor\nde lo que me esperaba! ¡Es preciosa!",
      "EUfr": "Oh là là là là ! C'est encore mieux\nqu'en photo ! J'en suis TROP trop\nfan !",
      "EUit": "Cioè, allucinante! È pure meglio\nche in foto! Mi piace troppo!",
      "EUnl": "Sjeempie! Het is nog mooier dan op\nde foto! Ik ben er helemaal VERLIEFD\nop!",
      "EUru": "С ума сойти! Даже лучше, чем на\nкартинке! Я сейчас взорвусь от\nвосторга!",
      "JPja": "わぁ～！\n写真で見るより　ちょーいいカンジ\nアタイ、マジで　気に入っちゃったよ～！",
      "KRko": "와아～!\n사진으로 봤던 것보다 훨씬 느낌 좋다\n나, 정말 마음에 들어～!",
      "TWzh": "哇～！\n比照片上看起來還棒呢\n我超中意的～！",
      "USen": "Ohmigosh! It's even better than in\nthe picture! I am in LOVE with it!",
      "USes": "Ay, me muero. ¡Es muchísimo mejor\nde lo que esperaba! ¡Es preciosa!",
      "USfr": "Oh là là là là! C'est encore mieux\nqu'en photo! J'en suis TROP trop\nfan!"
    }
  },
  {
    "label": "051",
    "attribute": "0x0000000000000000",
    "locale": {
      "CNzh": "咦～？\n这栋别墅\n有两个房间啊～？！。",
      "EUde": "Moment, was?! Seh ich jetzt schon\ndoppelt oder hat dieses Ferienhaus\necht zwei Zimmer, (Floskel)?!",
      "EUen": "Wait, what? Does this vacation home\nlegit have two rooms, ?!",
      "EUes": "¡Hala, qué maravilla! ¿Vienen todas\nlas casitas de vacaciones con dos\n«suites» tan a la última?",
      "EUfr": "Attends, mais c'est l'hallu totale !\nIl y a bien deux pièces dans cette\nmaison ?!",
      "EUit": "Cioè, scusa un attimo... Ma 'sta casa\nha due stanze, ?!",
      "EUnl": "Wacht, wat? Heeft dit vakantiehuis\nserieus twee kamers, ?!",
      "EUru": "Погоди-ка. На моей даче будет\nцелых две комнаты? Серьезно?\n.",
      "JPja": "あれ～？\nこの別荘って、お部屋が\nふたつも　あるんだ～？！　",
      "KRko": "어라～?\n이 별장은 방이\n두 개나 있네～?! !",
      "TWzh": "咦～？\n難道這棟別墅\n有兩間房間嗎～！？。",
      "USen": "Wait, what? Does this vacation home\nlegit have two rooms, ?!",
      "USes": "¡No inventes, qué maravilla! ¿Vienen\ntodas las casitas de vacaciones con\ndos cuartos tan megachic?",
      "USfr": "Attends, mais j'hallucine ou quoi!\nIl y a bien deux pièces dans cette\nmaison?!"
    }
  },
  {
    "label": "052",
    "attribute": "0x0000000000000000",
    "locale": {
      "CNzh": "啊哈哈！好厉害～！\n这种布局还挺少见的，真好啊。\n感觉布置起来都能更自由了！\n我的房间\n能变成什么样子呢～\n你要是愿意的话，就试试吧。。",
      "EUde": "Ach, ist ja cool! Der Grundriss geht\nvoll ab! Da hat man dann totaaaal\nviele Optionen, alles zu gestalten.\nHey, könnt ihr das auch ins Design\nmeines Ferienhauses einplanen?",
      "EUen": "Nice! This kind of layout feels so...\nI want to say...fresh. Yeah. Fresh.\nIt really opens up design options!\nHey, do you think you could do this\nkind of thing with my design?",
      "EUes": "¡Qué chipichipez! Sería como vivir\nen dos lugares de ensueño a la vez...\n¿Y lo podríais integrar en mi diseño?",
      "EUfr": "Cool ! J'aime bien cet agencement...\nÇa me donne plein d'idées de déco !\nDis, tu crois que tu pourrais faire\nça chez moi aussi ?",
      "EUit": "Allucinante! Questa soluzione mi\nsembra... cioè... rinfrescante. Ecco,\nsì. Ti rinfresca le idee di design!\nSenti, pensi di poter fare una cosa\ndel genere con la mia casa?",
      "EUnl": "Mooi! Deze lay-out voelt zo... Wil ik\nverfrissend zeggen? Ja. Verfrissend.\nDit geeft zoveel ontwerpopties!\nJa, van mij mag je gerust met de\nlay-out spelen!",
      "EUru": "Мило! Очень... оригинальное\nдизайнерское решение.\nНепривычное, но интересное!\nКак ты думаешь, мы сможем\nвписать эту перегородку в интерьер\nмоей дачи?",
      "JPja": "キャハハ！　スゴ～イ！\nこういう間取り　シンセンでいいね、\nコーディネートのはばが　広がりそう！\nアタイのお部屋だと\nどんな　カンジになるのかな～\n気が向いたら　試してみてよ、",
      "KRko": "꺄하하! 대박이다～!\n이런 방 모양도 신선해서 좋네\n더 다양하게 꾸밀 수 있겠어!\n내 방을 이렇게 만들면\n어떤 느낌일까～?\n너도 궁금하면 한번 해봐, ",
      "TWzh": "哈哈哈！真厲害～！\n這種格局規劃讓人感到很新鮮，真不錯。\n布置的搭配好像變得更豐富了！\n我的房間究竟會\n變成什麼樣子呢～\n你有興趣的話，就動手做做看吧，。",
      "USen": "Nice! This kind of layout feels so...\nI want to say...fresh. Yeah. Fresh.\nIt really opens up design options!\nHey, do you think you could do this\nkind of thing with my design?",
      "USes": "¡Qué megalindo! Sería como vivir\nen dos lugares de ensueño a la vez...\n¿Y lo podrías integrar en mi diseño?",
      "USfr": "Cool! J'aime bien cet agencement...\nÇa me donne plein d'idées de déco!\nDis, tu crois que tu pourrais faire\nça chez moi aussi?"
    }
  },
  {
    "label": "061",
    "attribute": "0x0000000000000000",
    "locale": {
      "CNzh": "你好～！\n打扰一下～。",
      "EUde": "Hallihallo! Entschuldigt die Störung!",
      "EUen": "Hello! Excuse me for interrupting!",
      "EUes": "¡Holi! Perdón, no quería molestar...",
      "EUfr": "Kikou ! Je vous dérange pas ?",
      "EUit": "Ciaaao! È permesso?",
      "EUnl": "Hallo! Sorry voor het storen!",
      "EUru": "Приветик! Я не помешала?",
      "JPja": "こんにちは～！\nおジャマしま～す、",
      "KRko": "안녕～!\n실례 좀 할게～ ～",
      "TWzh": "你好～！\n打擾了～。",
      "USen": "Hello! Excuse me for interrupting!",
      "USes": "¡Holi! Perdón, no quería molestar...",
      "USfr": "Salut! Je vous dérange pas?"
    }
  },
  {
    "label": "062",
    "attribute": "0x0000000000000000",
    "locale": {
      "CNzh": "我来得这么突然，真是不好意思呀～\n其实，我是有事想要拜托你～\n那个，我……\n我想试试合住别墅！\n要是能与人一起分享在那里生活的愉悦时光，\n一定会是一件非常棒的事情！\n而且，建好了那么漂亮的别墅，\n让我一人独占实在太可惜了～\n……你是不是也这样觉得？",
      "EUde": "Ich platz ja ungern einfach so irgend-\nwo rein. Wobei... Eigentlich schon.\n...Egal! Ich hatte jedenfalls 'ne Idee!\nEs fing damit an, dass ich voll das\nGefühl bekam, dass meinem fetzigen\nFerienhaus noch irgendwas fehlt...\nUnd dann hat's Pling gemacht: Mir\nfehlt ein Fan-- äh, Mitbewohner, mit\ndem ich das Ferienhaus teilen kann!",
      "EUen": "Sorry for barging in all of a sudden,\nbut I had an idea!\nI was thinking that I'm not making\nthe most of this amazing vacay\npalace you built!\nThen I realized that what I need is\na BFF to share my vacation-home\nfun with!",
      "EUes": "Disculpad por presentarme aquí\nsin avisar, pero me ha venido la\ninspiración de repente.\nHe estado pensando que tener una\ncasita es tope chachi, ¿pero sabéis\nqué sería más chachi aún?\n¡Compartir mi casa de vacaciones\ncon alguien y que nos hiciéramos\nsuperamiguis!",
      "EUfr": "Désolée de débouler comme ça,\nmais j'ai eu une idée trop classe !\nEn fait, je me disais que je profite\npas assez du super palace que tu\nas construit pour moi !\nEt je crois que ce qu'il me faut, c'est\nun pote avec qui partager ma villa !",
      "EUit": "Chiedo scusa per essermi fiondata\nqui così, ma mi è venuta un'idea!\nCioè, ho pensato che la mia casa\nvacanze è sprecata per me da sola...\nAllora ho capito che mi serve\nqualcuno con cui condividerla!",
      "EUnl": "Sorry dat ik zo binnenstorm, maar ik\nheb een idee!\nIk was aan het denken hoe leuk het\neigenlijk is om in mijn geweldige\nvakantiehuisje te zijn!\nToen besefte ik dat ik een huisgenoot\nmis om dit vakantiehuisje mee te\ndelen!",
      "EUru": "Простите, что ворвалась так\nвнезапно, но у меня появилась\nпотрясающая идея!\nМне все казалось, что на моей\nшикарной даче чего-то не хватает!\nА потом я поняла, что не хватает\nкого-то, а не чего-то. Для счастья\nмне нужен сосед по даче! ",
      "JPja": "とつぜん　おしかけて　ごめんなさ～い\n実は　お願いがあって来たんだ～\nあのね、アタイ・・・\n別荘のシェアが　してみたいの！\nあの場所で　ハッピーな時間を\nだれかと　わけっこできたらな～って思って！\nそれに、あんなに　リッパな別荘を建てて\nもらったのに、ひとりじめするなんて\nもったいないじゃん？　・・・どうかな？",
      "KRko": "갑자기 찾아와서 미안해～\n실은 부탁이 있어서 왔어～\n저기, 나...\n별장을 셰어하고 싶어!\n근사한 별장에서 행복한 시간을\n누군가와 나누면 좋겠다는 생각이 들더라구～\n게다가 기껏 근사한 별장을 만들어줬는데\n혼자만 즐기는 건 너무 아깝잖아?\n내 생각이 ...어때?",
      "TWzh": "突然拜訪真是抱歉～\n其實我是想來拜託你一件事的～\n那個，我想……\n我想嘗試跟別人分享別墅！\n我想在別墅裡面，\n和其他人分享快樂的時光～！\n而且難得有這麼氣派的別墅，\n讓我一個人獨占真的太可惜了。\n如何……你能幫忙安排嗎？",
      "USen": "Sorry for barging in all of a sudden,\nbut I had an idea!\nI was thinking that I'm not making\nthe most of this amazing vacay\npalace you built!\nThen I realized that what I need is\na BFF to share my vacation-home\nfun with!",
      "USes": "Disculpa por presentarme aquí\nsin avisar, pero me vino la\ninspiración de repente.\nEstuve pensando que tener una\ncasita es genial, ¿pero sabes\nqué sería más supergenial?\n¡Compartir mi casa de vacaciones\ncon alguien y que nos hiciéramos\nsuperamiguis!",
      "USfr": "Désolée de débouler comme ça,\nmais j'ai eu une idée trop classe!\nEn fait, je me disais que je profite\npas assez du super palace que tu\nas construit pour moi!\nEt je crois que ce qu'il me faut, c'est\nquelqu'un avec qui partager ma villa!"
    }
  },
  {
    "label": "063",
    "attribute": "0x0000000000000000",
    "locale": {
      "CNzh": "对吧对吧？！谢谢～！\n可是，问题在于我不知道\n该怎么寻找可以合住的朋友……",
      "EUde": "Kommt ja auch von mir! Die Sache\nhat nur einen Haken... Ich hab null\nPlan, wie man Mitbewohner auftreibt.",
      "EUen": "Right?! Thanks! The thing is, I don't\nknow how to find folks who want to\nbe roommates...",
      "EUes": "¿Verdad? ¡Eso pensé yo! La cosa\nes que... no conozco a nadie que\nesté buscando casa...",
      "EUfr": "J'ai trop raison, hein ?! Le problème,\nc'est que je sais pas comment faire\npour avoir un coloc...",
      "EUit": "Vero?! Grazie una cifra! Ma il\nfatto è che io non so come trovare\nqualcun altro che viva con me...",
      "EUnl": "Jaaaaa! Het ding is alleen, dat ik niet\nweet hoe ik zo'n huisgenoot zou\nkunnen vinden...",
      "EUru": "Видишь? Ты со мной согласна!\nПроблема в том, что я не знаю, как\nискать соседей...",
      "JPja": "でしょでしょ？！　ありがと～！\nでも　アタイ、どうやって　そのお友達を\nさがせばいいのか　わかんなくってさ・・・",
      "KRko": "그렇지?! 고마워～!\n근데 내가 어떻게 그 친구를\n찾아야 하는지 잘 모르겠어...",
      "TWzh": "對吧對吧！？謝謝～！\n可是我卻不知道\n該怎樣尋找朋友……",
      "USen": "Right?! Thanks! The thing is, I don't\nknow how to find folks who want to\nbe roommates...",
      "USes": "¿Verdad? ¡Eso pensé yo! La cosa\nes que... no conozco a nadie que\nesté buscando casa...",
      "USfr": "J'ai trop raison, hein?! Le problème,\nc'est que je sais pas comment faire\npour avoir un coloc..."
    }
  },
  {
    "label": "064",
    "attribute": "0x0000000000000000",
    "locale": {
      "CNzh": "哎呀～！可以交给你们吗～？！\n嘿嘿～还好我下定决心来找你们商量了～\n那就麻烦你们了～。",
      "EUde": "Aber so was von! Boah, bin ich\nfroh, dass ich gefragt hab!",
      "EUen": "YAY! I'll leave it all to you! Ohmigosh,\nI am so happy I asked about this.",
      "EUes": "¡Por mí supertotal! Me alegro tanto\nde haberme decidido a venir...\nOs lo dejo todo a vosotros, ¿vale?",
      "EUfr": "GÉNIAL ! Je te laisse t'en occuper,\nalors ! Oh là là, comment je suis trop\ncontente de t'en avoir parlé !",
      "EUit": "Stratosferico! Lascio fare a voi!\nCioè, sono troppo felice di averlo\nchiesto, !",
      "EUnl": "CHILL! Dan laat ik alles aan jou over! Sjeempie, ik ben zo blij dat ik je dit\nheb gevraagd.",
      "EUru": "Ура! Я так и знала, что вы мне\nпоможете! Как же здорово, что\nя догадалась сюда обратиться!",
      "JPja": "キャ～！　おまかせして　いいの～？！\nえ～ん、思い切って　相談してよかったよ～\nぜひ　よろしくお願いしま～す　",
      "KRko": "꺄～! 맡겨도 돼～?!\n휴우～ 큰맘 먹고 상담하길 잘했어～\n잘 부탁할게～ ",
      "TWzh": "呀啊～！可以委託你們嗎～！？\n嗯～果然下定決心來找你們商量是對的～\n那就麻煩囉～。",
      "USen": "YAY! I'll leave it all to you! Ohmigosh,\nI am so happy I asked about this.",
      "USes": "¡Por mí, megafabu! Me alegro tanto\nde haberme decidido a venir...\nSe los dejo todo a ustedes, ¿sí?",
      "USfr": "GÉNIAL! Je te laisse t'en occuper,\nalors! Oh là là, comment je suis trop\ncontente de t'en avoir parlé!"
    }
  },
  {
    "label": "070",
    "attribute": "0x0000000000000000",
    "locale": {
      "CNzh": "打扰了～\n那家可以帮忙建造别墅的事务所，\n是这里吗～？",
      "EUde": "Heeey! Kann man bei euch ein voll\nabgefahrenes Ferienhaus\nbekommen? Bin ich hier richtig?",
      "EUen": "Hello! I heard I could talk to\nsomeone about getting a vacation\nhome here. Is this the right place?",
      "EUes": "¡Holi! Me han dicho que venga aquí\nsi quiero hacerme con una casa\nde vacaciones, ¿me equivoco?",
      "EUfr": "Salut !  On m'a dit que c'est ici\nqu'il fallait venir pour réclamer une\nmaison de vacances. C'est bien ça ?",
      "EUit": "Ciaaao! Mi hanno detto di venire\nqua per una casa vacanze. Sono nel\nposto giusto?",
      "EUnl": "Hé hooooi! Ik hoorde dat er iemand\nvakantiehuisjes regelt of zo? Dan\nmoet ik hier zijn, toooch?",
      "EUru": "Приветик!  Я слышала, к вам тут\nможно обратиться насчет дачи. \nЭто правильный адрес?",
      "JPja": "おじゃましま～す\n別荘を建てる相談　聞いてもらえるとこって、\nここで　あってますか～？",
      "KRko": "실례하겠습니다～\n별장 제작 상담을 해주는 곳이\n여기가 맞나요～?",
      "TWzh": "打擾了～\n聽說有地方可以諮詢建造別墅的事，\n請問是這裡嗎～？",
      "USen": "Hello! I heard I could talk to\nsomeone about getting a vacation\nhome here. Is this the right place?",
      "USes": "¡Holi! Me dijeron que venga aquí\nsi quiero una casa de vacaciones,\n¿estoy en el lugar correcto, amigui?",
      "USfr": "Salut! On m'a dit que c'est ici\nqu'il fallait venir pour réclamer une\nmaison de vacances. C'est bien ça?"
    }
  },
  {
    "label": "071",
    "attribute": "0x0000000000000000",
    "locale": {
      "CNzh": "那么，就拜托你吧？",
      "EUde": "Supi! Können wir gleich loslegen?",
      "EUen": "Great! Can we get started now?",
      "EUes": "¡Qué chipiguay! Y... ¿podemos\nempezar ya mismo?",
      "EUfr": "Super ! On commence maintenant ?",
      "EUit": "Stratosferico! Allora, cominciamo?",
      "EUnl": "Onwijs top! Kunnen we dan meteen\naan de slag gaan?",
      "EUru": "С ума сойти! Прямо сейчас\nи начнем, верно?",
      "JPja": "それじゃ、お願いしちゃおっかな？",
      "KRko": "그럼 부탁해볼까?",
      "TWzh": "那麼就麻煩你囉？",
      "USen": "Great! Can we get started now?",
      "USes": "¡Qué superbién! Y... ¿podemos\nempezar ya mismo?",
      "USfr": "Super! On commence maintenant?"
    }
  },
  {
    "label": "072",
    "attribute": "0x0000000000000000",
    "locale": {
      "CNzh": "哎呀～还好来了一趟！\n超兴奋的～。",
      "EUde": "YAAAY! Endorphinrausch! Das ist\nalles sooo aufregend, (Floskel).",
      "EUen": "YAY! I'm so glad I decided to stop in.\nThis is super exciting, !",
      "EUes": "¡Yupiii! Menos mal que estáis para\nestas cositas, .\n¡Me muero de la emoción!",
      "EUfr": "Trop cool ! Je suis trop contente\nd'être passée. J'ai méga hâte,  !",
      "EUit": "Evvai! Ho fatto troppo bene\na passare di qui. Allucinante,\n!",
      "EUnl": "Te gek! Dit is zo spanneeeend! Ik ben\nsuperblij dat ik langs ben gekomen,\n!",
      "EUru": "Шик и блеск! Я молодец, что\nрешилась зайти. Жду не дождусь\nрезультата! !",
      "JPja": "キャ～、来てよかった！\nテンション　あがっちゃう～、",
      "KRko": "꺄아～ 오길 잘했어!\n완전 신난다～ ～",
      "TWzh": "呀～幸好我有來！\n令人興奮起來啦～！。",
      "USen": "YAY! I'm so glad I decided to stop in.\nThis is super exciting, !",
      "USes": "¡Yupiii! Estoy feliz de haber pasado\npor aquí, .\n¡Me muero de la emoción!",
      "USfr": "Trop cool! Je suis trop contente\nd'être passée. J'ai méga hâte, !"
    }
  }
]