﻿[
  {
    "label": "001",
    "attribute": "0x0000020000000000",
    "locale": {
      "CNzh": "诶……\n难道你是为了我，\n过来探病的～？。",
      "EUde": "Hey... Bist du vorbeigekommen,\num mal nach mir zu schauen?",
      "EUen": "Hey...did you come over to check\nin on me?",
      "EUes": "Huy... snif... ¿Has venido hasta\naquí solo para ver cómo estaba?",
      "EUfr": "Oh... Snif... Tu t'es déplacé exprès\npour voir comment j'allais ?",
      "EUit": "Ehilà... sei venuto a controllare...\na controllare come sto?",
      "EUnl": "Hé... hatsjoe... Kom je langs om te\nkijken hoe het met me gaat?",
      "EUru": "Пдивет... шмыг...\nТы пдишел меня пдоведать?",
      "JPja": "えっ・・・\nもしかして　ボクのために\nおみまいに　来てくれたのぉ？　",
      "KRko": "앗...\n혹시 날 위해 시간 내서\n병문안 와준 거야아～? ?",
      "TWzh": "咦……\n你該不會是為了我來探病的吧～？。",
      "USen": "Hey...did you come over to check\nin on me?",
      "USes": "Uy... ¡achú! ¿Vinidte hadta\naquí dolo pada ved cómo edtaba?",
      "USfr": "Oh... Snif... Tu t'es déplacé exprès\npour voir comment j'allais?"
    }
  },
  {
    "label": "001_a",
    "attribute": "0x0000000000000000",
    "locale": {
      "CNzh": "给你药！\n我帮你把药带来了！\n把药吃了吧！",
      "EUde": "Hier, nimm!\nIch habe Medizin!\nNimm die Medizin hier!",
      "EUen": "Here, take this!\nI brought medicine!\nTake this medicine!",
      "EUes": "Toma esto\nTe he traído medicina\nEsto es medicina",
      "EUfr": "Tiens, prends ça !\nJ'ai un remède.\nPrends ce remède !",
      "EUit": "Ecco, prendi questa!\nPrendi una medicina!\nHo qui una medicina.",
      "EUnl": "Wat dacht je hiervan?\nIk heb een medicijn!\nNeem dit medicijn!",
      "EUru": "Вот держи!\nДержи лекарство!\nПрими лекарство!",
      "JPja": "これ、おくすり！\nおくすり、持って来たよ！\nおくすり、どうぞ！",
      "KRko": "자, 이거 약이야!\n약 줄게!\n이 약 먹어!",
      "TWzh": "這是藥！\n藥給你！\n吃藥吧！",
      "USen": "Here, take this!\nI brought medicine!\nTake this medicine!",
      "USes": "Toma esto\nTe traje medicamento\nEsto es medicamento",
      "USfr": "Tiens, prends ça!\nJ'ai un remède.\nPrends ce remède!"
    }
  },
  {
    "label": "001_b",
    "attribute": "0x0000000000000000",
    "locale": {
      "CNzh": "保重……\n祝你早日康复\n别勉强自己",
      "EUde": "Gute Besserung!\nWerd schnell gesund!\nRuh dich lieber aus...",
      "EUen": "Take care...\nGet better soon.\nDon't push yourself.",
      "EUes": "Cuídate\nQue te mejores\nDescansa",
      "EUfr": "Prends soin de toi...\nSoigne-toi bien.\nRepose-toi bien.",
      "EUit": "Su, forza e coraggio!\nRimettiti presto!\nCerca di riposarti.",
      "EUnl": "Beterschap...\nWord maar snel beter!\nDoe het rustig aan, oké?",
      "EUru": "Поправляйся...\nБереги себя.\nВыздоравливай.",
      "JPja": "お大事に・・・\n早く元気になってね\nムリしないでね",
      "KRko": "몸조리 잘해…\n얼른 나으렴!\n무리하지 말고 푹 쉬어",
      "TWzh": "你要保重……\n要快點好起來喔\n不要勉強自己喔",
      "USen": "Take care...\nGet better soon.\nDon't push yourself.",
      "USes": "Cuídate\nQue te mejores\nDescansa",
      "USfr": "Prends soin de toi...\nSoigne-toi bien.\nRepose-toi bien."
    }
  },
  {
    "label": "002",
    "attribute": "0x0000020000000000",
    "locale": {
      "CNzh": "啊～～\n难道……\n你是来探望我的～？。",
      "EUde": "Oh! Hey, (Spitzname).\nKommst du mich besuchen? Ah...\nIst nett, dass du nach mir schaust.",
      "EUen": "Did you come to visit? Aww...\nThanks, (nickname).\nI appreciate it.",
      "EUes": "Huy, (nickname)...\n¿Has venido para ver cómo\nme encontraba?",
      "EUfr": "Ah, (surnom). Tu es venu me rendre visite ? Merci... Snif... C'est gentil.",
      "EUit": "Oh, ehi, (nickname). Sei venuto a vedere... come sto? Gentile da parte tua passare a trovarmi...",
      "EUnl": "O, hé, (nickname). Kom je me opzoeken? Ah... dat is aardig van je... Dank je wel!",
      "EUru": "А, это ты, (nickname).\nПришел меня навестить?\nОх... шмыг... спасибо.",
      "JPja": "あ、\nひょっとして・・・\nおみまいに　来てくれたのぉ？　",
      "KRko": "앗, 아!\n혹시... 병문안 와준 거야아? ?",
      "TWzh": "啊，。\n該不會是……\n來探病的吧？。",
      "USen": "Did you come to visit? Aww...\nThanks, (nickname).\nI appreciate it.",
      "USes": "Uy, (nickname)...\n¿Vinidste a ved cómo edstoy?",
      "USfr": "Ah, (surnom). Tu es venu me rendre visite? Merci... Snif... C'est gentil."
    }
  },
  {
    "label": "002_a",
    "attribute": "0x0000000000000000",
    "locale": {
      "CNzh": "给你药！\n我帮你把药带来了！\n把药吃了吧！",
      "EUde": "Hier, nimm!\nIch habe Medizin!\nNimm die Medizin hier!",
      "EUen": "Here, take this!\nI brought medicine!\nTake this medicine!",
      "EUes": "Toma esto\nTe he traído medicina\nEsto es medicina",
      "EUfr": "Tiens, prends ça !\nJ'ai un remède.\nPrends ce remède !",
      "EUit": "Ecco, prendi questa!\nPrendi una medicina!\nHo qui una medicina.",
      "EUnl": "Hiervan word je beter!\nKijk, een medicijn!\nNeem dit medicijn!",
      "EUru": "Вот держи!\nДержи лекарство!\nПрими лекарство!",
      "JPja": "これ、おくすり！\nおくすり、持って来たよ！\nおくすり、どうぞ！",
      "KRko": "여기, 약 가져왔어!\n이 약 받아!\n약 먹어야지!",
      "TWzh": "這是藥！\n藥給你！\n吃藥吧！",
      "USen": "Here, take this!\nI brought medicine!\nTake this medicine!",
      "USes": "Toma esto\nTe traje medicamento\nEsto es medicamento",
      "USfr": "Tiens, prends ça!\nJ'ai un remède.\nPrends ce remède!"
    }
  },
  {
    "label": "002_b",
    "attribute": "0x0000000000000000",
    "locale": {
      "CNzh": "保重……\n祝你早日康复\n别勉强自己",
      "EUde": "Gute Besserung!\nWerd schnell gesund!\nRuh dich lieber aus...",
      "EUen": "Take care...\nGet better soon.\nDon't push yourself.",
      "EUes": "Cuídate\nQue te mejores\nDescansa",
      "EUfr": "Tu devrais te reposer.\nSoigne-toi bien.\nN'en fais pas trop.",
      "EUit": "Su, forza e coraggio!\nRimettiti presto!\nCerca di riposarti.",
      "EUnl": "Sterkte ermee...\nKnap maar snel op.\nSpan je niet te veel in.",
      "EUru": "Поправляйся...\nБереги себя.\nВыздоравливай.",
      "JPja": "お大事に・・・\n早く元気になってね\nムリしないでね",
      "KRko": "건강 잘 챙겨…\n얼른 나아!\n걱정 말고 푹 쉬어",
      "TWzh": "你要保重……\n要快點好起來喔\n不要勉強自己喔",
      "USen": "Take care...\nGet better soon.\nDon't push yourself.",
      "USes": "Cuídate\nQue te mejores\nDescansa",
      "USfr": "Tu devrais te reposer.\nSoigne-toi bien.\nN'en fais pas trop."
    }
  },
  {
    "label": "003",
    "attribute": "0x0000020000000000",
    "locale": {
      "CNzh": "～？！\n难道～你是因为担心我，\n所以特意过来看看的吗～？。",
      "EUde": "(Spitzname)?!\nHast du dir Sorgen gemacht und\nwolltest mal nach mir sehen?",
      "EUen": "?! Did you get\nworried and...come to\ncheck if I was OK?",
      "EUes": "¡¿(nickname)?!\n¿Te has preocupado por mí\ny has venido a ver cómo estaba?",
      "EUfr": "(surnom) ?! Est-ce que tu es venu parce que tu te faisais du souci pour moi ?",
      "EUit": "Ehilà, (nickname)!\nCome sei mitico, ti sei preoccupato\ne sei venuto a vedere come sto.",
      "EUnl": "(nickname)?! Kom je langs omdat je... hatsjie... je zorgen om me maakt?",
      "EUru": "?! Ты обо\nмне беспокоишься и пришел...\nшмыг... меня проведать?",
      "JPja": "？！\nもしかして、ボクのこと　しんぱいして\n見にきてくれたのぉ？　",
      "KRko": "아?!\n혹시 내가 걱정돼서\n보러 와준 거야아? ?",
      "TWzh": "！？\n你該不會是擔心我，\n所以來看我吧？。",
      "USen": "?! Did you get\nworried and...come to\ncheck if I was OK?",
      "USes": "¡¿(nickname)?!\n¿Te pdeocupadte pod mí\ny vinidte a ved cómo edtaba?",
      "USfr": "(surnom)?! Est-ce que tu es venu parce que tu te faisais du souci pour moi?"
    }
  },
  {
    "label": "003_a",
    "attribute": "0x0000000000000000",
    "locale": {
      "CNzh": "给你药！\n我帮你把药带来了！\n把药吃了吧！",
      "EUde": "Hier, nimm!\nIch habe Medizin!\nNimm die Medizin hier!",
      "EUen": "Here, take this!\nI brought medicine!\nTake this medicine!",
      "EUes": "Toma esto\nTe he traído medicina\nEsto es medicina",
      "EUfr": "Tiens, un remède !\nVoilà un remède !\nPrends ce remède !",
      "EUit": "Ecco, prendi questa!\nPrendi una medicina!\nHo qui una medicina.",
      "EUnl": "Dit zal je helpen!\nEen medicijn nodig?\nIk heb iets wat helpt!",
      "EUru": "Вот держи!\nДержи лекарство!\nПрими лекарство!",
      "JPja": "これ、おくすり！\nおくすり、持って来たよ！\nおくすり、どうぞ！",
      "KRko": "자, 이거 약이야!\n약 주려고 왔어!\n약 먹고 나아야지!",
      "TWzh": "這是藥！\n藥給你！\n吃藥吧！",
      "USen": "Here, take this!\nI brought medicine!\nTake this medicine!",
      "USes": "Toma esto\nTe traje medicamento\nEsto es medicamento",
      "USfr": "Tiens, un remède!\nVoilà un remède!\nPrends ce remède!"
    }
  },
  {
    "label": "003_b",
    "attribute": "0x0000000000000000",
    "locale": {
      "CNzh": "保重……\n祝你早日康复\n别勉强自己",
      "EUde": "Gute Besserung!\nWerd schnell gesund!\nRuh dich lieber aus...",
      "EUen": "Take care...\nGet better soon.\nDon't push yourself.",
      "EUes": "Cuídate\nQue te mejores\nDescansa",
      "EUfr": "Soigne-toi bien.\nRepose-toi.\nÇa va passer.",
      "EUit": "Su, forza e coraggio!\nRimettiti presto!\nCerca di riposarti.",
      "EUnl": "Rust maar lekker uit...\nHou je haaks!\nDoe geen gekke dingen.",
      "EUru": "Поправляйся...\nБереги себя.\nВыздоравливай.",
      "JPja": "お大事に・・・\n早く元気になってね\nムリしないでね",
      "KRko": "이젠 아프지 마…\n얼른 기운 되찾아!\n오늘은 푹 쉬어",
      "TWzh": "你要保重……\n要快點好起來喔\n不要勉強自己喔",
      "USen": "Take care...\nGet better soon.\nDon't push yourself.",
      "USes": "Cuídate\nQue te mejores\nDescansa",
      "USfr": "Soigne-toi bien.\nRepose-toi.\nÇa va passer."
    }
  },
  {
    "label": "004",
    "attribute": "0x0000020000000000",
    "locale": {
      "CNzh": "嗯……好奇怪啊～\n总感觉我的身体\n不听使唤呢～。",
      "EUde": "Bäh... Ich weiß nicht, was los ist.\nIch will nach draußen und spielen,\naber mein Körper macht nicht mit...",
      "EUen": "Ugh... I dunno what's going on.\nI wanna go out and play, but my\nbody sure don't...",
      "EUes": "Ay... no sé qué me pasa hoy...\nYo tengo unas ganas locas de salir\na divertirme, pero el cuerpo no me\nresponde...",
      "EUfr": "Ouh... Je sais pas ce qui m'arrive.\nJe voudrais aller jouer, mais mon\ncorps ne m'obéit pas... Snif...",
      "EUit": "Ugh... Caspitina, per quanto voglia\nandare al negozio di fumetti... il mio\ncorpo si rifiuta di accompagnarmi...",
      "EUnl": "Bah... Ik snap niet wat er mis is.\nIk wil graag buitenspelen, maar mijn\nlichaam niet... hatsjoe...",
      "EUru": "Фу... Я не понимаю, что со мной.\nЯ хочу пойти погулять... а мое\nтело... шмыг... не хочет.",
      "JPja": "うぅ・・・　おかしいなぁ\nなんだか　体が　ボクの言うことを\n聞いてくれないんだぁ～、",
      "KRko": "우웅... 이상하다아～\n왠지 몸이 내 말을\n안 듣는 거 같애～ !",
      "TWzh": "嗚嗚……好奇怪喔～\n總覺得身體\n不肯聽我的話～。",
      "USen": "Ugh... I dunno what's going on.\nI wanna go out and play, but my\nbody sure don't...",
      "USes": "Ay... do dhé qué tengo hoy...\nPod mádh que quiedo salid a jugad,\nel cuedpo no me desponde...",
      "USfr": "Ouh... Je sais pas ce qui m'arrive.\nJe voudrais aller jouer, mais mon\ncorps ne m'obéit pas... Snif..."
    }
  },
  {
    "label": "004_a",
    "attribute": "0x0000000000000000",
    "locale": {
      "CNzh": "给你药！\n我帮你把药带来了！\n把药吃了吧！",
      "EUde": "Hier, nimm!\nIch habe Medizin!\nNimm die Medizin hier!",
      "EUen": "Here, take this!\nI brought medicine!\nTake this medicine!",
      "EUes": "Toma esto\nTe he traído medicina\nEsto es medicina",
      "EUfr": "Tiens, avale ça !\nVoilà un remède !\nPrends ce remède !",
      "EUit": "Ecco, prendi questa!\nPrendi una medicina!\nHo qui una medicina.",
      "EUnl": "Helpt dit misschien?\nDit medicijn helpt.\nIk heb een medicijn!",
      "EUru": "Вот держи!\nДержи лекарство!\nПрими лекарство!",
      "JPja": "これ、おくすり！\nおくすり、あげる！\nおくすり飲んで！",
      "KRko": "자, 이거 약이야!\n약 줄게!\n이 약 먹어!",
      "TWzh": "這是藥！\n藥給你！\n吃藥吧！",
      "USen": "Here, take this!\nI brought medicine!\nTake this medicine!",
      "USes": "Toma esto\nTe traje medicamento\nEsto es medicamento",
      "USfr": "Tiens, avale ça!\nVoilà un remède!\nPrends ce remède!"
    }
  },
  {
    "label": "004_b",
    "attribute": "0x0000000000000000",
    "locale": {
      "CNzh": "保重……\n祝你早日康复\n别勉强自己",
      "EUde": "Gute Besserung!\nWerd schnell gesund!\nRuh dich lieber aus...",
      "EUen": "Take care...\nGet better soon.\nDon't push yourself.",
      "EUes": "Cuídate\nQue te mejores\nDescansa",
      "EUfr": "Repose-toi bien...\nSoigne-toi bien.\nReste bien au chaud.",
      "EUit": "Su, forza e coraggio!\nRimettiti presto!\nCerca di riposarti.",
      "EUnl": "Blijf niet te laat op.\nDat wordt uitzieken.\nArme pechvogel.",
      "EUru": "Поправляйся...\nБереги себя.\nВыздоравливай.",
      "JPja": "お大事に・・・\n早く元気になってね\nムリしないでね",
      "KRko": "건강 조심해…\n아프면 안 돼\n무리하지 말고 푹 쉬어",
      "TWzh": "你要保重……\n要快點好起來喔\n不要勉強自己喔",
      "USen": "Take care...\nGet better soon.\nDon't push yourself.",
      "USes": "Cuídate\nQue te mejores\nDescansa",
      "USfr": "Repose-toi bien...\nSoigne-toi bien.\nReste bien au chaud."
    }
  },
  {
    "label": "005",
    "attribute": "0x0000020000000000",
    "locale": {
      "CNzh": "啊……\n脑袋里一片空白呢……。",
      "EUde": "Der Kopf ist voll Watte, die Beine\naus Gummi... Das kann doch nicht\ngut sein.",
      "EUen": "Bluuuuugh... My brain...feels...all...\num...foggy...",
      "EUes": "Ayayay... Hoy tengo la cabeza como\nsi fuese nata batida...",
      "EUfr": "Ouh là... J'ai la caboche tout en\ncompote... Hmm... Compote...",
      "EUit": "Uuurrrgh... Mi sento il cervello\npiù appannato di uno specchio\nappannato, ...",
      "EUnl": "Bah... Mijn... brein... lijkt wel vol te\nzitten met erwtensoep...",
      "EUru": "Фу... У меня в голове... шмыг...\nтуман и сырость...",
      "JPja": "あぁ～・・・\n頭が　ぼ～～っとするよぉ・・・、",
      "KRko": "아아～...\n왠지 머리가 띵～～하다아... ...",
      "TWzh": "啊啊……\n頭好～～暈喔……。",
      "USen": "Bluuuuugh... My brain...feels...all...\num...foggy...",
      "USes": "Auauauauuu... Me duede da\ncabedza... Ya do quiedo edstad\nedfedmo...",
      "USfr": "Ouh là... J'ai la caboche tout en\ncompote... Hmm... Compote..."
    }
  },
  {
    "label": "005_a",
    "attribute": "0x0000000000000000",
    "locale": {
      "CNzh": "给你药！\n我帮你把药带来了！\n把药吃了吧！",
      "EUde": "Hier, nimm!\nIch habe Medizin!\nNimm die Medizin hier!",
      "EUen": "Here, take this!\nI brought medicine!\nTake this medicine!",
      "EUes": "Toma esto\nTe he traído medicina\nEsto es medicina",
      "EUfr": "Avale donc ça !\nPrends ce remède !\nVoilà un remède !",
      "EUit": "Ecco, prendi questa!\nPrendi una medicina!\nHo qui una medicina.",
      "EUnl": "Probeer dit medicijn!\nIk heb een medicijn.\nHiervan knap je op.",
      "EUru": "Вот держи!\nДержи лекарство!\nПрими лекарство!",
      "JPja": "これ、おくすり！\nおくすり、あげる！\nおくすり飲んで！",
      "KRko": "여기, 약 가져왔어!\n이 약 받아!\n약 먹어야지!",
      "TWzh": "這是藥！\n藥給你！\n吃藥吧！",
      "USen": "Here, take this!\nI brought medicine!\nTake this medicine!",
      "USes": "Toma esto\nTe traje medicamento\nEsto es medicamento",
      "USfr": "Avale donc ça!\nPrends ce remède!\nVoilà un remède!"
    }
  },
  {
    "label": "005_b",
    "attribute": "0x0000000000000000",
    "locale": {
      "CNzh": "保重……\n祝你早日康复\n别勉强自己",
      "EUde": "Gute Besserung!\nWerd schnell gesund!\nRuh dich lieber aus...",
      "EUen": "Take care...\nGet better soon.\nDon't push yourself.",
      "EUes": "Cuídate\nQue te mejores\nDescansa",
      "EUfr": "Prends soin de toi...\nTu devrais te reposer.\nSoigne-toi bien.",
      "EUit": "Su, forza e coraggio!\nRimettiti presto!\nCerca di riposarti.",
      "EUnl": "Blijf genoeg drinken.\nArme zielenpoot.\nMaak jezelf niet moe.",
      "EUru": "Поправляйся...\nБереги себя.\nВыздоравливай.",
      "JPja": "お大事に・・・\n早く元気になってね\nムリしないでね",
      "KRko": "몸조리 잘해…\n얼른 나아!\n오늘은 푹 쉬어",
      "TWzh": "你要保重……\n要快點好起來喔\n不要勉強自己喔",
      "USen": "Take care...\nGet better soon.\nDon't push yourself.",
      "USes": "Cuídate\nQue te mejores\nDescansa",
      "USfr": "Prends soin de toi...\nTu devrais te reposer.\nSoigne-toi bien."
    }
  },
  {
    "label": "006",
    "attribute": "0x0000020000000000",
    "locale": {
      "CNzh": "脑袋晕晕的，脚下飘飘的……\n好像还有点冷……。",
      "EUde": "Ich fühle mich einfach nicht so,\nwie sich  fühlen\nsollte...",
      "EUen": "My brain's foggy...legs are wibbly...\nhead's all clogged up...I'm like the\nliving definition of \"total blob.\"",
      "EUes": "Con este dolor de cabeza que tengo\ny la flojera de piernas que llevo,\n¡soy un desastre de !",
      "EUfr": "J'ai la tête dans le brouillard et les\njambes en coton. J'ai l'impression\nd'être  en peluche.",
      "EUit": "La testa mi gira, il pancino mi duole\ne le zampe mi tremano senza sosta...\nMi sento uno straccio!",
      "EUnl": "Mijn hoofd voelt wazig, mijn benen\nzijn wiebelig... Ik voel me net een\nvormige drilpudding...",
      "EUru": "В голове туман, в ногах\nкисель... Я чувствую себя\nкак бедняга-...",
      "JPja": "頭は　クラクラ、足は　フラフラ・・・\nそれに　なんだか\nさむいような・・・、",
      "KRko": "머리는 어질어질... 다리는 휘청휘청...\n왠지 으슬으슬하기도 하구우... ...",
      "TWzh": "頭暈暈的、腳軟趴趴的……\n而且還覺得有點冷……。",
      "USen": "My brain's foggy...legs are wibbly...\nhead's all clogged up...I'm like the\nliving definition of \"total blob.\"",
      "USes": "Me dhiedto como ud flad cod\npatadh... ¡Ay, pobe de mí!",
      "USfr": "J'ai la tête dans le brouillard et les\njambes en coton. J'ai l'impression\nd'être  en peluche."
    }
  },
  {
    "label": "006_a",
    "attribute": "0x0000000000000000",
    "locale": {
      "CNzh": "给你药！\n我帮你把药带来了！\n把药吃了吧！",
      "EUde": "Hier, nimm!\nIch habe Medizin!\nNimm die Medizin hier!",
      "EUen": "Here, take this!\nI brought medicine!\nTake this medicine!",
      "EUes": "Toma esto\nTe he traído medicina\nEsto es medicina",
      "EUfr": "Prends donc ça !\nVoilà un remède !\nPrends ce remède !",
      "EUit": "Ecco, prendi questa!\nPrendi una medicina!\nHo qui una medicina.",
      "EUnl": "Hier, voor jou!\nIk heb een medicijn mee!\nWil je dit medicijn?",
      "EUru": "Вот держи!\nДержи лекарство!\nПрими лекарство!",
      "JPja": "これ、おくすり！\nおくすり、あげる！\nおくすり飲んで！",
      "KRko": "자, 이거 약이야!\n약 주려고 왔어!\n약 먹고 나아야지!",
      "TWzh": "這是藥！\n藥給你！\n吃藥吧！",
      "USen": "Here, take this!\nI brought medicine!\nTake this medicine!",
      "USes": "Toma esto\nTe traje medicamento\nEsto es medicamento",
      "USfr": "Prends donc ça!\nVoilà un remède!\nPrends ce remède!"
    }
  },
  {
    "label": "006_b",
    "attribute": "0x0000000000000000",
    "locale": {
      "CNzh": "保重……\n祝你早日康复\n别勉强自己",
      "EUde": "Gute Besserung!\nWerd schnell gesund!\nRuh dich lieber aus...",
      "EUen": "Take care...\nGet better soon.\nDon't push yourself.",
      "EUes": "Cuídate\nQue te mejores\nDescansa",
      "EUfr": "Soigne-toi bien...\nRepose-toi bien.\nN'en fais pas trop.",
      "EUit": "Su, forza e coraggio!\nRimettiti presto!\nCerca di riposarti.",
      "EUnl": "Word maar gauw beter.\nDenk positief!\nWat naar voor je.",
      "EUru": "Поправляйся...\nБереги себя.\nВыздоравливай.",
      "JPja": "お大事に・・・\n早く元気になってね\nムリしないでね",
      "KRko": "이젠 아프지 마…\n얼른 기운 되찾아!\n무리하지 말고 푹 쉬어",
      "TWzh": "你要保重……\n要快點好起來喔\n不要勉強自己喔",
      "USen": "Take care...\nGet better soon.\nDon't push yourself.",
      "USes": "Cuídate\nQue te mejores\nDescansa",
      "USfr": "Soigne-toi bien...\nRepose-toi bien.\nN'en fais pas trop."
    }
  },
  {
    "label": "007",
    "attribute": "0x0000000000000000",
    "locale": {
      "CNzh": "难道……\n，\n你是来探病的吗～？\n谢谢你～\n不好意思，让你担心了……。",
      "EUde": "Hey... (Spitzname)...\nBist du hier, um nach mir zu sehen?\nDas ist wirklich nett. Du darfst dir\naber keine Sorgen machen, ich bin\nnämlich nur erkältet!",
      "EUen": "Hey... Are you here to check on\nme, ?\nAww, that's nice. Thanks. No worries,\nthough. I've just got a...cold.",
      "EUes": "(nickname)... ¿has venido a ver cómo estaba?\nQué amable por tu parte...\n¡Achús!\nNo te preocupes, que solo tengo\nun resfriado...",
      "EUfr": "Oh... (surnom), tu es venu voir comment j'allais ? Snif...\nMerci, c'est gentil ! T'inquiète pas\ntrop... snif... c'est juste un rhume...",
      "EUit": "Ehi, sei gentile a venire a visitarmi,\n(nickname)...\nPerò mi spiace che ti sia preoccupato\nper così poco. In fondo è un semplice\nraffreddore, .",
      "EUnl": "Hé... (nickname), ben jij dat? Ben je hier... hatsjoe... om te kijken hoe het met me gaat?\nAh, dat is echt gaaf van je. Maak je\ngeen zorgen. Ik ben alleen...\nhatsjie... maar verkouden.",
      "EUru": "Привет... ,\nТы пришел меня проведать...\nшмыг?\nСпасибо. Не волнуйся, это\nобычный насморк... шмыг...",
      "JPja": "もしかして・・・\n、\nおみまいに　来てくれたのぉ？\nありがとぉ～\nしんぱいかけて　ごめんねぇ・・・、",
      "KRko": "혹시...\n아,\n내 병문안 와준 거야아?\n고마워어～\n걱정 끼쳐서 미안해... ...",
      "TWzh": "該不會……\n，\n你是來探病的嗎？\n謝謝你～\n對不起讓你擔心了……。",
      "USen": "Hey... Are you here to check on\nme, ?\nAww, that's nice. Thanks. No worries,\nthough. I've just got a...cold.",
      "USes": "¿Vinidte a ved cómo edtaba?\nQué buena onda edes... ¡Achúúú!\nNo te pdeocupedh, dolo dengo\nun pequedio desfdiado...",
      "USfr": "Oh... (surnom), tu es venu voir comment j'allais? Snif...\nMerci, c'est gentil! T'inquiète pas\ntrop... snif... c'est juste un rhume..."
    }
  },
  {
    "label": "008",
    "attribute": "0x0000000000000000",
    "locale": {
      "CNzh": "你是来探病的吗……？\n谢谢你特意为了我过来～\n能见到你，\n我觉得自己精神都好些了呢……。",
      "EUde": "Hey, (Spitzname)...\nDanke, dass du vorbeikommst.\nJetzt, wo du hier bist, geht es mir\nschon ein bisschen besser.",
      "EUen": "Hey, (nickname)...\nThanks for coming by.\nI'm feeling a little better now that\nI've seen you...",
      "EUes": "Huy, (nickname)... snif...\n¡Gracias por pasarte!\nAhora que estás aquí, me siento\nmucho mejor...",
      "EUfr": "Oh, (surnom)... Snif...\nMerci d'être venu me rendre visite.\nJe me sens un peu mieux,\nmaintenant que je t'ai vu... Snif...",
      "EUit": "Ciao, (nickname)...\nGrazie di essere passato.\nOra che ti ho visto, però, mi sento\ngià un po' meglio, .",
      "EUnl": "Hé, (nickname)... hatsjie... Bedankt dat je langskomt.\nDoor jouw bezoek voel ik me al\nietsjes beter... hatsjoe...",
      "EUru": "Привет, (nickname)...\nшмыг... Спасибо, что заглянул.\nМне уже немного лучше\nот твоего визита... шмыг...",
      "JPja": "ひょっとして、おみまいに　来てくれたの？\nボクのために　わざわざ　ありがとねぇ\nに　会ったら\n少しだけ　元気が出たよぉ・・・、",
      "KRko": "앗～ 병문안 와준 거야아～?\n날 위해서 와주다니 고마워어!\n을 만났더니\n조금 기운이 난다아... ...",
      "TWzh": "你該不會是來探病的吧……？\n謝謝你為了我特地過來～\n見到，\n有讓我稍微恢復了一點精神喔……。",
      "USen": "Hey, (nickname)...\nThanks for coming by.\nI'm feeling a little better now that\nI've seen you...",
      "USes": "Uy, (nickname)... Jachúúú...\n¡Gdaciadh pod venid a vedme!\nAhoda que te veo, me dhiedto\nmucho mejod...",
      "USfr": "Oh, (surnom)... Snif...\nMerci d'être venu me rendre visite.\nJe me sens un peu mieux,\nmaintenant que je t'ai vu... Snif..."
    }
  },
  {
    "label": "009",
    "attribute": "0x0000000000000000",
    "locale": {
      "CNzh": "诶～～？\n难道你是来探病的吗～？\n你是担心我，所以来看看的吧～\n很谢谢你……。",
      "EUde": "(Spitzname)?\nKommst du mich besuchen?\nIch bin gerade ein bisschen krank.\nAber danke, dass du nach mir siehst,\n(Floskel)...",
      "EUen": "(nickname)?\nAre you here for a visit?\nI'm a little sick right now.\nBut thanks for coming over...and\nchecking in on me, (catchphrase)...",
      "EUes": "¿(nickname)? Snif...\nVienes a visitarme y me pillas\nun pelín enfermo.\nPero gracias por venir, snif...\nMe hace sentir un poquito mejor.",
      "EUfr": "(surnom) ? Snif... Tu es venu me rendre visite ? Je suis un peu malade en ce moment...\nMais merci d'être venu prendre des\nnouvelles... Snif... .",
      "EUit": "Caspitina, mi spiace che sia venuto\na trovarmi proprio quando sono così\nmalato, (nickname)...\nMa grazie per averlo fatto! L'amicizia\nè una signora medicina.",
      "EUnl": "O, (nickname)? Hatsjoe... kom je me opzoeken? Ik ben een beetje ziek.\nDank je wel dat je langskomt...\nhatsjie... om te kijken hoe het met\nme gaat. ... hatsjoe...",
      "EUru": "?\nШмыг... ты в гости пришел?\nА я немного приболел.\nНо спасибо, что заглянул...\nшмыг... меня проведать.\n... шмыг...",
      "JPja": "えぇ～、？\nもしかして　おみまいに　来てくれたのぉ？\nボクのこと　しんぱいして\n来てくれるなんて　ありがと～、",
      "KRko": "어어～? 아～?\n혹시 병문안 와준 거야아?\n내가 걱정돼서 보러 와주다니\n정말 고마워어... ...",
      "TWzh": "咦咦～～？\n你該不會是來探病的吧～？\n沒想到你會因為擔心\n而特地過來看我，真是謝謝你……。",
      "USen": "(nickname)?\nAre you here for a visit?\nI'm a little sick right now.\nBut thanks for coming over...and\nchecking in on me, (catchphrase)...",
      "USes": "¿(nickname)? ¡Jachúúú!\nVienedh a visitadme y edstoy ud poco edfedmito...\nGdaciadh pod venid...\nYa me dhiento ud poquito mejod.",
      "USfr": "(surnom)? Snif... Tu es venu me rendre visite? Je suis un peu malade en ce moment...\nMais merci d'être venu prendre des\nnouvelles... Snif... ."
    }
  },
  {
    "label": "010",
    "attribute": "0x0000000000000000",
    "locale": {
      "CNzh": "呜呜……感觉脑袋有些发热，\n但是身体却冷得发抖呢～\n这种情况还是吃点药比较好吧～",
      "EUde": "Oooh... Ich sollte wohl ganz schnell\neine Medizin nehmen...",
      "EUen": "Blugh... I gotta do something\nto feel better. Maybe I need\nsome medicine...",
      "EUes": "¡Achís! Creo que necesito medicina\nurgentemente...",
      "EUfr": "Eurgh... Il faudrait que je prenne\nun remède...",
      "EUit": "Sniff... Senza fare niente o senza\ningerire qualcosa... una medicina,\nforse... Non mi riprenderò...",
      "EUnl": "Bah... Ik wou dat ik een medicijn\nhad...",
      "EUru": "Фу... как бы мне поправиться?\nМожет, лекарство принять...",
      "JPja": "うぅ・・・　なんだか　頭はあついのに\n体が　ブルブル　ふるえちゃうんだぁ～\nこれは　おくすりをのんだ方が　いいかもねぇ",
      "KRko": "으으... 머리는 뜨거운데\n몸이 부들부들 떨려어～\n약을 먹어야겠어～...",
      "TWzh": "嗚嗚……頭明明熱熱的，\n身體卻抖個不停～\n這樣可能得吃藥比較好～",
      "USen": "Blugh... I gotta do something\nto feel better. Maybe I need\nsome medicine...",
      "USes": "¡Jachú! Cdeo que necedhito\nmedicamedto udgentemente...",
      "USfr": "Eurgh... Il faudrait que je prenne\nun remède..."
    }
  },
  {
    "label": "011",
    "attribute": "0x0000000000000000",
    "locale": {
      "CNzh": "啊～肚子好疼啊～\n是不是吃得太多了……\n不过，我觉得吃了药应该就会好了～",
      "EUde": "Medizin... Ich brauche Medizin...\nSo ein Ärger...",
      "EUen": "I need medicine... This cold...\nIt's just...it's...man. Ya know?",
      "EUes": "Medicina... Necesito medicina...",
      "EUfr": "Un remède... Snif... Il me faut...\nsnif... un remède...",
      "EUit": "Medicina... Dove sei, caspitina?\nNon mi sei viciiinaaa... sniff...\nCaspitina!",
      "EUnl": "Medicijn nodig... bah... Een medicijn\nom weer beter te worden. Bleh... Dit\nis echt vervelend... Hatsjie...",
      "EUru": "Лекарство бы... шмыг...\nБолеть... шмыг... плохо...",
      "JPja": "う～ん、おなかが　イタイよぉ～\nちょっと　食べすぎちゃったかなぁ・・・\nおくすりをのんだら　なおると思うんだけどぉ",
      "KRko": "으음～ 배가 아파아～\n밥을 너무 많이 먹었나...\n약을 먹으면 나을 텐데에...",
      "TWzh": "嗚～肚子好痛喔～\n我是不是吃得有點多了呢……\n但我想吃個藥應該就會好喔～",
      "USen": "I need medicine... This cold...\nIt's just...it's...man. Ya know?",
      "USes": "Medicamedto... Decedsito\nmedicamedto...",
      "USfr": "Un remède... Snif... Il me faut...\nsnif... un remède..."
    }
  },
  {
    "label": "012",
    "attribute": "0x0000000000000000",
    "locale": {
      "CNzh": "我觉得有点\n头晕目眩的～\n要是有药就好了……",
      "EUde": "Wo hab ich denn nur die Medizin\nhingetan?",
      "EUen": "Where'd I leave those tissues?\nI got a lotta nose stuff that needs\nto be in those tissues.",
      "EUes": "No sé dónde he puesto la medicina\nque tenía...",
      "EUfr": "Où est-ce que j'ai mis... snif... mes\nmouchoirs... snif... et mon remède ?",
      "EUit": "Caspitina, eppure avevo quella\nspecie di medicina per raffreddori...\nl'ho scambiata per qualche fumetto?",
      "EUnl": "Waar heb ik mijn zakdoekjes\ngelaten? Ik snotter er maar op los...",
      "EUru": "Куда я дел... шмыг... носовой\nплаток? Мне бы высморкаться.",
      "JPja": "なんだか　頭が　クラクラして、\n目が　回っちゃうんだぁ～\nおくすりでも　あれば　いいんだけど・・・",
      "KRko": "머리가 어지러워서\n눈앞이 빙글빙글 돌아～\n약이라도 있으면 좋을 텐데에...",
      "TWzh": "我現在總覺得腦袋有點昏昏的，\n天旋地轉啊～\n如果有藥就好了……",
      "USen": "Where'd I leave those tissues?\nI got a lotta nose stuff that needs\nto be in those tissues.",
      "USes": "Do sé dóde dejé ed medicamedto\nque tedía...",
      "USfr": "Où est-ce que j'ai mis... snif... mes\nmouchoirs... snif... et mon remède?"
    }
  },
  {
    "label": "013",
    "attribute": "0x0000000000000000",
    "locale": {
      "CNzh": "嗯……谢谢你～\n我今天会早点睡的～。",
      "EUde": "Oh... Danke. Da gehe ich heute wohl\nlieber ganz früh ins Bett.",
      "EUen": "Ugh... Thanks. I'm gonna hit\nthe hay early tonigh...ahh...ahhhh...AH-CHOOO!",
      "EUes": "Ay... Muchas gracias. \nNo te preocupes... que dentro\nde poco... estaré... ¡Achíiis!",
      "EUfr": "Eurgh... Merci. Je vais me coucher\ntôt, ce soir... Aaaa... tchoum !",
      "EUit": "Ugh... Grazie, amico mio. Credo che\nstanotte mi butterò sul letto ancora\nprima del solit... eh... eeeh... ccììì!!!",
      "EUnl": "Eh... Bedankt voor je aandacht. Ik zal\nop tijd naar bed g... gha... ha... ha...\nhaaatjoe!",
      "EUru": "Ох... Спасибо. Завалюсь сегодня\nпораньше... спать... Апчхи!!!",
      "JPja": "うぅ・・・　ありがとねぇ\n今日は　早く　ねることにするよぉ、",
      "KRko": "우웅... 고마워어～\n오늘은 일찍 자야겠다아～ ...",
      "TWzh": "嗚嗚……謝謝你喔～\n我今天會早點睡的～。",
      "USen": "Ugh... Thanks. I'm gonna hit\nthe hay early tonigh...ahh...ahhhh...AH-CHOOO!",
      "USes": "Ay... Muchadh gdaciadh. \nNo te pdeocupes... pdonto\nedtadé... edtadé... ¡Achúúú!",
      "USfr": "Eurgh... Merci. Je vais me coucher\ntôt, ce soir... Aaaa... tchoum!"
    }
  },
  {
    "label": "014",
    "attribute": "0x0000000000000000",
    "locale": {
      "CNzh": "嗯……谢谢你～\n我今天会好好休息的～。",
      "EUde": "Danke. Ich bleibe heute wohl lieber\ndaheim.",
      "EUen": "Ugh... Thanks. I'm gonna...stay\nhome today.",
      "EUes": "Huy... gracias. Me parece que\nme voy a quedar en casita...",
      "EUfr": "Beurgh... Merci. Je vais rester chez\nmoi... snif... bien au chaud.",
      "EUit": "Ugh... Grazie mille. Sì, oggi non\nuscirò proprio di casa, .",
      "EUnl": "Meh... Bedankt. Ik blijf... maar...\nthuis vandaag.",
      "EUru": "Ох... спасибо. Сегодня... шмыг...\nя дома побуду.",
      "JPja": "うぅ・・・　ありがとねぇ\n今日は　おとなしくしておくよぉ～、",
      "KRko": "히잉... 고마워어!\n오늘은 집에서 쉴게에～ ...",
      "TWzh": "嗚嗚……謝謝你喔～\n我今天會乖乖養病的～。",
      "USen": "Ugh... Thanks. I'm gonna...stay\nhome today.",
      "USes": "Uy... gdaciadh. Cof...\nMe quedadé guadado ed cadsa\nhadsta decupedadme...",
      "USfr": "Beurgh... Merci. Je vais rester chez\nmoi... snif... bien au chaud."
    }
  },
  {
    "label": "015",
    "attribute": "0x0000000000000000",
    "locale": {
      "CNzh": "嗯……\n不好意思，让你担心了呢～\n谢谢你能过来～。",
      "EUde": "Vielen Dank. Ich ruhe mich jetzt\ngleich ein bisschen aus. Bis dann,\n(Floskel)...",
      "EUen": "Ugh... Thanks. I'm...gonna get some\nrest. See ya, (catchphrase)...",
      "EUes": "Buf... gracias...\nSí, será cuestión de descansar\ntodo lo que pueda... Snif...",
      "EUfr": "Beuh... Merci. Je vais... snif... me\nreposer. À plus, ...",
      "EUit": "Ugh... Grazie davvero. Per oggi non\nmi resta che stare sotto le coperte\na recuperare i fumetti in sospeso...",
      "EUnl": "Oef... Dank je wel. Ik... moet... weer\nwat gaan rusten, ...",
      "EUru": "Ох... Спасибо, дружище.\nМне... шмыг... нужен покой.\nУвидимся, ... шмыг.",
      "JPja": "うぅ・・・\nしんぱいかけて　ごめんねぇ\n来てくれて　ありがとぉ～、",
      "KRko": "히잉...\n걱정 끼쳐서 미안해!\n찾아와줘서 고마워어～ ...",
      "TWzh": "嗚嗚……\n對不起讓你擔心了～\n謝謝你來看我～。",
      "USen": "Ugh... Thanks. I'm...gonna get some\nrest. See ya, (catchphrase)...",
      "USes": "Ay... gdaciadh...\nAhoda sodo tengo que descansad\ntodo do que pueda... Cof...",
      "USfr": "Beuh... Merci. Je vais... snif... me\nreposer. À plus, ..."
    }
  },
  {
    "label": "100",
    "attribute": "0x0000000000000000",
    "locale": {
      "CNzh": "诶、是药啊……\n虽然我不喜欢苦的，\n但是我会努力吃下去的～。",
      "EUde": "Medizin? Für mich? Wie schlimm\nschmeckt die denn? Ist aber auch\negal, sie kommt ja von dir!",
      "EUen": "Medicine? For me? Does it taste\nbad? Nah... You brought it for me,\nand you'd only bring me good stuff.",
      "EUes": "¿Medicina? ¿Para mí? ¿Y sabe raro?\nBueno, no importa; ¡te agradezco\nun montón el gesto!",
      "EUfr": "Un remède ? Pour moi ? Est-ce qu'il\na mauvais goût ? Peu importe, c'est\ntoi qui me l'as apporté...",
      "EUit": "Una medicina? Per me? E se avesse\nun saporaccio? Beh, non importa, ti\nsei dato tanta pena per portarmela...",
      "EUnl": "Een medicijn? Voor mij? Is het vies?\nNou ja, het komt van jou dus het zal\nniet al te erg zijn...",
      "EUru": "Лекарство? Для меня?\nОно невкусное? Неважно,\nведь оно от тебя...",
      "JPja": "え、おくすりかぁ・・・\nニガかったら　イヤだけど\nボク　がんばるよぉ～、",
      "KRko": "어? 약이야아～?\n쓴 건 싫어하지만\n참고 먹을게에～ !",
      "TWzh": "咦，藥嗎……\n雖然不喜歡吃苦苦的藥，\n但我會努力的～。",
      "USen": "Medicine? For me? Does it taste\nbad? Nah... You brought it for me,\nand you'd only bring me good stuff.",
      "USes": "¿Medicamedto? ¿Pada mí? ¿Y sabe\nhoddible? Bueno, no impodta;\n¡me lo tomadé podque tú lo tdajidte!",
      "USfr": "Un remède? Pour moi? Est-ce qu'il\na mauvais goût? Peu importe, c'est\ntoi qui me l'as apporté..."
    }
  },
  {
    "label": "101",
    "attribute": "0x0000000000000000",
    "locale": {
      "CNzh": "……药～？\n难道你是特意为了我\n带来的吗～？。",
      "EUde": "Medizin? Hast du die für mich\nbesorgt?",
      "EUen": "Medicine? Oh man...did you bring\nthat for me? Thank you!",
      "EUes": "¿Medicina?\n¿En serio la has traído para mí?",
      "EUfr": "... Un remède ? Tu l'as apporté\nexprès pour moi ?",
      "EUit": "Una medicina! Tutta per me?\nHo le traveggole? Me la pappo\nsubito, sarà meglio...",
      "EUnl": "Eh... Een medicijn? Had je dat\nspeciaal voor mij bij je?",
      "EUru": "Лекарство? Ты его специально для\nменя принес?",
      "JPja": "・・・おくすり？\nもしかして　ボクのために\nもってきてくれたのぉ？　",
      "KRko": "...약?\n혹시 날 위해서어\n갖고 온 거야아? ?",
      "TWzh": "……藥？\n你該不會是為了我\n特地拿來的吧？。",
      "USen": "Medicine? Oh man...did you bring\nthat for me? Thank you!",
      "USes": "¿Medicamedto?\n¿Lo tdajidste pada mí?",
      "USfr": "... Un remède? Tu l'as apporté\nexprès pour moi?"
    }
  },
  {
    "label": "102",
    "attribute": "0x0000000000000000",
    "locale": {
      "CNzh": "诶？药～？！\n既然是你拿来的，\n那我会努力吃下去的。。",
      "EUde": "Medizin?! Aber die schmeckt eklig!\nWenn du dir aber schon die Mühe\nmachst... Dann nehme ich sie tapfer!",
      "EUen": "Medicine?! Did you bring that for\nme? Thank you!",
      "EUes": "¡¿Medicina?! Ay, con lo malas\nque saben...\nPero, para que veas que te agradezco\nun porrón el favor, ¡pensaré que es\nuna chuche y me la tomaré!",
      "EUfr": "Un remède ?! Mais c'est pas bon,\nles remèdes !\nEnfin, puisque c'est toi qui me l'as\napporté, je vais être courageux et\nl'avaler d'un coup !",
      "EUit": "Spero che la medicina abbia un\nsapore decente... Ma tu sei stato\ngentile e io sarò coraggioso!",
      "EUnl": "Een medicijn?! Ik ben benieuwd hoe\nhet smaakt! Het smaakt vast... heel\nspeciaal... want het komt van jou!",
      "EUru": "Лекарство?! Для меня? Спасибо\nтебе!",
      "JPja": "えっ、おくすり～？！\nキミが　もってきてくれたのなら\nボク　がんばって　のむよぉ、",
      "KRko": "앗, 약이라구우～?!\n너가 갖다준 거니까아\n쓰더라도 꾹 참고 먹을게에! !",
      "TWzh": "咦？藥～！？\n如果這是你拿來的藥，\n那我會努力吃掉的～。",
      "USen": "Medicine?! Did you bring that for\nme? Thank you!",
      "USes": "¡¿Medicamedto?! ¡Guácada! Sdiiif...\nSiempde saben hodible...\n¡Pensadé que edh un cadamedo\ny me do tomadé solo podque tú lo\ntdajidhte!",
      "USfr": "Un remède?! Mais c'est pas bon,\nles remèdes!\nEnfin, puisque c'est toi qui me l'as\napporté, je vais être courageux et\nl'avaler d'un coup!"
    }
  },
  {
    "label": "103",
    "attribute": "0x0000000000000000",
    "locale": {
      "CNzh": "呕……\n好了～！我努力喝下去了～！\n这下肯定会好了吧～？",
      "EUde": "Igitt... So, ich hab sie genommen.",
      "EUen": "OK, I took it! But I'm not better\nyet? That happens soon, right?",
      "EUes": "Puaj... Hala, ya me la he tomado...\npero aún no me encuentro mejor...\nHabrá que esperar un poco, ¿eh?",
      "EUfr": "Beurk... Ayé, je l'ai pris ! Snif... Mais\nje suis pas encore guéri ? C'est pour\nbientôt, hein ?",
      "EUit": "Puaaaah... OK, ce l'ho fatta a finirla...\nma non avverto miglioramenti!\nTroppo presto, ?",
      "EUnl": "Bleh... Oké, ik heb het ingenomen!\nHatsjoe... Waarom is mijn neus nog\nniet beter? Komt dat snel goed?",
      "EUru": "Фу... Видишь, какой я молодец:\nпринял лекарство! Шмыг...\nА когда оно подействует?",
      "JPja": "うぇ・・・\nよぉし、がんばって　のんだから\nこれで　バッチリ　なおるよねぇ～？",
      "KRko": "흐엥...\n좋아! 꾹 참고 먹었으니까아\n이제 말끔히 낫겠지이～?",
      "TWzh": "嗝……\n好～我已經努力把藥吃掉了，\n這樣就會好了吧～？",
      "USen": "OK, I took it! But I'm not better\nyet? That happens soon, right?",
      "USes": "Guácateladh... Logdé tomádmedo...\naunque no dhiento que haga efecto\ntodavía... Tendé que edhpedad...",
      "USfr": "Beurk... Ayé, je l'ai pris! Snif... Mais\nje suis pas encore guéri? C'est pour\nbientôt, hein?"
    }
  },
  {
    "label": "104",
    "attribute": "0x0000000000000000",
    "locale": {
      "CNzh": "嗯～？\n没有想象中那么苦呢～太好了～",
      "EUde": "Nanu? Schmeckt gar nicht mal sooo\nschlecht...",
      "EUen": "Huh... That doesn't taste like snacks,\nbut it doesn't taste bad either!",
      "EUes": "¿Eh? ¡Pues no sabe tan mala!",
      "EUfr": "Tiens ? C'est pas si mauvais que\nje pensais.",
      "EUit": "Un sapore sorprendentemente\ndelizioso! È proprio vero che\nla realtà supera la fantasia...",
      "EUnl": "Huh? Het smaakt helemaal niet gek.",
      "EUru": "Ой. Вовсе не так невкусно,\nкак я думал.",
      "JPja": "んん？\n思ったより　ニガくなくって　よかったぁ～",
      "KRko": "으음?\n생각보다 안 써서 다행이다아～",
      "TWzh": "嗯嗯？\n這個沒有我想像的那麼苦，太好了～",
      "USen": "Huh... That doesn't taste like snacks,\nbut it doesn't taste bad either!",
      "USes": "¡Oh! ¡No estuvo tan asquedodho!",
      "USfr": "Tiens? C'est pas aussi mauvais\nque je pensais."
    }
  },
  {
    "label": "105",
    "attribute": "0x0000000000000000",
    "locale": {
      "CNzh": "嗯～？！\n这个药有一点点甜甜的呢～\n如果都是这种药的话，我完全没问题呢～",
      "EUde": "Hey! Die Medizin ist gar nicht\nso übel, wie ich gedacht habe!\nAber Snacks sind natürlich besser!",
      "EUen": "Hey! This medicine's not so bad!\nSnacks are better, but...this isn't the\ngross mouth party I thought it'd be!",
      "EUes": "¡Anda! ¡Esta medicina no está\nnada mal!\nLas chuches son mejores, pero\nla verdad es que me esperaba\nque supiese bastante peor...",
      "EUfr": "Tiens ?! Ce remède est un peu\nsucré... Je préfère quand même mes\nfriandises, mais c'est pas mal !",
      "EUit": "Ehi! Ma hai detto \"medicina\"\no \"merendina\"? È buonissima,\n!",
      "EUnl": "Hé! Dit medicijn smaakt best oké!\nNiet zo lekker als snoep, maar liever\ndit dan ziek zijn!",
      "EUru": "Слушай! Это лекарство не такое\nуж и противное! Бывают вещи\nвкуснее, но я думал, будет хуже!",
      "JPja": "ん？！\nこのおくすり、ちょっぴり　あまいやぁ～\nボク、これなら　へっちゃらだよ～",
      "KRko": "음?!\n이 약 말야아, 쪼금 달콤한 거 같애～\n나 이건 잘 먹을 수 있겠다아～",
      "TWzh": "嗯！？\n這個藥有點甜耶～\n這樣我就能吃下去了～",
      "USen": "Hey! This medicine's not so bad!\nSnacks are better, but...this isn't the\ngross mouth party I thought it'd be!",
      "USes": "¡Oh! ¡Edte medicamedto no edh\ntan asquedoso!\nNo se compada cod ud cadamedo, obviamedte...",
      "USfr": "Tiens?! Ce remède est un peu\nsucré... Je préfère quand même mes\nbonbons, mais c'est pas mal!"
    }
  },
  {
    "label": "106",
    "attribute": "0x0000000000000000",
    "locale": {
      "CNzh": "咦～？你没有吗～？。",
      "EUde": "Du hast keine?",
      "EUen": "You...don't have any?",
      "EUes": "¿No tienes?... Snif...",
      "EUfr": "Tu... snif... Tu en as pas ?",
      "EUit": "Ah, allora non ne hai proprio?\nNon fa niente, dai...",
      "EUnl": "Heb je... hatsjoe... geen medicijn?",
      "EUru": "У тебя... шмыг... нет, что ли?",
      "JPja": "あれぇ？　もってなかったのぉ？　",
      "KRko": "어～? 안 갖고 있는 거야아? ?",
      "TWzh": "咦？你沒帶嗎？。",
      "USen": "You...don't have any?",
      "USes": "¿No tienedh?... ¡Achúúú!",
      "USfr": "Tu... snif... Tu en as pas?"
    }
  },
  {
    "label": "107",
    "attribute": "0x0000000000000000",
    "locale": {
      "CNzh": "这样啊～\n原来是你\n搞错了啊～。",
      "EUde": "Ist schon okay. Jeder macht mal\nFehler, (Spitzname)!",
      "EUen": "No worries. Everyone makes\nmistakes, (nickname).",
      "EUes": "Huy... Bueno, no te preocupes,\nque equivocarse es animal, (nickname).",
      "EUfr": "C'est pas grave. Ça arrive à\ntout le monde de se tromper,\n(surnom).",
      "EUit": "Oh, non ti preoccupare. Capita\ndi sbagliarsi, (nickname).",
      "EUnl": "Geeft niks. Iedereen maakt weleens\nfouten, (nickname)!",
      "EUru": "Нестрашно. Со всеми бывает,\n!",
      "JPja": "そっかぁ～\nの\nかんちがい　だったんだねぇ、",
      "KRko": "히잉～\n이\n착각했구나아～? ?",
      "TWzh": "這樣啊～\n是記錯了吧～。",
      "USen": "No worries. Everyone makes\nmistakes, (nickname).",
      "USes": "Uy... Bueno, no te pdeocupedh,\nsnifff...",
      "USfr": "C'est pas grave. Ça arrive à\ntout le monde de se tromper,\n(surnom)."
    }
  },
  {
    "label": "108",
    "attribute": "0x0000000000000000",
    "locale": {
      "CNzh": "诶～你没有啊～？\n那就算了吧～。",
      "EUde": "Schade, du hast also keine?\nHm... Dann versuch ich's wohl mal\nmit Bettruhe...",
      "EUen": "Aw...you don't have any? Ugh...\nI guess I'll just try to sleep it off...",
      "EUes": "Ay, ¿no tienes?\nVaya... Entonces descansaré\nhasta que se me pase.",
      "EUfr": "Oh, tu n'en as pas ? Eurgh... snif...\nTant pis, je vais attendre que ça\npasse, ...",
      "EUit": "Ah, allora non ne hai proprio? Non\nfa niente, continuerò a curarmi con\nlunghe dormite e snack caldi...",
      "EUnl": "Ah, heb je niks voor me? Ha...\nhatsjoe... Ik zal wel proberen om veel\nvitamientjes te eten, .",
      "EUru": "Ой, у тебя нет? Ох... шмыг...\nТогда я постараюсь просто\nотлежаться...",
      "JPja": "え～　なかったのぉ？\nそれじゃあ　しかたないねぇ～、",
      "KRko": "어～? 없다구우?\n그럼 할 수 없지이～ !",
      "TWzh": "咦～找不到嗎？\n那也沒辦法啊～。",
      "USen": "Aw...you don't have any? Ugh...\nI guess I'll just try to sleep it off...",
      "USes": "Ay, ¿do tienedh?\nBuedo... Entondhedh descansadé\nhadhta que dhe me quite.",
      "USfr": "Oh, tu n'en as pas? Eurgh... snif...\nTant pis, je vais attendre que ça\npasse, ..."
    }
  },
  {
    "label": "109",
    "attribute": "0x0000000000000000",
    "locale": {
      "CNzh": "诶嘿嘿～\n吃完药以后感觉好些了呢～\n这个药效果真好～\n待会儿再多吃些好吃的，\n一定就能完全康复了～\n这次必须要感谢你呢～\n这个，\n请收下吧～",
      "EUde": "Es geht mir schon ein bisschen\nbesser! Tolle Medizin!\nJetzt noch ein paar Snacks, dann bin\nich wieder ganz gesund!\nIch finde, ich sollte dir zum Dank für\ndeine Hilfe was schenken.\nHier, bitte nimm doch \n!\n(Floskel)!",
      "EUen": "I'm feeling a little better now!\nThat's some good medicine!\nOh man, I bet I'll be all better once\nI eat some snacks!\nI oughta give you something to\nsay thanks for saving me.\nHere ya go, (catchphrase)! \n! Enjoy!",
      "EUes": "Ahora me encuentro mejor.\n¡Esa medicina es megahipereficaz!\nEn cuanto dé buena cuenta de unas\ncuantas chuches, estaré perfecto.\nY, como me has ayudado un montón,\nquiero agradecértelo...\nToma,  para ti, .",
      "EUfr": "Je me sens un peu mieux,\nmaintenant ! Il est efficace,\nton remède !\nEt après avoir fait le plein de\nfriandises, je suis sûr que je serai\ncomplètement guéri !\nIl faut que je te donne quelque chose\npour te remercier de m'avoir tiré de\nce mauvais pas.\nTiens, c'est ,  !",
      "EUit": "Ahhh, mi sento già meglio... La tua\nmedicina è stata un autentico elisir!\nMi sta già tornando l'appetito, ma è\nun po' che non faccio spesa. Dovrò\nattingere alle merendine di riserva!\nMa, caspitina, soprattutto vorrei\nringraziarti a dovere... con \n!",
      "EUnl": "Ik voel me al iets beter! Wat een\ngoed medicijn!\nNu moet ik nog zorgen dat ik veel\neet om aan te sterken!\nIk wil je graag iets geven om je te\nbedanken.\nHopelijk heb je wat aan ! .",
      "EUru": "Мне уже немного лучше!\nХорошее лекарство!\nСейчас мне нужно только съесть\nчто-нибудь вкусное, и я совсем\nпоправлюсь!\nТы заслужил подарочек за то, что\nспас меня.\nЭто !\n.",
      "JPja": "えへへ～\nおくすり　のんだら　少し楽になったよぉ\nきき目　バツグンだねぇ～\nあとは　おいしいものを　いっぱい食べれば、\nカンペキに　なおっちゃいそうだぁ～\nキミには　おれいを　しなっくっちゃねぇ\nこの　、\nうけとってくれると　うれしいなぁ～",
      "KRko": "에헤헤～\n약 먹었더니 쫌 나아졌어!\n엄청 잘 듣는 약이네에～\n이제 맛있는 걸 잔뜩 먹으면\n완벽히 나을 거 같애～\n너한텐 보답을 해야지이!\n이 ,\n너가 받아주면 좋겠어～",
      "TWzh": "欸嘿嘿～\n吃藥之後我有舒服一點了～\n這個藥的效果很好耶～\n感覺再來只要吃很多好吃的東西，\n就會完全好了～\n我得報答你才行～\n希望你可以\n收下這個喔～",
      "USen": "I'm feeling a little better now!\nThat's some good medicine!\nOh man, I bet I'll be all better once\nI eat some snacks!\nI oughta give you something to\nsay thanks for saving me.\nHere ya go, (catchphrase)! \n! Enjoy!",
      "USes": "¡Ya me dhiento mejod!\nAh... sí, ya puedo hablar normal...\n¡Ese medicamento es superpoderoso!\nAhora tengo toda el hambre que\nno tuve mientras estaba enfermo...\nComo me ayudaste un montón,\nte lo quiero agradecer con...\n¡\npara ti, !",
      "USfr": "Je me sens un peu mieux,\nmaintenant! Il est efficace,\nton remède!\nEt après avoir fait le plein de\nfriandises, je suis sûr que je serai\ncomplètement guéri!\nIl faut que je te donne quelque chose\npour te remercier de m'avoir tiré de\nce mauvais pas.\nTiens, c'est , !"
    }
  },
  {
    "label": "110",
    "attribute": "0x0000000000000000",
    "locale": {
      "CNzh": "呼～\n我感觉好些了呢～\n肯定是药开始起作用了～\n对了～为了谢谢你的药，\n希望你能收下这个～\n是哦～！",
      "EUde": "Puh. Ich glaube, mir geht's schon\nbesser. Anscheinend wirkt deine\nMedizin superschnell!\nIch habe hier was als Dank für dich.\n !",
      "EUen": "Whew. I think I feel a little better.\nThat medicine must be working.\nHey! Lemme give you this as thanks.\n!\nEnjoy it.",
      "EUes": "Creo que ahora me encuentro mejor.\nLa medicina que me diste está\nfuncionando de maravilla...\n¡Y por eso quiero darte las gracias!\n tod para ti.",
      "EUfr": "Pfiou ! Je crois que je me sens un\npeu mieux. Ce remède a l'air de faire\neffet.\nAh ! Je vais t'offrir un petit quelque \nchose pour te remercier. C'est  !",
      "EUit": "Fiuuu, mi sento già meglio! La tua\nmedicina sembra molto efficace.\nEhi! Ti prego, non andartene prima\nche possa ringraziarti con \n!",
      "EUnl": "Poeh. Ik voel me al iets beter. Dat\nmedicijn werkt blijkbaar goed.\nO! Ik heb wat voor je als bedankje.\n!",
      "EUru": "Уф. По-моему, мне уже лучше.\nНаверное, лекарство действует.\nА! Вот тебе за это подарок:\n!",
      "JPja": "ふぅ～\nちょっと　楽になった気がするよぉ\nきっと　おくすりが　きいてきたんだねぇ\nそうそう、おくすりの　おれいに\nコレを　うけとってほしいなぁ～\nだよぉ！",
      "KRko": "휴우～\n쪼금 나아진 거 같애!\n약이 효과 있었나 봐아～\n아, 맞다! 약을 준 보답으로\n이걸 받아주면 좋겠는데에～\n이야아!",
      "TWzh": "呼～\n我覺得舒服多了耶～\n一定是藥開始發揮作用了吧～\n對了對了，希望你可以\n把這個當成謝禮收下～\n是喔～！",
      "USen": "Whew. I think I feel a little better.\nThat medicine must be working.\nHey! Lemme give you this as thanks.\n!\nEnjoy it.",
      "USes": "Ufff... ya me siento mucho mejor.\nEl medicamento que me diste está\nfuncionando de maravilla...\n¡Y por eso quiero darte las gracias!\n¡\nsolo para ti!",
      "USfr": "Pfiou! Je crois que je me sens un\npeu mieux. Ce remède a l'air de\nfaire effet.\nAh! Je vais t'offrir un petit quelque\nchose pour te remercier. C'est \n!"
    }
  },
  {
    "label": "111",
    "attribute": "0x0000000000000000",
    "locale": {
      "CNzh": "嗯～？\n我好像舒服一点了呢～\n你给的药好厉害啊～\n这个，\n请收下吧～\n这是感谢你的药的谢礼～。",
      "EUde": "Jetzt geht's mir gleich besser!\nDas ist mal tolle Medizin!\nBitte nimm das hier zum Dank.\n !\nDu hast mir ganz prima geholfen!",
      "EUen": "I already feel a little better!\nThat medicine was amazing!\nI wanna say thanks. Here's \n.",
      "EUes": "Ya me siento muchísimo mejor.\n¡Esa medicina te pone las pilas como\nuna chuche, aunque sepa peor!\nToma, un detallito para agradecerte\ntodo lo que has hecho por mí:\n.",
      "EUfr": "Je me sens déjà mieux ! Ce remède\nest vraiment incroyable !\nTiens, voilà  pour te remercier,  !",
      "EUit": "Mi sento già meglio. La tua medicina\nè stata mitica, !\nVorrei che accettassi qualcosa\nin segno di ringraziamento...\nÈ .\nGrazie di cuore per il tuo aiuto!",
      "EUnl": "Ik voel me al ietsjes beter! Dat\nmedicijn is geweldig!\nHier, ik heb iets voor je.  . Bedankt dat je me geholpen hebt!",
      "EUru": "Мне уже немного лучше.\nОтличное лекарство!\nЭто тебе в подарок:\n.\nСпасибо за помощь.",
      "JPja": "あれれ～？\nなんだか　楽になってきたかもぉ～\nキミのおくすり　スゴイねぇ\nこの　、\nもらってくれる～？\nおくすりの　おれいだよぉ～、",
      "KRko": "어라아～?\n왠지 몸이 나아진 거 같은데에～\n너가 준 약 좋다아!\n이 ,\n받아줄래～?\n약을 준 보답이야아～ ～",
      "TWzh": "咦咦咦～？\n總覺得舒服多了～\n你的藥很厲害耶～\n這個，\n你能不能收下呢～？\n這是感謝你給我藥的禮物喔～。",
      "USen": "I already feel a little better!\nThat medicine was amazing!\nI wanna say thanks. Here's \n.",
      "USes": "¡Ya estoy mejor! ¡Ese medicamento\nda tanta energía como un chocolate!\nAunque sabe un poco feo.\nToma, un detallito para agradecerte\ntodo lo que has hecho por mí:\n.",
      "USfr": "Je me sens déjà mieux! Ce remède\nest vraiment incroyable!\nTiens, voilà  pour te remercier, !"
    }
  },
  {
    "label": "112",
    "attribute": "0x0000000000000000",
    "locale": {
      "CNzh": "，谢谢你～\n你也要当心，\n不要生病了呢～。",
      "EUde": "Hey, pass auf, dass du nicht auch\nkrank wirst, (Floskel)!",
      "EUen": "Hey, ?\nBe careful you don't\nget sick too, OK?",
      "EUes": "Y una cosita, (nickname)...\nCuidado no te pongas enfermo\ntú también, ¿vale?",
      "EUfr": "Fais attention à ne pas\ntomber malade toi aussi,\n(surnom) !",
      "EUit": "Piuttosto, ora mi raccomando: sta'\nattento a non ammalarti anche tu,\n(nickname)!",
      "EUnl": "Hé, (nickname), let op dat jij niet ook ziek wordt. Oké?",
      "EUru": ", смотри\nне заболей, ладно?",
      "JPja": "、ありがと～\nキミも、びょうきに　ならないように\n気をつけてねぇ～、",
      "KRko": "아, 고마워어～\n너도 병에 걸리지 않게\n조심해～ ～",
      "TWzh": "，謝謝你～\n你也要小心一點，\n不要生病囉～。",
      "USen": "Hey, ?\nBe careful you don't\nget sick too, OK?",
      "USes": "Y ten cuidado, (nickname)...\nno te vayas a enfermar tú también.",
      "USfr": "Fais attention à ne pas\ntomber malade toi aussi,\n(surnom)!"
    }
  },
  {
    "label": "113",
    "attribute": "0x0000000000000000",
    "locale": {
      "CNzh": "真的很谢谢你～\n你\n还真是可靠～。",
      "EUde": "Vielen Dank noch mal!\nDu hast mir den Tag gerettet!",
      "EUen": "Thanks so much! You made a total\ndowner of a day...um... A NOT total\ndowner of a day!",
      "EUes": "¡Gracias mil! ¡No tienes nada que\nenvidiarle a ningún superhéroe!",
      "EUfr": "Merci, (surnom) ! Ma journée avait mal commencé, mais grâce à toi, elle va bien se finir !",
      "EUit": "E grazie ancora per la tua magia\nmedica! Hai trasformato un giorno\nranocchio... in un giorno principe!",
      "EUnl": "Superbedankt! Je hebt mijn rotdag\nin een... eh... niet-rotdag veranderd!",
      "EUru": "Большое спасибо, дружище!\nТы превратил плохой день...\nэ... в неплохой день!",
      "JPja": "ホントに　ありがとぉ～\nは\nやっぱり　たよりになるなぁ～、",
      "KRko": "정말 고마워어～\n아!\n넌 역시 든든한 친구야아～ !",
      "TWzh": "真的很謝謝你喔～\n，\n你果然很可靠～。",
      "USen": "Thanks so much! You made a total\ndowner of a day...um... A NOT total\ndowner of a day!",
      "USes": "¡Eres un verdadero superhéroe!",
      "USfr": "Merci, (surnom)! Ma journée avait mal commencé, mais grâce à toi, elle va bien se finir!"
    }
  },
  {
    "label": "114",
    "attribute": "0x0000000000000000",
    "locale": {
      "CNzh": "多亏了你，我的病才能好～\n有机会我一定会报答你的～\n真的很谢谢你～。",
      "EUde": "Du warst eine große Hilfe...\nWenn ich dir mal helfen kann, sag\nBescheid, (Floskel)!",
      "EUen": "You really helped me out. If you\never feel super lousy, you just\nlemme know, (catchphrase)!",
      "EUes": "Te debo una, (nickname)...\nAvísame si no te sientes bien, ¿vale?",
      "EUfr": "Je te dois une fière chandelle !\nSi toi aussi tu tombes malade, je te\nrendrai la pareille !",
      "EUit": "Sei il mio eroe del giorno! Regalino\na parte, fammi pure sapere in che\naltro modo posso sdebitarmi!",
      "EUnl": "Fijn dat je me wilde helpen! Laat het\nme weten als jij je een keer niet\nlekker voelt! !",
      "EUru": "Ты мне здорово помог.\nЕсли ты когда-нибудь заболеешь,\nобращайся ко мне! .",
      "JPja": "キミの　おかげで　たすかっちゃったぁ\nいつか　おんがえし　するからねぇ～\nほんとに　ありがとぉ～、",
      "KRko": "니 덕분에 살았어!\n이 은혜는 언젠가 꼭 갚을게에～\n정말 고마워어～ ～",
      "TWzh": "你是我的超級救星～\n我總有一天會報恩的～\n真的很謝謝你喔～。",
      "USen": "You really helped me out. If you\never feel super lousy, you just\nlemme know, (catchphrase)!",
      "USes": "Te debo una, (nickname)...\nAvísame si no te sientes bien, ¿sí?",
      "USfr": "Je te dois une fière chandelle!\nSi toi aussi tu tombes malade, je te\nrendrai la pareille!"
    }
  },
  {
    "label": "200",
    "attribute": "0x0000000000000000",
    "locale": {
      "CNzh": "啊～我感觉好一点了～\n，\n谢谢你的帮助～\n为了感谢你的药我准备了回礼，\n但是你的持有物已经满了，\n我还是稍后帮你寄到家里去吧！。",
      "EUde": "Puh, was fühl ich mich jetzt besser...\nAls Dankeschön für die Medizin wollt\nich dir auch eigentlich was geben,\naber deine Tasche ist ja total voll!\nTja, dann schick ich's einfach direkt\nzu dir nach Hause!",
      "EUen": "Whew, I'm feeling all kinds\nof better now...\nI wanna thank you for the medicine,\nbut your pockets are fulla stuff. I'll\nsend this to your house later!",
      "EUes": "Buf... ahora me encuentro mucho\nmejor...\nQuiero darte un detallito por\nla medicina, pero tienes los bolsillos\nllenos...\n¡Mejor te lo envío luego directamente\na casa!",
      "EUfr": "Fiou ! Je crois que je me sens un peu\nmieux maintenant...\nJe voulais te donner quelque chose\nen remerciement du remède, mais\ntes poches sont pleines à craquer !\nPas grave, je te l'enverrai par la\nposte,  !",
      "EUit": "Caspiterina, adesso mi sento molto\nmeglio...\nVorrei tanto ringraziarti per la\nmedicina, ma non hai più spazio per\nportare altro, .\nVorrà dire che ti spedirò il mio\npensierino a casa più tardi!",
      "EUnl": "Poeh poeh, ik voel me nu echt\nsuperveel beter...\nIk wil je iets geven als bedankje voor\ndat medicijn, maar je zakken zitten\nvol. Ik stuur het wel naar je op!",
      "EUru": "Уф-ф, мне гораздо лучше...\nСпасибо за лекарство! Я бы хотел\nтебя отблагодарить подарком!\nНо я вижу, что у тебя карманы\nи так забиты. Придется послать\nподарок по почте.",
      "JPja": "ふぅ～、少し　楽になったカンジがするよぉ\n、\nボクを　たすけてくれて　ありがと～\nおくすりの　おれいをしたいけど、\nもちものがいっぱいで　もてそうにないから\nあとで　お家に　おくっておくねぇ、",
      "KRko": "휴～ 좀 편해진 것 같아\n아\n날 구해줘서 넘 고마워어～\n약을 가져다줬으니까 보답을 하고 싶은데에\n주머니가 꽉 찬 것 같으니까\n나중에 집으로 보낼게에, !",
      "TWzh": "呼～我覺得好像舒服一點了～\n，\n謝謝你救了我～\n我想要謝謝你送藥給我，\n可是你的持有物品好像滿了拿不動，\n晚點我再寄去你家吧～。",
      "USen": "Whew, I'm feeling all kinds\nof better now...\nI wanna thank you for the medicine,\nbut your pockets are fulla stuff. I'll\nsend this to your house later!",
      "USes": "Uy... ya me siento mejor...\nQuería darte una cosa por el\nmedicamento, pero tienes los\nbolsillos llenos...\n¡Te lo mandaré directo a tu casa!",
      "USfr": "Fiou! Je crois que je me sens un peu\nmieux maintenant...\nJe voulais te donner quelque chose\nen remerciement du remède, mais\ntes poches sont pleines à craquer!\nPas grave, je te l'enverrai par la\nposte, !"
    }
  }
]