﻿[
  {
    "label": "001",
    "locale": {
      "CNzh": "豆沙水果凉粉",
      "EUde": "Vanillepudding",
      "EUen": "almond jelly",
      "EUes": "gelatina",
      "EUfr": "crème brûlée",
      "EUit": "panettone",
      "EUnl": "vanillevla",
      "EUru": "пастила",
      "JPja": "あんみつ",
      "KRko": "호떡",
      "TWzh": "紅豆水果寒天",
      "USen": "almond jelly",
      "USes": "gelatina",
      "USfr": "crème brûlée"
    }
  },
  {
    "label": "002",
    "locale": {
      "CNzh": "草莓蛋糕",
      "EUde": "Sahnetorte",
      "EUen": "shortbread",
      "EUes": "tarta de chocolate",
      "EUfr": "tarte à la crème",
      "EUit": "sbrisolona",
      "EUnl": "aardbeientaart",
      "EUru": "овсяное печенье",
      "JPja": "いちごショート",
      "KRko": "딸기 쇼트케이크",
      "TWzh": "草莓蛋糕",
      "USen": "shortbread",
      "USes": "pastel de chocolate",
      "USfr": "tarte à la crème"
    }
  },
  {
    "label": "003",
    "locale": {
      "CNzh": "刨冰",
      "EUde": "Götterspeise",
      "EUen": "shaved ice",
      "EUes": "helado de fresa",
      "EUfr": "tarte au citron",
      "EUit": "torrone",
      "EUnl": "schaafijs",
      "EUru": "чак-чак",
      "JPja": "かき氷",
      "KRko": "팥빙수",
      "TWzh": "刨冰",
      "USen": "shaved ice",
      "USes": "helado de coco",
      "USfr": "tarte au citron"
    }
  },
  {
    "label": "004",
    "locale": {
      "CNzh": "奶油派",
      "EUde": "Marzipanstollen",
      "EUen": "carrot cake",
      "EUes": "tarta de galletas",
      "EUfr": "gingembre confit",
      "EUit": "gianduiotti",
      "EUnl": "slagroomtaart",
      "EUru": "морковный кекс",
      "JPja": "カスタードパイ",
      "KRko": "커스터드 파이",
      "TWzh": "卡士達派",
      "USen": "carrot cake",
      "USes": "churro de chocolate",
      "USfr": "gingembre confit"
    }
  },
  {
    "label": "005",
    "locale": {
      "CNzh": "蜂蜜蛋糕",
      "EUde": "Marmorkuchen",
      "EUen": "sponge cake",
      "EUes": "bizcocho",
      "EUfr": "gâteau à la broche",
      "EUit": "baci di dama",
      "EUnl": "dropveters",
      "EUru": "бисквит",
      "JPja": "カステラ",
      "KRko": "카스텔라",
      "TWzh": "蜂蜜蛋糕",
      "USen": "sponge cake",
      "USes": "dulce de naranja",
      "USfr": "gâteau à la broche"
    }
  },
  {
    "label": "006",
    "locale": {
      "CNzh": "巧克力蛋糕",
      "EUde": "Bananenbrot",
      "EUen": "banana bread",
      "EUes": "macedonia",
      "EUfr": "gelée de mûres",
      "EUit": "profiterole",
      "EUnl": "brownies",
      "EUru": "торт-муравейник",
      "JPja": "ガトーショコラ",
      "KRko": "가토 쇼콜라",
      "TWzh": "巧克力蛋糕",
      "USen": "banana bread",
      "USes": "macedonia",
      "USfr": "gelée de mûres"
    }
  },
  {
    "label": "007",
    "locale": {
      "CNzh": "焦糖牛奶糖",
      "EUde": "Karamellcreme",
      "EUen": "crème caramel",
      "EUes": "flan de vainilla",
      "EUfr": "crème caramel",
      "EUit": "panna cotta",
      "EUnl": "toffees",
      "EUru": "крем-карамель",
      "JPja": "キャラメル",
      "KRko": "캐러멜",
      "TWzh": "焦糖牛奶糖",
      "USen": "crème caramel",
      "USes": "flan de vainilla",
      "USfr": "crème caramel"
    }
  },
  {
    "label": "008",
    "locale": {
      "CNzh": "可丽饼",
      "EUde": "Schokokuchen",
      "EUen": "chocolate pie",
      "EUes": "brownie",
      "EUfr": "tarte au chocolat",
      "EUit": "mont blanc",
      "EUnl": "crêpes",
      "EUru": "торт с шоколадом",
      "JPja": "クレープ",
      "KRko": "크레이프",
      "TWzh": "可麗餅",
      "USen": "chocolate pie",
      "USes": "brownie",
      "USfr": "tarte au chocolat"
    }
  },
  {
    "label": "009",
    "locale": {
      "CNzh": "法式焦糖布丁",
      "EUde": "Crème brûlée",
      "EUen": "crème brûlée",
      "EUes": "crema catalana",
      "EUfr": "génoise",
      "EUit": "crostata di mirtilli",
      "EUnl": "crème brûlée",
      "EUru": "крем-брюле",
      "JPja": "クレームブリュレ",
      "KRko": "과일 페이스트리",
      "TWzh": "法式焦糖布丁",
      "USen": "crème brûlée",
      "USes": "buñuelo de pera",
      "USfr": "génoise"
    }
  },
  {
    "label": "010",
    "locale": {
      "CNzh": "咖啡果冻",
      "EUde": "Tiramisu",
      "EUen": "bread pudding",
      "EUes": "pudin de pan",
      "EUfr": "panettone",
      "EUit": "tiramisù",
      "EUnl": "stroopwafels",
      "EUru": "пудинг",
      "JPja": "コーヒーゼリー",
      "KRko": "커피 젤리",
      "TWzh": "咖啡果凍",
      "USen": "bread pudding",
      "USes": "budín de pan",
      "USfr": "panettone"
    }
  },
  {
    "label": "011",
    "locale": {
      "CNzh": "萨赫蛋糕",
      "EUde": "Apfelmus",
      "EUen": "apple cobbler",
      "EUes": "compota de pera",
      "EUfr": "mousse au chocolat",
      "EUit": "pandoro",
      "EUnl": "sachertorte",
      "EUru": "печеные яблоки",
      "JPja": "ザッハトルテ",
      "KRko": "자허 토르테",
      "TWzh": "薩赫蛋糕",
      "USen": "apple cobbler",
      "USes": "compota de pera",
      "USfr": "mousse au chocolat"
    }
  },
  {
    "label": "012",
    "locale": {
      "CNzh": "意式冰淇淋",
      "EUde": "Vanilleeis",
      "EUen": "vanilla gelato",
      "EUes": "arroz con leche",
      "EUfr": "glace à la vanille",
      "EUit": "strudel",
      "EUnl": "poffertjes",
      "EUru": "пломбир",
      "JPja": "ジェラート",
      "KRko": "젤라또",
      "TWzh": "義式冰淇淋",
      "USen": "vanilla gelato",
      "USes": "arroz con leche",
      "USfr": "cr. glacée vanille"
    }
  },
  {
    "label": "013",
    "locale": {
      "CNzh": "戚风蛋糕",
      "EUde": "Nougat",
      "EUen": "peanut brittle",
      "EUes": "plátano frito",
      "EUfr": "flan",
      "EUit": "torta di mele",
      "EUnl": "lange vingers",
      "EUru": "грильяж",
      "JPja": "シフォンケーキ",
      "KRko": "시폰케이크",
      "TWzh": "戚風蛋糕",
      "USen": "peanut brittle",
      "USes": "plátano frito",
      "USfr": "flan"
    }
  },
  {
    "label": "014",
    "locale": {
      "CNzh": "肉桂卷",
      "EUde": "Schokolade",
      "EUen": "cotton candy",
      "EUes": "roscón",
      "EUfr": "roulé à la fraise",
      "EUit": "torta al rabarbaro",
      "EUnl": "kaneelbroodjes",
      "EUru": "сахарная вата",
      "JPja": "シナモンロール",
      "KRko": "시나몬 롤",
      "TWzh": "肉桂卷",
      "USen": "cotton candy",
      "USes": "rosca de naranja",
      "USfr": "roulé à la fraise"
    }
  },
  {
    "label": "015",
    "locale": {
      "CNzh": "泡芙",
      "EUde": "Kandiszucker",
      "EUen": "coconut cream pie",
      "EUes": "pastel de coco",
      "EUfr": "kouign-amann",
      "EUit": "torta di mandorle",
      "EUnl": "slagroomsoesjes",
      "EUru": "пирожные",
      "JPja": "シュークリーム",
      "KRko": "슈크림",
      "TWzh": "泡芙",
      "USen": "coconut cream pie",
      "USes": "pastel de coco",
      "USfr": "kouign-amann"
    }
  },
  {
    "label": "016",
    "locale": {
      "CNzh": "香芋派",
      "EUde": "Zuckerwatte",
      "EUen": "figgy pudding",
      "EUes": "cuajada",
      "EUfr": "pudding aux figues",
      "EUit": "torta al cioccolato",
      "EUnl": "oliebollen",
      "EUru": "кисель",
      "JPja": "スイートポテト",
      "KRko": "호박엿",
      "TWzh": "甜蕃薯派",
      "USen": "figgy pudding",
      "USes": "pastafrola",
      "USfr": "pudding aux figues"
    }
  },
  {
    "label": "017",
    "locale": {
      "CNzh": "司康饼",
      "EUde": "Lebkuchen",
      "EUen": "gingerbread",
      "EUes": "bienmesabe",
      "EUfr": "apfelstrudel",
      "EUit": "torta ai pinoli",
      "EUnl": "scones",
      "EUru": "имбирные куличи",
      "JPja": "スコーン",
      "KRko": "스콘",
      "TWzh": "司康鬆餅",
      "USen": "gingerbread",
      "USes": "alfajor de coco",
      "USfr": "apfelstrudel"
    }
  },
  {
    "label": "018",
    "locale": {
      "CNzh": "珍珠粉圆",
      "EUde": "Milchreis",
      "EUen": "rice pudding",
      "EUes": "suflé de chocolate",
      "EUfr": "nougat blanc",
      "EUit": "frittelle di mele",
      "EUnl": "pepernoten",
      "EUru": "каша с цукатами",
      "JPja": "タピオカ",
      "KRko": "타피오카",
      "TWzh": "珍珠粉圓",
      "USen": "rice pudding",
      "USes": "suflé de chocolate",
      "USfr": "tarte au sucre"
    }
  },
  {
    "label": "019",
    "locale": {
      "CNzh": "巧克力慕斯",
      "EUde": "Mohnkuchen",
      "EUen": "moon cake",
      "EUes": "tarta helada",
      "EUfr": "gâteau de lune",
      "EUit": "pan dolce",
      "EUnl": "chocolademousse",
      "EUru": "козинаки",
      "JPja": "チョコムース",
      "KRko": "초콜릿 무스",
      "TWzh": "巧克力慕絲",
      "USen": "moon cake",
      "USes": "algodón de azúcar",
      "USfr": "gâteau de lune"
    }
  },
  {
    "label": "020",
    "locale": {
      "CNzh": "提拉米苏",
      "EUde": "Apfelkuchen",
      "EUen": "tarte tatin",
      "EUes": "tiramisú",
      "EUfr": "massepain",
      "EUit": "castagnole",
      "EUnl": "tiramisu",
      "EUru": "птичье молоко",
      "JPja": "ティラミス",
      "KRko": "티라미수",
      "TWzh": "提拉米蘇",
      "USen": "tarte tatin",
      "USes": "tiramisú",
      "USfr": "pâte d'amande"
    }
  },
  {
    "label": "021",
    "locale": {
      "CNzh": "甜甜圈",
      "EUde": "Krapfen",
      "EUen": "fried dough",
      "EUes": "mousse de fresa",
      "EUfr": "cake aux fruits",
      "EUit": "certosino",
      "EUnl": "donuts",
      "EUru": "пончики",
      "JPja": "ドーナツ",
      "KRko": "도넛",
      "TWzh": "甜甜圈",
      "USen": "fried dough",
      "USes": "conserva de coco",
      "USfr": "gâteau aux fruits"
    }
  },
  {
    "label": "022",
    "locale": {
      "CNzh": "栗子羊羹",
      "EUde": "Gugelhupf",
      "EUen": "key-lime pie",
      "EUes": "mousse de limón",
      "EUfr": "meringue au citron",
      "EUit": "panforte",
      "EUnl": "wentelteefjes",
      "EUru": "плюшки",
      "JPja": "くりようかん",
      "KRko": "밤 양갱",
      "TWzh": "栗子羊羹",
      "USen": "key-lime pie",
      "USes": "suflé de limón",
      "USfr": "meringue au citron"
    }
  },
  {
    "label": "023",
    "locale": {
      "CNzh": "椰果",
      "EUde": "Baklava",
      "EUen": "coconut cake",
      "EUes": "torta de ricota",
      "EUfr": "tiramisu",
      "EUit": "castagnaccio",
      "EUnl": "macarons",
      "EUru": "мармелад",
      "JPja": "ナタ・デ・ココ",
      "KRko": "코코넛 타르트",
      "TWzh": "椰果",
      "USen": "coconut cake",
      "USes": "mazamorra",
      "USfr": "pudding chômeur"
    }
  },
  {
    "label": "024",
    "locale": {
      "CNzh": "生巧克力",
      "EUde": "Apfelstrudel",
      "EUen": "apple strudel",
      "EUes": "apfelstrudel",
      "EUfr": "charlotte",
      "EUit": "cantucci",
      "EUnl": "roze koeken",
      "EUru": "слойки с вишней",
      "JPja": "生チョコ",
      "KRko": "생초콜릿",
      "TWzh": "生巧克力",
      "USen": "apple strudel",
      "USes": "jalea de mango",
      "USfr": "charlotte"
    }
  },
  {
    "label": "025",
    "locale": {
      "CNzh": "年轮蛋糕",
      "EUde": "Schlagsahne",
      "EUen": "kugel",
      "EUes": "confitura de fresa",
      "EUfr": "confiture de fraise",
      "EUit": "crostata di more",
      "EUnl": "ontbijtkoek",
      "EUru": "сладкие сырки",
      "JPja": "バウムクーヘン",
      "KRko": "허니 브레드",
      "TWzh": "年輪蛋糕",
      "USen": "kugel",
      "USes": "capirotada",
      "USfr": "confiture de fraise"
    }
  },
  {
    "label": "026",
    "locale": {
      "CNzh": "重磅蛋糕",
      "EUde": "Weingummi",
      "EUen": "pound cake",
      "EUes": "leche frita",
      "EUfr": "tarte Tatin",
      "EUit": "ciambellone",
      "EUnl": "cake",
      "EUru": "печенье хворост",
      "JPja": "パウンドケーキ",
      "KRko": "파운드케이크",
      "TWzh": "磅蛋糕",
      "USen": "pound cake",
      "USes": "dulce de lechoza",
      "USfr": "tarte Tatin"
    }
  },
  {
    "label": "027",
    "locale": {
      "CNzh": "香草冰淇淋",
      "EUde": "Marzipan",
      "EUen": "lime sherbet",
      "EUes": "dulce de leche",
      "EUfr": "quatre-quarts",
      "EUit": "crostata al torrone",
      "EUnl": "vanille-ijs",
      "EUru": "шербет",
      "JPja": "バニラアイス",
      "KRko": "아이스크림",
      "TWzh": "香草冰淇淋",
      "USen": "lime sherbet",
      "USes": "dulce de leche",
      "USfr": "tarte aux pacanes"
    }
  },
  {
    "label": "028",
    "locale": {
      "CNzh": "巴伐露",
      "EUde": "Schokomousse",
      "EUen": "Bavarian cream",
      "EUes": "yogur helado",
      "EUfr": "bavarois",
      "EUit": "strufoli",
      "EUnl": "vruchtensorbet",
      "EUru": "заварной крем",
      "JPja": "ババロア",
      "KRko": "바바루아",
      "TWzh": "巴巴露亞",
      "USen": "Bavarian cream",
      "USes": "yogur helado",
      "USfr": "bavarois"
    }
  },
  {
    "label": "029",
    "locale": {
      "CNzh": "意式奶油布丁",
      "EUde": "Pannacotta",
      "EUen": "panna cotta",
      "EUes": "panacota",
      "EUfr": "pâte à tartiner",
      "EUit": "confetti",
      "EUnl": "panna cotta",
      "EUru": "эклеры",
      "JPja": "パンナコッタ",
      "KRko": "판나코타",
      "TWzh": "義式奶酪",
      "USen": "panna cotta",
      "USes": "panacota",
      "USfr": "tarte aux raisins"
    }
  },
  {
    "label": "030",
    "locale": {
      "CNzh": "饼干",
      "EUde": "Donauwelle",
      "EUen": "apple cake",
      "EUes": "ensaimada",
      "EUfr": "far aux pruneaux",
      "EUit": "pangiallo",
      "EUnl": "speculaasjes",
      "EUru": "яблочный пирог",
      "JPja": "ビスケット",
      "KRko": "비스킷",
      "TWzh": "餅乾",
      "USen": "apple cake",
      "USes": "ensaimada",
      "USfr": "mille-feuilles"
    }
  },
  {
    "label": "031",
    "locale": {
      "CNzh": "菠萝冰",
      "EUde": "Schokopudding",
      "EUen": "bûche de Noël",
      "EUes": "hojaldre relleno",
      "EUfr": "pain d'épices",
      "EUit": "maritozzi",
      "EUnl": "popcorn",
      "EUru": "рулет с кремом",
      "JPja": "冷やしパイン",
      "KRko": "컵케이크",
      "TWzh": "鳳梨冰",
      "USen": "bûche de Noël",
      "USes": "cheesecake",
      "USfr": "pain d'épices"
    }
  },
  {
    "label": "032",
    "locale": {
      "CNzh": "费南雪蛋糕",
      "EUde": "Blaubeerkuchen",
      "EUen": "blueberry pie",
      "EUes": "tarta de moras",
      "EUfr": "tarte aux myrtilles",
      "EUit": "frittelle di riso",
      "EUnl": "appelflappen",
      "EUru": "ягодный пирог",
      "JPja": "フィナンシェ",
      "KRko": "호두파이",
      "TWzh": "費南雪蛋糕",
      "USen": "blueberry pie",
      "USes": "encanelado",
      "USfr": "tarte aux bleuets"
    }
  },
  {
    "label": "033",
    "locale": {
      "CNzh": "布丁",
      "EUde": "Erdbeerquark",
      "EUen": "pumpkin pie",
      "EUes": "tocino de cielo",
      "EUfr": "compote",
      "EUit": "biscotti all'anice",
      "EUnl": "marsepein",
      "EUru": "грушевый пирог",
      "JPja": "プリン",
      "KRko": "푸딩",
      "TWzh": "布丁",
      "USen": "pumpkin pie",
      "USes": "pan de elote",
      "USfr": "compote"
    }
  },
  {
    "label": "034",
    "locale": {
      "CNzh": "法式水果布丁",
      "EUde": "Softeis",
      "EUen": "frozen custard",
      "EUes": "tarta tatín",
      "EUfr": "crème glacée",
      "EUit": "pastiera",
      "EUnl": "appeltaart",
      "EUru": "мороженое",
      "JPja": "プリンアラモード",
      "KRko": "시나몬 파이",
      "TWzh": "法式水果布丁",
      "USen": "frozen custard",
      "USes": "jericalla",
      "USfr": "crème glacée"
    }
  },
  {
    "label": "035",
    "locale": {
      "CNzh": "水果塔",
      "EUde": "Löffelbiskuit",
      "EUen": "peach cobbler",
      "EUes": "fruta en almíbar",
      "EUfr": "amandine",
      "EUit": "babà",
      "EUnl": "kersenvlaai",
      "EUru": "ватрушки",
      "JPja": "フルーツタルト",
      "KRko": "과일 타르트",
      "TWzh": "水果塔",
      "USen": "peach cobbler",
      "USes": "dulce de membrillo",
      "USfr": "amandine"
    }
  },
  {
    "label": "036",
    "locale": {
      "CNzh": "水果芭菲",
      "EUde": "Erdbeertorte",
      "EUen": "fruit parfait",
      "EUes": "requesón con miel",
      "EUfr": "crumble",
      "EUit": "sfogliatelle",
      "EUnl": "vruchtenparfait",
      "EUru": "леденцы",
      "JPja": "フルーツパフェ",
      "KRko": "수정과",
      "TWzh": "水果聖代",
      "USen": "fruit parfait",
      "USes": "crema de avellanas",
      "USfr": "crumble"
    }
  },
  {
    "label": "037",
    "locale": {
      "CNzh": "水果宾治",
      "EUde": "Zitroneneis",
      "EUen": "lemon sorbet",
      "EUes": "tarta de queso",
      "EUfr": "sorbet au citron",
      "EUit": "pasticciotti",
      "EUnl": "mattentaart",
      "EUru": "лимонный сорбе",
      "JPja": "フルーツポンチ",
      "KRko": "생과일주스",
      "TWzh": "水果賓治",
      "USen": "lemon sorbet",
      "USes": "sémola con leche",
      "USfr": "sorbet au citron"
    }
  },
  {
    "label": "038",
    "locale": {
      "CNzh": "小鸡蛋糕",
      "EUde": "Obstsalat",
      "EUen": "raisin bread",
      "EUes": "pastel de mango",
      "EUfr": "kougelhopf",
      "EUit": "cotognata",
      "EUnl": "hagelslag",
      "EUru": "булки с изюмом",
      "JPja": "ベビーカステラ",
      "KRko": "에그 타르트",
      "TWzh": "雞蛋糕",
      "USen": "raisin bread",
      "USes": "leche nevada",
      "USfr": "carré aux dattes"
    }
  },
  {
    "label": "039",
    "locale": {
      "CNzh": "美式松饼",
      "EUde": "Bananenquark",
      "EUen": "french toast",
      "EUes": "tarta de Santiago",
      "EUfr": "clafoutis",
      "EUit": "zeppole",
      "EUnl": "pannenkoeken",
      "EUru": "блины",
      "JPja": "ホットケーキ",
      "KRko": "핫케이크",
      "TWzh": "美式鬆餅",
      "USen": "french toast",
      "USes": "merengue",
      "USfr": "clafoutis"
    }
  },
  {
    "label": "040",
    "locale": {
      "CNzh": "鲷鱼烧",
      "EUde": "Eiskonfekt",
      "EUen": "yogurt parfait",
      "EUes": "fruta confitada",
      "EUfr": "gâteau au yaourt",
      "EUit": "torta di nocciole",
      "EUnl": "chips",
      "EUru": "халва",
      "JPja": "たい焼き",
      "KRko": "붕어빵",
      "TWzh": "鯛魚燒",
      "USen": "yogurt parfait",
      "USes": "leche asada",
      "USfr": "gâteau au yogourt"
    }
  },
  {
    "label": "041",
    "locale": {
      "CNzh": "马卡龙",
      "EUde": "Mangosorbet",
      "EUen": "rainbow sherbet",
      "EUes": "pastel de crema",
      "EUfr": "sorbet arc-en-ciel",
      "EUit": "dolcetti al miele",
      "EUnl": "kokosmakronen",
      "EUru": "сладкие орешки",
      "JPja": "マカロン",
      "KRko": "마카롱",
      "TWzh": "馬卡龍",
      "USen": "rainbow sherbet",
      "USes": "camotillo",
      "USfr": "sorbet arc-en-ciel"
    }
  },
  {
    "label": "042",
    "locale": {
      "CNzh": "棉花糖",
      "EUde": "Lakritze",
      "EUen": "frozen parfait",
      "EUes": "helado frito",
      "EUfr": "parfait glacé",
      "EUit": "torrone gelato",
      "EUnl": "marshmallows",
      "EUru": "зефир",
      "JPja": "マシュマロ",
      "KRko": "마시멜로",
      "TWzh": "棉花糖",
      "USen": "frozen parfait",
      "USes": "strudel de manzana",
      "USfr": "parfait glacé"
    }
  },
  {
    "label": "043",
    "locale": {
      "CNzh": "抹茶冰淇淋",
      "EUde": "Pistazieneis",
      "EUen": "mint ice cream",
      "EUes": "helado de menta",
      "EUfr": "glace à la menthe",
      "EUit": "ricotta con il miele",
      "EUnl": "groenethee-ijs",
      "EUru": "парфе с корицей",
      "JPja": "まっ茶アイス",
      "KRko": "녹차 케이크",
      "TWzh": "抹茶冰淇淋",
      "USen": "mint ice cream",
      "USes": "helado de menta",
      "USfr": "cr. glacée menthe"
    }
  },
  {
    "label": "044",
    "locale": {
      "CNzh": "玛德琳小蛋糕",
      "EUde": "Rhabarberkompott",
      "EUen": "peach crisp",
      "EUes": "turrón",
      "EUfr": "glace à la fraise",
      "EUit": "meringhe",
      "EUnl": "madeleines",
      "EUru": "маковый рулет",
      "JPja": "マドレーヌ",
      "KRko": "마들렌",
      "TWzh": "瑪德蓮蛋糕",
      "USen": "peach crisp",
      "USes": "turrón",
      "USfr": "cr. glacée fraise"
    }
  },
  {
    "label": "045",
    "locale": {
      "CNzh": "芒果布丁",
      "EUde": "Popcorn",
      "EUen": "coffee cake",
      "EUes": "flan de café",
      "EUfr": "forêt-noire",
      "EUit": "torta di mosto",
      "EUnl": "mangopudding",
      "EUru": "ромовые бабы",
      "JPja": "マンゴープリン",
      "KRko": "망고 푸딩",
      "TWzh": "芒果布丁",
      "USen": "coffee cake",
      "USes": "flan de lúcuma",
      "USfr": "forêt-noire"
    }
  },
  {
    "label": "046",
    "locale": {
      "CNzh": "千层蛋糕",
      "EUde": "Bananensplit",
      "EUen": "fried ice cream",
      "EUes": "mazapán",
      "EUfr": "crème fouettée",
      "EUit": "pignolata",
      "EUnl": "mokkaschuimpjes",
      "EUru": "медовик",
      "JPja": "ミルフィーユ",
      "KRko": "밀피유",
      "TWzh": "千層蛋糕",
      "USen": "fried ice cream",
      "USes": "mazapán",
      "USfr": "crème fouettée"
    }
  },
  {
    "label": "047",
    "locale": {
      "CNzh": "蒙布朗",
      "EUde": "Spritzgebäck",
      "EUen": "funnel cake",
      "EUes": "crema de avellanas",
      "EUfr": "île flottante",
      "EUit": "cannoli",
      "EUnl": "roombroodjes",
      "EUru": "торт Наполеон",
      "JPja": "モンブラン",
      "KRko": "몽블랑",
      "TWzh": "蒙布朗",
      "USen": "funnel cake",
      "USes": "crema de avellanas",
      "USfr": "île flottante"
    }
  },
  {
    "label": "048",
    "locale": {
      "CNzh": "生乳酪蛋糕",
      "EUde": "Käsekuchen",
      "EUen": "cheesecake",
      "EUes": "quesada",
      "EUfr": "cheesecake",
      "EUit": "cassata",
      "EUnl": "kwarktaart",
      "EUru": "баранки",
      "JPja": "レアチーズケーキ",
      "KRko": "레어 치즈케이크",
      "TWzh": "生起司蛋糕",
      "USen": "cheesecake",
      "USes": "manzana asada",
      "USfr": "gâteau au fromage"
    }
  },
  {
    "label": "049",
    "locale": {
      "CNzh": "瑞士卷",
      "EUde": "Baiser",
      "EUen": "baked alaska",
      "EUes": "bizcocho de piña",
      "EUfr": "crumble aux prunes",
      "EUit": "torta di ricotta",
      "EUnl": "tompoezen",
      "EUru": "вафли с кремом",
      "JPja": "ロールケーキ",
      "KRko": "롤케이크",
      "TWzh": "蛋糕捲",
      "USen": "baked alaska",
      "USes": "bizcochuelo",
      "USfr": "croustade"
    }
  },
  {
    "label": "050",
    "locale": {
      "CNzh": "华夫饼",
      "EUde": "Honigkuchen",
      "EUen": "spice cake",
      "EUes": "pastel de zanahoria",
      "EUfr": "fondant à la pêche",
      "EUit": "granita al caffè",
      "EUnl": "wafels",
      "EUru": "пряники",
      "JPja": "ワッフル",
      "KRko": "와플",
      "TWzh": "格子鬆餅",
      "USen": "spice cake",
      "USes": "natilla",
      "USfr": "gâteau aux carottes"
    }
  }
]