﻿[
  {
    "label": "101",
    "attribute": "0x00000013",
    "locale": {
      "CNzh": "来了来了！我是(resident name)。\n你找我有什么事？\n……啊？你问我要不要建造别墅？\n我对这个不太了解，\n如果你们能替我全权负责的话，\n那我可以考虑建一栋！\n总之我先来找你了解具体情况，\n你等我一下！",
      "EUde": "Hallo, (Einwohnername) in der Leitung. Was gibt's?\nOb ich ein Ferienhaus bauen will?\nNee, lass mal... Für so was habe ich\nkein Auge. Beziehungsweise Augen.\nBuchstäblich.\nAch! DU willst mir eins bauen? Na,\nwenn das so ist... Bin gleich da!",
      "EUen": "Hey, hey! You've reached\n(resident name). What's up?\nDo I wanna design a vacation home?\nUm...not really. I've kinda already got\nenough blank canvases in my life.\nOh! You'll design it for me? Yeah,\nthat sounds cool! I'll be right over.",
      "EUes": "¡Hola, aquí (resident name)! ¿Cómo va eso?\n¿Que si quiero diseñar mi propia\ncasa de vacaciones?\nPues la verdad es que no. Ya tengo\nbastante lienzo en blanco donde\nexpresarme ahora mismo.\n¡Ah! ¿Lo harías tú por mí? Esa idea\nya me gusta más. Ahora mismo voy\ny me cuentas.",
      "EUfr": "Miaouh ! Ici (nom du résident).\nÇa roule ?\nEst-ce que j'ai envie de construire\nune maison de vacances ? Hum...\nje crois pas, non. Comment dire...\nJ'ai pas vraiment le compas dans\nl'œil, ni l'œil tout court d'ailleurs,\nalors je pense pas que...\nAh ! Toi, tu me proposes de me faire\nune maison ? Ouais, ça me botte !\nJ'arrive.",
      "EUit": "Ehi, ehi! Parla (resident name).\nChe succede?\nSe voglio curare il design di una\ncasa vacanze? Cos'è uno scherzo?\nGuarda che io so riconoscere\ngli scherzi, sono maestra nel\nfarli, ih ih ih!\nPerò... se devo essere sincera,\nnon sono troppo convinta...\nAh, ne curerai tu il design per me?\nBeh, questo cambia tutto! Accetto.",
      "EUnl": "Hé, hallooo! Met (resident name). Leuk dat je belt!\nEen vakantiehuisje ontwerpen? Ik?\nEh... nou, nee. M'n leven vormgeven,\ndaar heb ik m'n handen al vol aan.\nO! Jij wilt het voor me ontwerpen?\nDat verandert de zaak! Supergaaf!\nIk kom er meteen aan.",
      "EUru": "Слушаю! (resident name) у аппарата.\nЧто случилось?\nХочу ли я создать интерьер для\nдачи? Э... не то чтобы очень.\nС меня хватит чистых холстов.\nО! Ты сам его для меня создашь?\nЭто же совсем другое дело!\nСейчас буду на месте.",
      "JPja": "はいはーい、こちら　(resident name)だぜ\nいったい、おいらに　なんの用だー？\n・・・は？　別荘を建てないかって？\nおいら、そういうの　イマイチわかんないけど\n全部　そっちでやってくれるってんなら\n建ててもらっても　いいかなー！\nとりあえず、今すぐ　そっちに行くから\nちょっと　待っててくれよ！",
      "KRko": "그래그래－ 나 (resident name)이야\n대체 나한테 무슨 일이냐－?\n...뭐? 별장 가질 생각 없냐고?\n난 그런 거 잘 모르지만\n전부 그쪽에서 알아서 해줄 거면\n만들어도 괜찮겠는데－!\n일단 지금 그쪽으로 갈 테니까\n잠깐 기다려줘!",
      "TWzh": "來了來了～我是(resident name)喔。\n找我有什麼事嗎？\n什麼……？你問我要不要蓋別墅？\n雖然我對那方面不太熟悉，\n但既然你能幫我處理好所有事，\n那我就欣然接受吧！\n總之我先過去找你，\n你稍等我一下喔！",
      "USen": "Hey, hey! You've reached\n(resident name). What's up?\nDo I wanna design a vacation home?\nUm...not really. I've kinda already got\nenough blank canvases in my life.\nOh! You'll design it for me? Yeah,\nthat sounds cool! I'll be right over.",
      "USes": "¡Hola, aquí (resident name)! ¿Cómo va todo?\n¿Que si quiero diseñar mi propia\ncasa de vacaciones?\nPues la verdad, no. Ya tengo\nbastante lienzo en blanco donde\nexpresarme ahora mismo.\n¡Ah! ¿Lo harías tú por mí? Esa idea\nsí me gusta más. Ahora mismo voy\npara allá y me cuentas.",
      "USfr": "Miaouh! Ici (nom du résident).\nÇa roule?\nEst-ce que j'ai envie de construire\nune maison de vacances? Hum...\nje crois pas, non. Comment dire...\nJ'ai pas vraiment le compas dans\nl'œil, ni l'œil tout court d'ailleurs,\nalors je pense pas que...\nAh! Toi, tu me proposes de me faire\nune maison? Ouais, ça me tente!\nJ'arrive."
    }
  }
]