﻿[
  {
    "label": "001",
    "attribute": "0x00000000",
    "locale": {
      "CNzh": "",
      "EUde": "",
      "EUen": "",
      "EUes": "",
      "EUfr": "",
      "EUit": "",
      "EUnl": "",
      "EUru": "",
      "JPja": "",
      "KRko": "",
      "TWzh": "",
      "USen": "",
      "USes": "",
      "USfr": ""
    }
  },
  {
    "label": "001_01",
    "attribute": "0x00000000",
    "locale": {
      "CNzh": "今天挖到什么好东西了吗？",
      "EUde": "Hast du heut was Feines\nausgebuddelt?",
      "EUen": "Dig up anythin' good today?",
      "EUes": "¿Qué tal te ha ido escarbando por la\nisla? ¿Has sacado provecho al viaje?",
      "EUfr": "La journée a été bonne ?",
      "EUit": "Hai trovato qualcosa di bello, oggi?",
      "EUnl": "Nog wat goeds opgeduikeld?",
      "EUru": "Нарыл чего давеча?",
      "JPja": "今日は　いい掘り出しモン　あったのか？",
      "KRko": "오늘 뭐 괜찮은 거 파 냈어?",
      "TWzh": "今天有沒有挖到好東西呢？",
      "USen": "Dig up anythin' good today?",
      "USes": "¿Qué tal te fue en la isla?\n¿Pudiste aprovechar el viaje\nal máximo?",
      "USfr": "La journée a été bonne?"
    }
  },
  {
    "label": "001_02",
    "attribute": "0x00000000",
    "locale": {
      "CNzh": "认为是梦境，就会是梦境哦……",
      "EUde": "Schon mal geträumt, du träumst,\ndass du träumst? Verrückt, harrr?",
      "EUen": "If ye think it's all a dream...maybe it\nIS all a dream.",
      "EUes": "Aprovecha la juventud mientras\nte dure, renacuajo, que esa\nno vuelve. ¡Como mi pelo!",
      "EUfr": "Si tu crois rêver... Ben t'as\np'têt raison...",
      "EUit": "Se pensi di essere in un sogno...\nmagari è proprio così.",
      "EUnl": "En dacht je soms: 't is allemaal 'n\ndroom... wie weet is dat 't ook wel!\n'n Met water omgeven droom!",
      "EUru": "Если все похоже на сон... может,\nэто и правда сон.",
      "JPja": "ユメかと思ったら、ユメだったよ・・・",
      "KRko": "꿈인 줄 알았는데 진짜 꿈이었어...",
      "TWzh": "認為是夢境，就會是夢境……",
      "USen": "If ye think it's all a dream...maybe it\nIS all a dream.",
      "USes": "Disfruta de la juventud mientras\nte dure, renacuajo, que esa\nno vuelve. ¡Como mi cabello!",
      "USfr": "Si tu crois rêver... Ben t'as\np'têt raison..."
    }
  },
  {
    "label": "001_03",
    "attribute": "0x00000000",
    "locale": {
      "CNzh": "在到家前都要注意安全，知道吗？",
      "EUde": "Auch der kleinste Ausflug is' erst\nzu Ende, wenn der sich're Hafen\nerreicht ist, harrrrr!",
      "EUen": "A trip isn't over till ye're back home\nsafe 'n' sound. Got it?",
      "EUes": "La travesía no se acaba hasta que\nllegas a casa sano y salvo. Yo me\nencargo de navegar y tú, de caminar.",
      "EUfr": "Le voyage s'ra pas fini tant que tu\ns'ras pas entre tes quatre murs.\nCompris ?",
      "EUit": "Un viaggio non è mai finito fino\na quando non tocchi terra sano\ne salvo. Tutto chiaro?",
      "EUnl": "De reis is pas gedaan als je veilig\nthuis op de bank zit. Snappie wel?",
      "EUru": "Ты еще не дома, пока не вернешься\nдомой в целости и сохранности.\nСоображаешь?",
      "JPja": "家に帰るまでが　遠足だからな？",
      "KRko": "집에 도착할 때까지가 소풍인 거 알지?",
      "TWzh": "還沒到家之前，都要注意安全，知道嗎？",
      "USen": "A trip isn't over till ye're back home\nsafe 'n' sound. Got it?",
      "USes": "La travesía no termina hasta que no\nllegas a tu casa sano y salvo. Yo me\nencargo de navegar y tú, de caminar.",
      "USfr": "Le voyage s'ra pas fini tant que tu\ns'ras pas entre tes quatre murs.\nCompris?"
    }
  }
]