﻿[
  {
    "label": "001",
    "attribute": "0x00000000",
    "locale": {
      "CNzh": "",
      "EUde": "",
      "EUen": "",
      "EUes": "",
      "EUfr": "",
      "EUit": "",
      "EUnl": "",
      "EUru": "",
      "JPja": "",
      "KRko": "",
      "TWzh": "",
      "USen": "",
      "USes": "",
      "USfr": ""
    }
  },
  {
    "label": "001_01",
    "attribute": "0x0000002B",
    "locale": {
      "CNzh": "起航吧～带着热血与勇气～\n扬帆吧～寻找真正的自己～",
      "EUde": "Oh, sei so gut, gib mir keinen Korb,\nich hab dich gern, ich schwör es,\nEhrenwort!",
      "EUen": "Remember whene'er you hear this song,\nlife is a trip full of discovery!",
      "EUes": "¡Recuerda al oír mi melodía\nque la vida se vive día a día!",
      "EUfr": "Souviens-toi, en entendant cet air, \nQu'la richesse du monde ne saurait se taire.",
      "EUit": "La vita è un viaggio fra le emozioni.\nRicordalo quando canto le mie canzoni!",
      "EUnl": "Onthou bij 't horen van dit lied\ndat 't leven vol verrassingen zit!",
      "EUru": "Не забывай, жизнь сюрпризов полна,\nпоэтому так прекрасна она!",
      "JPja": "でかけよう　ゆうき　だいて\nじぶんを　さがすたびへ",
      "KRko": "자, 희망과 용기를 갖고\n나 자신을 찾으러 떠나자",
      "TWzh": "懷抱著出門遠行的勇氣～\n踏上尋找自我的旅程～",
      "USen": "Remember whene'er you hear this song,\nlife is a trip full of discovery!",
      "USes": "¡Recuerda al oír mi melodía\nque la vida se vive día a día!",
      "USfr": "Souviens-toi, en entendant cet air, \nQu'la richesse du monde ne saurait se taire."
    }
  },
  {
    "label": "001_02",
    "attribute": "0x0000002B",
    "locale": {
      "CNzh": "就算失去太阳也无需流泪～\n只因还有漫天繁星等待着你～",
      "EUde": "Verspeise nicht, was dir in der Nase sticht,\nbei meiner Seel, erst recht kein Fischgericht.",
      "EUen": "Don't cry about dreams that don't come true\ntoday. Sometimes ya needs ta try another way!",
      "EUes": "No sufras más por cosas ya pasadas.\nEn nada estarán olvidadas.",
      "EUfr": "Sois pas triste si tes rêves se réalisent pas,\nUn beau jour, la chance te sourira.",
      "EUit": "Non piangere se non ottieni ciò che vuoi.\nProvaci ancora e poi ce la farai!",
      "EUnl": "Niet huilen om wensen die niet uitkomen.\nSoms helpt 't om anders te dromen!",
      "EUru": "И если сегодня ничего не выходит,\nпозже вернись — невезенье проходит!",
      "JPja": "なくなよ　ユメやぶれても\nあしたは　どうにかなる",
      "KRko": "울지마라 꿈이 무너진대도\n시간이 다 해결할 거야",
      "TWzh": "即使夢想破滅也別哭泣～\n到了明天～總會有辦法的～",
      "USen": "Don't cry about dreams that don't come true\ntoday. Sometimes ya needs ta try another way!",
      "USes": "No sufras más por cosas ya pasadas.\nEn breve estarán olvidadas.",
      "USfr": "Sois pas triste si tes rêves se réalisent pas,\nUn beau jour, la chance te sourira."
    }
  },
  {
    "label": "001_03",
    "attribute": "0x0000002B",
    "locale": {
      "CNzh": "不管是沧海还是那桑田～\n河童与一叶扁舟永不变～",
      "EUde": "Die Welt, sie dreht sich, doch eins bleibt,\nwie's ist: Jeden Tag der Käpten die Flagge hisst!",
      "EUen": "This world spins 'round, but I be here to stay.\nAnd I gots dreams I'll follow some fine day.",
      "EUes": "De grumetilla pasó a corsaria.\n¡Menuda es mi mamá Rosauria!",
      "EUfr": "Le monde tourne rond comme une toupie,\nQui bizarr'ment jamais ne ralentit.",
      "EUit": "Il mondo gira, ma io son sempre qui.\nGuarda, ammira, sono il più bello, sì.",
      "EUnl": "De wereld draait, toch blijf ik waar ik sta.\nMaar als 't waait, jaag ik de wind wel na.",
      "EUru": "Мир изменился, а я собой остаюсь,\nи со своими мечтами не расстаюсь.",
      "JPja": "せけんは　うつろいゆく\nけれども　オラはここに",
      "KRko": "모든 것은 변한다 하지만\n나는 항상 이곳에 있다네",
      "TWzh": "即使世事不斷地在變遷～\n而我仍然會在這個地方～",
      "USen": "This world spins 'round, but I be here to stay.\nAnd I gots dreams I'll follow some fine day.",
      "USes": "De navegante pasó a corsaria.\n¡Qué brava es mi mamá Rosauria!",
      "USfr": "Le monde tourne rond comme une toupie,\nQui bizarr'ment jamais ne ralentit."
    }
  },
  {
    "label": "001_04",
    "attribute": "0x0000002B",
    "locale": {
      "CNzh": "歌者又有几人是曲中人～\n虽跑调也为听者求福气～",
      "EUde": "Ich singe gern, doch ich singe nicht gut.\nMein größter Lohn: Ein Lächeln reicht\nmir schon!",
      "EUen": "Oh, don't mind me if I tend to sing off-key.\nThese motor fumes make me a bit dizzy!",
      "EUes": "¿Que canto mal? ¿Que yo desafino?\n¡Me importa, jar, jar, un pepino!",
      "EUfr": "Si j'avance pas droit, faut pas qu'tu t'inquiètes.\nLes vapeurs d'essence m'font tourner la tête.",
      "EUit": "Io canterò, perché mi piace cantar.\nPer non sentir, iniziate a nuotar!",
      "EUnl": "Sorry als ik soms wat onzuiver zing.\nIk word luid door de motor in dit ding!",
      "EUru": "Ты не смотри, я люблю петь невпопад,\nи курс могу выбирать наугад!",
      "JPja": "うたうよ　ちょーしズレても\nみんなに　しあわせあれ",
      "KRko": "노래할래 음치라 놀려도\n모두에게 행복을 줄 거야",
      "TWzh": "即使狀況不佳～我仍要繼續歌唱～\n願眾人皆能幸福～",
      "USen": "Oh, don't mind me if I tend to sing off-key.\nThese motor fumes make me a bit dizzy!",
      "USes": "¿Que canto mal? ¿Que yo desafino?\n¡Me importa, jar, jar, un pepino!",
      "USfr": "Si j'avance pas droit, faut pas qu'tu t'inquiètes.\nLes vapeurs d'essence m'font tourner la tête."
    }
  },
  {
    "label": "001_05",
    "attribute": "0x0000002B",
    "locale": {
      "CNzh": "追风的人～别怕有一天会跌倒～\n明天的太阳还会照样升起～",
      "EUde": "Geht's dir mal schlecht, bist du mal sorgenvoll,\nempfehle ich 'ne Schüssel Sauerkohl.",
      "EUen": "Whene'er I'm sad, that's when me wife'll say,\n\"The sun will rise and warm you today!\"",
      "EUes": "Algunos días son muy grises, sí,\npero siempre tienes a alguien ahí.",
      "EUfr": "N'en déplaise à ma douce moitié,\nRien n'me réjouit plus qu'une bonne saucée.",
      "EUit": "Quando son giù, mia moglie canta così:\n\"Tornerà il sol amore, prima o poi!\".",
      "EUnl": "Mijn vrouw zorgt dat m'n verdriet verdwijnt\nals ze zegt dat de zon voor me schijnt.",
      "EUru": "Я знаю, что солнце взойдет и согреет,\nи, если грустно, на сердце теплеет!",
      "JPja": "きずつき　ヘコんだって\nひはまたのぼる　きょうも",
      "KRko": "상처 받고 기죽더라도\n해는 다시 뜰 거야 힘내",
      "TWzh": "即使內心受創感到沮喪～\n隔天太陽仍會升起～",
      "USen": "Whene'er I'm sad, that's when me wife'll say,\n\"The sun will rise and warm you today!\"",
      "USes": "Algunos días son muy grises, sí,\npero siempre tienes a alguien ahí.",
      "USfr": "N'en déplaise à ma douce moitié,\nRien n'me réjouit plus qu'une bonne saucée."
    }
  }
]