﻿[
  {
    "label": "001",
    "attribute": "0x00000C0100000000",
    "locale": {
      "CNzh": "找我有什么事呀？。",
      "EUde": "Hey! Hast du was für\nmich, (Floskel)?",
      "EUen": "Heya! You got something for me?",
      "EUes": "¿Qué pasa? ¿Tienes alguna cosa que\ncontarme, (catchphrase)?",
      "EUfr": "Salut ! T'as quelque chose pour\nmoi ?",
      "EUit": "Ehilà! Cosa puedo fare para ti?",
      "EUnl": "Hé daar! Wilde je iets kwijt?",
      "EUru": "Приветствую! Как дела?",
      "JPja": "ボクに　何の用だい？　",
      "KRko": "내게 무슨 용건이지, ?",
      "TWzh": "找我有事嗎？。",
      "USen": "Heya! You got something for me?",
      "USes": "¡Oye! ¿Tienes algo para contarme, (catchphrase)?",
      "USfr": "Salut! T'as quelque chose pour\nmoi?"
    }
  },
  {
    "label": "002",
    "attribute": "0x00000C0100000000",
    "locale": {
      "CNzh": "有什么话想和我说吗？。",
      "EUde": "Na? Lust auf einen Plausch?\nIch kann's dir nicht verdenken,\n(Floskel).",
      "EUen": "Yo! You wanna chat? I don't\nblame you.",
      "EUes": "¿Quieres hablar conmigo sobre algo?\nNormal, (catchphrase), como casi todo el mundo.",
      "EUfr": "Salut ! Tu veux que je t'abreuve de\nmes sages paroles ? Je comprends.",
      "EUit": "Hola! Vuoi fare due chiacchiere con\nme? Claro, come tutti, d'altronde.",
      "EUnl": "Yo! Zin om even te praten? Kan ik\nme voorstellen.",
      "EUru": "Привет! Хочешь поболтать?\nЯ вот не прочь.",
      "JPja": "話でもあるのかい？　",
      "KRko": "하고 싶은 말이라도 있나? ?",
      "TWzh": "你有話想跟我說嗎？。",
      "USen": "Yo! You wanna chat? I don't\nblame you.",
      "USes": "¿Querías hablar conmigo?\nAh, claro, (catchphrase), como casi todo el mundo.",
      "USfr": "Salut! Tu veux que je t'abreuve de\nmes sages paroles? Je te comprends."
    }
  },
  {
    "label": "003",
    "attribute": "0x00000C0100000000",
    "locale": {
      "CNzh": "嗯？\n怎么了呀？。",
      "EUde": "Na, was führt dich zum guten alten\n(Einwohnername)?",
      "EUen": "Looking for a rap session with\n(resident name), are you?",
      "EUes": "¿Vienes a pedirle consejo sobre algo\na tu viejo amigo (resident name)?",
      "EUfr": "T'as envie de poser un slam avec\nton vieux pote (nom du résident), c'est ça ?",
      "EUit": "Vuoi un consiglio dal tuo (resident name), gran maestro del romanticismo, eh?",
      "EUnl": "Zin om even wat woorden te spitten met de geweldige (resident name)?",
      "EUru": "Что, хочешь послушать немного\nрэпа от самого (resident name)?",
      "JPja": "ん？\nどうしたんだい？　",
      "KRko": "응? \n무슨 일이지, ?",
      "TWzh": "嗯？\n怎麼啦？。",
      "USen": "Looking for a rap session with\n(resident name), are you?",
      "USes": "¿Vienes a pedirle consejo sobre algo\na tu viejo amigo (resident name)?",
      "USfr": "Envie de te faire une petite \n« rap session » avec ton vieux\ncopain (nom du résident), c'est ça?"
    }
  },
  {
    "label": "004",
    "attribute": "0x00000C0100000000",
    "locale": {
      "CNzh": "找我有什么事吗？。",
      "EUde": "Also gut, meine Aufmerksamkeit\ngehört ganz dir.\nWas gibt's, (Floskel)?",
      "EUen": "Alright, you got my attention.\nWhat's up?",
      "EUes": "Te escucho. ¿Qué necesitas de mí,\n(catchphrase)?",
      "EUfr": "Quoi de neuf ? Vas-y, mes oreilles\nsont grandes ouvertes.",
      "EUit": "Ti ascolto. Che ti serve?",
      "EUnl": "Oké, je hebt mijn aandacht. Wat is\ner?",
      "EUru": "Хорошо, я тебя слушаю.\nВ чем дело?",
      "JPja": "ボクに　何か用かい？　",
      "KRko": "내게 볼일이라도 있나, ?",
      "TWzh": "找我有事嗎？。",
      "USen": "Alright, you got my attention.\nWhat's up?",
      "USes": "Te escucho. ¿Qué necesitas de mí,\n(catchphrase)?",
      "USfr": "Quoi de neuf? Fais-toi plaisir,\ndéballe tout! Mes oreilles\nsont grandes ouvertes."
    }
  },
  {
    "label": "005",
    "attribute": "0x00000C0100000000",
    "locale": {
      "CNzh": "呵呵呵，这次又是什么事呀？。",
      "EUde": "Na, was willst du, (Floskel)?",
      "EUen": "What's up with you?",
      "EUes": "¿Qué te traes entre manos,\n(catchphrase)?",
      "EUfr": "(expression), qu'est-ce qui t'amène ?",
      "EUit": "Vuota il sacco! Come posso esserti\nutile, (catchphrase)?",
      "EUnl": "Wat is er met jou aan de hand?",
      "EUru": "Как дела?",
      "JPja": "フフフ、今度は　何の用だい？　",
      "KRko": "후후후...\n이번엔 무슨 일일까, ?",
      "TWzh": "呵呵呵，這次找我是什麼事呢？。",
      "USen": "What's up with you?",
      "USes": "¿Qué te traes entre manos, (catchphrase)⁠?",
      "USfr": "(expression), qu'est-ce qui t'amène?"
    }
  }
]