﻿[
  {
    "label": "001",
    "attribute": "0x0000000000000000",
    "locale": {
      "CNzh": "",
      "EUde": "",
      "EUen": "",
      "EUes": "",
      "EUfr": "",
      "EUit": "",
      "EUnl": "",
      "EUru": "",
      "JPja": "",
      "KRko": "",
      "TWzh": "",
      "USen": "",
      "USes": "",
      "USfr": ""
    }
  },
  {
    "label": "001_01",
    "attribute": "0x0000000000000000",
    "locale": {
      "CNzh": "噢？！\n昨晚我梦见个和你一模一样的家伙\n过来做客……\n那原来是预知梦啊！。",
      "EUde": "Donnerlittchen! Du hier!\nÄh, Pardon. Das war jetzt gar nicht\nhöflich von mir, (Floskel).\nIch hab geträumt, jemand hätte mich\nbesucht. Und dieser Jemand sah\nGENAU aus wie du!\nHmmm, was geschah denn dann\nnoch mal als Nächstes?\nAch, genau! Ich war voll überrascht\nund rief „Donnerlittchen! Du hier“!\nUnd dann dieses Gespräch hier.",
      "EUen": "Whoa! It's you! Sorry. Where are my\nmanners, ...\nI had this dream that someone came\nto visit me, and they were the spittin'\nimage of you. It's uncanny!\nHmm, what came next... Oh! I was\nsurprised and said, \"Whoa! It's you!\"\nAnd then I told you about this dream.",
      "EUes": "¡Anda, pero si eres tú! Perdón, vaya\nformas las mías, ...\nEs que soñé que venías a verme y...\nbueno, no deja de ser curioso. Pero\nhe olvidado qué pasaba luego.\n¡Ah, ya me acuerdo! Te veía y te\ndecía «¡Anda, pero si eres tú!».\nY luego te contaba este sueño.",
      "EUfr": "Oh ! Toi ! Ça, pour une surprise,\nc'est une surprise, ...\nJe m'explique... j'ai rêvé que\nquelqu'un qui était ton portrait\ncraché venait me rendre visite !\nEt le plus fou dans ce rêve, c'est\nque je disais : « Oh ! Toi ! » avant\nde t'expliquer mon rêve...",
      "EUit": "Oooh! Sei tu! Scusa per le mie\nmaniere un po' così...\nHo fatto un sogno dove veniva a\ntrovarmi qualcuno identico a te!\nPer caso hai un gemello? AHAHAH!\nE poi... Ah, ricordo che ci rimanevo\ndi sasso e ti dicevo \"Oooh! Sei tu!\"\nE poi ti raccontavo di questo sogno.",
      "EUnl": "Sakkerloot! Jij hier?! Sorry. Waar zijn mijn manieren, ...\nIk heb gedroomd dat er iemand bij\nme op bezoek kwam die sprekend op\njou leek. Griezelig gewoon!\nHmm... wat er toen gebeurde? O! Ik\nschrok en zei: \"Sakkerloot! Jij hier?!\"\nEn vertelde je over deze droom.",
      "EUru": "Ох ты ж! А, это ты. Прости, ты меня\nврасплох застал. ...\nМне давеча сон приснился, будто\nкто-то в гости пришел. Точь-в-точь\nкак ты выглядел!\nЧто там дальше-то было... А, точно!\nЯ удивился и сказал: «Ох ты ж!\nА, это ты». А потом рассказал сон.",
      "JPja": "おっ？！\nゆうべ　オメェそっくりなヤツが\n訪ねてくる夢を見たんだが・・・\nありゃ　正夢だったんだな！　",
      "KRko": "앗?!\n어젯밤에 너랑 똑같이 생긴 녀석이\n찾아오는 꿈을 꿨었는데...\n예지몽이었구만! !",
      "TWzh": "哦！？我昨天晚上才夢到\n有個和你長得一模一樣的傢伙過來玩耶……\n難道那個是預知夢嗎！。",
      "USen": "Whoa! It's you! Sorry. Where are my\nmanners, ...\nI had this dream that someone came\nto visit me, and they were the spittin'\nimage of you. It's uncanny!\nHmm, what came next... Oh! I was\nsurprised and said, \"Whoa! It's you!\"\nAnd then I told you about this dream.",
      "USes": "¡Vaya, pero si eres tú! Perdón, qué\nmodales los míos, ...\nEs que soñé que venías a verme y...\nbueno, no deja de ser curioso. Pero\nse me olvidó qué pasaba luego.\n¡Ah, ya me acuerdo! Te veía y te\ndecía \"¡Vaya, pero si eres tú!\".\nY luego te contaba este sueño.",
      "USfr": "Oh! Toi! Ça, pour une surprise,\nc'est une surprise, ...\nJe m'explique... j'ai rêvé que\nquelqu'un qui était ton portrait\ncraché venait me rendre visite!\nEt le plus fou dans ce rêve, c'est\nque je disais : « Oh! Toi! » avant\nde t'expliquer mon rêve..."
    }
  },
  {
    "label": "001_02",
    "attribute": "0x0000000000000000",
    "locale": {
      "CNzh": "噢！\n不用客气！\n慢慢看吧！。",
      "EUde": "Hallöchen! Mach's dir hübsch\nbequem hier, ja? Schau dich um,\nsoviel dein Herz begehrt!",
      "EUen": "Why, hello! Why don't you make\nyourself at home. Go on and take a\nlook around if you like, .",
      "EUes": "¡Muy buenas! Siéntete como en casa\ny echa un vistazo a todo lo que\nquieras, .",
      "EUfr": "Oh, salut ! Fais comme chez toi ! Tu\npeux même visiter, si tu veux,\n.",
      "EUit": "Ehilà! Fai come se fossi a casa\ntua. E dai pure un'occhiata\nin giro, .",
      "EUnl": "Hallo! Maak het jezelf gemakkelijk en kijk rustig rond als je wilt, .",
      "EUru": "О, привет! Располагайся как дома.\nМожешь походить тут, посмотреть.\n!",
      "JPja": "おう！\nエンリョは　いらねぇ！\nじっくり　見てってくれよな！　",
      "KRko": "어이!\n눈치 볼 필요 없어! \n구석구석 둘러보라구! !",
      "TWzh": "嗨！不要客氣！\n慢慢參觀吧！。",
      "USen": "Why, hello! Why don't you make\nyourself at home. Go on and take a\nlook around if you like, .",
      "USes": "¡Buenas! Siéntete como en tu casa\ny echa un vistazo a todo lo que\nquieras, .",
      "USfr": "Oh, salut! Fais comme chez toi! Tu\npeux même visiter, si tu veux,\n."
    }
  },
  {
    "label": "001_03",
    "attribute": "0x0000000000000000",
    "locale": {
      "CNzh": "我家的评价那么高吗？\n参观者络绎不绝！\n啊哈哈！",
      "EUde": "Nanu, wen haben wir denn da?\nNoch einen Träumer!\nHoher Besuch, (Floskel)!\nTja, über einen Mangel an\nBeliebtheit kann ich mich\nwohl kaum beschweren!",
      "EUen": "Well, if it ain't another dreamer\nstopping by. Gotta say, I'm feelin'\nquite popular, !",
      "EUes": "Vaya, otro soñador que se pasa por\naquí. ¡Me empiezo a sentir famoso,\n!",
      "EUfr": "Tiens donc, encore un rêveur en\nvadrouille, si je ne m'abuse. Je suis\ncélèbre, ou quoi,  ?",
      "EUit": "Oh! Un altro sognatore in visita!\nNon credevo di essere così\npopolare, !",
      "EUnl": "Nou, wie hebben we daar? Nog een\ndromer! Geen flauw idee dat ik zo'n\npopiejopie was, .",
      "EUru": "А, опять сомнамбула пожаловала. Сезон у вас, что ли... Я уже прямо\nзнаменитостью стал! !",
      "JPja": "オレん家は　そんなに評判なのかい？\n見学者が　あとを絶たねぇぜ！\nがーっはっは！",
      "KRko": "우리 집이 이렇게 인기가 있었나?\n견학하는 사람이 끊이질 않는구만!\n으－하하핫!",
      "TWzh": "我家有這麼廣受好評嗎？\n來參觀的人絡繹不絕啊！\n哇～哈哈！",
      "USen": "Well, if it ain't another dreamer\nstopping by. Gotta say, I'm feelin'\nquite popular, !",
      "USes": "Vaya, otro soñador que pasa por\naquí. ¡Me empiezo a sentir famoso,\n!",
      "USfr": "Tiens donc, encore un rêveur en\nvadrouille, si je ne m'abuse. Je suis\ncélèbre, ou quoi, ?"
    }
  },
  {
    "label": "002",
    "attribute": "0x0000000000000000",
    "locale": {
      "CNzh": "",
      "EUde": "",
      "EUen": "",
      "EUes": "",
      "EUfr": "",
      "EUit": "",
      "EUnl": "",
      "EUru": "",
      "JPja": "",
      "KRko": "",
      "TWzh": "",
      "USen": "",
      "USes": "",
      "USfr": ""
    }
  },
  {
    "label": "002_01",
    "attribute": "0x0000000000000000",
    "locale": {
      "CNzh": "就算自己努力了，\n梦境中的画面也不一定能实现！\n但是，只要向着梦境努力，\n梦境就永不消散！\n说笑的啦！啊哈哈！",
      "EUde": "Fleiß ist zwar nicht DIE hundert-\nprozentige Erfolgsgarantie, aber\ner hilft wie kaum was anderes.\nUnd kräftig von den eigenen Zielen\nträumen hilft sicher auch. Das glaub\nich zumindest ganz fest.\nOjeoje, im Traum bin ich ja ein\nPhilosoph! Oder eventuell doch nur\nein Traumtänzer? Gra ha ha!",
      "EUen": "Hard work won't guarantee your\ndreams will come true, but it'll sure\nimprove the odds.\nAnd even if nothing comes of it,\nkeep dreamin' those dreams, and\nyou'll end up somewhere swell.\nWow! I sure sound smart for a dream\n, ! Gahaha!",
      "EUes": "El esfuerzo no garantiza que tus\nsueños se hagan realidad, pero sin\nduda incrementa las probabilidades.\nE incluso, si se quedan en una mera\nposibilidad, nunca dejes de darles\nuna oportunidad a los sueños.\nVaya, ha sonado un poco a libro\nde autoayuda de , ¿verdad, ? ¡Ja, ja, ja!",
      "EUfr": "Même travailler dur ne permet pas\ntoujours de réaliser ses rêves, mais\nça peut aider.\nMoi, j'ai trouvé une bien meilleure\nsolution. Faire travailler les autres\npour réaliser son propre rêve !\nInutile de me remercier pour la leçon\nde vie. Fais-en bon usage,  ! Ha ha ha !",
      "EUit": "Lavorare sodo non garantisce che i\nsogni diventino realtà, ma di sicuro\naumentano le probabilità.\nE anche se non ottieni nulla,\ncontinua a sognare e prima o poi\nqualcosa di buono arriverà.\nBeh? Non ti sembro profondo\ncome... un tombino? AHAHAH!",
      "EUnl": "Hard werken is geen garantie voor\nhet doen uitkomen van je dromen,\nmaar het maakt de kans wel groter.\nEn zelfs als er niks van komt, moet je\ngewoon blijven dromen en vroeg of\nlaat overkomt je vast iets goeds.\nNou, nou! Voor een droom klink ik best pienter, ! Bwahaha!",
      "EUru": "Усердный труд не гарантирует,\nчто все твои мечты сбудутся,\nно повышает шанс этого.\nНо даже если они не сбудутся,\nпродолжай мечтать, и в итоге\nвсе будет отлично!\nНичего себе я умный !\nЖаль, что это только во сне так.\n! Бу-га-га!",
      "JPja": "がんばったからって、\n夢が必ずかなうとは　限らねぇ！\nだが　夢に向かって　努力してる間は、\n夢は夢であり続けるんだぜ！\nなーんてな！　がーっはっは！",
      "KRko": "열심히 한다고 해서\n반드시 꿈이 이루어진다고는 할 수 없어!\n하지만 꿈을 향해 노력하지 않으면\n꿈은 결코 이루어질 수 없어!\n나 멋지지? 으－하하핫!",
      "TWzh": "夢想並不一定\n會因努力而實現！\n但是，朝著夢想努力的過程，\n卻能讓夢想持續下去！\n開玩笑的啦！哇～哈哈！",
      "USen": "Hard work won't guarantee your\ndreams will come true, but it'll sure\nimprove the odds.\nAnd even if nothing comes of it,\nkeep dreamin' those dreams, and\nyou'll end up somewhere swell.\nWow! I sure sound smart for a dream\n, ! Gahaha!",
      "USes": "El esfuerzo no garantiza que tus\nsueños se hagan realidad, pero sin\nduda incrementa las probabilidades.\nE incluso, aunque terminen siendo\nuna mera posibilidad, nunca dejes de\ndarles una oportunidad a tus sueños.\nVaya, sonó un poco a libro de\nautoayuda de , ¿verdad, ? ¡Ja, ja, ja!",
      "USfr": "Même travailler dur ne permet pas\ntoujours de réaliser ses rêves, mais\nça peut aider.\nMoi, j'ai trouvé une bien meilleure\nsolution. Faire travailler les autres\npour réaliser son propre rêve!\nInutile de me remercier pour la leçon\nde vie. Fais-en bon usage, ! Ha ha ha!"
    }
  },
  {
    "label": "002_02",
    "attribute": "0x0000000000000000",
    "locale": {
      "CNzh": "哎，你就好好坐坐吧！\n虽然这里也没什么特别值得一看的，\n但还是希望你能觉得不虚此行啊！。",
      "EUde": "Hast du je mal im Traum\nwas gekocht? Das ist klasse!\nALLES gelingt einem!\n? Supereinfach!\n? Gar kein Ding!\nAbsolute Gelinggarantie!\nEinen einzigen winzigen Nachteil\nhat die Sache: Nach dem Aufwachen\ngibt's nix zu essen, (Floskel).",
      "EUen": "You ever tried cookin' in a dream?\nIt's great! You can make absolutely\nanything with no effort whatsoever!\nWanna make ?\nEasy. Homemade ?\nEven easier, kiddo!\nThe only downside—and it's quite a\nbig'un—is you can't eat any of it\nafter you wake up, .",
      "EUes": "¿Alguna vez has probado a cocinar\nen sueños?\n¡Es fantástico! Puedes preparar lo\nque te apetezca, ¡y sin ensuciar,\nquemarte ni cortarte!\n¿Te hace ? No hay problema.\n¿De repente tienes antojo de\n ? ¡Pues más fácil todavía, jovencito!\nLa única desventaja es que no\npuedes comerte nada cuando\nte despiertas, .",
      "EUfr": "Tu as déjà essayé de cuisiner dans\nun rêve ? C'est formidable ! Tu peux\npréparer n'importe quoi sans effort !\n ? Facile.\n maison ? Aucun problème, gamin !\nLe seul inconvénient, et il est de\ntaille, c'est que quand on se réveille,\nadieu les petits plats, .",
      "EUit": "Ti è mai capitato di sognare che\ncucinavi? È troppo forte! Puoi fare\ndi tutto e senza il minimo sforzo.\nVuoi fare ? Facile. ? Un gioco da ragazzi!\nL'unico problema, che non è neanche\npiccolo, è che quando ti svegli non\nc'è nulla da mangiare. AHAHAH!",
      "EUnl": "Heb je weleens in een droom\ngekookt? Het is je van het! Zonder\nenige moeite kun je alles maken!\nWil je  maken, jochie? Makkie. Of ? Appeltje eitje!\nHet enige nadeel is dat je het na het wakker worden niet kunt opeten,. Bwahaha!",
      "EUru": "Готовил когда-нибудь во сне?\nЭто здорово! Можно приготовить\nчто угодно, и без особого труда!\nХочешь ? Легко. Домашний ? Проще простого, козявка!\nЕдинственный минус, но очень\nсерьезный, — съесть ничего\nне получится. !",
      "JPja": "まあ　ゆっくりしてってくれ！\nこれと言って　見所も　ねぇと思うが、\n気に入ってくれたなら　幸いだぜ！　",
      "KRko": "천천히 놀다 가라구!\n딱히 뭐 신기한 게 있는 건 아닌데...\n그래도 맘에 들면 좋겠구만! !",
      "TWzh": "你就好好放鬆吧！\n話雖如此，我這也沒什麼值得看的地方，\n如果你能滿意那就好了！。",
      "USen": "You ever tried cookin' in a dream?\nIt's great! You can make absolutely\nanything with no effort whatsoever!\nWanna make ?\nEasy. Homemade ?\nEven easier, kiddo!\nThe only downside—and it's quite a\nbig'un—is you can't eat any of it\nafter you wake up, .",
      "USes": "¿Alguna vez intentaste cocinar\nen sueños?\n¡Es fantástico! Puedes preparar lo\nque quieras, ¡y sin ensuciarte,\nni quemarte, ni cortarte!\n¿Quieres ? No hay problema.\n¿De repente tienes antojo de\n ? ¡Pues más fácil todavía, jovencito!\nLa única desventaja es que no\npuedes comer nada de lo que hiciste\ncuando te despiertas, .",
      "USfr": "Tu as déjà essayé de cuisiner dans\nun rêve? C'est formidable! Tu peux\npréparer n'importe quoi sans effort!\n? Facile.\n maison? Aucun problème, le jeune!\nLe seul inconvénient, et il est de\ntaille, c'est que quand on se réveille,\nadieu les petits plats, ."
    }
  },
  {
    "label": "002_03",
    "attribute": "0x0000000000000000",
    "locale": {
      "CNzh": "我这儿也没什么隆重的招待，\n你就好好放松吧！。",
      "EUde": "Lass dich doch einfach mal nieder\nund lehn dich ein bisschen zurück,\n(Floskel).\nSonstwo ist's vielleicht interessanter,\naber über dich freuen tut sich keiner\nso wie ich!",
      "EUen": "Why don't you put your feet up and\nsit a spell, kiddo?\nMy place probably ain't the most\ninterestin' around, but you're more\nthan welcome here, .",
      "EUes": "Ponte cómodo, jovencito.\nNo tengo los mayores lujos de la isla,\npero confío en que te sientas a gusto\nen mi casa, .",
      "EUfr": "Assieds-toi, mets-toi à l'aise,\ngamin ! Mais garde tes chaussures,\ns'il te plaît.\nMa maison n'est pas forcément la\nplus intéressante, mais tu y es le\nbienvenu, .",
      "EUit": "Che ne dici di metterti comodo\ne rilassarti un po'?\nMagari ci sono posti migliori, ma\nqui sarai sempre il benvenuto.",
      "EUnl": "Ga lekker zitten en maak het jezelf\ngemakkelijk, jochie!\nEr zijn vast interessantere plekken,\nmaar je bent hier van harte welkom,\n.",
      "EUru": "Отдохни, козявка, оставь все\nпроблемы позади.\nЭто, может, и не самое лучшее\nместо в мире снов, но тут тебе\nвсегда рады. !",
      "JPja": "たいした　もてなしもできねぇが\n気楽に　くつろいでってくれ！　",
      "KRko": "변변한 건 없지만\n편하게 있다 가라! !",
      "TWzh": "沒能好好招待你，不好意思，\n你就自己隨意參觀，不要拘束！。",
      "USen": "Why don't you put your feet up and\nsit a spell, kiddo?\nMy place probably ain't the most\ninterestin' around, but you're more\nthan welcome here, .",
      "USes": "Ponte cómodo, jovencito.\nNo tengo los mejores lujos de la isla,\npero confío en que te sentirás a\ngusto en mi casa, .",
      "USfr": "Assieds-toi, mets-toi à l'aise,\nle jeune! Mais garde tes souliers,\ns'il te plaît.\nMa maison n'est pas forcément la\nplus intéressante, mais tu y es le\nbienvenu, ."
    }
  }
]