﻿[
  {
    "label": "001",
    "attribute": "0x0000000000000000",
    "locale": {
      "CNzh": "那么\n我们来玩“比大小”吧！",
      "EUde": "Lass uns eine Partie\nHöher-Niedriger spielen!",
      "EUen": "Let's play High Card, Low Card!",
      "EUes": "¡Vamos a echar una partida al\nJuego de más alto o más bajo!",
      "EUfr": "Si on faisait une partie de Plus ou\nMoins !",
      "EUit": "Bien, giochiamo a \"Sali o scendi\"!",
      "EUnl": "Laten we Hoger-Lager spelen!",
      "EUru": "Давай сыграем в числа!",
      "JPja": "それじゃあ\n『ハイ＆ロー』で遊びましょう！",
      "KRko": "그럼\n\"하이&로\" 게임하면서 놀아요!",
      "TWzh": "既然這樣，\n我們就來玩「比大小」吧！",
      "USen": "Let's play High Card, Low Card!",
      "USes": "¡Juguemos a mayor o menor!",
      "USfr": "Si on faisait une partie de Plus ou\nMoins?!"
    }
  },
  {
    "label": "002",
    "attribute": "0x0000000000000000",
    "locale": {
      "CNzh": "那我先来说明规则哦。\n这里有9张卡片，\n上面分别写着“1”到“9”的九个数字……",
      "EUde": "Das Spiel funktioniert\nfolgendermaßen...\nIch habe hier neun Karten mit den\nZiffern von 1 bis 9 darauf.",
      "EUen": "So this is how we play...\nI have nine cards here that are\nnumbered from 1 through 9...",
      "EUes": "Ya verás que es muy sencillo.\nTengo nueve cartas numeradas\ndel 1 al 9.",
      "EUfr": "Je t'explique les règles, c'est très\nsimple...\nIl y a neuf cartes, numérotées de\n1 à 9...",
      "EUit": "Ti spiego di cosa si tratta...\nHo qui nove carte, numerate\nda 1 a 9.",
      "EUnl": "Dit zijn de regels...\nIk heb hier negen kaarten met de\ncijfers 1 tot en met 9...",
      "EUru": "Я объясню, как играть...\nУ меня девять карт с цифрами\nот 1 до 9...",
      "JPja": "では　説明しますね\nここに［1］から［9］の数字が書かれた\n9枚のカードが　あります・・・",
      "KRko": "그럼 규칙을 설명해드릴게요!\n여기에 [1]부터 [9]까지의 숫자가 적힌\n9장의 카드가 있어요...",
      "TWzh": "那我先來說明一下規則喔。\n這裡有九張卡片，上面分別有\n［1］到［9］的數字……",
      "USen": "So this is how we play...\nI have nine cards here that are\nnumbered from 1 through 9...",
      "USes": "Verás que esto es muy sencillo...\nTengo nueve cartas numeradas\ndel 1 al 9.",
      "USfr": "Je t'explique les règles, c'est très\nsimple...\nIl y a neuf cartes, numérotées de\n1 à 9..."
    }
  },
  {
    "label": "003",
    "attribute": "0x0000000000000000",
    "locale": {
      "CNzh": "现在出现了“”！\n那么接下来！我抽到的下一张卡片上的数字，\n会比“”大还是小呢，\n请你猜猜看！",
      "EUde": "Aha, eine !\nJetzt musst du raten, ob die nächste\nvon mir gezogene Karte höher oder\nniedriger als  sein wird!",
      "EUen": "OK, I drew the !\nNow you need to guess if the card I\ndraw next will be higher or lower\nthan !",
      "EUes": "Vale, he sacado un . Ahora debes\nadivinar si la próxima carta que\nsaque será más alta o más baja.",
      "EUfr": "J'ai tiré le  !\nMaintenant, tu dois deviner si le\nnuméro de la prochaine carte sera\nplus grand ou plus petit que  !",
      "EUit": "Bien, ho pescato il numero .\nOra devi provare a indovinare se\nla mia prossima carta sarà più alta\no più bassa di .",
      "EUnl": "Oké, je hebt een  getrokken!\nNu moet je raden of de volgende\nkaart die ik trek hoger of lager zal\nzijn dan jouw !",
      "EUru": "Так, у меня !\nТеперь тебе нужно угадать,\nбудет ли следующая карта больше\nили меньше, чем !",
      "JPja": "［］が出ました！\nさて！　わたしが　次に引くカードの数字が\nこの［］よりも　大きいか　小さいか、\n予想してくださいね！",
      "KRko": "[] 카드가 나왔네요!\n자! 제가 다음에 뽑을 카드의 숫자가\n이 []보다 클지 작을지\n예상해보세요!",
      "TWzh": "我抽到了［］！\n接下來，請你試著猜猜看……\n我抽到的下一張卡片，\n上面的數字會比［］大還是小呢？",
      "USen": "OK, I drew the !\nNow you need to guess if the card I\ndraw next will be higher or lower\nthan !",
      "USes": "Bien, tenemos un .\nAhora debes adivinar si la carta\nque saque será mayor o menor.",
      "USfr": "J'ai tiré le !\nMaintenant, tu dois deviner si le\nnuméro de la prochaine carte sera\nplus grand ou plus petit que !"
    }
  },
  {
    "label": "005",
    "attribute": "0x0000020000000000",
    "locale": {
      "CNzh": "如果有需要的话，\n我可以说明一下规则哦，\n你要听一听吗？。",
      "EUde": "Soll ich die Spielregeln erklären,\n(Floskel)?",
      "EUen": "I'm pretty good at explaining the\nrules of this game. Would you like\nto hear them, (catchphrase)?",
      "EUes": "¿Quieres que te explique\nlas normas?",
      "EUfr": "Je n'ai pas ma pareille pour expliquer\nles règles de ce jeu. Tu veux les\nentendre ?",
      "EUit": "Sono piuttosto brava a spiegare\nle regole di questo gioco. Vuoi\nsentirle, ?",
      "EUnl": "Ik kan de spelregels best goed\nuitleggen. Wil je mijn uitleg horen,\n(catchphrase)?",
      "EUru": "Я очень хорошо умею объяснять\nправила этой игры. Рассказать\nтебе? (catchphrase)!",
      "JPja": "よかったら\nルールの説明を　しますけど、\nお聞きになりますか？　",
      "KRko": "어떤 게임인지 모르시면\n규칙을 설명해드릴게요!\n설명을 들으시겠어요? ?",
      "TWzh": "如果不介意的話，\n我就來說明規則喔。\n你要聽一下嗎？。",
      "USen": "I'm pretty good at explaining the\nrules of this game. Would you like\nto hear them, (catchphrase)?",
      "USes": "¿Quieres que te explique las reglas?",
      "USfr": "Je n'ai pas ma pareille pour expliquer\nles règles de ce jeu. Tu veux les\nentendre?"
    }
  },
  {
    "label": "005_a",
    "attribute": "0x0000000000000000",
    "locale": {
      "CNzh": "听",
      "EUde": "Ja, bitte!",
      "EUen": "Yes, please.",
      "EUes": "Sí, por favor",
      "EUfr": "Oui, s'il te plaît.",
      "EUit": "Sì, grazie.",
      "EUnl": "Ja, graag.",
      "EUru": "Да, пожалуйста.",
      "JPja": "聞く",
      "KRko": "들을래",
      "TWzh": "我要聽",
      "USen": "Yes, please.",
      "USes": "Sí, por favor",
      "USfr": "Oui, s'il te plaît."
    }
  },
  {
    "label": "005_b",
    "attribute": "0x0000000000000000",
    "locale": {
      "CNzh": "不听",
      "EUde": "Nicht nötig!",
      "EUen": "No, I'm good.",
      "EUes": "No hace falta",
      "EUfr": "Non, ça va, merci.",
      "EUit": "No, va bene così.",
      "EUnl": "Dat is niet nodig.",
      "EUru": "Нет, я помню.",
      "JPja": "聞かない",
      "KRko": "괜찮아",
      "TWzh": "不用了",
      "USen": "No, I'm good.",
      "USes": "No hace falta",
      "USfr": "Non, ça va, merci."
    }
  },
  {
    "label": "009",
    "attribute": "0x0000000000000000",
    "locale": {
      "CNzh": "是“”呢！\n那么接下来再抽1张卡片……",
      "EUde": "Eine !\nDann also jetzt die nächste Karte...",
      "EUen": "The first card is the ! So now I draw\nanother card...",
      "EUes": "Es un . Bien, ahora saco otra\ncarta y tú adivinas si será más\nalta o más baja.",
      "EUfr": "C'est le  ! Maintenant, je tire une\nautre carte...",
      "EUit": "È un ! Bien, ora pescherò un'altra\ncarta...",
      "EUnl": "Het is een ! Dan trek ik nu een\nnieuwe kaart...",
      "EUru": "Выпала карта ! Теперь я вытяну\nдругую карту...",
      "JPja": "［］ですね！\nでは、続いて　もう1枚　カードを・・・",
      "KRko": "[] 카드가 나왔네요!\n그럼 이어서 1장 더...",
      "TWzh": "我抽到了［］！\n那麼，接下來再抽一張……",
      "USen": "The first card is the ! So now I draw\nanother card...",
      "USes": "Es un . Ahora saco otra carta\ny tú adivinas si será mayor o menor.",
      "USfr": "C'est le ! Maintenant, je tire une\nautre carte..."
    }
  },
  {
    "label": "014",
    "attribute": "0x0000000000000000",
    "locale": {
      "CNzh": "如果你猜中了，\n我就把\n送给你！\n那么，我要抽下一张卡片了哦。",
      "EUde": "Rätst du richtig, schenke ich dir\n !\nDann ziehe ich mal die nächste\nKarte...",
      "EUen": "Guess right, and I will reward you\nwith my .\nOK, time to draw the next card.",
      "EUes": "Si aciertas, te recompensaré con\n. ¡Vamos allá!",
      "EUfr": "Si tu tombes juste, tu gagneras m\nch .\nAlors sans plus attendre, passons\naux choses sérieuses.",
      "EUit": "Se indovini correttamente, riceverai   in dono.\nD'accordo, ora estrarrò la prossima\ncarta...",
      "EUnl": "Als je goed raadt, krijg je mijn\n.\nOké, dan trek ik nu de volgende\nkaart.",
      "EUru": "Если угадаешь правильно, я подарю\nтебе .\nОтлично! Тянем следующую карту!",
      "JPja": "予想が当たったら\nを　\n差し上げますからね！\nじゃあ、次のカードを　引きますよー",
      "KRko": "정답을 맞히시면\n을\n드릴게요!\n그럼 카드를 뽑아볼게요～",
      "TWzh": "如果你猜中了，\n我就把\n送給你吧！\n那麼，我要抽下一張卡囉～",
      "USen": "Guess right, and I will reward you\nwith my .\nOK, time to draw the next card.",
      "USes": "Si aciertas, te llevarás ⁠. Ahora saquemos esa carta⁠...",
      "USfr": "Si tu tombes juste, tu gagneras m\nch .\nAlors sans plus attendre, passons\naux choses sérieuses."
    }
  },
  {
    "label": "016",
    "attribute": "0x0000000000000000",
    "locale": {
      "CNzh": "呵呵呵，如果你猜中了，\n我就把\n送给你！\n那么，让我们开始吧。",
      "EUde": "Wenn du richtig rätst, bekommst du\n !\nAlso, wollen wir anfangen?",
      "EUen": "OK. So if you guess right, you'll win\nmy .\nNow let's get started!",
      "EUes": "Muy bien. Si aciertas, ganarás\nest fantástic .\n¡Empecemos!",
      "EUfr": "Si tu tombes juste, tu gagneras m\nch .\nAllez, c'est parti !",
      "EUit": "Alors, se indovini, ti premierò con\n .\nCourage, cominciamo!",
      "EUnl": "Oké. Dus als je goed raadt, win je\nmijn .\nLaten we beginnen!",
      "EUru": "Ладно. Если правильно угадаешь,\nподарю !\nНу, начнем!",
      "JPja": "うふふ、予想が当たったら\nを　\n差し上げますね！\nそれでは、始めましょうか",
      "KRko": "우후훗, 예상이 적중하면\n을\n선물할게요!\n그럼 시작해볼까요?",
      "TWzh": "呵呵呵，如果你猜中了，\n我就把\n送給你喔！\n那麼，我們開始吧。",
      "USen": "OK. So if you guess right, you'll win\nmy .\nNow let's get started!",
      "USes": "Muy bien. Si aciertas, ganarás\nest fantástic ⁠.\n¡Empecemos!",
      "USfr": "Si tu tombes juste, tu gagneras m\nch .\nAllez, c'est parti!"
    }
  },
  {
    "label": "017",
    "attribute": "0x0000000000000000",
    "locale": {
      "CNzh": "首先从这里\n抽1张卡片……",
      "EUde": "Zuerst ziehe ich eine von diesen\nKarten...",
      "EUen": "I'll draw one of these cards to start\nthe game...",
      "EUes": "Para empezar el juego,\nsacaré una carta...",
      "EUfr": "Pour commencer, je dois tirer\nune carte...",
      "EUit": "Il gioco parte quando estraggo una\ndi queste carte...",
      "EUnl": "Om het spel te beginnen trek ik een\nkaart...",
      "EUru": "Сейчас вытяну одну из этих карт\nи начнем игру...",
      "JPja": "まずは　ここから\nカードを1枚　引きますね・・・",
      "KRko": "먼저 여기에서\n카드 1장을 뽑겠습니다...",
      "TWzh": "首先，我先從這裡面抽一張卡……",
      "USen": "I'll draw one of these cards to start\nthe game...",
      "USes": "Empecemos el juego\nsacando una carta...",
      "USfr": "Pour commencer, je dois tirer\nune carte..."
    }
  },
  {
    "label": "018",
    "attribute": "0x0000000000000000",
    "locale": {
      "CNzh": "那么，\n我先抽1张卡片……",
      "EUde": "Dann ziehe ich zuerst einmal eine\nKarte...",
      "EUen": "First, I will draw one of these cards...",
      "EUes": "Primero sacaré una carta...",
      "EUfr": "Je vais commencer par tirer\nune carte...",
      "EUit": "Per prima chose, estrarrò una\ndi queste carte...",
      "EUnl": "Eerst trek ik een van deze kaarten...",
      "EUru": "Сейчас вытяну одну из этих карт...",
      "JPja": "では　最初に　カードを1枚\n引きますね・・・",
      "KRko": "자, 우선은\n카드를 1장 뽑을게요...",
      "TWzh": "那麼，我就先抽一張卡片……",
      "USen": "First, I will draw one of these cards...",
      "USes": "Primero sacaré una carta...",
      "USfr": "Je vais commencer par tirer\nune carte..."
    }
  },
  {
    "label": "100",
    "attribute": "0x0000010000000000",
    "locale": {
      "CNzh": "好！我已经抽出来了！\n请猜猜看，这张卡片上的数字\n会比“”大呢？\n还是说会比它小呢？。",
      "EUde": "Jetzt kommt der eigentliche Spaß!\nGlaubst du, dass diese Karte höher\noder niedriger als  ist, (Floskel)?",
      "EUen": "The card is drawn, (catchphrase)!\nSo, do you think this card is higher\nor lower than ?",
      "EUes": "Bien, ya tengo mi carta. ¿Crees que\nserá más alta o más baja que ?",
      "EUfr": "OK, carte tirée, (expression) !\nAlors ? Tu crois que le numéro\nque j'ai tiré est plus grand que ,\nou plus petit ?",
      "EUit": "Va bene, ho pescato la carta,\n.\nAlors... Secondo te sarà più alta\no più bassa di ?",
      "EUnl": "Oké, ik heb een kaart getrokken,\n(catchphrase)!\nWat denk jij, is het cijfer op mijn\nkaart hoger of lager dan ?",
      "EUru": "Карта вытянута! (catchphrase)!\nКак считаешь, моя карта\nбольше или меньше ?",
      "JPja": "はい！　引きました！\nさあ、このカードの数字は\n［］よりも　大きいでしょうか？\nそれとも　小さいでしょうか？　",
      "KRko": "네! 뽑았어요!\n자, 이 카드의 숫자는\n[]보다 클까요?\n아니면 작을까요, ?",
      "TWzh": "好！抽出來了！\n來吧，猜猜看這張卡片的數字\n跟［］比起來……會是大？\n還是小呢？。",
      "USen": "The card is drawn, (catchphrase)!\nSo, do you think this card is higher\nor lower than ?",
      "USes": "¡Ya tenemos la carta, (catchphrase)!\nAhora tienes que adivinar si es mayor\no menor que .",
      "USfr": "OK, carte tirée, (expression)!\nAlors? Tu crois que le numéro\nque j'ai tiré est plus grand que ,\nou plus petit?"
    }
  },
  {
    "label": "100_a",
    "attribute": "0x0000000000000000",
    "locale": {
      "CNzh": "大",
      "EUde": "Höher!",
      "EUen": "Higher.",
      "EUes": "Más alta",
      "EUfr": "Plus grand.",
      "EUit": "Più alta.",
      "EUnl": "Hoger!",
      "EUru": "Больше.",
      "JPja": "大きい",
      "KRko": "크다!",
      "TWzh": "大",
      "USen": "Higher.",
      "USes": "Mayor",
      "USfr": "Plus grand."
    }
  },
  {
    "label": "100_b",
    "attribute": "0x0000000000000000",
    "locale": {
      "CNzh": "小",
      "EUde": "Niedriger!",
      "EUen": "Lower.",
      "EUes": "Más baja",
      "EUfr": "Plus petit.",
      "EUit": "Più bassa.",
      "EUnl": "Lager!",
      "EUru": "Меньше.",
      "JPja": "小さい",
      "KRko": "작다!",
      "TWzh": "小",
      "USen": "Lower.",
      "USes": "Menor",
      "USfr": "Plus petit."
    }
  },
  {
    "label": "101",
    "attribute": "0x0000000000000000",
    "locale": {
      "CNzh": "那要揭晓答案咯～到底会是哪边呢……？",
      "EUde": "Ich bin gespannt, ob du recht hast.",
      "EUen": "Let's see if you're right...",
      "EUes": "Veamos si has acertado...",
      "EUfr": "Voyons voir...",
      "EUit": "Vediamo se hai indovinato...",
      "EUnl": "Dan kijken we nu of je gelijk hebt...",
      "EUru": "Давай-ка посмотрим...",
      "JPja": "さ～て、どちらでしょうか・・・？",
      "KRko": "과연 정답은...?",
      "TWzh": "好～答案要揭曉囉……！",
      "USen": "Let's see if you're right...",
      "USes": "Veamos si acertaste...",
      "USfr": "Voyons voir..."
    }
  },
  {
    "label": "103",
    "attribute": "0x0000000000000000",
    "locale": {
      "CNzh": "……话虽如此，\n但你的东西好像已经满了呢，\n我之后再寄给你吧。。",
      "EUde": "Da deine Tasche schon voll ist,\nschicke ich dir deinen Preis später\nper Post zu. (Floskel)!",
      "EUen": "Since your pockets are full, I'll just\ngo ahead and send you your prize\nthrough the mail, (catchphrase).",
      "EUes": "Como tienes los bolsillos llenos,\ntendré que mandarte el premio\npor correo, .",
      "EUfr": "Ah ! Mais tes poches sont pleines...\nPas grave, je t'enverrai ton prix\npar courrier.",
      "EUit": "Dato che hai le tasche piene,\nti spedirò il premio per posta,\n.",
      "EUnl": "Aangezien je geen ruimte meer in je\nzakken hebt, laat ik de prijs wel naar\nje opsturen, (catchphrase).",
      "EUru": "Раз у тебя в карманах нет места\nдля приза, я отправлю его тебе\nпо почте. !",
      "JPja": "・・・と思ったんですが\nもちものが　いっぱいみたいなので\nあとで　お送りしておきますね、",
      "KRko": "...그런데 지금\n주머니가 가득 차신 것 같네요\n나중에 보내드릴게요, !",
      "TWzh": "可是……\n你的持有物品好像滿了，\n那我之後再送去給你吧，。",
      "USen": "Since your pockets are full, I'll just\ngo ahead and send you your prize\nthrough the mail, (catchphrase).",
      "USes": "Como tienes los bolsillos llenos,\ntendré que mandarte el premio\npor correo.",
      "USfr": "Ah! Mais tes poches sont pleines...\nPas grave, je t'enverrai ton prix\npar courrier."
    }
  },
  {
    "label": "104",
    "attribute": "0x0000000000000000",
    "locale": {
      "CNzh": "是“”！\n很可惜，猜错了……",
      "EUde": "Oh nein – eine !\nSchade! Damit liegst\ndu leider falsch.",
      "EUen": "Oh no—I drew the !\nAw, too bad. You guessed wrong.",
      "EUes": "¡Oh, no! ¡Es un !\nLo siento, flor, pero me temo que\nte has equivocado.",
      "EUfr": "C'est le  !\nDommage, tu t'es planté...",
      "EUit": "Oh, no! È un !\nJe suis désolée, ma ti sei sbagliato.",
      "EUnl": "O nee, een !\nHè, dat is jammer. Je hebt verkeerd\ngeraden.",
      "EUru": "О нет — цифра !\nЭх, очень жаль.\nТы не угадал.",
      "JPja": "［］でしたー！\n残念、ハズレです・・・",
      "KRko": "[]입니다～!\n아쉽지만 틀렸어요...",
      "TWzh": "這張是［］～！\n真可惜，你猜錯了……",
      "USen": "Oh no—I drew the !\nAw, too bad. You guessed wrong.",
      "USes": "¡Oh, no! ¡Es un !\nLo siento, pero te equivocaste.",
      "USfr": "C'est le !\nDommage, tu t'es trompé..."
    }
  },
  {
    "label": "106",
    "attribute": "0x0000000000000000",
    "locale": {
      "CNzh": "不好意思，没有比“”\n还小的卡片呢。\n下次玩的时候请记住这个规则哦。。",
      "EUde": "Es musste ja schiefgehen, denn eine\n ist gar nicht zu unterbieten.\nBedenke das beim nächsten Versuch!",
      "EUen": "Remember, no card is lower than .\nI'm sure you'll do better next time.",
      "EUes": "Recuerda que ninguna carta puede\nser más baja que . Tenlo en cuenta\ncuando volvamos a jugar, bichín.",
      "EUfr": "Aucune carte n'a un numéro plus\npetit que , en fait.\nEssaie de t'en souvenir la prochaine\nfois !",
      "EUit": "Tieni presente che nessuna carta\npuò essere più bassa di . Cerca\ndi ricordartelo la prossima volta.",
      "EUnl": "Vergeet niet dat er geen kaart lager\nis dan . De volgende keer gaat het\nvast beter.",
      "EUru": "Помни, нет карты меньше, чем .\nВ следующий раз ты обязательно\nсправишься.",
      "JPja": "すみませんが、［］より\n小さい数字のカードは　無いんですよ\n次に遊ぶ時は　覚えといてくださいね、",
      "KRko": "저기, []보다\n작은 숫자 카드는 없답니다...\n꼭 기억해주세요, !",
      "TWzh": "真抱歉，沒有卡片的數字……\n會比［］還要小耶。\n下次玩的時候，你可要記得喔，。",
      "USen": "Remember, no card is lower than .\nI'm sure you'll do better next time.",
      "USes": "Recuerda que ninguna carta puede\nser más baja que . Tenlo en cuenta\ncuando volvamos a jugar, ¿sí?",
      "USfr": "Aucune carte n'a un numéro plus\npetit que , en fait.\nEssaie de t'en souvenir la prochaine\nfois!"
    }
  },
  {
    "label": "107",
    "attribute": "0x0000000000000000",
    "locale": {
      "CNzh": "不好意思，没有比“”\n还大的卡片呢。\n下次玩的时候请记住这个规则哦。。",
      "EUde": "Es musste ja schiefgehen, denn eine\n ist gar nicht zu überbieten.\nBedenke das beim nächsten Versuch!",
      "EUen": "Remember, no card is higher than .\nI'm sure you'll do better next time.",
      "EUes": "La próxima vez recuerda que ninguna\ncarta puede ser más alta que ,\n¿de acuerdo?",
      "EUfr": "Aucune carte n'a un numéro plus\ngrand que , en fait.\nEssaie de t'en souvenir la prochaine\nfois !",
      "EUit": "La prossima volta, ricordati che\nnessuna carta può essere più alta\ndi , d'accordo?",
      "EUnl": "Vergeet niet dat er geen kaart hoger\nis dan . De volgende keer gaat het\nvast beter.",
      "EUru": "Помни, нет карты больше, чем .\nВ следующий раз ты обязательно\nсправишься.",
      "JPja": "すみませんが、［］より\n大きい数字のカードは　無いんですよ\n次に遊ぶ時は　覚えといてくださいね、",
      "KRko": "저기, []보다\n큰 숫자 카드는 없어요...\n꼭 기억해주세요, !",
      "TWzh": "真抱歉，沒有卡片的數字……\n會比［］還要大耶。\n下次玩的時候，你可要記得喔，。",
      "USen": "Remember, no card is higher than .\nI'm sure you'll do better next time.",
      "USes": "La próxima vez recuerda que ninguna\ncarta puede ser más alta que ,\n¿de acuerdo?",
      "USfr": "Aucune carte n'a un numéro plus\ngrand que , en fait.\nEssaie de t'en souvenir la prochaine\nfois!"
    }
  },
  {
    "label": "112",
    "attribute": "0x0000000000000000",
    "locale": {
      "CNzh": "是“”！猜中了！\n真不愧是你。\n那么，这\n就送给你了。",
      "EUde": "Sieh nur, eine !\nDu hast gewonnen!\nGlückwunsch! Damit gehört  dir!",
      "EUen": "! You guessed right!\nI would expect no less from you.\nAlright! Time to receive your prize.\n!",
      "EUes": "¡Pues sí! ¡Es un !\nHas tenido muy buena intuición,\n¡enhorabuena, flor!\nAquí tienes tu premio:\n.",
      "EUfr": " ! Tu es tombé juste !\nJe n'en attendais pas moins de toi,\nceci dit. Tiens, voici ton prix :\n !",
      "EUit": "È un ! Hai indovinato!\nSapevo che ce l'avresti fatta. Bien,\necco qui la tua meritata ricompensa:\n!",
      "EUnl": "! JE HAD GELIJK!\nIk had ook niet anders van jou\nverwacht. Oké! Dan krijg je nu je\nprijs.\n!",
      "EUru": "! Ты угадал!\nНо я в тебе и не сомневалась.\nОтлично! Ты заслужил приз!\nВот !",
      "JPja": "［］でしたー！　正解です！\nさすがですね\nでは、を\n差し上げちゃいます",
      "KRko": "[]입니다～! 정답이에요!\n잘하시네요!\n그럼 을\n드릴게요!",
      "TWzh": "這張是［］～！你答對了！\n真厲害呢。\n那我就把\n送給你吧。",
      "USen": "! You guessed right!\nI would expect no less from you.\nAlright! Time to receive your prize.\n!",
      "USes": "¡Pues sí! ¡Es un !\nTuviste muy buena intuición,\n¡muy bien, calabacita!\nAquí tienes tu premio:\n.",
      "USfr": "! Tu es tombé juste!\nJe n'en attendais pas moins de toi,\nceci dit. Tiens, voici ton prix :\n!"
    }
  },
  {
    "label": "115",
    "attribute": "0x0000000000000000",
    "locale": {
      "CNzh": "虽然这次对你来说有些遗憾，\n不过玩游戏很令人开心呢。\n下次我们再一起玩吧！。",
      "EUde": "Wirklich schade, aber ich hoffe,\nes hat dir trotzdem etwas Spaß\ngemacht. Auf baldige Wiederholung!",
      "EUen": "You may not have won the prize this\ntime, but I hope you still had fun.\nLet's play again soon!",
      "EUes": "Bueno, esta vez te quedas sin\npremio, pero no pasa nada.\n¡Ya volveremos a jugar!",
      "EUfr": "Tu n'as peut-être pas gagné cette\nfois-ci... mais l'essentiel, c'est de\ns'amuser ! Vivement la prochaine !",
      "EUit": "Magari questa volta non avrai vinto,\nperò mi auguro che ti sia divertito\nlo stesso, .\nGiochiamo ensemble di nuovo prima\no poi, d'accordo?",
      "EUnl": "Je hebt deze keer geen prijs\ngewonnen, maar ik hoop dat je het\ntoch leuk vond.\nLaten we een andere keer nog eens\nspelen!",
      "EUru": "В этот раз приз тебе не достался, но надеюсь, тебе было весело!\nКак-нибудь сыграем еще раз!",
      "JPja": "今回　あなたには　残念でしたけど\nゲームは　楽しかったです\nまた　やりましょうね！　",
      "KRko": "오늘은 아쉽게 틀리셨지만\n게임은 즐거웠어요!\n다음에 또 같이 놀아요, !",
      "TWzh": "這次雖然很可惜，\n不過跟你玩遊戲很開心。\n我們下次再來玩吧！。",
      "USen": "You may not have won the prize this\ntime, but I hope you still had fun.\nLet's play again soon!",
      "USes": "No habrás ganado nada, pero espero\nque te hayas divertido como yo.\n¡Espero que volvamos a jugar pronto!",
      "USfr": "Tu n'as peut-être pas gagné cette\nfois-ci... mais l'essentiel, c'est de\ns'amuser! Vivement la prochaine!"
    }
  },
  {
    "label": "120",
    "attribute": "0x0000000000000000",
    "locale": {
      "CNzh": "刚才我都心跳加速了呢～\n我玩得很开心。。",
      "EUde": "Dieses Spiel war das Highlight\nmeines an Höhepunkten nicht\narmen Tages! Was für ein Spaß!",
      "EUen": "Wow! Don't you just love that game?\nThanks for playing, .",
      "EUes": "¿A que ha sido divertido?\nGracias por jugar conmigo,\n.",
      "EUfr": "Ouah ! Ce jeu est formidable, tu ne\ntrouves pas ? Merci d'avoir joué avec\nmoi en tout cas, .",
      "EUit": "Non è un gioco bellissimissimissimo?\nMerci beaucoup di aver partecipato,\n!",
      "EUnl": "Wauw! Ben jij niet ook dol op dit\nspel? Bedankt voor het spelen,\n.",
      "EUru": "Классная игра, правда? Спасибо,\nчто сыграл. !",
      "JPja": "ドキドキしましたね～\nすごく　楽しかったです、",
      "KRko": "아직도 가슴이 콩닥거려요～\n정말 재밌었어요, !",
      "TWzh": "真讓人緊張呢～\n不過我玩得很開心，。",
      "USen": "Wow! Don't you just love that game?\nThanks for playing, .",
      "USes": "¿Verdad que fue muy divertido?\nGracias por jugar conmigo,\n(catchphrase).",
      "USfr": "Ouah! Ce jeu est formidable, tu ne\ntrouves pas? Merci d'avoir joué avec\nmoi en tout cas, ."
    }
  }
]