﻿[
  {
    "label": "101",
    "attribute": "0x00000013",
    "locale": {
      "CNzh": "嘿嘿嘿，你找我有什么事呗？\n……你刚才是说别墅吗？！\n竟然有这么好的事……我当然同意啊。\n那就拜托你设计一栋\n可以供我们一家三代人共同生活的别墅吧！\n我现在就去准备一下，\n来找你了解详细情况！\n你可以边啃黄瓜边等我。",
      "EUde": "Ahoi, hier Käpten an der Strippe!\nWomit darf man-- Hö? Ferienhäuser?\nJoa, klingt nach 'nem schönen Fang!\nWär ich nicht abgeneigt! Es müsste\nnur meine Familie mit reinpassen.\nDrei Generationen, harrr!\nDann will ich gleich mal rüberpaddeln\nund mir dein Geschichtchen anhören.\nHoffe, du hast Gurken für mich da!",
      "EUen": "Heh, what is it ye be needin' from ol'\nKapp'n? Eh? Vacation home? Sounds\nbetter'n buried treasure...\nI'll toss me lot in on that. But ye'll be\nmakin' it a refuge grand enough fer\nthree generations o' me kin!\nI'll set sail and head on over now to\nhear yer tall tale. This home'll come\nstocked with lots o' cucumbers, yar?",
      "EUes": "¿Quién grita «Ah del barco»?\n¿La agencia Archipiélago Paraíso?\n¡Qué hermoso nombre, pardiez!\nMe recuerda a una canción que\ndice así... ¿Eh? ¿Que si quiero\nuna casa de vacaciones?\nPepinos, jamás me había abordado\nnadie con un motivo tan digno\nde interrumpir mi balada...\nPues mira, si sois capaces de hacer\nuna casa lo bastante grande para\ntres generaciones de tortugas...\nZarpo en vuestra dirección y así\nme explicáis en persona la ruta\nhacia tan prometedor tesoro.",
      "EUfr": "Ohé, qu'est-ce que tu peux bien\nvouloir à l'Amiral ? Un rafiot de\nvacances ?\nÇa a l'air encore plus intéressant\nqu'aller déterrer un trésor...\nBon, j'veux bien, matelot.\nMais faut qu'y ait la place pour\nles femmes de ma vie !\nOn va en causer davantage, OK ?\nJe mets les voiles et j'te rejoins.\nEt j'espère au moins qu'y aura\nassez de concombres dans la\ncambuse du rafiot !",
      "EUit": "Ohi, cercavi il vecchio Remo?\nChe posso fare per te? Una casa\nvacanze? Corpo di mille balene...\nCerto che mi interessa. L'importante\nè che sia bella grande, come la stiva\ndi un galeone!\nMi metto subito al timone e faccio\nrotta verso di te.\nCi saranno anche dei cetrioli di mare\nin omaggio, per caso?",
      "EUnl": "Joho, hier spreekt Kapp'n. Wat kan\nik voor je doen, dekzwabber? Een\nvakantiehuis? Zonder kiel of mast?\nMaar ik ben overstag, hoor. Als de\nhele familie er maar in past en alle\ntoekomstige kleine kapiteintjes!\nIk zet meteen koers jouw kant op,\ndan mag je me alles vertellen. Zorg\njij voor voldoende zure bommen?",
      "EUru": "Что, юнга... с чем ты пожаловал\nк старине Кэпну? Чего? Дача?\nДа это лучше, чем зарытый клад!\nДавай. Только такую строй,\nчтобы кают на три поколения\nмоего семейства хватило!\nПоднимаю паруса и плыву к тебе!\nУзнаю, что это за сказка такая. Но\nдом без огурцов мне не предлагать!",
      "JPja": "へへへっ、オラに何の用だべ？\n・・・おめぇ、今別荘って言ったか？！\nそんな　うめぇ話には・・・　乗るしかねぇな\nそんじゃあ、オラの家族　三世代が\nみんなで一緒に使える　別荘にしてくんろ！\n今から　フンドシしめ直して\nそっちに　話を聞きに行くからな！\nキュウリ食べながらでも　待っててくんろ",
      "KRko": "헤헤헷, 나한테 무슨 용건이야?\n...형씨, 지금 별장이라고 했어?!\n그렇게 좋은 제안은... 당연히 받아들여야지\n그럼 우리 가족 3대가\n함께 살 수 있는 별장으로 부탁할게!\n지금부터 마음의 준비 딱 하고\n그쪽으로 얘기 들으러 갈 테니까\n오이라도 먹으면서 기다려!",
      "TWzh": "嘿嘿嘿，找我有什麼事唄？\n什麼……你說別墅嗎！？\n有這麼好的事……那我當然要答應啊。\n那就拜託你幫我蓋一棟\n能容納三代同堂的別墅吧！\n等我準備一下，\n我馬上就去找你問問詳情！\n你就邊吃小黃瓜邊等我吧。",
      "USen": "Heh, what is it ye be needin' from ol'\nKapp'n? Eh? Vacation home? Sounds\nbetter'n buried treasure...\nI'll toss me lot in on that. But ye'll be\nmakin' it a refuge grand enough fer\nthree generations o' me kin!\nI'll set sail and head on over now to\nhear yer tall tale. This home'll come\nstocked with lots o' cucumbers, yar?",
      "USes": "¿Quién llama a este viejo lobo\nde mar? ¿La agencia Archipiélago\nParaíso? ¡Qué bonito nombre!\nMe recuerda a una canción que\ndice así... ¿Eh? ¿Que si quiero\nuna casa de vacaciones?\nPepinos, jamás me había abordado\nnadie con un motivo tan digno\nde interrumpir mi balada...\nPues mira, si pueden hacer una casa\nlo suficientemente grande como para\ntres generaciones de tortugas...\nYa mismo zarpo a verlos, así me\nexplican en persona la ruta\nhacia tan prometedor tesoro.",
      "USfr": "Ohé, qu'est-ce que tu peux bien\nvouloir à l'Amiral? Un rafiot de\nvacances?\nÇa a l'air encore plus intéressant\nqu'aller déterrer un trésor...\nBon, j'veux bien, matelot.\nMais faut qu'y ait la place pour\nles femmes de ma vie!\nOn va en parler davantage, OK?\nJe mets les voiles et j'te rejoins.\nEt j'espère au moins qu'y aura\nassez de concombres dans la\ncambuse du rafiot!"
    }
  }
]