﻿[
  {
    "label": "101",
    "attribute": "0x0000000000001300",
    "locale": {
      "CNzh": "",
      "EUde": "",
      "EUen": "",
      "EUes": "",
      "EUfr": "",
      "EUit": "",
      "EUnl": "",
      "EUru": "",
      "JPja": "",
      "KRko": "",
      "TWzh": "",
      "USen": "",
      "USes": "",
      "USfr": ""
    }
  },
  {
    "label": "101_01",
    "attribute": "0x0000000000001300",
    "locale": {
      "CNzh": "你好，我是(resident name)。\n请问有什么事吗？\n……啊！要为我建造别墅吗？！\n简直像在做梦一样～\n那就拜托你啦！。",
      "EUde": "Hallo, hier spricht (Einwohnername).\nWeshalb rufst du denn an? Du möch-\ntest ein Ferienhaus für mich bauen?!\nJa, darüber sollten wir reden!",
      "EUen": "Hi, this is (resident name).\nMay I ask why you're calling? You\nwant to build me a vacation home?!\nLet's meet and discuss the details!",
      "EUes": "Hola, al habla (resident name).\n¿A qué se debe tu llamada, bichín? \n¿Cómo? ¿Que quieres construirme\nuna casa de vacaciones?\n¡Voy para allá enseguida y así\nme lo explicas con todo detallito!",
      "EUfr": "Ici (nom du résident)...\nPuis-je connaître la raison de ton\nappel ? Tu veux me construire une\nmaison de vacances ?\nJ'arrive pour qu'on puisse régler\nquelques détails !",
      "EUit": "Pronto, parla (resident name).\nPerché mi hai chiamata? Vuoi\ncostruirmi un pied-à-terre per le\nvacanze?! Incontriamoci subito!",
      "EUnl": "Hallo, met (resident name).\nWaar bel je voor? Een vakantiehuisje\ndat je voor me wilt bouwen? Laten\nwe meteen een afspraak maken!",
      "EUru": "Алло? Да, это (resident name).\nА почему ты звонишь? Ты хочешь\nпостроить мне дачу?! Давай\nвстретимся и все обсудим!",
      "JPja": "もしもし、わたしが　(resident name)です\nどういった　ご用件でしょうか\n・・・まあ！　わたしの別荘を\n建ててくださるんですか？！　夢のようです～\nぜひ　お願いします！　",
      "KRko": "여보세요, (resident name)입니다\n어쩐 일이신가요?\n...어머! 제 별장을 만들어주신다고요?!\n제가 지금 꿈을 꾸는 건 아니겠죠～?\n꼭 부탁드려요! !",
      "TWzh": "喂～我是(resident name)。\n請問找我有什麼事嗎？\n嗯……哎呀！你要幫我蓋別墅嗎！？\n這簡直像是在作夢一樣～\n那麼就麻煩你了！。",
      "USen": "Hi, this is (resident name).\nMay I ask why you're calling? You\nwant to build me a vacation home?!\nLet's meet and discuss the details!",
      "USes": "Hola, habla (resident name).\n¿A qué se debe tu llamada, flor? \n¿Cómo? ¿Que quieres construirme\nuna casa de vacaciones?\n¡Voy para allá enseguida y así\nme lo explicas a detalle!",
      "USfr": "Ici (nom du résident)...\nPuis-je connaître la raison de ton\nappel? Tu veux me construire une\nmaison de vacances?\nJ'arrive pour qu'on puisse régler\nquelques détails!"
    }
  },
  {
    "label": "101_02",
    "attribute": "0x0000000000001300",
    "locale": {
      "CNzh": "你好，我是(resident name)。\n……嗯？要为我建造别墅？！\n那个，真的可以吗……\n这种机会应该十分难得。\n我现在就来了解一下详情。。",
      "EUde": "Hallo, du sprichst mit (Einwohnername)!\nWie bitte? Du bietest mir an, ein\nFerienhaus für mich zu bauen?!\nWas sag ich nur, (Floskel)?\nEin Angebot für ein komplettes Haus\nerhält man nicht jeden Tag...\nLass uns das besprechen!",
      "EUen": "Hi there, you've reached\n(resident name)!\nCome again? You're offering to build\nme a vacation home?! What should I\nsay, ?\nI guess it's not every day someone\noffers to build you a whole house...\nLet's meet up and chat about it!",
      "EUes": "¡Hola, soy (resident name)!\n¿Cómo dices? ¿Que si quiero\nque me construyas una casa\nde vacaciones? Ay, pues no sé...\nEs tentador, la verdad...\n¿Y si voy a verte y me lo explicas\nmejor, ?",
      "EUfr": "(nom du résident), j'écoute !\nPardon ? Tu veux me construire\nune maison de vacances ?!\n, que répondre ?\nEh bien, ce n'est pas tous les jours\nqu'on me fait une offre pareille !\nRencontrons-nous pour en discuter !",
      "EUit": "Pronto, parla (resident name)!\nCome dici? Vuoi costruirmi un\npied-à-terre per le vacanze?! Non so\ncosa dire... ?\nNon capita tutti i giorni di ricevere\nun'offerta del genere... Incontriamoci\nsubito per discutere i dettagli!",
      "EUnl": "Hallo, je spreekt met (resident name)!\nPardon? Wil je een vakantiehuisje\nvoor me bouwen? Ik weet niet wat ik moet\nzeggen, behalve !\nHet overkomt me niet vaak dat\niemand aanbiedt een huis voor me te\nbouwen... Zullen we erover praten?",
      "EUru": "Привет! Да, это (resident name).\nЯ тебя слушаю!\nЧто-что? Ты предлагаешь построить\nдля меня дачу?! Что же мне сказать?\n?\nНе каждый день мне предлагают\nпостроить целый дом... Давай\nвстретимся и поговорим!",
      "JPja": "はい　(resident name)です\n・・・えっ、別荘を建ててくださる？！\nあの、ほんとうに　いいんでしょうか・・・\nでも　こんなお話、めったに　ありませんよね\nすぐに　おうかがいします、",
      "KRko": "네, (resident name)입니다\n...앗, 별장을 만들어주시겠다고요?!\n저어, 정말 그래도 될까요?\n하지만 이런 기회는 좀처럼 있는 게 아니죠\n바로 찾아뵐게요, ",
      "TWzh": "你好，我是(resident name)。\n咦……你願意幫我蓋別墅嗎！？\n那個……這樣真的好嗎？\n不過這種機會也不是每天都有呢。\n我馬上過去拜訪你，。",
      "USen": "Hi there, you've reached\n(resident name)!\nCome again? You're offering to build\nme a vacation home?! What should I\nsay, ?\nI guess it's not every day someone\noffers to build you a whole house...\nLet's meet up and chat about it!",
      "USes": "¡Hola, habla (resident name)!\n¿Cómo dices? ¿Que si quiero\nque me construyas una casa\nde vacaciones? Ay, qué vergüenza...\nSuena muy bien, la verdad...\n¿Y si voy a verte para que me\nexpliques bien, (catchphrase)?",
      "USfr": "(nom du résident), j'écoute!\nPardon? Tu veux me construire\nune maison de vacances?!\n, que répondre?\nEh bien, ce n'est pas tous les jours\nqu'on me fait une offre pareille!\nRencontrons-nous pour en discuter!"
    }
  },
  {
    "label": "101_03",
    "attribute": "0x0000000000001300",
    "locale": {
      "CNzh": "喂，你好，我是(resident name)！\n唔……请问有什么事吗？\n什么？要为我建造别墅？！\n我很愿意请你帮忙，\n现在就去找你了解详情。。",
      "EUde": "Hallo? Hier spricht (Einwohnername).\nAh ja. Hmmm. Gut. Verstanden!\n...Wie bitte?! Du möchtest mir ein\nFerienhaus bauen? Bin gleich da!",
      "EUen": "Hello? This is (resident name).\nUh-huh. Yeah. Yep. Right. OK, got it!\n...Wait—what?! You want to build me\na vacation house?! I'll be right there!",
      "EUes": "¿Diga? Aquí (resident name).\nAjá. Sí, sí. Entiendo...\nNo. ¡¿Qué?! ¿En serio quieres\nconstruirme una casa de vacaciones?\nAy, calabacita, ¡eres un amor!\nVoy para allá enseguida.",
      "EUfr": "Oui ? Ici (nom du résident), j'écoute.\nOui, oui... Je vois... Euh, attends\nun peu... Quoi ?! Une maison de\nvacances ?! J'arrive tout de suite !",
      "EUit": "Pronto? Parla (resident name).\nMh mh. Capito. Sì, parfait!\n... Aspetta... cosa?! Un pied-à-terre\nvacanze per me?! Vengo subito!",
      "EUnl": "Hallo? Met (resident name).\nHh-hm. Ja. Ja. Oké. Goed... Wacht,\nwat?! Wil je een vakantiehuisje voor\nme bouwen?! Ik kom er meteen aan!",
      "EUru": "Слушаю? Это (resident name).\nАга-ага. Угу. Да. Хорошо. Конечно!\nПогоди... Что-о-о?! Ты хочешь мне\nдачу построить?! Я сейчас буду!",
      "JPja": "はい　もしもし　(resident name)です！\nえっと・・・　ご用件は　なんでしょうか？\nえぇっ、わたしの別荘を　建ててくださる？！\nぜひ　お願いしたいので\nすぐ　そちらに向かいます、",
      "KRko": "네, 여보세요? (resident name)입니다!\n음... 무슨 일 있으신가요?\n네에?! 제 별장을 만들어주고 싶으시다고요?!\n부디 부탁드리고 싶어요!\n제가 바로 찾아뵐게요, !",
      "TWzh": "喂～你好，我是(resident name)！\n那個……請問找我有什麼事嗎？\n咦，你要幫我蓋別墅嗎！？\n那麼就麻煩你幫這個忙了，\n我馬上過去拜訪你，。",
      "USen": "Hello? This is (resident name).\nUh-huh. Yeah. Yep. Right. OK, got it!\n...Wait—what?! You want to build me\na vacation house?! I'll be right there!",
      "USes": "¿Aló? Habla (resident name).\nAjá. Sí, sí. Entiendo...\nNo. ¡¿Qué?! ¿En serio quieres\nconstruirme una casa de vacaciones?\nAy, calabacita, ¡eres un amor!\nVoy para allá enseguida.",
      "USfr": "Oui? Ici (nom du résident), j'écoute.\nOui, oui... Je vois... Euh, attends\nun peu... Quoi?! Une maison de\nvacances?! J'arrive tout de suite!"
    }
  },
  {
    "label": "101_04",
    "attribute": "0x0000000000001300",
    "locale": {
      "CNzh": "你好，我是(resident name)。\n请问找我有什么事吗？\n……嗯？要为我建造别墅？\n哇，我一直很向往拥有别墅呢～\n那就麻烦你了，\n请跟我说说详细情况吧！。",
      "EUde": "(Einwohnername) am Apparat!\nDu möchtest was bitte für mich\nbauen?! Ha ha, ich dachte, ich\nhätte mich gerade verhört...\nEin Ferienhaus wäre toll! Ich schaue\nbei deinem Büro vorbei, damit wir\nuns darüber unterhalten können.",
      "EUen": "This is (resident name) speaking!\nYou wanna build me a what?! Oh, a\nvacation home? Haha, I thought you\nsaid \"temptation gnome\"...\nA vacation home sounds quite nice!\nI'll come by so we can chat about it.\nWhat even is a \"temptation gnome\"?",
      "EUes": "¿Sí? Soy (resident name).\n¿Que quieres construirme qué?\n¿Una casa de vacaciones?\nPero, lechuguita, eso es demasiado...\nBueno, si no te supone mucho\ntrabajo, estaré encantada de ir\na hablar contigo sobre ello.",
      "EUfr": "(nom du résident), j'écoute !\nTu veux m'offrir une... maison de\nvacances ? Ha ha, j'avais compris\nune « liaison en diligence »...\nUne maison de vacances, c'est très\ntentant ! J'arrive pour qu'on puisse\nen parler. À pied.\nJ'ai eu peur, moi qui suis toujours malade\ndans les transports...",
      "EUit": "Qui parla (resident name)!\nCostruirmi cosa?! Oh, un\npied-à-terre per le vacanze?\nAvevo capito \"pirata in vacanza\"...\nMi sembra un'idea fantastica!\nVengo lì a parlarne. Ma poi perché\nun pirata andrebbe in vacanza?",
      "EUnl": "Hallo, je spreekt met (resident name)!\nWat wil je voor me bouwen? O, een\nvakantiehuisje? Haha, ik verstond\n\"garantiepluisje\"...\nEen vakantiehuisje klinkt een stuk\nbeter! Ik kom naar je toe voor de\ndetails. \"Garantiepluisje\", hoe kom ik erbij?",
      "EUru": "Говорит (resident name)!\nЧто ты хочешь мне построить?!\nА-а-а, дачу? Ха-ха, мне что-то\nдругое послышалось...\nЭто звучит здорово! Я зайду к тебе,\nи ты все мне расскажешь. А то мало ли\nчто по телефону послышится!",
      "JPja": "はい　(resident name)です\nどんな　ご用件ですか？\n・・・えっ、わたしのために別荘を？\nわぁ、別荘って　あこがれていました～\nお願いしたいので　くわしいお話を\nさせてください！　",
      "KRko": "네, (resident name)입니다\n말씀하세요!\n...앗, 저한테 별장을요?\n와아, 꼭 한번 살아보고 싶었어요～\n부탁을 드리고 싶으니까\n자세히 이야기할 수 있을까요? !",
      "TWzh": "你好，我是(resident name)。\n請問有什麼事嗎？\n咦……你要為了我蓋別墅？\n哇，我很憧憬能有一棟別墅呢～\n我想將這件事交由你處理，\n讓我們來好好討論詳情吧！。",
      "USen": "This is (resident name) speaking!\nYou wanna build me a what?! Oh, a\nvacation home? Haha, I thought you\nsaid \"temptation gnome\"...\nA vacation home sounds quite nice!\nI'll come by so we can chat about it.\nWhat even is a \"temptation gnome\"?",
      "USes": "¿Sí? Soy (resident name).\n¿Que quieres construirme qué?\n¿Una casa de vacaciones?\nPero, lechuguita, eso es demasiado...\nBueno, si no es mucha molestia, estaré encantada de ir a hablar\ncontigo sobre el tema.",
      "USfr": "(nom du résident), j'écoute!\nTu veux me construire une...\nmaison de vacances? Ha ha, j'avais\ncompris autre chose...\nUne maison de vacances, c'est très\ntentant! J'arrive pour qu'on puisse\nen parler."
    }
  },
  {
    "label": "102",
    "attribute": "0x0000000000001300",
    "locale": {
      "CNzh": "喂，你好。\n哎呀，是啊！\n你现在在哪里呀？\n……什么？为我建造别墅？\n哎呀，真是太感谢你了！\n具体情况我去找你细谈吧。。",
      "EUde": "Hallo? Oh, (Spitzname)!\nVon wo rufst du an? Ich höre Wellen-\nrauschen. Eine Ferieninsel? Und du\nmöchtest mir dort ein Haus bauen?!\nDanke, dass du an mich gedacht\nhast! Ich bin gleich da, damit wir das\nbesprechen können, (Floskel)!",
      "EUen": "Hello? Oh, (nickname)! Hi!\nWhere are you calling from? Sounds\nbreezy. You want to build me a\nvacation house on an island?!\nThank you for thinking of me! I'll be\nright there so we can go over the\ndetails, !",
      "EUes": "¿Dígame? Ah, .\n¿Qué tal, flor?\n¿De dónde llamas? Se oye como\nsopla el viento. ¿En una isla de\nvacaciones?\n¿Y dices que quieres construirme\nuna casa allí? ¡Ay, pues me haría\nmucha ilusión!\nGracias por haber pensado en mí.\n¡Enseguida voy a verte y hablamos,\n!",
      "EUfr": "Allô ? Oh, c'est toi, (surnom) ? Salut !\nD'où est-ce que tu m'appelles ? Il y\na l'air d'avoir du vent. Tu es sur une\nîle, tu dis ?\nEt tu veux m'y construire une\nmaison ?\nC'est trop gentil de penser à moi !\nIl faut qu'on en discute, j'arrive !",
      "EUit": "Pronto? Salut, (nickname)!\nDa dove stai chiamando? Sento del\nvento. Un'isola delle vacanze? Vuoi\ncostruirmi un pied-à-terre lì?!\nMerci di aver pensato a me! Vengo\nsubito, così discutiamo i dettagli,\n!",
      "EUnl": "Hallo? O, (nickname)! Hoi!\nWaar bel je vandaan? Sta je buiten?\nJe wilt een vakantiehuisje voor me\nbouwen op een eiland?!\nWat lief dat je aan mij denkt! Ik kom\ner meteen aan, dan kunnen we het\nbespreken, !",
      "EUru": "Да? А, (nickname)! Привет!\nОткуда звонишь? Слышу ветер.\nС острова? И ты хочешь построить\nмне на нем дачу?!\nСпасибо, что подумал обо мне!\nЯ скоро буду. Хочу все обсудить.\n.",
      "JPja": "はい、もしもし\nあら、\n今　どちらに　いらっしゃるんですか？\n・・・ええっ、わたしの別荘を？\nあの、ありがとうございます！\nくわしいお話を　聞きに行きますね、",
      "KRko": "네, 여보세요?\n어머, 님\n지금 어디 계세요?\n...네? 제 별장을요?\n저어, 감사해요!\n자세한 얘기를 들으러 찾아뵐게요, !",
      "TWzh": "喂～你好。\n哎呀，是。\n你現在人在哪裡啊？\n咦……要幫我蓋別墅？\n真的非常謝謝你，\n那麼我馬上去找你問問詳情，。",
      "USen": "Hello? Oh, (nickname)! Hi!\nWhere are you calling from? Sounds\nbreezy. You want to build me a\nvacation house on an island?!\nThank you for thinking of me! I'll be\nright there so we can go over the\ndetails, !",
      "USes": "¿Hola? Ah, .\n¿Qué tal, calabacita?\n¿De dónde llamas? Escucho el viento\nsoplar. ¿En una isla de vacaciones?\n¿Dices que quieres construirme\nuna casa allí? ¡Ay, sería como un\nsueño hecho realidad!\nGracias por haber pensado en mí.\n¡Enseguida voy a verte y hablamos,\n!",
      "USfr": "Allô? Oh, c'est toi, (surnom)? Salut!\nD'où est-ce que tu m'appelles? Il y\na l'air d'avoir du vent. Tu es sur une\nîle, tu dis?\nEt tu veux m'y construire une\nmaison?\nC'est trop gentil de penser à moi!\nIl faut qu'on en discute, j'arrive!"
    }
  },
  {
    "label": "201",
    "attribute": "0x0000000000001300",
    "locale": {
      "CNzh": "",
      "EUde": "",
      "EUen": "",
      "EUes": "",
      "EUfr": "",
      "EUit": "",
      "EUnl": "",
      "EUru": "",
      "JPja": "",
      "KRko": "",
      "TWzh": "",
      "USen": "",
      "USes": "",
      "USfr": ""
    }
  },
  {
    "label": "201_01",
    "attribute": "0x0000000000001300",
    "locale": {
      "CNzh": "喂，我是(resident name)。\n请问有什么事吗……\n哎呀！\n是有人想要合住啊？\n所以你就来问问我愿不愿意。\n我也非常感兴趣，当然愿意啦！\n请和我说说具体情况吧。。",
      "EUde": "(Einwohnername) hier!\nJemand sucht eine Mitbewohnerin?\nPrima, ich bin auch auf der Suche!\nIch komme gleich zu dir ins Büro.",
      "EUen": "(resident name) here!\nSomeone's looking for a roommate,\nhuh? I've been thinking about finding\none, so let's do it! See you soon!",
      "EUes": "Hola, aquí (resident name).\n¿Que si quiero compartir casa?\nPues justo hoy he tenido un sueño\nsobre eso, ¿no es alucinante?\nCreo que estoy preparada para\ntener compañía. ¡Nos vemos\nen un rato!",
      "EUfr": "(nom du résident) à l'appareil,  !\nQuelqu'un cherche un colocataire,\nn'est-ce pas ? Figure-toi que ça\nm'intéresse. On se voit plus tard !",
      "EUit": "Sì, parla (resident name)!\nQualcuno cerca una coinquilina, eh?\nAbbiamo avuto la stessa idea allora!\nRiparliamone!",
      "EUnl": "Met (resident name)!\nJe hebt iemand die een huisgenootje\nzoekt? Dat komt goed uit, want daar\nzat ik ook over te denken. Tot snel!",
      "EUru": "Да, (resident name) на проводе!\nГоворишь, кто-то ищет соседа?\nЯ себе сама тоже хотела найти,\nтак что я согласна! До скорого!",
      "JPja": "もしもし、(resident name)です\nどういった　ご用件でしょうか・・・\nまあ！　ハウスシェア希望のかたが\nいらっしゃるんですか？\nそれで　わたしに　ご連絡くださったんですね\nわたしも　興味があったので　大歓迎です！\nくわしいお話を　聞かせてください、",
      "KRko": "여보세요, (resident name)입니다\n무슨 용건이신가요...?\n어머! 하우스 셰어를\n희망하는 분이 계시다고요?\n그래서 저한테 연락해주신 거군요\n마침 저도 관심 있던 터라 대환영이에요!\n자세한 얘기를 들려주세요, !",
      "TWzh": "喂～我是(resident name)。\n請問找我有什麼事嗎……？\n哎呀！有人在徵求同住對象嗎？\n所以你才會來聯絡我呀。\n我對這件事也很感興趣，當然願意囉！\n請跟我說說詳情吧，。",
      "USen": "(resident name) here!\nSomeone's looking for a roommate,\nhuh? I've been thinking about finding\none, so let's do it! See you soon!",
      "USes": "Hola, habla (resident name).\n¿Que si quiero compartir casa?\nQué casualidad, justo hoy tuve un\nsueño sobre eso, ¡esto es una señal!\nSí, creo que estoy preparada para\ntener compañía. ¡Nos vemos\nen un rato!",
      "USfr": "(nom du résident) à l'appareil, !\nQuelqu'un cherche un colocataire,\nn'est-ce pas? Figure-toi que ça\nm'intéresse. On se voit plus tard!"
    }
  },
  {
    "label": "201_02",
    "attribute": "0x0000000000001300",
    "locale": {
      "CNzh": "你好，我是(resident name)……\n…………这样啊～！你是来问我\n要不要和其他人在别墅合住的啊！\n我明白了！虽然还不清楚\n对方肯不肯和我合住，\n但我愿意接受这个邀请。。",
      "EUde": "Hier spricht (Einwohnername)!\nMitbewohner? Damit habe ich nicht\nso viel Erfahrung, aber ich werde\nmich nach Kräften bemühen!",
      "EUen": "You've got (resident name) here!\nSomeone's looking for a roommate?\nI don't have much experience as a\nroommate, but I'll do my best!",
      "EUes": "¿Diga? Soy (resident name).\n¿Dices que alguien anda buscando\ncompa?\nNo tengo mucha experiencia en\nel asunto, pero me haría ilusión\nintentarlo.",
      "EUfr": "(nom du résident) à l'appareil !\nQuelqu'un veut faire de la colocation,\nc'est ça ?\nJe n'ai pas beaucoup d'expérience,\nmais je vais m'efforcer de devenir\nla colocataire idéale,  !",
      "EUit": "Sì, qui parla (resident name)!\nCerca una coinquilina, dici? Non ho\nmolta esperienza in questo campo,\nma vedrò cosa posso fare!",
      "EUnl": "Je spreekt met (resident name)!\nIemand zoekt een huisgenootje? Ik\nweet niet of ik aan de vereisten\nvoldoe, maar ik wil het wel proberen!",
      "EUru": "Алло, (resident name). Привет!\nКто-то ищет соседа? Ну, я соседка\nне самая опытная, но я постараюсь!",
      "JPja": "はい　(resident name)ですけど・・・\n・・・・・・なるほど～！　他のかたと一緒に\n別荘を使う、という　お話ですか\nわかりました！　わたしが　相手のかたの\nお眼鏡にかなうか　わかりませんが\nそのお話、お受けしたいと思います、",
      "KRko": "네, (resident name)입니다...\n......아하～! 다른 분과 같이\n별장을 쓸 생각이 있냐는 말씀이시군요\n알겠어요! 상대분께서 저를\n마음에 들어 하실지는 모르겠지만\n그 제안을 받아들일게요, !",
      "TWzh": "你好，我是(resident name)……\n嗯……嗯……原來如此～！\n是想邀請我和其他人同住別墅嗎？\n我明白了！\n雖然不知道對方願不願意跟我同住，\n不過我願意接受邀請，。",
      "USen": "You've got (resident name) here!\nSomeone's looking for a roommate?\nI don't have much experience as a\nroommate, but I'll do my best!",
      "USes": "¿Diga? Soy (resident name).\n¿Dices que hay alguien que quiere\ncompartir casa?\nNo tengo mucha experiencia en\nel asunto, pero podría intentarlo.",
      "USfr": "(nom du résident) à l'appareil!\nQuelqu'un veut faire de la colocation,\nc'est ça?\nJe n'ai pas beaucoup d'expérience,\nmais je vais m'efforcer de devenir\nla colocataire idéale, !"
    }
  },
  {
    "label": "201_03",
    "attribute": "0x0000000000001300",
    "locale": {
      "CNzh": "喂，你好，我是(resident name)！\n唔……请问找我有什么事吗？\n……哎呀，问我愿不愿意合住啊？！\n呵呵呵，听起来很不错呢！\n虽然我内心有些忐忑，\n但我想现在就去找你，\n请让我和对方见一面吧！。",
      "EUde": "Hallo, hier (Einwohnername)!\nJemand möchte ein Ferienhaus mit\nmir teilen? Das ist ja toll! Wir sollten\nuns treffen. Ich bin auf dem Weg!",
      "EUen": "Yes, this is (resident name).\nSomeone wants to share a vacation\nhome with me? I'd love to! I'll come\nmeet my potential new roommate.",
      "EUes": "¿Sí? Aquí (resident name).\n¿Que alguien quiere compartir\nsu casa de vacaciones conmigo?\n¡Carambola, qué honor! Voy para\nallá a conocer a mi potencial compa.",
      "EUfr": "Oui... Ici (nom du résident), .\nQuelqu'un veut partager sa villa avec\nmoi ? J'accepte ! Il faut qu'on se\nrencontre, j'arrive tout de suite !",
      "EUit": "Sono (resident name), sì.\nQualcuno vuole avermi nel suo\npied-à-terre vacanziero? Sarebbe\nmeraviglioso! Vengo a parlarne.",
      "EUnl": "Ja, met (resident name).\nIemand wil een vakantiehuisje met\nme delen? Wat leuk! Ik kom meteen\nkijken wie die nieuwe huisgenoot is.",
      "EUru": "Да, это (resident name), говори.\nМне предложили жить на одной\nдаче? С удовольствием! Иду\nзнакомиться с новым соседом.",
      "JPja": "はい　もしもし　(resident name)です！\nえっと・・・　ご用件は　なんでしょうか？\n・・・まあ、別荘のハウスシェアですか？！\nうふふ、いいですよ！\nちょっと緊張しますけど、\nそちらに伺いますので　相手のかたと\nお話をさせてください！　",
      "KRko": "네, 여보세요? (resident name)입니다!\n저... 무슨 용건이신가요?\n...어머, 별장 하우스 셰어요?!\n우후후, 좋아요!\n좀 긴장되지만 지금 거기로 갈 테니까\n상대분과 이야기하게 해주세요! !",
      "TWzh": "喂～你好，我是(resident name)！\n請問……找我有什麼事嗎？\n哎呀……要邀請我和其他人同住別墅嗎！？\n呵呵呵，好啊！\n雖然有點緊張，\n不過我想現在就去拜訪你，\n請讓我和對方聊聊吧！。",
      "USen": "Yes, this is (resident name).\nSomeone wants to share a vacation\nhome with me? I'd love to! I'll come\nmeet my potential new roommate.",
      "USes": "¿Holita? Habla (resident name).\n¿Que alguien quiere compartir\nsu casa de vacaciones conmigo?\n¡Rabanitos, qué honor! Puedo ir\nahora mismo para allá a ver los\ndetalles.",
      "USfr": "Oui... Ici (nom du résident), .\nQuelqu'un veut partager sa maison\navec moi? J'accepte! Il faut qu'on se\nrencontre, j'arrive tout de suite!"
    }
  },
  {
    "label": "201_04",
    "attribute": "0x0000000000001300",
    "locale": {
      "CNzh": "你好，我是(resident name)。\n请问有什么事吗……？\n……啊？和别人合住一栋别墅……？\n唔……我真的可以吗？\n我想先和对方见面聊一聊，\n我现在就去找你。。",
      "EUde": "Ja, (Einwohnername) hier!\nDa möchte jemand sein Ferienhaus\nteilen? Wir sollten uns zumindest\neinmal treffen, (Floskel)!",
      "EUen": "Yes, this is (resident name).\nSomeone wants to share a vacation\nhome? I guess I can at least meet\nwith them, !",
      "EUes": "Hola, al habla (resident name).\n¿Dices que alguien está dispuesto\na compartir su casa de vacaciones\nconmigo?\n¡Eso es genial! Aunque primero\ndeberíamos conocernos para saber\nsi somos compatibles, .",
      "EUfr": "Oui, c'est (nom du résident) à l'appareil.\nQuelqu'un veut partager une villa ?\nEh bien j'imagine que je pourrais au\nmoins rencontrer cette personne !",
      "EUit": "Qui parla (resident name).\nVivere insieme nello stesso\npied-à-terre vacanze? Incontriamoci,\n!",
      "EUnl": "Ja, met (resident name). Dat klopt.\nEr is iemand die een vakantiehuisje\nmet mij wil delen? Ik ben benieuwd\nwie het is. !",
      "EUru": "Все верно, это (resident name).\nКто-то хочет жить со мной на одной\nдаче? Думаю, для начала можно\nпознакомиться. !",
      "JPja": "はい　(resident name)ですけど\nなんでしょうか・・・？\n・・・えっ、別荘をハウスシェア・・・？\nあの・・・、わたしで　いいんでしょうか？\nとりあえず　相手のかたと\n直接　お話してみたいので\n今すぐ　そちらに伺いますね、",
      "KRko": "네, (resident name)입니다만\n무슨 일이시죠...?\n...네? 별장 하우스 셰어요...?\n으음... 정말 제가 해도 될까요?\n일단 상대분과\n직접 얘기를 해보고 싶어요\n지금 바로 그쪽으로 갈게요, !",
      "TWzh": "你好，我是(resident name)，\n請問有什麼事嗎……？\n咦……？和其他人同住別墅……？\n那個……你真的要邀請我嗎？\n總之，我想先親自和對方聊聊，\n我馬上就過去拜訪你，。",
      "USen": "Yes, this is (resident name).\nSomeone wants to share a vacation\nhome? I guess I can at least meet\nwith them, !",
      "USes": "Holita, habla (resident name).\n¿Dices que alguien está dispuesto\na compartir su casa de vacaciones\nconmigo?\n¡Chispitas! Aunque primero\ndeberíamos conocernos para\nsaber si somos compatibles.",
      "USfr": "Oui, c'est (nom du résident) à l'appareil.\nQuelqu'un veut partager une\nmaison?\nEh bien j'imagine que je pourrais au\nmoins rencontrer cette personne!"
    }
  },
  {
    "label": "202",
    "attribute": "0x0000000000001300",
    "locale": {
      "CNzh": "",
      "EUde": "",
      "EUen": "",
      "EUes": "",
      "EUfr": "",
      "EUit": "",
      "EUnl": "",
      "EUru": "",
      "JPja": "",
      "KRko": "",
      "TWzh": "",
      "USen": "",
      "USes": "",
      "USfr": ""
    }
  },
  {
    "label": "202_01",
    "attribute": "0x0000000000001300",
    "locale": {
      "CNzh": "喂，我是(resident name)。\n请问有什么事吗……\n这样啊，\n原来是有人想要合住啊。\n可是我现在已经有合住室友了，\n暂时也不考虑更换室友。\n很抱歉帮不上你的忙。。",
      "EUde": "Hallo, hier spricht (Einwohnername)!\nJemand sucht eine Mitbewohnerin?\nAlso, ich wohne schon mit jemandem\nzusammen und das klappt prima!\nTut mir leid, dass ich nicht helfen\nkonnte. Es findet sich hoffentlich\nschnell jemand anders, (Floskel)!",
      "EUen": "Hi, this is (resident name)!\nSomeone's looking for a roommate?\nWell, the thing is, I already have one,\nand we're getting along great.\nSorry I can't be of help. I hope they\nfind someone soon, !",
      "EUes": "¡Hola, hola, aquí (resident name)!\n¿Así que alguien está buscando\ncompa? Lo siento, flor, pero yo\nya tengo.\nLamento no poder serte de ayuda.\nEspero que encontréis a alguien,\n.",
      "EUfr": "(nom du résident) j'écoute ! On recherche un colocataire ?\nL'ennui, c'est que je suis déjà en\ncolocation, et que ça se passe\nà merveille.\nAlors désolée, mais là, je ne peux\nrien faire, . J'espère que tu trouveras bientôt !",
      "EUit": "Salve, parla (resident name)!\nCerca una coinquilina? Io però ho\ngià qualcuno, e sto bene così.\nNon posso aiutarti, !",
      "EUnl": "Hoi, met (resident name)!\nIemand zoekt een huisgenoot? Nou,\nik heb eigenlijk al een huisgenoot\nmet wie ik heel goed kan opschieten.\nHelaas kan ik je niet helpen. Wens diegene maar veel succes, .",
      "EUru": "Алло, (resident name). А, привет!\nКто-то ищет соседа? Ой, а у меня\nуже есть и мы отлично ладим!\nИзвини. Надеюсь, подходящий\nсосед найдется! !",
      "JPja": "もしもし、(resident name)です\nどういった　ご用件でしょうか・・・\nなるほど、別荘のシェア希望のかたが\nいらっしゃるんですね\nでも　わたしは　今ハウスシェアしていますし\n相手を変えることも　考えていないんです\nお役に立てず　すみません、",
      "KRko": "여보세요, (resident name)입니다\n무슨 용건이신가요...?\n아～ 별장을 셰어하고 싶다는 분이\n계시다는 말씀이군요\n하지만 전 지금 셰어를 하고 있고\n상대를 바꾸고 싶다는 생각도 안 해봐서요...\n도움을 못 드려서 죄송해요, ",
      "TWzh": "喂～我是(resident name)。\n請問找我有什麼事嗎……？\n原來如此，\n有人在徵求同住對象啊。\n可是我已經有同住的室友了，\n目前也沒打算更改同住對象。\n很抱歉無法幫上你的忙，。",
      "USen": "Hi, this is (resident name)!\nSomeone's looking for a roommate?\nWell, the thing is, I already have one,\nand we're getting along great.\nSorry I can't be of help. I hope they\nfind someone soon, !",
      "USes": "¡Hola, habla (resident name)!\n¿Quieres ver si puedo compartir casa\ncon alguien? Lo siento, flor, pero ya\ncomparto casa.\nLamento no estar disponible.\nEspero que encuentres a alguien,\n(catchphrase).",
      "USfr": "(nom du résident) j'écoute! On recherche un colocataire?\nL'ennui, c'est que je suis déjà en\ncolocation, et que ça se passe\nà merveille.\nAlors désolée, mais là, je ne peux\nrien faire, . J'espère que tu trouveras bientôt!"
    }
  },
  {
    "label": "202_02",
    "attribute": "0x0000000000001300",
    "locale": {
      "CNzh": "你好，我是(resident name)。\n……哦，是关于合住别墅的事啊？\n不过我现在已经\n有合住对象了，很抱歉。\n我不能接受你的邀请。。",
      "EUde": "Du sprichst mit (Einwohnername).\nEs wird eine Mitbewohnerin gesucht?\nTut mir leid, ich teile mir schon eine\nUnterkunft mit jemandem.",
      "EUen": "This is (resident name) speaking.\nYou're trying to find someone a\nroommate? Sorry, but I'm already\nstaying with someone, .",
      "EUes": "¿Dígame? Aquí (resident name).\n¿Si me interesa tener compañía?\nEl caso es que ya paso las\nvacaciones con alguien, flor.\nY nos llevamos muy bien.\nLo siento de veras, .",
      "EUfr": "(nom du résident) à l'appareil.\nTu cherches un colocataire pour\nquelqu'un ? J'habite déjà en\ncolocation, . Désolée...",
      "EUit": "Qui parla (resident name).\nStai cercando coinquilini per i tuoi\nclienti? Mi spiace, ma io ho già\nqualcuno con moi, .",
      "EUnl": "Je spreekt met (resident name).\nJe bent op zoek naar een huisgenoot\nvoor iemand? Sorry, ik deel mijn\nvakantiehuis al, .",
      "EUru": "Говори, это (resident name).\nПытаешь найти соседа? Ах, извини,\nмне уже не надо. .",
      "JPja": "はい　(resident name)です\n・・・あら、別荘をシェアするお話ですか？\nわたしには　もう別荘をシェアしているかたが\nいらっしゃいますので、ごめんなさい\nそのお話は　お受けできないです、",
      "KRko": "네, (resident name)입니다\n...어머, 별장을 셰어할 의향이 있냐구요?\n어쩌죠, 저는 이미\n함께 지내는 분이 계셔서요... 죄송해요\n그 제안은 못 받아들일 것 같아요, ",
      "TWzh": "你好，我是(resident name)。\n哎呀……要邀請我同住別墅嗎？\n不過我已經有同住別墅的對象了。\n很抱歉，我沒辦法接受你的邀請，。",
      "USen": "This is (resident name) speaking.\nYou're trying to find someone a\nroommate? Sorry, but I'm already\nstaying with someone, .",
      "USes": "¿Sí, diga? Habla (resident name).\n¿Si me interesa compartir casa?\nUy, es que ya estoy pasando las\nvacaciones con alguien, calabacita.\nY nos llevamos muy bien.\nLo siento, (catchphrase).",
      "USfr": "(nom du résident) à l'appareil.\nTu cherches un colocataire pour\nquelqu'un? J'habite déjà en\ncolocation, . Désolée..."
    }
  },
  {
    "label": "202_03",
    "attribute": "0x0000000000001300",
    "locale": {
      "CNzh": "喂，你好，我是(resident name)！\n唔……请问找我有什么事吗？\n……这样啊，\n你是在找愿意合住的人啊？\n我已经有合住的室友了，\n所以很抱歉帮不上你的忙……\n愿你能找到好室友！。",
      "EUde": "Hallo? (Einwohnername) am Apparat.\nOh, man sucht eine Mitbewohnerin\nfür ein Ferienhaus? Tut mir leid, aber\nich bin schon vergeben.",
      "EUen": "Hello? This is (resident name).\nOh, you're looking for someone to\nshare a vacation home? I'm so sorry,\nbut I already have a roommate.",
      "EUes": "¿Hola? Soy (resident name).\nAh, ¿estás buscando a alguien\nque quiera compartir una casa\nde vacaciones?\nQué amable por tu parte, bichín,\npero lo cierto es que yo ya estoy\nacompañada. Lo siento...",
      "EUfr": "Allô ? (nom du résident) à l'appareil.\nOh, tu cherches quelqu'un pour\npartager une villa ? Je suis navrée,\nmais j'habite déjà en colocation.",
      "EUit": "Pronto? Parla (resident name).\nOh, cerchi un potenziale coinquilino\nper qualcuno? Mi spiace, io sto già\ncondividendo il pied-à-terre.",
      "EUnl": "Hallo? (resident name) hier.\nO, je zoekt iemand die een vakantie-\nhuisje wil delen? Sorry, maar ik heb\nal een huisgenoot.",
      "EUru": "Алло-алло? Это (resident name).\nА, ты ищешь кого-то, чтобы на дачу\nподселить? Жаль тебе отказывать,\nно у меня уже есть сосед.",
      "JPja": "はい　もしもし　(resident name)です！\nえっと・・・　ご用件は　なんでしょうか？\n・・・なるほど、別荘をシェアする\nお相手を　探していらっしゃるんですね？\nわたしには　ハウスシェアしているかたが\nいますので　お力にはなれませんけど・・・\nいいヒトが　見つかりますように！　",
      "KRko": "네, 여보세요? (resident name)입니다!\n저기... 무슨 일이신가요?\n...아하, 별장을 셰어할\n상대를 찾고 계신 거군요?\n저는 이미 하우스 셰어를 하고 있는 분이\n계셔서 도움을 드릴 순 없지만...\n좋은 분을 찾길 바랄게요! !",
      "TWzh": "喂～你好，我是(resident name)！\n請問……找我有什麼事嗎？\n原來如此……\n你在找願意同住別墅的對象呀？\n不過我已經有同住的室友了，\n所以無法幫上你的忙……\n希望你能找到其他合適的人選！。",
      "USen": "Hello? This is (resident name).\nOh, you're looking for someone to\nshare a vacation home? I'm so sorry,\nbut I already have a roommate.",
      "USes": "¿Holita? Soy (resident name).\nAh, ¿estás buscando a alguien\nque quiera compartir una casa\nde vacaciones?\nQué amable que pienses en mí,\nlechuguita, pero es que yo ya\ncomparto casa. Lo siento...",
      "USfr": "Allô? (nom du résident) à l'appareil.\nOh, tu cherches quelqu'un pour\npartager une maison? Je suis navrée,\nmais j'habite déjà en colocation."
    }
  },
  {
    "label": "202_04",
    "attribute": "0x0000000000001300",
    "locale": {
      "CNzh": "你好，我是(resident name)。\n找我有什么事吗……？\n……你在找愿意合住的人啊～\n原来是这样！\n不过很抱歉，\n我已经有合住室友了。\n希望你可以找到合适的人。。",
      "EUde": "(Einwohnername) hier!\nEs wird eine Mitbewohnerin gesucht?\nIch bin schon vergeben, aber ich\ndrück dir die Daumen bei der Suche!",
      "EUen": "(resident name) speaking.\nSomeone's looking for a roommate?\nWell, I already have one, but I really\nhope you can find someone soon!",
      "EUes": "Al habla (resident name).\n¿Alguien está buscando compa?\nPues yo ya tengo, así que\nno puedo serte de ayuda.\nEspero que encontréis\na alguien pronto.",
      "EUfr": "(nom du résident) à l'appareil.\nQuelqu'un veut vivre en colocation ?\nC'est déjà mon cas, mais j'espère\nque tu trouveras rapidement !",
      "EUit": "Parli con (resident name).\nE cerca un coinquilino? Io abito\ngià con qualcuno. Bonne chance!",
      "EUnl": "Met (resident name).\nIemand is op zoek naar een huis-\ngenoot? Dan wens ik je veel succes,\nwant ik heb al een huisgenoot!",
      "EUru": "На проводе (resident name).\nТы ищешь кому-то соседа?\nНадеюсь, ты справишься! А у меня\nсосед уже есть.",
      "JPja": "はい　(resident name)ですけど\nなんでしょうか・・・？\n・・・別荘をハウスシェアする相手を\nお探しなんですか～　なるほどです！\nすみません、わたしはもう\nハウスシェアしているので　無理なんですけど\nお相手が見つかると　いいですね、",
      "KRko": "네, (resident name)입니다만\n무슨 일이시죠...?\n...별장을 셰어할 상대를\n찾고 있으시다구요～? 그렇군요!\n죄송하지만 전 이미\n하우스 셰어를 하고 있어서 어려울 것 같아요\n좋은 분을 찾으시길 바랄게요, !",
      "TWzh": "你好，我是(resident name)。\n請問有什麼事嗎……？\n嗯……你在找別墅的同住對象呀～\n原來是這樣！\n不過真不好意思，我已經有同住的室友了，\n所以沒辦法答應你。\n希望你能找到適合的人選，。",
      "USen": "(resident name) speaking.\nSomeone's looking for a roommate?\nWell, I already have one, but I really\nhope you can find someone soon!",
      "USes": "Habla (resident name).\n¿Alguien quiere compartir casa?\nPues yo ya lo hago, así que no\npuedo ayudar en esta ocasión.\nEspero que encuentres a alguien\npronto, (catchphrase).",
      "USfr": "(nom du résident) à l'appareil.\nQuelqu'un veut vivre en colocation?\nC'est déjà mon cas, mais j'espère\nque tu trouveras rapidement!"
    }
  },
  {
    "label": "203",
    "attribute": "0x0000000000001300",
    "locale": {
      "CNzh": "你好，是啊？\n呵呵呵，今天找我有什么事吗？\n哎呀，原来是有人\n想要找合住的室友，\n所以就来问问我……\n我也有些憧憬\n合住生活呢～\n请让我和这位先见个面吧。。",
      "EUde": "Wie geht es dir, (Spitzname)?\nDu suchst einen Mitbewohner für ein\nFerienhaus? So ein Glück! Das wollte\nich schon immer mal ausprobieren!\nTreffen wir uns doch gleich einmal!\nDanke, dass du an mich gedacht\nhast, (Floskel).",
      "EUen": "How's it going, (nickname)?\nSomeone's looking for a roommate to\nshare their vacation home? What\nluck! I've always wanted a roommate!\nI'll come meet them. Thanks for\nthinking of me, !",
      "EUes": "¿Qué tal todo, ?\n¿Cómo? ¿Que alguien busca\ncompañía para compartir\nuna casa de vacaciones?\n¡Qué suerte la mía! Siempre\nhe querido vivir con alguien.\nIré enseguida para que podamos\nconocernos. ¡Gracias por haber\npensado en mí, !",
      "EUfr": "Comment vas-tu, (surnom) ?\nTu connais quelqu'un qui désire\npartager sa maison de vacances ?\nQuelle aubaine, , j'ai toujours voulu essayer la colocation !\nMerci d'avoir pensé à moi, j'arrive\npour rencontrer cette personne !",
      "EUit": "Tutto bene, (nickname)?\nAh, conosci qualcuno che cerca una\ncoinquilina? Va benissimo! Vengo\nlì, merci, !",
      "EUnl": "Hoe gaat het, (nickname)?\nJe zoekt iemand die een vakantie-\nhuisje wil delen? Dat komt goed uit!\nIk wil al heel lang een huisgenootje!\nIk kom meteen kennismaken. Lief dat\nje aan me dacht, !",
      "EUru": "О, (nickname)! Как дела?\nКто-то ищет на дачу соседа? Какое\nсовпадение! Я как раз давно хочу!\nЯ скоро буду. Спасибо за\nпредложение. !",
      "JPja": "もしもし、？\nうふふ、今日は　どのようなご用件ですか？\nまあ、別荘のハウスシェアを\n希望されているかたが　いらっしゃって\nそれで　わたしに・・・\nわたしも　ハウスシェアって\nちょっと　あこがれていたんですよね～\nそのかたと　ぜひお会いしたいです、",
      "KRko": "여보세요, 님?\n우후후, 오늘은 무슨 일이세요?\n어머, 별장을 셰어하고자 하는 분이 계셔서\n저한테 말씀하신 거군요...\n저도 한 번쯤은 하우스 셰어를\n해보고 싶었답니다～\n그분과 꼭 만나보고 싶어요, !",
      "TWzh": "喂～你好……？\n呵呵呵，請問你今天找我有什麼事嗎？\n哎呀，你說有人正在徵求\n願意同住一棟別墅的對象，\n所以這才找上我……\n其實我也有點憧憬同住生活呢～\n請你安排我和對方見個面吧，。",
      "USen": "How's it going, (nickname)?\nSomeone's looking for a roommate to\nshare their vacation home? What\nluck! I've always wanted a roommate!\nI'll come meet them. Thanks for\nthinking of me, !",
      "USes": "¿Cómo te va, ?\n¿Cómo? ¿Que alguien busca\ncompañía para compartir\nuna casa de vacaciones?\n¡Qué felicidad! Siempre quise\nvivir con alguien.\nIré enseguida para que podamos\nconocernos. ¡Gracias por haber\npensado en mí, (catchphrase)!",
      "USfr": "Comment vas-tu, (surnom)?\nTu connais quelqu'un qui désire\npartager sa maison de vacances?\nQuelle aubaine, , j'ai toujours voulu essayer la colocation!\nMerci d'avoir pensé à moi, j'arrive\npour rencontrer cette personne!"
    }
  },
  {
    "label": "204",
    "attribute": "0x0000000000001300",
    "locale": {
      "CNzh": "你好，！\n今天有什么事吗？\n……原来是找我合住别墅啊～\n不好意思，我已经和其他人\n在别墅合住了……\n抱歉，帮不上你的忙。。",
      "EUde": "Hallo, (Spitzname)!\nDu suchst eine Mitbewohnerin für\njemanden? Tut mir leid, aber ich \nbin schon vergeben.\nIch bin mir sicher, dass du bald\njemanden finden wirst, (Floskel).",
      "EUen": "Hey, (nickname)!\nYou're trying to find someone a new\nroommate? I'm so sorry, but I already\nhave a roommate.\nI hope you don't have too much\ntrouble finding someone\nsoon, .",
      "EUes": "¡Hola, !\n¿Le estás buscando compa \na alguien? Oh, lo siento, flor,\npero ya tengo.\nEspero que no os sea muy difícil\nencontrar a alguien, .",
      "EUfr": "(surnom), que me vaut ce plaisir ?\nAh, tu recherches un nouveau\ncolocataire pour quelqu'un ?\nC'est fâcheux, mais j'habite déjà\nen colocation. J'espère que tu\ntrouveras bientôt, .",
      "EUit": "Salut, (nickname)!\nCerchi una nuova coinquilina a nome\ndi un cliente? Io però vivo già avec\nqualcuno.\nSpero che la tua ricerca vada a buon\nfine, .",
      "EUnl": "Hoi, (nickname)!\nJe zoekt een nieuwe huisgenoot voor\niemand? Sorry, maar ik heb al een\nhuisgenootje.\nVeel succes! Ik hoop dat je snel\niemand kunt vinden, .",
      "EUru": "Привет, (nickname)!\nИщешь соседа для кого-то? Ох-ох,\nмне очень жаль, но у меня уже\nесть сосед.\nНадеюсь, ты скоро найдешь\nподходящую кандидатуру!\n.",
      "JPja": "もしもし　！\n今日は　どのような　ご用件ですか？\n・・・別荘のハウスシェア、ですか～\nごめんなさい、わたし　もう別のかたと\n別荘を　シェアしているんですよ・・・\nお力になれず　すみません、",
      "KRko": "여보세요? 님!\n오늘은 어쩐 일이세요?\n...별장 하우스 셰어요～?\n아쉽지만, 전 이미 다른 분과\n별장을 셰어하고 있거든요...\n도움이 못 돼서 죄송해요, ",
      "TWzh": "喂～你好，是啊！\n請問你今天找我有什麼事嗎？\n嗯……你是說跟人同住別墅啊～\n不好意思，其實我已經跟其他人\n同住一棟別墅了……\n對不起，沒能幫上你的忙，。",
      "USen": "Hey, (nickname)!\nYou're trying to find someone a new\nroommate? I'm so sorry, but I already\nhave a roommate.\nI hope you don't have too much\ntrouble finding someone\nsoon, .",
      "USes": "¡Hola, !\n¿Estás buscando a alguien que\nquiera compartir casa? Oh, lo siento,\npero yo ya lo hago.\nEspero que no te sea muy difícil\nencontrar a alguien, (catchphrase).",
      "USfr": "(surnom), que me vaut ce plaisir?\nAh, tu recherches un nouveau\ncolocataire pour quelqu'un?\nC'est fâcheux, mais j'habite déjà\nen colocation. J'espère que tu\ntrouveras bientôt, ."
    }
  }
]