﻿[
  {
    "label": "001",
    "attribute": "0x0000000000000000",
    "locale": {
      "CNzh": "其实啊，我在机缘巧合之下\n得到了。\n不过完全没有机会用到。\n这东西就给你吧！。",
      "EUde": "Hör mal, das hier hab ich letztens in\nirgendeiner Kiste gefunden. Das ist\n.\nKeine Ahnung, wie  in meinen\nBesitz gelangt ist. Aber vielleicht\nkannst du ja was damit anfangen?",
      "EUen": "Hey, I was up in my attic the other\nday and thought of you when I found\nmy .\nI got no need for such things. Sooo...\ngot extra room at your place?",
      "EUes": "Mira, el otro día me encontré\n en el trastero y me acordé de ti.\nA mí no me sirve para nada, así que\nte  regalo.",
      "EUfr": "Tiens, j'ai trouvé cette horreur dans\nma cave et j'ai pensé à toi. C'est...\n ?\nEnfin bref, je me suis dit que tu étais\ndu style à aimer ce genre de choses.\nAllez, prends, c'est de bon cœur.",
      "EUit": "Ehi, l'altro giorno ho trovato\nqualcosa in soffitta che non mi\nserve più.\nÈ .\nNon saprei che farmene, quindi\nho pensato a te. Che ne dici?",
      "EUnl": "Hé, ik vond laatst op zolder  en dacht meteen aan jou.\nEerlijk gezegd heb ik er niets aan.\nHeb jij interesse?",
      "EUru": "Слушай, я нашел кое-что на чердаке\nи сразу подумал про тебя.\nЭто .\nМне совсем ни к чему, честно.\nМожет, тебе пригодится?",
      "JPja": "実は　ひょんなことから\nを\n手に入れたんだが　使う予定もなくてよ\nこれ　オメェにやるよ、",
      "KRko": "나한테 어쩌다가\n이\n생겼는데 딱히 쓸데가 없지 뭐냐!\n이거 너 가져라, !",
      "TWzh": "其實啊，我碰巧得到了\n，\n但我也沒有要用啊！\n這東西就給你好了，。",
      "USen": "Hey, I was up in my attic the other\nday and thought of you when I found\nmy .\nI got no need for such things. Sooo...\ngot extra room at your place?",
      "USes": "Mira, el otro día me encontré\n\nen el ático y me acordé de ti.\nA mí no me sirve para nada, así que\nte  regalo.",
      "USfr": "Tiens, j'ai trouvé cette horreur dans\nma cave et j'ai pensé à toi. C'est...\n?\nEnfin bref, je me suis dit que tu étais\ndu style à aimer ce genre de choses.\nAllez, prends, c'est de bon cœur."
    }
  },
  {
    "label": "002",
    "attribute": "0x0000000000000000",
    "locale": {
      "CNzh": "虽然这么说可能有些突然……\n这个，\n你就收下吧！。",
      "EUde": "He, hättest du Verwendung für\n ?\nIch nämlich nicht. Gra ha ha!",
      "EUen": "Hey, could you use this\nold ?\n'Cause I sure can't. Gahaha!",
      "EUes": "Oye, jovencito, ¿no te interesa  \n ?\n¡Porque a mí est desde luego\nque no! ¡Ja, ja, ja!",
      "EUfr": "Tiens, tu tombes bien ! J'ai  dont j'aimerais me débarrasser.\nMais avant de l'envoyer au recyclage,\nj'ai pensé que ça pourrait peut-être\nt'intéresser. Je suis sympa, non ?",
      "EUit": "Ehi, pensi che potrebbe servirti\n ? A me sicuramente no. AHAHAH!",
      "EUnl": "Hé, heb jij iets aan  ? Want ik kan er dus niks mee. Bwahaha!",
      "EUru": "Слушай, тебе не нужен\n?\nМне уже точно нет. Бу-га-га!",
      "JPja": "いきなりで　アレなんだが・・・\nこの　を\nもらってくれ！　",
      "KRko": "좀 갑작스럽지만...\n이 ,\n너 줄게! !",
      "TWzh": "雖然這麼說有點突然……\n但你就收下\n吧！。",
      "USen": "Hey, could you use this\nold ?\n'Cause I sure can't. Gahaha!",
      "USes": "Oye, jovencito, ¿no te interesa \n ?\n¡Porque a mí desde luego\nque no! ¡Ja, ja, ja!",
      "USfr": "Tiens, tu tombes bien! J'ai  dont j'aimerais me débarrasser.\nMais avant de l'envoyer au recyclage,\nj'ai pensé que ça pourrait peut-être\nt'intéresser. Je suis fin, non?"
    }
  },
  {
    "label": "003",
    "attribute": "0x0000020000000000",
    "locale": {
      "CNzh": "啊，(nickname)！\n你来得正好！\n我替你找到\n了，\n你说过想要这个对吧！。",
      "EUde": "Heda, (Spitzname)! Ich hab schon nach dir gesucht.\nDu wolltest doch  , oder? Tja, rate mal, was ich hier hab.",
      "EUen": "Hey, (nickname)! \nBeen lookin' all over for you.\nRemember how you wanted \n?\nWell, I got one for you!",
      "EUes": "¡Te he estado buscando por todas\npartes, (nickname)!\n¿Recuerdas que querías \n? Bueno, ¡pues tengo algo para ti!",
      "EUfr": "Tiens, (surnom) ! Tu vas être content, je te cherchais. Je voulais te montrer un truc.\nC'est ... T'aimes bien ces machins, non ?\nTiens, c'est cadeau !\nÇa me fait plaisir !",
      "EUit": "Ehilà, (nickname)! Ti stavo\ncercando, per l'appunto.\nRicordi che mi avevi detto che volevi\n?\nBeh, è il tuo giorno fortunato,\nperché io ne ho da dar via!",
      "EUnl": "Hé, (nickname)! Heb ik je eindelijk gevonden.\nWeet je nog dat je op zoek was naar ? Kijk hier eens!",
      "EUru": "О, (nickname)!\nА я тебя как раз искал.\nПомнишь, тебе нужен был\n?\nМогу тебе отдать!",
      "JPja": "あっ、(nickname)！\nちょうど　よかったぜ！\nオメェが　探してるって言ってた\nを\n見つけてきてやったぞ！　",
      "KRko": "어, (nickname)!\n마침 잘 만났다!\n니가 저번에 갖고 싶다고 했던\n을\n내가 구해왔다는 거 아니냐! !",
      "TWzh": "啊，(nickname)！\n我正好要找你啦！\n你說你在找的那個\n，\n我幫你找到了喔！。",
      "USen": "Hey, (nickname)! \nBeen lookin' all over for you.\nRemember how you wanted \n?\nWell, I got one for you!",
      "USes": "¡Te he estado buscando por todas\npartes, (nickname)!\n¿Recuerdas que querías \n? \nBueno, ¡pues tengo algo para ti!",
      "USfr": "Tiens, (surnom)! Tu vas être content, je te cherchais. Je voulais te montrer un truc.\nC'est ... T'aimes bien ces machins, non?\nTiens, c'est cadeau!\nÇa me fait plaisir!"
    }
  },
  {
    "label": "003_a",
    "attribute": "0x0000000000000000",
    "locale": {
      "CNzh": "我没说过呀？",
      "EUde": "So was wollt ich nicht.",
      "EUen": "No, I don't, actually.",
      "EUes": "La verdad es que no...",
      "EUfr": "Non merci.",
      "EUit": "Veramente no.",
      "EUnl": "Dat was ik niet...",
      "EUru": "Нет, мне не надо.",
      "JPja": "言ってないけど？",
      "KRko": "그런 적 없는데?",
      "TWzh": "我沒說過啊？",
      "USen": "No, I don't, actually.",
      "USes": "La verdad es que no...",
      "USfr": "Non merci."
    }
  },
  {
    "label": "003_b",
    "attribute": "0x0000000000000000",
    "locale": {
      "CNzh": "你是指什么？",
      "EUde": "Worum geht's genau?",
      "EUen": "What's this again?",
      "EUes": "A ver...",
      "EUfr": "De quoi ?",
      "EUit": "Di che parli?",
      "EUnl": "Wat is dit nou?",
      "EUru": "Что это, говоришь?",
      "JPja": "なんのこと？",
      "KRko": "무슨 소리야?",
      "TWzh": "你在說什麼？",
      "USen": "What's this again?",
      "USes": "A ver...",
      "USfr": "De quoi?"
    }
  },
  {
    "label": "004",
    "attribute": "0x0000000000000000",
    "locale": {
      "CNzh": "啊，是(nickname)啊。\n其实是这样，我啊……\n本来手上已经有了，结果阴错阳差，\n看到的时候\n又买了一个。\n我还在思考应该怎么办呢。\n现在正好，这个就给你了！",
      "EUde": "Oh, hallo, (Spitzname).\nVielleicht kannst du mir bei einer\nkleinen Sache behilflich sein...\nDie Sache ist die, ich hatte\neigentlich schon \n...\nAber ich Trottel hab's vergessen\nund mir  gekauft! Kann\nich dir  aufschwätzen?",
      "EUen": "Oh, hey, (nickname).\nMaybe you can answer me this...\nY'see, I already had \n...\nBut I just plumb forgot when I was\nshoppin' and, well... How'd you like\n?",
      "EUes": "Mira lo que me ha pasado, (nickname)...\nResulta que ya tenía , pero no me acordaba. ¡Y me compré !\n¿Tú no querrías ?\n¡De gratis!",
      "EUfr": "Tiens, mon p'tit (surnom). Tu vas peut-être pouvoir m'aider sur ce coup.\nImaginons que j'aimerais bazarder\n...\n... et que je cherche une âme créd...\ncharitable pour m'en débarrasser...\nEst-ce que tu penses avoir assez de\ncœur pour me rendre ce service ?",
      "EUit": "Oh, ehi, (nickname). Forse ho qualcosa per te... Vedi, avevo già ...\n... ma me ne sono scordato e ne ho\ncomprato un doppione! Se vuoi, ti\ncedo volentieri  più vecchi!",
      "EUnl": "O! Hoi, (nickname). Misschien kun jij me hiermee helpen...\nWeet je, ik had al ...\n...maar nou heb ik per ongeluk \nnieuwe gekocht! Wil jij mijn oude\n hebben?",
      "EUru": "О, (nickname).\nУ меня к тебе вопрос...\n\nу меня уже был...\nНо я совсем забыл и купил снова!...\nНе хочешь забрать у меня\n?",
      "JPja": "あ、(nickname)か\nいや　オレな・・・\nもうすでに持ってるのに　間違えて、\nまた　を\n買っちまったんだよな\nどうしようかと　考えてたんだが\nちょうど良かった、これ　オメェにやるよ！",
      "KRko": "어, (nickname)!\n아니, 내가 말이야...\n이미 갖고 있는 건데\n을\n또 사버렸지 뭐냐\n어떻게 할까 했는데 마침 잘됐다\n이거 너 가져라!",
      "TWzh": "啊，是(nickname)啊。\n沒有啦，我啊……\n明明自己就已經\n有了，\n但我記錯了，又不小心買下來啦。\n我本來還想說要怎麼辦，\n你來得正好，這東西就送你吧！",
      "USen": "Oh, hey, (nickname).\nMaybe you can answer me this...\nY'see, I already had \n...\nBut I just plumb forgot when I was\nshoppin' and, well... How'd you like\n?",
      "USes": "Mira lo que me pasó, (nickname)...\nResulta que ya tenía , pero no me acordaba. ¡Y fui y compré !\n¿Tú no quieres ?\n¡Es gratis!",
      "USfr": "Tiens, mon p'tit (surnom). Tu vas peut-être pouvoir m'aider pour une fois.\nImaginons que j'aimerais me défaire\n...\n... et que je cherche une âme créd...\ncharitable pour m'en débarrasser...\nEst-ce que tu penses avoir le cœur\nassez grand pour me rendre\nce service?"
    }
  },
  {
    "label": "100",
    "attribute": "0x0000000000000000",
    "locale": {
      "CNzh": "如果你喜欢的话，记得用用看啊！。",
      "EUde": "Mach damit, was du willst. Solange\ndas Ding jetzt bei dir rumsteht und\nnicht mehr bei mir! Gra ha ha!",
      "EUen": "Go on and do whatever you want\nwith it. Paint it purple and toss it\nin the sea for all I care! Gahaha!",
      "EUes": "Haz con esa joya lo que mejor te\nparezca.\nComo si la pintas de verde fosforito\ny la tiras al mar, ¡ja, ja, ja!",
      "EUfr": "Fais-en ce que tu veux, des confettis,\npar exemple ! T'es vraiment capable\nde t'extasier d'un rien !",
      "EUit": "Puoi farne ciò che vuoi. Anche non\nfarne niente! AHAHAH!",
      "EUnl": "Doe er mee wat je wil. Al gooi je  in zee, het maakt me niks uit! Bwahaha!",
      "EUru": "Можешь теперь делать, что хочешь.\nХоть упаковать да подарить кому!\nМеня не волнует! Бу-га-га!",
      "JPja": "気に入ったら　使ってみてくんな！　",
      "KRko": "마음에 들면 한번 써봐! !",
      "TWzh": "喜歡的話，就拿去用用看吧！。",
      "USen": "Go on and do whatever you want\nwith it. Paint it purple and toss it\nin the sea for all I care! Gahaha!",
      "USes": "Puedes hacer lo que quieras\ncon este regalito.\nNo te reclamaré si decides pintarlo de verde fosforescente y tirarlo\nal mar, ¡ja, ja, ja!",
      "USfr": "Fais-en ce que tu veux, des confettis,\npar exemple! T'es vraiment capable\nde t'extasier d'un rien!"
    }
  },
  {
    "label": "101",
    "attribute": "0x0000000000000000",
    "locale": {
      "CNzh": "这个，\n以后就随你喜欢啦！。",
      "EUde": "Gut, dann gehört das Teil jetzt dir.\nKeine Reklamationen gestattet,\n(Floskel)!",
      "EUen": "Alright, it's yours now!\nDo whatever you like with it.",
      "EUes": "Pues nada, ¡para ti para siempre!\nDale el uso que te parezca más\nconveniente.",
      "EUfr": "Et voilà, c'est à toi, mon bon (surnom) !",
      "EUit": "Ora appartiene a te! Puoi farne ciò\nche vuoi.",
      "EUnl": "Dan ben jij nou de trotse nieuwe\neigenaar! Veel plezier ermee.",
      "EUru": "Распоряжайся теперь, как хочешь!",
      "JPja": "あとは　オメェの好きなように\nしてくれたら　いいぜ！　",
      "KRko": "이제 그건 니꺼니까\n니 맘대로 해도 돼! !",
      "TWzh": "之後就隨你高興，\n要怎麼處置都行啦！。",
      "USen": "Alright, it's yours now!\nDo whatever you like with it.",
      "USes": "Bueno, ¡pues es !\n para lo que quieras.",
      "USfr": "Et voilà, c'est à toi, mon bon (surnom)!"
    }
  },
  {
    "label": "200",
    "attribute": "0x0000000000000000",
    "locale": {
      "CNzh": "虽然是我用过的，不过基本跟全新的差不多。\n你不需要担心啦，啊哈哈哈！",
      "EUde": "Das Ding ist schon älter, aber sieht\naus wie am ersten Tag. Viel Spaß\ndamit!",
      "EUen": "I've had it sittin' around for a while,\nbut it's barely used. Enjoy!",
      "EUes": "No hacía más que juntar polvo ahí,\npero está casi sin usar. ¡Espero que\nte guste!",
      "EUfr": "Regarde-moi cette belle couche de\npoussière qu'il y a dessus...\nC'est bien la preuve que cette petite\nmerveille n'a subi quasiment aucune\nusure !",
      "EUit": "Ce l'avevo da un po', ma non so\nche farmene. Divertiti!",
      "EUnl": "Ik heb tijden niks gedaan met  , maar er is niks mis mee. Veel plezier!",
      "EUru": "Раз мне не нужно — зачем в доме\nдержать, верно? Дарю!",
      "JPja": "オレのお古なんだが　新品同様だから\n心配いらねぇぜ、がーっはっは！",
      "KRko": "내가 쓰던 거지만 거의 새거니까\n걱정할 거 없어! 으－하하핫!",
      "TWzh": "雖然是我用過的東西，但就跟新的一樣，\n你不用擔心啦，哇～哈哈！",
      "USen": "I've had it sittin' around for a while,\nbut it's barely used. Enjoy!",
      "USes": "Nada más estaba acumulando polvo,\npero está casi sin usar. ¡Espero que\nte guste!",
      "USfr": "Regarde-moi cette belle couche de\npoussière qu'il y a dessus...\nC'est bien la preuve que cette petite\nmerveille n'a subi quasiment aucune\nusure!"
    }
  },
  {
    "label": "201",
    "attribute": "0x0000000000000000",
    "locale": {
      "CNzh": "我跟你关系这么好，\n不需要客气！。",
      "EUde": "Bitte fall mir jetzt nicht um den Hals\noder so. Für das Ding gab's nur zwei\nOptionen: du oder die Müllhalde.",
      "EUen": "No big whoop. Friends can give\neach other random items without\nmakin' a big deal out of it, right?",
      "EUes": "Nada, nada. Para eso están los\namigos, ¿no? Regalar cosas de vez\nen cuando tampoco es para tanto.",
      "EUfr": "Ne me remercie pas. À quoi bon être\namis si je ne peux pas en profiter\npour te refiler mes vieilleries ?",
      "EUit": "Non devi ringraziarmi. Gli amici\nsi scambiano volentieri le cose,\nnon credi anche tu?",
      "EUnl": "Het stelt niks voor. Vrienden kunnen\nelkaar toch wel iets geven zonder er\neen reden voor te hebben?",
      "EUru": "Друзья могут меняться вещами,\nкогда захотят. В этом же нет\nничего особенного, правда?",
      "JPja": "オレとオメェの仲だ、\nエンリョは　いらねぇぜ！　",
      "KRko": "우리 사이는 각별하니까\n괜히 사양할 거 없어! !",
      "TWzh": "憑我跟你的交情，\n你不用跟我客氣啦！。",
      "USen": "No big whoop. Friends can give\neach other random items without\nmakin' a big deal out of it, right?",
      "USes": "Nada, nada. Para eso están los\namigos, ¿no? Regalar cosas de vez\nen cuando tampoco es para tanto.",
      "USfr": "Ne me remercie pas. À quoi bon être\namis si je ne peux pas en profiter\npour te refiler mes vieilleries?"
    }
  },
  {
    "label": "202",
    "attribute": "0x0000000000000000",
    "locale": {
      "CNzh": "这可不是什么强制推销诈骗啦，\n不必担心！啊哈哈哈！",
      "EUde": "Nein, das ist keine Masche. Einfach\nnur altmodische Großzügigkeit.\nGra ha ha!",
      "EUen": "This isn't a trick. Go on, take it!\nYou aren't on camera! Gahaha!",
      "EUes": "Que no, que no hay trampa. ¡Acepta\nel regalo! ¡Y tampoco hay cámara\noculta! ¡Ja, ja, ja!",
      "EUfr": "Promis, ce n'est pas une caméra\ncachée. De toute façon, t'es pas\nassez télégénique pour ça, ha ha ha !",
      "EUit": "Non è uno scherzo. Prendi, non\nti preoccupare! Non sei mica\nin televisione! AHAHAH!",
      "EUnl": "Het is geen grap. Kom op, neem mijn\ncadeau aan! Je wordt niet gefilmd! \nBwahaha!",
      "EUru": "Я серьезно. Бери, не стесняйся!\nЭто не розыгрыш! Бу-га-га!",
      "JPja": "押しつけサギ　とかじゃねぇから\n心配無用だ、がーっはっは！",
      "KRko": "사기 같은 거 아니니까\n걱정 말라고! 으－하하핫!",
      "TWzh": "這不是什麼強迫推銷啦，\n你不用擔心，哇～哈哈！",
      "USen": "This isn't a trick. Go on, take it!\nYou aren't on camera! Gahaha!",
      "USes": "Que no, que no hay trampa. ¡Acepta\nel regalo! ¡Y tampoco hay cámara\noculta! ¡Ja, ja, ja!",
      "USfr": "Promis, y'a pas une caméra\ncachée. De toute façon, t'es pas\nassez photogénique pour ça!"
    }
  },
  {
    "label": "300",
    "attribute": "0x0000000000000000",
    "locale": {
      "CNzh": "哎呀？！\n是我听错了吗……？\n哎，那种小事情不用在意啦！\n别客气了，你就收下吧！",
      "EUde": "Dann hast du das nie gesagt?\n(Floskel)! Gehirn, schon\nwieder lässt du mich im Stich!\nNa, egal. Du kannst das Ding\ntrotzdem gerne haben.",
      "EUen": "You didn't tell me you wanted one\nof these? (catchphrase)! \nC'mon, brain! I'm countin' on you!\nOh, well. Take it anyway!",
      "EUes": "Pero ¿no me habías dicho que\nquerías algo así? ¡Venga,\nno me hagas un feo!\nBueno, ¡aquí se queda de todos\nmodos!",
      "EUfr": "Comment ça ?! Tu veux dire qu'on\nm'a raconté des bobards ? Tu sais\nquoi ? On va se venger !\nVoilà le plan... Tu vas accepter\nce cadeau comme s'il te faisait\nplaisir et ils seront bien feintés !",
      "EUit": "Ma come! Davvero non mi avevi mai\ndetto di volere una cosa del genere?\nForse è il mio cervello che mi fa\ndegli scherzi. Ora rido per farlo\ncontento. AHAHAH!\nNo, comunque adesso prendi, dai.",
      "EUnl": "Dat heb je nooit gezegd? (catchphrase)! Geheugen, kom op! Ik reken op je!\nTja. Hopelijk heb je er toch wat aan!",
      "EUru": "Говоришь, не было такого?\n(catchphrase)! Как же так?!\nЯ на тебя рассчитывал.\nВсе равно бери!",
      "JPja": "ありゃ？！\nオレの　聞き間違いか・・・？\nま、細けぇことは　いいじゃねぇか！\nエンリョせず　もらってくれよ！",
      "KRko": "어이쿠!\n내가 잘못 들었나...?\n뭐 그런 사소한 건 됐어!\n사양하지 말고 받아 가!",
      "TWzh": "啊呀！？\n是我聽錯了嗎……？\n算了，別管這種雞毛蒜皮的小事啦！\n別客氣，你就收下吧！",
      "USen": "You didn't tell me you wanted one\nof these? (catchphrase)! \nC'mon, brain! I'm countin' on you!\nOh, well. Take it anyway!",
      "USes": "Pero ¿no me habías dicho que\nquerías algo así? ¡Anda,\nno me hagas el feo!\nBueno, ¡aquí se queda de todos\nmodos!",
      "USfr": "Comment ça?! Tu veux dire qu'on\nm'a raconté des menteries? Tu sais\nquoi? On va se venger!\nVoilà le plan... Tu vas accepter\nce cadeau comme s'il te faisait\nplaisir et on n'en parle plus!"
    }
  },
  {
    "label": "301",
    "attribute": "0x0000000000000000",
    "locale": {
      "CNzh": "哎，你就别多说了。\n老老实实收下就好啦！",
      "EUde": "Jetzt diskutier nicht rum, sondern\nnimm das Ding einfach. Schon gut,\nich erwarte keine Gegenleistungen!",
      "EUen": "Bah! Stop all your grumblin' and\njust take it. It's fine!",
      "EUes": "Hay que ver cómo sois los jóvenes...\nVenga, deja de protestar y acepta\nel regalo. ¡Si es genial!",
      "EUfr": "Fais pas ton timide, je sais que\ntu en meurs d'envie !",
      "EUit": "Uffa! Smettila di farla tanto lunga\ne prendi ciò che ti do. È OK così!",
      "EUnl": "Bah! Hou op met mopperen\nen neem mijn cadeautje aan. \nHet stelt niks voor!",
      "EUru": "Фу! Ну что ты еще раздумываешь?!\nДают — бери, бьют — беги!",
      "JPja": "まあ、四の五の言わず、\n受け取ってくれりゃ　いいんだよ！",
      "KRko": "괜찮아, 잔말 말고\n그냥 받아주면 돼!",
      "TWzh": "哎，別跟我說這麼多，\n你收下就是了啦！",
      "USen": "Bah! Stop all your grumblin' and\njust take it. It's fine!",
      "USes": "Típico de esta juventud...\nAnda, deja de protestar y\nacepta el regalo. ¡Si está genial!",
      "USfr": "Fais pas ton timide, je sais que\ntu en meurs d'envie!"
    }
  },
  {
    "label": "302",
    "attribute": "0x0000000000000000",
    "locale": {
      "CNzh": "哎呀～做了好事之后，\n真是心情舒畅啊！啊哈哈哈！",
      "EUde": "Und damit hätte ich meine gute\nTat für den  erledigt.\nGra ha ha!",
      "EUen": "And that's my good deed for the\nmonth. Gahaha!",
      "EUes": "Hala, ya he cumplido con mi buena\nobra del mes. ¡Ja, ja, ja!",
      "EUfr": "Et qu'on ne vienne plus jamais\nme dire que je ne sais pas être\ngentil ! Ha ha ha !",
      "EUit": "Mitico, ora la mia buona azione del\nmese è fatta. AHAHAH!",
      "EUnl": "En dat was mijn goede daad van\ndeze maand. Bwahaha!",
      "EUru": "Все, план по хорошим делам на этот\nмесяц выполнен. Бу-га-га!",
      "JPja": "いやぁー、いいコトすると\n気分がいいぜ、がーっはっは！",
      "KRko": "이야～ 착한 일을 하니까\n기분이 상쾌한걸! 으－하하핫!",
      "TWzh": "哎呀～做了好事之後\n心情真好啊，哇～哈哈！",
      "USen": "And that's my good deed for the\nmonth. Gahaha!",
      "USes": "Bueno, pues ya cumplí con mi buena\nobra del mes. ¡Ja, ja, ja!",
      "USfr": "Et qu'on ne vienne plus jamais\nme dire que je ne sais pas être\ngentil! Ha ha ha!"
    }
  },
  {
    "label": "303",
    "attribute": "0x0000000000000000",
    "locale": {
      "CNzh": "这事算是告一段落了！\n啊哈哈哈！",
      "EUde": "Mir reicht's schon, dass der Müll\nnicht mehr bei mir zu Hause\nrumliegt. Gra ha ha!",
      "EUen": "Well, that's that, I suppose. Gahaha!",
      "EUes": "Pues ya está, supongo. ¡Ja, ja, ja!",
      "EUfr": "Du moment que tu es heureux,\nj'imagine que c'est tout ce qui\ncompte. Hé hé !",
      "EUit": "Direi che ci si vede. AHAHAH!",
      "EUnl": "Nou, dan zijn we daar klaar mee,\ngeloof ik. Bwahaha!",
      "EUru": "Вот и все. Бу-га-га!",
      "JPja": "これにて　一件落着だな！\nがーっはっは！",
      "KRko": "이걸로 깔끔하게 해결됐군!\n으－하하핫!",
      "TWzh": "這樣我就了結一樁心事啦！\n哇～哈哈！",
      "USen": "Well, that's that, I suppose. Gahaha!",
      "USes": "Pues ya está, supongo. ¡Ja, ja, ja!",
      "USfr": "Du moment que tu es heureux,\nj'imagine que c'est tout ce qui\ncompte. Hé hé!"
    }
  },
  {
    "label": "400",
    "attribute": "0x0000000000000000",
    "locale": {
      "CNzh": "接下来就随你高兴吧！\n如果不需要的话，\n丢掉也没关系哦！。",
      "EUde": "Ich will dich ja nicht mit Sachen\nvollmüllen, die du nicht gebrauchen\nkannst.\nNotfalls ist Weiterverschenken\nimmer eine Option! Gra ha ha!",
      "EUen": "That's a load off. I hate saddlin' you\nwith stuff you might not want, but...\nregifting's always an option! Gahaha!",
      "EUes": "Lo dicho, dale el uso que te parezca\nmejor, ¿vale? ¡Incluso sirve para\nvolver a regalar, ja, ja, ja!",
      "EUfr": "Ton abnégation t'honore, gamin !\nDes comme toi, on n'en fait plus, et\nc'est dommage pour les comme moi !",
      "EUit": "Facci pure quello che vuoi, OK? \nPuò fungere perfino da regalo\nriciclato! AHAHAH!",
      "EUnl": "Zeg, doe ermee wat je wilt, oké? Je\nkunt dit cadeau zelfs aan iemand\nanders geven! Bwahaha!",
      "EUru": "Как гора с плеч. Извини, что на тебя\nпереложил... Хочешь передари еще\nкому-нибудь! Бу-га-га!",
      "JPja": "オメェの　好きにしてくれ！\nいらなかったら\n処分してくれてもいいからよ！　",
      "KRko": "너 좋을 대로 해!\n필요 없으면\n버려도 상관없어! !",
      "TWzh": "隨你怎麼用吧！\n如果用不到，\n你要扔掉或送人也無所謂啦！。",
      "USen": "That's a load off. I hate saddlin' you\nwith stuff you might not want, but...\nregifting's always an option! Gahaha!",
      "USes": "Bueno, pues dale el uso que\nquieras, ¿sí? ¡Incluso sirve\ncomo regalo, ja, ja, ja!",
      "USfr": "Ton sacrifice t'honore, le jeune!\nDes comme toi, on n'en fait plus, et\nc'est dommage pour les comme moi!"
    }
  }
]