﻿[
  {
    "label": "001",
    "attribute": "0x0000000100000000",
    "locale": {
      "CNzh": "我说啊，(nickname)。\n……哎呀？\n我刚刚要说什么来着，突然给忘记了！\n抱歉抱歉，啊哈哈哈！",
      "EUde": "Heda, (Spitzname)!\nIch, äh... Ich glaube, ich wollt\ndir irgendwas sagen...\nAh, ich hab's!\n...Nein. Schon wieder weg.\nBwa ha ha!",
      "EUen": "Hey there, (nickname)!\nI, uh...I think I had something\nto say just now...\nOh yeah! ...Nope. There it goes\nagain. Gahaha!",
      "EUes": "¡(nickname)! Eh, esto... ¿Qué te iba a decir?\n¡Ah, sí, ya me acuerdo!\nAh, pues vaya, al final no sé lo que\nera... ¡Ja, ja, ja!",
      "EUfr": "Tiens, (surnom).\nTu sais quoi ? Tu tombes bien !\nJe voulais te parler d'un truc.\nAttends que ça me revienne... Ah,\nça y est ! Tu vas rire, mais je me suis\ntrompé de personne. Ha ha ha !",
      "EUit": "Aloha, (nickname)!\nIo, uh... credevo di voler dire\nuna cosa e invece ora...\nOh, sì! ...E invece no. Ci risiamo.\nChe stia invecchiando? AHAHAH!",
      "EUnl": "Hoi, (nickname)! Goh... Ik wilde toch echt iets zeggen...\nO ja! Nee... toch niet. Ik ben het\nweer vergeten. Bwahaha!",
      "EUru": "Привет, (nickname)!\nЭ... О! У меня мысль... Точно!\nНе... Вылетело из головы. Бу-га-га!",
      "JPja": "あのよぉ、(nickname)\n・・・ありゃ？\n何を話そうとしてたか　忘れちまった！\n悪ぃ悪ぃ、がーっはっは！",
      "KRko": "있잖아, (nickname)!\n...으응?\n하려던 말을 잊어버렸네!\n미안, 미안! 으－하하핫!",
      "TWzh": "我說啊，(nickname)\n……奇怪？\n我忘了我要說什麼話了！\n抱歉抱歉，哇～哈哈！",
      "USen": "Hey there, (nickname)!\nI, uh...I think I had something\nto say just now...\nOh yeah! ...Nope. There it goes\nagain. Gahaha!",
      "USes": "¡(nickname)!\nEh, este... ¿Qué te iba a decir?\n¡Ah, sí, ya me acordé!\nAh, pues siempre no, al final no\nrecuerdo qué era... ¡Ja, ja, ja!",
      "USfr": "Tiens, (surnom).\nTu sais quoi? Tu tombes bien!\nJe voulais te parler d'un truc.\nAttends que ça me revienne... Ah,\nça y est! Tu vas rire, mais je me suis\ntrompé de personne. Ha ha ha!"
    }
  },
  {
    "label": "002",
    "attribute": "0x0000000100000000",
    "locale": {
      "CNzh": "喂，(nickname)！\n你啊……咦？\n我刚刚要说什么来着，竟然给忘记了！\n我是不是也年纪大了啊……。",
      "EUde": "Heda, (Spitzname)!\nHör mir doch mal kurz zu...\nHmm... Mein Hirn ist auch nicht\nmehr das, was es mal war. Ich hab\nvergessen, was ich sagen wollte!",
      "EUen": "Hey, (nickname)!\nNow, listen here a minute...\nHmm... Guess the old noodle is\na bit soggy today. I have no idea\nwhat I was going to say!",
      "EUes": "Oye, (nickname), ¿tienes un minuto para este abuelete?\nHmmm... Hoy estoy un poco espeso.\n¡Ya no sé qué quería decirte!",
      "EUfr": "Hé, (surnom) !\nTiens, écoute voir une minute...\nHmm... Faut croire que c'est pas\nmon jour... J'ai complètement oublié\nce dont je voulais te parler !",
      "EUit": "Ehilà, (nickname)!\nSenti qui...\nMmmh... mi sa che il qui presente\ninizia un po' a perdere la memoria.\nChe pacco, ma cosa volevo dire?!",
      "EUnl": "Hé, (nickname)! Luister eens even...\nHmm... Ik ben er niet helemaal\nbij vandaag, geloof ik. Ik heb\ngeen idee wat ik wilde zeggen!",
      "EUru": "Эй, (nickname)!\nСлушай...\nГм... Что-то я сегодня не в форме.\nЗабыл, что хотел сказать!",
      "JPja": "なぁなぁ　(nickname)！\nオメェさぁ・・・　あれ？\n何を言おうとしたのか　忘れちまったぃ！\nオレも　歳かねぇ・・・、",
      "KRko": "이봐, (nickname)!\n너 말야... 엥?\n무슨 말 하려고 했는지 잊어버렸다!\n나이를 먹어서 그런가... !",
      "TWzh": "喂喂！(nickname)！\n你啊……咦？\n我剛剛想要說什麼來著？突然就忘了！\n是年紀大了嗎……。",
      "USen": "Hey, (nickname)!\nNow, listen here a minute...\nHmm... Guess the old noodle is\na bit soggy today. I have no idea\nwhat I was going to say!",
      "USes": "Oye, (nickname),\n¿tienes un minuto para este\npobre abuelo?\nMmm... Hoy traigo la cabeza en\notro lado. ¡Ya no sé qué quería\ndecirte!",
      "USfr": "Hé, (surnom)!\nTiens, écoute voir une minute...\nHmm... Faut croire que c'est pas\nmon jour... J'ai complètement oublié\nce dont je voulais te parler!"
    }
  },
  {
    "label": "003",
    "attribute": "0x0000000100000000",
    "locale": {
      "CNzh": "嗯？！\n我本来好像有什么烦恼，现在竟然给忘记了！\n哎，也罢！啊哈哈哈！",
      "EUde": "Wie bitte? Mit was kann ich dir\nhelfen? Moment mal, ICH wollt\nwas von DIR?\nHm, aber du hast mich doch\nangequatscht... Oder war es\nandersrum? Ach, egal!",
      "EUen": "What's that now? Whaddaya need\nfrom me? Wait, did I need something\nfrom YOU?\nBut you came and talked to me,\nright? Or was it the other way\naround? Gah! Forget about it!",
      "EUes": "¿Y ahora qué pasa? Seguro que\nme vas a pedir algo... ¿O te lo iba\na pedir yo a ti?\nA ver, has venido a hablarme\ntú a mí, ¿no? ¿O al revés?\n¡Bah! Para el caso da igual.",
      "EUfr": "Comment ça ? Tu voulais quelque\nchose ? Attends, tu dis que c'est\nMOI qui suis venu te parler ?\nJe suis certain que c'est toi qui m'as\napproché, pourtant... Ou bien c'était\nl'inverse ? Bah, laisse tomber.",
      "EUit": "E adesso cosa c'è? Che vuoi\nda me? Ah, sono io che ti ho\nrivolto la parola?\nMa sei venuto tu a parlare con me,\nno? O il contrario? Boh, lasciamo\nperdere, che è meglio!",
      "EUnl": "Wat is dat nou? Wat wil je van\nme? Wacht, of wilde ik juist iets\nvan jou?\nMaar jij kwam toch naar mij\ntoe? Of was het andersom? \nJakkes! Laat ook maar!",
      "EUru": "Что еще? Что тебе от меня\nнадо? Стоп, это же мне от тебя\nчто-то надо!\nНо ты же сам ко мне подошел?\nИли наоборот — я к тебе? \nТьфу ты! Да ну его!",
      "JPja": "ん？！\n何について　悩んでたのか　忘れちまったぃ！\nま、いいか！　がーっはっは！",
      "KRko": "응?!\n뭘 고민하고 있었는지 까먹었다!\n뭐, 아무렴 어때! 으－하하핫!",
      "TWzh": "嗯！？\n我忘記我在煩惱什麼事啦！\n算了，沒差！哇～哈哈！",
      "USen": "What's that now? Whaddaya need\nfrom me? Wait, did I need something\nfrom YOU?\nBut you came and talked to me,\nright? Or was it the other way\naround? Gah! Forget about it!",
      "USes": "¿Y ahora qué pasa? Seguro que me\nvas a pedir algo... ¿O era yo el que\nnecesitaba algo?\nA ver, tú viniste a hablarme a mí,\n¿no? ¿O fue al revés?\n¡Bah! De todos modos da igual.",
      "USfr": "Comment ça? Tu voulais quelque\nchose? Attends, tu dis que c'est\nMOI qui suis venu te parler?\nJe suis certain que c'est toi qui m'as\napproché, pourtant... Ou bien c'était\nl'inverse? Bah, laisse tomber."
    }
  },
  {
    "label": "004",
    "attribute": "0x0000000100000000",
    "locale": {
      "CNzh": "嗯？！\n连之前有没有烦恼都记不清了！\n哎，也罢！啊哈哈哈！",
      "EUde": "Oh Mann. Jetzt hab ich komplett\nvergessen, was ich dich fragen\nwollte.\nNa ja, dann war's wohl nicht so\nwichtig.\nUnd wenn doch... Dann kann\nich mich immer noch später\ndrüber aufregen! Gra ha ha!",
      "EUen": "Oh boy. I just completely forgot what\nI was gonna ask you.\nWell, it probably wasn't important.\nAnd if it was... Well, I can always\nget mad about it later! Gahaha!",
      "EUes": "Ay, niño, que se me ha ido lo que\nquería preguntarte.\nBueno, tampoco sería demasiado\nimportante. Y si resulta que lo era...\n¡Ya me enfadaré más tarde!\n¡Ja, ja, ja!",
      "EUfr": "Oh là là... Tu vas pas me croire, mais\nj'ai oublié ce que je voulais te dire.\nBah, ça devait pas être si important...\nPuis si ça l'était... j'aurai toujours\nl'occasion de te rebattre les oreilles\navec ça en temps voulu ! Ha ha ha !",
      "EUit": "Uffa. Ho scordato totalmente cosa\nstavo per chiederti.\nMah, è chiaro che non era\nimportante. E se lo era... Beh,\nnon mi arrabbio mica.\nNon adesso, almeno! Ma magari più\ntardi... AHAHAH!",
      "EUnl": "Drommels. Ik ben helemaal\nvergeten wat ik je wilde vragen.\nHet was vast niet belangrijk. En\nals het dat toch was... dan baal\nik daar later wel van! Bwahaha!",
      "EUru": "Ну вот. Из головы вылетело,\nчто я хотел спросить.\nНаверное, что-то неважное. Или?..\nЛадно, позлиться по этому поводу\nя всегда успею! Бу-га-га!",
      "JPja": "ん？！\n悩んでたのかどうかも　覚えてねぇ！\nま、いいか！　がーっはっは！",
      "KRko": "응?!\n내가 고민했는지 안 했는지도 기억이 안 나!\n뭐, 아무렴 어때! 으－하하핫!",
      "TWzh": "嗯！？\n我連我究竟有沒有在煩惱都忘了！\n算了，沒差！哇～哈哈！",
      "USen": "Oh boy. I just completely forgot what\nI was gonna ask you.\nWell, it probably wasn't important.\nAnd if it was... Well, I can always\nget mad about it later! Gahaha!",
      "USes": "Ay, niño, que se me fue lo que\nte quería preguntar.\nBueno, tampoco era tan importante.\nY si resulta que lo era...\n¡Ya me enfadaré más tarde!\n¡Ja, ja, ja!",
      "USfr": "Oh là là... Tu vas pas me croire, mais\nj'ai oublié ce que je voulais te dire.\nBah, ça devait pas être si important...\nPuis si ça l'était... j'aurai toujours\nl'occasion de t'ennuyer avec\nça en temps voulu! Ha ha ha!"
    }
  }
]