﻿[
  {
    "label": "01_AN",
    "locale": {
      "CNzh": "找到(nickname)啦！",
      "EUde": "Na, (Spitzname)?",
      "EUen": "'Sup, (nickname)!",
      "EUes": "¡(nickname), colegaaa!",
      "EUfr": "Tiens, (surnom) !",
      "EUit": "Come va, (nickname)?",
      "EUnl": "Hoestie, (nickname)?",
      "EUru": "Как дела, (nickname)?",
      "JPja": "(nickname) みっけ！",
      "KRko": "찾았다! (nickname)～!",
      "TWzh": "(nickname)，找到你了！",
      "USen": "'Sup, (nickname)!",
      "USes": "¡(nickname), guapuraza!",
      "USfr": "Tiens, (surnom)!"
    }
  },
  {
    "label": "01_BO",
    "locale": {
      "CNzh": "～！",
      "EUde": "!",
      "EUen": "!",
      "EUes": "¡(nickname)!",
      "EUfr": "(surnom) !",
      "EUit": "Ehi, !",
      "EUnl": "!",
      "EUru": "!",
      "JPja": "！",
      "KRko": "～!",
      "TWzh": "！",
      "USen": "!",
      "USes": "¡(nickname)!",
      "USfr": "(surnom)!"
    }
  },
  {
    "label": "01_FU",
    "locale": {
      "CNzh": "！",
      "EUde": "!",
      "EUen": "!",
      "EUes": "¡Holis, (nickname)!",
      "EUfr": "(surnom) !",
      "EUit": "Ehi, !",
      "EUnl": "!!",
      "EUru": "!",
      "JPja": "！",
      "KRko": "님!",
      "TWzh": "！",
      "USen": "!",
      "USes": "¡Holita, (nickname)!",
      "USfr": "(surnom)!"
    }
  },
  {
    "label": "01_GE",
    "locale": {
      "CNzh": "啊！！",
      "EUde": "Hey! !",
      "EUen": "Hey! It's !",
      "EUes": "¡Holita, (nickname)!",
      "EUfr": "Si c'est pas (surnom) !",
      "EUit": "Ehi! Ma sei !",
      "EUnl": "Hé hoi, !!!",
      "EUru": "Да это же !",
      "JPja": "あ！ ！",
      "KRko": "앗! !",
      "TWzh": "啊！！",
      "USen": "Hey! It's !",
      "USes": "¡Holiii, (nickname)!",
      "USfr": "Hééé! C'est (surnom)!"
    }
  },
  {
    "label": "01_HA",
    "locale": {
      "CNzh": "喂～！(nickname)！",
      "EUde": "Da ist (Spitzname)!",
      "EUen": "What's up, (nickname)!",
      "EUes": "¡Eh, (nickname)!",
      "EUfr": "Salut (surnom) !",
      "EUit": "Come va, (nickname)?",
      "EUnl": "Alles goed, (nickname)?",
      "EUru": "Как жизнь, (nickname)!",
      "JPja": "おーい！ (nickname)！",
      "KRko": "야! (nickname)!!",
      "TWzh": "嘿！(nickname)！！",
      "USen": "What's up, (nickname)!",
      "USes": "¡Ey, (nickname)!",
      "USfr": "Salut (surnom)!"
    }
  },
  {
    "label": "01_KO",
    "locale": {
      "CNzh": "喂——！(nickname)！",
      "EUde": "He, (Spitzname)!",
      "EUen": "Hey, (nickname)!",
      "EUes": "¡Buenas, (nickname)!",
      "EUfr": "Salut, (surnom) !",
      "EUit": "Aloha, (nickname)!",
      "EUnl": "Dag (nickname)!",
      "EUru": "Ага, (nickname)!",
      "JPja": "おーい！ (nickname)！",
      "KRko": "야～! (nickname)!",
      "TWzh": "喂！(nickname)！",
      "USen": "Hey, (nickname)!",
      "USes": "¡Buenas, (nickname)!",
      "USfr": "Salut, (surnom)!"
    }
  },
  {
    "label": "01_OT",
    "locale": {
      "CNzh": "！",
      "EUde": "(Spitzname)!",
      "EUen": "(nickname)!",
      "EUes": "¡(nickname), cielo!",
      "EUfr": "(surnom) !",
      "EUit": "Oh, (nickname)!",
      "EUnl": "(nickname)!",
      "EUru": "(nickname)!",
      "JPja": "！",
      "KRko": "!",
      "TWzh": "！",
      "USen": "(nickname)!",
      "USes": "¡(nickname), cielo!",
      "USfr": "(surnom)!"
    }
  },
  {
    "label": "01_ZK",
    "locale": {
      "CNzh": "喂～！！",
      "EUde": "Hey, !",
      "EUen": "Yo, !",
      "EUes": "¿Qué hay, (nickname)?",
      "EUfr": "Salut, (surnom) !",
      "EUit": "Eeehi, !",
      "EUnl": "Yo, !",
      "EUru": "Йоу, !",
      "JPja": "！",
      "KRko": "!",
      "TWzh": "！",
      "USen": "Yo, !",
      "USes": "¿Qué cuentas, (nickname)?",
      "USfr": "Salut, (surnom)!"
    }
  },
  {
    "label": "02_AN",
    "locale": {
      "CNzh": "喂！(nickname)！",
      "EUde": "Heeey, (Spitzname)!",
      "EUen": "Yoooo, (nickname)!",
      "EUes": "¡Qué pasa, (nickname)!",
      "EUfr": "Hep, (surnom) !",
      "EUit": "Ehi, (nickname)!",
      "EUnl": "Ha (nickname)!",
      "EUru": "Эге-гей, (nickname)!",
      "JPja": "おーい (nickname)！",
      "KRko": "야～ (nickname)!",
      "TWzh": "喂～(nickname)！",
      "USen": "Yoooo, (nickname)!",
      "USes": "¡Qué hay, (nickname)!",
      "USfr": "Hé, (surnom)!"
    }
  },
  {
    "label": "02_BO",
    "locale": {
      "CNzh": "嘿～～",
      "EUde": "Hey, (Spitzname)!",
      "EUen": "Hey, (nickname)!",
      "EUes": "¡Oye, (nickname)!",
      "EUfr": "Coucou, (surnom) !",
      "EUit": "Ehilà, (nickname)!",
      "EUnl": "Hé (nickname)!",
      "EUru": "Привет, (nickname)!",
      "JPja": "お～い ",
      "KRko": "야아～ ～",
      "TWzh": "嘿～～",
      "USen": "Hey, (nickname)!",
      "USes": "¡Oyep, (nickname)!",
      "USfr": "Coucou, (surnom)!"
    }
  },
  {
    "label": "02_FU",
    "locale": {
      "CNzh": "(nickname)～",
      "EUde": "Oh, (Spitzname)!",
      "EUen": "Oh, (nickname)!",
      "EUes": "(nickname), compi...",
      "EUfr": "Coucou (surnom) !",
      "EUit": "Oh, (nickname)!",
      "EUnl": "O, (nickname)!",
      "EUru": "Ой, !",
      "JPja": "あ、！",
      "KRko": "(nickname)님～!",
      "TWzh": "那個，(nickname)～！",
      "USen": "Oh, (nickname)!",
      "USes": "(nickname), calabacita...",
      "USfr": "Coucou (surnom)!"
    }
  },
  {
    "label": "02_GE",
    "locale": {
      "CNzh": "，这边啦～！",
      "EUde": "! Hier!",
      "EUen": "! Over here!",
      "EUes": "¡Holis, (nickname)!",
      "EUfr": "(surnom) ! Par ici !",
      "EUit": "Qui, !",
      "EUnl": ", joehoe!",
      "EUru": "! Я здесь!",
      "JPja": " こっち～！",
      "KRko": "～ 여기야, 여기～!",
      "TWzh": "，這邊～！",
      "USen": "! Over here!",
      "USes": "¡Holis, (nickname)!",
      "USfr": "(surnom)! Par ici!"
    }
  },
  {
    "label": "02_HA",
    "locale": {
      "CNzh": "哟～！(nickname)！",
      "EUde": "Hey! (Spitzname)!",
      "EUen": "Yo! (nickname)!",
      "EUes": "¡(nickname), compi!",
      "EUfr": "Yo, (surnom) !",
      "EUit": "Ehi, (nickname)!",
      "EUnl": "Yo! (nickname)!",
      "EUru": "Здорово, (nickname)!",
      "JPja": "よー！ (nickname)！",
      "KRko": "여어! (nickname)!!",
      "TWzh": "唷！(nickname)！！",
      "USen": "Yo! (nickname)!",
      "USes": "¡(nickname), colega!",
      "USfr": "Yo, (surnom)!"
    }
  },
  {
    "label": "02_KO",
    "locale": {
      "CNzh": "(nickname)——！",
      "EUde": "(Spitzname)!",
      "EUen": "(nickname)!",
      "EUes": "¡(nickname)!",
      "EUfr": "Hé, gamin !",
      "EUit": "Ehilà, (nickname)!",
      "EUnl": "(nickname)!",
      "EUru": "(nickname)!",
      "JPja": "(nickname)！",
      "KRko": "(nickname)～!!",
      "TWzh": "(nickname)—！",
      "USen": "(nickname)!",
      "USes": "¡(nickname)!",
      "USfr": "Hé, le jeune!"
    }
  },
  {
    "label": "02_OT",
    "locale": {
      "CNzh": "，你听我说～！",
      "EUde": "(Spitzname), hör mal!",
      "EUen": "(nickname), listen!",
      "EUes": "(nickname), encanto...",
      "EUfr": "(surnom), écoute ça !",
      "EUit": "Ascolta, (nickname)!",
      "EUnl": "(nickname), luister eens!",
      "EUru": "(nickname), послушай!",
      "JPja": "、聞いて～！",
      "KRko": "～! 있잖아～",
      "TWzh": "，你聽我說～！",
      "USen": "(nickname), listen!",
      "USes": "(nickname), encanto...",
      "USfr": "(surnom), écoute ça!"
    }
  },
  {
    "label": "02_ZK",
    "locale": {
      "CNzh": "你在这儿啊！！",
      "EUde": "Oh, !",
      "EUen": "It's !",
      "EUes": "¡Ese (nickname)!",
      "EUfr": "Ah, (surnom) !",
      "EUit": "Eccoti, !",
      "EUnl": "Daar ben je, !",
      "EUru": "Да это !",
      "JPja": "おーい ",
      "KRko": "찾았다! !",
      "TWzh": "啊！！",
      "USen": "It's !",
      "USes": "¡Es (nickname)!",
      "USfr": "Ah, (surnom)!"
    }
  },
  {
    "label": "03_AN",
    "locale": {
      "CNzh": "唔……",
      "EUde": "Hm, hmm, hmmm...",
      "EUen": "Hm, hmm, hmmm...",
      "EUes": "Buf, qué chungo...",
      "EUfr": "Mouais... bof...",
      "EUit": "Mh, mmmh, mmmmmmh...",
      "EUnl": "Goed, dus dan...",
      "EUru": "Так... так... так...",
      "JPja": "むむむ・・・",
      "KRko": "끄응…",
      "TWzh": "唔……",
      "USen": "Hm, hmm, hmmm...",
      "USes": "Esteee...",
      "USfr": "Mouais... bof..."
    }
  },
  {
    "label": "03_BO",
    "locale": {
      "CNzh": "唔……",
      "EUde": "Tja, hmm...",
      "EUen": "I'm thinking. A huh huh... It's neat.",
      "EUes": "Qué cosas se me ocurren, je...",
      "EUfr": "Tiens, et si... Hé hé hé, sympa !",
      "EUit": "Pensiamo, pensiamo... Ah sì.",
      "EUnl": "Hmmm. Ahahaha... maf.",
      "EUru": "Я думаю. У-ху-ху...",
      "JPja": "う～ん・・・",
      "KRko": "으음～…",
      "TWzh": "嗯……",
      "USen": "I'm thinking. A huh huh... It's neat.",
      "USes": "Qué cosas se me ocurren, je...",
      "USfr": "Tiens, et si... Hé hé hé, sympa!"
    }
  },
  {
    "label": "03_FU",
    "locale": {
      "CNzh": "唔……",
      "EUde": "Was mache ich jetzt?",
      "EUen": "Hmmm. What now?",
      "EUes": "Ay, qué indecisión...",
      "EUfr": "Ça ne m'aide pas...",
      "EUit": "Mmmh... E adesso?",
      "EUnl": "Hmmm. Maar nu?",
      "EUru": "Хм. И что теперь?",
      "JPja": "う～ん・・・",
      "KRko": "으음～…",
      "TWzh": "嗯……",
      "USen": "Hmmm. What now?",
      "USes": "Ay, qué indecisión...",
      "USfr": "Ça ne m'aide pas..."
    }
  },
  {
    "label": "03_GE",
    "locale": {
      "CNzh": "唉～怎么办呢……",
      "EUde": "Was tun, was tun...",
      "EUen": "Hmm...but where will I get lasers?",
      "EUes": "Ay, no sé qué hacer...",
      "EUfr": "Tout ça pour des paillettes...",
      "EUit": "Mmmh... dove trovo dei laser?",
      "EUnl": "Maar... waar vind ik lasers?",
      "EUru": "Но... где лазеры взять?",
      "JPja": "はぁ～ どうしよっかな・・・",
      "KRko": "휴우～ 어떡하지…",
      "TWzh": "唉～要怎麼辦呢……",
      "USen": "Hmm...but where will I get lasers?",
      "USes": "Uyshhh, no sé qué hacer...",
      "USfr": "Tout ça pour des paillettes..."
    }
  },
  {
    "label": "03_HA",
    "locale": {
      "CNzh": "唔，这样啊～",
      "EUde": "Hmm... Also...",
      "EUen": "Hmm... Don't know...",
      "EUes": "Tengo que decidir de una vez...",
      "EUfr": "Hmm... voyons...",
      "EUit": "Uhm... Non saprei...",
      "EUnl": "Hmm... Ik weet het niet, hoor...",
      "EUru": "Кто его знает...",
      "JPja": "うーん、そうだなー",
      "KRko": "으음～그러게～",
      "TWzh": "嗯，這樣啊～",
      "USen": "Hmm... Don't know...",
      "USes": "No sé, no sé...",
      "USfr": "Hmm... voyons..."
    }
  },
  {
    "label": "03_KO",
    "locale": {
      "CNzh": "这该怎么办啊……",
      "EUde": "Ich weiß nicht, was ich tun soll...",
      "EUen": "Dunno what to do...",
      "EUes": "No sé qué hacer...",
      "EUfr": "Qu'est-ce que je pourrais faire ?",
      "EUit": "Non so che fare...",
      "EUnl": "Hoe pak ik dit aan...",
      "EUru": "Не знаю, что делать...",
      "JPja": "どうしたもんかねぇ・・・",
      "KRko": "으음… 어떡하지…",
      "TWzh": "這該怎麼辦……",
      "USen": "Dunno what to do...",
      "USes": "No sé qué hacer...",
      "USfr": "Qu'est-ce que je pourrais faire?"
    }
  },
  {
    "label": "03_OT",
    "locale": {
      "CNzh": "嗯……",
      "EUde": "Du liebe Zeit...",
      "EUen": "Oh dear...",
      "EUes": "Ay, cielos...",
      "EUfr": "Bigre...",
      "EUit": "Accidenti...",
      "EUnl": "Hemeltjelief...",
      "EUru": "О-хо-хонюшки...",
      "JPja": "ん～・・・",
      "KRko": "음～…",
      "TWzh": "嗯……",
      "USen": "Oh dear...",
      "USes": "Ay, cielos...",
      "USfr": "Bigre..."
    }
  },
  {
    "label": "03_ZK",
    "locale": {
      "CNzh": "唔……",
      "EUde": "Wirke ich nachdenklich?",
      "EUen": "Look like you're thinking...",
      "EUes": "Así, en plan pensativo...",
      "EUfr": "Fais semblant de réfléchir...",
      "EUit": "Stai pensando...",
      "EUnl": "Hm...",
      "EUru": "Сделай умный вид...",
      "JPja": "う～む・・・",
      "KRko": "흐음…",
      "TWzh": "嗯……",
      "USen": "Look like you're thinking...",
      "USes": "Aparenta estar pensando...",
      "USfr": "Fais semblant de réfléchir..."
    }
  },
  {
    "label": "04_AN",
    "locale": {
      "CNzh": "怎么办呢……",
      "EUde": "Das haut nich' hin...",
      "EUen": "Huh... I wonder...",
      "EUes": "A saco...",
      "EUfr": "Hum... Je me demande si...",
      "EUit": "Mmmh, mi chiedo se...",
      "EUnl": "Goh, ik vraag me af...",
      "EUru": "Хм... Может, так...",
      "JPja": "どうしようねぇ・・・",
      "KRko": "이를 어쩐다…",
      "TWzh": "怎麼辦才好……",
      "USen": "Huh... I wonder...",
      "USes": "Me pregunto si...",
      "USfr": "Hum... Je me demande si..."
    }
  },
  {
    "label": "04_BO",
    "locale": {
      "CNzh": "怎～么办呢……",
      "EUde": "Was wollte ich noch...",
      "EUen": "I wanna do a thing...but what?",
      "EUes": "¿Lo hago? ¿No lo hago?",
      "EUfr": "Je ferais bien je sais pas quoi !",
      "EUit": "Ma... che cosa volevo fare?",
      "EUnl": "Ik wil iets... Maar wat?",
      "EUru": "Что бы мне поделать?",
      "JPja": "ど～しよっかなぁ・・・",
      "KRko": "어떡하지이～…",
      "TWzh": "怎～麼辦呢……",
      "USen": "I wanna do a thing...but what?",
      "USes": "Juuum, ¿qué hago?",
      "USfr": "Je veux faire un truc... mais quoi?"
    }
  },
  {
    "label": "04_FU",
    "locale": {
      "CNzh": "怎么办好呢……",
      "EUde": "Ich sollte jetzt...",
      "EUen": "What to do, what to do?",
      "EUes": "Uh, qué dudita tengo...",
      "EUfr": "Que faire...",
      "EUit": "Che faccio, che faccio?",
      "EUnl": "Tja, wat zal ik doen?",
      "EUru": "Что же делать?",
      "JPja": "どうしましょう・・・",
      "KRko": "어쩌면 좋을까…",
      "TWzh": "怎麼辦好呢……",
      "USen": "What to do, what to do?",
      "USes": "Uh, qué dudita tengo...",
      "USfr": "Que faire..."
    }
  },
  {
    "label": "04_GE",
    "locale": {
      "CNzh": "唔～",
      "EUde": "Hmmmmm...",
      "EUen": "Ummm...",
      "EUes": "Mmmm...",
      "EUfr": "Hummm...",
      "EUit": "Uhmmm...",
      "EUnl": "Hmmmmm...",
      "EUru": "Хм-м-м...",
      "JPja": "んんん～・・・",
      "KRko": "으으음～…",
      "TWzh": "嗯……",
      "USen": "Ummm...",
      "USes": "Qué dilemita...",
      "USfr": "Hummm..."
    }
  },
  {
    "label": "04_HA",
    "locale": {
      "CNzh": "这该怎么办呢……",
      "EUde": "Wie weiter trainieren...",
      "EUen": "What should I do...",
      "EUes": "Um, ¿qué hago?",
      "EUfr": "Que faire ?...",
      "EUit": "Che fare...",
      "EUnl": "Wat kan ik doen?",
      "EUru": "Чем бы заняться...",
      "JPja": "どうしようかなー・・・",
      "KRko": "어쩌지～…",
      "TWzh": "這該怎麼辦才好……",
      "USen": "What should I do...",
      "USes": "Um, ¿qué hago?",
      "USfr": "Que faire?..."
    }
  },
  {
    "label": "04_KO",
    "locale": {
      "CNzh": "这可怎么办……",
      "EUde": "Und jetzt?",
      "EUen": "What's my move?",
      "EUes": "¿Y ahora qué hago?",
      "EUfr": "Et maintenant ?",
      "EUit": "E adesso?",
      "EUnl": "Wat nu?",
      "EUru": "Что делать-то?",
      "JPja": "どうすっかなぁ・・・",
      "KRko": "어떡해야 하나…",
      "TWzh": "這可怎麼辦……",
      "USen": "What's my move?",
      "USes": "¿Y ahora qué hago?",
      "USfr": "Et maintenant?"
    }
  },
  {
    "label": "04_OT",
    "locale": {
      "CNzh": "该怎么办好呢……",
      "EUde": "Was könnte ich tun?",
      "EUen": "Whatever should I do...",
      "EUes": "Huy, qué drama...",
      "EUfr": "Que faire...",
      "EUit": "Che fare...",
      "EUnl": "Wat zal ik toch eens doen?",
      "EUru": "Что же мне делать?",
      "JPja": "どうしようかしら・・・",
      "KRko": "어쩌지…",
      "TWzh": "要怎麼辦呢……",
      "USen": "Whatever should I do...",
      "USes": "Uy, qué drama...",
      "USfr": "Que faire..."
    }
  },
  {
    "label": "04_ZK",
    "locale": {
      "CNzh": "该怎么办呢……",
      "EUde": "Was weiter?",
      "EUen": "What's next...",
      "EUes": "Y ahora, ¿qué?",
      "EUfr": "Et après ?",
      "EUit": "Che cosa faccio...",
      "EUnl": "Wat nu...",
      "EUru": "Что будет?",
      "JPja": "どうしたものか・・・",
      "KRko": "이를 어쩌나…",
      "TWzh": "那，該怎麼辦……",
      "USen": "What's next...",
      "USes": "Y ahora, ¿qué?",
      "USfr": "Et après?"
    }
  }
]