﻿[
  {
    "label": "001",
    "attribute": "0x00000C0100000000",
    "locale": {
      "CNzh": "你这家伙，已经完全融入了\n啊，啊哈哈哈！",
      "EUde": "Du verbringst hier so viel Zeit, da\nvergisst man fast, dass du hier nicht\nwohnst, (Floskel). Bwa ha ha ha!",
      "EUen": "You've been hangin' around here so\nmuch, I almost forgot you didn't live\nhere. Gahaha!",
      "EUes": "Has estado tanto tiempo por aquí\nque se me había olvidado que eres\nde otra isla, ¡ja, ja, ja!",
      "EUfr": "À force de te voir traîner dans le\ncoin, j'ai failli commencer à croire\nqu'on était voisins. Ha ha !",
      "EUit": "Sei da queste parti così spesso,\nche quasi mi dimenticavo che\nnon vivi qui. AHAHAH!",
      "EUnl": "Je bent hier zo vaak, ik zou bijna\nvergeten dat je hier niet woont.\nBwahaha!",
      "EUru": "Мы так часто видимся, что я уже\nпочти забыл, что ты не местный.\nБу-га-га!",
      "JPja": "オメェ　すっかり　に\n馴染んでるじゃねぇか、がーっはっは！",
      "KRko": "너 이제 을\n제집처럼 드나든다? 으－하하핫!",
      "TWzh": "我看你已經對\n很熟了嘛，哇～哈哈！",
      "USen": "You've been hangin' around here so\nmuch, I almost forgot you didn't live\nhere. Gahaha!",
      "USes": "Llevas tanto tiempo por aquí que\nse me había olvidado que eres\nde otra isla, ¡ja, ja, ja!",
      "USfr": "À force de te voir traîner dans le\ncoin, j'ai failli commencer à croire\nqu'on était voisins. Ha ha!"
    }
  },
  {
    "label": "002",
    "attribute": "0x00000C0100000000",
    "locale": {
      "CNzh": "你这家伙，\n干脆搬到来住如何？\n开玩笑的，啊哈哈哈！",
      "EUde": "Hast du mal dran gedacht, hierher-\nzuziehen? Wo du eh schon so viel\nZeit hier verbringst... Gra ha ha!",
      "EUen": "You ever thought about just movin'\nhere? You spend so much time here,\nyou may as well. Gahaha!",
      "EUes": "¿Te has planteado mudarte a esta\nisla? Pasas tanto tiempo aquí que\nte saldría más a cuenta, ¡ja, ja, ja!",
      "EUfr": "On te voit souvent traîner dans le\ncoin... T'essaierais pas d'emménager\ndiscrétos, par hasard ?",
      "EUit": "Hai mai pensato di trasferirti su\nquest'isola? Dovresti! Alla fine\nci passi un sacco di tempo.",
      "EUnl": "Heb je weleens overwogen om\nhiernaartoe te verhuizen? Je bent er\nzo vaak! Bwahaha!",
      "EUru": "А ты не думал сюда переехать?\nВсе равно все время тут крутишься!\nБу-га-га!",
      "JPja": "オメェ　いっそのこと、\nに　移住したらどうだ？\nなーんてな、がーっはっは！",
      "KRko": "야, 너 아예 에\n이사 오지 그러냐?\n한번 생각해봐, 으－하하핫!",
      "TWzh": "我說你，乾脆搬來\n住在上如何啊？\n開玩笑的啦，哇～哈哈！",
      "USen": "You ever thought about just movin'\nhere? You spend so much time here,\nyou may as well. Gahaha!",
      "USes": "¿Has pensado en mudarte a esta\nisla? Pasas tanto tiempo aquí que\nte sería más práctico, ¡ja, ja, ja!",
      "USfr": "On te voit souvent traîner dans le\ncoin... T'essaierais pas d'emménager\ndiscrètement, par hasard?"
    }
  },
  {
    "label": "003",
    "attribute": "0x00000C0100000000",
    "locale": {
      "CNzh": "怎么样啊，(nickname)！\n有体会到的\n乐趣吗？。",
      "EUde": "Also, (Spitzname)...\nGefällt dir ? Hat\nzumindest den Anschein!",
      "EUen": "So, (nickname)... How're you\nliking ? Seems\nyou've taken a shine to it!",
      "EUes": "¿Qué, (nickname), te gusta\n? ¡Parece que\nle has cogido cariño!",
      "EUfr": "Dis-moi, (surnom)...\nT'as l'air de bien te plaire chez nous,\nje me trompe ?",
      "EUit": "Allora, (nickname)... Che te ne pare di ? Pare che ti piaccia proprio, ?",
      "EUnl": "Nou, (nickname)... Wat vind je van ? Het lijkt je wel te bevallen hier!",
      "EUru": "Ну, (nickname)... Как тебе\nостров ?\nПохоже, по душе!",
      "JPja": "どうでぃ、(nickname)！\nは\n楽しめてんのかい？　",
      "KRko": "(nickname)!\n에서\n즐겁게 잘 놀고 있냐? ?",
      "TWzh": "(nickname)，怎麼樣？\n在的日子\n還愉快嗎？。",
      "USen": "So, (nickname)... How're you\nliking ? Seems\nyou've taken a shine to it!",
      "USes": "¿Qué dices, (nickname),\nte gusta ?\n¡Parece que le has tomado cariño!",
      "USfr": "Dis-moi, (surnom)...\nT'as l'air de bien te plaire chez nous,\nje me trompe?"
    }
  },
  {
    "label": "004",
    "attribute": "0x00000C0100000000",
    "locale": {
      "CNzh": "在上\n见到你，\n感觉很新鲜啊。。",
      "EUde": "Schon seltsam, dich hier auf\n zu sehen.\nSeltsam, aber gut! Bwa ha ha!",
      "EUen": "It sure is strange seein' you all the\nway over here on .\nGOOD strange, I mean! Gahaha!",
      "EUes": "Qué raro me resulta verte aquí\nen ... ¡Raro pero\nagradable, que conste!",
      "EUfr": "Ça fait quand même bizarre de\ntomber sur toi à . \nTu trouves pas ?",
      "EUit": "È strano vederti così spesso qui  . Strano, ma non del tutto spiacevole! AHAHAH!",
      "EUnl": "Het is wel vreemd om je helemaal hier op  te zien. Goed vreemd, natuurlijk! Bwahaha!",
      "EUru": "Так странно тебя видеть здесь,\nна острове ! Ты\nне подумай, я не против! Бу-га-га!",
      "JPja": "で\nオメェを見るってぇのは\n新鮮な気分だな、",
      "KRko": "에서 널 보다니\n되게 신선한 기분인걸, !",
      "TWzh": "在上\n看到你……\n感覺倒是挺新鮮的啊，。",
      "USen": "It sure is strange seein' you all the\nway over here on .\nGOOD strange, I mean! Gahaha!",
      "USes": "Qué raro se me hace verte en\n... ¡Raro\npero agradable, que conste!",
      "USfr": "Ça fait quand même bizarre de\ntomber sur toi à . \nTu trouves pas?"
    }
  },
  {
    "label": "005",
    "attribute": "0x00000C0100000000",
    "locale": {
      "CNzh": "无论何时何地遇见你，\n你总是光彩夺目啊！啊哈哈哈！",
      "EUde": "Wo immer ich dich auch sehe, du bist\nein kleiner Sonnenschein.\nMoment... Können wir vergessen,\ndass ich das gesagt habe,\n(Floskel)?",
      "EUen": "I swear, kiddo... No matter when we\nmeet, you're like a ray of sunshine.\nGuess I'm feelin' sentimental today.",
      "EUes": "Quizá no me creas, pero... cada vez\nque nos encontramos, para mí es\ncomo recuperar parte de mi juventud.",
      "EUfr": "Ça m'fait plaisir de te voir, tu sais ?\nC'est pas tous les jours qu'on voit\nune trombine comme la tienne !",
      "EUit": "Te lo assicuro... Ogni volta che\nti incontro, mi sento sempre di\nbuonumore.\nE oggi mi sento anche\nparticolarmente sentimentale,\na quanto pare! AHAHAH!",
      "EUnl": "Echt waar, jochie... Wanneer ik je ook\nzie, je bent altijd vrolijk. Goh, ik ben\nin een sentimentele bui vandaag.",
      "EUru": "Эх, козявка... Ты для меня всегда...\nкак луч солнца. Что-то я сегодня\nсентиментальный. Непорядок!",
      "JPja": "オメェは　いつどこで会っても、\nピカピカしてるな！　がーっはっは！",
      "KRko": "넌 언제 어디서 보든\n항상 기운이 넘치는구나! 으－하하핫!",
      "TWzh": "我不管什麼時候碰到你，\n你看起來都閃閃發亮的啊！哇～哈哈！",
      "USen": "I swear, kiddo... No matter when we\nmeet, you're like a ray of sunshine.\nGuess I'm feelin' sentimental today.",
      "USes": "Quizá no me creas, pero... cada vez\nque nos encontramos, para mí es\ncomo recuperar parte de mi juventud.\nVaya, me estoy poniendo\nsentimental.",
      "USfr": "Ça m'fait plaisir de te voir, tu sais?\nC'est pas tous les jours qu'on voit\nune trombine comme la tienne!"
    }
  }
]