﻿[
  {
    "label": "101",
    "attribute": "0x0000020000000000",
    "locale": {
      "CNzh": "嗨，！\n虽然这话有些突然，\n你要不要试着种种鸡蛋花啊？\n就是种在学校周围的那些灌木，\n我手上有很多花苗哦，\n如果你想要，我可以分你一株～。",
      "EUde": "Hey, ! Weißt du, was? Frangipani!\nKlingt ein bisschen wie eine\nBeleidigung, was? Aber ich\nwürde dich ja nicht beleidigen!\nWarum also das Geschrei? Ist mir so\nrausgerutscht, weil in der Nähe der\nSchule viele Frangipani wachsen.\nDas sind echt knuffige Pflanzen.\nIch kann dir einen Setzling geben,\nwenn du magst.",
      "EUen": "Hey, ! Guess what!\nFRANGIPANI!\nYou're thinkin', \"What's he yellin'\nabout? Is he bein' rude?\" Nope!\nI'm not allowed to be rude.\nFrangipani's the name of a plant that\nboring people call plumeria. \nIt grows around the school. I have a\nbunch of starts for them, so I can\ngive ya one if you want!",
      "EUes": "Oye, , te cuento una cosa: ¡plumaria!\nNo te preocupes, que no es que me\nhaya dado un golpe en la cabeza.\nEsta es otra forma muy parecida de\nllamarle a la «plumeria», que es una\nplanta que crece en los alrededores.\nTengo un montón, así que,\nsi quieres, puedo compartir una\ncontigo, .",
      "EUfr": "Coucou,  ! Je viens de découvrir un nouveau truc ! Le frangipanier !\nJe sais ce que tu penses... « C'est un\narbre à galettes ! » Eh ben non.\nMoi aussi j'ai été un peu déçu.\nC'est un buisson qui donne des jolies\nfleurs qui sentent super bon, mais je\ncrois pas qu'on puisse les manger.\nIl y en a plein autour de l'école. J'en\nai quelques pousses, alors je peux\nt'en donner si tu veux !",
      "EUit": "Ehi, ! Indovina un po'! FRANGIPANI!\nPenserai che alzo troppo la voce e\nche sono un maleducato... Ti sbagli!\nLa maleducazione non fa per me.\nFrangipani è il nome comune di una\npianta che sul poster dell'aula di\nbiologia si chiama \"plumeria\".\nCresce intorno alla scuola. Ne ho un\nbel po' di germogli, quindi posso\ndartene uno, se vuoi!",
      "EUnl": "Hé, ! Weet je wat? FRANGIPANI!\nJe vraagt je vast af: \"Wat schreeuwt\nhij nou? Doet hij onbeleefd?\" Nee!\nWant ik mag niet onbeleefd doen.\nFrangipani is een plant die door\nsaaierds plumeria wordt genoemd. \nHij groeit rondom de school. Ik heb\ner een boel zaailingen van, dus als je\nwilt, kan ik je er wel eentje geven!",
      "EUru": "Слушай, !\nТы знаешь, что это?\nЭто — франжипани!\nТы, наверное, думаешь, что я сейчас\nгрубость какую-то сказал? А вот\nи нет! Нам тут ругаться нельзя.\nНа самом деле, (player name), франжипани — это цветок. Скучные ботаники называют его плюмерия.\nЭтого добра навалом вокруг школы.\nНо меня с собой есть пара побегов.\nЕсли хочешь, могу поделиться!",
      "JPja": "やあ、！\nいきなりだけど、\nキミ　プルメリアとか　そだててみない？\n学校のまわりにうえてある　てい木なんだけど\nなえが　たくさんあるから\nよかったら　分けてあげるよぉ、",
      "KRko": "아, 안녀엉!\n뜬금없겠지만 혹시 말야\n플루메리아를 키워보지 않을래애～?\n학교 주변에 심어져 있는 낮은 나무인데\n묘목이 잔뜩 있으니깐\n필요하면 나눠줄게에, ～",
      "TWzh": "嗨，～！\n雖然很突然，但我想問你\n有沒有意願栽培雞蛋花？\n雞蛋花就是種在學校附近的那種灌木喔。\n如果你有那意願的話，\n我就分一些樹苗給你吧，。",
      "USen": "Hey, ! Guess what!\nFRANGIPANI!\nYou're thinkin', \"What's he yellin'\nabout? Is he bein' rude?\" Nope!\nI'm not allowed to be rude.\nFrangipani's the name of a plant that\nboring people call plumeria. \nIt grows around the school. I have a\nbunch of starts for them, so I can\ngive ya one if you want!",
      "USes": "Oyep, , te quiero\ndecir una cosa: ¡plumaria!\nTe estarás preguntando de qué\nestoy hablando o qué...\nPues resulta que esa es otra forma\nde llamarle a la \"plumeria\", que es\nuna planta que crece por aquí.\nTengo muchísimas, así que,\nsi quieres, puedo compartir\nuna contigo, .",
      "USfr": "Coucou, ! Je viens de découvrir un nouveau truc! Le frangipanier!\nJe sais ce que tu penses... « C'est un\narbre à galettes! » Eh ben non.\nMoi aussi j'ai été un peu déçu.\nC'est un buisson qui donne des jolies\nfleurs qui sentent super bon, mais je\ncrois pas qu'on puisse les manger.\nIl y en a plein autour de l'école. J'en\nai quelques pousses, alors je peux\nt'en donner si tu veux!"
    }
  },
  {
    "label": "101_a",
    "attribute": "0x0000000000000000",
    "locale": {
      "CNzh": "那我就收下了",
      "EUde": "Den nehm ich gern!",
      "EUen": "Sure, thanks!",
      "EUes": "¡Vale, gracias!",
      "EUfr": "Je veux bien, oui !",
      "EUit": "Certo, grazie!",
      "EUnl": "Ja, graag!",
      "EUru": "Да, хочу! Спасибо.",
      "JPja": "いただきます",
      "KRko": "응, 주라",
      "TWzh": "那我就收下了",
      "USen": "Sure, thanks!",
      "USes": "¡Sí, gracias!",
      "USfr": "Je veux bien, oui!"
    }
  },
  {
    "label": "101_b",
    "attribute": "0x0000000000000000",
    "locale": {
      "CNzh": "不用了",
      "EUde": "Nein, danke!",
      "EUen": "Nah, I don't need one.",
      "EUes": "No, gracias",
      "EUfr": "Non merci.",
      "EUit": "No, non mi serve.",
      "EUnl": "Nee, hoef ik niet.",
      "EUru": "Нет, мне это не нужно.",
      "JPja": "エンリョしておきます",
      "KRko": "아니, 괜찮아",
      "TWzh": "不用了",
      "USen": "Nah, I don't need one.",
      "USes": "No, gracias",
      "USfr": "Non merci."
    }
  },
  {
    "label": "102",
    "attribute": "0x0000020000000000",
    "locale": {
      "CNzh": "哈喽～！\n对了对了，\n你要不要鸡蛋花苗啊？\n花苗数量太多，我一个人\n实在是照料不过来，这会儿正为难呢。\n要是你愿意收下一株就好了～。",
      "EUde": "Huhu, !\nWillst du einen Frangipanisetzling?\nIch hab nämlich ganz viele und weiß\ngar nicht, wieso eigentlich...\nFrangipani sind total knuffige\nPflanzen. Wirst du sehen, wenn du\nmir einen Setzling abnimmst.",
      "EUen": "Hey there, !\nYou want a plumeria start? I got too\nmany and I dunno why. It's really\nfreaking me out.\nI don't even know where they're\ncoming from! It's just real wild\ntimes around here, ya know?\nAnyways, can ya help a guy out and\ntake one of these plumeria starts\noff my hands?",
      "EUes": "¡Hola, !\nSi buscas plumerias de vivero,\nyo tengo un montón. ¡Y no sé\npor qué!\nNi idea de dónde salen. Todo está\nsiendo la mar de raro por aquí.\nTe agradecería un montón que te\nllevases una plumeria de vivero\nde las que tengo, ¿sabes?",
      "EUfr": "Coucou,  !\nTu veux une pousse de frangipanier ?\nJ'en ai beaucoup trop et je sais\nmême pas pourquoi.\nJ'ai aucune idée d'où elles sortent !\nC'est la folie par ici, si tu savais...\nEnfin bon, tu voudrais pas m'aider et\nme débarrasser d'une pousse de\nfrangipanier ?",
      "EUit": "Ehilà, !\nVuoi un germoglio di frangipani?\nNe ho troppi e non so neanche come\nmai. È una cosa che mi sconvolge.\nNon so da dove arrivano e che ci\nfanno qui. Che sia un'invasione\naliena?\nPer farla breve, aiuteresti un essere\ngentile come me a liberarsi di almeno\nun germoglio di frangipani?",
      "EUnl": "Hé, !\nWil je een plumeria-zaailing? Om de\néén of andere reden heb ik er te veel.\nIk word er een beetje kriegel van.\nIk weet niet eens waar ze vandaan\nkomen! Het is alsof ze zich blijven\nvermenigvuldigen!\nHoe dan ook, zou je me alsjeblieft\neen paar van deze plumeria-\nzaailingen uit handen willen nemen?",
      "EUru": "Привет, !\nХочешь побег плюмерии? Я целую\nохапку побегов насобирал. Зачем?\nДа я и сам не понял, если честно!\nУма не приложу, откуда эти побеги\nвзялись. Что-то странное творится\nвокруг. Тебе не кажется?\nТы не мог бы мне помочь?\nИзбавь меня от одного из этих\nпобегов плюмерии!",
      "JPja": "やっほ～、！\nねぇねぇ　キミさ、\nプルメリアのなえとか　いらない？\nたくさんありすぎて、ボクひとりじゃ　\nおせわが　タイヘンで　こまってるんだよねぇ\nもらってくれると　うれしいなぁ、",
      "KRko": "얏호～ 아!\n있잖아～ 너 말야아～\n혹시 플루메리아 묘목 안 필요해애?\n너무 많아서 나 혼자선\n다 돌보기가 힘들더라구우～\n좀 가져가지 않을래애? ?",
      "TWzh": "哈囉～！\n我問你喔，你要不要雞蛋花苗？\n因為數量實在太多，\n我一個人根本照顧不來，\n如果你願意收下那就太好了，。",
      "USen": "Hey there, !\nYou want a plumeria start? I got too\nmany and I dunno why. It's really\nfreaking me out.\nI don't even know where they're\ncoming from! It's just real wild\ntimes around here, ya know?\nAnyways, can ya help a guy out and\ntake one of these plumeria starts\noff my hands?",
      "USes": "¡Hola, !\nSi buscas plumerias de vivero,\nyo tengo un montón. ¡Y no sé\npor qué!\nNo tengo idea de dónde aparecen\ntantas. Todo es muy raro por aquí.\nEstaría bien si te llevaras una\nplumeria de vivero de las que\ntengo, ¿sabes?",
      "USfr": "Coucou, !\nTu veux une pousse de frangipanier?\nJ'en ai beaucoup trop et je sais\nmême pas pourquoi.\nJ'ai aucune idée d'où elles sortent!\nC'est la folie par ici, si tu savais...\nEnfin bon, tu voudrais pas m'aider et\nme débarrasser d'une pousse\nde frangipanier?"
    }
  },
  {
    "label": "102_a",
    "attribute": "0x0000000000000000",
    "locale": {
      "CNzh": "那我就收下了",
      "EUde": "Okay, ich nehme ihn.",
      "EUen": "Sure, I'll take one.",
      "EUes": "Claro que sí",
      "EUfr": "J'en veux bien une.",
      "EUit": "Lo prendo.",
      "EUnl": "Ja, geef me er maar een.",
      "EUru": "Да, хорошо.",
      "JPja": "いただきます",
      "KRko": "잘 받을게",
      "TWzh": "那我就收下了",
      "USen": "Sure, I'll take one.",
      "USes": "Claro que sí",
      "USfr": "J'en veux bien une."
    }
  },
  {
    "label": "102_b",
    "attribute": "0x0000000000000000",
    "locale": {
      "CNzh": "不用了",
      "EUde": "Brauch ich nicht!",
      "EUen": "Nah, I don't need one.",
      "EUes": "Me parece que no...",
      "EUfr": "Non, désolé.",
      "EUit": "No, non mi serve.",
      "EUnl": "Nee, hoef ik niet.",
      "EUru": "Нет, мне это не нужно.",
      "JPja": "エンリョしておきます",
      "KRko": "미안하지만…",
      "TWzh": "不用了",
      "USen": "Nah, I don't need one.",
      "USes": "No, gracias...",
      "USfr": "Non, désolé."
    }
  },
  {
    "label": "103",
    "attribute": "0x0000020000000000",
    "locale": {
      "CNzh": "嗨～！\n我有个问题想问问勤勉好学的你～\n……就是，你对鸡蛋花什么的感兴趣吗？\n我原本是想用它来做教学道具，\n所以买了好多花苗，结果用不完了……\n怎么样？你要不要种一株试试～？。",
      "EUde": "Hallihallo, !\nKennst du den Film, in dem sich ein\nFrangipani nach Kontakt mit einem\nAlien in ein Monster verwandelt?\nTotal toller Film! Da explodiert echt\nganz viel und an ein paar Stellen ist\ndie Handlung fast sinnvoll.\nIch hab einen Frangipanisetzling\nangepflanzt, aber noch ist kein\nMonster in Sicht...\nMöchtest du auch so einen\nSetzling haben und mal dein\nGlück versuchen?",
      "EUen": "Hi, !\nYou ever see that old movie about a\nplumeria start that got alien goo\non it and turned into a monster?\nIt's a real good movie. A buncha stuff\nexplodes. Some of the plot even\nkinda makes sense!\nI got a plumeria start if ya want one.\nI planted one, but it's not a monster\nyet. Maybe you'll have better luck.",
      "EUes": "¡Hola, !\n¿Has visto la peli esa en la que una\nplumeria de vivero se contamina con\nuna sustancia alienígena?\nSe convierte en un monstruo vegetal\ny empieza a comerse todas las\nnaranjas de la ciudad.\n¡Menudo argumento! Jo, tengo unas\nganas de que saquen la segunda\nparte...\nPor cierto, tengo plumerias\nde vivero, por si quieres una.\nYo he plantado alguna y ni una se ha\nconvertido en monstruo... ¡A lo mejor\ntú tienes más suerte!",
      "EUfr": "Salut,  !\nTu connais le film où un frangipanier\nse change en monstre après avoir été\naspergé de gadoue extraterrestre ?\nC'est un très bon film. Il y a plein\nd'explosions et il y a même des bouts\nde l'histoire qui ont du sens !\nTu veux une pousse de frangipanier ?\nJ'en ai planté un, mais c'est pas\nencore un monstre, pfff...",
      "EUit": "Ciao, !\nHai mai visto un film su dei germogli\ndi frangipani che vengono contagiati\ndagli alieni e diventano dei mostri?\nÈ un film vecchio, ma bello. Sai, di\nquelli con un sacco di esplosioni...\nLa trama, poi, ha quasi senso!\nHo un germoglio di frangipani per te,\nse vuoi. Con me non si è trasformato,\nma magari tu hai più fortuna!",
      "EUnl": "Hoi, !\nHeb je die oude film gezien waarin\nbuitenaards slijm een plumeria-\nzaailing in een monster verandert?\nWat een fantastische film. Veel \nontploffingen. Zelfs het verhaal klopt\naf en toe een beetje.\nWil je een plumeria-zaailing hebben?\nIk heb al eentje geplant, maar hij is\nnog geen monster geworden.\nMisschien heb jij meer succes.",
      "EUru": "Привет, !\nТы смотрел ужастик о побеге\nплюмерии? На него еще слизь\nкапнула и в монстра превратила?\nХорошее кино. Зрелищное!\nИ некоторые эпизоды получились\nочень жизненными.\nЕсли хочешь, я могу тебе дать такой\nже побег плюмерии. До монстра\nему далековато, но еще не вечер.",
      "JPja": "はぁい、！\nべんきょうねっしんなキミに　しつもんで～す\n・・・キミ、プルメリアとか　キョウミある？\nきょうざいになるかと思って、なえを\n手に入れたんだけど、多すぎちゃって・・・\nどう、ひとつ　そだててみない～？　",
      "KRko": "안녕, 아!\n항상 열심히 공부하는 너한테 질문이 있어～\n...혹시 플루메리아에 관심 없을까아?\n수업할 때 쓸려고 묘목을 구했는데\n너무 많아서 말야...\n어때? 하나 키워볼래애～? ?",
      "TWzh": "，你好啊！\n我這邊想問問熱愛學習的你～\n你對雞蛋花……有興趣嗎？\n我本來是打算當成教材使用的，\n可是最後卻準備了太多……\n如何？你要不要拿一株去種種看～？。",
      "USen": "Hi, !\nYou ever see that old movie about a\nplumeria start that got alien goo\non it and turned into a monster?\nIt's a real good movie. A buncha stuff\nexplodes. Some of the plot even\nkinda makes sense!\nI got a plumeria start if ya want one.\nI planted one, but it's not a monster\nyet. Maybe you'll have better luck.",
      "USes": "¡Holap, !\n¿Ya viste la peli esa en la que una\nplumeria de vivero se contamina con\nuna sustancia alienígena?\nSe convierte en un monstruo vegetal\ny empieza a comerse todas las\nnaranjas de la ciudad.\n¡Es una historia genial! Ya quiero\nque saquen la segunda parte...\nPor cierto, tengo plumerias de vivero \npor si quieres una.\nYa planté una, pero sigue sin\nconvertirse en monstruo... ¡A lo\nmejor tú tienes más suerte!",
      "USfr": "Salut, !\nTu connais le film où un frangipanier\nse change en monstre après avoir été\naspergé de gadoue extraterrestre?\nC'est un très bon film. Il y a plein\nd'explosions et il y a même des bouts\nde l'histoire qui ont du sens!\nTu veux une pousse de frangipanier?\nJ'en ai planté un, mais c'est pas\nencore un monstre, pfff..."
    }
  },
  {
    "label": "103_a",
    "attribute": "0x0000000000000000",
    "locale": {
      "CNzh": "那我就收下了",
      "EUde": "Yeah, Monsterparty!",
      "EUen": "Sure, I'll take one.",
      "EUes": "¡Por supuesto que sí!",
      "EUfr": "Je t'en prends une.",
      "EUit": "Lo prendo.",
      "EUnl": "Ja, geef me maar eentje.",
      "EUru": "Ладно, возьму один.",
      "JPja": "いただきます",
      "KRko": "좋아!",
      "TWzh": "那我就收下了",
      "USen": "Sure, I'll take one.",
      "USes": "¡Sí quiero una!",
      "USfr": "Je t'en prends une."
    }
  },
  {
    "label": "103_b",
    "attribute": "0x0000000000000000",
    "locale": {
      "CNzh": "不用了",
      "EUde": "Kein Bedarf...",
      "EUen": "Nah, I don't need one.",
      "EUes": "Creo que no...",
      "EUfr": "Nan, j'en ai pas besoin.",
      "EUit": "No, non mi serve.",
      "EUnl": "Nee, hoef ik niet.",
      "EUru": "Нет, мне это не нужно.",
      "JPja": "エンリョしておきます",
      "KRko": "아냐, 됐어",
      "TWzh": "不用了",
      "USen": "Nah, I don't need one.",
      "USes": "No quiero una, gracias",
      "USfr": "Nan, j'en ai pas besoin."
    }
  },
  {
    "label": "106_01",
    "attribute": "0x0000000000000000",
    "locale": {
      "CNzh": "我就知道你会答应我的～\n那么，今天就给你……\n白色鸡蛋花苗吧！",
      "EUde": "Ich wusste doch, dass du dabei bist!\nGut, dann kriegst du jetzt von mir\neinen... Weiß-Frangipanisetzling!",
      "EUen": "I knew you'd say that! OK, today I'll\ngive you...a white-plumeria start!",
      "EUes": "¡Sabía que dirías eso! Vale, pues\nte daré... ¡una plumeria blanca\nde vivero!",
      "EUfr": "Je savais que tu dirais ça ! Bien,\naujourd'hui, je te donne... une\npousse de frangipanier blanc !",
      "EUit": "Sapevo che avresti accettato! OK,\nallora oggi ti do... un germoglio\nfrangipani bianco!",
      "EUnl": "Ik wist al dat je dat zou zeggen!\nOké, ik zal je vandaag... een\nwitte-plumeria-zaailing geven!",
      "EUru": "Я так и знал, что он тебе нужен!\nНу хорошо... ты получаешь побег\nбелой плюмерии!",
      "JPja": "キミなら、そう言ってくれると　思ってたよ～\nそれじゃあ、今日は・・・\nしろいプルメリアのなえを　あげちゃうねぇ！",
      "KRko": "너라면 그렇게 말할 줄 알았어～\n그럼 오늘은...\n하얀 플루메리아 묘목을 나눠줄게에!",
      "TWzh": "我就知道你會這麼說～\n那麼我今天……\n就送你白色雞蛋花苗吧！",
      "USen": "I knew you'd say that! OK, today I'll\ngive you...a white-plumeria start!",
      "USes": "¡Sabía que dirías eso! Bueno, pues\nte daré... ¡una plumeria blanca de vivero⁠!",
      "USfr": "Je savais que tu dirais ça! Bien,\naujourd'hui, je te donne... une\npousse de frangipanier blanc!"
    }
  },
  {
    "label": "106_02",
    "attribute": "0x0000000000000000",
    "locale": {
      "CNzh": "我就知道你会答应我的～\n那么，今天就给你……\n粉红鸡蛋花苗吧！",
      "EUde": "Ich wusste doch, dass du dabei bist!\nGut, dann kriegst du jetzt von mir\neinen... Pink-Frangipanisetzling!",
      "EUen": "I knew you'd say that! OK, today I'll\ngive you...a pink-plumeria start!",
      "EUes": "¡Ya lo sabía yo! Pues voy a darte...\n¡una plumeria rosa de vivero!",
      "EUfr": "Je savais que tu dirais ça ! Bien,\naujourd'hui, je te donne... une\npousse de frangipanier rose !",
      "EUit": "Sapevo che lo avresti detto! OK,\nallora oggi ti do... un germoglio\ndi frangipani rosa!",
      "EUnl": "Ik wist al dat je dat zou zeggen!\nOké, ik zal je vandaag... een\nroze-plumeria-zaailing geven!",
      "EUru": "Я так и знал, что он тебе нужен!\nНу хорошо... ты получаешь побег\nрозовой плюмерии!",
      "JPja": "キミなら、そう言ってくれると　思ってたよ～\nそれじゃあ、今日は・・・\nピンクのプルメリアのなえを　あげちゃうねぇ",
      "KRko": "에헤헤, 그럴 줄 알았지이～\n그럼 오늘은...\n핑크색 플루메리아 묘목을 줄게에～",
      "TWzh": "我就知道你會這麼說～\n那麼我今天……\n就送你粉紅雞蛋花苗吧。",
      "USen": "I knew you'd say that! OK, today I'll\ngive you...a pink-plumeria start!",
      "USes": "¡Lo sabía! Pues voy a darte...\n¡una plumeria rosa de vivero⁠!",
      "USfr": "Je savais que tu dirais ça! Bien,\naujourd'hui, je te donne... une\npousse de frangipanier rose!"
    }
  },
  {
    "label": "107",
    "attribute": "0x0000000000000000",
    "locale": {
      "CNzh": "",
      "EUde": "",
      "EUen": "",
      "EUes": "",
      "EUfr": "",
      "EUit": "",
      "EUnl": "",
      "EUru": "",
      "JPja": "",
      "KRko": "",
      "TWzh": "",
      "USen": "",
      "USes": "",
      "USfr": ""
    }
  },
  {
    "label": "107_01",
    "attribute": "0x0000000000000000",
    "locale": {
      "CNzh": "只要你悉心照料它，\n等到炎热的季节，\n它就会开出可爱的花朵了～。",
      "EUde": "Wenn du immer lieb mit ihm redest\nund ihm sagst, dass du ihn liebhast,\nblüht er in der warmen Jahreszeit!",
      "EUen": "If ya give it lots of love and tell it ya\nthink it's neat, it'll blossom when the\nwarm season gets here!",
      "EUes": "Riégala todos los días y quiérela\nmucho. ¡Pero no la abraces, porque,\na lo mejor, la arrugas un poco!\nSi le das mucho amor y le dices\nque mola un montón, ¡florecerá\ncuando empiece a hacer calorcito!",
      "EUfr": "Donne-lui de l'amour tous les jours,\ndis-lui que tu l'aimes, et il fleurira\nà l'arrivée de la belle saison !",
      "EUit": "Se gli dai tanto amore e gli ripeti\nsempre quant'è carino, all'arrivo\ndella bella stagione, fiorirà!",
      "EUnl": "Als je hem veel liefde geeft en hem\nvertelt dat hij cool is, zal hij zodra\nhet warmer wordt gaan bloeien!",
      "EUru": "Заботься о нем с любовью и говори\nхорошие слова, и он обязательно\nзацветет, когда здесь потеплеет!",
      "JPja": "大切に　そだててたら、\nあついきせつには　カワイイお花を\nさかせてくれるからねぇ～、",
      "KRko": "소중하게 잘 기르면\n더운 계절에\n귀여운 꽃을 피울 거야아～ !",
      "TWzh": "只要用心栽培，\n到了炎熱的季節就會開出\n可愛的花朵喔～。",
      "USen": "If ya give it lots of love and tell it ya\nthink it's neat, it'll blossom when the\nwarm season gets here!",
      "USes": "Riégala todos los días y quiérela\nmucho. ¡Pero no la abraces, porque,\na lo mejor, la arrugas un poco!\nSi le das mucho amor y le dices\nque es genial, ¡florecerá cuando\nempiece a hacer calorcito!",
      "USfr": "Donne-lui de l'amour tous les jours,\ndis-lui que tu l'aimes, et il fleurira\nà l'arrivée de la belle saison!"
    }
  },
  {
    "label": "107_02",
    "attribute": "0x0000000000000000",
    "locale": {
      "CNzh": "等花苗慢慢长大，\n记得把它成长过程记录在观察日志上！\n这是老师给你布置的作业哦！。",
      "EUde": "Schau jeden Tag nach dem kleinen\nKerl und notier die Veränderungen.\nDas sind deine Hausaufgaben!",
      "EUen": "Watch it grow every day, and write\ndown how it changes. That's your\nhomework, !",
      "EUes": "Observa cómo crece y apunta su\nevolución en un diario. ¡Esos serán\ntus deberes, !",
      "EUfr": "Observe-le pousser tous les jours et\nnote comment il change. C'est tes\ndevoirs pour le prochain cours !",
      "EUit": "Osservalo mentre cresce ogni giorno\ne annota i suoi cambiamenti. Ti affido\nquesto arduo compito, !",
      "EUnl": "Kijk elke dag hoe hij groeit en hou\neen logboek erover bij. Dat is je\nhuiswerk, !",
      "EUru": "Наблюдай за его ростом\nи записывай изменения. Это твое\nдомашнее задание! .",
      "JPja": "なえが　大きくなっていくようすを\nかんさつ日記に　書いてねぇ！\n先生からの　しゅくだいで～す！　",
      "KRko": "묘목이 어떻게 자라는지\n관찰 일기를 써봐아!\n선생님이 주는 숙제야아～! !",
      "TWzh": "記得將樹苗成長的樣子\n記錄在觀察日記上喔！\n這是老師我出的作業～！。",
      "USen": "Watch it grow every day, and write\ndown how it changes. That's your\nhomework, !",
      "USes": "Observa cómo crece y ve apuntando\ntodos los detalles en una libreta.\n¡Es tu nueva tarea, !",
      "USfr": "Observe-le pousser tous les jours et\nnote comment il change. C'est ton\ndevoir pour le prochain cours!"
    }
  },
  {
    "label": "107_03",
    "attribute": "0x0000000000000000",
    "locale": {
      "CNzh": "我推荐你把它种在家附近哦～！\n这样一来，每当你看到它，\n就会想起我吧～？。",
      "EUde": "Pflanz ihn doch bei deinem Haus ein!\nDann siehst du ihn ständig und\ndenkst an mich, äh, he he he.",
      "EUen": "You oughta plant it near your house!\nThat way, every time ya see it, you'll\nremember this moment we shared.",
      "EUes": "¡La tienes que plantar cerca de casa!\nAsí, cada vez que la veas,\n¡te acordarás de mí!",
      "EUfr": "Tu devrais le planter près de ta\nmaison ! Comme ça, chaque fois que\ntu le verras, tu penseras à moi !",
      "EUit": "Piantalo vicino a casa tua, così,\nogni volta che lo vedrai, ti ricorderai\ndei bei momenti passati con me.",
      "EUnl": "Plant hem vlakbij je huis! Iedere keer\ndat je hem ziet, dan denk je aan dit\ningrijpende moment.",
      "EUru": "Посади его прямо рядом с домом!\nТогда всякий раз, как его видишь,\nбудешь вспоминать меня.",
      "JPja": "キミのお家のそばに　うえるのが、\nオススメだよ～！　そしたら、いつでも\nボクのこと　思い出せるでしょ～？　",
      "KRko": "너네 집 옆에다가 심는 걸\n추천할게에～! 그럼 볼 때마다\n내가 생각나겠지이～? ?",
      "TWzh": "我建議可以種在你家附近喔～！\n這樣你就能隨時看見雞蛋花\n並想起我的事了～。",
      "USen": "You oughta plant it near your house!\nThat way, every time ya see it, you'll\nremember this moment we shared.",
      "USes": "¡La tienes que plantar cerca de casa!\nAsí, cada vez que la veas,\n¡te acordarás de mí!",
      "USfr": "Tu devrais le planter près de ta\nmaison! Comme ça, chaque fois que\ntu le verras, tu penseras à moi!"
    }
  },
  {
    "label": "108",
    "attribute": "0x0000000000000000",
    "locale": {
      "CNzh": "",
      "EUde": "",
      "EUen": "",
      "EUes": "",
      "EUfr": "",
      "EUit": "",
      "EUnl": "",
      "EUru": "",
      "JPja": "",
      "KRko": "",
      "TWzh": "",
      "USen": "",
      "USes": "",
      "USfr": ""
    }
  },
  {
    "label": "108_01",
    "attribute": "0x0000000000000000",
    "locale": {
      "CNzh": "哎呀～不需要吗～？\n也许你明天会改变主意呢，再考虑考虑吧。\n如果你又想要了，可以再来哦～。",
      "EUde": "Meinst du ECHT? Vielleicht denkst\ndu anders, wenn du erst mal drüber\ngeschlafen hast...\nFalls du deine Meinung änderst,\nmeld dich bei mir. Aber nicht vor\nmorgen, (Floskel)!",
      "EUen": "Oh, you don't NEED one? You might\nchange your tune when you wake up\non another day without one.\nIf ya do change your mind, just let\nme know, .",
      "EUes": "¿No quieres? Bueno, a lo mejor\nun día de estos cambias de idea\ncuando veas que no tienes ninguna.\nSi te pasa eso, ya sabes dónde\nestoy, .",
      "EUfr": "Oh, tu en veux pas ? Tu changeras\npeut-être d'avis le jour où tu te\nréveilleras sans frangipanier.\nSi c'est le cas, reviens me voir,\n.",
      "EUit": "Oh! Non ti serve, dici? Ma chissà,\nmagari dopo averci dormito sopra,\npotresti cambiare idea...\nSe ti dovesse succedere, torna\npure da me, domani o un altro\ngiorno, .",
      "EUnl": "O, je HOEFT er geen? Nou, als je\nmorgen zonder eentje wakker wordt,\ndan piep je vast wel anders!\nLaat me maar weten als je van\ngedachten verandert, .",
      "EUru": "Серьезно? Однажды ты поймешь,\nчто жизнь без побега не имеет\nникакого смысла, и передумаешь.\nКогда это произойдет, просто\nсообщи — я все исправлю.\n.",
      "JPja": "あれ～、いらないの～？\nでも、明日になったら　気がかわるかもだし、\nほしくなったら　また来てねぇ～、",
      "KRko": "엥? 필요 없다구우～?\n그래두 내일이 되면 마음이 변할지도 모르니깐\n필요해지면 다시 찾아와줘어, ～",
      "TWzh": "咦～你不要嗎～？\n不過到了明天你有可能會改變心意，\n等你想要時再來找我吧～。",
      "USen": "Oh, you don't NEED one? You might\nchange your tune when you wake up\non another day without one.\nIf ya do change your mind, just let\nme know, .",
      "USes": "¿No quieres? Bueno, a lo mejor\nun día de estos cambias de idea\ncuando veas que no tienes ninguna.\nSi te pasa eso, ya sabes dónde\nestoy, .",
      "USfr": "Oh, tu en veux pas? Tu changeras\npeut-être d'avis le jour où tu te\nréveilleras sans frangipanier.\nSi c'est le cas, reviens me voir,\n."
    }
  },
  {
    "label": "108_02",
    "attribute": "0x0000000000000000",
    "locale": {
      "CNzh": "这样啊，真遗憾……\n不过，要是你明天又对它产生了兴趣的话，\n可以再过来哦。。",
      "EUde": "Ui, so was... Ich hätte nie gedacht,\ndass DU eine Pflanze ablehnst, (Floskel).\nWenn du den Setzling doch noch\nhaben willst, komm wieder zu mir.\nMorgen oder noch später!",
      "EUen": "Oh, huh, wow... I never figured you\nfor one of those folks who doesn't\nneed a free plant in their lives.\nWell, if it's another day and you've\nchanged your mind, come and tell\nme, .",
      "EUes": "Ah... Nunca pensé que tú fueras de\nesas personas que no necesitan una\nplanta gratis en su vida.\nBueno, si cambias de idea, ¡aquí me\ntienes para resolver tu problema!",
      "EUfr": "Ah, euh... Je pensais pas que tu\nfaisais partie de ces gens qui aiment\npas les trucs gratuits.\nEnfin, si tu changes d'avis plus tard,\nreviens me voir, .",
      "EUit": "Oh, caspitina... Non avrei mai detto\nche sei uno di quelli che non amano\nricevere piante.\nBeh, se un giorno dovessi cambiare\nidea, vieni a dirmelo.",
      "EUnl": "O, nou, tjonge... Ik had echt niet\nverwacht dat jij een gratis plant aan\nje neus voorbij zou laten gaan.\nNou, als je er op een andere dag spijt\nvan hebt, kom er dan maar eentje\nhalen, .",
      "EUru": "Неужели? Никогда бы не подумал,\nчто ты... один из тех, кто откажется\nвот так от бесплатного растения.\nНу ладно, если вдруг что-то\nизменится, ты знаешь, как меня\nнайти. .",
      "JPja": "そっかぁ、ザンネン・・・\n明日になって、もし　キョウミがわいたら\nまた　来てくれれば　いいからねぇ、",
      "KRko": "그렇구나, 아쉽다아...\n내일이라도 혹시 관심이 생기면\n그때 다시 찾아와아～ ～",
      "TWzh": "這樣啊，真可惜……\n如果到了明天，你突然感興趣的話，\n再過來找我拿吧，。",
      "USen": "Oh, huh, wow... I never figured you\nfor one of those folks who doesn't\nneed a free plant in their lives.\nWell, if it's another day and you've\nchanged your mind, come and tell\nme, .",
      "USes": "Ah... Nunca pensé que tú fueras de\nesas personas que no necesitan una\nplanta gratis en su vida.\nBueno, si cambias de idea, ¡aquí\nestaré para resolver tu problema!",
      "USfr": "Ah, euh... Je pensais pas que tu\nfaisais partie de ces gens qui aiment\npas les trucs gratuits.\nEnfin, si tu changes d'avis plus tard,\nreviens me voir, ."
    }
  },
  {
    "label": "108_03",
    "attribute": "0x0000000000000000",
    "locale": {
      "CNzh": "其实你不用这么客气啦～\n不过，要是你明天又想自己种一次试试的话，\n可以再来找我哦。。",
      "EUde": "Äh, he he he, kann ich gar nicht\nglauben. Wir reden von einem\nPERFEKTEN Setzling!\nNa, wenn du wieder klar denken\nkannst und ihn doch noch haben\nwillst, meld dich wieder.\nMorgen oder noch später oder so, (Floskel)!",
      "EUen": "A huh huh huh. I just tried to give ya\nthe key to universal bliss, and you\nsaid \"no.\" A huh huh huh.\nWell, if ya get to another day and\nyou've changed your mind, just\nlemme know, .",
      "EUes": "Vaya, sí que lo tienes claro.\nBueno, a lo mejor cambias de idea\nen unos días. ¡Y ya me contarás\nentonces!",
      "EUfr": "Hé hé hé ! Je viens juste de t'offrir\nla clé du bonheur éternel et tu as\nrefusé. Hé hé hé !\nMais bon, si tu changes d'avis un\nautre jour, dis-le-moi, .",
      "EUit": "Ah ah! Io cerco di darti la chiave\nper la felicità universale e tu la\nrifiuti... Caspitina che coraggio!\nBeh, se domani o un altro giorno\ncambi idea, fammelo sapere.",
      "EUnl": "Ahahaha! Ik bood je net de sleutel\nvoor eeuwig plezier aan en je zei:\n\"Nee.\" Ahahaha!\nNou, als je je later bedenkt, laat het\nme dan maar weten, .",
      "EUru": "У-ху-ху. Вот это да! Я предложил\nтебе ключ к познанию природного\nсовершенства, а ты отказался.\nПусть будет так! Но если вдруг\nпередумаешь, дай мне знать.\n.",
      "JPja": "エンリョなんて　しなくていいのに～\n明日になって、もし　そだててみたくなったら\nまた　声をかけに来てねぇ、",
      "KRko": "거절하지 않아도 되는데에～\n내일 눈을 떴는데 키우고 싶어지면\n나한테 다시 말해애～ ～",
      "TWzh": "你可以不用那麼客氣啊～\n如果到了明天，你突然有栽培意願的話，\n再過來找我拿吧，。",
      "USen": "A huh huh huh. I just tried to give ya\nthe key to universal bliss, and you\nsaid \"no.\" A huh huh huh.\nWell, if ya get to another day and\nyou've changed your mind, just\nlemme know, .",
      "USes": "Ay, qué raro, pensé que dirías que sí,\npero dijiste que no, ju, ju, ju.\nBueno, a lo mejor cambias de idea\nen unos días. ¡Y ya me contarás\nentonces!",
      "USfr": "Hé hé hé! Je viens juste de t'offrir\nla clé du bonheur éternel et tu as\nrefusé. Hé hé hé!\nMais bon, si tu changes d'avis un\nautre jour, dis-le-moi, ."
    }
  },
  {
    "label": "113",
    "attribute": "0x0000000000000000",
    "locale": {
      "CNzh": "……咦？可是，我看你的持有物已经装满了，\n好像拿不下其他东西了啊。\n可以请你整理一下再来吗～？。",
      "EUde": "Au weia! Deine Tasche ist ja zum\nPlatzen voll. Komm wieder, wenn\nda weniger drin ist, (Floskel)!",
      "EUen": "Huh? Your pockets are full. You can't\ncarry any more stuff. Maybe come\nback later with less stuff.",
      "EUes": "¿Eh? Pues tienes los bolsillos llenos.\nEso significa que no puedes llevar\nmás cosas encima.\nLibera espacio y vuelve, ¿vale?",
      "EUfr": "Hein ? Tes poches sont pleines. Tu\npeux rien y mettre de plus. Reviens\nquand tu auras moins de trucs.",
      "EUit": "Eh? Hai le tasche piene. Non puoi\nportare altre cose. Magari torna più\navanti con meno roba in tasca.",
      "EUnl": "Hè? Je zakken zitten vol. Er past\nniks meer bij. Kom maar terug\nzodra je wat ruimte hebt gemaakt.",
      "EUru": "Хм, у тебя уже полные карманы! Ты\nничего не можешь взять. Избавься\nот лишнего и возвращайся.",
      "JPja": "・・・あれ？　でも、もちものいっぱいで\nそれ以上は　もてないみたいだし、\nまたあとで　とりに来てくれる～？　",
      "KRko": "...어라? 근데 주머니가 꽉 차서\n더 이상 안 들어갈 것 같으니깐\n자리가 나면 가지러 와줄래애～? ?",
      "TWzh": "咦……？不過你的持有物品這麼滿，\n看起來拿不動更多東西了。\n能請你之後再來拿嗎～？。",
      "USen": "Huh? Your pockets are full. You can't\ncarry any more stuff. Maybe come\nback later with less stuff.",
      "USes": "¿Eh? Tienes los bolsillos llenos.\nEso significa que no puedes llevar\nmás cosas.\nLibera espacio y vuelve, ¿sí?",
      "USfr": "Hein? Tes poches sont pleines. Tu\npeux rien y mettre de plus. Reviens\nquand tu auras moins de trucs."
    }
  },
  {
    "label": "115_01",
    "attribute": "0x0000000000000000",
    "locale": {
      "CNzh": "我有帮你好好保管\n这白色鸡蛋花苗哦！\n谢谢你没忘记过来拿～",
      "EUde": "Huhu, du bist zurück! War mir klar!\nBei einem Gratis-Setzling MUSS\nman doch zugreifen.\nUnd hier ist er, dein wunderbäriger\nWeiß-Frangipanisetzling!",
      "EUen": "Hey, ya came back! I knew ya would.\nNobody can resist the call of free\nshrubs for too long.\nHere! It's a white-plumeria start,\njust for you! From me!",
      "EUes": "¡Anda, has vuelto! Ya lo sabía yo;\n¡nadie puede resistirse a las plantas\ngratis!\n¡Toma! ¡Una plumeria blanca de\nvivero! ¡De mí para ti y sin\ndevoluciones!",
      "EUfr": "Ah, te revoilà ! Je savais que tu\nreviendrais. Personne ne peut\nrésister à un buisson gratuit.\nTiens ! C'est une pousse de\nfrangipanier blanc juste pour toi !\nDe ma part !",
      "EUit": "Ehi, sei tornato! Lo sapevo. Nessuno\nresiste troppo a lungo al richiamo di\nuna pianta gratuita!\nEcco! È un germoglio frangipani\nbianco, da me per te!",
      "EUnl": "Hé, je bent er weer! Ik wist het wel.\nNiemand is immuun voor de lokroep\nvan gratis zaailingen!\nAlsjeblieft! Het is een witte-plumeria-\nzaailing, speciaal voor jou! Van mij!",
      "EUru": "Ты вернулся. Я так и знал!\nБесплатный куст — это очень\nзаманчиво. Не устоять!\nВот, держи! Этот побег белой\nплюмерии теперь твой. Дарю\nот всей души!",
      "JPja": "ちゃんと　あずかってたからねぇ、\nしろいプルメリアのなえ！\nとりに来てくれて　ありがと～",
      "KRko": "하얀 플루메리아 묘목,\n잘 맡아 두고 있었다구우～!\n가지러 와줘서 고마워어～",
      "TWzh": "我有好好保管這個\n白色雞蛋花苗喔！\n謝謝你特地來找我拿～",
      "USen": "Hey, ya came back! I knew ya would.\nNobody can resist the call of free\nshrubs for too long.\nHere! It's a white-plumeria start,\njust for you! From me!",
      "USes": "¡Volviste! Ya lo sabía yo; ¡nadie\npuede resistirse a las plantas gratis!\n¡Toma! ¡Una plumeria blanca de vivero! ¡De mí para ti!",
      "USfr": "Ah, te revoilà! Je savais que tu\nreviendrais. Personne ne peut\nrésister à un buisson gratuit.\nTiens! C'est une pousse de\nfrangipanier blanc juste pour toi!\nDe ma part!"
    }
  },
  {
    "label": "115_02",
    "attribute": "0x0000000000000000",
    "locale": {
      "CNzh": "我有帮你好好保管\n这粉红鸡蛋花苗哦！\n谢谢你没忘记过来拿～",
      "EUde": "Hallihallo, du bist zurück, um ihn dir\nzu holen! Hier, ein richtig schöner\nPink-Frangipanisetzling!",
      "EUen": "Hey, you came back to get the thing!\nHere! It's a pink-plumeria start!",
      "EUes": "¡Has vuelto para que te dé mi\nregalito! Pues toma: ¡una plumeria\nrosa de vivero!",
      "EUfr": "Ah, tu es revenu pour ton buisson !\nTiens ! C'est une pousse de\nfrangipanier rose !",
      "EUit": "Ehi, sei tornato a prendere il mio\nregalo! Eccolo qua, il tuo germoglio\ndi frangipani rosa!",
      "EUnl": "Hé, je bent ervoor teruggekomen!\nOké, hier is je roze-plumeria-zaailing!",
      "EUru": "Привет, ты вернулся за своим\nподарком! Ну вот, держи!\nЭто побег розовой плюмерии.",
      "JPja": "ちゃんと　あずかってたからねぇ、\nピンクのプルメリアのなえ！\nとりに来てくれて　ありがと～",
      "KRko": "핑크색 플루메리아 묘목,\n잘 맡아 두고 있었다구우～!\n가지러 와줘서 고마워어～",
      "TWzh": "我有好好保管這個\n粉紅雞蛋花苗喔！\n謝謝你特地來找我拿～",
      "USen": "Hey, you came back to get the thing!\nHere! It's a pink-plumeria start!",
      "USes": "¡Volviste! Pues toma, tal y como\nlo prometí: ¡una plumeria rosa de vivero!",
      "USfr": "Ah, tu es revenu pour ton buisson!\nTiens! C'est une pousse de\nfrangipanier rose!"
    }
  }
]