﻿[
  {
    "label": "001",
    "attribute": "0x0000000000001300",
    "locale": {
      "CNzh": "",
      "EUde": "",
      "EUen": "",
      "EUes": "",
      "EUfr": "",
      "EUit": "",
      "EUnl": "",
      "EUru": "",
      "JPja": "",
      "KRko": "",
      "TWzh": "",
      "USen": "",
      "USes": "",
      "USfr": ""
    }
  },
  {
    "label": "001_01",
    "attribute": "0x0000000000001300",
    "locale": {
      "CNzh": "我是。\n现在正在做搬家的准备，\n没有办法答复。。",
      "EUde": "Hier ist .\nIch bereite mich gerade auf einen\nUmzug vor und habe keine Zeit.",
      "EUen": "This is .\nI'm not free to talk now because\nI'm packing to move, (catchphrase).",
      "EUes": "Hola, soy . Ahora no te puedo atender porque estoy de mudanza.",
      "EUfr": "Coucou, ici . Désolée de ne pas répondre mais je suis en plein déménagement !",
      "EUit": "Salut, ici . Al momento non posso proprio parlare, sono intenta a preparare un trasloco.",
      "EUnl": "Dit is . Ik kan nu niet praten omdat ik me klaarmaak voor mijn verhuizing, (catchphrase).",
      "EUru": "Привет, это .\nЯ сейчас не могу говорить, потому\nчто я переезжаю! !",
      "JPja": "です\nただいま　引越し準備中で\n出ることが　できません、",
      "KRko": "입니다\n지금은 이사 준비를 하고 있어서\n전화를 받을 수 없어요! !",
      "TWzh": "我是。\n由於目前正在準備搬家，\n無法回覆，。",
      "USen": "This is .\nI'm not free to talk now because\nI'm packing to move, (catchphrase).",
      "USes": "Hola, soy . Ahora no te puedo atender porque estoy en plena mudanza.",
      "USfr": "Coucou, ici . Désolée de ne pas répondre mais je suis en plein déménagement!"
    }
  },
  {
    "label": "001_02",
    "attribute": "0x0000000000001300",
    "locale": {
      "CNzh": "谢谢你的联络。\n我正在做搬家的准备，\n没有办法答复。。",
      "EUde": "Danke für den Anruf. Wegen eines\nbevorstehenden Umzugs ist\n nicht erreichbar.",
      "EUen": "Thanks for getting in touch.\n is unavailable\ndue to a pending move.",
      "EUes": "Soy . Ahora mismo estoy ocupada con una mudanza. Inténtalo más tarde.",
      "EUfr": "Ici , je ne peux pas parler pour cause de déménagement. Désolée,  !",
      "EUit": "Merci, merci, merci per la chiamata.\nOra  è occupata con i preparativi per un trasloco.",
      "EUnl": " is niet bereikbaar want zij is zich aan het voorbereiden op de aankomende verhuizing.",
      "EUru": "Спасибо за звонок. \nсейчас недоступна в связи\nс переездом.",
      "JPja": "ご連絡　ありがとうございます\nは　引越しの準備中で\n出ることが　できません、",
      "KRko": "전화해주셔서 감사합니다!\n은 지금 이사 준비 중이라\n전화를 받을 수 없답니다! !",
      "TWzh": "謝謝你的聯繫，\n正在準備搬家，\n因此無法回覆，。",
      "USen": "Thanks for getting in touch.\n is unavailable\ndue to a pending move.",
      "USes": "Soy . Ahora mismo estoy ocupada con la mudanza. Intenta más tarde.",
      "USfr": "Ici , je ne peux pas parler pour cause de déménagement. Désolée, !"
    }
  },
  {
    "label": "001_03",
    "attribute": "0x0000000000001300",
    "locale": {
      "CNzh": "你好，我是。\n现在正在做搬家的准备，\n没有办法答复。。",
      "EUde": "Hier spricht .\nWegen Umzugsvorbereitungen bin\nich nicht erreichbar, (Floskel).",
      "EUen": "You've reached .\nI'm preparing to move, so I can't\ntalk right now, (catchphrase).",
      "EUes": "Has llamado a , pero ahora no puedo contestar porque voy a mudarme.",
      "EUfr": "Ceci est un message pré-enregistré.  ne peut pas vous répondre car elle fait ses cartons.",
      "EUit": "Pied-à-terre di . Sto per traslocare e adesso non posso parlare, .",
      "EUnl": "Je bent verbonden met . Ik verhuis straks en kan nu niet praten, (catchphrase).",
      "EUru": "Вы позвонили .\nЯ готовлюсь к переезду и не могу\nответить. (catchphrase)!",
      "JPja": "はい　です\nただいま　引越しの準備で\n応答できません、",
      "KRko": "네, 입니다\n지금은 이사 준비를 하고 있어서\n받을 수가 없어요! !",
      "TWzh": "你好，我是。\n目前正在準備搬家，無法回覆，。",
      "USen": "You've reached .\nI'm preparing to move, so I can't\ntalk right now, (catchphrase).",
      "USes": "Estás llamando al teléfono de . Ahora no puedo contestar porque estoy mudándome.",
      "USfr": "Ceci est un message pré-enregistré.  ne peut pas vous répondre, car elle fait ses boîtes."
    }
  },
  {
    "label": "001_04",
    "attribute": "0x0000000000001300",
    "locale": {
      "CNzh": "我是。\n很抱歉，现在正在做搬家的准备，\n没有办法答复。。",
      "EUde": " hier. Tut mir leid,\naber wegen eines anstehenden\nUmzugs bin ich nicht erreichbar.",
      "EUen": "This is . I'm sorry,\nI can't talk now because\nI'm packing to move, (catchphrase).",
      "EUes": "Hola, soy . Estoy liadísima con la mudanza y ahora no puedo atenderte, ¡lo siento!",
      "EUfr": "Ici  ! J'ai pas le temps de répondre ! Je me prépare à déménager ! Et je suis pas prêêête !",
      "EUit": "Ici . Sono davvero desolata ma non posso parlare ora, sono alle prese con un trasloco.",
      "EUnl": "Dit is . Sorry, maar ik kan nu niet praten want ik ben aan het inpakken, (catchphrase).",
      "EUru": "Это . Извините,\nсейчас я не могу говорить, я очень\nзанята переездом! (catchphrase)!",
      "JPja": "です\nごめんなさい　引越しの準備中なので\n今　出られません、",
      "KRko": "입니다\n죄송해요, 이사 준비를 하느라\n지금은 전화를 받을 수 없답니다! !",
      "TWzh": "我是。\n很抱歉，因為目前正在準備搬家，\n所以無法回覆，。",
      "USen": "This is . I'm sorry,\nI can't talk now because\nI'm packing to move, (catchphrase).",
      "USes": "Hola, soy . Estoy ocupada con la mudanza y ahora no puedo atenderte, ¡lo siento!",
      "USfr": "Ici ! J'ai pas le temps de répondre! Je me prépare à déménager! Et je suis pas prêêête!"
    }
  },
  {
    "label": "102",
    "attribute": "0x0000000000001300",
    "locale": {
      "CNzh": "",
      "EUde": "",
      "EUen": "",
      "EUes": "",
      "EUfr": "",
      "EUit": "",
      "EUnl": "",
      "EUru": "",
      "JPja": "",
      "KRko": "",
      "TWzh": "",
      "USen": "",
      "USes": "",
      "USfr": ""
    }
  },
  {
    "label": "102_01",
    "attribute": "0x0000000000001300",
    "locale": {
      "CNzh": "……嗯？\n你想邀请我去露营地玩呀？\n我当然要去！\n我马上就准备出发，\n你等我一下！。",
      "EUde": "...Was? Lädst du mich etwa auf\neuren Campingplatz ein? Da sage\nich nicht Nein!\nIch greife mir schnell alles, was ich\nbrauche, und breche sofort auf.\nWarte kurz, (Floskel)!",
      "EUen": "What's that? Are you inviting me to\n(island name)'s campsite?\nI'm so excited! I'll start packing my\ncamping gear now, (catchphrase)!",
      "EUes": "¿Quieres que vaya a la zona de\nacampada de (island name)? ¡Me encantaría!\n¡Voy a preparar la mochila\ny enseguida me tienes ahí!",
      "EUfr": "Comment ? Tu m'invites à venir faire\ndu camping à (nom de l'île) ?\nQuelle super nouvelle ! Je vais faire\nmon sac de ce pas,  !",
      "EUit": "Mi stai davvero invitando all'area per\ncampeggio di (island name)?\nLo adorerei!\nComincio subito a preparare la mia\nattrezzatura, !",
      "EUnl": "Je wilt dat ik naar de kampeerplek op\n(island name) kom? Dat lijkt me heel leuk!\nIk ga meteen mijn kampeerspullen\ninpakken, (catchphrase)!",
      "EUru": "Что-что? Ты приглашаешь меня\nв кемпинг на острове (island name)?\nВот это да! Ну, я пошла собирать\nснаряжение! (catchphrase)!",
      "JPja": "・・・　えっ？　(island name)の\nキャンプサイトに\n招待してくださるんですか？\nうれしいです～！\nすぐに支度して　出発します！　",
      "KRko": "...네?\n(섬/도 이름)의 캠핑장에\n놀러오지 않겠냐고요?\n정말 기뻐요～!\n바로 준비해서 출발할게요, !",
      "TWzh": "……咦？\n你願意邀請我去\n（島名）的露營地嗎？\n我太高興了～！\n我立刻整理行李準備出發，。",
      "USen": "What's that? Are you inviting me to\n(island name)'s campsite?\nI'm so excited! I'll start packing my\ncamping gear now, (catchphrase)!",
      "USes": "¿Quieres que vaya a la zona de campamento de (island name)? ¡Me encantaría!\nTengo que ir a empacar mis cosas, así que tardaré un poquito, ¡pero allí estaré!",
      "USfr": "Comment? Tu m'invites à venir faire\ndu camping à (nom de l'île)?\nQuelle super nouvelle! Je vais faire\nmon sac de ce pas, !"
    }
  },
  {
    "label": "102_02",
    "attribute": "0x0000000000001300",
    "locale": {
      "CNzh": "……哎呀，我真的可以\n去你那边的露营地玩吗？！\n我好高兴～\n那么我要赶快去做出门的准备了，\n请你等我一下哦！。",
      "EUde": "Du lädst mich wirklich auf den Campingplatz von (Inselname) ein, (Floskel)?\nWie aufregend! Ich mache mich so\nschnell wie möglich auf den Weg!",
      "EUen": "You're really inviting me to visit\n(island name)'s campsite?\nThis is so exciting! I'll be there just\nas soon as I can, (catchphrase).",
      "EUes": "¿Me estás invitando a visitar la\nzona de acampada de tu isla?\n¡Qué gran idea!\nSiempre me ha gustado ir de\nexcursión y experimentar nuevas\nsensaciones. ¡Allá que voy!",
      "EUfr": "Tu m'invites vraiment à venir faire\ndu camping à (nom de l'île) ?\nEn voilà une super nouvelle !\nJ'arrive aussi vite que possible, .",
      "EUit": "Desideri che venga a stare all'area\nper campeggio dell'adorabile (island name)?\nÈ un'idea a dir poco subliiime!\nSarò da te in men che non si dica.",
      "EUnl": "Je wilt dat ik naar de kampeerplek op\n(island name) kom? Wat een leuk idee!\nIk kom zo snel mogelijk, (catchphrase).",
      "EUru": "Ты правда приглашаешь меня\nв кемпинг на острове (island name)?\nВот это приключение! Все,\nбегу собираться! (catchphrase)!",
      "JPja": "・・・　(island name)の\nキャンプサイトにご招待・・・　ですか？\nえ～、うれしいです～\nそれでは　さっそく　そちらに\n向かわせていただきます、",
      "KRko": "...(섬/도 이름)의\n캠핑장에 초대...해주신다고요?!\n어머나～ 너무 기뻐요～\n그럼 바로 거기로\n출발할게요, !",
      "TWzh": "……你要邀請我到\n（島名）的露營地嗎？\n哇～我好高興～\n那麼我現在就過去，。",
      "USen": "You're really inviting me to visit\n(island name)'s campsite?\nThis is so exciting! I'll be there just\nas soon as I can, (catchphrase).",
      "USes": "¿Me estás invitando a visitar la\nzona de campamento de tu isla?\n¡Por todos los rabanitos!\nSiempre me ha gustado explorar,\ny conocer nuevas experiencias\ny culturas.",
      "USfr": "Tu m'invites vraiment à venir faire\ndu camping à (nom de l'île)?\nEn voilà une super nouvelle!\nJ'arrive aussi vite que possible, ."
    }
  },
  {
    "label": "102_03",
    "attribute": "0x0000000000001300",
    "locale": {
      "CNzh": "……在（岛名）的\n露营地见就可以是吗？\n我明白了。\n我立刻做准备过去！\n那么一会见啦～。",
      "EUde": "...Ich soll einen Ausflug zum\nCampingplatz auf (Inselname)\nmachen? Nichts lieber als das!\nIch packe schnell alles Nötige\nein und breche dann sofort auf,\n(Floskel)!",
      "EUen": "You're asking me to come visit the\ncampsite on (island name)?\nAbsolutely I will!\nI'll leave for the island as soon as\nI can pack my stuff, (catchphrase)!",
      "EUes": "¿Dices que debería probar la zona\nde acampada de tu isla? Pues no me\nvendrían mal unas vacaciones...\n¡En cuanto tenga todo listo saldré\npara allá! ¡Nos vemos pronto!",
      "EUfr": "Tu me demandes si je veux venir faire\ndu camping à (nom de l'île) ? Mais bien sûr que oui !\nLe temps de boucler mes affaires,\net je me mets en route,  !",
      "EUit": "Dunque mi stai invitando a\nsoggiornare nell'area per campeggio\ndi (island name)?\nAdoooro! Appena il tempo di ultimare\ni preparativi e sono là. À bientôt,\n!",
      "EUnl": "Dus ik moet de kampeerplek op (island name) bezoeken, hè? Oké, doe ik!\nIk ga meteen zodra ik mijn spullen\nheb ingepakt. Ik zie je daar, (catchphrase)!",
      "EUru": "Так ты приглашаешь меня в кемпинг\nна острове (island name)?\nА вот и договорились!\nЯ соберу снаряжение и сразу\nприеду. (catchphrase)!",
      "JPja": "・・・　(island name)の\nキャンプサイトに　行けばいいんですね\nなるほど、わかりました\nすぐに用意して　そちらに向かわせて\nいただきます！　",
      "KRko": "...(섬/도 이름)의\n캠핑장으로 가면 되죠?\n네, 알겠어요!\n바로 준비해서\n그쪽으로 갈게요～! !",
      "TWzh": "……去（島名）的露營地\n就可以了嗎？\n原來如此，我明白了。\n那麼我會立刻準備出發的！。",
      "USen": "You're asking me to come visit the\ncampsite on (island name)?\nAbsolutely I will!\nI'll leave for the island as soon as\nI can pack my stuff, (catchphrase)!",
      "USes": "¿Quieres que vaya a la zona de campamento de tu isla? Pues no me\nvendrían mal unas vacaciones...\n¡En cuanto tenga todo listo saldré\npara allá! ¡Nos vemos pronto!",
      "USfr": "Tu me demandes si je veux venir faire\ndu camping à (nom de l'île)? Mais bien sûr que oui!\nLe temps de boucler mes affaires,\net je me mets en route, !"
    }
  },
  {
    "label": "102_04",
    "attribute": "0x0000000000001300",
    "locale": {
      "CNzh": "……我明白了！\n只要在露营地见就好了对吧？\n你\n来邀请我，\n我当然会去的！。",
      "EUde": "Lädst du mich tatsächlich auf den\nCampingplatz von (Inselname) ein, (Floskel)?\nVielen Dank! Ich bin schon so gut\nwie unterwegs!",
      "EUen": "Are you really inviting me to stay\nat (island name)'s campsite?\nThanks so much! I'm as good as on\nmy way right now, (catchphrase).",
      "EUes": "Así que me estás invitando a visitar\nla zona de acampada de tu preciosa isla... ¡Cómo podría negarme!\nSaldré de inmediato, en cuanto\nrecuerde dónde guardé mis\nbártulos de acampada.",
      "EUfr": "Tu viens vraiment de m'inviter à venir\nfaire du camping à (nom de l'île) ?\nTu ne peux pas savoir comme ça me\nfait plaisir ! Considère que je suis\ndéjà en chemin, .",
      "EUit": "Ah, mi stai davvero invitando all'area\nper campeggio della deliziosa (island name)?\nMerci! Solo il tempo di preparare\nl'attrezzatura e parto, !",
      "EUnl": "Dus je zegt dat ik de kampeerplek op (island name) echt eens moet komen verkennen...\nWat een leuk idee! Ik ben al\nonderweg, (catchphrase).",
      "EUru": "Ты правда приглашаешь меня\nв кемпинг на острове (island name)?\nСпасибо! Считай, что я уже лечу!\n(catchphrase)!",
      "JPja": "・・・　わかりました！\n(island name)の\nキャンプサイトですね\nご招待ありがとうございます！\nすぐに　そちらに　向かいますので\nどうぞ　よろしくお願いしますね、",
      "KRko": "...알겠어요!\n(섬/도 이름)의\n캠핑장 말씀이시죠?\n초대해주셔서 감사합니다!\n금방 준비해서 갈 테니까\n잘 부탁드려요, ～",
      "TWzh": "……我明白了！\n你是說（島名）的\n露營地對吧。\n謝謝你的邀請！\n我立刻就出發到那裡去，\n到時要請多關照囉，。",
      "USen": "Are you really inviting me to stay\nat (island name)'s campsite?\nThanks so much! I'm as good as on\nmy way right now, (catchphrase).",
      "USes": "Así que me estás invitando a visitar\nla zona de campamento de tu isla...\n¡Cómo podría negarme!\nSolo tengo que encontrar todo mi\nequipo de campamento, y conseguir\nun vuelo. ¡Allá nos vemos!",
      "USfr": "Tu viens vraiment de m'inviter à venir\nfaire du camping à (nom de l'île)?\nTu ne peux pas savoir comme ça me\nfait plaisir! Considère que je suis\ndéjà en chemin, ."
    }
  },
  {
    "label": "202",
    "attribute": "0x0000000000001300",
    "locale": {
      "CNzh": "",
      "EUde": "",
      "EUen": "",
      "EUes": "",
      "EUfr": "",
      "EUit": "",
      "EUnl": "",
      "EUru": "",
      "JPja": "",
      "KRko": "",
      "TWzh": "",
      "USen": "",
      "USes": "",
      "USfr": ""
    }
  },
  {
    "label": "202_01",
    "attribute": "0x0000000000001300",
    "locale": {
      "CNzh": "……哎呀？！你说要招待我去\n（岛名）的露营地……？\n我要去！拜托你了。\n我马上就去准备，\n请你在那边等我一下。。",
      "EUde": "...Huch?! Du willst mich zu einem\nBesuch auf dem Campingplatz von\n(Inselname) einladen?\nOh, ja! Vielen Dank! Ich werde so\nschnell wie möglich aufbrechen.\nBis später, (Floskel)!",
      "EUen": "Oh wow! You're inviting me to stay\nat the (island name) campsite?\nI'd love to. Thanks so much!\nI'll head over as soon as I can\npack a bag, (catchphrase)!",
      "EUes": "¿Quieres que vaya a la zona de\nacampada de tu isla? ¡Qué invitación\ntan inesperada!\nLa verdad es que me apetece salir\nun poco de la rutina; podría estar\nbien... ¡Venga, iré! Nos vemos.",
      "EUfr": "Ça alors ! Tu m'invites à faire du\ncamping à (nom de l'île) ?\nJ'accepte avec plaisir, merci beaucoup ! J'arrive dès que possible,  !",
      "EUit": "Hai deciso di invitarmi a soggiornare\npresso l'area per campeggio della\ndeliziosa (island name)?\nMerci! Sarà un'esperienza sublime,\naccetto volentierissimo.\nSarò presto lì, appena avrò trovato\ne preparato tutta la mia attrezzatura\nda campeggio, .",
      "EUnl": "Je nodigt me uit om naar de\nkampeerplek op (island name) te komen?\nBedankt! Dat lijkt me erg leuk.\nIk ga ernaartoe zodra ik mijn\nkampeerspullen heb gevonden.",
      "EUru": "Ничего себе! Ты приглашаешь меня\nв кемпинг на острове (island name)?\nЯ с удовольствием приеду. Спасибо!\nМне нужно только снаряжение\nсобрать, и я готова! (catchphrase)!",
      "JPja": "・・・　えっ？！　(island name)の\nキャンプサイトに　ご招待・・・？\n行きたいです！　お願いします\nすぐに　準備しますので\n少々お待ちくださいね、",
      "KRko": "...네?! 저를 (섬/도 이름)의\n캠핑장에 초대하시겠다고요...?\n가고 싶어요! 꼭 갈게요!\n금방 준비할 테니까\n기다려주세요! !",
      "TWzh": "……咦！？要邀請我去\n（島名）的露營地……？\n我想去！麻煩你了。\n我會立刻準備出發，\n請在那邊等我過去喔，。",
      "USen": "Oh wow! You're inviting me to stay\nat the (island name) campsite?\nI'd love to. Thanks so much!\nI'll head over as soon as I can\npack a bag, (catchphrase)!",
      "USes": "¿Quieres que vaya a la zona de campamento de tu isla? ¡Qué invitación tan inesperada!\nLa verdad es que estaría bien salir\nun poco de la rutina... ¡Decidido!\nAllá nos vemos.",
      "USfr": "Ça alors! Tu m'invites à faire du\ncamping à (nom de l'île)?\nJ'accepte avec plaisir, merci beaucoup! J'arrive dès que possible, !"
    }
  },
  {
    "label": "202_02",
    "attribute": "0x0000000000001300",
    "locale": {
      "CNzh": "原来如此……\n（岛名）的露营地呀……\n嗯，我很有兴趣！\n请务必让我去玩一下。。",
      "EUde": "Ich verstehe... Auf den Campingplatz\nvon (Inselname) also...\nJa, das klingt durchaus interessant.\nIch nehme die Einladung an,\n(Floskel)!",
      "EUen": "Let me think... (island name)'s\ncampsite, huh?\nI'm kidding. Of course I'm interested!\nSee you there soon, (catchphrase).",
      "EUes": "¿Dices que en tu isla tenéis una\nzona de acampada maravillosa?\nPues siento cierta curiosidad...\nNo me importaría ir a relajarme\nen la playa... ¡Voy a comprarme\nel vuelo enseguida!",
      "EUfr": "Je vois, laisse-moi y réfléchir...\nLe camping de (nom de l'île), il est bien noté ?\nJe te fais marcher. Bien sûr que j'accepte avec plaisir ! À tout bientôt, .",
      "EUit": "Vorresti che venissi a provare\nl'area per campeggio di (island name)?\nBien sûr, pourquoi pas? Io adoooro\nil campeggio!\nDevo solo preparare l'attrezzatura\ne prendere un volo! Merci!",
      "EUnl": "Je wilt dat ik langskom om de\nkampeerplek op (island name)\nuit te proberen?\nJa, hoor. Waarom niet? Klinkt als een goed idee. Tot snel!",
      "EUru": "Дай-ка подумаю... Ты предлагаешь\nпоехать в кемпинг на острове\n(island name), да?\nШучу. Что тут думать! Скоро буду!\nДо встречи там! (catchphrase)!",
      "JPja": "なるほど・・・　(island name)の\nキャンプサイトですか・・・\nええ、興味あります！\nぜひ　遊びに行かせてもらいますね、",
      "KRko": "아... (섬/도 이름)의\n캠핑장 말이군요...\n네! 궁금하네요!\n꼭 놀러갈게요, !",
      "TWzh": "原來如此……\n（島名）的露營地呀……\n嗯嗯，我有興趣！\n請務必讓我去那裡玩，。",
      "USen": "Let me think... (island name)'s\ncampsite, huh?\nI'm kidding. Of course I'm interested!\nSee you there soon, (catchphrase).",
      "USes": "¿Dices que en tu isla tienes una\nzona de campamento maravillosa?\nSuena bastante bien...\nPodría meditar en la playa...\n¡Decidido! Compraré mi vuelo de inmediato.",
      "USfr": "Je vois, laisse-moi y réfléchir...\nLe camping de ⁠(nom de l'île), il est bien noté?\nJe te fais marcher. Bien sûr que\nj'accepte avec plaisir!\nÀ tout bientôt, ."
    }
  },
  {
    "label": "202_03",
    "attribute": "0x0000000000001300",
    "locale": {
      "CNzh": "……哎？是要招待我\n去（岛名）的露营地吗？\n听上去很有趣～\n我立刻就去把行李收拾好，\n请你等我一下。。",
      "EUde": "...Hm? Ich soll auf den Campingplatz\nvon (Inselname) kommen?\nDas klingt gut! Sehr gerne!\nAllerdings könnte es ein Weilchen\ndauern, bis ich meine Camping-\nausrüstung ausgegraben habe...",
      "EUen": "Getting to stay at the campsite on\n(island name) sounds so fun!\nBut it might take me a while to find\nmy camping gear, (catchphrase)...",
      "EUes": "¿De verdad me estás invitando\na la zona de acampada de tu isla?\nQué amable por tu parte, ¡gracias!\nEstaré encantada de ir a pasar\nel rato con vosotros. ¡Hasta pronto!",
      "EUfr": "Oh mais j'adorerais venir faire un\nbrin de camping à (nom de l'île) !\nJe vais me mettre à la recherche de\nmon sac de voyage et j'arrive dès\nque possible,  !",
      "EUit": "Parbleu, un invito in piena regola per\nl'area per campeggio di (island name)... Adoraaabile!\nTuttavia, sappi che mi ci vorrà un po'\nper trovare la mia attrezzatura, ...",
      "EUnl": "Naar de kampeerplek van (island name) gaan klinkt fantastisch!\nMaar het duurt misschien even voor ik mijn kampeerspullen heb gevonden, (catchphrase)...",
      "EUru": "Ух ты! Ты приглашаешь меня\nв кемпинг на острове (island name)? Отличная идея!\nВот только снаряжение соберу\nи сразу приеду! (catchphrase)!",
      "JPja": "・・・　えっ、(island name)の\nキャンプサイトに　ご招待ですか？\n楽しそうです～\nすぐに　荷物をまとめますので\n待っててくださいね、",
      "KRko": "...앗! (섬/도 이름)의\n캠핑장에 초대해주시겠다고요?\n재밌을 것 같네요～\n그럼 바로 짐을 챙길 테니까\n잠시 기다려주세요! !",
      "TWzh": "……咦，邀請我去\n（島名）的露營地嗎？\n聽起來很有趣呢～\n我會立刻整理行李，\n請等我過去喔，。",
      "USen": "Getting to stay at the campsite on\n(island name) sounds so fun!\nBut it might take me a while to find\nmy camping gear, (catchphrase)...",
      "USes": "¿De verdad me estás invitando\na la zona de campamento de tu isla?\nQué amable eres, calabacita.\nEstaré encantada de ir y conocer el\ncolor de tu aura. ¡Hasta pronto!",
      "USfr": "Oh mais j'adorerais venir faire\nun brin de camping à (nom de l'île)!\nJe vais me mettre à la recherche de\nmon sac de voyage et j'arrive dès\nque possible, !"
    }
  },
  {
    "label": "202_04",
    "attribute": "0x0000000000001300",
    "locale": {
      "CNzh": "……哎呀，真的可以吗？\n让我去露营地打搅……\n那么……我要去！。",
      "EUde": "...Oh, wirklich? Auf den\nCampingplatz, (Floskel)...?\nAlso... Ich bin schon unterwegs!",
      "EUen": "You're asking me to come and stay at\nyour campsite? How could I say no?\nI never get invites this cool!\nI'm on my way now, (catchphrase)!",
      "EUes": "¿Me estás invitando a ir de visita\na la zona de acampada de tu isla?\n¡Es una idea fabulosa!\nVoy a prepararlo todo para poder\nestar allí tan pronto como sea\nposible. ¡Adiós!",
      "EUfr": "Tu me proposes de venir faire un peu\nde camping sur ton île ? Comment\nrefuser une telle invitation ?\nJe me mets en route dès que\npossible,  !",
      "EUit": "Mi stai proponendo di venire a\nsoggiornare nell'area per campeggio\ndella tua isola?\nBien... Direi che mi sembra un'idea\nbellissimissimissima! Arrivo al più\npresto, !",
      "EUnl": "Je wilt dat ik naar de kampeerplek\nop je eiland kom? Wauw, zulke coole\nuitnodigingen krijg ik zelden!\nIk ben al onderweg, (catchphrase)!",
      "EUru": "Ты приглашаешь меня в кемпинг на\nвашем острове? Ну как я могу тебе\nотказать?!\nТакие приглашения ведь не каждый\nдень получаешь! Жди, я скоро буду!\n(catchphrase)!",
      "JPja": "・・・　まぁ、いいんですか？\nキャンプサイトに　おじゃましても・・・\nじゃあ・・・　行きます！　",
      "KRko": "...어머나, 정말요?\n캠핑장에 가도 되나요?\n그럼... 갈게요! !",
      "TWzh": "……哎呀，可以嗎？\n去露營地打擾你們……\n那麼……我要去！。",
      "USen": "You're asking me to come and stay at\nyour campsite? How could I say no?\nI never get invites this cool!\nI'm on my way now, (catchphrase)!",
      "USes": "¿Me estás invitando a la zona de campamento de tu isla? ¡Es una\nidea mágica!\nVoy a prepararlo todo para poder\nestar allí tan pronto como sea\nposible, ¡(catchphrase)!",
      "USfr": "Tu me proposes de venir faire un peu\nde camping sur ton île? Comment\nrefuser une telle invitation?\nJe me mets en route dès que\npossible, !"
    }
  },
  {
    "label": "301",
    "attribute": "0x0000000000001300",
    "locale": {
      "CNzh": "",
      "EUde": "",
      "EUen": "",
      "EUes": "",
      "EUfr": "",
      "EUit": "",
      "EUnl": "",
      "EUru": "",
      "JPja": "",
      "KRko": "",
      "TWzh": "",
      "USen": "",
      "USes": "",
      "USfr": ""
    }
  },
  {
    "label": "301_01",
    "attribute": "0x0000000000001300",
    "locale": {
      "CNzh": "你好！我是(resident name)。\n啊，是呀。\n怎么了吗？。",
      "EUde": "Hallo! (Einwohnername) hier.\nOh, (Spitzname)! Welchem Umstand verdanke ich die Ehre?",
      "EUen": "You've reached (resident name).\nOh, hey there, (nickname)!\nWhat's up, (catchphrase)?",
      "EUes": "¡Hola! Soy (resident name).\n¿Quié...? ¡Ah, si eres tú, flor!\n¿Qué tal?",
      "EUfr": "Allô, c'est (nom du résident). Oh, (surnom) ! Qu'est-ce qui me vaut ce plaisir,  ?",
      "EUit": "Salut, ici (resident name).\nOh, (nickname)! Volevi dirmi qualcosa, ?",
      "EUnl": "Hallo, met (resident name). O, (nickname)! Zeg het eens, (catchphrase).",
      "EUru": "Привет, это (resident name).\nА, это ты, (nickname)!\nЧто случилось? (catchphrase)!",
      "JPja": "はい！　(resident name)です\nまぁ、\nどうしたんですか？　",
      "KRko": "네! (resident name)입니다\n어머, 님!\n어쩐 일이신가요? ?",
      "TWzh": "你好！我是(resident name)。\n哇，是。\n請問怎麼了嗎？。",
      "USen": "You've reached (resident name).\nOh, hey there, (nickname)!\nWhat's up, (catchphrase)?",
      "USes": "¡Hola! Soy (resident name).\n¿Quién...? ¡Ah, si eres tú!\n¿Qué tal?",
      "USfr": "Allô, c'est (nom du résident). Oh, (surnom)! Qu'est-ce qui me vaut ce plaisir, ?"
    }
  },
  {
    "label": "301_02",
    "attribute": "0x0000000000001300",
    "locale": {
      "CNzh": "你好，我是(resident name)。\n哎呀，是啊。\n那个……是有什么事\n不方便当面和我说吗？。",
      "EUde": "Ja? Hier (Einwohnername).\nOh, (Spitzname)...\nGibt es etwas, das du mir nicht\nvon Angesicht zu Angesicht sagen\nwolltest, (Floskel)?",
      "EUen": "(resident name) speaking.\n(nickname)?\nWhat's up? Something you couldn't\nshare face-to-face, (catchphrase)?",
      "EUes": "Aquí (resident name).\n¿Eres (nickname)?\n¿Cómo es que me llamas, bichín?\n¿No podías esperar a vernos para\ncontarme algo?",
      "EUfr": "Allô, c'est (nom du résident) à l'appareil. (surnom) ?\nQu'est-ce qu'il y a ? Tu voulais me\ndire quelque chose,  ?",
      "EUit": "Salut, ici (resident name). Ah, (nickname)!\nChe accade? Qualcosa di cui non\npuoi parlare face à face, ?",
      "EUnl": "Hallo, je spreekt met (resident name). Hoi, (nickname)!\nWat is er? Is er iets dat je me niet persoonlijk kon vertellen, (catchphrase)?",
      "EUru": "Привет, говорит (resident name).\nА, (nickname)!\nКак дела? Что у тебя на душе?\n(catchphrase)!",
      "JPja": "はい、(resident name)です\nあら、\nあの・・・　直接だと　言いづらいことでも\nあるんでしょうか？　",
      "KRko": "네! (resident name)입니다\n어머, 님?\n음... 뭔가 얼굴 보고 말하긴 힘든\n이야기인가요? ?",
      "TWzh": "你好，我是(resident name)。\n哎呀，是呀。\n那個……請問是不是有什麼事\n不方便當面說呢？。",
      "USen": "(resident name) speaking.\n(nickname)?\nWhat's up? Something you couldn't\nshare face-to-face, (catchphrase)?",
      "USes": "Hola, habla (resident name).\n¿Eres tú (nickname)?\n¿Qué novedad tienes?",
      "USfr": "Allô, c'est (nom du résident) à l'appareil. (surnom)?\nQu'est-ce qu'il y a? Tu voulais me\ndire quelque chose, ?"
    }
  },
  {
    "label": "301_03",
    "attribute": "0x0000000000001300",
    "locale": {
      "CNzh": "你好，我是(resident name)。\n哎呀，是？！\n呵呵，我们住在同一座上\n还用这种方式对话，\n真有趣呢。。",
      "EUde": "Hallihallo, hier ist (Einwohnername). Waaas, du bist es, (Spitzname)?!\nWarum kommst du nicht persönlich\nrüber? So weit weg wohne ich ja\nnicht, (Floskel)!",
      "EUen": "You've reached (resident name).\n(nickname)?\nYou do realize we live on the\nsame island, (catchphrase)?",
      "EUes": "¡Hola! Al habla (resident name).\n¿Eres tú, (nickname)?\n¡Qué agradable sorpresa!\nNo es por nada, pero, si quieres\nhablar conmigo, puedes venir a\nmi casa.",
      "EUfr": "Ici (nom du résident) à l'appareil. Tiens, (surnom) ?\nPourquoi tu m'appelles au lieu de\nvenir me voir directement,  ?",
      "EUit": "Questo è il pied-à-terre di (resident name). Oh, (nickname)?!\nLo sai che viviamo sulla stessa\nsublime isola, vero?",
      "EUnl": "Met (resident name). O! (nickname)?!\nJe weet toch dat we op hetzelfde\neiland wonen, (catchphrase)?",
      "EUru": "У аппарата (resident name).\n(nickname)? Какой сюрприз!\nХочу тебе напомнить, что мы,\nвообще-то, живем на одном\nострове. (catchphrase)!",
      "JPja": "もしもし　(resident name)です\nえっ、？！\nうふふ、同じに　住んでるのに\nこんな風に　お話しするなんて\n面白いですね、",
      "KRko": "여보세요, (resident name)입니다\n앗! 님?!\n우후후, 같은 에 사는데\n이렇게 전화로 이야기하니까\n재밌네요! !",
      "TWzh": "喂，我是(resident name)。\n呃，！？\n呵呵呵，我們明明住在同座島上，\n卻用這種方法說話，\n真是有趣呢，。",
      "USen": "You've reached (resident name).\n(nickname)?\nYou do realize we live on the\nsame island, (catchphrase)?",
      "USes": "¡Hola! Habla (resident name).\n¿Eres tú, (nickname)?\n¡Qué agradable sorpresa!\nQué curioso que me llames si vivimos\nen la misma isla. Espero que no te dé\npena de venir a mi casita.",
      "USfr": "Ici (nom du résident) à l'appareil. Tiens, (surnom)?\nPourquoi tu m'appelles au lieu de\nvenir me voir directement, ?"
    }
  },
  {
    "label": "301_04",
    "attribute": "0x0000000000001300",
    "locale": {
      "CNzh": "喂，你好，我是(resident name)……\n？\n有什么事吗？。",
      "EUde": "Ja, hallo? (Einwohnername) hier...\n(Spitzname)? Ist irgendwas\npassiert, (Floskel)?",
      "EUen": "Hello, yes, this is (resident name).\n(nickname)?\nIs something wrong, (catchphrase)?",
      "EUes": "¿Hola? ¿(nickname)?\n¿Qué ocurre? ¿Ha pasado algo?",
      "EUfr": "Allô, ici (nom du résident). Oh, (surnom) ?\nEst-ce qu'il y a un problème,  ?",
      "EUit": "Salut, ici (resident name).\nEhm, (nickname)? Acciderbolina, è forse accaduto qualcosa di grave, ?",
      "EUnl": "Hallo, ja, dit is (resident name). (nickname)?\nIs er iets mis, (catchphrase)?",
      "EUru": "Привет, да, это (resident name).\n(nickname)?\nЧто стряслось? (catchphrase)!",
      "JPja": "はい　もしもし　(resident name)です・・・\n？\nなにか　ありましたか？　",
      "KRko": "네, 여보세요! (resident name)입니다...\n님?\n무슨 일 있으세요? ?",
      "TWzh": "喂，你好，我是(resident name)……\n？\n請問發生了什麼事嗎？。",
      "USen": "Hello, yes, this is (resident name).\n(nickname)?\nIs something wrong, (catchphrase)?",
      "USes": "¿Hola? ¿(nickname)?\n¿Pasa algo?",
      "USfr": "Allô, ici (nom du résident). Oh, (surnom)?\nEst-ce qu'il y a un problème, ?"
    }
  },
  {
    "label": "302",
    "attribute": "0x0000000000001300",
    "locale": {
      "CNzh": "",
      "EUde": "",
      "EUen": "",
      "EUes": "",
      "EUfr": "",
      "EUit": "",
      "EUnl": "",
      "EUru": "",
      "JPja": "",
      "KRko": "",
      "TWzh": "",
      "USen": "",
      "USes": "",
      "USfr": ""
    }
  },
  {
    "label": "302_01",
    "attribute": "0x0000000000001300",
    "locale": {
      "CNzh": "……那个，\n是要在自己住的上的露营地露营吗？\n唔～虽然这样也不错，\n不过那毕竟是为了访客建造的设施……\n我还是不去了，对不起。。",
      "EUde": "...Ob ich auf dem Campingplatz\nunserer Insel einmal zelten will?\nHmm, Spaß könnte das schon\nmachen, aber... der ist ja eigentlich\nnur für Gäste gedacht, (Floskel).",
      "EUen": "Wait—you want me to camp\nat our island's campsite?\nI don't get it...\nI mean, that's meant for visitors, and\nI already live here, (catchphrase).",
      "EUes": "¿Cómo? ¿Quieres que use la zona\nde acampada de nuestra isla?\nNo me importaría, pero creo que\nla idea es que la usen los turistas\ny no los residentes.",
      "EUfr": "Tu veux que j'aille m'installer dehors\ndans le camping ? Euh... je ne\ncomprends pas...\nJe veux dire, il est réservé aux\nvisiteurs, et... et moi j'habite déjà\nici, .",
      "EUit": "Parbleu, non vorrai certo che\nsoggiorni all'area per campeggio\ndell'isola, n'est-ce pas?\nMmmh, sono alquanto sicura che sia\ndestinato ai visitatori... Mentre io\nrisiedo qui, .",
      "EUnl": "Wacht, je wilt dat ik ga kamperen\nop de kampeerplek hier op ons\neiland?\nVolgens mij is die alleen voor\nbezoekers en ik woon hier al.",
      "EUru": "Погоди, ты предлагаешь мне пожить\nв палатке на нашем собственном\nострове? В кемпинге?\nНичего не понимаю. Это же для\nтуристов, а я и так тут живу!\n(catchphrase)!",
      "JPja": "え～っと、自分のの　キャンプサイトで\nキャンプを　するんですか？\nう～ん、そういうのも　いいですけど\nお客さまのための　施設ですから・・・\nエンリョしますね　ごめんなさい、",
      "KRko": "그러니까, 우리 의 캠핑장에서\n캠핑을 한다는 거죠?\n으음～ 재밌을 것 같긴 하지만\n거긴 손님들을 위한 시설이니까...\n사양할게요, 죄송해요! !",
      "TWzh": "……唔……\n要在島上的露營地露營嗎？\n嗯～雖然那麼做也不錯，\n不過那是提供給遊客們的設施……\n抱歉我就先不考慮了，。",
      "USen": "Wait—you want me to camp\nat our island's campsite?\nI don't get it...\nI mean, that's meant for visitors, and\nI already live here, (catchphrase).",
      "USes": "¿Cómo? ¿Quieres que vaya a la zona de campamento de nuestra isla?\nMe encantaría, pero preferiría dejar\nel espacio libre para los turistas.",
      "USfr": "Tu veux que j'aille m'installer dehors\ndans le camping? Euh... je ne\ncomprends pas...\nJe veux dire, il est réservé aux\nvisiteurs, et... et moi j'habite déjà\nici, ."
    }
  },
  {
    "label": "302_02",
    "attribute": "0x0000000000001300",
    "locale": {
      "CNzh": "……哎？\n要我在露营地露营吗？\n那个，你是指在自己住的上吧……\n虽然听上去很有趣，\n但我还是不去了。\n对不起呀。。",
      "EUde": "...Wie? Ich soll auf dem Campingplatz\nzelten gehen? So nah bei meinem\neigenen Haus?!\nAlso, da käme ich mir doch\netwas komisch vor.\nTut mir leid, (Floskel).",
      "EUen": "Huh? You want me to camp out at\nour campsite? And you are talking\nabout the one here, on this island?\nThat's a funny idea, but I think I'm\ngoing to pass on it, (catchphrase).",
      "EUes": "¿Quieres que monte una tienda\nen la zona de acampada?\nPodría ser divertido, pero prefiero\ndormir en mi camita, lo siento.",
      "EUfr": "Quoi ? Tu me proposes de séjourner\ndans notre camping ? Tu parles bien\nde celui de notre île, hein ?\nL'idée est plutôt originale, mais je\ncrois que je vais devoir décliner\nl'invitation, .",
      "EUit": "Pardon? Desideri che soggiorni\nall'area per campeggio? Oh, vuoi\ndire quello sulla mia isola?\nIdea divertentissimissimissima, ma\ntemo che per stavolta non coglierò\nl'occasione, .",
      "EUnl": "Hè? Je wilt dat ik op onze\nkampeerplek ga kamperen? Eh, bedoel je echt die op ons eiland?\nDat is een grappig idee, maar ik denk\nniet dat ik het doe, (catchphrase).",
      "EUru": "Что? Ты предлагаешь мне пожить\nв палатке в кемпинге? Здесь? У нас\nна острове?\nНеплохая идея, но в этот раз\nя, пожалуй, откажусь от\nприглашения. (catchphrase)!",
      "JPja": "・・・　えっ、わたしが　キャンプサイトで\nキャンプするんですか？\nえっと、自分のですよね・・・\n面白そうですけど\nわたしは　エンリョしておきます\nごめんなさいね、",
      "KRko": "...네? 제가 캠핑장에서 캠핑이요?\n음, 그치만 제가 사는 인데...\n재밌을 것 같긴 하지만 전 사양할게요\n죄송해요! !",
      "TWzh": "……咦，\n問我要不要去露營地露營嗎？\n呃，你是說在自己住的島上……\n聽起來好像很有趣，\n但我還是先算了。\n抱歉喔，。",
      "USen": "Huh? You want me to camp out at\nour campsite? And you are talking\nabout the one here, on this island?\nThat's a funny idea, but I think I'm\ngoing to pass on it, (catchphrase).",
      "USes": "¿Quieres que vaya de visita a la\nzona de campamento?\nSuena divertido, pero preferiría\ndormir en mi camita, lo siento.",
      "USfr": "Quoi? Tu me proposes de séjourner\ndans notre camping? Tu parles bien\nde celui de notre île, hein?\nL'idée est plutôt originale, mais je\ncrois que je vais devoir décliner\nl'invitation, ."
    }
  },
  {
    "label": "302_03",
    "attribute": "0x0000000000001300",
    "locale": {
      "CNzh": "……唔～就算让我去\n上的露营地……\n你是要我去露营？\n难得你特意想到好主意，\n但我还是不去了吧。\n对不起呀。。",
      "EUde": "...Also ich weiß nicht. Auf dem\nCampingplatz der eigenen Insel\nUrlaub machen? Warum denn?\nNett, dass du mich fragst, aber das\nist nichts für mich. Ich hoffe, du bist\nmir nicht böse, (Floskel).",
      "EUen": "I must be missing something. Why do\nyou want me to go to the campsite?\nWait, did you want me to camp\nthere? Um, I don't think I'll be\ndoing that, (catchphrase)...",
      "EUes": "Creo que no te he oído bien...\n¿Por qué iba yo a usar la zona\nde acampada de la isla?\nEstá pensada para las visitas,\npara que puedan disfrutar de\nla isla tanto como nosotros.",
      "EUfr": "Je ne suis pas sûre d'avoir bien\ncompris... Tu me proposes de faire\nun séjour dans notre camping ?\nMais... j'ai déjà une maison ici, tu\nsais ? Désolée, mais je vais devoir\nrefuser ton offre, ...",
      "EUit": "Oh, temo che mi stia sfuggendo\nqualcosa. Perché mai dovrei andare\nall'area per campeggio?\nDavvero vuoi che vada a fare campeggio lì? Sai... non credo\nproprio che lo farò, .",
      "EUnl": "Volgens mij mis ik iets. Waarom moet\nik naar de kampeerplek gaan? Wacht,\nje wilt dat ik er ga kamperen?\nIk, eh, denk niet dat ik dat ga doen, (catchphrase)...",
      "EUru": "Мне кажется, я чего-то не понимаю.\nЗачем мне ехать в кемпинг?\nТы предлагаешь мне пожить\nв палатке? Хм, нет уж, я, пожалуй,\nоткажусь. (catchphrase)!",
      "JPja": "う～ん、のキャンプサイトに来てと\n言われましても・・・\nわたしが　キャンプを　するんですか？\nせっかくの　ご提案ですけど\nそれは　やめときます\nごめんなさいね、",
      "KRko": "으음～ 우리 의\n캠핑장에 놀러오라고요...?\n거기서 제가 캠핑하는 건가요?\n모처럼 이야기 꺼내주셨는데 죄송하지만\n아무래도 그건 내키지 않네요\n죄송해요, !",
      "TWzh": "……嗯～\n即使你叫我去島上的露營地……\n是要找我去露營嗎？\n難得你提議去露營，\n但我還是先算了。\n真抱歉喔，。",
      "USen": "I must be missing something. Why do\nyou want me to go to the campsite?\nWait, did you want me to camp\nthere? Um, I don't think I'll be\ndoing that, (catchphrase)...",
      "USes": "Creo que no te entendí bien...\n¿Por qué quieres que me vaya a la\nzona de campamento de la isla?\nYo pensé que solo era para las\nvisitas, preferiría dejar el espacio\nlibre y quedarme en mi casita.",
      "USfr": "Je ne suis pas sûre d'avoir bien\ncompris... Tu me proposes de faire\nun séjour dans notre camping?\nMais... j'ai déjà une maison ici, tu\nsais? Désolée, mais je vais devoir\nrefuser ton offre, ..."
    }
  },
  {
    "label": "302_04",
    "attribute": "0x0000000000001300",
    "locale": {
      "CNzh": "……你是说～在自己所住上的露营地\n露营吗？你打算邀请我？\n唔～这样的事情……\n对不起！还是算了吧。。",
      "EUde": "...Waaas?! Ob ich auf dem\nCampingplatz unserer Insel\nzelten gehen will?\nHätte das irgendeinen Sinn?\nTut mir leid, aber das ist nichts\nfür mich, (Floskel).",
      "EUen": "What? I don't get it. Why would\nI want to camp right here at our\nisland's campsite, (catchphrase)?\nSorry, I'm going to have to decline.",
      "EUes": "¿Me estás pidiendo que use la zona\nde acampada de nuestra isla?\n¡Es para las visitas! No me parece\nbien ocuparla si ya vivo aquí,\n¿lo comprendes?",
      "EUfr": "Quoi ? Je ne te suis pas... Pourquoi\nest-ce que je voudrais faire du\ncamping sur une île où je vis déjà ?\nDésolée, mais je vais devoir refuser\nton invitation, .",
      "EUit": "Quoi? Per quale recondito motivo\ndovrei accamparmi qui, all'area per\ncampeggio della nostra isola?\nJe suis désolée, ma temo che dovrò\ndeclinare l'invito, .",
      "EUnl": "Wat? Waarom zou ik op de\nkampeerplek op ons eiland willen\nkamperen, (catchphrase)?\nSorry, maar dat ga ik niet doen.",
      "EUru": "Что? Ничего не понимаю. С какой\nстати я буду ночевать в кемпинге\nна собственном острове?\nНет, пожалуй, я откажусь.\n(catchphrase)!",
      "JPja": "・・・　え～、自分のの　キャンプサイトで\nキャンプするんですか？　わたしが？\nう～ん、そういうのは　ちょっと・・・\nごめんなさい！　やめときます、",
      "KRko": "...네～? 의 캠핑장에서\n캠핑이요? 제가요?\n으음～ 그건 좀...\n죄송해요! 전 사양할게요, !",
      "TWzh": "……咦～\n要在島上的露營地露營嗎？讓我去？\n嗯～我覺得有點……\n對不起！先不要好了，。",
      "USen": "What? I don't get it. Why would\nI want to camp right here at our\nisland's campsite, (catchphrase)?\nSorry, I'm going to have to decline.",
      "USes": "¿Quieres que vaya a la zona de campamento de nuestra isla?\n¡Pero es para las visitas! Preferiría\ndejarles el espacio si yo ya tengo\nmi casita.",
      "USfr": "Quoi? Je ne te suis pas... Pourquoi\nest-ce que je voudrais faire du\ncamping sur une île où je vis déjà?\nDésolée, mais je vais devoir refuser\nton invitation, ."
    }
  },
  {
    "label": "401",
    "attribute": "0x0000000000001300",
    "locale": {
      "CNzh": "",
      "EUde": "",
      "EUen": "",
      "EUes": "",
      "EUfr": "",
      "EUit": "",
      "EUnl": "",
      "EUru": "",
      "JPja": "",
      "KRko": "",
      "TWzh": "",
      "USen": "",
      "USes": "",
      "USfr": ""
    }
  },
  {
    "label": "401_01",
    "attribute": "0x0000000000001300",
    "locale": {
      "CNzh": "你好，我是(resident name)。\n请问有什么事吗？。",
      "EUde": "Hallo, hier ist (Einwohnername).\nWas kann ich für dich tun, (Floskel)?",
      "EUen": "Hello, this is (resident name).\nWhat can I do for you, (catchphrase)?",
      "EUes": "¡Hola! Soy (resident name).\n¿Qué puedo hacer por ti, ?",
      "EUfr": "Coucou, ici (nom du résident). Qu'est-ce que je peux faire pour toi,  ?",
      "EUit": "Pronto, je suis (resident name).\nCosa posso fare per te, (catchphrase)?",
      "EUnl": "Hoi, met (resident name). Wat kan ik voor je doen, (catchphrase)?",
      "EUru": "Привет, это (resident name).\nЧем могу быть полезна?\n(catchphrase)!",
      "JPja": "はい　(resident name)です\nどういった　ご用件でしょう、",
      "KRko": "네, (resident name)입니다～\n어쩐 일로 전화하셨어요? ?",
      "TWzh": "你好，我是(resident name)。\n請問有什麼事嗎？。",
      "USen": "Hello, this is (resident name).\nWhat can I do for you, (catchphrase)?",
      "USes": "¡Hola! Soy (resident name).\n¿Qué puedo hacer por ti, (catchphrase)?",
      "USfr": "Coucou, ici (nom du résident). Qu'est-ce que je peux faire pour toi, ?"
    }
  },
  {
    "label": "401_02",
    "attribute": "0x0000000000001300",
    "locale": {
      "CNzh": "你好，我是(resident name)。\n那个，请问找我有什么事呀？。",
      "EUde": "Ja, hier ist (Einwohnername).\nWie kann ich helfen, (Floskel)?",
      "EUen": "Yes, this is (resident name).\nWhat do you need, (catchphrase)?",
      "EUes": "¿Diga? Soy (resident name).\n¿Qué querías, ?",
      "EUfr": "Allô ! Oui, c'est bien (nom du résident). Qu'est-ce que je peux faire pour toi,  ?",
      "EUit": "Oui, je suis (resident name).\nCosa posso fare per te, (catchphrase)?",
      "EUnl": "Ja, met (resident name). Wat is er, (catchphrase)?",
      "EUru": "Да, это (resident name).\nЧем могу помочь? (catchphrase)!",
      "JPja": "はい　(resident name)です\nえっと、何かご用でしょうか、",
      "KRko": "네, (resident name)입니다\n앗, 무슨 일 있으세요? ?",
      "TWzh": "你好，我是(resident name)。\n嗯……請問有什麼事嗎？。",
      "USen": "Yes, this is (resident name).\nWhat do you need, (catchphrase)?",
      "USes": "¿Hola? Soy (resident name).\n¿Qué necesitas, (catchphrase)?",
      "USfr": "Allô! Oui, c'est bien (nom du résident). Qu'est-ce que je peux faire pour toi, ?"
    }
  },
  {
    "label": "401_03",
    "attribute": "0x0000000000001300",
    "locale": {
      "CNzh": "啊、你好，我是(resident name)！\n请问你找我有什么事呀？。",
      "EUde": "Hi! Hier ist (Einwohnername)!\nKann ich dir weiterhelfen, (Floskel)?",
      "EUen": "Hi! This is (resident name)!\nCan I help you, (catchphrase)?",
      "EUes": "¡Hola! Al habla (resident name).\n¿Qué hay, ?",
      "EUfr": "Coucou ! Oui, c'est bien (nom du résident) ! En quoi est-ce que je peux t'aider,  ?",
      "EUit": "Salut! Sono (resident name)!\nCosa posso fare pour toi, (catchphrase)?",
      "EUnl": "Hoi! Met (resident name)! Hoe kan ik je helpen, (catchphrase)?",
      "EUru": "Привет! Это (resident name)!\nЯ тебя слушаю! (catchphrase)!",
      "JPja": "はい　もしもし　(resident name)です！\nえっと　ご用件は　なんでしょうか、",
      "KRko": "네, 여보세요～ (resident name)입니다!\n앗, 어쩐 일이세요? ?",
      "TWzh": "喂？你好，我是(resident name)！\n嗯……請問找我有什麼事嗎？。",
      "USen": "Hi! This is (resident name)!\nCan I help you, (catchphrase)?",
      "USes": "¡Hola! Habla (resident name).\n¿En qué puedo ayudarte, (catchphrase)?",
      "USfr": "Coucou! Oui, c'est bien (nom du résident)! En quoi est-ce que je peux t'aider, ?"
    }
  },
  {
    "label": "401_04",
    "attribute": "0x0000000000001300",
    "locale": {
      "CNzh": "你好，我是(resident name)。\n请问有什么事啊！。",
      "EUde": "Hier spricht (Einwohnername).\nWas ist dein Begehr, (Floskel)?",
      "EUen": "This is (resident name).\nWhat's on your mind, (catchphrase)?",
      "EUes": "¿Sí? Al habla (resident name).\n¿En qué puedo ayudarte?",
      "EUfr": "Allô, c'est bien (nom du résident). Qu'est-ce qui me vaut le plaisir de cet appel,  ?",
      "EUit": "Pronto, je suis (resident name).\nA cosa devo il piacere di questa\nchiamata, (catchphrase)?",
      "EUnl": "Met (resident name). Wat kan ik voor je doen, (catchphrase)?",
      "EUru": "Это (resident name).\nЧем могу быть полезна?\n(catchphrase)!",
      "JPja": "はい　(resident name)です\nご用件を　どうぞ！　",
      "KRko": "네, (resident name)입니다!\n편하게 말씀하세요! !",
      "TWzh": "你好，我是(resident name)。\n有什麼事請說吧，。",
      "USen": "This is (resident name).\nWhat's on your mind, (catchphrase)?",
      "USes": "¿Sí? Habla (resident name).\n¿En qué puedo ayudarte?",
      "USfr": "Allô, c'est bien (nom du résident). Qu'est-ce qui me vaut le plaisir de cet appel, ?"
    }
  }
]