﻿[
  {
    "label": "001",
    "locale": {
      "CNzh": "还好吗？",
      "EUde": "Wie geht es dir, (Spitzname)?",
      "EUen": "How do you do, (nickname)?",
      "EUes": "¿Cómo te va, (nickname)?",
      "EUfr": "Comment ça va, (surnom) ?",
      "EUit": "Come va, (nickname)?",
      "EUnl": "Hoe maak je het, (nickname)?",
      "EUru": "Приветствую, (nickname)!",
      "JPja": "げんき？　",
      "KRko": "안녕, ?",
      "TWzh": "你過得好嗎？",
      "USen": "How do you do, (nickname)?",
      "USes": "¿Cómo te va, (nickname)?",
      "USfr": "Comment vas-tu, (surnom)?"
    }
  },
  {
    "label": "002",
    "locale": {
      "CNzh": "收",
      "EUde": "An: (Spitzname)",
      "EUen": "(nickname),",
      "EUes": "Querido (nickname):",
      "EUfr": "(surnom),",
      "EUit": "Per (nickname)!",
      "EUnl": "(nickname),",
      "EUru": "(nickname)!",
      "JPja": "　にむけて",
      "KRko": " 앞",
      "TWzh": "獻給",
      "USen": "(nickname),",
      "USes": "Querido (nickname):",
      "USfr": "(surnom),"
    }
  },
  {
    "label": "003",
    "locale": {
      "CNzh": "我有话说，",
      "EUde": "Lieber (Spitzname)!",
      "EUen": "Dearest (nickname),",
      "EUes": "A mi muy querido (nickname):",
      "EUfr": "Cher (surnom),",
      "EUit": "Carissimo (nickname)!",
      "EUnl": "Zeer gewaardeerde (player name),",
      "EUru": "Дорогой (nickname)!",
      "JPja": "ねえ　",
      "KRko": "저기, !",
      "TWzh": "跟你說喔，",
      "USen": "Dearest (nickname),",
      "USes": "A mi muy querido (nickname):",
      "USfr": "Cher (surnom),"
    }
  },
  {
    "label": "004",
    "locale": {
      "CNzh": "嗨！",
      "EUde": "Ich grüße dich, (Spitzname)!",
      "EUen": "Why, hello, (nickname)!",
      "EUes": "A mi muy apreciado (nickname):",
      "EUfr": "Salut, (surnom) !",
      "EUit": "Ciao, (nickname)!",
      "EUnl": "Hallo, hallo, (nickname)!",
      "EUru": "Здравствуй, (nickname)!",
      "JPja": "ハイ！　",
      "KRko": "하이! !",
      "TWzh": "嗨！",
      "USen": "Why, hello, (nickname)!",
      "USes": "A mi muy apreciado (nickname):",
      "USfr": "Bien le bonjour, (surnom)!"
    }
  },
  {
    "label": "005",
    "locale": {
      "CNzh": "给",
      "EUde": "Sehr geehrter (Spitzname)!",
      "EUen": "My dear (nickname),",
      "EUes": "(nickname) de mi corazón:",
      "EUfr": "Mon cher (surnom),",
      "EUit": "Mio caro (nickname)!",
      "EUnl": "Mijn beste (player name),",
      "EUru": "Родной (nickname) !",
      "JPja": "へ",
      "KRko": "에게",
      "TWzh": "給",
      "USen": "My dear (nickname),",
      "USes": "(nickname) de mi corazón:",
      "USfr": "Mon cher (surnom),"
    }
  },
  {
    "label": "101",
    "locale": {
      "CNzh": "我在信箱里发现了你寄来的消息！\n谢谢你。",
      "EUde": "Über deine Karte habe ich mich\nsehr gefreut!",
      "EUen": "I was over the moon when I opened\nmy mailbox and saw your letter!",
      "EUes": "No sabes la ilusión que me hizo\nabrir el buzón y hallar tu postal.",
      "EUfr": "J'ai sauté de joie en découvrant ta\ncarte dans ma boîte aux lettres !",
      "EUit": "Quando ho visto la posta, ho\ntoccato il cielo con un dito!",
      "EUnl": "Wat heerlijk toch om je kaart aan\nte treffen in mijn brievenbus!",
      "EUru": "От твоей открытки все вокруг\nкак будто стало светлее!",
      "JPja": "ポストに　アナタのメッセージが、\nはいってたわ！　ありがとう。",
      "KRko": "우편함에 당신 메시지가 있더라!\n진심으로 고마워.",
      "TWzh": "你的心意卡已經寄到我的信箱囉！\n謝謝你。",
      "USen": "I was over the moon when I opened\nmy mailbox and saw your letter!",
      "USes": "No sabes lo feliz que me hizo\nabrir el buzón y ver tu tarjeta.",
      "USfr": "J'ai sauté de joie en découvrant ta\ncarte dans ma boîte aux lettres!"
    }
  },
  {
    "label": "102",
    "locale": {
      "CNzh": "这张心意卡……\n真的让我心头一震呢。",
      "EUde": "Der Erhalt deiner Karte war ein\nFest für mich.",
      "EUen": "My heart skipped a beat when I got\nyour postcard in the mail, darling.",
      "EUes": "Recibir tu postal ha sido una\nsorpresa pero que muy agradable.",
      "EUfr": "Quand j'ai vu ta carte, je me suis\njetée dessus et je l'ai dévorée !",
      "EUit": "Il cuore mi è sobbalzato in\ngola vedendo il tuo biglietto.",
      "EUnl": "Mijn hart maakte een sprongetje\ntoen ik je kaart ontving, schat!",
      "EUru": "От твоей открытки мое сердце\nчуть не выпрыгнуло из груди!",
      "JPja": "もらった　メッセージカード、\nココロに　グッときたわ。",
      "KRko": "당신한테 받은 메시지 카드,\n가슴에 크게 와닿았어.",
      "TWzh": "看完收到的心意卡，\n我真的很感動呢。",
      "USen": "My heart skipped a beat when I got\nyour postcard in the mail, darling.",
      "USes": "Recibir tu tarjeta ha sido una\nsorpresa pero que muy agradable.",
      "USfr": "Quand j'ai vu ta carte, je me suis\njetée dessus et je l'ai dévorée!"
    }
  },
  {
    "label": "103",
    "locale": {
      "CNzh": "你这封情真意切的留言，\n我已经读完了。",
      "EUde": "Ich habe deine gefühlvolle Karte\nwieder und wieder gelesen.",
      "EUen": "I read and reread the letter you\ncomposed for me. It was so lovely!",
      "EUes": "Adoro tus postales. Espero que\nme envíes muchísimas más.",
      "EUfr": "Merci pour ta gentille carte. Si tu\nsavais combien de fois je l'ai lue !",
      "EUit": "Ho riletto così tante volte\nil tuo dolcissimo biglietto...",
      "EUnl": "Ik heb je kaart steeds opnieuw\ngelezen, betoverd door je charme!",
      "EUru": "Перечитала твою открытку раз\nсто, наверное. Она очень милая!",
      "JPja": "アナタの　ことばで　つづられた\nメッセージ、よませてもらったわ。",
      "KRko": "당신의 말로 지은 메시지,\n행복하게 잘 읽었어.",
      "TWzh": "你寫給我的心意卡，\n我全都看過囉。",
      "USen": "I read and reread the letter you\ncomposed for me. It was so lovely!",
      "USes": "Adoro tus tarjetas. Espero que\nme envíes muchísimas más.",
      "USfr": "Merci pour ta gentille carte. Si tu\nsavais combien de fois je l'ai lue!"
    }
  },
  {
    "label": "104",
    "locale": {
      "CNzh": "这封留言……\n很有你的特色哦。",
      "EUde": "Faszinierend, wie du deine Gefühle\nin der Karte zum Ausdruck bringst!",
      "EUen": "The letter you sent me was so full\nof your unique personality, darling!",
      "EUes": "Aun sin ver el remite, sabía que la\npostal era tuya, ¡única y personal!",
      "EUfr": "J'avais l'impression d'entendre ta\nvoix en lisant ta carte. Quel style !",
      "EUit": "Il tuo biglietto esprime in\npieno la tua personalità.",
      "EUnl": "Wat straalde je kaart toch veel\npersoonlijkheid uit!",
      "EUru": "Твоя открытка образцовая! Сразу\nвиден творческий подход к делу!",
      "JPja": "もらった　メッセージ、\nアナタらしさが　いっぱいだったわ。",
      "KRko": "메시지 잘 받았어.\n당신의 개성이 정말 잘 묻어나더라.",
      "TWzh": "我收到的心意卡，\n很有你的風格呢。",
      "USen": "The letter you sent me was so full\nof your unique personality, darling!",
      "USes": "Aun sin ver el remitente, sabía que\nla tarjeta era tuya, ¡tan única!",
      "USfr": "J'avais l'impression d'entendre ta\nvoix en lisant ta carte. Quel style!"
    }
  },
  {
    "label": "105",
    "locale": {
      "CNzh": "你送来的留言，\n我一边品茶一边读完了。",
      "EUde": "Ich hab's mir mit einem Tee bequem\ngemacht, um deine Karte zu lesen.",
      "EUen": "It was such a pleasure to read your\nnote as I sipped a cup of tea.",
      "EUes": "Tu postal me ha alegrado el día,\n¡y eso tiene su mérito! ¡Gracias!",
      "EUfr": "J'ai eu beaucoup de plaisir à lire\nta carte en sirotant un bon thé.",
      "EUit": "Che piacere assaporare il\ntuo biglietto davanti a un tè!",
      "EUnl": "Ik heb je alleraardigste kaart\ngelezen met een kopje thee erbij.",
      "EUru": "Читала твою открытку, потягивая\nчаек. Спасибо, что ты есть!",
      "JPja": "アナタからの　メッセージ\nおちゃしながら　よませてもらったわ。",
      "KRko": "당신이 보내준 메시지,\n차 마시면서 잘 읽었어.",
      "TWzh": "你送我的心意卡，\n我已經一邊喝茶，一邊看完囉。",
      "USen": "It was such a pleasure to read your\nnote as I sipped a cup of tea.",
      "USes": "Tu tarjeta me alegró el día,\n¡y eso tiene su mérito! ¡Gracias!",
      "USfr": "J'ai eu beaucoup de plaisir à lire\nta carte en sirotant un bon thé."
    }
  },
  {
    "label": "201",
    "locale": {
      "CNzh": "需要写留言的时候，\n我会想着对方的模样\n来下笔哦。",
      "EUde": "Es bereitet mir Freude, dich vor\nmeinem inneren Auge zu betrach-\nten, während ich dies schreibe.",
      "EUen": "And it's such a joy to think about\nthe wonder that is you as I sit here\nand compose this note in return.",
      "EUes": "La he leído unas diez veces y es\ncomo un buen poema: cada lectura\nrevela nuevos significados...",
      "EUfr": "Que c'est agréable d'être assise\nici, à coucher ces mots sur le\npapier pour mon ami...",
      "EUit": "Penso sempre a chi scrivo mentre\ncerco di esprimermi in un biglietto.",
      "EUnl": "Het doet me deugd om aan onze\nfijne vriendschap te denken terwijl\nik mijn antwoord aan je componeer.",
      "EUru": "Я сижу, сочиняю текст ответной\nоткрытки и думаю о тебе. И еще\nдумаю, как здорово дружить!",
      "JPja": "メッセージを　かくときって、\nあいてを　おもいうかべて\nかくことを　かんがえてるのよ。",
      "KRko": "메시지를 쓸 때에는\n상대의 얼굴을 떠올리면서\n뭘 쓸지 고민하게 되지.",
      "TWzh": "寫心意卡的時候，\n我都會一邊想著對方的模樣，\n一邊動筆喔。",
      "USen": "And it's such a joy to think about\nthe wonder that is you as I sit here\nand compose this note in return.",
      "USes": "La he leído unas diez veces y es\ncomo un buen poema: cada lectura\nrevela nuevos significados...",
      "USfr": "Que c'est agréable d'être assise\nici, à coucher ces mots sur le\npapier pour mon ami..."
    }
  },
  {
    "label": "202",
    "locale": {
      "CNzh": "一边写留言，\n一边审视自己……\n似乎也挺有意思的。",
      "EUde": "Beim Schreiben dieser Antwort\nging mir alles durch den Kopf,\nwas wir zusammen erlebt haben.",
      "EUen": "And writing this postcard to you is\nthe perfect opportunity to think\nback on all the things we've done.",
      "EUes": "Te escribo estas líneas y pienso en\ntodas las cosas que hemos vivido\njuntos, ¡y en las que viviremos!",
      "EUfr": "Alors que je t'écris ces quelques\nmots, je repense à tous ces bons\nmoments qui ont bâti notre amitié.",
      "EUit": "E risponderti è l'occasione\nperfetta per ripensare ai bei\nmomenti trascorsi insieme.",
      "EUnl": "Jou terugschrijven biedt me de\nperfecte gelegenheid om terug te\ndenken aan al onze belevenissen!",
      "EUru": "Пишу ответ и вспоминаю все,\nчто с нами случилось. Все-таки\nдружба — великая вещь.",
      "JPja": "メッセージを　かきながら\nじぶんのことを　ふりかえるのも\nけっこう　いいわよね。",
      "KRko": "메시지를 쓰면서\n나를 되돌아보는 것도\n꽤 좋은 것 같지 않니?",
      "TWzh": "寫心意卡的時候，\n一邊回想自己的事\n也很不錯呢。",
      "USen": "And writing this postcard to you is\nthe perfect opportunity to think\nback on all the things we've done.",
      "USes": "Te escribo estas líneas y pienso en\ntodas las cosas agradables que\nhemos pasado, ¡y las que vienen!",
      "USfr": "Alors que je t'écris ces quelques\nmots, je repense à tous ces bons\nmoments qui ont bâti notre amitié."
    }
  },
  {
    "label": "203",
    "locale": {
      "CNzh": "晚上在家里休息的时候，\n思考一下，应该写点什么呢？\n像这种时光，真的非常惬意。",
      "EUde": "Und nun im Bett die Antwort\nniederzuschreiben ist eine wunder-\nschöne Abrundung meines Tages.",
      "EUen": "And you know, lying in bed and\npenning this note to you is the\nperfect way to end my day.",
      "EUes": "¿Te costó escribirla? Yo a veces\nme paso horas pensando en qué\nponer. ¡Hay tan poco espacio...!",
      "EUfr": "C'est avec joie que je t'écris à mon\ntour, pour que tu saches que moi\naussi, je pense à toi.",
      "EUit": "E scriverti prima di andare\na dormire è il modo migliore\nper concludere la giornata.",
      "EUnl": "Ik ben er rustig voor gaan zitten\nom je terug te schrijven en voel me\nhier bijzonder harmonieus bij.",
      "EUru": "Вот лежу сейчас в кровати и пишу\nтебе ответ. День прошел не зря!",
      "JPja": "よる　ゆっくりしながら\nメッセージに　なにかこう？　って\nまよう　じかんは　ステキよね。",
      "KRko": "밤에 느긋하게 늘어져서\n메시지에 뭘 쓸까? 하고\n고민하는 시간은 참 좋지～",
      "TWzh": "晚上一邊放鬆自己，\n一邊思考心意卡上要寫什麼，\n這樣的時間也很棒呢。",
      "USen": "And you know, lying in bed and\npenning this note to you is the\nperfect way to end my day.",
      "USes": "¿Te costó escribirla? Yo a veces\nme paso horas pensando en qué\nponer. ¡Hay tan poco espacio...!",
      "USfr": "C'est avec joie que je t'écris à mon\ntour, pour que tu saches que moi\naussi, je pense à toi."
    }
  },
  {
    "label": "204",
    "locale": {
      "CNzh": "写留言感觉真的挺难。\n要是我也有你这样的文采，\n那该多好……",
      "EUde": "Eine gute Karte zu schreiben ist\nschwierig. Doch bei dir wirkt es\nimmer so mühelos!",
      "EUen": "Writing a good letter can be hard.\nI wish I had your way with words.\nYou make it seem so easy!",
      "EUes": "Sería de muy mala educación no\nresponder, aunque tampoco se me\nocurre qué contar, estoy en blanco.",
      "EUfr": "Je peine à exprimer ce que je\nressens... Si seulement j'avais\nton talent pour les bons mots !",
      "EUit": "Scrivere un bel biglietto è\ndifficile. Ma si direbbe che\nper te sia diverso.",
      "EUnl": "Het is niet altijd eenvoudig om de\njuiste woorden te vinden, maar het\nlijkt jou toch makkelijk af te gaan.",
      "EUru": "Написать хорошую открытку не\nтак просто. Вот у тебя дар слова,\nа у меня так — закорючки одни.",
      "JPja": "メッセージをかくのって　むずかしいわね。\nアタシも　アナタに　まけないぐらい\nぶんさいがあれば　いいんだけど。",
      "KRko": "메시지를 쓰는 건 참 어려워～\n나도 당신에게 지지 않을 만큼\n문장력이 있으면 좋을 텐데.",
      "TWzh": "寫心意卡真的好難喔。\n真希望我也有\n不輸給你的好文采。",
      "USen": "Writing a good letter can be hard.\nI wish I had your way with words.\nYou make it seem so easy!",
      "USes": "Sería de muy mala educación no\nresponder, aunque tampoco se me\nocurre qué contar, estoy en blanco.",
      "USfr": "Je peine à exprimer ce que je\nressens... Si seulement j'avais\nton talent pour les bons mots!"
    }
  },
  {
    "label": "205",
    "locale": {
      "CNzh": "口腔溃疡让人挺难受的，\n不过在思考回信的时候，\n多少能使我忘记一点痛楚。",
      "EUde": "Ich habe Halsschmerzen, aber\nbeim Schreiben der Antwort habe\nich sie ganz und gar vergessen!",
      "EUen": "I've been under the weather, but\nwhile I composed this reply, I\nforgot all my aches and pains!",
      "EUes": "La leí mientras tomaba el té.\n¡Divina! Ahora te escribo mirando\npor la ventana. ¡Un lujo de día!",
      "EUfr": "Tu sais que je suis stressée en ce\nmoment, mais quand je t'écris,\nj'oublie tout le reste !",
      "EUit": "Scrivere la risposta per\nte mi ha fatto dimenticare\nil mal di gola che avevo.",
      "EUnl": "Ik zat wat in de lappenmand, maar\njou terugschrijven doet me al mijn\nkwaaltjes terstond vergeten!",
      "EUru": "Я простудилась и плохо себя\nчувствую, но пока писала тебе\nответ, совсем про это забыла!",
      "JPja": "こうないえんが　いたむけど、\nおへんじを　かんがえてるあいだは\nいたみを　わすれちゃうのよね。",
      "KRko": "구내염 때문에 아팠는데\n답장을 고민하는 동안엔\n아픔을 잊을 수 있었어.",
      "TWzh": "雖然得了口內炎，嘴巴很痛，\n不過認真思考該怎麼回覆的時候，\n反而就不覺得痛了呢。",
      "USen": "I've been under the weather, but\nwhile I composed this reply, I\nforgot all my aches and pains!",
      "USes": "La leí mientras tomaba el té.\n¡Divina! Ahora te escribo mirando\npor la ventana. ¡Un lujo de día!",
      "USfr": "Tu sais que je suis stressée en ce\nmoment, mais quand je t'écris,\nj'oublie tout le reste!"
    }
  },
  {
    "label": "301",
    "locale": {
      "CNzh": "你大概不知道，我写信还挺多的。",
      "EUde": "Lass uns bald wieder schreiben!",
      "EUen": "I do love letters. Write again soon!",
      "EUes": "¡Mantengamos la correspondencia!",
      "EUfr": "Vivement ta prochaine carte !",
      "EUit": "Scriviamoci ancora presto!",
      "EUnl": "Ach, wat is post krijgen toch enig!",
      "EUru": "Буду ждать следующих открыток!",
      "JPja": "こうみえてアタシ、ふでまめなのよ。",
      "KRko": "이래 봬도 난 꾸준히 글을 쓰거든.",
      "TWzh": "別看我這樣，其實我也很愛寫信呢。",
      "USen": "I do love letters. Write again soon!",
      "USes": "¡Mantengamos la correspondencia!",
      "USfr": "Vivement ta prochaine carte!"
    }
  },
  {
    "label": "302",
    "locale": {
      "CNzh": "有兴趣的话，欢迎再给我写信吧。",
      "EUde": "Bitte schreibe mir bald wieder!",
      "EUen": "Write me again, anytime you want.",
      "EUes": "Escríbeme siempre que quieras.",
      "EUfr": "Dans l'attente de te lire...",
      "EUit": "Scrivimi presto, se hai tempo.",
      "EUnl": "Schrijf je me gauw weer, lieverd?",
      "EUru": "Пиши мне как можно чаще!",
      "JPja": "きがむいたら、また　おくってね。",
      "KRko": "내키면 언제든지 또 카드 보내.",
      "TWzh": "你要是有空的話，再寫信給我吧。",
      "USen": "Write me again, anytime you want.",
      "USes": "Escríbeme siempre que quieras.",
      "USfr": "Dans l'attente de te lire..."
    }
  },
  {
    "label": "303",
    "locale": {
      "CNzh": "遣词造句真是一门学问。",
      "EUde": "Kartenschreiben ist eine Kunst!",
      "EUen": "I've greatly enjoyed this exchange.",
      "EUes": "Contéstame, si te apetece.",
      "EUfr": "Cela m'a fait du bien de te parler.",
      "EUit": "Adoro gli scambi di biglietti!",
      "EUnl": "Is corresponderen niet magnifiek?",
      "EUru": "Дружеские слова окрыляют!",
      "JPja": "ことばえらびって　おくがふかいわ。",
      "KRko": "단어를 고르는 건 깊이 있는 일이야.",
      "TWzh": "用字選詞還真是門學問呢。",
      "USen": "I've greatly enjoyed this exchange.",
      "USes": "Contéstame, si te apetece.",
      "USfr": "Cela m'a fait du bien de te parler."
    }
  },
  {
    "label": "304",
    "locale": {
      "CNzh": "哎呀，就说到这里吧。",
      "EUde": "Und da ist das Blatt schon voll!",
      "EUen": "Oh dear, I'm out of space already.",
      "EUes": "Esto se acaba. Lo bueno si breve...",
      "EUfr": "Oh, la place me manque déjà !",
      "EUit": "Oh, il foglio è già finito!",
      "EUnl": "O, hemeltje, de kaart is alweer vol!",
      "EUru": "Ой, место на листке закончилось!",
      "JPja": "あら、もう　おしまいだわ。",
      "KRko": "어머나, 벌써 끝이네.",
      "TWzh": "哎呀，已經寫到底了呢。",
      "USen": "Oh dear, I'm out of space already.",
      "USes": "Esto se acaba. Lo bueno es breve.",
      "USfr": "Oh, la place me manque déjà!"
    }
  },
  {
    "label": "305",
    "locale": {
      "CNzh": "记住我永远是你的伙伴哦？",
      "EUde": "Ich will dir immer verbunden sein.",
      "EUen": "I am and always will be your friend.",
      "EUes": "Nos veremos pronto, espero.",
      "EUfr": "Je serai toujours là pour toi...",
      "EUit": "Per te ci sarò sempre!",
      "EUnl": "Ik ben waarlijk blij met onze band!",
      "EUru": "Мы с тобой друзья навек!",
      "JPja": "アタシはいつでも　アナタのみかたよ？",
      "KRko": "난 언제나 당신 편이야!",
      "TWzh": "無論何時，我都站在你這邊喔。",
      "USen": "I am and always will be your friend.",
      "USes": "Nos veremos pronto, espero.",
      "USfr": "Je serai toujours là pour toi..."
    }
  },
  {
    "label": "401",
    "locale": {
      "CNzh": "(resident name)",
      "EUde": "Freundliche Grüße, (Einwohnername)",
      "EUen": "Sincerely yours, (resident name)",
      "EUes": "Afectuosamente, (resident name)",
      "EUfr": "Cordialement, (nom du résident)",
      "EUit": "Saluti affettuosi, (resident name)",
      "EUnl": "Een hartelijke groet, (resident name)",
      "EUru": "Обнимаю! (resident name)",
      "JPja": "(resident name)",
      "KRko": "(resident name)",
      "TWzh": "(resident name)",
      "USen": "Sincerely yours, (resident name)",
      "USes": "Afectuosamente, (resident name)",
      "USfr": "Cordialement, (nom du résident)"
    }
  },
  {
    "label": "402",
    "locale": {
      "CNzh": "我是(resident name)",
      "EUde": "Ergebenst, (Einwohnername)",
      "EUen": "Yours, (resident name)",
      "EUes": "Con cariño, (resident name)",
      "EUfr": "Ton amie, (nom du résident)",
      "EUit": "La tua (resident name)",
      "EUnl": "Vol genegenheid, (resident name)",
      "EUru": "Целую! (resident name)",
      "JPja": "(resident name)でした",
      "KRko": "From. (resident name)",
      "TWzh": "(resident name)　敬上",
      "USen": "Yours, (resident name)",
      "USes": "Con cariño, (resident name)",
      "USfr": "Ton amie, (nom du résident)"
    }
  },
  {
    "label": "403",
    "locale": {
      "CNzh": "是(resident name)哦",
      "EUde": "Gruß & Kuss, (Einwohnername)",
      "EUen": "With love, (resident name)",
      "EUes": "Un fuerte abrazo, (resident name)",
      "EUfr": "Bises, (nom du résident)",
      "EUit": "Con affetto, (resident name)",
      "EUnl": "Veel liefs, (resident name)",
      "EUru": "С любовью, (resident name)",
      "JPja": "(resident name)よ",
      "KRko": "(resident name)이야～",
      "TWzh": "是(resident name)我喔",
      "USen": "With love, (resident name)",
      "USes": "Un fuerte abrazo, (resident name)",
      "USfr": "Bises, (nom du résident)"
    }
  },
  {
    "label": "404",
    "locale": {
      "CNzh": "(resident name)诚意亲笔",
      "EUde": "Liebe Grüße, (Einwohnername)",
      "EUen": "With warm regards, (resident name)",
      "EUes": "Saludos afectuosos, (resident name)",
      "EUfr": "Je t'embrasse, (nom du résident)",
      "EUit": "Cari saluti, (resident name)",
      "EUnl": "Nou, dag schat! (resident name)",
      "EUru": "До встречи! (resident name)",
      "JPja": "(resident name)から　ココロをこめて",
      "KRko": "마음을 담아 (resident name)으로부터",
      "TWzh": "滿懷心意的(resident name)　筆",
      "USen": "With warm regards, (resident name)",
      "USes": "Saludos afectuosos, (resident name)",
      "USfr": "Je t'embrasse, (nom du résident)"
    }
  },
  {
    "label": "405",
    "locale": {
      "CNzh": "(resident name)敬上",
      "EUde": "Mit Hochachtung, (Einwohnername)",
      "EUen": "Ta-ta for now, (resident name)",
      "EUes": "De tu amiga, (resident name)",
      "EUfr": "À bientôt, (nom du résident)",
      "EUit": "A presto, (resident name)",
      "EUnl": "Tot weerziens! (resident name)",
      "EUru": "Увидимся! (resident name)",
      "JPja": "(resident name)より",
      "KRko": "(resident name)이",
      "TWzh": "(resident name)　筆",
      "USen": "Ta-ta for now, (resident name)",
      "USes": "De tu amiga, (resident name)",
      "USfr": "À bientôt, (nom du résident)"
    }
  }
]