﻿[
  {
    "label": "001",
    "attribute": "0x00000C0000000000",
    "locale": {
      "CNzh": "嘿！\n竟然在这里遇到你，还真巧啊，\n(nickname)！",
      "EUde": "Hey, (Spitzname)! So ein Zufall, dich hier zu treffen!",
      "EUen": "Yo, (nickname)! Does your\njog route go through here?",
      "EUes": "¡Hola, (nickname)!\n¿Quieres tonificar conversación\nun poco?",
      "EUfr": "Yo, (surnom) ! Alors comme ça, ton itinéraire de jogging passe par ici ?",
      "EUit": "Ehilà, (nickname)! Per caso passi di qui quando fai jogging?",
      "EUnl": "Yo, (nickname)! Komt je jogroute hier langs?",
      "EUru": "Здорово, (nickname)!\nТы тут обычно бегаешь?",
      "JPja": "よお！\nこんなトコで　会うなんて　きぐうだな\n(nickname)！",
      "KRko": "여어!\n이런 데서 만나다니 신기한 우연이다,\n(nickname)!",
      "TWzh": "嗨，(nickname)！\n沒想到居然會在這裡碰到你，\n太巧了吧！",
      "USen": "Yo, (nickname)! Does your\njog route go through here?",
      "USes": "¡Epa, (nickname)!\n¿Tu circuito de trote pasa por aquí?",
      "USfr": "Yo, (surnom)! Alors comme ça, ton itinéraire de jogging passe par ici?"
    }
  },
  {
    "label": "002",
    "attribute": "0x00000C0000000000",
    "locale": {
      "CNzh": "(nickname)吗！\n原来你也对虫子有兴趣啊。\n嘿嘿，要来和我一起观察吗？。",
      "EUde": "(Spitzname)! Ich wusste gar nicht, dass du dich für Insekten interessierst, (Floskel)!",
      "EUen": "(nickname)! I didn't know\nyou were into bugs, (catchphrase)!",
      "EUes": "¡(nickname)!\nNo sabía que te gustaban tanto\nlos bichos, crack.",
      "EUfr": "(surnom) ! Je savais pas que t'étais passionné d'insectes,  !",
      "EUit": "Oh, (nickname)! Non sapevo fossi così appassionato di insetti, !",
      "EUnl": "(nickname)! Ik wist niet dat jij van beestjes hield!",
      "EUru": "(nickname)! Не знал,\nчто ты насекомыми увлекаешься!\n(catchphrase)!",
      "JPja": "(nickname)か！\nオマエも　ムシに　キョーミあるんだな\nへへっ、いっしょに　観察するかー？　",
      "KRko": "(nickname)이구나!\n너도 곤충 좋아하냐?\n헤헷, 나랑 같이 관찰할래－? ?",
      "TWzh": "(nickname)！\n原來你對昆蟲也有興趣啊。\n嘿嘿，要跟我一起觀察牠們嗎？。",
      "USen": "(nickname)! I didn't know\nyou were into bugs, (catchphrase)!",
      "USes": "¡(nickname)!\nNo sabía que te gustaban tanto\nlos insectos, compañero...",
      "USfr": "(surnom)! Je savais pas que t'étais passionné d'insectes, !"
    }
  },
  {
    "label": "003",
    "attribute": "0x00000C0000000000",
    "locale": {
      "CNzh": "早哇！(nickname)！\n偶尔在这种安静的地方\n锻炼意志力也不坏呢！。",
      "EUde": "Hey, (Spitzname)! Chillst du eine Runde mit den Fischen, (Floskel)?",
      "EUen": "Hey, (nickname)? You chillin'\nwith the fishies, (catchphrase)?",
      "EUes": "Muy bien, (nickname).\nMe mola verte aquí relajándote\nentre peces.",
      "EUfr": "Salut, (surnom). Tu te plonges dans les poissons,  ?",
      "EUit": "Ehi, (nickname). Anche tu qui a rilassarti tra gli amici pesci, ?",
      "EUnl": "Hé (nickname). Lekker aan het chillen met die vissies, (catchphrase)?",
      "EUru": "Привет, (nickname).\nПрохлаждаешься тут с рыбами?\n(catchphrase)!",
      "JPja": "オーッス！　(nickname)！\nたまには　こういう静かな場所で\nメンタルを　きたえるのもいいよな！　",
      "KRko": "안녕－! (nickname)!\n가끔은 이렇게 조용～한 곳에서\n정신 수련을 하는 것도 좋다구! !",
      "TWzh": "嘿──！(nickname)！\n偶爾來這種安靜的地方\n鍛鍊一下意志力也不錯吧～！。",
      "USen": "Hey, (nickname)? You chillin'\nwith the fishies, (catchphrase)?",
      "USes": "Muy bien, (nickname).\nMe gusta verte por aquí\nrelajándote entre peces...",
      "USfr": "Salut, (surnom). Tu te plonges dans les poissons, ?"
    }
  },
  {
    "label": "004",
    "attribute": "0x00000C0000000000",
    "locale": {
      "CNzh": "嘿！(nickname)！\n你也是为了寻求浪漫\n才来到这里的吗？。",
      "EUde": "Hallo, (Spitzname)!\nDu interessierst dich wohl für\nUrgeschichte, (Floskel)?",
      "EUen": "What's up, (nickname)?\nSoakin' up some ancient history?",
      "EUes": "¿Qué pasa, (nickname)?\n¿Tonificando tus conocimientos\nprehistóricos?",
      "EUfr": "Ça va, (surnom) ? Tu t'intéresses à la préhistoire ?",
      "EUit": "Che fai di bello, (nickname)? Tonifichi le tue conoscenze sulla preistoria, ?",
      "EUnl": "Alles lekker, (nickname)? Die dinosaurussen hadden pas spieren, hè?",
      "EUru": "Как жизнь, (nickname)?\nИнтересуешься доисторическими\nвременами?",
      "JPja": "よっ！　(nickname)！\nオマエも　ロマンを求めて\nここに　やって来たのかー？　",
      "KRko": "여! (nickname)!\n너도 낭만을 찾아서\n여기까지 왔냐－? ?",
      "TWzh": "嗨！(nickname)──！\n你也是來這裡\n追尋浪漫情懷的嗎？。",
      "USen": "What's up, (nickname)?\nSoakin' up some ancient history?",
      "USes": "¿Qué haces, (nickname)?\n¿Tonificando tus conocimientos\nprehistóricos?",
      "USfr": "Ça va, (surnom)? Tu t'intéresses à la préhistoire?"
    }
  },
  {
    "label": "005",
    "attribute": "0x00000C0000000000",
    "locale": {
      "CNzh": "哟！(nickname)！\n你也是来这里\n欣赏艺术的吗？。",
      "EUde": "Hey, (Spitzname)! Bist du\nauch hier wegen der Kunst...dinger?",
      "EUen": "Yo, (nickname)! Here to\ncheck out art...stuff?",
      "EUes": "¡Hola, (nickname)! ¿Has venido a cultivar tu espíritu contemplando obras de arte?",
      "EUfr": "Tiens, (surnom) ! Tu viens prendre un petit bol d'art ?",
      "EUit": "Ehilà, (nickname)! Sei qui anche tu per dare un'occhiata a un po' di roba artistica?",
      "EUnl": "Yo, (nickname)! Ben je hier om al dat kunstspul te bekijken?",
      "EUru": "Йоу, (nickname)! Пришел\nпосмотреть на... искусство?",
      "JPja": "よー！　(nickname)！\nオマエも　ゲージュツってのを\n見に来たのかー？　",
      "KRko": "여어－! (nickname)!\n너도 예술품인가 하는 거\n보러 온 거냐－? ?",
      "TWzh": "嗨——！(nickname)！\n你也是要來這裡\n欣賞所謂的藝術嗎？。",
      "USen": "Yo, (nickname)! Here to\ncheck out art...stuff?",
      "USes": "¡Hola, (nickname)! ¿Viniste a entrenar tu espíritu contemplando obras de arte?",
      "USfr": "Tiens, (surnom)! Tu viens prendre un petit bol d'art?"
    }
  },
  {
    "label": "006",
    "attribute": "0x00000C0000000000",
    "locale": {
      "CNzh": "嘿！(nickname)！\n你也来买东西吗？\n嘿嘿，逛一逛就足够开心了呢！。",
      "EUde": "Hi, (Spitzname)!\nAuf Einkaufsbummel, (Floskel)?",
      "EUen": "How's it going, (nickname)?\nYou here to buff up your home?",
      "EUes": "¿Cómo andas, (nickname)?\n¿Buscando cositas para tonificar\ntu casa?",
      "EUfr": "Comment ça va, (surnom) ? T'es là pour trouver de quoi muscler la déco de ta maison ?",
      "EUit": "Come butta, (nickname)? Stai cercando qualcosina per potenziare casa tua?",
      "EUnl": "Alles goed, (nickname)? Boodschapjes naar huis brengen is ook een goede work-out!",
      "EUru": "Как жизнь, (nickname)?\nХочешь прокачать интерьер\nсвоего дома?",
      "JPja": "よー！　(nickname)！\nオマエも　買い物か？\n見て回るだけでも　楽しいよなー！　",
      "KRko": "야－! (nickname)!\n너도 쇼핑 왔냐?\n헤헷, 구경만 해도 재밌지－?! ?",
      "TWzh": "嗨──！(nickname)！\n你也來買東西啊？\n就算只是閒逛也挺有趣的，對吧！。",
      "USen": "How's it going, (nickname)?\nYou here to buff up your home?",
      "USes": "¿Cómo andas, (nickname)?\n¿Buscando cositas para tonificar\ntu casa?",
      "USfr": "Comment ça va, (surnom)? T'es là pour trouver de quoi muscler la déco de ta maison?"
    }
  },
  {
    "label": "007",
    "attribute": "0x00000C0000000000",
    "locale": {
      "CNzh": "(nickname)吗！\n嘿嘿，你过来这边，\n也是为了找适合锻炼的衣服吗？。",
      "EUde": "(Spitzname)! So ein Zufall, suchst du etwa auch besonders elastische Trainingsklamotten?",
      "EUen": "Yo, (nickname)! You looking\nfor new workout clothes too?",
      "EUes": "¡(nickname)! ¿También has venido a hacerte ropa apropiada para el entreno, o qué?",
      "EUfr": "Yo, (surnom) ! Tu cherches aussi un nouveau survêtement ?",
      "EUit": "Ehi, (nickname)! Anche tu stai cercando una nuova tenuta da allenamento, ?",
      "EUnl": "Yo, (nickname)! Ben jij ook op zoek naar nieuwe sportkleding?",
      "EUru": "Йоу, (nickname)! Тоже\nприодеться хочешь?",
      "JPja": "(nickname)か！\nへへっ、オマエも　キントレ向きの服を\nさがしに　やって来たのかー？　",
      "KRko": "(nickname)이구나!\n헤헷, 너도 운동복 찾으러\n온 거 맞지－? ?",
      "TWzh": "是(nickname)啊！\n嘿嘿，你也是來這裡找\n適合健身穿的衣服嗎？。",
      "USen": "Yo, (nickname)! You looking\nfor new workout clothes too?",
      "USes": "¡(nickname)!\n¿También vienes a hacerte ropa\napropiada para entrenar, o qué?",
      "USfr": "Yo, (surnom)! Tu cherches aussi un nouveau survêtement?"
    }
  }
]