﻿[
  {
    "label": "001",
    "attribute": "0x00000000",
    "locale": {
      "CNzh": "",
      "EUde": "",
      "EUen": "",
      "EUes": "",
      "EUfr": "",
      "EUit": "",
      "EUnl": "",
      "EUru": "",
      "JPja": "",
      "KRko": "",
      "TWzh": "",
      "USen": "",
      "USes": "",
      "USfr": ""
    }
  },
  {
    "label": "001_01",
    "attribute": "0x00000000",
    "locale": {
      "CNzh": "",
      "EUde": "",
      "EUen": "",
      "EUes": "",
      "EUfr": "",
      "EUit": "",
      "EUnl": "",
      "EUru": "",
      "JPja": "",
      "KRko": "",
      "TWzh": "",
      "USen": "",
      "USes": "",
      "USfr": ""
    }
  },
  {
    "label": "002",
    "attribute": "0x00000000",
    "locale": {
      "CNzh": "",
      "EUde": "",
      "EUen": "",
      "EUes": "",
      "EUfr": "",
      "EUit": "",
      "EUnl": "",
      "EUru": "",
      "JPja": "",
      "KRko": "",
      "TWzh": "",
      "USen": "",
      "USes": "",
      "USfr": ""
    }
  },
  {
    "label": "002_01",
    "attribute": "0x00000000",
    "locale": {
      "CNzh": "",
      "EUde": "",
      "EUen": "",
      "EUes": "",
      "EUfr": "",
      "EUit": "",
      "EUnl": "",
      "EUru": "",
      "JPja": "",
      "KRko": "",
      "TWzh": "",
      "USen": "",
      "USes": "",
      "USfr": ""
    }
  },
  {
    "label": "003",
    "attribute": "0x00000000",
    "locale": {
      "CNzh": "",
      "EUde": "",
      "EUen": "",
      "EUes": "",
      "EUfr": "",
      "EUit": "",
      "EUnl": "",
      "EUru": "",
      "JPja": "",
      "KRko": "",
      "TWzh": "",
      "USen": "",
      "USes": "",
      "USfr": ""
    }
  },
  {
    "label": "003_01",
    "attribute": "0x00000000",
    "locale": {
      "CNzh": "我们两个\n也一起来了！来了！",
      "EUde": "Wir sind auch mit dabei! \nJawoll, hier sind wir!",
      "EUen": "We're tagging along too! ...too!",
      "EUes": "¡Nos hemos apuntado también!\nEsperamos que no te importe...",
      "EUfr": "On est venus, nous aussi ! Eh oui !",
      "EUit": "Veniamo anche noi! ... Anche noi!",
      "EUnl": "Wij zijn ook van de partij! Jazeker!",
      "EUru": "Мы тоже идем! Идем!",
      "JPja": "ボクたちも　ご一緒させて\nいただいてまーす！　まーす！",
      "KRko": "저희도 같이 따라왔습니다－! 따라왔습니다－!",
      "TWzh": "我們也跟著一起來了！　來了！",
      "USen": "We're tagging along too! ...too!",
      "USes": "¡También nos apuntamos!\nEsperamos que no te moleste...",
      "USfr": "On est venus, nous aussi! Eh oui!"
    }
  },
  {
    "label": "101",
    "attribute": "0x00000000",
    "locale": {
      "CNzh": "",
      "EUde": "",
      "EUen": "",
      "EUes": "",
      "EUfr": "",
      "EUit": "",
      "EUnl": "",
      "EUru": "",
      "JPja": "",
      "KRko": "",
      "TWzh": "",
      "USen": "",
      "USes": "",
      "USfr": ""
    }
  },
  {
    "label": "101_01",
    "attribute": "0x00000000",
    "locale": {
      "CNzh": "狸克社长的建议从来都很正确，\n帮了我们很多！很多！",
      "EUde": "Der Chef gibt uns immer guten\nRat zur rechten Zeit! Und gar nicht teuer!",
      "EUen": "The advice that President Nook gives\nus is always just the thing we need\nto hear! ...to hear!",
      "EUes": "El señor Nook siempre nos da unos\nconsejos muy acertados. ¡Así da gusto!",
      "EUfr": "Les conseils que le président Nook\nnous dispense arrivent toujours\nau bon moment ! Quel réconfort !",
      "EUit": "I consigli che ci dà il presidente\nNook sono sempre preziosi.\nPreziosissimi!",
      "EUnl": "Meneer Nook geeft ons altijd het\nadvies dat we precies op dat moment\nnodig hebben! Elke keer weer!",
      "EUru": "Президент Нук всегда дает дельный\nсовет. И всегда кстати! Всегда!",
      "JPja": "たぬきち社長の　アドバイスは\nいつも的確で　助けられてます　まーす！",
      "KRko": "너굴 사장님의 어드바이스는\n언제나 정확해서 큰 힘이 됩니다－! 됩니다－!",
      "TWzh": "狸克社長給我們的建議，\n總是非常準確，幫了我們很多忙！　很多忙！",
      "USen": "The advice that President Nook gives\nus is always just the thing we need\nto hear! ...to hear!",
      "USes": "El señor Nook siempre nos da\nconsejos muy acertados. ¡Acertadísimos!",
      "USfr": "Les conseils que le président Nook\nnous dispense arrivent toujours\nau bon moment! Quel réconfort!"
    }
  },
  {
    "label": "101_02",
    "attribute": "0x00000000",
    "locale": {
      "CNzh": "虽然我们知道不能一直依赖社长，\n要靠自己闯出一片天地……\n但其实我们心里也有\n一直追随社长的想法！想法！",
      "EUde": "Natürlich können wir uns nicht nur\nauf den Chef verlassen. Wir müssen unseren Weg gehen...\nAber manchmal wünschen wir uns,\ndass wir für immer mit ihm arbeiten\nkönnen. Also ganz, ganz lang!",
      "EUen": "We know we can't always rely on the\npresident and will have to make it\non our own someday, but...\nSometimes, we also hope that we can\nwork with him forever. ...forever!",
      "EUes": "Sabemos que no podremos contar\nsiempre con la ayuda del señor Nook.\nAlgún día tendemos que buscarnos\nla vida por nuestra cuenta. Qué\nremedio...\nEs una pena, porque nos encantaría\nseguir trabajando con él toda la vida.\n¡Y tanto!",
      "EUfr": "Nous savons qu'un jour, nous\ndevrons nous débrouiller sans\nle président...\nIl n'empêche que nous souhaitons\ntravailler avec lui pour toujours !\nEt vive le président !",
      "EUit": "Sappiamo bene che il presidente\nè indaffarato e non sarà sempre\ncon noi ad aiutarci, ma...\nA volte ci piace sognare ad occhi\naperti che sarà sempre con noi.\nSempre sempre!",
      "EUnl": "Ik weet dat we niet altijd meneer\nNook om hulp kunnen vragen en het\nooit zelf moeten klaarspelen, maar...\n...we hopen stiekem dat we altijd met\nhem kunnen blijven samenwerken.\nDat zou fijn zijn!",
      "EUru": "Мы знаем, что президент не всегда\nсможет нам помогать, и мы должны\nбудем справляться сами, но...\nИногда мы надеемся, что сможем\nработать с ним всю жизнь. Всю жизнь!",
      "JPja": "いつまでも　社長に　甘えてないで、\nしっかりしないとと　思ってるんですが・・・\nずっと社長のあとを　追いかけてたいっていう\n気持ちも　あるんですよねー　ねー！",
      "KRko": "언제까지고 사장님의 도움을 바랄 수는 없으니\n자립심을 기르자며 다짐을 하고는 합니다만...\n내심 앞으로도 쭉 사장님의\n뒤를 좇고 싶다는 마음도 있답니다－! 있답니다－!",
      "TWzh": "雖然我們知道不能一直依賴社長，\n應該早點獨當一面……\n但內心同時也有\n要永遠追隨社長的想法喔！　想法！",
      "USen": "We know we can't always rely on the\npresident and will have to make it\non our own someday, but...\nSometimes, we also hope that we can\nwork with him forever. ...forever!",
      "USes": "Sabemos que no podremos contar\nsiempre con la ayuda del señor Nook.\nAlgún día nos la tendremos que\narreglar por nuestra cuenta.\nLamentablemente...\nEs una pena, porque nos encantaría\nseguir trabajando con él toda la vida.\n¡Toda la vida!",
      "USfr": "Nous savons qu'un jour, nous\ndevrons nous débrouiller sans\nle président...\nIl n'empêche que nous souhaitons\ntravailler avec lui pour toujours!\nEt vive le président!"
    }
  },
  {
    "label": "101_03",
    "attribute": "0x00000000",
    "locale": {
      "CNzh": "我想狸克社长也会有\n想要独处的时候，但他还是\n经常像这样把我们邀请来！邀请来！",
      "EUde": "Man sollte meinen, auch der Chef\nwill mal für sich sein. Aber er lädt\nuns immer ein! Aus Steuergründen?",
      "EUen": "I would think even President Nook\nwould want time to himself. But he's\nalways inviting us along! ...along!",
      "EUes": "Supongo que el señor Nook también\nnecesitará tiempo para sus cosas...\n¡Pero aun así siempre nos invita\na tomar algo con él! ¡Y se agradece!",
      "EUfr": "On pourrait s'attendre à ce que le\nprésident Nook veuille parfois passer\nun peu de temps seul.\nMais non, il nous invite à chaque\nfois ! Quelle générosité, quand même !",
      "EUit": "Penso che ogni tanto il presidente\nNook vorrebbe un po' di tempo per\nsé. Eppure ci invita sempre! Che gentile!",
      "EUnl": "Ik zou denken dat meneer Nook wel\nwat tijd voor zichzelf zou willen. Maar\nhij vraagt ons altijd mee! Echt altijd!",
      "EUru": "Я думал, президенту Нуку иногда\nтоже хочется побыть одному. Но он\nвсегда зовет нас с собой! Всегда!",
      "JPja": "たぬきち社長だって　ひとりになりたい時も\nあると思うんですけど、こうして　いつも\nボクたちを　誘ってくださるんです　ですー！",
      "KRko": "너굴 사장님도 혼자이고 싶을 때가\n있으실 텐데, 늘 이렇게 저희를\n데리고 와주신답니다－! 답니다－!",
      "TWzh": "我想狸克社長應該也會有\n想獨處的時候，但他還是經常\n會像這樣邀請我們來喝咖啡喔。　喝咖啡！",
      "USen": "I would think even President Nook\nwould want time to himself. But he's\nalways inviting us along! ...along!",
      "USes": "Supongo que el señor Nook también\nnecesitará tiempo para sus cosas...\n¡Pero aun así siempre nos invita\na tomar algo con él! ¡Siempre!",
      "USfr": "On pourrait s'attendre à ce que le\nprésident Nook veuille parfois passer\nun peu de temps seul.\nMais non, il nous invite à chaque\nfois! Quelle générosité, quand même!"
    }
  },
  {
    "label": "101_04",
    "attribute": "0x00000000",
    "locale": {
      "CNzh": "狸克社长经常\n请我们喝咖啡的。\n为了将来有一天\n能让社长不用顾虑地接受我们请客，\n我们要好好努力！努力！",
      "EUde": "Der Chef versorgt uns immer mit\nSnacks und Kaffee. Vor allem Kaffee!\nAber irgendwann wollen wir so weit\nsein, dass wir für ihn sorgen!\nIrgendwann!",
      "EUen": "President Nook is always treating us\nto coffee and other treats.\nMostly coffee.\nWe want to work hard so that\nsomeday we can be the ones\ntreating him! ...him!",
      "EUes": "El señor Nook siempre nos invita\na café y otras historias. Bueno,\nsobre todo café.\nQuizá, si trabajamos con diligencia,\nalgún día seremos nosotros quienes\npodamos invitarlo a él. ¡Ojalá!",
      "EUfr": "Le président Nook nous invite\ntoujours à pas mal de choses,\ncomme boire du café.\nBon, il nous invite surtout à boire du\ncafé, en fait.\nNous comptons bien redoubler\nd'efforts pour pouvoir enfin un jour\nl'inviter à notre tour! Il le vaut bien !",
      "EUit": "Il presidente Nook ci prende sempre\ncaffè e altre delizie.\nMa un giorno, quando saremo\ngrandi, saremo noi a offrire il\ncaffè a lui! Buonissimo caffè!",
      "EUnl": "Meneer Nook trakteert ons altijd op\nkoffie en soms ook op andere dingen.\nMaar vooral op koffie.\nWe willen zo hard werken dat wij op\neen dag hém kunnen trakteren! We\nwerken hard, hoor!",
      "EUru": "Президент Нук всегда угощает\nнас кофе и всяким разным.\nНо в основном кофе.\nМы хотим усердно трудиться, чтобы\nкогда-нибудь мы смогли сами\nугостить его! Сами!",
      "JPja": "たぬきち社長は　いつも　コーヒーを\nごちそうしてくださるんです\nいつか、社長が　気兼ねなく\nボクたちに　ごちそうさせてくれるまで\nしっかり　頑張りたいと思います！　まーす！",
      "KRko": "너굴 사장님은\n언제나 저희에게 커피를 사주신답니다\n하지만 열심히 노력하다보면\n언젠가 저희가 사장님께\n커피를 대접하게 될 날이 오겠죠－! 오겠죠－!",
      "TWzh": "狸克社長平時經常會\n請我們喝咖啡喔。\n我們總有一天也要讓社長\n能毫無顧慮地接受我們請客，\n在那天到來為止，我們會好好努力的！　努力！",
      "USen": "President Nook is always treating us\nto coffee and other treats.\nMostly coffee.\nWe want to work hard so that\nsomeday we can be the ones\ntreating him! ...him!",
      "USes": "El señor Nook siempre nos invita\na tomar un café o un té.\nBueno, sobre todo café.\nQuizá, si trabajamos con esmero,\nalgún día nosotros podremos ser\nquienes lo inviten a él. ¡A él!",
      "USfr": "Le président Nook nous invite\ntoujours à pas mal de choses,\ncomme boire du café.\nBon, il nous invite surtout à boire du\ncafé, en fait.\nNous comptons bien redoubler\nd'efforts pour pouvoir enfin un jour\nl'inviter à notre tour! Il le vaut bien!"
    }
  },
  {
    "label": "101_05",
    "attribute": "0x00000000",
    "locale": {
      "CNzh": "我们两个也经常会商量工作的事情，\n但社长也在的时候，\n就会更容易想到别出心裁的好主意！好主意！",
      "EUde": "Bei einer ruhigen Tasse Kaffee\nkommen uns oft die besten Ideen\nfür unseren Laden.\nUnd wenn der Chef dabei ist, haben\nwir oft sogar noch bessere!\nAber hallo!",
      "EUen": "The two of us come up with a lot of\ngood ideas about our store when\nwe're drinking coffee.\nBut when the president is with us,\nit's even easier to come up with\ngood ideas! ...ideas!",
      "EUes": "Siempre se nos ocurren ideas\nestupendas para la tienda mientras\ntomamos café.\n¡E incluso mejores si tenemos\nal presidente por aquí! ¡Él sí que sabe!",
      "EUfr": "Beaucoup d'idées nous viennent\npour notre boutique quand nous\nbuvons du café.\nQuand le président est avec nous,\nelles ne sont que meilleures !\nC'est un vrai génie !",
      "EUit": "Quando siamo solo noi due, ci\nvengono un sacco di idee su come\npotremmo migliorare la Bottega.\nMa quando c'è il presidente, le\nsue idee sono ancora più geniali!\nMa come fa?!",
      "EUnl": "Wij tweeën komen op veel goeie\nideeën voor onze winkel wanneer\nwe koffie drinken.\nMaar als meneer Nook bij ons is, is\nhet nog makkelijker om op ideeën te\nkomen! Appeltje-eitje!",
      "EUru": "Когда мы пьем кофе вдвоем, то\nпридумываем много хороших идей\nдля нашей лавки.\nНо когда с нами президент,\nпридумывать хорошие идеи\nполучается еще проще! Еще проще!",
      "JPja": "ふたりでも　よく　仕事の相談はするんですが\n社長も一緒だと　いつもとは違った\nアイデアが　出てきやすいんです　ですー！",
      "KRko": "둘이서도 자주 사업 이야기를 하곤 합니다만\n사장님이 함께해주시면 평소와는 다르게\n아이디어가 퐁퐁 샘솟는답니다－! 샘솟는답니다－!",
      "TWzh": "我們兩人平常會一起討論工作上的事，\n這時只要社長也參加討論的話，\n就會比平時更容易想出好點子喔！　好點子！",
      "USen": "The two of us come up with a lot of\ngood ideas about our store when\nwe're drinking coffee.\nBut when the president is with us,\nit's even easier to come up with\ngood ideas! ...ideas!",
      "USes": "Siempre se nos ocurren ideas\nestupendas para la tienda mientras\ntomamos café.\n¡Y cuando el presidente está por\naquí, se nos ocurren ideas aún\nmejores! ¡Mejores!",
      "USfr": "Beaucoup d'idées nous viennent\npour notre boutique quand nous\nbuvons du café.\nQuand le président est avec nous,\nelles ne sont que meilleures!\nC'est un vrai génie!"
    }
  }
]