﻿[
  {
    "label": "001",
    "attribute": "0x00000000",
    "locale": {
      "CNzh": "",
      "EUde": "",
      "EUen": "",
      "EUes": "",
      "EUfr": "",
      "EUit": "",
      "EUnl": "",
      "EUru": "",
      "JPja": "",
      "KRko": "",
      "TWzh": "",
      "USen": "",
      "USes": "",
      "USfr": ""
    }
  },
  {
    "label": "001_01",
    "attribute": "0x00000000",
    "locale": {
      "CNzh": "你好！\n叫我来的人就是你吧？",
      "EUde": "Hi! Du... Du hast mich hergerufen,\noder?",
      "EUen": "Hi! You... You're the one who called\nme here, right?",
      "EUes": "¡Ah! ¡Eh! ¡Tú! Has sido tú quien\nme ha llamado, ¿no?",
      "EUfr": "Bonjour ! C'est... C'est bien toi\nqui m'as fait venir ici, n'est-ce pas ?",
      "EUit": "Uh! Sei... sei tu che mi hai\nchiamato, vero?",
      "EUnl": "Hoi! Ben jij... degene die me hier\nheeft uitgenodigd?",
      "EUru": "Привет! Это... ты хотел меня\nвидеть, так?",
      "JPja": "ども！\nおいらを　呼んでくれた人だよな？",
      "KRko": "안녕!\n나 불렀어?",
      "TWzh": "你好！\n找我過來的人就是你吧？",
      "USen": "Hi! You... You're the one who called\nme here, right?",
      "USes": "¡Ah! ¡Eh! ¡Tú! Tú me llamaste,\n¿no es así?",
      "USfr": "Salut! C'est... C'est bien toi qui\nm'as fait venir ici, n'est-ce pas?"
    }
  },
  {
    "label": "002",
    "attribute": "0x00000000",
    "locale": {
      "CNzh": "",
      "EUde": "",
      "EUen": "",
      "EUes": "",
      "EUfr": "",
      "EUit": "",
      "EUnl": "",
      "EUru": "",
      "JPja": "",
      "KRko": "",
      "TWzh": "",
      "USen": "",
      "USes": "",
      "USfr": ""
    }
  },
  {
    "label": "002_01",
    "attribute": "0x00000000",
    "locale": {
      "CNzh": "你好！\n看来你又叫我来了啊！",
      "EUde": "Hey! Von Bono bekommt man einfach\nnie genug, oder?",
      "EUen": "Hey! You just can't get enough Niko,\ncan you?",
      "EUes": "¡Uh! No te cansas de verme, ¿eh?",
      "EUfr": "Salut ! Tu ne peux pas te passer de\nce bon vieux Gratien, c'est ça ?",
      "EUit": "Uh! Non riesci proprio a starmi\nlontano, eh?",
      "EUnl": "Hoi! Was één keer Niko nog niet\ngenoeg voor jou?",
      "EUru": "Привет! Смотрю, ты уже\nсоскучился по Нико!",
      "JPja": "ども！\nまた　呼んでくれたみたいだな！",
      "KRko": "안녕!\n또 불렀어?",
      "TWzh": "你好！\n你又找我過來了啊！",
      "USen": "Hey! You just can't get enough Niko,\ncan you?",
      "USes": "¡Uh! No te cansas de verme, ¿eh?",
      "USfr": "Salut! Tu peux pas te passer de\nce bon vieux Gratien, pas vrai?"
    }
  },
  {
    "label": "003",
    "attribute": "0x00000000",
    "locale": {
      "CNzh": "",
      "EUde": "",
      "EUen": "",
      "EUes": "",
      "EUfr": "",
      "EUit": "",
      "EUnl": "",
      "EUru": "",
      "JPja": "",
      "KRko": "",
      "TWzh": "",
      "USen": "",
      "USes": "",
      "USfr": ""
    }
  },
  {
    "label": "003_01",
    "attribute": "0x00000000",
    "locale": {
      "CNzh": "你好！",
      "EUde": "Hi!",
      "EUen": "Hi!",
      "EUes": "¡Oh! ¡Eh! ¡Hola!",
      "EUfr": "Salut !",
      "EUit": "Uh, ciao!",
      "EUnl": "Hoi!",
      "EUru": "Привет-привет!",
      "JPja": "ども！",
      "KRko": "안녕!",
      "TWzh": "你好！",
      "USen": "Hi!",
      "USes": "¡Oh! ¡Eh! ¡Hola!",
      "USfr": "Salut!"
    }
  },
  {
    "label": "101",
    "attribute": "0x00000000",
    "locale": {
      "CNzh": "",
      "EUde": "",
      "EUen": "",
      "EUes": "",
      "EUfr": "",
      "EUit": "",
      "EUnl": "",
      "EUru": "",
      "JPja": "",
      "KRko": "",
      "TWzh": "",
      "USen": "",
      "USes": "",
      "USfr": ""
    }
  },
  {
    "label": "101_01",
    "attribute": "0x00000000",
    "locale": {
      "CNzh": "唔～！这咖啡真好喝啊！",
      "EUde": "Hmmmm... Das ist ein wirklich\nguter Kaffee!",
      "EUen": "Mmmmm... This is really good coffee!",
      "EUes": "Uuuh... Qué rico está aquí el café.",
      "EUfr": "Mmmmm... Ce café est délicieux !",
      "EUit": "Mmmh... Che buono, questo caffè!",
      "EUnl": "Mmmmm... Deze koffie is écht goed!",
      "EUru": "М-м-м... Отличный кофе!",
      "JPja": "う～ん！　めっちゃウマいコーヒーだな！",
      "KRko": "으～음! 이 커피 엄청 맛있다!",
      "TWzh": "嗯～！這咖啡真是好喝到不行！",
      "USen": "Mmmmm... This is really good coffee!",
      "USes": "Uuuh... Qué rico es el café de aquí.",
      "USfr": "Mmmmm... Ce café est délicieux!"
    }
  },
  {
    "label": "101_02",
    "attribute": "0x00000000",
    "locale": {
      "CNzh": "有这么好喝的咖啡，\n我都想每天过来喝了。",
      "EUde": "Der Kaffee dieser Insel ist unschlag-\nbar. Ich wünschte, ich könnte mir\nhier jeden Tag meine Tasse abholen!",
      "EUen": "You can't beat island coffee. I want\nto get my fill here every day!",
      "EUes": "La verdad es que solo por lo bueno\nque está el café ya merece la pena\nel viaje...",
      "EUfr": "Le café insulaire, c'est ce qu'on\ntrouve de mieux. C'est simple, il\nm'en faut une tasse par jour !",
      "EUit": "Questo caffè è imbattibile.\nVerrò a prenderlo ogni giorno!",
      "EUnl": "Er gaat niets boven eilandkoffie. Dit\nzou een gewoonte kunnen worden!",
      "EUru": "Лучше островного кофе нет.\nЯ не прочь каждый день сюда\nприходить подзаправиться!",
      "JPja": "こんだけ　ウマいコーヒーなら\n毎日でも　飲みに通いたいぐらいだよ",
      "KRko": "이렇게 맛있는 커피라면\n매일이라도 마실 수 있겠어",
      "TWzh": "這裡的咖啡好喝到\n我願意每天都來這喝上一杯喔！",
      "USen": "You can't beat island coffee. I want\nto get my fill here every day!",
      "USes": "Con lo sabroso que es este café,\nya vale la pena el viaje...",
      "USfr": "Le café insulaire, c'est ce qu'on\ntrouve de mieux. C'est simple, il\nm'en faut une tasse par jour!"
    }
  },
  {
    "label": "101_03",
    "attribute": "0x00000000",
    "locale": {
      "CNzh": "来这儿喝到了这么美味的咖啡，\n等下我回去，工作起来就更有动力了！",
      "EUde": "Wenn ich hier auftanke, komme ich\nproblemlos durch den Arbeitstag.\nDas funktioniert wirklich gut!",
      "EUen": "I came here to fuel up so I can get\nthrough the workday. So good!",
      "EUes": "Este sitio está muy bien para\nrecargar las pilas antes de volver\nal trabajo.",
      "EUfr": "Je suis venu ici faire le plein\nd'énergie avant ma journée de\ntravail. C'était une bonne idée !",
      "EUit": "Sono venuto qui a ricaricarmi per\navere energia per la giornata. E ti\ngarantisco che funziona!",
      "EUnl": "Ik kwam hier even bijtanken om de\nwerkdag door te komen. De koffie\nvan Brewster is altijd zo lekker!",
      "EUru": "Я прихожу сюда выпить кофе,\nчтобы работа шла как следует.\nПока еще ни разу осечки не было.",
      "JPja": "ウマい　コーヒーも飲みに来れたし、\n戻ったらまた　仕事　頑張るぞー！",
      "KRko": "맛있는 커피도 마셨겠다\n다시 일을 열심히 할 수 있겠어－!",
      "TWzh": "喝完美味的咖啡，\n回去也要繼續好好工作囉！",
      "USen": "I came here to fuel up so I can get\nthrough the workday. So good!",
      "USes": "Este sitio es ideal para recargar\nlas pilas antes de volver al trabajo.",
      "USfr": "Je suis venu ici faire le plein\nd'énergie avant ma journée de\ntravail. C'était une bonne idée!"
    }
  },
  {
    "label": "301",
    "attribute": "0x00000000",
    "locale": {
      "CNzh": "哟，(player name)！\n谢谢你叫我来啊！",
      "EUde": "Schönen Dank für die Einladung,\n(Spielername)!",
      "EUen": "Thanks for calling me on over,\n(player name)!",
      "EUes": "¡Eh! ¡Muchas gracias por invitarme\na venir, (player name)!",
      "EUfr": "Merci de m'avoir fait venir, (nom du joueur) !",
      "EUit": "Grazie per avermi invitato di nuovo,\n(player name)!",
      "EUnl": "Bedankt voor je uitnodiging, (player name)!",
      "EUru": "Спасибо, что позвонил мне\nи пригласил, (player name)!",
      "JPja": "よっ、(player name)！\n呼んでくれて　ありがとなっ！",
      "KRko": "오, (player name)!\n불러줘서 고마워!",
      "TWzh": "喲，(player name)！\n謝謝你找我過來！",
      "USen": "Thanks for calling me on over,\n(player name)!",
      "USes": "¡Eh! ¡Muchas gracias por invitarme\na venir, (player name)!",
      "USfr": "Merci de m'avoir fait venir, (nom du joueur)!"
    }
  },
  {
    "label": "302",
    "attribute": "0x00000000",
    "locale": {
      "CNzh": "哟，(player name)！\n我又来了！",
      "EUde": "Da bin ich wieder, (Spielername)!",
      "EUen": "I'm back, (player name)!",
      "EUes": "¡Uh! ¡He vuelto, (player name)!",
      "EUfr": "Me revoilà, (nom du joueur) !",
      "EUit": "Rieccomi qui, (player name)!",
      "EUnl": "Daar ben ik weer, (player name)!",
      "EUru": "А вот и снова я, (player name)!",
      "JPja": "よっ、(player name)！\nまた来たぜ！",
      "KRko": "오, (player name)!\n또 놀러왔어!",
      "TWzh": "喲，(player name)！\n我又來了！",
      "USen": "I'm back, (player name)!",
      "USes": "¡Uh! ¡Ya volví, (player name)!",
      "USfr": "Me revoilà, (nom du joueur)!"
    }
  },
  {
    "label": "303",
    "attribute": "0x00000000",
    "locale": {
      "CNzh": "哟，(player name)！\n我也跟着来了！",
      "EUde": "Wirklich ein nettes Plätzchen hier,\n(Spielername)!",
      "EUen": "I'm just here to enjoy this wild ride,\n(player name)!",
      "EUes": "¡Oh! Espero que no te importe que\nme haya sumado a la invitación, (player name).",
      "EUfr": "Je suis ici pour me détendre, (nom du joueur).",
      "EUit": "Sono qui solo per passare un po' di tempo a chiacchierare, (player name)!",
      "EUnl": "Ik ga gewoon genieten, (player name)! En verder zie ik wel wat er op me afkomt.",
      "EUru": "Я опять здесь! Надеюсь, мы хорошо\nповеселимся, (player name)!",
      "JPja": "よっ、(player name)！\nおいらも　一緒に来たぜ！",
      "KRko": "오, (player name)!\n나도 따라왔어!",
      "TWzh": "喲，(player name)！\n我也一起來了！",
      "USen": "I'm just here to enjoy this wild ride,\n(player name)!",
      "USes": "¡Oh! Espero que no te moleste que\nme haya sumado a la invitación, (player name).",
      "USfr": "Je suis ici pour me détendre, (nom du joueur)."
    }
  },
  {
    "label": "304",
    "attribute": "0x00000000",
    "locale": {
      "CNzh": "",
      "EUde": "",
      "EUen": "",
      "EUes": "",
      "EUfr": "",
      "EUit": "",
      "EUnl": "",
      "EUru": "",
      "JPja": "",
      "KRko": "",
      "TWzh": "",
      "USen": "",
      "USes": "",
      "USfr": ""
    }
  },
  {
    "label": "304_01",
    "attribute": "0x00000000",
    "locale": {
      "CNzh": "(player name)你住的地方\n可真好啊！",
      "EUde": "Da gibt es kein Vertun – du wohnst\nauf einer klasse Insel, (Spielername)!",
      "EUen": "No question about it. You live in a\ncool place, (player name)!",
      "EUes": "¡Uh, (player name)! ¡Vives en una isla muy chula!",
      "EUfr": "Tu vis dans un coin très chouette,\n(nom du joueur), cela ne fait pas un pli !",
      "EUit": "C'è poco da dire, vivi in un posto\ndavvero bello, (player name)!",
      "EUnl": "Nu weet ik het zeker. Je woont echt op een superplek, (player name)!",
      "EUru": "А ты в отличном месте живешь,\n(player name)! Тут и спорить не о чем, точно-точно!",
      "JPja": "(player name)は　いいところに\n住んでるんだなー！",
      "KRko": "(player name), 너\n좋은 데 사는구나－!",
      "TWzh": "(player name)，\n你住的地方還真是不錯～！",
      "USen": "No question about it. You live in a\ncool place, (player name)!",
      "USes": "¡Uh, (player name)! ¡Vives en una isla muy bonita!",
      "USfr": "Tu vis dans un coin super sympa,\n(nom du joueur), ça fait pas un pli!"
    }
  },
  {
    "label": "304_02",
    "attribute": "0x00000000",
    "locale": {
      "CNzh": "撇开工作时间不谈，\n我们几个能聚首还挺难得啊！",
      "EUde": "Ist nett, sich mit guten Kollegen\nauch mal außerhalb der Arbeits-\nzeiten zu treffen.",
      "EUen": "Feels nice to get together with good\nfolks outside of work hours.",
      "EUes": "Es agradable reunirse con los\ncompañeros fuera de la oficina.",
      "EUfr": "C'est agréable de rencontrer\ndes gens sympathiques en dehors\nde mes heures de permanence.",
      "EUit": "È una meraviglia incontrare bella\ngente al di fuori dell'orario di lavoro!",
      "EUnl": "Gewoon met een paar leuke lui na\nhet werk bij elkaar komen... Zo\nsimpel kan genieten zijn!",
      "EUru": "Приятно провести время в хорошей\nкомпании после работы.",
      "JPja": "仕事の時間外に　このメンバーで\n集まってるのは　新鮮だよな！",
      "KRko": "업무 시간 외에\n이 멤버가 모여 있으니까 신선하네!",
      "TWzh": "沒想到我們能在工作以外的時間集合，\n真是特別的體驗啊！",
      "USen": "Feels nice to get together with good\nfolks outside of work hours.",
      "USes": "Es agradable reunirse con los\ncompañeros por fuera de la oficina.",
      "USfr": "C'est agréable de rencontrer\ndes gens sympathiques en dehors\nde mes heures de permanence."
    }
  },
  {
    "label": "304_03",
    "attribute": "0x00000000",
    "locale": {
      "CNzh": "今天能来游玩，\n真是太好了！",
      "EUde": "Ich bin echt froh, dass sich heute\ndie Gelegenheit ergeben hat,\n zu besuchen.",
      "EUen": "I'm so glad I got the chance to visit\n today.",
      "EUes": "Es muy agradable estar de visita\nen . Esta isla me gusta.",
      "EUfr": "Je suis vraiment enchanté d'avoir\npu visiter  aujourd'hui.",
      "EUit": "Sono proprio contento di essere venuto a visitare  oggi.",
      "EUnl": "Wat ben ik blij dat ik vandaag naar\n kon komen!",
      "EUru": "Я очень-очень рад, что сегодня\nудалось побывать на острове\n!",
      "JPja": "今日は　に\n遊びに来れて　良かったよ！",
      "KRko": "오늘 에\n놀러오길 잘했어!",
      "TWzh": "今天能來玩\n真是太好了！",
      "USen": "I'm so glad I got the chance to visit\n today.",
      "USes": "Es muy agradable estar de visita\nen . Esta isla me gusta.",
      "USfr": "Je suis vraiment enchanté d'avoir\npu visiter  aujourd'hui."
    }
  }
]