﻿[
  {
    "label": "011",
    "attribute": "0x00000C0100000007",
    "locale": {
      "CNzh": "哟！你来啦！。",
      "EUde": "Cool, (Floskel).\nKommste auch mal rum.",
      "EUen": "Yo, (catchphrase). Thanks for\nstoppin' by!",
      "EUes": "¡Mira a quién tenemos aquí!\nSe agradece la visita, simpático.",
      "EUfr": "Salut, (expression) ! C'est sympa\nd'être passé.",
      "EUit": "Ehi, . Beh, grazie per la visita.",
      "EUnl": "Yo, (catchphrase). Leuk dat je er bent!",
      "EUru": "Йоу. (catchphrase)! Спасибо, что\nзашел!",
      "JPja": "よっ！　来てくれたのかい！　",
      "KRko": "안녕! 왔구나! !",
      "TWzh": "唷！你來啦！。",
      "USen": "Yo, (catchphrase). Thanks for\nstoppin' by!",
      "USes": "¡Mira a quién tenemos aquí!\nSe agradece la visita, guapuraza.",
      "USfr": "Salut, (expression)! C'est sympa\nd'être passé."
    }
  },
  {
    "label": "012",
    "attribute": "0x00000C0100000007",
    "locale": {
      "CNzh": "欢迎你的到来！。",
      "EUde": "Keine Schüchternheit vortäuschen.\nMach's dir bequem, (Floskel).",
      "EUen": "Hey, you showed up, (catchphrase)!",
      "EUes": "Sabes que mi casa es lo máximo\ny has venido a ver si se te\npegaba algo, ¿eh? Ji, ji.",
      "EUfr": "Hé, tu t'es pointé, finalement,\n(expression) !",
      "EUit": "Beh, guarda un po' chi si vede.",
      "EUnl": "Hé, je bent er, (catchphrase)!",
      "EUru": "Привет, добро пожаловать!\n(catchphrase)!",
      "JPja": "よく来てくれたね！　",
      "KRko": "어서 와! !",
      "TWzh": "真高興看到你來啊！。",
      "USen": "Hey, you showed up, (catchphrase)!",
      "USes": "¡Ey! ¡Mira quién anda por aquí!",
      "USfr": "Hé, tu t'es pointé, finalement,\n(expression)!"
    }
  },
  {
    "label": "013",
    "attribute": "0x00000C0100000007",
    "locale": {
      "CNzh": "欢迎，\n放松一点就好！。",
      "EUde": "Willste meine Bude inspizieren,\n(Floskel)? Tu dir keinen Zwang an!",
      "EUen": "Make yourself at home, OK?",
      "EUes": "¡Huy, pasa, pasa! Tú como en tu\ncasa. Sin abusar tampoco, claro.",
      "EUfr": "Ça fait plaiz de voir ta bouille.\nFais comme chez toi, pas d'chichis\nentre nous, .",
      "EUit": "Oh, ciao! Fai pure come se fossi\na casa tua, .",
      "EUnl": "Doe lekker of je thuis bent.",
      "EUru": "Чувствуй себя как дома, ладно?",
      "JPja": "いらっしゃい、\nくつろいでっておくれ！　",
      "KRko": "어서 와～\n편하게 쉬어! !",
      "TWzh": "歡迎你來，\n放輕鬆，別拘束啊！。",
      "USen": "Make yourself at home, OK?",
      "USes": "Estás en tu casa, ¿eh?",
      "USfr": "Ça fait plaisir de voir ta bouille.\nFais comme chez toi, pas d'chichis\nentre nous, ."
    }
  },
  {
    "label": "014",
    "attribute": "0x00000C0100070007",
    "locale": {
      "CNzh": "早上好！\n你是来和我说早安的吗？。",
      "EUde": "Morgen, Gänseblume. Biste hier,\num sicherzugehen, dass ich aus\nden Puschen komme, (Floskel)?",
      "EUen": "Mornin', sunbeam. You here to\nmake sure I start my day off\nright, (catchphrase)?",
      "EUes": "Qué modorra... ¿Has venido a darme\nlos buenos días? Te lo agradezco,\naunque todavía no soy persona.",
      "EUfr": "Salut, p'tite tête. Tu viens t'assurer\nque j'me suis levée d'la bonne\npatte, (expression) ?",
      "EUit": "Oh, ciao... Sei qui per controllare\nche inizi bene la giornata dopo una\nbella nottata di feste, ?",
      "EUnl": "Morgen, glimvisje. Kom je ervoor\nzorgen dat mijn dag goed begint,\n(catchphrase)?",
      "EUru": "Здрасте. (catchphrase)! Боишься,\nчто я весь день просплю?",
      "JPja": "おはよう！\n朝のあいさつに　来てくれたのかい？　",
      "KRko": "안녕!\n아침 인사하러 왔냐? ?",
      "TWzh": "早安！\n你是來向我問聲早的嗎？。",
      "USen": "Mornin', sunbeam. You here to\nmake sure I start my day off\nright, (catchphrase)?",
      "USes": "Ufff... qué flojera tengo. ¿Viniste\na presumirme tu carita fresca como\nlechuga?",
      "USfr": "Salut, p'tite tête. Tu viens t'assurer\nque j'me suis levée d'la bonne\npatte, (expression)?"
    }
  },
  {
    "label": "015",
    "attribute": "0x00000C0100080007",
    "locale": {
      "CNzh": "欢迎！\n放松点，玩得开心啊。。",
      "EUde": "Alles klärchen? Hab eben durch-\ngewischt. Kannst es dir also überall\nbequem machen, (Floskel).",
      "EUen": "How goes it? Take a load off and\nstay a while, (catchphrase).",
      "EUes": "¿Cómo va eso, chicuelo? Descansa\nun ratejo si te apetece.\nTe ofrecería algo de picar, pero creo\nque no ha sobrado nada de la fiesta\nde anoche. Ji, ji.",
      "EUfr": "Comment ça va bien ? Relax, t'es ici\nchez toi, (expression).",
      "EUit": "Oh, ciao. Stavo per andare a fare\nun pisolino, ma visto che hai fatto\ntutta questa strada, fermati un po'.",
      "EUnl": "Hoestie? Ga lekker zitten en blijf nog\neven, (catchphrase).",
      "EUru": "Как поживаешь? Располагайся,\nотдыхай себе. !",
      "JPja": "オーッス！\nゆっくりしていきなよ、",
      "KRko": "여～!\n느긋하게 있다 가라! !",
      "TWzh": "嘿！\n你放輕鬆，儘管待著吧，。",
      "USen": "How goes it? Take a load off and\nstay a while, (catchphrase).",
      "USes": "¿Qué hay, compi? Te ofrecería algo\nde comer, pero no sobró nada de la\nfiesta de anoche, ...",
      "USfr": "Comment ça va bien? Relax, t'es ici\nchez toi, (expression)."
    }
  },
  {
    "label": "016",
    "attribute": "0x00000C0100050007",
    "locale": {
      "CNzh": "难得你来一趟，\n就把这儿当自己家，放松点就好！。",
      "EUde": "Wenn du schon da bist, können\nwir auch gepflegt 'ne Runde\nabhängen, (Floskel).",
      "EUen": "So long as you're here, you might\nas well hang out, (catchphrase).",
      "EUes": "¡Ahí va la osa! ¿A ti también te\nhan cancelado el plan nocturno\nen el último momento?\nPues nada, nos quedamos aquí y\nla liamos por nuestra cuenta, majo.",
      "EUfr": "Si déjà t'es là, autant t'mettre\nà l'aise, .",
      "EUit": "Beh, visto che ormai sei qui, puoi\nanche restare, .",
      "EUnl": "Als je hier toch bent, kun je net zo\ngoed even blijven, (catchphrase).",
      "EUru": "Посидим, поболтаем, пока\nты здесь. .",
      "JPja": "せっかく来てくれたんだ、\nくつろいでいきなよ！　",
      "KRko": "모처럼 왔는데\n편히 쉬다 가! !",
      "TWzh": "難得你來找我，\n就放輕鬆，別拘束吧！。",
      "USen": "So long as you're here, you might\nas well hang out, (catchphrase).",
      "USes": "¡Eyyy! ¿A ti también te cancelaron\nel plan nocturno? No pasa nada...\n¡Aquí la pasaremos chévere!",
      "USfr": "Si déjà t'es là, autant t'mettre\nà l'aise, ."
    }
  },
  {
    "label": "017",
    "attribute": "0x00000C0100060007",
    "locale": {
      "CNzh": "这个点了，你要出门吗？\n看来你也是夜行性动物啊。。",
      "EUde": "Noch wach?\nBist wohl auch so 'ne Nachteule\nwie ich, (Floskel)!",
      "EUen": "Still kickin' this late, (catchphrase)?\nGuess you're nocturnal too!",
      "EUes": "¡Anda, otro noctámbulo como yo!\nDeberíamos montar un club;\n«Trasnochadores sin fronteras»\no algo de ese palo. ¡Sería la caña!",
      "EUfr": "T'as encore la pêche en plein milieu\nd'la nuit ? Comme quoi, chuis pas\nla seule à m'pieuter à pas d'heure !",
      "EUit": "Ancora in giro a quest'ora? Devi\nessere un animale notturno al pari\ndi me, !",
      "EUnl": "Ben jij nog zo laat op, joh? Dan ben je vast ook een nachtdier, (catchphrase)!",
      "EUru": "А тебе все не спится? (catchphrase)!\nНаверное, ты тоже любишь\nполуночничать, как я.",
      "JPja": "こんな時間に　お出ましかい？\nアンタも　夜行性だね、",
      "KRko": "이런 늦은 시간에 웬일이래?\n너도 야행성인가 보구나? ?",
      "TWzh": "你竟然在這種時間來找我啊？\n你也是夜行性的呢，。",
      "USen": "Still kickin' this late, (catchphrase)?\nGuess you're nocturnal too!",
      "USes": "¡Otro noctámbulo como yo!\nDeberíamos armar un club o algo...\n\"Trasnochadores isleños\", ¿qué tal?",
      "USfr": "T'as toujours la forme en plein milieu\nd'la nuit? Comme quoi, chuis pas\nla seule à m'coucher à pas d'heure!"
    }
  },
  {
    "label": "018",
    "attribute": "0x00000C0500000007",
    "locale": {
      "CNzh": "欢迎！\n没什么能招待你，还请你宽坐啊！。",
      "EUde": "Cool, dass du reinschaust. Mein\nKühlschrank wurde schon von\n geplündert...\nAber wir können uns ja trotzdem\n'ne nette Zeit machen, (Floskel).",
      "EUen": "Cool of you to drop in, (catchphrase).\nMy digs aren't fancy, but you can\nstay as long as you want.",
      "EUes": "Con el día que hace, ¿no te\ncundiría más estar fuera?\nYo he venido a casa a descansar\nun rato antes de darlo todo luego.\n¡Quédate conmigo si quieres!",
      "EUfr": "C'est sympa d'passer m'voir. Bon,\nma piaule, c'est pas un palace, mais\ntu peux y squatter autant qu'tu veux.",
      "EUit": "Ah, sei tu! Beh, fatti pure un giro e\nprenditi tutto il tempo che ti serve,\n.",
      "EUnl": "Leuk dat je binnenvalt. Mijn stek is\nniets bijzonders, maar je kunt zo lang\nblijven als je wilt, (catchphrase).",
      "EUru": "Хорошо, что заглянул. Угостить\nтебя нечем, но можешь сидеть\nсколько угодно. (catchphrase)!",
      "JPja": "いらっしゃい！\nなんもないけど、ゆっくりしてってよ！　",
      "KRko": "어서 와!\n별건 없지만 느긋하게 있다 가! !",
      "TWzh": "歡迎你來！我家雖然沒什麼東西，\n不過你就放輕鬆，儘管待著吧！。",
      "USen": "Cool of you to drop in, (catchphrase).\nMy digs aren't fancy, but you can\nstay as long as you want.",
      "USes": "¡Qué gustazo que vengas de visita!\nEstaba descansando un rato... antes\nde salir de fiesta. ¡Pasa, pasa!",
      "USfr": "C'est sympa d'passer m'voir. Bon,\nma maison, c'est pas un palace, mais\ntu peux y squatter autant qu'tu veux."
    }
  },
  {
    "label": "019",
    "attribute": "0x00000C0700000007",
    "locale": {
      "CNzh": "你来了啊！\n雨停之前，你就在我家休息吧！。",
      "EUde": "Hat dich der Regen kalt erwischt?\nKein Ding. Kannst solange hier\nabhängen, wie du willst.",
      "EUen": "Hey, (catchphrase). Decided to come\nin outta the rain, huh? Good call.",
      "EUes": "A ti no te frena ni un huracán, ¿eh?\n¡Como debe ser, tú! La vida hay que\nvivirla a tope de energía.\nPues nada, quédate aquí hasta\nque escampe un poco. ¡Que no se\ndiga que no trato bien a las visitas!",
      "EUfr": "Tiens, tu viens t'mettre à l'abri\nde c'déluge ? Tu fais bien,\n(expression) !",
      "EUit": "Oh, ciao. Sei passato a trovarmi, a\nripararti dalla pioggia o tutt'e due?\nEntrambe decisioni niente male.",
      "EUnl": "Hoi. Je dacht: ik ga maar eens naar\nbinnen? Goed plan, (catchphrase).",
      "EUru": "Решил укрыться от дождя?\nОтличная мысль. (catchphrase)!",
      "JPja": "よく来たね！\n雨が止むまで　ゆっくりしていきな！　",
      "KRko": "어서 와!\n비 그칠 때까지 편히 쉬어! !",
      "TWzh": "你來啦！\n在雨停之前，你就儘管待著吧！。",
      "USen": "Hey, (catchphrase). Decided to come\nin outta the rain, huh? Good call.",
      "USes": "¿Intentando resguardarte de la\nlluvia, tú? ¡Pásale!",
      "USfr": "Tiens, tu viens t'mettre à l'abri\npendant l'déluge? Tu fais bien,\n(expression)!"
    }
  },
  {
    "label": "020",
    "attribute": "0x00000C0900000007",
    "locale": {
      "CNzh": "外面很冷吧？\n你就在这里好好暖暖身子吧！。",
      "EUde": "Draußen isses echt mal kalt.\nKannst dich bei einer heißen Tasse\n hier aufwärmen.",
      "EUen": "It's cold outside, huh? Well, stick\naround and thaw yourself out!",
      "EUes": "¡Hace un frío tremendo! No sé cómo\nte atreves a corretear por ahí con\neste tiempo, colega.\nHale, quédate aquí hasta que entres\nen calor, ¿sí? ¡Menea tu cuerpo\nserrano si hace falta!",
      "EUfr": "Fait frisquet, pas vrai ? T'inquiète,\ntu peux rester ici jusqu'à ce que\nt'aies fini de décongeler !",
      "EUit": "Fuori avevi troppo freddo, ? Beh, resta pure qui dentro finché non ti scongeli.",
      "EUnl": "Het is koud buiten, hè? Nou, blijf\nmaar hier tot je ontdooid bent!",
      "EUru": "Холодно на улице? Побудь у меня,\nпока не оттаешь.",
      "JPja": "外、寒かっただろ？\nゆっくり　あったまってくといいよ！　",
      "KRko": "밖이 많이 춥지?\n천천히 몸 좀 녹이고 가! !",
      "TWzh": "外頭很冷吧？\n你就放輕鬆，儘管在這裡取暖吧！。",
      "USen": "It's cold outside, huh? Well, stick\naround and thaw yourself out!",
      "USes": "¡Hace un frío tremendo! No sé cómo\nte atreves a andar tan campante por\nahí con estas inclemencias, compi.\nSoné a mi mamá...\nEn fin, quédate aquí todo lo que\nquieras. Si quieres bailar para que se\nte quite el frío, pues te acompaño.",
      "USfr": "Fait frette, pas vrai? T'en fais pas,\ntu peux rester ici jusqu'à ce que\nt'aies fini de décongeler!"
    }
  },
  {
    "label": "022",
    "attribute": "0x00000C0100000008",
    "locale": {
      "CNzh": "(nickname)！\n你来啦！。",
      "EUde": "He, (Spitzname). Komm rein, flack dich wo hin und leg die Füße hoch, (Floskel)!",
      "EUen": "Hey, (nickname). Make\nyourself at home, (catchphrase)!",
      "EUes": "¡Pasa, pasa, (nickname)!\n¿Por qué será que, siempre que\nalguien se aburre, viene a verme?\n¡Será que conmigo cualquiera\ntiene diversión garantizada!",
      "EUfr": "Salut, (surnom). Entre, vautre-toi où ça t'chante et repose-toi les pattounettes.",
      "EUit": "Ciao, (nickname)! Beh, dai, accomodati pure.",
      "EUnl": "Hoi, (nickname). Doe of je thuis bent, (catchphrase)!",
      "EUru": "Привет, (nickname).\nЧувствуй себя как дома!\n(catchphrase)!",
      "JPja": "(nickname)、\n来てくれたんだね！　",
      "KRko": "(nickname)!\n왔구나! !",
      "TWzh": "(nickname)，\n你來找我啦！。",
      "USen": "Hey, (nickname). Make\nyourself at home, (catchphrase)!",
      "USes": "¡Qué onda, (nickname)!\n¡Pasa! Aquí siempre hay diversión\ngarantizada.",
      "USfr": "Salut, (surnom). Entre, vautre-toi où ça t'chante et repose-toi les pattounettes."
    }
  },
  {
    "label": "023",
    "attribute": "0x00000C0100000008",
    "locale": {
      "CNzh": "你来啦，\n(nickname)！。",
      "EUde": "(Floskel)!\nFett, dass du mich in meiner\nBude beehrst, (Spitzname).",
      "EUen": "Thanks for coming around.",
      "EUes": "¿Vienes a verme porque me echabas\nde menos, (nickname)?\nNo me preguntes por qué, ¡pero\nsuelo tener ese efecto en los demás!",
      "EUfr": "C'est sympa d'faire un tour dans\nma bicoque, (surnom), .",
      "EUit": "Beh... grazie della visita. A cosa\ndevo il piacere, (nickname)?",
      "EUnl": "Bedankt voor je bezoekje, (nickname).",
      "EUru": "Спасибо, что зашел,\n(nickname).",
      "JPja": "よく来てくれたね、\n(nickname)！　",
      "KRko": "어서 와라,\n(nickname)! !",
      "TWzh": "(nickname)，\n真高興看到你來！。",
      "USen": "Thanks for coming around.",
      "USes": "¿Viniste a verme porque me\nextrañabas, (nickname)?",
      "USfr": "C'est sympa d'faire un tour dans\nma bicoque, (surnom), ."
    }
  },
  {
    "label": "024",
    "attribute": "0x00000C0100000008",
    "locale": {
      "CNzh": "欢迎，(nickname)！。",
      "EUde": "Wie geht's, wie steht's,\n(Spitzname)? Fühl dich wie\nzu Hause, (Floskel).",
      "EUen": "'Sup, (nickname)? Welcome\nto my place.",
      "EUes": "¡Anda, (nickname)!\n¡Esto se avisa!\nMe pillas con la casa manga por\nhombro, pero menos mal que\nya hay confianza, ¿eh?",
      "EUfr": "Ça gazouille, (surnom) ?\nBienvenue dans ma turne,\n !",
      "EUit": "Come va, (nickname)? Benvenuto nella mia tana, .",
      "EUnl": "Hoestie, (nickname)? Welkom in mijn stulpje.",
      "EUru": "Как оно, (nickname)?\nДобро пожаловать.",
      "JPja": "いらっしゃい　(nickname)！　",
      "KRko": "어서 와, (nickname)! !",
      "TWzh": "(nickname)，歡迎你來！。",
      "USen": "'Sup, (nickname)? Welcome\nto my place.",
      "USes": "¡Qué ondaza, (nickname)!\nNo te esperaba, ¡pero pasa!\nY no te fijes en el desorden...",
      "USfr": "Ça gazouille, (surnom)?\nBienvenue dans ma bicoque,\n!"
    }
  },
  {
    "label": "025",
    "attribute": "0x00000C0100070008",
    "locale": {
      "CNzh": "(nickname)，早啊！\n你来玩了啊！。",
      "EUde": "Moin, (Spitzname). Kannst es wohl kaum erwarten, gemeinsam abzuhängen, was? Ich auch nich'.",
      "EUen": "Mornin', (nickname). Eager\nto hang out, (catchphrase)?",
      "EUes": "Ahí va, (nickname)... No es\nque no me haga ilusión verte; ¡es\nque no son horas de estar despierta!",
      "EUfr": "Salut, (surnom). T'as émergé du pageot d'humeur à v'nir bavasser avec ta vieille copine ?",
      "EUit": "'Giorno, (nickname)! Volevi proprio vedere una tipa eccezionale, eh? Ben fatto, .",
      "EUnl": "Moggûh, (nickname). Had jij even zin in een bezoekje, (catchphrase)?",
      "EUru": "Доброе утро, (nickname).\nНе теряешь времени зря?\n(catchphrase)!",
      "JPja": "(nickname)、おはよう！\n遊びに来てくれたんだね！　",
      "KRko": "안녕～ (nickname)!\n놀러왔구나! !",
      "TWzh": "(nickname)，早安！\n你來找我玩了呢！。",
      "USen": "Mornin', (nickname). Eager\nto hang out, (catchphrase)?",
      "USes": "Qué... onda... (nickname).\nNo creas que no me da gusto verte...\nPasa que... la parte despierta de mi\ncerebro se alegra de verte... pero la\notra sigue dormida.",
      "USfr": "Salut, (surnom). T'étais d'humeur à v'nir bavasser avec ta vieille copine?"
    }
  },
  {
    "label": "026",
    "attribute": "0x00000C0100080008",
    "locale": {
      "CNzh": "你好，(nickname)！\n你来啦！。",
      "EUde": "Alles roger, (Spitzname)?\nWas bringt dich her, (Floskel)?",
      "EUen": "How goes it, (nickname)?\nWhat brings you to my place?",
      "EUes": "¡A las buenas, (nickname)!\nNo vendrás con la esperanza\nde picar algo, ¿no?\nPorque ahora mismo tengo\nla despensa más vacía que un\ngarito a primera hora de la noche.",
      "EUfr": "Tiens, (surnom) ! Quel bon vent t'amène,  ?",
      "EUit": "Che mi racconti, (nickname)? Come mai da queste parti, ?",
      "EUnl": "Hoe gaat het, (nickname)? Wat brengt jou naar mijn stek?",
      "EUru": "Как поживаешь, (nickname)?\nЧто привело тебя ко мне?",
      "JPja": "オーッス、(nickname)！\n来てくれたのかい！　",
      "KRko": "여～ (nickname)!\n왔냐? ?",
      "TWzh": "嘿！(nickname)！\n你來找我啦？。",
      "USen": "How goes it, (nickname)?\nWhat brings you to my place?",
      "USes": "¡Qué ondaza, (nickname)!\n¿Qué te trae por mi territorio?",
      "USfr": "Tiens, (surnom)! Quel bon vent t'amène, ?"
    }
  },
  {
    "label": "027",
    "attribute": "0x00000C0100050008",
    "locale": {
      "CNzh": "哟！(nickname)！\n在这儿好好休息下吧！。",
      "EUde": "Yo, (Spitzname).\nDu bleibst doch 'ne Weile, ne?",
      "EUen": "Yo, (nickname). You gonna\nstay a while, (catchphrase)?",
      "EUes": "¡Pero si es mi coleguilla preferido, (nickname)!\nTe veo yo con cara de querer partir\nla pana... ¡Pues has venido al sitio\nindicado, tronco!",
      "EUfr": "Salut, (surnom). T'as prévu d'rester un poil, (expression) ?",
      "EUit": "Ehi, (nickname)! Quanto pensavi di fermarti? Mi sono appena svegliata per andare a una festa...",
      "EUnl": "Yo, (nickname). Blijf je even gezellig, (catchphrase)?",
      "EUru": "Йоу, (nickname).\nТы надолго? (catchphrase)!",
      "JPja": "よっ、(nickname)！\nゆっくりしてっておくれ！　",
      "KRko": "안녕, (nickname)!\n느긋하게 쉬다 가라! !",
      "TWzh": "唷，(nickname)！\n你就放輕鬆，儘管待著吧！。",
      "USen": "Yo, (nickname). You gonna\nstay a while, (catchphrase)?",
      "USes": "¡(nickname)! ¿Viniste a quemar el tiempo un rato? ¡Pues estás en el lugar indicado!",
      "USfr": "Salut, (surnom). T'as prévu d'rester un peu, (expression)?"
    }
  },
  {
    "label": "028",
    "attribute": "0x00000C0100060008",
    "locale": {
      "CNzh": "(nickname)，\n你在熬夜吗？\n我也是呢。。",
      "EUde": "Reichlich spät, was? Na ja, für\nNachteulen wie uns geht's jetzt\nerst richtig los, (Floskel).",
      "EUen": "Late night, ain't it? Or maybe not\nfor you and me, (catchphrase).",
      "EUes": "¿Tú también haces vida nocturna?\n¡No esperaba menos, coleguilla!\nSomos pocos, ¡pero valientes!",
      "EUfr": "Il s'fait tard, pas vrai ? Mais pas\nassez tard pour deux fêtards,\ncomme nous, .",
      "EUit": "In teoria è già tardi... Ma per due come noi la notte è ancora giovane, !",
      "EUnl": "Een latertje vanavond, hè? Nou ja, voor ons misschien niet, (catchphrase).",
      "EUru": "Поздновато уже. Но только не для\nнас с тобой. .",
      "JPja": "(nickname)、\nアンタも　夜更かしかい？\nお仲間だね、",
      "KRko": "(nickname)!\n너도 밤새우려고?\n동지네～ !",
      "TWzh": "(nickname)，\n你也在熬夜嗎？\n看來我們是同伴呢，。",
      "USen": "Late night, ain't it? Or maybe not\nfor you and me, (catchphrase).",
      "USes": "¡(nickname)! No sabía que\neras nocturno como yo. ¡Excelente!\nSomos pocos, ¡pero valientes!",
      "USfr": "Y s'fait tard, pas vrai? Mais pas\nassez tard pour deux fêtards,\ncomme nous, ."
    }
  },
  {
    "label": "029",
    "attribute": "0x00000C0500000008",
    "locale": {
      "CNzh": "哟！(nickname)！\n很高兴你能来！。",
      "EUde": "Gib mir fünfe, (Spitzname)!\nSchauste auch mal bei mir vorbei,\n(Floskel).",
      "EUen": "'Sup, (nickname)? Glad you\nswung by, (catchphrase).",
      "EUes": "No me lo digas, (nickname)...\nEstaba un día tan flipante que se te\nocurrió venir a saludar a la persona\nmás atómica que conoces, ¿eh?",
      "EUfr": "Ça roulotte, (surnom) ?\nC'est sympa de m'rendre visite,\n(expression).",
      "EUit": "Come va, (nickname)? Qual buon vento ti porta da me?",
      "EUnl": "Hoestie, (nickname)? Wat leuk dat je er bent, (catchphrase).",
      "EUru": "Как дела, (nickname)?\nХорошо, что решил ко мне\nзаглянуть. (catchphrase)!",
      "JPja": "よっ、(nickname)！\n会いに来てくれて　うれしいよ！　",
      "KRko": "안녕! (nickname)!\n만나러 와줘서 기쁘다! !",
      "TWzh": "唷，(nickname)！\n真高興你來見我！。",
      "USen": "'Sup, (nickname)? Glad you\nswung by, (catchphrase).",
      "USes": "Déjame adivinar... como el día está\ntan chévere, se te ocurrió pasar a tu\ncompi más atómica.",
      "USfr": "Ça roulotte, (surnom)?\nC'est sympa de m'rendre visite,\n(expression)."
    }
  },
  {
    "label": "030",
    "attribute": "0x00000C0700000008",
    "locale": {
      "CNzh": "外面在下雨啊。\n那你就在我家休息一会儿吧，\n(nickname)！。",
      "EUde": "Ganz schön eklig draußen, was?\nSolche Tage sitzt man am besten mit\nguten Freunden aus, (Floskel).",
      "EUen": "Quite a mess out there, huh?\nWell, that's what the indoors\nare for, (catchphrase)!",
      "EUes": "Buf, llueve que da gusto...\n¡Habrá que liarla a cubierto\nentonces, !",
      "EUfr": "C'est pas jojo dehors, j'sais bien...\nMais c'est pour ça qu'les bicoques\nexistent, .",
      "EUit": "Che tempaccio là fuori... Meno male per te che c'è casa mia, eh?",
      "EUnl": "Wat een smerig weer, hè? Ach ja, daarom zitten we binnen, (catchphrase).",
      "EUru": "Ничего себе погодка!\nНу, для этого-то и нужны дома.\n.",
      "JPja": "外は　雨みたいだね\nウチで　ゆっくりしていきなよ、\n(nickname)！　",
      "KRko": "밖엔 비가 오나 봐?\n(nickname)! 우리 집에서\n편하게 쉬다가 가라～ !",
      "TWzh": "外面好像下雨了呢。\n(nickname)，\n你就儘管待在我家吧！。",
      "USen": "Quite a mess out there, huh?\nWell, that's what the indoors\nare for, (catchphrase)!",
      "USes": "¡Ufff! Se ve que el cielo trae\nun pachangón tremendo...\n¡Aquí te puedes resguardar!",
      "USfr": "C'est pas jojo dehors, j'sais bien...\nMais c'est pour ça qu'les maisons\nexistent, ."
    }
  },
  {
    "label": "031",
    "attribute": "0x00000C0900000008",
    "locale": {
      "CNzh": "你来啦，(nickname)！\n今天就算待在家里也好冷啊。\n完全不想出门了。。",
      "EUde": "Selbst hier drinnen friert man sich\nheute seinen Allerwertesten ab...\nMich bringen keine zehn Pferde raus.",
      "EUen": "Hey, good of you to stop by. It's even\ncold indoors...ain't no way I'm\ngoin' outside, (catchphrase)!",
      "EUes": "¿Cómo se te ocurre andar por\nahí a lo loco con el tiempo que\nhace, (nickname)?\nQuédate aquí un ratejo hasta que\nentres en calor, anda. Si damos\npalmas, ¡lo conseguiremos antes!",
      "EUfr": "Hé, c'est sympa d'passer. Moi, je\ngèle déjà à l'intérieur... alors pas\nquestion d'mettre le nez dehors !",
      "EUit": "Ciao, cubetto di ghiaccio! Visto come\nsi gela là fuori? Non so tu, ma io non\nesco neanche pagata, .",
      "EUnl": "Top dat je langskomt. Als het binnen\nal koud is... ga ik écht niet naar\nbuiten, (catchphrase)!",
      "EUru": "Привет, хорошо, что зашел. Даже\nв доме холодно... А на улицу меня\nи силой не вытащить. (catchphrase)!",
      "JPja": "いらっしゃい、(nickname)！\n今日は　家ん中にいても冷えるねぇ\n外に出るの　ヤんなるな、",
      "KRko": "어서 와, (nickname)!\n오늘은 집 안에 있어도 춥구나～\n밖에 나가기 싫어지네! !",
      "TWzh": "(nickname)，歡迎！\n今天就算待在家裡，也覺得好冷喔。\n真不想出門啊，。",
      "USen": "Hey, good of you to stop by. It's even\ncold indoors...ain't no way I'm\ngoin' outside, (catchphrase)!",
      "USes": "¡Qué locura que andes por ahí con\neste friazo, (nickname)!\n¡No pienso asomar ni una pestaña!",
      "USfr": "Hé, c'est sympa d'passer. Moi, je\ngèle déjà à l'intérieur... alors pas\nquestion d'mettre le nez dehors!"
    }
  },
  {
    "label": "033",
    "attribute": "0x00000C0100000009",
    "locale": {
      "CNzh": "好好放松一下吧，\n(nickname)！。",
      "EUde": "Ja, gediegen.\nMi casa es tu casa, Gänseblümchen!",
      "EUen": "Cool of you to drop in.\nTake a load off!",
      "EUes": "¡Qué flipe tenerte por aquí!\n¡Tú como en casa! Pasa y descálzate\nsi quieres. Bueno, solo si te has\nduchado hoy, majo.",
      "EUfr": "C'est sympa d'faire coucou !\nPose-toi et suis la règle des trois R :\nRelax, Re-relax, et Re-re-relax !",
      "EUit": "Hai fatto bene a passare.\nDai, accomodati pure.",
      "EUnl": "Cool dat je op bezoek komt. Ga lekker zitten en relax!",
      "EUru": "Классно, что заглянул.\nРасполагайся, отдыхай!",
      "JPja": "ゆっくりしてっておくれ、\n(nickname)！　",
      "KRko": "편하게 쉬다 가!\n(nickname)! !",
      "TWzh": "(nickname)，\n你就放輕鬆，儘管待著吧！。",
      "USen": "Cool of you to drop in.\nTake a load off!",
      "USes": "¡Qué chévere tenerte por aquí!\n¡Tú con confianza! Si quieres bailar,\npues baila. Si quieres dormir, pues\nduerme.",
      "USfr": "Merci d'passer faire coucou!\nAssis-toi et suis la règle des trois R :\nRelax, Re-relax, et Re-re-relax!"
    }
  },
  {
    "label": "034",
    "attribute": "0x00000C0100000009",
    "locale": {
      "CNzh": "哟！(nickname)！\n虽然没什么好招待你的，\n但你想待多久都可以哦！。",
      "EUde": "Yo, (Spitzname)!\nIch hab heute nichts weiter vor. Lass\nuns extrem-couchen, (Floskel).",
      "EUen": "Yo, (nickname)!\nStay as long as you like.",
      "EUes": "¡Anda, (nickname)!\nTienes cara de preguntarte: «¿Es\naquí donde se cometen locuras?»\nA lo que yo te respondo... ¡¿Dónde\niba a ser si no?! Ji, ji, ji.",
      "EUfr": "Salut, (surnom) !\nJ'étais en train d'rien faire, alors\ntu risques pas de m'déranger !",
      "EUit": "Ehi, (nickname)!\nNon ho niente da fare, puoi anche\nrestare qui per un po', .",
      "EUnl": "Yo, (nickname)! Ik heb niks gepland, dus blijf zo lang als je wilt.",
      "EUru": "Йоу, (nickname)!\nПланов у меня никаких, так что\nсиди сколько хочешь.",
      "JPja": "よっ、(nickname)！\nなんもない家だけど、\n好きなだけ　いるといいよ！　",
      "KRko": "안녕! (nickname)!\n별거 없지만 마음껏 쉬다 가, !",
      "TWzh": "唷，(nickname)！\n我家雖然沒什麼東西，\n但你愛待多久都行喔！。",
      "USen": "Yo, (nickname)!\nStay as long as you like.",
      "USes": "¡Qué onda, (nickname)!\nNo tengo ni una novedad... ¡Así que\nse aceptan sugerencias relajientas!",
      "USfr": "Salut, (surnom)!\nJ'étais en train d'rien faire, alors\ntu risques pas de m'déranger!"
    }
  },
  {
    "label": "035",
    "attribute": "0x00000C0100000009",
    "locale": {
      "CNzh": "欢迎，(nickname)！\n嘿嘿……很高兴你能来！。",
      "EUde": "Servus, (Spitzname).\nLässte dich hier auch mal blicken?\nOrdentlich, (Floskel)!",
      "EUen": "Cool seein' you, (nickname).\nGlad you're here.",
      "EUes": "¡Bienvenido, (nickname)!\nEsto es muy loco, pero sabía que\neras tú antes de abrir la puerta.\n¡Creo que he detectado tu energía\n«fiestacional» a distancia!",
      "EUfr": "Ravie d'te voir, (surnom) !\nTu viens prom'ner ton regard chez\nmoi ? Te dégourdir les mirettes,\n(expression) ?",
      "EUit": "Bello vederti, (nickname).\nSei qui per ammazzare un po'\nil tempo con la sottoscritta?",
      "EUnl": "Tof je te zien, (nickname). Kom je de tijd doden?",
      "EUru": "Привет, (nickname).\nВремя хочешь убить?",
      "JPja": "いらっしゃい、(nickname)！\nへへ・・・来てくれて　うれしいよ！　",
      "KRko": "어서 와라, (nickname)!\n헤헤... 와줘서 기쁘네! !",
      "TWzh": "(nickname)，歡迎啊！\n嘿嘿……真高興看到你來！。",
      "USen": "Cool seein' you, (nickname).\nGlad you're here.",
      "USes": "¡Pasa, pasa, (nickname)!\nSi vienes a quemar el tiempo, ¡estás\nen el lugar correcto!",
      "USfr": "Ravie d'te voir, (surnom)!\nTu viens prom'ner ton regard chez\nmoi? Te dégourdir les mirettes,\n(expression)?"
    }
  },
  {
    "label": "036",
    "attribute": "0x00000C0100070009",
    "locale": {
      "CNzh": "早啊，(nickname)！\n难道……\n你是来叫我起床的吗？。",
      "EUde": "Moin, (Spitzname)!\nWie kann ich dir helfen? Haste was\nausgefressen, (Floskel)?",
      "EUen": "Mornin', (catchphrase)!\nWhaddaya need?",
      "EUes": "Hola, (nickname)...\n¡¿Cómo vienes a verme antes de que\nme haya echado la siesta matutina?!",
      "EUfr": "Salut, (surnom) !\nSi tu t'pointes dans ma turne...\nc'est qu't'as un truc à m'dire ?",
      "EUit": "'Giorno, (nickname)!\nSe sei venuto fin qui... forse\nmi cercavi per un motivo?",
      "EUnl": "Moggûh, (nickname)! Waar kan ik je zo vroeg mee helpen, (catchphrase)?",
      "EUru": "(catchphrase)! Доброе утро!\nРаз ты тут... значит, тебе от\nменя что-то нужно?",
      "JPja": "おはよ、(nickname)！\nもしかして　アンタ・・・\nウチを　起こしに来てくれたのかい？　",
      "KRko": "좋은 아침이야, (nickname)!\n설마 너...\n날 깨우러 와준 거냐? ?",
      "TWzh": "(nickname)，早安！\n難不成……\n你是來叫我起床的嗎？。",
      "USen": "Mornin', (catchphrase)!\nWhaddaya need?",
      "USes": "Eyyy, (nickname)...\n¡¿Eres tú o es tu holograma?!\nSupongo que sigo dormida...",
      "USfr": "Salut, (surnom)!\nSi tu t'pointes chez moi...\nc'est qu't'as un truc à m'dire, non?"
    }
  },
  {
    "label": "037",
    "attribute": "0x00000C0100080009",
    "locale": {
      "CNzh": "你来啦！\n我是非常欢迎你的哦，\n(nickname)！。",
      "EUde": "He, Gänseblume.\nWeißt ja, dass du hier jederzeit\nvorbeischneien kannst!",
      "EUen": "Good to see you, (catchphrase)!\nYou're welcome anytime!",
      "EUes": "¡Tú por aquí, (nickname)!\n¡Alto ahí! ¿Cuál es la contraseña?\nEs broma, ¡que aquí no hay de eso!\nTener ganas de juerga es el único\nrequisito para poder entrar...\n¡y tú vas sobrado!",
      "EUfr": "Ravie d'te voir, (surnom) !\nT'es toujours le bienvenu dans mon\nhumble cambuse, (expression) !",
      "EUit": "Ehi, ciao, (nickname).\nPuoi venire a trovarmi quando vuoi,\ntu non devi chiedere il permesso.",
      "EUnl": "Goed je te zien, (nickname). Je weet toch dat je hier altijd welkom bent, (catchphrase)?",
      "EUru": "Привет! (catchphrase).\nЯ тебе всегда рада, ты же знаешь.",
      "JPja": "よく来たね！\nアンタなら　大歓迎だよ、\n(nickname)！　",
      "KRko": "어서 와라!\n(nickname) 너라면\n언제든 대환영이야! !",
      "TWzh": "你來啦！\n(nickname)，\n我可是非常歡迎你來喔！。",
      "USen": "Good to see you, (catchphrase)!\nYou're welcome anytime!",
      "USes": "¡Qué hay, (nickname)!\nYa sabes que aquí puedes venir\ncuando quieras.",
      "USfr": "Ravie d'te voir, (surnom)!\nT'es toujours le bienvenu dans mon\nhumble cambuse, (expression)!"
    }
  },
  {
    "label": "038",
    "attribute": "0x00000C0100050009",
    "locale": {
      "CNzh": "哟，(nickname)！\n在这儿好好休息一下吧。\n夜晚还很漫长呢！。",
      "EUde": "Yo, (Spitzname)!\nHoffe, du machst nich' gleich\nschlapp. Der Abend is' noch jung!",
      "EUen": "Hey there, (catchphrase)!\nYou sleep well?",
      "EUes": "¡Ese (nickname)!\nEspero que traigas las pilas bien\ncargadas, ¡porque si no a ver cómo\nme sigues el ritmo!",
      "EUfr": "Coucou, (surnom) !\nJ'espère que t'as pas d'coup d'barre,\nparc'que la journée démarre à peine.",
      "EUit": "Oh, ciao, (nickname)!\nHai ancora abbastanza energia?\nPerché la mia giornata comincia ora!",
      "EUnl": "Hallo daar, (nickname)! Heb je nog een beetje energie?",
      "EUru": "Приветик! (catchphrase)!\nКак спалось?",
      "JPja": "よっ、(nickname)！\nゆっくりしていきなよ\n夜はまだまだ　これからだからね！　",
      "KRko": "안녕! (nickname)!\n느긋하게 쉬다 가!\n오늘은 아직 끝나지 않았으니까! !",
      "TWzh": "唷，(nickname)！\n你就放輕鬆，儘管待著吧。\n晚上還多得是時間呢！。",
      "USen": "Hey there, (catchphrase)!\nYou sleep well?",
      "USes": "¡Ese (nickname)!\n¡Espero que traigas el ánimo hasta\nel tope, igual que yo!",
      "USfr": "Coucou, (surnom)!\nJ'espère que t'as pas d'coup d'barre,\nparc'que la journée démarre à peine."
    }
  },
  {
    "label": "039",
    "attribute": "0x00000C0100060009",
    "locale": {
      "CNzh": "怎么了，(nickname)？\n是因为睡不着，\n所以来找我了吗？。",
      "EUde": "Was issen los, (Spitzname)?\nLass mich raten: Du kannst nich'\npennen, also biste hergestapft?",
      "EUen": "What's up, (nickname)?\nLemme guess...couldn't sleep,\nso you came to see me?",
      "EUes": "¿Tan tarde y aún dándolo\ntodo, (nickname)?\n¡Así me gusta, colega! ¡Que se note\nque somos del equipo «Trasnoche\na troche y moche»!",
      "EUfr": "Ça gazouille, (surnom) ?\nLaisse-moi d'viner : t'arrives pas à\npioncer, alors tu passes me voir ?",
      "EUit": "Come va, (nickname)?\nCosa succede, non riuscivi a dormire\ne hai deciso di venire a trovarmi?",
      "EUnl": "Gaat het goed, (nickname)? Laat me raden: je kon niet slapen, dus kom je bij mij op bezoek?",
      "EUru": "Как дела, (nickname)?\nДай отгадаю: тебе не спится, и ты\nрешил заглянуть ко мне?",
      "JPja": "どうしたのさ　(nickname)？\n眠れなくて、\nウチに　会いに来ちまった？　",
      "KRko": "무슨 일이야? (nickname)?\n설마 잠이 안 와서\n날 만나러 온 거냐? ?",
      "TWzh": "(nickname)，你怎麼啦？\n因為睡不著，\n所以就跑來找我是嗎？。",
      "USen": "What's up, (nickname)?\nLemme guess...couldn't sleep,\nso you came to see me?",
      "USes": "¿Qué ondaza, (nickname)?\nSeguro pensaste que soy la única\ndespierta a estas horas... ¡acertaste!",
      "USfr": "Ça gazouille, (surnom)?\nLaisse-moi d'viner : t'arrives pas à\npioncer, alors tu passes me voir?"
    }
  },
  {
    "label": "040",
    "attribute": "0x00000C0500000009",
    "locale": {
      "CNzh": "欢迎，(nickname)！\n我早就有预感，\n你今天会来的。。",
      "EUde": "Hi, (Spitzname)!\nKannst dir jederzeit bei mir 'ne kleine\nAuszeit gönnen, (Floskel).\nIch erzähl niemandem, dass du bei\nmir untergetaucht bist. Ehrenwort.",
      "EUen": "Good to see you, (catchphrase)!\nThought you'd come by.",
      "EUes": "¡Tú por aquí, (nickname)!\n¿Has sentido telepáticamente\nmi llamada a la juerga?",
      "EUfr": "Salut, (surnom) !\nJ'étais sûre que tu viendrais,\nmon pif était formel, (expression) !",
      "EUit": "Eccoti qua, (nickname)!\nSai, per tutto il giorno ho avuto il\npresentimento che saresti passato.",
      "EUnl": "Goed je te zien, (nickname)! Ik had al zo'n vermoeden dat je zou langskomen, (catchphrase).",
      "EUru": "Привет! (catchphrase)!\nЯ так и знала, что мы сегодня\nувидимся.",
      "JPja": "いらっしゃい、(nickname)！\n今日はなんだか　アンタが来るような\n気がしてたんだ！　",
      "KRko": "어서 와, (nickname)!\n오늘은 왠지 네가 올 것 같더라! !",
      "TWzh": "(nickname)，歡迎你來！\n今天我就是有種莫名的預感，\n覺得你好像會來呢！。",
      "USen": "Good to see you, (catchphrase)!\nThought you'd come by.",
      "USes": "¡Qué onda, (nickname)!\n¿Recibiste mi llamado fiestil\ntelepático?",
      "USfr": "Salut, (surnom)!\nJ'étais sûre que tu viendrais.\nQue veux-tu, j'ai du nez, (expression)!"
    }
  },
  {
    "label": "041",
    "attribute": "0x00000C0700000009",
    "locale": {
      "CNzh": "(nickname)！\n外面在下雨你还来啦！\n那就在这儿好好休息休息吧！。",
      "EUde": "Boah, (Spitzname)!\nHaste dich durchs Unwetter gequält,\nnur um mich zu besuchen? Rührend!",
      "EUen": "Whoa! (nickname)!\nYou braved the rain to\nsee me, (catchphrase)?",
      "EUes": "¡Vaya, vaya, (nickname)!\nCon la que está cayendo... Sí que\ndebes de tener unas ganas\ntremendas de verme, ¿eh?",
      "EUfr": "Ouah ! (surnom) !\nT'es sorti sous c'déluge juste pour\nvoir ma pomme ? (expression) !",
      "EUit": "Oh... (nickname)!\nHai affrontato la pioggia solo per\nvedermi? Beh, eccomi, !",
      "EUnl": "Zó! (nickname)! Je hebt de regen getrotseerd om bij mij langs te komen, (catchphrase)?",
      "EUru": "Ух ты! (nickname)!\nТебе и дождь нипочем, так по мне\nсоскучился? Я тронута!",
      "JPja": "(nickname)！\n雨が降ってんのに　来てくれたのかい！\nゆっくりしてっておくれ！　",
      "KRko": "(nickname)!\n비도 오는데 웬일이냐!\n편히 쉬다 가, !",
      "TWzh": "(nickname)！\n外頭明明下雨，你還願意來找我啊！\n那就放輕鬆，儘管待著吧！。",
      "USen": "Whoa! (nickname)!\nYou braved the rain to\nsee me, (catchphrase)?",
      "USes": "¡Goaooo, (nickname)!\n¡¿Luchaste contra las inclemencias\ndel clima solo para venir a verme?!",
      "USfr": "Waouh! (surnom)!\nT'es sorti sous c'déluge juste pour\nvoir ma face? (expression)!"
    }
  },
  {
    "label": "042",
    "attribute": "0x00000C0900000009",
    "locale": {
      "CNzh": "哟！(nickname)！\n这么冷的天你竟然还愿意来！\n在我家取取暖吧！。",
      "EUde": "Yo, (Spitzname)!\nHoffentlich is' dir auf dem Weg\nher nich' die Nase abgefroren...\nKomm, ich mach uns 'ne heiße Tasse\n. Dann können wir\nein bisschen schnacken.",
      "EUen": "Yo, (nickname)! It's cold out.\nWarm yourself up, (catchphrase)!",
      "EUes": "¡A las buenas, (nickname)!\nQué rasca hace ahí fuera, ¿eh?\nPega unos saltos y entra en calor.",
      "EUfr": "Salut, (surnom) !\nFait frisquet... Va pas prendre froid,\nsurtout, (expression) !",
      "EUit": "Ehi, (nickname)!\nCerca di scaldarti un po'. Se continui\na battere i denti così, non ti capisco!",
      "EUnl": "Yo, (nickname)! Warm je maar lekker op, (catchphrase)!",
      "EUru": "Йоу, (nickname)!\nНе замерз по дороге?\n(catchphrase)! Заходи, погрейся!",
      "JPja": "よっ、(nickname)！\nこの寒い中　よく来てくれたね！\nあったまっていきなよ！　",
      "KRko": "안녕! (nickname)!\n이렇게 추운 날에 웬일이냐!\n몸 좀 덥히고 가! !",
      "TWzh": "唷，(nickname)！\n這麼冷的天氣，真虧你願意來找我啊！\n儘管在這裡取暖吧！。",
      "USen": "Yo, (nickname)! It's cold out.\nWarm yourself up, (catchphrase)!",
      "USes": "¡Ey, (nickname)! ¡Qué frío hace! Si das un par de brincos, ¡seguro que entras en calor!",
      "USfr": "Salut, (surnom)!\nFait frisquet... Va pas prendre froid,\nsurtout, (expression)!"
    }
  }
]