﻿[
  {
    "label": "001",
    "attribute": "0x00000C0100000000",
    "locale": {
      "CNzh": "嗯？\n还有什么要说的吗？。",
      "EUde": "Du schon wieder? Biste vorhin\netwa irgendwas nich' losgeworden,\n(Floskel)?",
      "EUen": "You again, (catchphrase)? Didja\nforget something last time?",
      "EUes": "¿Querías decirme algo más?\n¡Tú dale; sin miedo! No te quedes\ncon las ganas, tronco.",
      "EUfr": "C'est d'nouveau toi ? T'as oublié\nd'me dire un truc,  ?",
      "EUit": "Di nuovo tu? L'ultima volta hai\ndimenticato di dirmi qualcosa?",
      "EUnl": "Jij weer, (catchphrase)? Was je nog iets vergeten te zeggen?",
      "EUru": "Опять ты? (catchphrase)! Забыл\nчто-то сказать в прошлый раз?",
      "JPja": "うん？\n言い忘れたことでも　あんのかい？　",
      "KRko": "응?\n더 할 말 있냐? ?",
      "TWzh": "嗯？\n難道你有什麼事忘了跟我說嗎？。",
      "USen": "You again, (catchphrase)? Didja\nforget something last time?",
      "USes": "¡Oh! ¡Otra vez tú!\n¿Querías decirme algo?",
      "USfr": "C'est d'nouveau toi? T'as oublié\nd'me dire un truc, ?"
    }
  },
  {
    "label": "002",
    "attribute": "0x00000C0100000000",
    "locale": {
      "CNzh": "还想继续和我聊天吗？。",
      "EUde": "Haste heute Quasselwasser\ngetrunken, (Floskel)?",
      "EUen": "Still got more to say, (catchphrase)?",
      "EUes": "A ver... ¿querías algo más? Venga,\n¡desembuchando, que es gerundio!",
      "EUfr": "T'avais autre chose à m'dire,\n ?",
      "EUit": "Volevi ancora parlare con me, ?",
      "EUnl": "Ben je nog steeds niet uitgepraat,\n(catchphrase)?",
      "EUru": "Еще не выговорился?\n!",
      "JPja": "ウチと　まだしゃべりたいってか？　",
      "KRko": "나랑 더 얘기하고 싶은 거냐? ?",
      "TWzh": "你還想跟我聊天是嗎？。",
      "USen": "Still got more to say, (catchphrase)?",
      "USes": "¿Querías algo más?\n¡Desembucha!",
      "USfr": "T'avais autre chose à m'dire,\n?"
    }
  },
  {
    "label": "003",
    "attribute": "0x00000C0100000000",
    "locale": {
      "CNzh": "诶？还没聊够吗？。",
      "EUde": "Tut dir vor lauter Labern nich' schon\nder Kiefer weh? Zumindest haste\nimmer was Cooles zu sagen.",
      "EUen": "Whoa, (catchphrase)! Someone's\nfeelin' chatty.",
      "EUes": "¡Pero bueno! Hoy estás\nmotivadísimo, chato.",
      "EUfr": "Oh... On est d'humeur bavarde,\nà c'que j'vois, .",
      "EUit": "Beh, a quanto pare non sei ancora\nstanco di parlare con la sottoscritta.",
      "EUnl": "Tjonge, (catchphrase). Je kletst me de oren van mijn hoofd!",
      "EUru": "Ого! (catchphrase)! Кому-то хочется\nпоболтать?",
      "JPja": "おや、しゃべり足りなかった？　",
      "KRko": "어라? 아직도 할 말이 더 있냐, ?",
      "TWzh": "哦，跟我聊得不夠嗎？。",
      "USen": "Whoa, (catchphrase)! Someone's\nfeelin' chatty.",
      "USes": "¡Guauuu! ¡Se ve que hoy estás\ncon todo!",
      "USfr": "Oh... On est d'humeur bavarde,\nà c'que j'vois, ."
    }
  },
  {
    "label": "004",
    "attribute": "0x00000C0100000000",
    "locale": {
      "CNzh": "有什么让你在意的事吗？。",
      "EUde": "Hör auf, um den heißen Brei herum-\nzureden. Welche Laus is' dir über die\nLeber gelaufen, (Floskel)?",
      "EUen": "What's buggin' you, (catchphrase)?",
      "EUes": "Te has quedado con ganas\nde más, ¿eh?",
      "EUfr": "Y a quelque chose qui te turlupine,\n ?",
      "EUit": "Qualcosa ti assilla ancora, ?",
      "EUnl": "Zit je iets dwars?",
      "EUru": "Тебя что-то беспокоит?\n(catchphrase)!",
      "JPja": "なんか気になってんのかい？　",
      "KRko": "뭐 신경 쓰이는 거라도 있냐? ?",
      "TWzh": "你是不是有什麼在意的事啊？。",
      "USen": "What's buggin' you, (catchphrase)?",
      "USes": "¿Necesitas algo, ?",
      "USfr": "Y'a quelque chose qui te turlupine,\n?"
    }
  },
  {
    "label": "005",
    "attribute": "0x00000C0100000000",
    "locale": {
      "CNzh": "嗯？有事吗？。",
      "EUde": "Spuck's aus, Gänseblümchen.\nMit mir kann man doch über alles\nreden, (Floskel).",
      "EUen": "Yeah? What's up, (catchphrase)?",
      "EUes": "¿Querías alguna movida?",
      "EUfr": "Ouais,  ?\nQu'est-ce qu'il y a ?",
      "EUit": "Sì? Che desideri, ?",
      "EUnl": "Ja? Zeg het eens, (catchphrase)?",
      "EUru": "Да? Слушаю. (catchphrase)!",
      "JPja": "ん、なんだい？　",
      "KRko": "응? 왜, ?",
      "TWzh": "嗯？怎麼啦？。",
      "USen": "Yeah? What's up, (catchphrase)?",
      "USes": "¿Qué pasa, calabaza?",
      "USfr": "Ouais, ?\nQu'est-ce qu'il y a?"
    }
  }
]