﻿[
  {
    "label": "001",
    "attribute": "0x0000000000000000",
    "locale": {
      "CNzh": "对了对了！有件事要和你说一声！\n我终于结束我的“帐篷生活”啦！\n虽然住帐篷也很好，\n但是房屋可以放置更多东西，\n更有生活的感觉！。",
      "EUde": "Oh, hey! Wichtige Neuigkeiten! Das\nZeltleben is' für mich Geschichte.\nIch hab jetzt 'n Haus, (Floskel)!\nIch mein, Zelte sind schon cool und\nso, aber ich kann in 'nem Haus mehr\nZeugs unterbringen.\nAußerdem hab ich endlich das\nGefühl, wirklich hier zu wohnen,\nanstatt nur zu hausen.",
      "EUen": "Oh, hey! Big news! I have officially\nmoved on from tent life. I got a\nhouse, (catchphrase)!\nI mean, tents are cool and all, but\nI can fit way more stuff in a house.\nPlus now it finally feels like I actually\nlive here, instead of just roughing it.",
      "EUes": "¿Te lo he dicho ya o no? Yo creo\nque no... En fin, que le he dicho\nadiós a mi tienda.\nMola el rollo de estar de acampada,\n¡pero está claro que no es para\ntoda la vida!\n, ¡aquí estoy para quedarme, !",
      "EUfr": "Grande nouvelle ! J'ai mis la tente au\nplacard et j'ai chopé une turne digne\nde c'nom. Ciao, l'réchaud !\nEnfin, j'ai rien contre les tentes, mais\ndans une baraque, y a quand même\nplus de place pour mon fourbi.\nPis on s'sent un peu plus chez soi.\nJ'avais vaguement l'impression\nd'camper jusqu'ici, (expression).",
      "EUit": "Ci sono grosse novità, sai? Non vivo\npiù in una tenda, finalmente. Ho una\ncasa, !\nNon mi dispiacciono le tende, ma\nin una casa ci sta più roba.\nE poi così mi sembra davvero di\nvivere su quest'isola, invece di\nessere solo di passaggio.",
      "EUnl": "Yo! Groot nieuws! Die tent van me is\nverleden tijd. Ik heb nu een huis,\n(catchphrase)!\nIk bedoel, tenten zijn cool en zo,\nmaar ik kan veel meer zooi kwijt in\neen huis.\nOok voelt het nu pas alsof ik hier\nécht woon, in plaats van dat ik maar\neen beetje aan het kamperen ben.",
      "EUru": "Слушай, у меня новости!\nС жизнью в палатке покончено!\nУ меня теперь дом! (catchphrase)!\nВ палатке тоже было неплохо, но\nв дом больше вещей влезет.\nНу и вообще, уютно... Чувствуется,\nчто я теперь здесь живу, а не\nпросто временно перебиваюсь.",
      "JPja": "そうそう、アンタには　言っとかないと！\nウチ、ついにテント生活を　卒業したんだ！\nテントも　悪くなかったけど、\nやっぱ　家のほうが　物もたくさん置けるし\n住んでるなーって　実感があるね！　",
      "KRko": "맞다, 너한테는 얘기해야지!\n나 드디어 텐트 생활을 청산했어!\n텐트도 나쁘진 않았지만\n제대로 된 집이 생기니까 물건도 두고\n정말 여기 산다는 느낌이 들어! !",
      "TWzh": "對了對了，這件事一定得跟你說！\n我終於脫離帳篷生活啦！\n雖然帳篷也不錯，\n但還是住宅能放進比較多東西，\n更有安居的感覺！。",
      "USen": "Oh, hey! Big news! I have officially\nmoved on from tent life. I got a\nhouse, (catchphrase)!\nI mean, tents are cool and all, but\nI can fit way more stuff in a house.\nPlus now it finally feels like I actually\nlive here, instead of just roughing it.",
      "USes": "¿Te dije o no te dije? Yo creo que no\nte dije... Total, pasa que le dije adiós\na mi tienda de campaña.\nEs emocionante estar acampando\ny toda la cosa, ¡pero no es algo que\nse pueda hacer toda la vida!\nY menos para alguien como yo que\ntiende a acumular cosas...\n, ¡aquí estoy para quedarme, (catchphrase)!",
      "USfr": "Grande nouvelle! J'ai mis la tente au\nplacard et j'ai une maison digne\nde c'nom. Ciao, l'réchaud!\nEnfin, j'ai rien contre les tentes, mais\ndans une maison, y'a quand même\nplus de place pour mes affaires.\nPis on s'sent un peu plus chez soi.\nJ'avais vaguement l'impression\nd'camper jusqu'ici, (expression)."
    }
  },
  {
    "label": "002",
    "attribute": "0x0000000000000000",
    "locale": {
      "CNzh": "你委托狸克\n为你建了房屋吧！\n恭喜你终于有了自己的房子！\n你的房间是什么样的呀？\n下次我去找你玩的时候，\n让我进去看看吧！。",
      "EUde": "Hey, (Spitzname)! Glückwunsch zum Haus! Für dich hat Tom Nook sich selbst übertroffen!\nAlso? Wie sieht es drinnen aus?\nDu solltest mich echt bald mal\neinladen, (Floskel)!",
      "EUen": "Hey, (nickname)! Congrats on the house! Looks like Tom Nook\nreally came through for you!\nSo what's it like inside? You'd better\ninvite me over soon, (catchphrase)!",
      "EUes": "¡Me he enterado de lo tuyo, colega!\nYa sabes, que Tom Nook te ha\nayudado a construir un caserón.\n¿Ya has hecho una fiesta de\ninauguración en condiciones?\nSi no, ¡tienes ante ti a la mayor\nexperta mundial en el tema,\n!",
      "EUfr": "Hé, (surnom) ! Bravo pour ta turne ! Tom Nook a pas fait les choses à moitié, on dirait !\nEt alors, ça donne quoi à l'intérieur ?\nEt tu m'invites quand, (expression) ?",
      "EUit": "Ehi, (nickname)! Ho sentito che hai una casa! Sembra che Tom Nook si sia dato da fare!\nAllora, com'è dentro? Verrò a\nvederla, uno di questi giorni,\n(catchphrase)!",
      "EUnl": "Hé, (nickname)! Gefeliciteerd met je huis! Tom Nook heeft zichzelf echt overtroffen!\nHoe ziet het er vanbinnen uit? En\nwanneer mag ik langskomen, (catchphrase)?",
      "EUru": "Привет, (nickname)!\nПоздравляю с новосельем! Похоже,\nТом Нук не подвел с домом!\nА что внутри? Когда в гости\nпригласишь? (catchphrase)!",
      "JPja": "アンタ、たぬきちさんに　お願いして\n家を建ててもらったんだね！\nマイホーム完成　おめでとう！\nアンタの部屋は　どんなカンジなんだい？\n今度　遊びに行ったときに、\n中を見せておくれ！　",
      "KRko": "너 너굴씨한테 부탁해서\n집 지었다면서?!\n마이 홈을 장만한 걸 축하한다!\n집 안은 어떻게 꾸몄냐?\n다음에 한번 놀러갈 테니까\n구경 좀 시켜줘! !",
      "TWzh": "你委託狸克建造了住宅啊！\n恭喜你擁有自己的家！\n你的房間是什麼樣的設計風格啊？\n下次我去玩的時候，\n記得讓我看看裡面啊！。",
      "USen": "Hey, (nickname)! Congrats on the house! Looks like Tom Nook\nreally came through for you!\nSo what's it like inside? You'd better\ninvite me over soon, (catchphrase)!",
      "USes": "Ya me enteré, ¿eh, pillín?\nConque Tom Nook te ayudó\na construir un casononón.\n¿Ya hiciste una fiesta de\ninauguración?\nSi no, ¡tienes ante ti a la experta\nen pachangones, (catchphrase)!",
      "USfr": "Hé, (surnom)! Bravo pour ta maison! Tom Nook a pas fait les choses à moitié, on dirait!\nEt alors, ça donne quoi à l'intérieur?\nEt tu m'invites quand, (expression)?"
    }
  },
  {
    "label": "003",
    "attribute": "0x0000000000000000",
    "locale": {
      "CNzh": "你家好大啊！真好！\n从全范围来看，都显得特别有存在感！\n能在原来的无人岛上\n建起这么大一座房子，\n你真的太厉害了！。",
      "EUde": "Hey, ich wollt nur sagen:\nGlückwunsch zu dem riesigen Haus!\nHmmm... Ja.\nEs sticht wirklich heraus, aber auf\n'ne nette Weise, (Floskel)!\nWow... Dass das hier mal 'ne\neinsame Insel war... Der absolute\nWahnsinn!",
      "EUen": "Hey, meant to tell you—congrats on\nthe giant house! It really stands out,\nbut in a good way, (catchphrase)!\nWow... To think this used to be\na deserted island. Amazing!",
      "EUes": "¡Pedazo caserón te marcas, chato!\n¿Ya haces visitas guiadas o todavía\nno, ?\nEspero que les des un mapita a\nlas visitas para que no se pierdan,\n¿eh? ¡Ji, ji, ji!",
      "EUfr": "Hé, j'voulais t'dire... bien ouéj pour\nta turne XXL ! On voit qu'elle, et\nc'est un régal pour les yeux !\nQuand j'pense qu'à une époque,\nc'était une île déserte ici...\nC'est dingo, (expression) !",
      "EUit": "Ah, ciao. Ho visto che la tua casa è\ngigantesca. È impossibile non\nnotarla, !\nE pensare che... questa era un'isola\ndeserta. Spero che non si affolli\ntroppo!",
      "EUnl": "Hé, gefeliciteerd met je enorme huis!\nHet valt echt op, maar op een goede\nmanier, (catchphrase)!\nEn dan te bedenken dat dit ooit een\nonbewoond eiland was... Maf, joh!",
      "EUru": "Слушай, хотела поздравить тебя\nс новосельем! Какой огромный дом!\nНи у кого такого нет. (catchphrase)!\nУх ты... Подумать только, ведь\nраньше это был необитаемый\nостров! Круто!",
      "JPja": "アンタん家は　でっかくて　いいなー\nこのでも　ひと際　存在感あるよね！\n元は無人島だった　この場所に\nあんな　たいそうな家を　建てちまうんだから\nまったく　すごいヤツだよ！　",
      "KRko": "너네 집은 커서 좋겠다!\n이 에서도 존재감이 남다른 건물이야!\n무인도였던 곳에다가\n번듯한 집을 턱 하고 세우다니\n진짜 대단한 녀석이다, 너! !",
      "TWzh": "你家好大喔……真好～\n在這座島上特別顯眼呢！\n居然能在這座原本無人的島嶼上\n蓋成那麼誇張的房屋，\n你真的很厲害！。",
      "USen": "Hey, meant to tell you—congrats on\nthe giant house! It really stands out,\nbut in a good way, (catchphrase)!\nWow... To think this used to be\na deserted island. Amazing!",
      "USes": "¡Qué tremenda casona tienes, tú!\n¿Ya haces visitas guiadas o todavía\nno, (catchphrase)?\nDeberías poner unos mapas en la\nentrada para que las visitas no se\npierdan.",
      "USfr": "Hé, j'voulais t'dire... bien joué pour\nta cabane XXL! On voit qu'elle, et\nc'est un régal pour les yeux!\nQuand j'pense qu'à une époque,\nc'était une île déserte ici...\nC'est fou, (expression)!"
    }
  },
  {
    "label": "004",
    "attribute": "0x0000000000000000",
    "locale": {
      "CNzh": "我听说了，(nickname)！\n狸克拜托你去做什么事了吧！\n是要帮助新的居民\n顺利搬来啊。\n这对我来说有点太难了，\n如果是你的话一定没问题的！\n我会默默支持你的，加油！。",
      "EUde": "Hey, (Spitzname)! Ich hab gehört, Tom Nook hat dich gebeten, neue Nachbarn zu finden.\nKlingt nach 'ner großen Sache. Ich\nwürd ja helfen, wenn ich wüsste, wie, aber das weißte ja, (Floskel)!",
      "EUen": "Hey, (nickname)! So I heard\nTom Nook recruited you to find\nus some new neighbors.\nSounds like a pretty big job. I'd help\nout if I knew how, but I know you\ngot this, (catchphrase)!",
      "EUes": "¡Oye! Así que Tom Nook te ha puesto\na reclutar peña para que se venga\na vivir a , ¿eh?\n¡No podía haber elegido a nadie\nmejor para la tarea! Bueno, a mí,\nobviamente.\n¡Pero tú eras el siguiente en la lista,\ncoleguilla! En fin, si necesitas ayuda,\n¡ya sabes, !",
      "EUfr": "Hé, (surnom) ! Paraît qu'Tom Nook t'a r'filé du boulot ? Tu dois dénicher d'nouveaux voisins ?\nÇa a pas l'air d'être de la tarte. J'te\nfilerais bien un coup d'patte, mais\nj'vois pas comment, (expression) !",
      "EUit": "Ehi, (nickname)! Ho sentito dire che Tom Nook ti ha chiesto di trovare nuovi abitanti.\nNon è una cosa semplice. Spero che\ntu scelga bene, (catchphrase)!",
      "EUnl": "Hé, (nickname)! Ik hoorde dat Tom Nook je heeft gevraagd nieuwe buren te vinden.\nKlinkt best belangrijk. Ik zou je wel\nwillen helpen als ik zou weten hoe,\nmaar dat weet je wel, (catchphrase)!",
      "EUru": "Слушай, (nickname)!\nГоворят, Том Нук тебе поручил\nискать новых жителей для острова.\nНепростая задача... Я бы тебе\nпомогла, но, думаю, ты и без меня\nсправишься. (catchphrase)!",
      "JPja": "聞いたよ　(nickname)、\nたぬきちさんから　頼まれごとだって？\n新しい住民に　へ\n来てもらうための　手伝いだってね\nウチには　ちょっと難しそうだけど、\nアンタなら　きっと大丈夫！\n応援してるから　がんばりなよ！　",
      "KRko": "(nickname)! 얘기 들었다!\n너굴씨한테 뭐 부탁받았다면서?\n에 새 주민이\n이사 올 수 있게 돕는다고 들었어\n나라면 못 할 것 같지만\n넌 틀림없이 잘 해낼 거야!\n응원할 테니까 힘내라! !",
      "TWzh": "我聽說囉，(nickname)。\n狸克好像有事情找你幫忙啊？\n聽說是協助把新居民\n找來？\n對我來說可能有點困難，\n不過你一定辦得到！\n我會為你加油的，好好努力嘿！。",
      "USen": "Hey, (nickname)! So I heard\nTom Nook recruited you to find\nus some new neighbors.\nSounds like a pretty big job. I'd help\nout if I knew how, but I know you\ngot this, (catchphrase)!",
      "USes": "Conque Tom Nook te puso a reclutar\ngente para que se venga a vivir a\n, ¿eh?\n¡No podía haber elegido a nadie\nmejor para la tarea! Bueno, a mí,\nobviamente.\n¡Pero tú eras el siguiente en la lista! En fin, si necesitas ayuda, ¡ya sabes,\n(catchphrase)!",
      "USfr": "Hé, (surnom)! Paraît qu'Tom Nook t'a donné du travail? Tu dois trouver d'nouveaux voisins?\nÇa a pas l'air d'être facile. J'te\nfilerais bien un coup d'patte, mais\nj'vois pas comment, (expression)!"
    }
  },
  {
    "label": "006",
    "attribute": "0x0000000000000000",
    "locale": {
      "CNzh": "服务处已经翻修一新啦！\n那里变得比我想象中的还要好许多，\n让我很震惊呢！\n今后\n一定会变得越来越便于居住！。",
      "EUde": "Wie krass ist das denn? Ich hatte ja\nnull Ahnung, dass das Servicecenter\nso spitzenmäßig werden würde.\nAuf  zu leben fängt wirklich an, voll abzugehen, (Floskel)!",
      "EUen": "Wow! I had no idea that the new\nResident Services building was\ngonna be so awesome.\nLiving on  is really\nstarting to rock, (catchphrase)!",
      "EUes": "¡Pedazo edificio se marca ahora\nla oficina de gestión vecinal!\nHasta me entran ganas de venir\na gestionar cosas todo el rato.\n¡Cómo se sale !",
      "EUfr": "Ouah ! J'savais pas qu'le nouveau\nbureau des résidents était aussi\ndingo, (expression) !\nLa vie à , ça\ncommence à valoir son pesant\nd'cahouètes, y a pas à dire !",
      "EUit": "Oh! Il nuovo edificio del centro\nservizi non mi sembra malaccio.\nDopotutto, venire a vivere qui \n non è stata una cattiva idea, (catchphrase)!",
      "EUnl": "Wauw! Ik had niet gedacht dat de\nnieuwe servicebalie zo tof zou\nworden.\n wordt echt een topplek, (catchphrase)!",
      "EUru": "Вот это да! Бюро услуг теперь\nв таком красивом здании!\nПохоже, жизнь на острове\n налаживается!\n(catchphrase)!",
      "JPja": "案内所が　新しくなったけどさ、\n想像してたより　ずーっと立派で\nもう　びっくりしたよ！\nは、これから　きっと\nどんどん　住みやすくなってくね！　",
      "KRko": "안내소가 새로 세워졌잖아\n생각보다 훨씬 으리으리해서\n깜짝 놀랐지 뭐냐!\n틀림없이 은 앞으로\n훨씬 더 살기 좋은 곳이 될 거야! !",
      "TWzh": "服務處翻新之後\n變得比我想像中氣派太多，\n害我嚇了一跳咧！\n從今以後的生活\n一定會越來越舒適吧！。",
      "USen": "Wow! I had no idea that the new\nResident Services building was\ngonna be so awesome.\nLiving on  is really\nstarting to rock, (catchphrase)!",
      "USes": "¡Qué tremendo edificio tiene ahora\nla oficina de gestión vecinal!\nHasta me dan ganas de ir a que me\ngestionen cosas todo el tiempo.\n¡Me encanta !",
      "USfr": "Ouah! J'savais pas qu'le nouveau\nbureau des résidents était aussi\nsuper, (expression)!\nLa vie à , ça\ncommence à valoir son pesant\nd'arachides, y a pas à dire!"
    }
  },
  {
    "label": "007",
    "attribute": "0x0000000000000000",
    "locale": {
      "CNzh": "我很羡慕豆狸和粒狸\n能拥有自己的店铺！\n据说那都多亏上的人给予了帮助，\n所以他们很是感激呢！\n他们说的那人是你吗？。",
      "EUde": "Der Laden von Nepp und Schlepp \nsieht so niedlich aus, (Floskel)!\nIch hörte, wie sie sagten, sie seien\ntotal begeistert, dass jeder was dazu\nbeigetragen habe.\nDu hast auch geholfen, nich' wahr?",
      "EUen": "Timmy and Tommy's shop is looking\nreally sweet, (catchphrase)!\nI heard 'em talking about how thrilled\nthey were that everyone pitched in.\nYou helped out too, right?",
      "EUes": "Ya iba siendo hora de que Tendo\ny Nendo tuviesen su propia tienda,\n.\nAl parecer ha sido todo gracias\na la colaboración de la peña.\nSeguro que tú también has puesto\ntu granito de arena, ¿eh, majo?",
      "EUfr": "Quand j'vois la boutique d'Méli et\nMélo, j'ai envie d'dire « Bravi et\nbravo », (expression) !\nIls sont super jouasses d'avoir reçu\nde l'aide pour les travaux, d'ailleurs.\nAlors bravi et bravo à tous !",
      "EUit": "Il negozio di Mirco e Marco è venuto\nmeglio di quanto pensassi, (catchphrase)!\nErano molto contenti dell'aiuto\nricevuto. Immagino abbia dato\nuna zampa anche tu?",
      "EUnl": "Het winkeltje van Timmy en Tommy\nziet er echt tof uit nu, (catchphrase)!\nZe waren superblij dat iedereen zijn\nsteentje heeft bijgedragen. Goed\nbezig, allemaal!",
      "EUru": "Лавка Тимми и Томми так\nпреобразилась! (catchphrase)!\nЯ слышала, они были очень рады,\nчто им все помогли. Ты же тоже не\nостался в стороне?",
      "JPja": "まめきちくんと　つぶきちくん、\n自分の店が持てて　良かったよね！\nのヒトが　手伝ってくれたおかげだって、\nあの子たちってば　ずいぶん感謝してたよ\nアンタのことかな？　",
      "KRko": "콩돌이랑 밤돌이,\n자기 가게를 갖게 돼서 정말 잘됐어!\n 주민이 도와준 덕분이라면서\n엄청 고맙다고 그러더라\n네 얘기겠지? ?",
      "TWzh": "豆狸跟粒狸終於擁有了自己的店面，\n真是太棒啦！\n他們說這都是多虧了島上居民，\n真的非常感謝居民的鼎力相助。\n這是在說你嗎？。",
      "USen": "Timmy and Tommy's shop is looking\nreally sweet, (catchphrase)!\nI heard 'em talking about how thrilled\nthey were that everyone pitched in.\nYou helped out too, right?",
      "USes": "Ya era hora de que Tendo y Nendo\ntuvieran su tienda como debe ser,\n(catchphrase).\nQué chévere que todos hayan\ncolaborado.\nSeguro que tú también pusiste\ntu granito de arena, ¿eh?",
      "USfr": "Quand j'vois la boutique d'Méli et\nMélo, j'ai envie d'dire « Bravi et\nbravo », (expression)!\nIls sont super contents d'avoir reçu\nde l'aide pour les travaux, d'ailleurs.\nAlors bravi et bravo à tous!"
    }
  },
  {
    "label": "008",
    "attribute": "0x0000000000000000",
    "locale": {
      "CNzh": "你去过扩建后的\nNook商店了吗？\n售卖的商品数量更多了，\n变得越来越方便了！\n要说这里以前是无人岛，\n现在一定没有人会相信吧！。",
      "EUde": "Hast du schon Nooks Laden gesehn?\nDen neuen meine ich.\nDer is' RIESIG!\nSie haben Tonnen von neuen Sachen\nim Angebot, (Floskel).\nVerrückt, dass hier mal echt tote\nHose war. Jetzt geht's nämlich richtig\nab! Also shoppingmäßig, mein ich...",
      "EUen": "You been to the new Nook's Cranny\nyet? It's HUGE! They've got tons of\nnew stuff for sale too, (catchphrase).\nIt's wild that this used to be the\nmiddle of nowhere. It's totally feelin'\nlike the middle of somewhere now!",
      "EUes": "¿Has visto qué tocho es ahora\nMiniNook, majo?\n¡Yo casi me pierdo dentro! Ahora\nvenden tantas movidas que tardo\nel doble en hacer la compra.\nBueno, supongo que en el fondo\nes algo bueno para la isla,\n¿eh, ?",
      "EUfr": "T'es passé à la Boutique Nook\nrécemment ? Elle est maousse !\nLes rayons regorgent d'articles !\nQuand j'pense qu'c'était une île\ndéserte y a pas si longtemps...\nL'île boudée est dev'nue île bondée !",
      "EUit": "Hai visto la Bottega di Nook? È\nabbastanza grande! Ora c'è spazio\nper nuove merci, (catchphrase).\nE pensare che una volta qui non\nc'era proprio niente. Adesso invece\nabbiamo quasi tutte le comodità!",
      "EUnl": "Heb je de nieuwe Nooks hoek al\ngezien? Die is keigroot! En ze\nhebben bendes nieuwe spullen.\nOnvoorstelbaar dat we dit ooit een\nuithoek noemden. Het is inmiddels\neen uitstekende hoek, (catchphrase)!",
      "EUru": "Ты уже был в новой лавке Нука?\nОна теперь огромная! Там такой\nбольшой выбор! (catchphrase)!\nРаньше казалось, что наш остров\nгде-то на краю земли. А теперь\nкажется, что он в самом центре!",
      "JPja": "大きくなった　タヌキ商店には\nもう　入ってみたかい？\n売ってくれる商品も　増えたらしいし、\nますます　便利になりそうだよ！\nココが　もともと無人島だったなんて\nもう誰も　信じてくれないかもね！　",
      "KRko": "너굴 상점 확장 공사도 끝났는데\n가봤어?\n상품 가짓수도 많아진 모양이고\n앞으로 더 살기 편해질 것 같아!\n여기가 원래 무인도였던 곳인 줄\n이젠 아무도 상상도 못하겠지? !",
      "TWzh": "你去看過擴建的Nook商店了嗎？\n販賣的商品種類也有所增加，\n感覺越來越方便了！\n就算說這裡原本是座無人島，\n可能也不會有人相信啦！。",
      "USen": "You been to the new Nook's Cranny\nyet? It's HUGE! They've got tons of\nnew stuff for sale too, (catchphrase).\nIt's wild that this used to be the\nmiddle of nowhere. It's totally feelin'\nlike the middle of somewhere now!",
      "USes": "¿Ya viste MiniNook?\n¡Yo casi me pierdo ahí dentro!\nVenden tantas cosas que me tardo\nel doble de tiempo en la compra.\nNo sé tú, pero con cosas como\nesta, la isla va agarrando forma,\n(catchphrase).",
      "USfr": "T'es passé à la Boutique Nook\nrécemment? Elle est énorme!\nLes rayons regorgent d'articles!\nQuand j'pense qu'c'était une île\ndéserte y a pas si longtemps...\nL'île boudée est dev'nue île bondée!"
    }
  },
  {
    "label": "009",
    "attribute": "0x0000000000000000",
    "locale": {
      "CNzh": "你见过傅达了吗？\n听说，他一聊到生物的话题，\n就会变得滔滔不绝！\n我还没和他说过话，\n希望我们能聊得来……",
      "EUde": "Haste schon Eugen getroffen?\nMannomann, liebt der es, über\nViecher und Fossilien zu labern...\nWenn der mal in Fahrt kommt, gibt's\nkein Bremsen. Dafür lernt man aber\nauch jede Menge, (Floskel).",
      "EUen": "You met Blathers yet? Wow, does he\never LOVE talking about fossils and\nfish and bugs and stuff.\nLike, he never stops. He just keeps\ntalking and talking and talking. You\ndo learn a lot, though.",
      "EUes": "Oye, ¿ya conoces a Sócrates?\nEl tío se emociona muchísimo\ncuando habla de bichos.\nEn el sentido de que no para de\ndarle al pico, claro. Por lo demás,\nparece que le dan bastante asquete.\n¡Cosas peores se han visto, tú!",
      "EUfr": "T'as déjà croisé Thibou ? En v'là un\nqui aime causer fossiles. Pis\nbébêtes. Et poiscaille, aussi.\nC'est bien simple, il s'arrête jamais !\nEt que j'bavasse, et que j'jacasse,\net que j'palabre et que j'papote !\nCeci dit, on apprend plein d'choses\nen l'écoutant... pour peu qu'on pique\npas un somme en cours d'route !",
      "EUit": "Hai già conosciuto Blatero? Uffa, non\nfa altro che parlare di pesci, fossili,\ninsetti e altro.\nNon si ferma mai. Continua a parlare\nsenza interruzioni. Però si imparano\ntante cose interessanti, da lui.",
      "EUnl": "Heb je Blathers al ontmoet? Wauw,\ndie houdt niet op over fossielen en\nvissen en beestjes... en alles.\nIk bedoel, hij houdt dus écht níét op.\nHij ratelt maar door. Je leert er wel\neen boel van, trouwens.",
      "EUru": "Ты уже знаком с Блезерсом? Ох,\nкак же он любит поговорить! Про\nокаменелости, рыб, насекомых...\nГоворит и говорит без конца.\nВообще не замолкает ни на минуту.\nНо в итоге много нового узнаешь.",
      "JPja": "フータさんには　会ってみたかい？\nあのヒト、生き物のことになると\n目の色変えて　語りまくるってウワサだよ\nウチはまだ　しゃべったコトないんだ\n気が合ったら　いいんだけどねぇ・・・",
      "KRko": "부엉씨 만나러 가봤어?\n그 사람, 생물에 대한 얘기를 꺼내면\n눈빛이 달라진다고 들었어\n난 아직 직접 대화는 안 해봤거든\n마음이 잘 맞는 사람이면 좋겠는데...",
      "TWzh": "你已經見過傅達了嗎？\n據說只要提到生物的事情，\n他就會兩眼發光，講個不停呢。\n我還沒有跟他說過話，\n希望我們合得來……",
      "USen": "You met Blathers yet? Wow, does he\never LOVE talking about fossils and\nfish and bugs and stuff.\nLike, he never stops. He just keeps\ntalking and talking and talking. You\ndo learn a lot, though.",
      "USes": "Oye, ¿ya conoces a Sócrates?\nSe emociona mucho cuando habla\nde insectos, fósiles y cosas de esas.\nAhora que lo pienso... creo que\nnunca lo he escuchado hablar de otra\ncosa que no sea eso.",
      "USfr": "T'as déjà croisé Thibou? En v'là un\nqui aime jaser d'fossiles. Pis\nbébittes. Et poiscaille, aussi.\nC'est bien simple, il s'arrête jamais!\nEt que j'bavasse, et que j'jacasse,\net que j'palabre et que j'papote!\nCeci dit, on apprend plein d'choses\nen l'écoutant... pour peu qu'on pique\npas un somme en cours d'route!"
    }
  },
  {
    "label": "010",
    "attribute": "0x0000000000000000",
    "locale": {
      "CNzh": "我还以为这里就算要建博物馆，\n也会是很简陋的那种。\n没想到～竟然这么好啊！\n傅达一定非常感动吧！\n哈哈哈！。",
      "EUde": "Dachte erst, das Gelaber, ein\nMuseum hier zu eröffnen, wäre\nnur ein Scherz, (Floskel)...\nVon wegen! Das war Ernst!\nWollen wir wetten, Eugen hat\nvor lauter Aufregung grade voll\ndie Megaschnappatmung?",
      "EUen": "I thought they were joking when they\ntalked about putting a museum here.\nBut they weren't! And it's awesome!\nI bet Blathers is seriously beyond\necstatic, (catchphrase)!",
      "EUes": "¡Mira! ¡A ver si sabes a quién imito!\n¡Uac!\n¿Te suena? ¿No caes? ¡Hacía\nde Sócrates, el tío del museo!\nSi no sabes de quién te hablo,\nya estás tardando en hacerle\nuna visita, .",
      "EUfr": "J'croyais qu'c'était une vanne,\nc't'histoire de musée, mais j'me\ngourais dans les grandes largeurs !\nNon seulement on en a un, mais\npar-dessus l'marché, il envoie\ndu lourd !\nThibou doit être sur un p'tit\nnuage, (expression) !",
      "EUit": "Quando ho sentito che avrebbero\ncostruito un museo, credevo fosse\nuno scherzo. E invece, eccolo!\nScommetto che Blatero non\nsta più nelle piume dalla gioia,\n(catchphrase)!",
      "EUnl": "Ik dacht dat ze een geintje maakten\ntoen ze zeiden dat ze hier een\nmuseum wilden neerzetten.\nMaar ze meenden het echt! En het is\nsupertof! Blathers zal wel totaal uit\nzijn uilenpan gaan, (catchphrase)!",
      "EUru": "Я думала, это шутка была, про\nмузей. А оказалось — правда! И так\nздорово все получилось!\nБлезерс, наверное, просто\nв восторге! (catchphrase)!",
      "JPja": "博物館つっても　正直ショボイのが\n建つもんだとばっかり　思ってたのに、\nいや～　立派なのができたねぇ！\nフータさん、さぞかし　感激しただろうな！\nアハハッ！　",
      "KRko": "솔직히 박물관이래 봤자\n작고 허름한 건물일 거라고 생각했는데\n이야～ 엄청 근사하더라구!\n부엉씨도 엄청 감동했겠어!\n아하하하! !",
      "TWzh": "雖然博物館始終給我一種\n看起來很寒酸的印象，\n不過這還真是挺氣派的啊！\n傅達一定非常感謝吧！\n啊哈哈！。",
      "USen": "I thought they were joking when they\ntalked about putting a museum here.\nBut they weren't! And it's awesome!\nI bet Blathers is seriously beyond\necstatic, (catchphrase)!",
      "USes": "¡A ver si adivinas a quién imito!\n¡Uac!\n¿Te suena? ¿No sabes? ¡Imité\na Sócrates, el del museo!\nSi no sabes de quién te hablo,\nte estás tardando en visitarlo, ¿eh?",
      "USfr": "J'croyais qu'c'était une blague,\nc't'histoire de musée, mais j'me\ntrompais pas à peu près!\nNon seulement on en a un, mais\npar-dessus l'marché, il est vraiment\ntrop génial!\nThibou doit être sur un p'tit\nnuage, (expression)!"
    }
  },
  {
    "label": "011",
    "attribute": "0x0000000000000000",
    "locale": {
      "CNzh": "上开了裁缝屋以后，真是方便了好多。\n以前要买件衣服可不容易了！\n别看我这样，我也是很追求时尚的！\n以前在老家的时候，奶奶就经常夸我，\n“人靠衣裳马靠鞍”呢！\n……啊？\n你说这不是在夸我？。",
      "EUde": "Ich feier es voll ab, dass wir endlich\n'ne Schneiderei haben. Und das sag\nich, obwohl ich KEIN Modefan bin.\nIs' halt auf Dauer echt ätzend, neue\nKlamotten immer selbst auf die Insel\nschippern zu müssen, (Floskel).",
      "EUen": "I'm super happy we finally have a\ntailor shop. Getting clothes shipped\nout here was kind of a pain.\nIt's not that I'm the queen of fashion\nor anything. It's that island life can\nbe tough on clothes, (catchphrase)!",
      "EUes": "¿Sabes qué te digo? ¡Que me cunde\nmuchísimo tener una sastrería en\nla isla, !\nEmpezaba a estar hasta el moño de\ntener que pedirlo todo por internet.\n¡Y eso que yo paso de la moda!",
      "EUfr": "J'suis tellement jouasse qu'on ait\nun atelier d'couture... C'était une\nde ces galères, avant.\nPas que j'sois une maniaque des\nsapes, mais j'commençais à tourner\nsérieusement en rond, (expression).",
      "EUit": "Non mi dispiace affatto avere una\nsartoria qui. Farsi spedire indumenti\nfin quaggiù non era il massimo.\nNon mi interessa la moda, ma\nstando tanto all'aperto i vestiti\nsi consumano molto in fretta!",
      "EUnl": "Ik ben superblij met onze nieuwe\nkleermakerij! Wat een gedoe om hier\nkleren naartoe te laten verschepen.\nNiet dat ik nou zo'n modepopje ben,\nmaar kleren hebben wel te lijden\nonder het eilandleven, (catchphrase)!",
      "EUru": "Я так рада, что у нас ателье\nпоявилось! А то приходилось все\nзаказывать, это так муторно.\nЯ, конечно, не королева стиля, но...\nНа острове с одеждой не особо\nразгуляешься. (catchphrase)!",
      "JPja": "に仕立て屋ができて　助かるよ！\n服を買うのも　ひと苦労だったからなー\nこれでもオシャレには　こだわりがあるのさ\n地元にいた頃は、よく「マゴにも衣装」って\nばーちゃんに　ほめられたもんだ！\n・・・え？\nほめられてないって？　",
      "KRko": "에 옷가게가 생겨서 다행이야!\n지금까진 옷 사는 것도 꽤 번거로웠지\n이래 봬도 패션에 신경 쓰는 편이거든\n고향에 있을 적엔 우리 할머니가\n'옷이 날개로구먼'이라고 그랬다고!\n...응?\n칭찬 아니야? ?",
      "TWzh": "島上的裁縫屋終於開張，真是太棒啦！\n不然之前光是買個衣服都累得半死……\n我好歹也是對穿著打扮有一點堅持的！\n我住在老家那邊的時候，\n外婆還常常誇我「人要衣裝」哩！\n……咦？\n你說那不是稱讚？。",
      "USen": "I'm super happy we finally have a\ntailor shop. Getting clothes shipped\nout here was kind of a pain.\nIt's not that I'm the queen of fashion\nor anything. It's that island life can\nbe tough on clothes, (catchphrase)!",
      "USes": "¡Qué emoción que tengamos\nel atelier en la isla, (catchphrase)!\nNo es que me importe andar a la\nmoda, ni mucho menos... ¡Pero así\ntodos podrán andar como les guste!",
      "USfr": "J'suis tellement contente qu'on ait\nun atelier d'couture... C'était une\nde ces galères, avant.\nPas que j'sois une maniaque des\ntenues, mais j'commençais à tourner\nsérieusement en rond, (expression)."
    }
  },
  {
    "label": "012",
    "attribute": "0x0000000000000000",
    "locale": {
      "CNzh": "桥梁建在了最合适的地方，\n以后要去河对面就方便多了。\n桥的选址是谁决定的啊？\n一定是个对这座\n特别熟悉的人吧！。",
      "EUde": "Die neue Brücke is' der absolute\nKnüller. Hätte nie gedacht, dass\ndie mir dermaßen zusagen würde.\nIch hab mich schon dabei erwischt,\nwie ich zum Blumenguerillapläne-\nschmieden drübergestapft bin...\nAlso, wer auch immer die da hin-\ngebaut hat, dem gehört 'n Orden\nverliehen, (Floskel)!",
      "EUen": "That new bridge is great. I had no\nidea how annoyed I was getting\nwhen I tried to cross the river.\nI've already caught myself standing\non it and staring into the horizon a\nfew times too. What a view!\nYeah, I gotta find whoever put it\nthere and thank 'em, (catchphrase).",
      "EUes": "¿Has visto qué puente más apañado\ntenemos ahora? ¡Se puede llegar\nal otro lado en un pispás, colega!\nDesde luego, el sitio no podría estar\nmejor elegido. Si es que el que sabe,\nsabe, .",
      "EUfr": "C'est maintenant qu'on a un pont\nqu'on s'rend compte à quel point\nc'était galère de traverser, avant.\nJ'aime bien m'planter en plein\nmilieu et scruter l'horizon, aussi...\nJ'te raconte pas la vue !\nOuais, si j'tenais l'champion qu'a\nfait s'élever c'pont... J'y dirais un\ngrand merci, (expression).",
      "EUit": "Il nuovo ponte non mi dispiace.\nNon era piacevole attraversare\nil fiume con altri mezzi.\nPensa che mi è già capitato di\nfermarmici sopra ad osservare il\npanorama. Ma solo un paio di volte!\nBeh, forse dovrei ringraziare chi\nl'ha fatto costruire... forse.",
      "EUnl": "Die nieuwe brug is echt cool. Ik besef\nnu pas hoe irritant ik het altijd vond\nom naar de andere oever te gaan.\nEn ik stond laatst zomaar een hele\ntijd op die brug naar de horizon te\nstaren. Wat een uitzicht!\nNou, ik moet degene die hem heeft\ngemaakt, maar gauw eens gaan\nbedanken, (catchphrase).",
      "EUru": "Как же классно, что появился мост!\nА то реку вообще было не перейти\nникак.\nТеперь мое любимое занятие —\nсмотреть вдаль с моста. Виды\nпотрясающие!\nДа, надо найти, кто его построил\nи отблагодарить как следует.\n(catchphrase)!",
      "JPja": "気の利いたトコに　橋ができたおかげで、\n川の向こうへ　行きやすくなったよ\n橋の場所は　誰が決めたんだろ？\nこのを　よくわかってるヤツだってのは\n間違いなさそうだけど！　",
      "KRko": "딱 좋은 곳에 다리가 생겨서\n강을 건너기가 편해졌어\n다리 놓을 곳은 누가 정한 거지?\n이 에 대해 속속들이 잘 아는 녀석이\n틀림없어! !",
      "TWzh": "多虧了那座架在關鍵地點的橋，\n現在要到河對岸去方便多囉！\n不知道那座橋是誰架的咧？\n總之一定是個\n非常了解這座島的傢伙！。",
      "USen": "That new bridge is great. I had no\nidea how annoyed I was getting\nwhen I tried to cross the river.\nI've already caught myself standing\non it and staring into the horizon a\nfew times too. What a view!\nYeah, I gotta find whoever put it\nthere and thank 'em, (catchphrase).",
      "USes": "¿Ya viste el puente tan tremendo que\ntenemos ahora? ¡Ahora podemos\ncruzar al otro lado rapidísimo!\nNo podría estar mejor ubicado,\n(catchphrase).",
      "USfr": "C'est maintenant qu'on a un pont\nqu'on s'rend compte à quel point\nc'était pénible de traverser, avant.\nJ'aime bien m'planter en plein\nmilieu et scruter l'horizon, aussi...\nJ'te raconte pas la vue!\nOuais, si j'tenais l'champion qu'a\nfait s'élever c'pont... J'y dirais un\ngrand merci, (expression)."
    }
  },
  {
    "label": "013",
    "attribute": "0x0000000000000000",
    "locale": {
      "CNzh": "自从有了这条路，\n要去悬崖上就方便了很多。\n我很喜欢高处，所以我很开心！\n每次站到高处，\n都会让人特别兴奋，你不觉得吗？。",
      "EUde": "Ein Megadankeschön an die Nase,\nwegen der wir endlich locker-flockig\nden Buckel da hochkommen!\nDie Aussicht von da oben is' episch.\nNich' lange fackeln. Zack, zack, auf\nnach oben, (Floskel)!",
      "EUen": "I gotta say, whatever genius made it\neasier to climb up that cliff deserves\na medal or something!\nThe view up there seriously rocks\ntoo. I'm gonna go up there and watch\nevery sunset I can, (catchphrase)!",
      "EUes": "Bueno, hay que reconocer que ahora\neso de alcanzar los sitios más altos\nde la isla está chupado.\nNo sé a quién se le habrá ocurrido\nla idea, ¡pero es para darle un buen\npremio, !",
      "EUfr": "J'sais pas qui est l'génie qu'a adouci\nla pente d'la falaise mais c'en est pas\nla moitié d'un... C'est l'génie entier !\nEn plus, la vue est carrément dingo !\nC'est l'futur rendez-vous d'tous les\namoureux d'couchers d'soleil !",
      "EUit": "Ammetto che avere un modo\ncomodo per salire sui rilievi\nnon è niente male!\nE anche la vista dalla cima ha il suo\nnon so che. Chi avrebbe mai detto\nche avessi questo animo romantico!",
      "EUnl": "Nou, degene die heeft bedacht dat je\ndie klif makkelijker op moet kunnen\nkomen, verdient een medaille!\nHet uitzicht is ook belachelijk mooi.\nIk weet waar ik elke zonsondergang\nte vinden zal zijn, (catchphrase)!",
      "EUru": "О, теперь стало так легко\nзабираться на эту скалу! Тот, кто\nэто придумал, просто гений!\nИ вид оттуда шикарный. Я хочу там\nкаждый день встречать рассвет!\n(catchphrase)!",
      "JPja": "ガケの上へ続く道が　できたおかげで\nラクして　登れるようになったね\n高いトコは好きだから　うれしいよ！\nだってほら、高いトコって　行くだけで\nなんか　気合い入るだろ？　",
      "KRko": "절벽으로 통하는 길이 생겨서\n편하게 올라갈 수 있게 됐어!\n난 높은 곳을 좋아해서 너무 기쁘다!\n왜, 높은 곳에 오르기만 해도\n기분이 좋아지잖아! !",
      "TWzh": "多虧了新鋪好的道路，\n現在可以輕鬆登上懸崖頂端啦。\n因為我喜歡高處，所以超開心的！\n畢竟只要身處高處，\n就能莫名拿出幹勁，對吧？。",
      "USen": "I gotta say, whatever genius made it\neasier to climb up that cliff deserves\na medal or something!\nThe view up there seriously rocks\ntoo. I'm gonna go up there and watch\nevery sunset I can, (catchphrase)!",
      "USes": "Qué gran idea esa de poner algo\npara llegar a los lugares altos.\nNo sé a quién se le habrá ocurrido, \n¡pero se merece un premio, claro que\nsí, (catchphrase)!",
      "USfr": "J'sais pas qui est l'génie qu'a adouci\nla pente d'la falaise mais c'en est pas\nla moitié d'un... C'est l'génie entier!\nEn plus, la vue est carrément folle!\nC'est l'futur rendez-vous d'tous les\namoureux d'couchers d'soleil!"
    }
  },
  {
    "label": "014",
    "attribute": "0x0000000000000000",
    "locale": {
      "CNzh": "新来的，\n我觉得还挺有意思的！\n只是……不知道为什么，\n我总感觉你俩很像。\n对了！一定是因为这个！\n你俩都是看不出在思考什么的人，\n我没说错吧？。",
      "EUde": "Dass  jetzt auch hier rumgammelt, is' echt super, (Floskel).\nHmm... Ihr beide habt irgendwie\nziemlich viele Ähnlichkeiten. Keine\nAhnung... Liegt's am Gang, oder so?",
      "EUen": "Having  around\nhas been awesome, (catchphrase).\nAlso, no idea why, but I get reminded\nof you when I'm around 'em. Maybe\nit's the walk? Don't know...",
      "EUes": "Creo que tenemos una nueva\npromesa en la isla, coleguilla.\n¡Sí, !\nLa verdad es que me recuerda un\npoquitín a ti. Por eso de que a veces\nme cuesta saber qué pensáis.\n¡Sois mi polo opuesto! Yo voy por\nla vida como un libro abierto,\n.",
      "EUfr": "On s'est bien fendu la poire quand\n était dans l'coin, (expression).\nD'ailleurs,  m'faisait penser\nà toi. J'sais pas pourquoi... \nLa démarche, p'têt ? Nan...",
      "EUit": "La presenza di  non mi dispiace, (catchphrase).\nEhm... mi ricorda te, in qualche\nmodo. Non so per quale motivo.\nSarà il modo di camminare...",
      "EUnl": "Cool dat  hier nu is, (catchphrase).\nHmm... Hij doet me wel wat aan jou\ndenken. Maar waarom? Misschien\nzijn manier van lopen? Grappig...",
      "EUru": "Как же классно, что теперь\n тоже здесь\nживет! (catchphrase)!\nХм... Он мне чем-то тебя\nнапоминает. Только вот чем?\nМожет, походкой? Не знаю...",
      "JPja": "新入りの　、\nなかなか　見どころがあると思うよ！\nただ・・・　なんとなーく\nアンタと　似てる気がすんだよね\nそう！　アレだよ！\nアンタも　アイツも、考えてることが\n顔に出ないタイプだろ？　",
      "KRko": "새로 온  말야\n꽤 괜찮은 녀석이더라!\n근데... 왠지 모르게\n너랑 닮은 구석이 있는 것 같단 말이지\n그래! 알겠다!\n너나 걔나 무슨 생각을 하는지 얼굴에\n잘 안 드러나는 타입인 것 같아! !",
      "TWzh": "新搬來的\n感覺是個可造之材哩！\n只是……我總覺得\n他跟你有點像咧。\n對了！那個啦！\n你們都不太會把心裡的想法\n表現在臉上，對吧？。",
      "USen": "Having  around\nhas been awesome, (catchphrase).\nAlso, no idea why, but I get reminded\nof you when I'm around 'em. Maybe\nit's the walk? Don't know...",
      "USes": "Tener a  ha sido\nde lo más chévere.\nMe recuerda a ti, pero no sé por qué.\nA lo mejor porque se parecen en lo\nblanco del ojo.",
      "USfr": "On s'est bien amusé quand\n était dans l'coin, (expression).\nD'ailleurs,  m'faisait penser\nà toi. J'sais pas pourquoi... \nLa démarche, p'têt'? Nan..."
    }
  },
  {
    "label": "015",
    "attribute": "0x0000000000000000",
    "locale": {
      "CNzh": "博物馆新建成的展览空间，\n你去过了吗？\n在曾经的无人岛上\n竟也能欣赏到真正的艺术，\n真是没想到啊！。",
      "EUde": "Hey, Gänseblümchen! Haste schon\ndie neue Kunstgalerie im Museum\nabgecheckt, (Floskel)?\nIch bin mega-gehypt deshalb! So\nwird  gleich noch 'ne Spur krasser!",
      "EUen": "You checked out the new art gallery\nin the museum, (catchphrase)?\nI am WAY stoked we've got our\nown gallery!  life\njust keeps rockin' harder!",
      "EUes": "¡Alucina con la nueva colección de\narte del museo, tú! Ahora sí que\nmolamos más que nadie.\nOjalá algún día expongan cuadros\nde mis fiestones. ¡Eso sí que son\nobras de arte, !",
      "EUfr": "T'as j'té un coup d'œil à la nouvelle\ngalerie d'art du musée, (expression) ?\nUne galerie rien qu'pour nous, c'est\ndingo !  assure de plus en plus !",
      "EUit": "Hai visitato la nuova mostra d'arte\nal museo, ?\nSono felice che  abbia la propria esibizione. Quest'isola rockeggia sempre di più!",
      "EUnl": "Heb je al een blik geworpen op de\nnieuwe kunsttentoonstelling in het\nmuseum, (catchphrase)?\nIk ga echt enorm uit mijn dak! Het leven op  wordt alleen maar beter en beter!",
      "EUru": "Ты был в новой художественной\nгалерее нашего музея?\n(catchphrase)!\nЯ просто вне себя от радости, что\nее открыли! \nтеперь мегакрутое место!",
      "JPja": "博物館に新しくできた　展示スペース、\nアンタは　もう見に行ったかい？\nまさか　かつての無人島で、\nマジの芸術を　拝めるようになるなんてねぇ\nまったく　想像もしなかったよ！　",
      "KRko": "박물관에 새로 생긴 전시 공간\n넌 벌써 보러 갔다 왔냐?\n설마 무인도였던 섬에서\n진짜 예술을 보게 될 거라곤\n상상도 못했다, 야! !",
      "TWzh": "你去看過博物館新增的展示空間了嗎？\n沒想到能在這座曾經的無人島上，\n拜見到真正的藝術。\n真是超乎我的想像呢！。",
      "USen": "You checked out the new art gallery\nin the museum, (catchphrase)?\nI am WAY stoked we've got our\nown gallery!  life\njust keeps rockin' harder!",
      "USes": "¿No te encanta la nueva colección\nde arte del museo, tú? Ahora sí que\nnuestra isla es la mejor.\nOjalá algún día expongan cuadros\nde mis fiestones. ¡Son verdaderas\nobras de arte, (catchphrase)!",
      "USfr": "T'as j'té un coup d'œil à la nouvelle\ngalerie d'art du musée, (expression)?\nUne galerie rien qu'pour nous, c'est\ndingue!  devient de plus en plus cool!"
    }
  },
  {
    "label": "016",
    "attribute": "0x0000000000000000",
    "locale": {
      "CNzh": "对了，你听说了吗？\n好像博物馆里开了一家\n味道很不错的咖啡店！\n当然了，自己在家也能冲泡咖啡，\n但专业咖啡师冲泡的咖啡会是什么味道的呢？\n百闻不如一见，应该去尝一尝！。",
      "EUde": "Haste auch schon gehört, dass es\nseit Neustem im Museum 'n Café\ngibt, Gänseblümchen?\nMit Feinschmeckerkäffchen! Da kann\nich mit meinem Gesöff zu Hause nich'\nmithalten! Nich' die Bohne!",
      "EUen": "Please tell me you heard. A café just\nopened up in the museum. You know\nwhat that means, right?\nActual, real, gourmet coffee! Sure,\nI make a mean brew, but compared to\nthe pro stuff? I can't even get close.",
      "EUes": "Tío, ¿te has pispado de que han\nabierto una cafetería en el museo?\n¡Por fin voy a poder ir a tope con\ncafé del bueno! Nada de recalentarlo\na media mañana en el microondas.",
      "EUfr": "Tu connais la nouvelle ? Un café\nvient d'ouvrir au musée. Tu sais\nc'que ça signifie ?\nDu vrai, bon caoua ! J'en fais du pas\ndégueu, mais par rapport à un pro...\nça reste du jus d'chaussette !",
      "EUit": "Hai sentito? Hanno appena aperto\nuna caffetteria nel museo. E sai cosa\nsignifica?\nDel vero caffè, di qualità accettabile!\nPotrei anche prepararmelo da sola,\nma vuoi mettere? Che storia!",
      "EUnl": "Dit is het nieuws van de eeuw. Er zit\nnu gewoon een café in het museum!\nJe weet wat dat betekent, toch?\nPure, krachtige kopjes troost! Ik kan\nzelf best een bakkie pleur brouwen,\nmaar dat is niet echt zuivere koffie!",
      "EUru": "Ты уже слышал? В нашем музее\nоткрылось кафе! А это значит...\nУ нас будет настоящий гурманский\nкофе! Мой тоже ничего, но до\nпрофи-результата ему как до луны.",
      "JPja": "そういや、アンタ　聞いたかい？\n何やら　ウマいコーヒーを出す　カフェが\n博物館の中に　できたらしいよ！\nまぁ、コーヒーは　家にもあるけど\nプロのコーヒーって　どんなモンだろうね？\n百聞は一見にしかず、ってことか！　",
      "KRko": "아 맞아, 너도 그 얘기 들었냐?\n맛있는 커피를 파는 카페가\n박물관 안에 생겼대!\n뭐, 커피는 집에도 있지만\n프로가 내리는 커피는 어떤 맛일까?\n직접 확인하러 가봐야겠어! !",
      "TWzh": "對了，你聽說了嗎？\n博物館裡好像開了一間咖啡店，\n裡面賣的咖啡非常好喝喔！\n雖然自己在家也可以泡咖啡，\n不過專家泡的咖啡還是很令人好奇……\n百聞不如一見，找時間喝喝看好了！。",
      "USen": "Please tell me you heard. A café just\nopened up in the museum. You know\nwhat that means, right?\nActual, real, gourmet coffee! Sure,\nI make a mean brew, but compared to\nthe pro stuff? I can't even get close.",
      "USes": "Dime que ya estás enteradísimo de\nque abrieron una cafetería en el\nmuseo.\n¡Por fin voy a poder disfrutar un café\ndecente! Nada de recalentarlo\na media mañana en el microondas.",
      "USfr": "Tu connais la nouvelle? Un café\nvient d'ouvrir au musée. Tu sais\nc'que ça signifie?\nDu vrai, bon café! J'en fais du pas\ndégueu, mais par rapport à un pro...\nça reste de l'eau de vaisselle!"
    }
  }
]