﻿[
  {
    "label": "001",
    "attribute": "0x0000000000000000",
    "locale": {
      "CNzh": "然然带来的花朵种子和灌木树苗\n大多都是在Nook商店里买不到的哦！\n而且质量也很好，我每次去那家伙的店里，\n都忍不住要买上许多！。",
      "EUde": "Gerd verhökert lauter Blumensamen,\nBuschtriebe und all so Gedöns, das\nNooks Laden nich' im Sortiment hat.\nWüsst gern mal, wo der Typ all das\nkrasse Zeug aufgabelt, (Floskel)!",
      "EUen": "Leif's selling all kinds of flower seeds\nand shrub saplings and stuff you\ncan't get at Nook's Cranny.\nI wanna know where he finds all\nthat stuff, 'cause, wow! I wanna go\nthere, (catchphrase)!",
      "EUes": "Resulta que Gandulio vende un\nmontonazo de flores y plantas que\nno encuentras en MiniNook, tío.\nA saber qué clase de contactos tiene\nel tío para conseguir movidas tan\nexclusivas, ¿no, ?\nSerá mejor que vaya a preguntarle,\n¡y de paso lo mismo le compro\nalgo y todo!",
      "EUfr": "Racine fourgue des pousses d'arbres\net des graines de fleurettes qu'on\npeut pas dégoter à la Boutique Nook.\nChais pas où il les chope mais j'm'en\nvais lui faire cracher l'morceau !\nJ'veux les mêmes, (expression) !",
      "EUit": "Florindo vende ogni sorta di semi,\ngermogli di cespugli e altra roba che\nnon si trova alla Bottega di Nook.\nVoglio sapere dove scova tutte\nquelle cose perché ci voglio andare\nanch'io, !",
      "EUnl": "Die Leif verkoopt bloemzaadjes en\nzaailingen die je bij Nooks hoek\nniet kunt krijgen.\nIk wil weten waar hij dat alles vindt,\nwant wauw! Daar moet ik ook heen,\n(catchphrase)!",
      "EUru": "У Лейфа есть семена любых цветов\nи саженцы кустов, которые даже\nв лавке Нука не купить.\nМне интересно, где он все это\nберет? Мне тоже туда надо!\n(catchphrase)!",
      "JPja": "レイジが持ってくる　花の種や　低木の苗って\nタヌキ商店で　売ってないヤツばっかだよね！\n品質もイイし、アイツの店では\nついつい　買いすぎちまうよ！　",
      "KRko": "늘봉이가 갖고 오는 꽃씨랑 묘목은\n너굴 상점에선 구할 수 없는 것들뿐이야!\n품질도 좋아서 그 녀석 가게에 가면\n나도 모르게 과소비를 하게 돼! !",
      "TWzh": "然然帶來的花卉種子還有灌木樹苗，\n都是Nook商店裡沒有販售的東西喔！\n而且商品品質也是一流，在那傢伙的店裡\n總是會一不小心就買太多呢！。",
      "USen": "Leif's selling all kinds of flower seeds\nand shrub saplings and stuff you\ncan't get at Nook's Cranny.\nI wanna know where he finds all\nthat stuff, 'cause, wow! I wanna go\nthere, (catchphrase)!",
      "USes": "Resulta que Gandulio vende un\nmontonal de flores y plantas que\nno encuentras en MiniNook.\n¿Qué clase de contactos tendrá\npara conseguir cosas tan\nexclusivas?\nSerá mejor que vaya a preguntarle,\n¡y de paso le compro algo!",
      "USfr": "Racine vend des pousses d'arbres\net des graines de fleurettes qu'on\npeut pas trouver à la Boutique Nook.\nChais pas où il les prend mais j'm'en\nvais lui faire cracher l'morceau!\nJ'veux les mêmes, (expression)!"
    }
  },
  {
    "label": "002",
    "attribute": "0x0000000000000000",
    "locale": {
      "CNzh": "不同种类的灌木，\n花期也都各不相同。\n根据季节来选择种植的灌木种类，\n也是很有趣的事哦！\n下次种哪种好呢～？。",
      "EUde": "Hab 'nen Hammertipp für dich:\nManche Büsche blühen nur zu\nbestimmten Jahreszeiten!\nDu könntest dir also voll den fetten\nGarten machen mit Sommer- und\nWinterabteilung oder so!",
      "EUen": "Pro gardening tip. Some shrubs have\nflowers on 'em that'll only bloom in\ncertain seasons, (catchphrase).\nThat means you could plant, like, a\nsummer garden and a winter garden\nand a fall garden... Pretty rad, huh?",
      "EUes": "El otro día me enteré de casualidad\nde que algunos arbustos solo echan\nflores en ciertas estaciones, tú.\nVamos, que te puedes montar\njardines temáticos en primavera,\n¡o en verano! ¡O en invierno!\nLa verdad es que es un plan\nbastante flipante, ¿eh, ?",
      "EUfr": "Petit tuyau gratos : y a des pousses\nd'arbres dont les fleurettes éclosent\nque pendant certaines saisons.\nTu peux t'faire un jardin d'hiver, pis\nd'printemps, pis d'automne... et vivre\nau milieu des plantes toute l'année !",
      "EUit": "Consiglio di giardinaggio da esperta:\nalcuni cespugli hanno fiori che\nfioriscono solo in certe stagioni.\nQuindi puoi piantare un giardino\ninvernale, uno estivo e uno\nautunnale... Niente male, eh?",
      "EUnl": "Tuinierweetje voor je: sommige\nstruiken hebben bloemen die alleen\nin een bepaald seizoen groeien.\nZo kun je een lente-, zomer-, herfst- en wintertuin aanplanten, (catchphrase)... Best tof, toch?",
      "EUru": "Совет от эксперта. (catchphrase)!\nНекоторые кусты цветут только\nв определенное время года.\nПоэтому можешь устроить у себя\nлетний сад, зимний сад, осенний...\nи так далее. Здорово, да?",
      "JPja": "低木って、種類によって\n花の咲く季節が　違うんだよね\n季節ごとに　どの低木を植えるか　考えるのも\nなかなか　楽しいモンだよ！\n次は　どれを植えよっかな～？　",
      "KRko": "낮은 나무는 종류에 따라\n꽃이 피는 계절이 달라\n계절마다 어떤 낮은 나무를 심을까\n생각하는 것도 큰 즐거움이지!\n다음은 어떤 걸 심어볼까나～? ?",
      "TWzh": "灌木這種植物，根據種類不同\n開花的季節也不一樣呢。\n根據季節思考要種植怎樣的灌木，\n也是一件很有趣的事喔！\n下次要種哪個好呢～？。",
      "USen": "Pro gardening tip. Some shrubs have\nflowers on 'em that'll only bloom in\ncertain seasons, (catchphrase).\nThat means you could plant, like, a\nsummer garden and a winter garden\nand a fall garden... Pretty rad, huh?",
      "USes": "El otro día me enteré por casualidad\nde que algunos arbustos solo\nflorecen en ciertas estaciones, tú.\nO sea que puedes poner jardines\ntemáticos en primavera, ¡o en\nverano! ¡O en invierno!\nLa verdad es que es un plan\ntremendísimo, (catchphrase).",
      "USfr": "Conseil gratuit : y'a des pousses\nd'arbres dont les fleurettes éclosent\nque pendant certaines saisons.\nTu peux t'faire un jardin d'hiver, pis\nd'printemps, pis d'automne... et vivre\nau milieu des plantes toute l'année!"
    }
  },
  {
    "label": "003",
    "attribute": "0x0000000000000000",
    "locale": {
      "CNzh": "看到花草树木时，\n总会让人觉得很安心呢。\n以这地球日为契机，\n能够添置一些喜欢的植物，\n我觉得很开心！。",
      "EUde": "Wenn ich Blumen seh, so weit das\nAuge reicht, krieg selbst ich glatt\nPipi in den Augen, (Floskel)...\nIch glaub, der Tag der Natur verleitet\nviele dazu, lauter Pipapo in die\nGegend zu pflanzen. Find ich dufte!",
      "EUen": "There's just something about seein'\nflowers stretch out as far as the eye\ncan see, (catchphrase)...\nI don't care if Nature Day does it or\nsomething else. If it gets more folks\ninto flowers, then I'm cool with it.",
      "EUes": "Mira, te voy a confesar algo: a veces\nme parece que las flores son una\ncursilada.\nPero luego lo veo todo colorido y a\nla peña atómica con ellas y... ¡ya me\nlo replanteo, !\nEn esta vida también es importante\ncrecer y reconsiderar tus opiniones.\nO eso dicen, vaya.",
      "EUfr": "Vise un peu ces fleurettes à perte de\nvue... On prend du bonheur plein les\nmirettes, (expression) !\nFaudra remercier l'génie qu'a inventé\nl'jour de la nature. Les plantes vertes\nsont aux anges, et moi itou !",
      "EUit": "Non è niente male vedere un prato\nfiorito che si estende a perdita\nd'occhio, ...\nGiornata della natura o no, se\nserve a far amare di più i fiori,\na me va bene.",
      "EUnl": "Bendes bloemen bij elkaar zien, zo\nver als het oog reikt, (catchphrase)...\nOf het nou vanwege Natuurdag is of\nniet, als er daardoor meer lui om\nbloemen geven...\n...vind ik het he-le-maal tof!",
      "EUru": "Обожаю, когда кругом цветы,\nнасколько хватает глаз.\n(catchphrase)...\nНеважно, День природы, не День\nприроды... Если народ начинает\nинтересоваться цветами, я за!",
      "JPja": "目の届くところに　花や木があると、\nやっぱ　ちょっとだけ　ホッとするんだよな\nアースデーを　キッカケにして\n植物を好きなヤツが　増えてくれたら\nウチは　うれしいよ、",
      "KRko": "눈이 닿는 곳에 꽃과 나무가 있으면\n역시 마음이 좀 놓이지 않냐?\n지구의 날을 계기로\n식물을 좋아하는 녀석이 많아지면\n정말 좋을 텐데, ",
      "TWzh": "看到花草樹木時，總能感到些許的放鬆呢。\n如果地球日能讓更多人喜歡上植物的話，\n我會感到很開心的，。",
      "USen": "There's just something about seein'\nflowers stretch out as far as the eye\ncan see, (catchphrase)...\nI don't care if Nature Day does it or\nsomething else. If it gets more folks\ninto flowers, then I'm cool with it.",
      "USes": "Mira, te voy a confesar algo: a veces\nme parece que las flores son una\ncursilería.\nPero luego lo veo todo colorido\ny cómo le elevan el ánimo a todos...\n¡y me requetencantan!\nEn esta vida también es importante\nreconsiderar tus opiniones, ¿no?",
      "USfr": "R'garde un peu ces fleurettes à perte\nde vue... On prend du bonheur plein\nles mirettes, (expression)!\nFaudra remercier l'génie qu'a inventé\nl'jour de la nature. Les plantes vertes\nsont aux anges, et moi itou!"
    }
  },
  {
    "label": "004",
    "attribute": "0x0000000000000000",
    "locale": {
      "CNzh": "(resident name)流·园艺技巧，\n你想学习吗？\n这技巧就是……\n凭气势和直觉，尽情种植自己喜欢的花草！\n这就是我的独门秘诀……诶？\n完全没有参考价值吗？。",
      "EUde": "Psst... Ich steck dir jetzt mal so\nganz im Geheimen, wie man im\n(Einwohnername)-Stil gärtnert...\nNämlich voll ohne Regeln! Pack\nstumpf alles irgendwohin, wie du\nlustig bist! Hauptsache, es fetzt!",
      "EUen": "I'm gonna let you in on the secret to\ngardening (resident name)-style.\nNo rules! Go with your gut and just\nplant, plant, plant—and then figure\nout if you wanna move things later.",
      "EUes": "Seguro que toda la peña te ha estado\ndando secretos de jardinería, ¿eh?\nY si no, te los darán, hazme caso.\nYo no quiero ser menos, así que aquí\nva el mío: ¡haz lo que más te cunda!\n¿Que te apetece planear un jardín\nordenadito y todo mono? ¡Pues dale!\n¿Que prefieres plantar a lo loco\ny recolocarlo todo luego? ¡Pues\nadelante con el tema!\nSi la jardinería tuviese reglas\nfijísimas, sería un muermo,\n.",
      "EUfr": "Ouvre bien tes jolies p'tites oreilles,\nj'vais t'confier un secret d'fleurettes\nmade-in-(nom du résident).\nVas-y à l'instinct ! Plante, re-plante\net re-re-plante, tu verras bien c'qu'il\npoussera, .",
      "EUit": "Ti svelerò il segreto del giardinaggio\nin stile (resident name).\nNiente regole! Segui l'istinto come\nla musica a una festa e pianta tutto\nquello che vuoi. Qualcosa succede...",
      "EUnl": "Ik zal je een echt (resident name)-geheimpje vertellen over tuinieren.\nTrek je nergens iets van aan! Plant\nnaar hartenlust en bedenk later maar\nof je nog iets wilt verplaatsen!",
      "EUru": "Хочешь совет по садоводству от\n(resident name)?\nЗабудь о правилах! Полагайся на\nсвой вкус и сажай, сажай, сажай.\nЕсли что, потом можно пересадить.",
      "JPja": "(resident name)流・ガーデニングの\nコツを教えてやろうか？\nそれはね・・・\n気合いと直感で　好きな花を植えまくる！\n以上っ！　・・・えっ？\n全然　参考にならないって？　",
      "KRko": "(resident name)류 가드닝의 비법을\n가르쳐줄까?\n그건 말이지...\n정신력과 직감으로 좋아하는 꽃을 마구 심는다!\n이상! ...뭐?\n하나도 도움이 안 된다고? ?",
      "TWzh": "我來教你(resident name)流派的園藝技巧吧？\n其訣竅就是……\n靠著氣勢和直覺，種滿自己喜歡的花卉！\n完畢！咦……？\n你說完全無法當作參考嗎？。",
      "USen": "I'm gonna let you in on the secret to\ngardening (resident name)-style.\nNo rules! Go with your gut and just\nplant, plant, plant—and then figure\nout if you wanna move things later.",
      "USes": "Seguro que todos andan compartiendo sus secretos\nde jardinería, ¿eh?\nY si no, te los darán, créeme. Yo no me quiero quedar atrás, así que aquí\nva el mío: ¡haz lo que quieras!\n¿Tienes ganas de poner un jardín\nordenadito y todo adorable? ¡Pues dale!\n¿Que prefieres plantar a lo loco\ny moverlo todo luego? ¡Pues vas!\nSi la jardinería tuviera reglas, sería\naburridísima, (catchphrase).",
      "USfr": "Ouvre bien tes jolies p'tites oreilles,\nj'vais t'confier un secret d'fleurettes,\nstyle (nom du résident).\nVas-y à l'instinct! Plante, re-plante\net re-re-plante, tu verras bien c'qu'il\npoussera, ."
    }
  },
  {
    "label": "005",
    "attribute": "0x0000000000000000",
    "locale": {
      "CNzh": "我也想为上的环境做些贡献，\n于是就决定去除草，\n然然那家伙看到后……\n竟然对我说，\n“难道你是杂草之神派来的使者吗？”\n那家伙有时候还真是不可思议……。",
      "EUde": "Am Tag der Natur sollten selbst die\nHärtesten der Härtesten ihren Teil\ntun, also auch ICH!\nHab zum Beispiel grad 'nen Reifen\naus 'm Wasser gefischt. Wüsste nur\ngern mal, wie der dahin kommt...",
      "EUen": "Well, I'm doing my part for Nature\nDay. I just fished a tire out of\nthe river.\nNow I'm wonderin' how a tire made\nit all the way out here... You haven't\nseen any cars around, have you?",
      "EUes": "Estaba yo intentando contribuir a lo\ndel Día de la Naturaleza... y en estas\nvoy y veo un neumático en el río.\nLo pesqué al momento, claro.\nPero sigo con la duda: ¿cómo\nhabrá acabado ahí?\n¿Alguien tiene un coche en la isla\ny yo no me había enterado,\n?",
      "EUfr": "Pff, on pourra pas dire que j'me la\nsuis coulée douce pendant l'jour\nde la nature, .\nTelle que tu m'vois, j'viens d'sortir\nun vieux pneu d'la rivière... et j'ai\ndu mal à en croire ma canne à pêche.\nJ'veux dire, il sort d'où, ce pneu ?\nT'as vu passer des bécanes dans\nl'coin, toi ?",
      "EUit": "Beh, sto facendo la mia parte per\nla Giornata della natura. Ho appena\npescato un copertone dal fiume.\nMi chiedo come sia finito qui un\ncopertone... Tu non hai visto delle\nauto in giro, no?",
      "EUnl": "Ik draag mijn steentje bij voor\nNatuurdag. Net heb ik een\nautoband uit de rivier gevist.\nHoe kan een autoband nou\nhe-le-maal hier belanden? Jij hebt\nhier toch ook geen auto's gezien?",
      "EUru": "Я выловила покрышку из реки —\nвыполнила свой долг перед\nприродой в День природы.\nА что вообще покрышка там делала?\nТы здесь хоть одну машину\nвидел?",
      "JPja": "ウチも　の環境のために　なんかするかー\nと思って　雑草をむしってたら、\nレイジのやつがさ・・・\n「もしかして　雑草の神様の　お使い～？」\nって聞いてきたんだよ\nアイツ、不思議なトコあるよな・・・、",
      "KRko": "나도 의 환경을 위해 뭘 좀 해볼까～ 해서\n잡초를 뽑고 있었더니\n늘봉이 녀석이 와서는...\n'혹시 잡초의 신이 보낸 심부름꾼이야～?'\n하고 물어보지 뭐냐\n그 녀석 희한한 데가 있다니까... ...",
      "TWzh": "當我覺得該為島上環境貢獻心力而開始\n拔雜草時，然然那傢伙竟然……\n「難道，你是雜草之神的使者嗎～？」\n對著我說這種話喔。\n那傢伙有時候還真是奇妙呢……。",
      "USen": "Well, I'm doing my part for Nature\nDay. I just fished a tire out of\nthe river.\nNow I'm wonderin' how a tire made\nit all the way out here... You haven't\nseen any cars around, have you?",
      "USes": "Estaba yo intentando contribuir a lo\ndel Día de la Naturaleza... y justo\nme topo con un neumático en el río.\nLo pesqué al momento, claro.\nPero sigo con la duda: ¿cómo\ncarámbanos terminó ahí?\n¿Alguien tiene un auto en la isla\ny va dejando sus neumáticos\npor ahí?",
      "USfr": "Pff, on pourra pas dire que j'me la\nsuis coulée douce pendant l'jour\nde la nature, .\nTelle que tu m'vois, j'viens d'sortir\nun vieux pneu d'la rivière... et j'ai\ndu mal à en croire ma canne à pêche.\nJ'veux dire, il sort d'où, ce pneu?\nT'as vu passer des bécanes dans\nl'coin, toi?"
    }
  }
]