﻿[
  {
    "label": "001",
    "attribute": "0x0500000100000000",
    "locale": {
      "CNzh": "今天好像有\n从别的来的客人！",
      "EUde": "Haste schon mitgekriegt, dass wir\nBesuch haben? Der soll von 'ner\nanderen Insel kommen!",
      "EUen": "Did you hear we have company?\nI think they're from another island!",
      "EUes": "Ya olía yo algo raro en el ambiente...\nTú tienes visita, ¿eh, picaruelo?\nSiempre mola que vengan a vernos\nde otras islas. ¡Arriba el espíritu\naventurero!",
      "EUfr": "On a d'la visite, aujourd'hui. En\nprovenance directe d'une autre île !",
      "EUit": "Hai sentito che abbiamo visite\nda un'altra isola?",
      "EUnl": "Wist je dat we overzees bezoek\nhebben?",
      "EUru": "У нас гости, ты слышал?\nС другого острова, по-моему!",
      "JPja": "今日は　よそのから\nお客さんが　来てるみたいだね！",
      "KRko": "오늘은 다른 에서\n손님이 와 있는 모양이네!",
      "TWzh": "今天好像會有\n從別的島來的客人喔！",
      "USen": "Did you hear we have company?\nI think they're from another island!",
      "USes": "Ya olía yo algo raro en el ambiente...\nQué chévere que vengan a visitarnos\nde otras islas. ¡Arriba el espíritu\naventurero!",
      "USfr": "On a d'la visite, aujourd'hui. En\nprovenance directe d'une autre île!"
    }
  },
  {
    "label": "002",
    "attribute": "0x0500000100000000",
    "locale": {
      "CNzh": "我刚刚看到了从岛外来的客人，\n是(nickname)你的朋友吗？",
      "EUde": "Auf unsre Insel soll sich jemand\ngemogelt haben, der nich' von hier\nis'. Klingelt's, (Spitzname)?",
      "EUen": "I heard someone's here from\noff-island. Do you know 'em?",
      "EUes": "¡Me he enterado de que han\nvenido a hacernos una visita,\n(nickname)!\n¡Que ilusión! Ya sabía yo que algún\ndía  se haría famosa, coleguilla.",
      "EUfr": "Paraît qu'on a d'la visite\naujourd'hui. Tu connais,\n(surnom) ?",
      "EUit": "Ho sentito dire che abbiamo visite,\ngente che non è della nostra isola.\nNe sai qualcosa, (nickname)?",
      "EUnl": "Ik heb gehoord dat we bezoek van\neen ander eiland hebben. Weet jij\ndaar meer van, (nickname)?",
      "EUru": "Говорят, у нас на острове чужие.\nТы знаешь кто, (nickname)?",
      "JPja": "よそからの　お客さんを見かけたけど、\n(nickname)のダチ？",
      "KRko": "다른 데서 온 손님을 봤는데,\n(nickname)의 친구야?",
      "TWzh": "我看見了來自外地的客人，\n(nickname)，是你的朋友嗎？",
      "USen": "I heard someone's here from\noff-island. Do you know 'em?",
      "USes": "¡Escuché por ahí que tenemos\nvisita, (nickname)!\n¡Buenísimo! Ya sabía yo que algún día  se volvería popular.",
      "USfr": "Paraît qu'on a d'la visite\naujourd'hui. Tu connais,\n(surnom)?"
    }
  },
  {
    "label": "003",
    "attribute": "0x0500000100000000",
    "locale": {
      "CNzh": "今天应该能从客人那里听到\n各种其它上发生的故事吧！",
      "EUde": "Besuch von 'ner anderen Insel?\nIch muss mal fragen, wie die sich\nda so die Zeit vertreiben.",
      "EUen": "Visitors, huh? What do you think\nthey do for fun on their island?",
      "EUes": "Así que hoy tenemos visita en\nla isla, ¿eh? ¡Lo van a flipar con\nel ambientazo que nos marcamos!",
      "EUfr": "D'la visite... C'est qu'on vient d'loin\npour s'marrer sur notre île !",
      "EUit": "Abbiamo visite. Chissà che tipo\ndi feste organizzano a casa loro...",
      "EUnl": "Bezoek, dus? Ik kan niet wachten\nom te horen hoe het op een ander\neiland is!",
      "EUru": "Гости? Как ты думаешь, как они\nвеселятся у себя на острове?",
      "JPja": "今日は　お客さんから　他のの話を\nいろいろ聞けそうだね！",
      "KRko": "오늘은 손님이 와 있으니까 다른 에 대한\n이야기도 이것저것 들을 수 있겠다!",
      "TWzh": "今天感覺可以從客人那邊\n聽到許多別的島的事呢！",
      "USen": "Visitors, huh? What do you think\nthey do for fun on their island?",
      "USes": "Conque hoy nos visitan de otra\nisla, ¿eh? ¡Demostremos el\nambientazo que tenemos aquí!",
      "USfr": "D'la visite... C'est qu'on vient d'loin\npour s'amuser sur notre île!"
    }
  },
  {
    "label": "004",
    "attribute": "0x0500000100000000",
    "locale": {
      "CNzh": "岛上有个没见过的陌生人，\n是从岛外来的客人吧？",
      "EUde": " soll bei Touris\ngrad voll beliebt sein. Sind dir schon\nwelche über den Weg gelaufen?",
      "EUen": "Someone's here sightseeing. Have\nyou met 'em?",
      "EUes": "¡Tíiio! ¡Me he enterado de que\ntenemos visita! ¡Y yo con estas\npintas!",
      "EUfr": "On a d'la visite aujourd'hui.\nT'as croisé personne ?",
      "EUit": "A quanto pare abbiamo ospiti.\nTu ne sai qualcosa?",
      "EUnl": "Toeristen zijn altijd leuk. Heb je al\ngedag gezegd?",
      "EUru": "Кто-то приехал ознакомиться\nс достопримечательностями.\nТы уже видел гостей?",
      "JPja": "見慣れないヤツが　来てるけど、\nよそからの　お客さんだよね？",
      "KRko": "본 적 없는 얼굴이 있던데,\n다른 데서 온 손님이지?",
      "TWzh": "我看見島上來了生面孔的人，\n應該是外地來的客人吧？",
      "USen": "Someone's here sightseeing. Have\nyou met 'em?",
      "USes": "¡Me acabo de enterar de que\ntenemos visita de otra isla!",
      "USfr": "On a d'la visite aujourd'hui.\nT'as croisé personne?"
    }
  },
  {
    "label": "005",
    "attribute": "0x0000000000000000",
    "locale": {
      "CNzh": "",
      "EUde": "",
      "EUen": "",
      "EUes": "",
      "EUfr": "",
      "EUit": "",
      "EUnl": "",
      "EUru": "",
      "JPja": "",
      "KRko": "",
      "TWzh": "",
      "USen": "",
      "USes": "",
      "USfr": ""
    }
  },
  {
    "label": "005_01",
    "attribute": "0x0000000000000000",
    "locale": {
      "CNzh": "早知道有客人来的话，\n我昨天就应该准备一些料理的～。",
      "EUde": "Hätte ich gewusst, dass heute\nBesuch ansteht, hätte ich mein\nBlumenbeet aufgehübscht...",
      "EUen": "If I'd known we'd be having guests,\nI might've made snacks!",
      "EUes": "Si lo sé, ¡habría organizado un buen\njolgorio o algo! Nada, me va a tocar\nimprovisar. Ji, ji, ji...",
      "EUfr": "Si j'avais su qu'on avait d'la visite,\nj'aurais préparé d'la becquetance !",
      "EUit": "Se avessi saputo che avevamo ospiti,\navrei preparato qualcosa da mettere\nsotto i denti...",
      "EUnl": "Had ik geweten dat er iemand kwam,\ndan had ik wat hapjes klaargemaakt!",
      "EUru": "Если бы я знала, что у нас будут\nгости, я бы что-нибудь вкусное\nприготовила.",
      "JPja": "こんなことなら、昨日のうちに\n料理の仕込みを　しとくんだったな～、",
      "KRko": "이럴 줄 알았으면 어제 미리\n요리할 준비 좀 해 놓을걸～ ～",
      "TWzh": "早知道有這種事，\n我昨天就先準備好料理了說～。",
      "USen": "If I'd known we'd be having guests,\nI might've made snacks!",
      "USes": "¡Hubiera organizado un buen pachangón o algo! Ni hablar,\nhabrá que improvisar...",
      "USfr": "Si j'avais su qu'on avait d'la visite,\nj'aurais préparé des collations!"
    }
  },
  {
    "label": "005_02",
    "attribute": "0x0000000000000000",
    "locale": {
      "CNzh": "嗯？你就放心吧！\n客人在的时候我会注意形象的！\n你看，我今天打扮得就很用心吧？\n诶？你觉得和平时没区别？\n……被你发现了。。",
      "EUde": "Ich nehm an, du willst, dass ich\nmich zusammenreiße und heute extra\nfreundlich bin, weil Besuch da is'.\nAber schick anziehn brauch ich mich\nnich', oder? Denk dran, auch ich hab\nmeine Grenzen.",
      "EUen": "I suppose I gotta be on my best\nbehavior while they're here. I don't\nneed to dress up, do I? Because...no.",
      "EUes": "Tendré que portarme bien para que\nno se lleven una mala impresión,\n¿verdad?\n¡Sí, claro! ¡No me lo creo ni yo!",
      "EUfr": "Bon, s'agit d'faire bonne impression\nsi on a d'la visite. Faut s'changer,\ntu crois ? Parc'que... j'ai pas envie.",
      "EUit": "Devo essere gentile con gli ospiti,\nlo so. Ma mettersi in ghingheri?\nNo, c'è un limite a tutto...",
      "EUnl": "Ik zal maar zorgen dat ik me\ngedraag, dan. Ik hoef me toch\nniet op te tutten? Nee? Mooi.",
      "EUru": "Пока у нас будут гости\nя постараюсь себя хорошо вести.\nМне что, переодеться? Нетушки...",
      "JPja": "なんだい？　大丈夫だよ、\nお客さんがいる間は　ちゃんとするって！\nほら、見た目だって　気をつかってんだろ？\nえ？　いつもと変わらないって？\n・・・バレたか、",
      "KRko": "뭘～ 걱정 마!\n손님이 계신 동안은 똑바로 한다니까!\n이것 봐, 외모도 신경 많이 썼지?\n뭐? 평소랑 똑같다고?\n...들켰네, ",
      "TWzh": "怎麼啦？沒問題啦，\n客人在的時候，我會很規矩的！\n你看，我連打扮都有下過功夫吧？\n咦？你說跟平常一樣？\n……穿幫了啊，。",
      "USen": "I suppose I gotta be on my best\nbehavior while they're here. I don't\nneed to dress up, do I? Because...no.",
      "USes": "Tendré que comportarme para que\nno demos una mala impresión...\n¡Esa ni yo me la creo!",
      "USfr": "Bon, s'agit d'faire bonne impression\nsi on a d'la visite. Faut s'changer,\ntu crois? Parc'que... j'ai pas envie."
    }
  },
  {
    "label": "005_03",
    "attribute": "0x0000000000000000",
    "locale": {
      "CNzh": "如果被问到的\n推荐活动，我该怎么回答呢～\n散步？钓鱼？\n还是……摘？\n哎呀！全部都说一遍吧！。",
      "EUde": "Und wenn mich der Besuch fragt,\nwas wir so alles Cooles auf\n anstellen?\nBin ich dann ehrlich?\nNich', dass wir den nie wieder\nlos werden! (Floskel)!",
      "EUen": "What should I say if they ask what's\ncool on ? Hiking?\nFishing? Eating ?\nActually, all of those are pretty\ncool, (catchphrase).",
      "EUes": "¿Tú qué actividades crees que se\npueden recomendar, ?\n¿Pescar? ¿Recoger ?\n¿O mejor... desfasar a lo loco?",
      "EUfr": "J'dis quoi si j'dois jouer les guides ?\nJ'conseille d'la rando, d'la pêche,\nd'la cueillette de  ?\nEn fait, tout est marrant... Du coup,\nj'proposerai c'qui m'passera par la\ntête. (expression).",
      "EUit": "E se mi chiedono cosa facciamo qui   per divertirci, cosa rispondo?\nAcchiappare insetti? Pescare?\nMangiare ?\nQueste cose le fanno tutti... Posso\nraccontare delle mitiche feste alle\nquali partecipo io, (catchphrase)?",
      "EUnl": "Stel dat iemand vraagt wat er leuk is aan , wat zeg ik dan?\nWandelen? Vissen?  eten? Het is allemaal wel tof, (catchphrase).",
      "EUru": "А что говорить, если меня спросят,\nчто у нас классного на острове\n?\nПрогулки? Рыбалка? ?\nПо мне, так все классно.\n.",
      "JPja": "のオススメとか\n聞かれたら、なんて答えようかな～\nさんぽ？　サカナ釣り？　\nそれとも・・・狩り？\nあーもう、全部でいっか！　",
      "KRko": "의 좋은 점을\n물어보면 뭐라고 대답하지?\n산책? 낚시?\n아니면...  따기?\n아～ 몰라! 다 좋다고 할래! !",
      "TWzh": "要是被問到的\n推薦行程，該怎麼答才好啊～？\n散步？釣魚？\n還是……採？\n啊～真是的！乾脆全說好了！。",
      "USen": "What should I say if they ask what's\ncool on ? Hiking?\nFishing? Eating ?\nActually, all of those are pretty\ncool, (catchphrase).",
      "USes": "¿Tú qué actividades crees que se\npueden recomendar, (catchphrase)?\n¿Pescar? ¿Recoger ?\nO mejor... ¡echar relajo sin parar!",
      "USfr": "J'dis quoi si j'dois jouer les guides?\nJ'conseille d'la rando, d'la pêche,\nd'la cueillette de ⁠?\nEn fait, tout est marrant... Alors,\nj'proposerai c'qui m'passera par la\ntête. (expression)."
    }
  },
  {
    "label": "005_04",
    "attribute": "0x0000000000000000",
    "locale": {
      "CNzh": "你可要做个称职的向导！\n要把的优点\n全部介绍给客人哦！。",
      "EUde": "Also, falls sich noch keiner als\nTouriführer gemeldet hat, ich kenne\nalle coolen Eckchen. Mein ja nur...",
      "EUen": "We gonna show 'em around?\nI wanna make sure they see all of\n's hot spots!",
      "EUes": "Espero que no me pidan señas para\nir a los sitios, porque siempre me\nlío con esas cosas.\nA lo mejor puedo poner un acento\nraro para que parezca que no soy\nde aquí. Ji, ji, ji...",
      "EUfr": "On va jouer les guides touristiques ?\nFaut laisser personne repartir sans\navoir vu les meilleurs coins de l'île !",
      "EUit": "Dobbiamo fare da guida nella nostra\nisola? Mi assicurerò che vedano\nil meglio di !",
      "EUnl": "Geven we een rondleiding? We\nmoeten de leukste plekken van\n laten zien!",
      "EUru": "Будем гостям окрестности\nпоказывать? Чтоб они ничего\nне пропустили! !",
      "JPja": "アンタ、ちゃーんと　案内してあげるんだよ！\nの　いいトコ、\n全部　見せてやりな！　",
      "KRko": "너! 손님 잘 안내해드려야 된다?\n의 좋은 점들을\n전부 보여주라구! !",
      "TWzh": "我說你，可要好～好地替客人帶路喔！\n把我們的優點\n全都讓客人看看吧！。",
      "USen": "We gonna show 'em around?\nI wanna make sure they see all of\n's hot spots!",
      "USes": "Ojalá no me pidan instrucciones\npara llegar a algún lugar, porque\nsoy pésima para eso.\nA lo mejor si hago un acento raro,\npensarán que no soy de aquí y así\nevito que me pregunten cosas.",
      "USfr": "On va jouer les guides touristiques?\nFaut laisser personne repartir sans\navoir vu les meilleurs coins de l'île!"
    }
  }
]