﻿[
  {
    "label": "001",
    "attribute": "0x0000000000000000",
    "locale": {
      "CNzh": "这，\n做得也太像真的了吧～！\n不知道能不能吃呢？好啦，开玩笑的！\n嗯？\n好像闻起来也像真的呢……\n唔～难道是我的错觉？。",
      "EUde": "!\nIs'  zum Essen? Riecht ja übelst\nnach Pilz. Am Ende  nur\nschon länger vor sich hin... Gahaha!",
      "EUen": "!\nIs...is that edible? I mean, I can even\nSMELL mushrooms. But maybe it's\njust been there awhile.",
      "EUes": "¿Tú crees que es de verdad\nest ?\n¿Y si le damos un mordisquito para\naveriguarlo? Pero hazlo tú, que yo\nno quiero quedarme sin dientes.",
      "EUfr": " !\nÇa r'ssemble à un champi et ça loufte\nle champi, mais... est-c'qu'on peut\nen faire une omelette ?",
      "EUit": "!\nÈ... è commestibile? Sento perfino\nl'ODORE di fungo. Ma forse è solo\nun oggetto un po'... stagionato!",
      "EUnl": "!\n... eetbaar? Ik ruik namelijk\nwel een echte paddenstoelenlucht.\nMaar goed, misschien  gewoon  beste tijd gehad...",
      "EUru": "!\nЕго... есть можно? Он даже пахнет\nгрибами. А может, это просто\nсырость?",
      "JPja": "この　、\nやたらと　リアルだよね～！\n食べられんのかな？　なんてね！\nおや？\nなんかニオイも　本物っぽいような・・・\nん～、気のせい？　",
      "KRko": ",\n진짜 같다～!!\n먹을 수 있으려나? ...농담이야!\n응?\n근데 냄새도 진짜 같은데...\n으음～ 착각인가... ?",
      "TWzh": "這個\n看起來超像真的～！\n不知道能不能吃？開玩笑的啦！\n哦？\n總覺得聞起來也很像真的……\n嗯～是我的錯覺嗎？。",
      "USen": "!\nIs...is that edible? I mean, I can even\nSMELL mushrooms. But maybe it's\njust been there awhile.",
      "USes": "¿Est  será de verdad, tú?\n¿Y si le damos un mordisquito para\naveriguarlo? Pero vas tú primero...",
      "USfr": "!\nÇa r'ssemble à un champi et ça sent\nl'champi, mais... est-c'qu'on peut\nen faire une omelette?"
    }
  },
  {
    "label": "002",
    "attribute": "0x0000000000000000",
    "locale": {
      "CNzh": "我倒是听说过，\n在非常寒冷的国家有用冰做的家具，\n没想到竟然能在这座上看到！\n我想在它化掉前亲身体验一下……\n啊！不过，我的触碰会让它融化吗？\n我到底该怎么做呢？！。",
      "EUde": " ?\nIm ? Was geht denn hier ab?\nWobei... Solang's cool aussieht,\nisses schon irgendwie cool, oder,\n(Floskel)? Gahaha!",
      "EUen": "?\nIn ?\nWhy not, as long as it looks cool?\nLooks cool! Get it, (catchphrase)?",
      "EUes": "Había visto en internet que se\npodían hacer muebles de hielo,\ny toda la movida...\n¡Pero ya cambia al ver en persona\n!\n¿Crees que se derretirá si l toco?\n¡Qué intriga, !",
      "EUfr": " ?\nAu  ?\nPourquoi pas... tant que ça glace\npas l'ambiance ! Eh ben, ma blague\nt'laisse froid ? Ha ha !",
      "EUit": "? In ?\nMolti lo troverebbero agghiacciante,\nma chi se ne importa? Io approvo!\nE agghiacciante sia, (catchphrase)!",
      "EUnl": "Op het internet heb ik weleens\nijsmeubels gezien, maar alleen\nin hele koude plaatsen!\n ... Kan ik  aanraken?   dan toch niet, ?!",
      "EUru": "?\nСейчас же .\nА что, свежее решение! У меня даже\nмурашки появились! (catchphrase)!",
      "JPja": "すんごく寒い国に　氷でできた家具がある\nってのは　聞いたコトあったけど、\nまさか　こので　お目にかかれるとはねぇ！\n解けちまう前に　ぜひ使ってみたいよ・・・\nあっでも、触ったら　解けちまう？\nウチは　どうしたらいいんだい？！　",
      "KRko": "엄청 추운 나라에서 얼음으로 가구를\n만들기도 한다는 얘기를 들어보긴 했는데\n설마 이 에서도 보게 될 줄이야!\n녹기 전에 꼭 한번 써보고 싶은데...\n앗! 근데 만지면 녹는 거 아냐?\n그럼 어떡해야 되지?! ?",
      "TWzh": "雖然我曾經聽說過，在非常寒冷的國家\n有著以冰塊製成的家具，\n但沒想到居然能在這座島上看到啊！\n我一定要在它融化之前試著用一次！……\n啊，不過我摸上去是不是會讓它融化？\n我到底該怎麼辦啊！？。",
      "USen": "?\nIn ?\nWhy not, as long as it looks cool?\nLooks cool! Get it, (catchphrase)?",
      "USes": "Había visto en internet que se\npodían hacer muebles de hielo,\ny así...\n¡Pero ver en vivo y a todo color\n es otro rollazo!\n¿Crees que se derrita si l toco?\n¡Qué nervios, (catchphrase)!",
      "USfr": "?\nAu ?\nPourquoi pas... tant que ça glace\npas l'ambiance! Eh ben, ma blague\nt'laisse froid? Ha ha!"
    }
  },
  {
    "label": "003",
    "attribute": "0x0000000000000000",
    "locale": {
      "CNzh": "这类家具，\n放在房间里就会让氛围显得很静谧。\n不禁让我想起了乡下的奶奶家……\n嘿嘿，不知道她最近过得好吗？。",
      "EUde": "Ommmmmmmmm! So \n is' echt voll chillig, findste nicht auch?\nErinnert mich irgendwie an die Bude\nvon meiner Oma... Die war echt voll\nim Nirgendwo, sach ich dir.\nDa wurden sogar die Bürgersteige\nschon mittags wieder hochgeklappt!",
      "EUen": "I get a cool, mellow-out vibe\nwhenever I get near .\nReminds me of my grandma's house.\nShe lived waaay out in the middle of\nnowhere. I miss that place.",
      "EUes": "Ya sabes que yo no soy tranquilita\nni nada que se le parezca...\n¡Pero siempre me relajo a saco\ncuando veo algo del rollo de\nest !\nCreo que me recuerda a mi infancia.\nO algo, no sé, .",
      "EUfr": "Rien d'plus relaxant que d'tomber\nsur  au beau milieu d'une balade.\nÇa m'fait penser à ma grand-mère...\nElle crèche dans un bled paumé, mais on s'y fend bien la poire.",
      "EUit": "Quando mi capita di vedere  mi viene sempre una strana nostalgia.\nMi torna in mente la casa di mia\nnonna. Abitava in un posto così\ntranquillo. Come mi manca...",
      "EUnl": "Wanneer ik in de buurt van  kom, ontstres ik gelijk.\n me denken aan het huis van\nmijn oma. Zij woonde echt in een gat.\nWeet je, soms mis ik haar enorm.",
      "EUru": "Когда я смотрю на этот\n, мне\nстановится так спокойно и уютно!\nВспоминаю беззаботное детство,\nдом моей бабушки где-то в деревне.\nВот бы сейчас там оказаться.",
      "JPja": "みたいのが\nひとつあると、落ち着いた雰囲気　出るよね\n田舎の　ばーちゃん家を　思い出すよ・・・\nへへっ、元気にしてるかな？　",
      "KRko": " 같은 게\n하나 있으면 분위기가 차분해져\n시골에 계신 할머니가 생각나...\n헤헷, 잘 지내고 계시겠지? ?",
      "TWzh": "像這種家具，\n只要放一個，就能製造出讓人放鬆的氛圍哩。\n讓我想起了鄉下的奶奶家……\n嘿嘿，不知道她過得好嗎？。",
      "USen": "I get a cool, mellow-out vibe\nwhenever I get near .\nReminds me of my grandma's house.\nShe lived waaay out in the middle of\nnowhere. I miss that place.",
      "USes": "Ya sabes que de tranquilita no tengo\nni un mísero pelo...\nPero no puedo evitar relajarme cada\nvez que veo algo del estilo de est\n...\nCreo que me recuerda a mi infancia.\nO a un anuncio de internet, no sé.",
      "USfr": "Rien d'plus relaxant que d'tomber\nsur  au beau milieu d'une balade.\nÇa m'fait penser à ma grand-mère...\nElle vit dans un p'tit village, mais on s'y amuse beaucoup!"
    }
  },
  {
    "label": "004",
    "attribute": "0x0000000000000000",
    "locale": {
      "CNzh": "这，\n引起了我的注意呢！\n那只是简单地把木头堆起来了而已吗？\n看起来一碰就会散架，所以我不敢去摸。\n你可以帮我确认一下吗？。",
      "EUde": "Mann, wie das abnervt!  hier stresst mich üüübelst!\nEcht, jedes Mal, wenn ich vorbeilauf,\nhab ich Bock, das Ding einfach mal\numzuhauen, (Floskel)! Bäm!",
      "EUen": "I can't take it anymore! Havin' \n around\njust makes me nervous!\nI just always feel like I'm gonna\nknock it over, (catchphrase)!",
      "EUes": "A ver, me está mosqueando bastante\nest ...\nEstá hech de bloques, ¿no?\nEntonces no se puede tocar,\nporque si no... ¡se descoyunta todo!\nHaz tú la prueba a ver qué pasa,\n¿sí, (catchphrase)?",
      "EUfr": "J'en peux plus ! Ça m'met les nerfs,\n planté là en plein milieu du ch'min !\nChaque fois que j'passe à côté,\nj'ai envie d'l renverser à grands\ncoups d'tatanes, (expression) !",
      "EUit": "Non ne posso più! Avere qui  mi rende troppo nervosa!\nHo sempre paura di far cadere giù tutto, (catchphrase)!",
      "EUnl": "Ik krijg de zenuwen van  , (catchphrase)!\nHet zijn gewoon een bende blokken,\ntoch? Ik ben altijd bang dat ik iets\nomverstoot!",
      "EUru": "Как же меня раздражает этот\n, прямо\nневозможно!\nКаждый раз боюсь его задеть\nи развалить. (catchphrase)!",
      "JPja": "この　、\nちょっと　気になってたんだよね\n木を　積んでるだけなのか　どうなのか？\n触ったら　くずれちまいそうで　触れないんだ\nアンタ、確かめてくんない？　",
      "KRko": ",\n계속 신경 쓰였는데...\n나무를 그냥 쌓아 놓은 것 같단 말이지\n만졌다가 무너질까 봐 손을 못 대겠어\n네가 대신 좀 만져볼래? ?",
      "TWzh": "這個\n讓人好在意啊……\n到底是不是單純把積木堆在一起咧？\n感覺好像一碰就會垮掉，我不敢亂來。\n你可以替我確認一下嗎？。",
      "USen": "I can't take it anymore! Havin' \n around\njust makes me nervous!\nI just always feel like I'm gonna\nknock it over, (catchphrase)!",
      "USes": "Est  me recuerda tanto a mi infancia...\nLo recuerdo como si fuera ayer...\nSiempre que veía una edificación\nhecha por mis amiguitos, me entraba\nuna necesidad por destruirla...\nEl sonido glorioso de los bloques\ncayendo al piso... es música para\nmis oídos, (catchphrase).\nPero no te preocupes por tu , esos días quedaron atrás.",
      "USfr": "J'en peux plus! Ça m'met les nerfs,\n planté là en plein milieu du ch'min!\nChaque fois que j'passe à côté,\nj'ai envie d'l renverser à grands\ncoups d'gougounes, (expression)!"
    }
  },
  {
    "label": "005",
    "attribute": "0x0000000000000000",
    "locale": {
      "CNzh": "这，\n看起来有些年代了呢……\n把它这样放在外面，没问题吗？\n好吧，看起来没有什么损坏，应该没事吧！\n说来，是应该小心对待它的，\n毕竟它已经上年纪了！。",
      "EUde": " ?\nAuweia... Is' das okay, wenn \ndraußen so rumsteht, (Floskel)? \nSieht schon krass antik und so aus.",
      "EUen": "?\nDo you think it's gonna be alright\nwhere it is, (catchphrase)? It looks\nreally old!",
      "EUes": "Pero ¿tú has visto? ¡Qué viejunidad\nde !\nAnda que ponerl a la intemperie...\nComo se estropee, ¡a mí que me\nregistren, !",
      "EUfr": " ?\nJ'espère qu' va pas attraper froid, c'est qu' est plus tout jeune,\n(expression) !",
      "EUit": "?\nCredi che sia OK  dov'è,\n(catchphrase)? Sembra davvero\nmolto !",
      "EUnl": "?\nDenk je dat het oké is om  hier buiten te laten, (catchphrase)?  er zo oud uit.",
      "EUru": "?\nНичего, что он просто так стоит?\nАнтиквариат все же! (catchphrase)!",
      "JPja": "この　、\nけっこう　古そうなモンに見えるけど・・・\n外に出しといて　平気なのかい？\nまっ　傷んでる様子もないし　大丈夫か！\nつっても　大事にしてやらなきゃな\n物とはいえ、年寄りなんだから！　",
      "KRko": ",\n꽤 오래된 물건 같은데...\n밖에 둬도 괜찮은 건가?\n뭐 멀쩡해 보이니 괜찮겠지?\n그래도 조심조심 다뤄야겠어\n물건이라도 어르신이니까 말야! !",
      "TWzh": "這個\n看起來已經很舊了……\n像這樣放在外面沒問題嗎？\n嗯，反正看起來沒有壞掉，應該沒問題吧！\n不過還是得小心對待它喔，\n畢竟這東西已經是個老人家哩！。",
      "USen": "?\nDo you think it's gonna be alright\nwhere it is, (catchphrase)? It looks\nreally old!",
      "USes": "¡Est  sí que está bien añej!\n¿No debería de estar en un museo?\nPor aquello de que l preserven bien\ny toda la cosa, digo yo...\nQue conste que yo ya dije... si le\npasa algo por estar en la intemperie,\na mí ni me vean, ¿eh?",
      "USfr": "?\nJ'espère qu' va pas attraper froid, c'est qu' est plus tout jeune,\n(expression)!"
    }
  },
  {
    "label": "006",
    "attribute": "0x0000000000000000",
    "locale": {
      "CNzh": "在这里摆，\n是要弄一个室外课堂吗？\n那我要来当老师！\n我可是很严厉的哦！。",
      "EUde": "Was issen dat? Will hier irgendwer so\n'ne Waldschule gründen, (Floskel)?\nIch   hab in\nmeiner Gang schon alles gelernt.\nSchule hab ich nötig wie Zahnstein!",
      "EUen": "What's this? Is someone trying to\nset up an outdoor school here or\nsomething, (catchphrase)?\nWell, you can't teach an old\n new tricks, so count\nme out!",
      "EUes": "¿Qué porras hará por aquí\nest ?\nNo me puedo creer que a alguien\nle haya picado el gusanillo de\nestudiar al aire libre, tú.\n¡Anda que no habrá cosas más\nflipantes que hacer en la isla,\n!",
      "EUfr": "C'est quoi, c'délire ? Un projet\nd'bahut en plein air ou quoi,\n(expression) ?\nÉtudier sous la pluie... Faut vraiment\navoir soif de connaissances, ha ha !",
      "EUit": "Che succede? Qualcuno sta\ncercando di costruire una scuola\nall'aria aperta?\nBeh, a   non piace\nimparare cose nuove. Adesso lo sai,\n(catchphrase)!",
      "EUnl": "Wat krijgen we nou? Wil iemand\nhier soms een soort buitenschool\nbeginnen, (catchphrase)?\n  is uitgeleerd, dus mij zul je mooi niet in de schoolbanken terugzien!",
      "EUru": "Что это? Здесь кто-то решил\nлесную школу, что ли, открыть?\n(catchphrase)!\nСтарую  новым\nфокусам не научишь, так что\nя — пас.",
      "JPja": "こんなトコに、？\n青空教室でも　やるのかねぇ\nそんならウチが　先生役になって\nビシバシ　熱血指導してやるよ！　",
      "KRko": "바깥에 ?\n야외 수업이라도 있나?\n그렇다면 내가 나서서 열정적으로\n학생들을 가르쳐줘야겠구만! !",
      "TWzh": "在這裡放？\n是要辦個露天學堂嗎？\n那我就來當老師，\n進行熱血教學好啦！。",
      "USen": "What's this? Is someone trying to\nset up an outdoor school here or\nsomething, (catchphrase)?\nWell, you can't teach an old\n new tricks, so count\nme out!",
      "USes": "¿Qué estará haciendo aquí est ?\nNo puedo creer que a alguien\nle hayan dado ganas de estudiar\nal aire libre, tú... o estudiar.\n¡Habiendo tantas cosas que hacer\nen una isla tan chévere! Que alguien\nme explique...",
      "USfr": "C'est quoi, c'délire? Un projet\nd'école en plein air ou quoi,\n(expression)?\nÉtudier sous la pluie... Faut vraiment\navoir soif de connaissances, ha ha!"
    }
  },
  {
    "label": "007",
    "attribute": "0x0000000000000000",
    "locale": {
      "CNzh": "对了对了！既然生活在岛上，\n怎么能少了\n这样的家具呢！\n毕竟，只要摆上这类物品，\n就能一下子营造出度假村的氛围！。",
      "EUde": "Wenn wir eh schon auf 'ner Insel\nwohnen, kann man sie ruhig auch\nzu 'nem krassen Resort aufpimpen!\nKeinen Plan, wer hier   abgestellt hat, aber... stabile Idee!",
      "EUen": "Well, we ARE living on an island.\nMay as well make it a fancy, resort-y\none, (catchphrase)! Bwa ha ha!\nIt's easy. Just slam down \n,\nand you're halfway there!",
      "EUes": "¡Qué idea más temática poner aquí\n!\nMe gusta la peña que aprovecha\nal máximo esto de vivir en una\nisla, .",
      "EUfr": "Moi, j'dis : si déjà, on crèche sur\nune île, autant pousser l'concept\njusqu'au bout, (expression) !\nAlors , j'sais pas qui l'a , mais j'l'applaudis !",
      "EUit": "Beh, visto che siamo su un'isola,\nnon è male puntare allo stile villaggio vacanze, (catchphrase)! AH AH AH!\nEhi! Non so chi ha messo  qui, ma secondo me è un grande!",
      "EUnl": "We zijn al op een eiland, dus waarom\nzou je ook niet voor een vakantiestijl\ngaan, (catchphrase)?! Haaahaha!\nSerieus! Wie hier  heeft geplaatst, snapt het eilandleven!",
      "EUru": "Ну, мы же на острове. Почему бы не\nпревратить его в модный курорт?\n(catchphrase)! А-ха-ха!\nА что! \nотлично здесь смотрится, можно\nдаже еще парочку поставить.",
      "JPja": "そうそう、せっかく島で暮らすんなら\nみたいなのは\n欠かせないよね！\nこういうのは　置いとくだけで、一気に\nリゾート感が出るんだからさ！　",
      "KRko": "그래! 기껏 섬에서 사는데\n처럼\n리조트 분위기를 내주는 게 있어야지!\n딱 갖다 놓기만 해도\n리조트 분위기가 물씬 풍기잖냐!",
      "TWzh": "沒錯沒錯，既然我們都住在島上了，\n像這種家具，\n可是不可或缺的喔！\n只要一擺出那個，就會馬上\n變得很有度假氛圍啊！。",
      "USen": "Well, we ARE living on an island.\nMay as well make it a fancy, resort-y\none, (catchphrase)! Bwa ha ha!\nIt's easy. Just slam down \n,\nand you're halfway there!",
      "USes": "¡Qué idea tan temática poner aquí\n!\nMe gusta que los compis aprovechen\nal máximo esto de vivir en una isla,\n(catchphrase).",
      "USfr": "Moi, j'dis : si déjà, on habite sur\nune île, autant pousser l'concept\njusqu'au bout, (expression)!\nAlors , j'sais pas qui l'a , mais j'l'applaudis!"
    }
  },
  {
    "label": "008",
    "attribute": "0x0000000000000000",
    "locale": {
      "CNzh": "这，\n到底是谁摆的？\n在有风吹拂的地方办公\n或许是个不错的选择……\n但比起工作，我还是更想玩啊！。",
      "EUde": "Häh?! Welche Luftpumpe stellt'n hier\n  hin, (Floskel)?\nBei allem, was hier draußen so\nabgeht, kommste doch eh nie zum\nArbeiten! Also ich check's nich'...",
      "EUen": "Who do you think put \n out\nhere, (catchphrase)?\nI get wanting to feel the breeze while\nyou work, but...how much work are\nthey expecting to actually do here?",
      "EUes": "¿A quién se le habrá ocurrido\nla brillantísima idea de poner aquí\n?\nTrabajar al aire libre es lo peor, tú.\n¡Hay millones de cosas que podrían\ndistraerte, !",
      "EUfr": " à l'extérieur ? Vive le boulot au grand air, (expression) !\nÇa peut être sympa, mais en hiver,\nvas-y pour taper au clavier avec des\nmoufles, (expression) !",
      "EUit": "Chi pensi che abbia messo  qui fuori?\nÈ bello lavorare in mezzo al verde...\nma non dev'essere per niente facile\nconcentrarsi, (catchphrase)!",
      "EUnl": "Wie denk je dat hier  heeft neergezet, (catchphrase)?\nIk snap dat je niet wilt verpieteren\nin een muf kantoor... maar zou je\nbuiten nou veel gedaan krijgen?",
      "EUru": "И кто сюда додумался\n\nпоставить? (catchphrase)!\nЯ все понимаю, приятно работать на\nсвежем воздухе и все такое, но...\nкак здесь сосредоточиться?",
      "JPja": "この　、\n一体　誰が置いたんだろ？\n風を感じながら　仕事するってのは\n案外　悪くないかもだけど・・・\nやっぱウチは　仕事より遊びかな？　",
      "KRko": ",\n대체 누가 가져다 놓은 거지?\n바람을 느끼면서 일하는 것도\n의외로 괜찮을 것 같긴 하지만...\n역시 난 일보다 노는 게 좋아! !",
      "TWzh": "這個\n到底是誰放的咧？\n在工作時感受自然微風吹過臉頰，\n或許還不賴……\n不過比起工作，我還是更想玩！。",
      "USen": "Who do you think put \n out\nhere, (catchphrase)?\nI get wanting to feel the breeze while\nyou work, but...how much work are\nthey expecting to actually do here?",
      "USes": "¿A quién se le habrá ocurrido\nla brillantísima idea de poner aquí\n?\nTrabajar al aire libre es lo peor, tú.\n¡Hay millones de cosas que podrían\ndistraerte, !",
      "USfr": " à l'extérieur? Vive le travail au grand air, (expression)!\nÇa peut être sympa, mais en hiver,\nvas-y pour taper au clavier avec des\nmitaines, (expression)!"
    }
  },
  {
    "label": "009",
    "attribute": "0x0000000000000000",
    "locale": {
      "CNzh": "一、二、三……\n看着这，\n我总是会忍不住数起\n上面的年轮有几圈。。",
      "EUde": "Was meinste, Gänseblümchen?\nWenn man so Baumstamm-Möbel\nlänger draußen rumliegen lässt...\nVerwandeln die sich dann wieder\nzurück in 'nen Baum, (Floskel)?\nDas wär echt abgefahren!",
      "EUen": "Think if you leave log furniture out\nhere long enough, it'll turn back into\na tree, (catchphrase)?",
      "EUes": "¡Oye! ¿A que no sabes qué le dice\n a otr?\n«¡Qué pasa, tronc!»\n¿Lo pillas? ¡Ji, ji, ji!",
      "EUfr": "Tu crois que si tu laisses des objets\nen bois à l'extérieur... au bout d'un\nmoment, on en a toute une forêt ?",
      "EUit": "Se lasci dei mobili fatti con i tronchi\nall'aperto abbastanza a lungo,\npotrebbero ritrasformarsi in alberi!",
      "EUnl": "Denk je dat als je houten meubels\nmaar lang genoeg buiten laat, ze\nweer bomen worden, (catchphrase)?",
      "EUru": "Если эта бревенчатая мебель здесь\nдолго простоит, она же прорастет?\nИ станет деревом? (catchphrase)!",
      "JPja": "いち、に、さん・・・\nみたいなのを\n見てるとさ、ついつい　年輪を\n数えたくなっちゃうんだよね、",
      "KRko": "하나, 둘, 셋...\n 같은 걸\n보면 무심코 나이테가 몇 개인지\n세보고 싶어지더라, !",
      "TWzh": "1、2、3……\n只要看到\n這一類家具，就會忍不住\n去數它的年輪呢，。",
      "USen": "Think if you leave log furniture out\nhere long enough, it'll turn back into\na tree, (catchphrase)?",
      "USes": "¿Qué le dijo  a otr ?\n\"¡Se ve que tienes madera!\"\n¿Entendiste?",
      "USfr": "Tu crois que si tu laisses des objets\nen bois à l'extérieur... au bout d'un\nmoment, on en a toute une forêt?"
    }
  },
  {
    "label": "010",
    "attribute": "0x0000000000000000",
    "locale": {
      "CNzh": "啊……\n我对这种风格……\n也、也算不上讨厌吧！\n没错，是很可爱，\n但总觉得不适合我。。",
      "EUde": "?\nBoah nee, ich weiß ja nich'...\nIch mein, das is' voll süß und so.\nSo 'n Zeug is' höchstens was für die\nolle Tulpentruppe, (Floskel)!",
      "EUen": "?\nYeah, I don't know...\nI mean, it's definitely cute, but it's\njust not my style, (catchphrase).",
      "EUes": "¿?\nA ver, yo no me meto en los gustos\nde nadie, pero... no va conmigo ni\nde palo, .",
      "EUfr": " ?\nHmm... c'est mignon, mais c'est pas\nma tasse de .",
      "EUit": "? Mah, non saprei...\nÈ senza dubbio un oggetto carino,\nma non è il mio stile, (catchphrase).",
      "EUnl": "? Tja, wat kan ik hier nou over zeggen...\nIk bedoel, ja,  schattig, maar\necht niet mijn stijl, (catchphrase).",
      "EUru": "?\nНе знаю, не знаю...\nОчень мило, просто совсем не мой\nстиль. (catchphrase)!",
      "JPja": "かー\nウチは　こーいうのは　ちょっとね・・・\nべっ、べつに　キライなんじゃないよ？\nカワイイけど、ウチには　似合わないだろーな\nって　思っただけさ、",
      "KRko": "...\n난 솔직히 좀...\n시, 싫은 건 아니고!\n귀엽기는 하지만 나한테는 좀\n안 어울릴 것 같아서 그래! !",
      "TWzh": "啊……\n這種風格對我說有點……\n也、也不是討厭啦，\n只是覺得雖然很可愛，\n但應該不適合我而已，。",
      "USen": "?\nYeah, I don't know...\nI mean, it's definitely cute, but it's\njust not my style, (catchphrase).",
      "USes": "¿?\nA ver, yo no me meto en los gustos\nde nadie, pero... este estilo no me\nqueda ni de chiste, (catchphrase).",
      "USfr": "?\nHmm... c'est mignon, mais c'est pas\nma tasse de ⁠."
    }
  },
  {
    "label": "011",
    "attribute": "0x0000000000000000",
    "locale": {
      "CNzh": "这\n确实很可爱……\n但是看着看着，\n口水就忍不住流出来了……呲溜……",
      "EUde": "Alter Falter! Wenn ich \n sehe, will ich einfach reinbeißen...\nJetzt glotz mich nich' an wie 'n Auto,\nklar weiß ich, dass das nich' echt ist. Sieht halt nur echt megalecker aus!",
      "EUen": "I can't help it. Whenever I see \n I just...\nwanna take a bite!\nHey, I know it's not real! But it\nlooks so juicy, (catchphrase)!",
      "EUes": "¡Qué pinta más apetecible tiene\nest !\nSí, ya sé que no se puede comer,\n¡pero déjame soñar, !",
      "EUfr": "C'est plus fort que moi, dès qu'j'vois\n, j'ai envie d'mordre dedans !\nÇa va, j'sais bien qu'c'est pas un vrai fruit ! Mais j'y peux rien,  a l'air\ntellement juteu, (expression) !",
      "EUit": "Non resisto! Ogni volta che vedo ... vorrei mangiarmene un po'!\nEhi, lo so che non è , ma ha un\naspetto così succoso, (catchphrase)!",
      "EUnl": "Kanonnen. Wat   er lekker uit... Ik wil gewoon een hapje nemen!\nHé, natuurlijk weet ik dat ! Misschien moet ik maar wat eten, (catchphrase)...",
      "EUru": "Прямо не могу удержаться. Вижу\n и... так\nи хочется откусить кусочек!\nДа знаю, знаю, что не настоящие\nфрукты. Все равно аппетитно\nвыглядят. (catchphrase)!",
      "JPja": "この　、\nカワイイんだけどさぁ・・・\n見てると　その、\nツバが出てくるな・・・　じゅるっ",
      "KRko": ",\n귀엽긴 한데...\n보고 있으니까... 그...\n침이 좀... 나오네... 주르륵",
      "TWzh": "這個\n雖然很可愛……\n不過看著看著\n就會流口水呢……吸溜。",
      "USen": "I can't help it. Whenever I see \n I just...\nwanna take a bite!\nHey, I know it's not real! But it\nlooks so juicy, (catchphrase)!",
      "USes": "¡Est  se ve muy apetitos!\nSí, ya sé que no se puede comer,\npero se vale soñar, ¿qué no?",
      "USfr": "C'est plus fort que moi, dès qu'j'vois\n, j'ai envie d'mordre dedans!\nÇa va, j'sais bien qu'c'est pas un vrai fruit! Mais j'y peux rien,  a l'air\ntellement juteu, (expression)!"
    }
  },
  {
    "label": "012",
    "attribute": "0x0000000000000000",
    "locale": {
      "CNzh": "\n看起来好酷啊～！\n那充满生机的颜色，外加复古的款式……\n完全符合我的喜好呢！。",
      "EUde": " ?!\nAlter Verwalter!\nMegamäßig retro, das Teil... Das is'\nso was von verschärft, (Floskel)!",
      "EUen": "!\nThat rocks!\nThe big colors, the retro vibe... Yeah,\nthis is awesome, (catchphrase)!",
      "EUes": "¿Tú has visto qué alucine de\n?\nEsos colores, ese rollo viejuno...\nSuelo ser de movidas más modernas,\n¡pero ese chisme lo peta mucho!",
      "EUfr": " !\nJe kiffe !\nLes couleurs qui en jettent, la p'tite\ntouche nostalgique qui va bien...\nC'est d'la balle, (expression) !",
      "EUit": "! Che meraviglia!\nI colori brillanti, l'atmosfera rétro... Sì, davvero eccezionale, (catchphrase)!",
      "EUnl": "! Zo chill!\nDe gewaagde kleuren, de retrostijl...\nJa, he-le-maal top, (catchphrase)!",
      "EUru": "!\nКруто!\nЯркие цвета, стиль ретро...\nОбожаю это все! (catchphrase)!",
      "JPja": "って\nイカしてるよね～！\nこのビビッドな色と　レトロな雰囲気・・・\nウチの好みに　ドンピシャだよ！　",
      "KRko": ",\n멋지지 않냐?\n선명한 색감과 복고풍 분위기...\n내 취향에 딱 들어맞아! !",
      "TWzh": "說到啊，\n真的很酷耶～！\n這活潑的用色，配上復古的氛圍……\n完全命中我的喜好喔！。",
      "USen": "!\nThat rocks!\nThe big colors, the retro vibe... Yeah,\nthis is awesome, (catchphrase)!",
      "USes": "¿Ya viste qué barbaridad de\n?\nLos colores, la ondita retro...\nEn general me gusta más lo actual,\n¡pero esto está chévere!",
      "USfr": "! J'adore!\nLes couleurs si jolies, la p'tite\ntouche nostalgique qui va bien...\nC'est magnifique, (expression)!"
    }
  },
  {
    "label": "013",
    "attribute": "0x0000000000000000",
    "locale": {
      "CNzh": "这\n真是充满了童趣呢！\n一看到它，过来玩的客人\n也会觉得\n是个有趣的地方吧！。",
      "EUde": "Meeeeeega!\nSo   ist echt voll verschärft!\nEin Blick drauf und ich muss sofort\nlospogen!  rockt manchmal schon derb, (Floskel)!",
      "EUen": "I can't tell you how much seeing\n\nboosts my day!\nOne glance and it hits me all over\nagain just how much FUN I'm having\non , (catchphrase)!",
      "EUes": "Pues nada, ¡me acaba de alegrar el día est !\nCon algo así por , no cabe duda de que en esta isla sabemos divertirnos a saco, tú.",
      "EUfr": "Suffit que j'pose les mirettes sur\n, et ça m'file la pêche pour la journée !\nÇa rappelle à tous les passants qu'à\n, on sait s'fendre la poire, (expression) !",
      "EUit": "Ogni volta che vedo  mi torna subito il buonumore!\nMi basta uno sguardo per ricordarmi\nquanto è divertente la vita qui\n , (catchphrase)!",
      "EUnl": " zien maakt echt mijn dag!\nEén blik en ik realiseer me meteen\nhoe erg ik het naar mijn zin heb op\n, (catchphrase)!",
      "EUru": "Как же я люблю разглядывать\n!\nСразу настроение поднимается!\nВсе-таки здорово у нас на острове\n! (catchphrase)!",
      "JPja": "は、\nまさに　遊び心のカタマリだねぇ！\nコレを置いとけば　お客さんも、\nが　楽しいトコだって\nひと目で　わかるだろうさ！　",
      "KRko": "은\n정말 동심의 결정체인 것 같아!\n아마 놀러온 손님들도\n이 얼마나\n즐거운 곳인지 한눈에 알 거야! !",
      "TWzh": "\n完全就是童心的結晶咧！\n只要放著這個家具，\n來訪的客人就都可以一眼看出\n是樂土了！。",
      "USen": "I can't tell you how much seeing\n\nboosts my day!\nOne glance and it hits me all over\nagain just how much FUN I'm having\non , (catchphrase)!",
      "USes": "¡Me acaba de alegrar el día est !\nEn  sabemos cómo\ndivertirnos, ¡claro que sí, cómo de\nque no!",
      "USfr": "Suffit que j'pose les yeux sur\n, et j'ai de l'énergie pour la journée!\nÇa rappelle à tous les passants qu'à\n, on sait bien s'amuser, (expression)!"
    }
  },
  {
    "label": "014",
    "attribute": "0x0000000000000000",
    "locale": {
      "CNzh": "这是用真的贝壳做出来的吗？\n好漂亮啊～\n要小心一些，\n别把它碰坏了……。",
      "EUde": "Sind das echte Muscheln? Will ja nix\nkaputtmachen, weil... ich bin ja eher\nEine fürs Grobe, (Floskel).",
      "EUen": "Is this made of real shells? 'Cause I\ndon't wanna break it, but...I also\nkeep bumping into it, (catchphrase).",
      "EUes": "Oye, ¡qué pasada me parece\nest !\nMenudo trabajazo hacer algo así\ncon conchas, ¿no?\nTendré que ir con cuidado para no\nchocarme con  y cargármel\nsin querer, .",
      "EUfr": "C'est des vrais coquillages ?\nParc'que j'm'en voudrais d'les fiche\nen l'air à force de foncer dans c'truc.",
      "EUit": "Sono conchiglie vere? Non vorrei\ndistruggere nulla, ma... sembrano\ndavvero molto fragili, (catchphrase).",
      "EUnl": " gemaakt van echte schelpen?\nIk wil  namelijk echt niet\nstukmaken... maar ik blijf er maar\ntegenaan stoten, (catchphrase).",
      "EUru": "Это из настоящих ракушек? Они\nтакие хрупкие... боюсь их\nполомать. (catchphrase)!",
      "JPja": "コレって　本物の貝がらで　できてんの？\nキレイなもんだね～\nうっかり　ぶつかって　割っちまわないように\n気をつけないと・・・、",
      "KRko": "설마 진짜 조개껍데기로 만들어진 건가?\n참 예쁘구만～\n실수로 부딪혀서 깨지지 않게\n조심조심 다녀야겠어... !",
      "TWzh": "這是用真正的貝殼製作的嗎？\n真漂亮哩～\n我得注意別不小心撞上去，\n把它弄壞了……。",
      "USen": "Is this made of real shells? 'Cause I\ndon't wanna break it, but...I also\nkeep bumping into it, (catchphrase).",
      "USes": "Oye, ¡qué chévere está est !\nMe canso de solo pensar en el\ntrabajal que habrá sido hacerl...\nPrometo hacer todo lo posible por no\nir a estamparme en  y destrozarl\nsin querer, (catchphrase).",
      "USfr": "C'est des vrais coquillages?\nParc'que j'm'en voudrais d'les briser\nà force de foncer dans c'truc."
    }
  },
  {
    "label": "015",
    "attribute": "0x0000000000000000",
    "locale": {
      "CNzh": "这，\n看起来好酷啊！\n既有木材的温和感，又有铁的冷硬感，\n这样结合了两种特性的时尚家具，\n非常适合稳重成熟的大人……\n……我看到杂志上是这么写的哦！。",
      "EUde": "Hammer! Das is' ja \n! Fett!\nDieser warme Grundton des Holzes,\ndem die metallene Komponente ein\nmodernes Flair verleiht...\nÖh... das hab ich in so 'nem Heft\nbeim Friseur gelesen. So krass bin\nich möbelmäßig ja nich' unterwegs!",
      "EUen": "Oh, wow! That is a classy\n! Nice!\nI love how warm the wood feels, and\nyet the metal gives it a cool modern\nvibe, (catchphrase).\nI, uh...saw that in a magazine. I'm\nnot THAT up on furniture!",
      "EUes": "¡Buah, qué chulada de !\n¿No te flipa cómo se combinan\nel hierro y la madera?\n¡Menuda fusión, !\nEn el fondo es como... la fusión\nde mi lado tierno con mi lado\nmás alocado, ¿no te parece?",
      "EUfr": "sublime , ça fait on ne peut plus sophistiqué !\nLe bois lui confère une certaine\nchaleur, tandis que le métal apporte\nune touche moderne, (expression).\nHa ha, j'ai lu ça dans un magazine,\ntu m'as prise pour une pro d'la\ncritique de meubles, ou quoi ?",
      "EUit": "Oh, uau! Guarda guarda! Ecco qua  di gran classe! Niente male!\nIl legno conferisce calore e il metallo\ndà all'oggetto un'aria così moderna,\n(catchphrase).\nL'ho, uhm... letto in una rivista.\nNon è farina del mio sacco, ovvio!",
      "EUnl": "Joh! Dat   ! Tof, hoor!\nDe warmte van het hout contrasteert\nmooi met het moderne van het ijzer,\n(catchphrase).\nEh... Dat heb ik in een blaadje bij de\ntandarts gelezen. Interieurontwerp\nis he-le-maal niet zo mijn ding!",
      "EUru": "Ух ты! Как благородно смотрится\n! Супер!\nЭто сочетание теплого дерева\nи холодного металла — это так\nсовременно! (catchphrase)!\nЭто я... в журнале прочитала. Я не\nтакая продвинутая в плане дизайна.",
      "JPja": "この　、\nイカしてるよね！\n木材の温かみと　アイアンのクールさ、\nその両方を　あわせ持つ　モダンな家具は\nバランスの取れたオトナに　よく似合う・・・\n・・・って　雑誌に書いてあったよ、",
      "KRko": ",\n멋지지 않냐?\n목재의 따뜻한 느낌과 철의 시크함이\n잘 어우러진 모던 스타일 가구는\n지성을 갖춘 어른에게 잘 어울리지...\n...라고 잡지에서 그러더라! !",
      "TWzh": "這個\n真的很酷，對吧！\n具有木材的溫暖，又同時擁有鋼鐵的帥氣。\n這種摩登的家具，\n非常適合身心靈平衡的成熟大人……\n……嗯，雜誌上是這麼寫的，。",
      "USen": "Oh, wow! That is a classy\n! Nice!\nI love how warm the wood feels, and\nyet the metal gives it a cool modern\nvibe, (catchphrase).\nI, uh...saw that in a magazine. I'm\nnot THAT up on furniture!",
      "USes": "¡Qué locohón! ¡Qué barbaridad de\n!\nQuién iba a pensar que el hierro\ny la madera combinaran tan bien,\n(catchphrase).\n¡Es como combinar mi lado rudo con\nmi lado fiestero!",
      "USfr": "sublime , ça fait on ne peut plus sophistiqué!\nLe bois lui confère une certaine\nchaleur, tandis que le métal apporte\nune touche moderne, (expression).\nHa ha, j'ai lu ça dans un magazine,\ntu m'as prise pour une pro d'la\ncritique de meubles, ou quoi?"
    }
  },
  {
    "label": "017",
    "attribute": "0x0000000000000000",
    "locale": {
      "CNzh": "用这样的\n来装饰室外，\n感觉整座岛都明艳起来了，真好！\n虽然看起来花俏，但是不会过分凌乱，\n是很好的点缀，\n我并不讨厌哦！。",
      "EUde": "?\nMeinste, da schlüpft was aus, wenn\nich meinen Po lange genug drauf\nparke, (Floskel)? Gahaha!",
      "EUen": "If I sat long enough...could I make\n\nhatch, (catchphrase)?",
      "EUes": "Oye, ¡flipo con que aquí haya\n!\nParece una movida normalita del\ntodo, ¡pero caldea el ambiente de\nla isla una cosa loca!",
      "EUfr": " ?\nDis, tu crois que si j'me pose dessus\nassez longtemps,  va éclore,\n(expression) ? Ha ha ha !",
      "EUit": "?\nEhi, se mi ci siedo sopra abbastanza\na lungo, forse potrebbe succedere\nqualcosa. Chissà, .",
      "EUnl": "?\nHé, denk je dat als ik er lang genoeg\nop ga zitten, er ,\n(catchphrase)? Haaahaha!",
      "EUru": "О, ?\nИнтересно, что-нибудь вылупится?\n(catchphrase)! А-ха-ха!",
      "JPja": "みたいなのが\n外に飾ってあると、なんか\n島全体が　陽気な感じになって　いいねぇ\n見た目がハデなわりに　うるさすぎないし、\nいいアクセントに　なってると思うんだ\nウチは　キライじゃないよ、",
      "KRko": "이\n밖에 놓여 있으니까\n섬 전체가 밝아보이고 좋은데?\n화려하지만 요란하지 않고\n좋은 포인트가 되고 있어\n난 마음에 들어, ",
      "TWzh": "只要把\n這類的東西擺放在室外，\n整座島的氣氛都會活潑起來呢。\n很有存在感，卻又不會太誇張，\n是個很好的裝飾品。\n我可不討厭這種的喔，。",
      "USen": "If I sat long enough...could I make\n\nhatch, (catchphrase)?",
      "USes": "Oye, ¡me desparramo de la emoción\nde que aquí haya !\nEsto no parece algo muy normal\ndigo yo... Me pregunto si debería\nsentarme a empollarlo.",
      "USfr": "?\nDis-moi, tu crois que si j'me pose\ndessus assez longtemps,  va éclore,\n(expression)? Ha ha ha!"
    }
  },
  {
    "label": "018",
    "attribute": "0x0000000000000000",
    "locale": {
      "CNzh": "这里的，\n是谁放着的呢？\n竟然能将从父母那儿得来的手工制品\n完全融入上的风景之中，\n这人的审美品位可真高啊。。",
      "EUde": "Jedes Mal, wenn ich so   seh, krieg ich voll den Nostalgie-Flash!\nHatte damals, als ich noch 'n ganz\nkleiner Stöpsel war, 'ne Kumpeline,\nmit der war ich voll dicke.\nKann mich noch gut dran erinnern,\ndass die auch so   hatte.\nIch glaub, ich ruf die olle Nudel\nnachher mal an und frag, wie's ihr\nso geht, (Floskel)...",
      "EUen": "I get kinda nostalgic whenever I see\n.\nI think it's 'cause when I was little,\nthere was this one friend who had\n.\nWow! I haven't thought about that\nin years. Wonder what she's up\nto these days, (catchphrase)...",
      "EUes": "Buf, me ha entrado así como una\nespecie de nostalgia rara al ver\nest .\nMe recuerda a cuando era pequeña\ny movidas así. ¡Qué corte, !",
      "EUfr": "Ça m'rend nostalgique de tomber sur\n.\nParc'qu'en fait, quand j'étais môme,\nj'avais une super pote qui avait\n.\nOuah ! Ça fait des années qu'j'ai plus\npensé à ça. J'me demande comment\nelle va, (expression)...",
      "EUit": "Non è da me, lo so. Ma quando vedo  mi prende un po' di nostalgia.\nCredo sia perché alle elementari\nuna mia compagna di classe aveva\n.\nOh, beh! Erano anni che non\npensavo a lei. Chissà che fine ha\nfatto, ...",
      "EUnl": "Wanneer ik  zie, verlang ik terug naar vroeger.\nAls kleine ukkepuk had ik namelijk een maatje met .\nJoh! Ik heb echt jaren niet meer aan\nhaar gedacht. Hoe zal het met haar\ngaan, (catchphrase)?",
      "EUru": "На меня нападает ностальгия при\nвиде .\nНаверное, потому что в детстве\nу одной моей подружки был\n.\nУх ты! Я уже давно про это забыла.\nИнтересно, чем она сейчас\nзанимается... ...",
      "JPja": "そこの　って\n誰が置いたんだろ？\n親からもらった　手作りアイテムを\nの風景に　とけ込ませるだなんて\nすさまじいセンスの　持ち主だよ、",
      "KRko": "거기 있는\n은\n누가 갖다 놓은 걸까?\n부모한테 받은 수제 아이템을\n의 풍경에 녹아들게 하다니\n굉장한 센스의 소유자야, ",
      "TWzh": "那邊的\n是誰放的啊？\n想必是有著超凡品味的人喔。\n竟然能將父母給的手工製品，\n完美地融入這座島的風景裡，。",
      "USen": "I get kinda nostalgic whenever I see\n.\nI think it's 'cause when I was little,\nthere was this one friend who had\n.\nWow! I haven't thought about that\nin years. Wonder what she's up\nto these days, (catchphrase)...",
      "USes": "Osh, me entró algo así como una\nespecie de nostalgia rara al ver\nest .\nMe recuerda a cuando era renacuaja. ¡Qué loco, tú!",
      "USfr": "Ça m'rend nostalgique de tomber sur\n.\nParc'qu'en fait, quand j'étais p'tite,\nj'avais une super amie qui avait\n.\nOuah! Ça fait des années qu'j'ai plus\npensé à ça. J'me demande comment\nelle va, (expression)..."
    }
  },
  {
    "label": "019",
    "attribute": "0x0000000000000000",
    "locale": {
      "CNzh": "真好啊，！\n感觉满载着对宇宙的憧憬！\n要是有一天能从这座上发射火箭，\n大家一起来一场宇宙旅行就好了～\n没错，梦想要远大！。",
      "EUde": "  is' echt verschärft!\nIs' mein voller Ernst! Hab jetzt direkt\nBock bekommen, mich in 'ne Rakete\nzu schwingen und ins All zu düsen!\nWär's nich' abgefahren, hier auf\n irgendwann mal 'nen Raumhafen zu haben?",
      "EUen": "?!\nWay. Too. Rad!\nSeriously! Argh! Now I'm too hyped\nabout space to think, (catchphrase).\nHey, think if we pooled all our Bells\ntogether, we could start our own\n space program?",
      "EUes": "Oye, tú, pero qué pasada de\n, ¿no?\nMe entran unas ganas locas\nde subirme a un cohete y poner\nrumbo al espacio.\nSí, ya va siendo hora de plantearle a\nTom Nook que monte una agencia\nespacial en .",
      "EUfr": " est limite un peu trop dingo !\nSérieux ! Argh ! Ça y est, je suis\nlancée dans les étoiles ! Boucle ta\nceinture, hyper-espace à l'horizon !\nEh ! On met toutes nos clochettes\nen commun et on lance le programme\nspatial  ?",
      "EUit": "  non è niente male!\nSul serio. Mi fa venire voglia di stare\nsveglia tutta la notte a guardare le\nstelle, .\nHo un'idea! Potremmo far partire un\nnostro programma spaziale, a misura\ndi !",
      "EUnl": "  tof, joh!\nSerieus! Ik vind zoiets he-le-maal\ngeweldig, (catchphrase).\nHé, denk je dat we als onze klingels\nbij elkaar leggen, we ons eigen\nruimteprogramma kunnen beginnen?",
      "EUru": "Какой классный !\nЯ серьезно! Вот это да! Теперь буду\nв космосе все время витать.\n.\nА если мы все сложимся, сможем\nоткрыть свой космодром на острове\n?",
      "JPja": "いいねぇ、！\n宇宙へのアコガレが　詰まってるって感じだ！\nいつか　このから　ロケットを打ち上げて\nみんなで宇宙旅行とか　できたらな～\n夢はデッカく、だよ！　",
      "KRko": "좋은데, !\n우주를 향한 동경심이 느껴져!\n언젠가 이 에서도 로켓을 쏘아올려\n다 같이 우주여행을 갈 날이 올까～?\n꿈은 크게 가져야지! !",
      "TWzh": "這個真不錯！\n感覺充滿了對宇宙的憧憬呢！\n如果有一天，我們能從這座島搭乘火箭，\n大家一起去宇宙旅行就好了～\n夢想要越大越好啦！。",
      "USen": "?!\nWay. Too. Rad!\nSeriously! Argh! Now I'm too hyped\nabout space to think, (catchphrase).\nHey, think if we pooled all our Bells\ntogether, we could start our own\n space program?",
      "USes": "Oye, tú, pero qué tremendez de\n, ¿no?\nMe entran unas ganas locas\nde subirme a un cohete y largarme\nal espacio sideral.\nSí, ya va siendo hora de proponerle a\nTom Nook que ponga una agencia\nespacial en .",
      "USfr": " est limite un peu trop dingue!\nSérieux! Argh! Ça y est, je suis\nlancée dans les étoiles! Boucle ta\nceinture, hyper-espace à l'horizon!\nEh! On met toutes nos clochettes\nen commun et on lance le programme\nspatial ?"
    }
  },
  {
    "label": "020",
    "attribute": "0x0000000000000000",
    "locale": {
      "CNzh": "像这样的，\n是在婚礼之类的场合使用的吧？\n既然摆放在这里……\n那也就是说这座上要举办婚礼了？\n这可是大喜事呀～！\n……咦？不过是谁要结婚呢？！。",
      "EUde": "?\nHier?\nHab ich was verpasst? Steigt hier\netwa 'ne fette Hochzeitsparty?\nBin ja mal gespannt, wer hier wen\nheiratet! Besonders groß is' die\nAuswahl auf der Insel nun ja nich'!",
      "EUen": "?\nHere?\nDid I miss a wedding announcement\nor something? And if so, how? This\nisland's not THAT big, (catchphrase)!",
      "EUes": "Anda, no esperaba encontrarme aquí\n.\nNo me digas que ha habido una boda\ny me la he perdido. ¿Cómo puede\nser, ?\n¡Jamás pensé que mi radar fiestuquil\nme fallaría tan malamente!",
      "EUfr": " ?\nIci, (expression) ?\nJ'ai zappé l'faire-part ou quoi ?\nComment j'ai pu louper un mariage ?\nL'île est pas si maousse que ça !",
      "EUit": "? Qui?\nQualcuno si sposava e me ne sono\ndimenticata? Oppure non lo sapevo\ne basta? Mmmh, ...",
      "EUnl": "? Hier, (catchphrase)?\nGaat er iemand trouwen en heb ik\nhet gemist of zo? Zo ja, hoe is dat\nmogelijk? Zo groot is dit eiland niet!",
      "EUru": "?\nЗдесь?\nЯ что-то пропустила? Как такое\nможет быть? Наш остров не такой\nуж большой! !",
      "JPja": "って、\n結婚式とかで　使うもんだよね？\nそれが　置いてあるってコトは・・・\nこので　結婚式をやんのかい？\nそいつは　めでたいねぇ～！\n・・・アレッ？　でも、誰の？！　",
      "KRko": "은\n결혼식에서 쓰는 거지?\n그게 여기 있다는 건...\n누가 이 에서 결혼식이라도 올리는 건가?\n이거 축하할 일인걸～!\n...어라? 근데 누가?! !",
      "TWzh": "話說\n是使用在婚禮上的東西對吧？\n既然放著那東西……\n島上是不是要舉辦婚禮呢？\n那還真是可喜可賀啊～！\n咦……？等等，是誰要結婚啊！？。",
      "USen": "?\nHere?\nDid I miss a wedding announcement\nor something? And if so, how? This\nisland's not THAT big, (catchphrase)!",
      "USes": "No esperaba encontrarme aquí\n.\nNo me digas que ha habido un\nbodonón... un casorio... y me lo\nperdí. No puede ser eso posible.\n¡Mi radar fiestil jamás me había\nfallado de esta manera!",
      "USfr": "?\nIci, (expression)?\nJ'ai pas vu l'faire-part ou quoi?\nComment j'ai pu raté un mariage?\nL'île est pas si grosse que ça!"
    }
  },
  {
    "label": "021",
    "attribute": "0x0000000000000000",
    "locale": {
      "CNzh": "有这在，\n感觉这里就像是\n海中的城堡一样呢！\n啊！沉浸在童话的世界里，\n一不小心说出了不符合我一贯风格的，\n那么少女心的话呢……。",
      "EUde": "So   hätt ich jetzt überall erwartet, aber nich' mitten auf 'ner Insel!\nHaste dich auch schon ma' gefragt,\nwie das wohl so is', unter Wasser zu\nleben, (Floskel)?\nWär krass, wenn's da unten auch\nFisch-Gangs geben würde. Mit voll\ncoolen Tattoos aus Tintenfischtinte!\nRock-Konzerte aufm Meeresboden\nfallen aber wohl flach. Unter Wasser\nkannste guten Sound knicken!",
      "EUen": "I'm on an island in the middle of the\nocean, and someone stuck \n here...\nReally makes you think about what\nlife's like under all that water.\nHey, you think there's, like, fish\nsocieties? With their own fish culture\nand fish art and fish music?\nOh! What would a fish \nconcert be like? I bet it'd be\npretty awesome, (catchphrase).",
      "EUes": "  me hace pensar a saco...\n¿Tú cómo crees que será la vida\nbajo el mar? ¿Crees que es todo\nrollo mágico y de color pastel?\n¿O también habrá peña con casas\nen plan... más desenfadadas?\nYa sabes: con el plancton sin barrer\ny la alfombra llena de algas.",
      "EUfr": "On est posés sur une île au milieu\nd'l'océan et v'là qu'on tombe sur\n...\nDu coup, ça turbine sec dans ma\ncaboche... J'me mets à gamberger,\nrapport à la vie sous-marine...\nÀ quoi ressemble la civilisation d'la\npoiscaille ? Pis la culture poiscaille,\nl'art poiscaille, la zic poiscaille ?\nHep, t'imagines un concert de  poiscaille ? Ça doit être dingo, (expression) !",
      "EUit": "Sono su un'isola nel bel mezzo\ndell'oceano e qualcuno ha messo qui\n...\nTi fa davvero pensare a come\npotrebbe essere la vita sott'acqua.\nTu pensi che ci siano comunità di\npesci? Con la loro cultura pescosa,\nl'arte pescosa e la musica pescosa?\nOh! Come sarà un concerto di musica pescosa ? Secondo me, una vera forza, .",
      "EUnl": "Daar zijn we dan, in het midden van de oceaan, met zomaar  hier...\nDan bedenk je je wel even dat wij\nhier gasten van de zee zijn, vind je\nniet?\nZeg, hoe zou dat onderwaterleven\nzijn? Zijn er vissendorpen? Met\nvissendisco's en vissenmuziek?\nO! Hoe zou vissenrock klinken? Ik\ndenk dat die beessies er wat van\nkunnen, (catchphrase).",
      "EUru": "Я на острове посреди океана,\nа кто-то поставил тут ...\nСразу лезут в голову мысли\nо подводном мире.\nСлушай, а ты не знаешь, есть ли\nу рыб социальная жизнь? Рыбья\nкультура, искусство, музыка?\nО! Вот бы послушать рыбий концерт\nв жанре ! Наверное,\nэто очень здорово! (catchphrase)!",
      "JPja": "が　あると、\nなんだか　ココが　海の中にある\nお城なんじゃないかって　気がしてくるねぇ\nっとと！　メルヘンな雰囲気に　アテられて\nガラにもなく　ロマンチックなこと\n言っちまったよ・・・、",
      "KRko": "이 있으니까\n마치 여기가 바닷속에 있는 성처럼\n느껴지지 않냐?\n헉! 신비로운 분위기에 휩쓸려서\n어울리지도 않게\n동화 같은 이야기를 해버렸네, ...",
      "TWzh": "有了，\n就會覺得\n這裡好像變成了海底城堡呢。\n喔！都怪這股夢幻的氣氛，\n害我不小心說了這種浪漫的話……\n完全不是我的風格啊，。",
      "USen": "I'm on an island in the middle of the\nocean, and someone stuck \n here...\nReally makes you think about what\nlife's like under all that water.\nHey, you think there's, like, fish\nsocieties? With their own fish culture\nand fish art and fish music?\nOh! What would a fish \nconcert be like? I bet it'd be\npretty awesome, (catchphrase).",
      "USes": "  me hace pensar un montonal...\n¿Tú cómo crees que sea la vida\nbajo el mar? ¿Crees que es todo\nrollo mágico y de color pastel?\n¿O también habrá compis con casas\nen plan... más desenfadadas?\nYa sabes: con el plancton sin barrer\ny la alfombra llena de algas.",
      "USfr": "On est posés sur une île au milieu\nd'l'océan et v'là qu'on tombe sur\n...\nDu coup, ça tourne à fond dans ma\ncaboche... J'me mets à philosopher,\nrapport à la vie sous-marine...\nÀ quoi ressemble la civilisation d'la\npoiscaille? Pis la culture poiscaille,\nl'art poiscaille, la musique poiscaille?\nHep, t'imagines un concert de  poiscaille? Ça doit être dingue, (expression)!"
    }
  },
  {
    "label": "022",
    "attribute": "0x0000000000000000",
    "locale": {
      "CNzh": "啊～\n它的原型星座，\n也是从某个传说中诞生的吧！\n唔～要留下怎样的传说，\n才会有(resident name)座呢？。",
      "EUde": "  hat voll den Kindheits-Erinnerungs-Flash bei mir ausgelöst!\nDas Teil erinnert mich nämlich krass\nan 'ne Geschichte, die ich damals in\nder Schule gelesen hab...\nDa ging's um ein paar Götter, die\ntrafen sich alle  Jahre zum Kurs\n„ für Anfänger“.\nAber nich' aus Jux, sondern so\nrichtig wettkampfmäßig! Und einer\nvon denen hatte voll abgelost.\nMann, war der Typ sauer! Hat vor\nlauter Wut   ins Weltall geschleudert, echt jetzt!\nUnd da oben hat sich das Ding dann\nin 'n neues Sternbild verwandelt.\nDu glaubst mir nich', oder? Na, dann\nlies es halt nach, (Floskel)!",
      "EUen": "There's just something about \n here...\nHey, isn't there a myth about, like...\nall the gods getting together and\n for  years?\nThen one's like, \"Let's have \n duel!\" Except it turns\nout they're awful at .\nAnd they're a sore loser and throw\ntheir  into space where\nit turns into a constellation?\nThen the gods are like, \"Whatever,\"\nand go back to \nand eating .\nAm I right, and that's the myth of the\n Constellation? Or\ndid I make that up, (catchphrase)?",
      "EUes": "Oye, pues la verdad es que mola\n .\nYo soy más de ver las estrellas en\nvivo y en directo a las tantas de\nla madrugada, .\nPero para la gente que lleva mal\nlo de trasnochar, ¡esto les hace\nel apaño perfectamente!",
      "EUfr": " ! J'adore !\nY avait pas une légende à propos\nde dieux qui s'rencardaient pour\n y a  piges ?\nPis y en a un qui a voulu lancer\nune compète de , sauf qu'ils étaient tous nuls à pleurer.\nDu coup, un dieu un chouïa mauvais\njoueur a piqué un fard et balancé\n dans l'ciel !\nEt c'est d'là que viennent les\nconstellations, (expression) !\nAu final, les dieux en ont eu marre et\nsont retournés  et s'empiffrer de .\nEnfin, chuis plus trop sûre pour\n, mais c'était une histoire dans c'goût-là.",
      "EUit": "Che storia! È veramente incredibile\n !\nEhi... non c'è un mito riguardo agli\ndèi che si mettono tutti insieme a\n per  anni?\nCe n'è uno che dice: \"Facciamo una gara di !\", poi però si scopre che è scarsissimo.\nE siccome non sa perdere, lancia   nel cielo e diventa una costellazione.\nMa gli dèi non si scompongono e tornano a  e mangiare .\nÈ così no? O me lo sono sognato,\n?",
      "EUnl": "Cool! Hoelang  hier al ?\nHet sterrenbeeld waarop \ngebaseerd, is vast afkomstig uit\neen of andere mythe of legende.\nWat voor legendarische acties\nworden er van mij verwacht...\n...voordat er een (resident name)-sterrenbeeld komt, (catchphrase)?",
      "EUru": "Этот  напоминает мне...\nСлушай, а вроде есть миф, где\nу богов  лет была одна забава —\n.\nА потом один говорит: «Посмотрим,\nкто звезда !». Причем\nсам он вообще не был звездой.\nА потом швырнул \nв космос, и он стал созвездием.\nА боги все на это посмотрели\nи стали опять \nи есть .\nВедь все правильно, есть такой миф\nо созвездии ? Или\nэто я все вру? (catchphrase)!",
      "JPja": "か～\nこれのモデルになった　星座も、\nなんかの伝説から　生まれたんだよね\nう～ん、どんな伝説を　残したら\n(resident name)座ができるんだい？　",
      "KRko": "이구나～\n이거의 모티브가 된 별자리도\n전설 속 한 부분에서 따온 거잖아\n으음... 어떤 전설을 남기면\n(resident name)자리가\n만들어질까? ?",
      "TWzh": "啊～\n作為這個家具設計理念的星座，\n應該也是從某個傳說中誕生的吧。\n嗯～到底要留下怎樣的傳說\n才會有(resident name)座呢？。",
      "USen": "There's just something about \n here...\nHey, isn't there a myth about, like...\nall the gods getting together and\n for  years?\nThen one's like, \"Let's have \n duel!\" Except it turns\nout they're awful at .\nAnd they're a sore loser and throw\ntheir  into space where\nit turns into a constellation?\nThen the gods are like, \"Whatever,\"\nand go back to \nand eating .\nAm I right, and that's the myth of the\n Constellation? Or\ndid I make that up, (catchphrase)?",
      "USes": "Oye, pues la verdad es que   es chévere.\nYo soy más de ver las estrellas en\nvivo y en directo a altas horas de\nla madrugada, (catchphrase).\nPero para la gente a la que no le va\nlo de trasnochar, ¡esto les queda\nperfecto!",
      "USfr": "! J'adore!\nY'avait pas une légende à propos\nde dieux qui s'rencontraient pour\n y'a  ans?\nPis y'en a un qui a voulu lancer\nune compète de , sauf qu'ils étaient tous nuls à pleurer.\nDu coup, un dieu un peu mauvais\njoueur s'est fâché et a balancé\n dans l'ciel!\nEt c'est d'là que viennent les\nconstellations, (expression)!\nAu final, les dieux en ont eu marre et\nsont retournés  et s'empiffrer de .\nEnfin, chuis plus trop sûre pour\n, mais c'était une histoire dans c'genre-là."
    }
  },
  {
    "label": "023",
    "attribute": "0x0000000000000000",
    "locale": {
      "CNzh": "这里有，\n难道说，这座上\n有寻宝猎人吗？\n竟然把战利品就这么随意放着，\n虽然不知道是谁，\n但这还真让人佩服！。",
      "EUde": "?\nSach ma', Gänseblümchen... Is' so\nPiratenkram nich' ständig verflucht?\nWahrscheinlich hältste mich jetzt für\ntotal bekloppt, aber bei dem Teil da\nbekomm ich echt 'ne Gänsepelle!",
      "EUen": "Isn't pirate treasure always cursed?\nI don't think I'm cool having \n here.",
      "EUes": "¿? ¿Habrá algún pirata en la isla que vaya dejando sus botines por ahí?\nPues me flipa su rollo. Así le deja\nbien clarito a todo el mundo que\ncon los piratas no se mete nadie.",
      "EUfr": "Les trésors d'pirates sont toujours\nmaudits, non ?  m'file la trouille,\n.",
      "EUit": "I tesori dei pirati non sono sempre\nmaledetti? Meglio non avere in giro\n.",
      "EUnl": "Zeg, zijn piratenschatten niet altijd\nvervloekt?\nWant in dat geval denk ik niet vrolijk te worden van  hier.",
      "EUru": "Говорят, на пиратских сокровищах\nвсегда проклятие. А вдруг и этот\n такой?",
      "JPja": "が\n置いてあるけど、もしかして　このに\nトレジャーハンターってヤツが　いるのかな？\n戦利品を　こんなとこに飾っちまうなんて\n誰だか知らないけど\nまったく恐れ入るよ！　",
      "KRko": "이\n있는데, 혹시 이 에\n보물 사냥꾼이라도 있는 건가?\n전리품을 이런 데다 갖다 놓다니\n거 참 누군지는 몰라도\n기막힌 발상이야! !",
      "TWzh": "被擺在這，\n難道說，在這座島上有\n所謂的寶藏獵人嗎？\n居然把自己的戰利品擺在這展示，\n雖然不知道是誰放的，\n但那人的膽量還真令人佩服啊！。",
      "USen": "Isn't pirate treasure always cursed?\nI don't think I'm cool having \n here.",
      "USes": "¿? ¿Habrá algún pirata en la isla que esté dejando sus tesoros por ahí?\nPues qué buen rollo. Así le deja\nbien clarito a todo el mundo que\ncon los piratas no se mete nadie.",
      "USfr": "Les trésors d'pirates sont toujours\nmaudits, non?  m'fout la trouille,\n."
    }
  },
  {
    "label": "024",
    "attribute": "0x0000000000000000",
    "locale": {
      "CNzh": "这，\n你不觉得只是随意地摆放在那里，\n就隐隐约约散发出秋天的气息吗？\n也就是说，不管身处什么季节，\n只要来到这里，就能品味秋季，\n也挺方便的呢。。",
      "EUde": "  hier macht richtig derbe Bock auf den Herbst, (Floskel)!\nFrische Luft, Blätter in abgefahrenen\nFarben, heißer Kakao... Herbst ist die\nperfekte Jahreszeit zum Abchillen!",
      "EUen": "I just can't help getting way hyped\nfor fall whenever I go by \n there.\nI'm talking cool air, the trees turning\nall sorts of rad colors, hot cocoa...\nFall's totally the best, (catchphrase)!",
      "EUes": "¿No te pone en plan otoñal a saco\nest ?\nTodo el suelo lleno de hojas caídas,\nlos colorines molones, la brisilla\nfresquita... ¡Me flipa el otoño!",
      "EUfr": "J'ai toujours envie d'beugler « vive\nl'automne ! » quand j'tombe sur\n !\nLa douce brise qui caresse les tifs,\nles arbres multicolores, l'chocolat\nchaud... Vive l'automne, quoi !",
      "EUit": "Non posso fare a meno di provare\nuna certa emozione quando vedo\n.\nPoi quell'aria fresca, gli alberi che\ndiventano di tutti i colori, la\ncioccolata calda...\nSì, diciamo che l'autunno non è\naffatto male, .",
      "EUnl": "Van   krijg ik echt zin in de herfst, joh.\nLekker fris weer, de blaadjes in\nallemaal toffe kleuren, warme\nchocolademelk...\nBeter wordt het niet, (catchphrase)!",
      "EUru": "Я так радуюсь осени, когда прохожу\nмимо .\nВ голову лезут всякие осенние\nштуки... Свежесть, разноцветные\nдеревья, горячее какао...\nЭто лучшее время года!\n!",
      "JPja": "ってさ\nそこらに　置いてあるだけで、\nなんとなく　秋っぽい感じが　しないかい？\nってことは、どんな季節のときでも\nここに来れば　秋が感じられるんだから\nある意味　便利だよ、",
      "KRko": " 말야\n아무 데나 갖다 놓기만 해도\n그럭저럭 가을 느낌이 나지 않냐?\n그렇다면 무슨 계절이든 간에\n여기 오면 가을을 느낄 수 있다는 거니까\n어떤 의미로는 편리하네, !",
      "TWzh": "光是把\n擺在那邊，\n就會莫名地有種秋天的氣息呢。\n也就是說不論什麼季節，\n只要到這裡來就能感受到秋天，\n還真是挺方便的，。",
      "USen": "I just can't help getting way hyped\nfor fall whenever I go by \n there.\nI'm talking cool air, the trees turning\nall sorts of rad colors, hot cocoa...\nFall's totally the best, (catchphrase)!",
      "USes": "¿No te hace sentir otoñal est ?\nTodo el suelo lleno de hojas caídas,\nlos colores intensos, la brisa\nfresquita... ¡Cómo me gusta el otoño!",
      "USfr": "J'ai toujours envie d'beugler « vive\nl'automne! » quand j'tombe sur\n!\nLa douce brise qui caresse le nez,\nles arbres multicolores, l'chocolat\nchaud... Vive l'automne, quoi!"
    }
  },
  {
    "label": "025",
    "attribute": "0x0000000000000000",
    "locale": {
      "CNzh": "我说，(nickname)……\n你有没有觉得\n这附近的氛围有些不同？\n啊……\n这种别扭感的源头或许就是这家伙。\n我就随便说说，不可能的啦！。",
      "EUde": "? Coole Sache, dann geht's hier bald\nStreiche-mäßig wieder richtig ab!\nSag mal, hast du  vielleicht gesehen? Ich hab da noch\n'ne offene Rechnung zu begleichen...",
      "EUen": "You just know it's time for some\nmischief whenever you see \n.\nOK, I'm gonna go find a good hiding\nspot for later. I'm about to make\n MEGA jump!",
      "EUes": "¡Anda! ¿Tú has visto qué pasote\nde ?\nMe flipa que alguien haya pensado\nen darle un rollo más tétrico a la isla.\n¡Qué temático todo, !",
      "EUfr": "...\nÇa veut dire qu'il est temps d'jouer\ndes tours à tout c'qui bouge !\nPlus qu'à choper une bonne planque\net à m'préparer à bondir en hurlant\ndès que je vois  !",
      "EUit": "Si sa che è l'ora di qualche spiritello\nquando all'improvviso salta fuori\n.\nImmagino che andrò a cercarmi un\nposto dove nascondermi per sbucare\nfuori all'improvviso, .\nHo intenzione di far prendere uno\nspavento a !",
      "EUnl": "Je weet dat het tijd is voor wat kattenkwaad als je  ziet.\nIk ga even een goede verstopplek zoeken.  gaat de schrik van zijn leven krijgen!",
      "EUru": "Сразу чувствуешь, что пришло\nвремя страшилок, когда видишь\n.\nКстати, надо бы мне поискать где\nспрятаться и выпрыгнуть оттуда.\nВот  испугается!",
      "JPja": "なぁ、(nickname)・・・\nなんとなく　この辺だけ\n空気が違うような　気がしないかい？\nか・・・\n違和感の正体は　コイツかもしれないね\nな～んて、そんなワケないか！　",
      "KRko": "야, (nickname)...\n이상하게 이 근처만\n분위기가 좀 다르지 않냐?\n...\n위화감의 정체는 이 녀석인가...\n하핫～ 생각이 지나쳤나? !",
      "TWzh": "我問你，(nickname)……\n你不覺得只有這附近\n氣氛特別不一樣嗎？\n啊……\n搞不好原因就是這傢伙喔。\n開玩笑的啦～怎麼可能啊！。",
      "USen": "You just know it's time for some\nmischief whenever you see \n.\nOK, I'm gonna go find a good hiding\nspot for later. I'm about to make\n MEGA jump!",
      "USes": "¡Ey! ¿Viste est ?\nQué chévere que alguien haya\npensado en darle un rollo más\ntétrico a la isla. ¡Bien temático!",
      "USfr": "...\nÇa veut dire qu'il est temps d'jouer\ndes tours à tout c'qui bouge!\nPlus qu'à trouver une bonne cachette\net à m'préparer à bondir en hurlant\ndès que je vois !"
    }
  },
  {
    "label": "026",
    "attribute": "0x0000000000000000",
    "locale": {
      "CNzh": "哦，是呢！\n不过，为什么在这种地方\n会出现像是圣诞礼物一样的东西呢？\n啊！难道说圣诞老人\n在送礼物的途中不小心把这个落下了？！\n真是的，冒失也应该有个限度吧～",
      "EUde": "Oh,  ? Is' das 'n Spielzeugtaggeschenk, das jemand verloren hat?\nVielleicht 'n Test vom Weihnachts-\nmann, wie so was ankommt? Der\nwill ja nich' voll danebenliegen!",
      "EUen": "What's a Toy Day present doin'\nhere? Someone lose their\n?\nOh! Or maybe Santa's doing focus\ntestin' to see what folks think.\nY'know, for next year's gifts.",
      "EUes": "¡¿Cómo porras ha acabado aquí\n?!\n¿Se le habrá caído a Papá Noel?\n¿O lo habrá dejado ahí adrede para\nver si es un regalo que triunfa o no?",
      "EUfr": "Un cadeau du jour des cadeaux ?\nQui a bien pu larguer  ici ?\nP'têt que papa Noël l'a posé en\ndouce pour tester si on kiffe. Histoire\nd'préparer ses prochains cadeaux.",
      "EUit": "Che ci fa qui un regalo del Giorno dei\ngiocattoli? Qualcuno ha perso \n?\nOh! O forse Babbo Natale sta\nfacendo un'indagine di mercato\nper sondare i gusti degli isolani...\nSì, sai, per scegliere meglio i regali\nper l'anno prossimo.",
      "EUnl": "Waarom staat dit speelgoeddag-\ncadeau hier? Is iemand \n kwijt?\nO! Of test de Kerstman soms welk\nspeelgoed het populairst is? Als een\nsoort consumentenonderzoek?",
      "EUru": "Как тут оказался подарок на День\nигрушек? Кто-то потерял свой\n?..\nА может, это Санта проводит\nэксперимент! Хочет узнать, какие\nподарки популярней!",
      "JPja": "おや　だね\nでも、なんで　こんな所に\nクリスマスプレゼント　みたいなモノが？\nあ！　もしかして　サンタのヤツ、\n配達中に　落っことしたんじゃ？！\nまーったく、あわてんぼうも　イイトコだね～",
      "KRko": "어?! 이다!\n근데 왜 이런 곳에\n크리스마스 선물 같은 게 있지?\n앗! 혹시 산타 영감이\n선물 배달하다가 떨어뜨린 거 아냐?!\n엄청 덤벙거리는구만, 으이그～",
      "TWzh": "哎呀，是呢。\n不過為什麼這種像聖誕禮物的東西\n會被擺在這裡呢？\n啊！該不會這是聖誕老人那傢伙，\n在送禮物時不小心弄丟的東西！？\n真是的～冒失也該有個限度吧～",
      "USen": "What's a Toy Day present doin'\nhere? Someone lose their\n?\nOh! Or maybe Santa's doing focus\ntestin' to see what folks think.\nY'know, for next year's gifts.",
      "USes": "¡¿Qué hace est  aquí?!\n¿Se le habrá caído a Santa?\n¿O lo habrá dejado ahí para ver si\nes un regalo que tiene éxito o no?",
      "USfr": "Un cadeau du jour des cadeaux?\nQui a bien pu laisser  ici?\nP'têt que l'père Noël l'a laissé\npour tester si on aime. Histoire\nd'préparer ses prochains cadeaux."
    }
  },
  {
    "label": "027",
    "attribute": "0x0000000000000000",
    "locale": {
      "CNzh": "咦……\n这里有呢！\n看着这个，就让我回想起父母家，\n内心不禁有些感伤……\n喂，我可不是在想家啊！。",
      "EUde": "... Und wie kommt jetzt so was hierher?\nErinnert mich voll dran, wie ich früher mit Opi... Ääääh... NEIN!\nIch hab kein Heimweh!",
      "EUen": "Oh, huh. Someone put \n here.\nReminds me of holidays with the\nfam, and how Gramps used to...\nAh! No! No getting homesick!",
      "EUes": "Oye, majo, ¿tú que opinas de\nest ?\nAl verl, ¿no te entra como un ansia\ntremenda de ponerte a cocinar y a\ncomer y toda la pesca?",
      "EUfr": "Tiens, quelqu'un a posé \n ici...\nÇa m'rappelle les fêtes en famille\nquand j'étais môme, et la façon\nqu'avait mon vieux papy de...\nAh ! Non, oublie ! Pas moyen\nd'laisser la nostalgie m'choper !",
      "EUit": "Oh, uh. Qualcuno ha messo qui\n.\nMi ricorda le vacanze con i miei\ngenitori e con i miei nonni, che ogni\nanno... Ah! No! Fermate la nostalgia!",
      "EUnl": "Joh, moet je nou kijken. Iemand heeft hier  neergepoot.\n me denken aan feestdagen\nmet mijn familie vroeger, voordat...\nNee! Geen nostalgie. NU is wat telt.",
      "EUru": "Ой... Кто же оставил тут\n?\nТеперь вспоминаю, как отмечала\nпраздники с семьей... и дедулю...\nСтоп! Мне нельзя скучать по дому!",
      "JPja": "あれ・・・\nがあるね\nこういうの見ると、実家を思い出して\n心が　ギュッとなるっていうか・・・\nちょ、ホームシックじゃないよ！　",
      "KRko": "어...\n 맞지?\n이걸 보니까 갑자기 엄마 생각이 나면서\n마음이 헛헛해지는구만...\n잠깐, 나 향수병 걸린 거 아니겠지! !",
      "TWzh": "咦……\n這裡有呢。\n看到這東西，就會想起老家的事情，\n令人不由得心頭一緊……\n等等，這可不是思鄉病喔！。",
      "USen": "Oh, huh. Someone put \n here.\nReminds me of holidays with the\nfam, and how Gramps used to...\nAh! No! No getting homesick!",
      "USes": "Oye, compi, ¿tú qué opinas de\nest ?\nCuando l ves, ¿no te dan como\nunas ganas tremendas de ponerte\na cocinar y a comer y todo eso?",
      "USfr": "Tiens, quelqu'un a posé \n ici...\nÇa m'rappelle les fêtes en famille\nquand j'étais jeune, et la façon\nqu'avait mon vieux papy de...\nAh! Non, oublie! Pas moyen\nd'laisser la nostalgie m'avoir!"
    }
  },
  {
    "label": "029",
    "attribute": "0x0000000000000000",
    "locale": {
      "CNzh": "嗯？我还在想怎么有种愉快的气氛，\n原来这里装饰着\n啊！\n看着这样看起来热闹的物件，\n总觉得心情也变好了，\n自然而然地就笑开了花呢。。",
      "EUde": "  is' schon cool, (Floskel).\nEin Blick darauf und schon kommt\nKarnevalsstimmung auf. Hat was!",
      "EUen": "I can't stop grinning when I see our\n there.\nIt's like all of  is\ngetting its party on. I love it!",
      "EUes": "Cada vez que paso por aquí y veo\nest , me vengo muy arriba.\nLa decoración ya la tenemos, así que\nahora solo nos falta montar el fiestón\nalrededor, .",
      "EUfr": "Voir un  me colle à chaque fois la banane.\nÇa donne l'impression que tout  se prépare pour faire une teuf de folie. J'adore !",
      "EUit": "Ogni volta che passo di qua e vedo\nquest , mi viene sempre da sorridere.\nÈ come se  fosse pronta a fare festa. Sembrerà strano, ma mi piace, .",
      "EUnl": "Van   hier zien, krijg ik een glimlach van oor tot oor, iedere keer weer.\nHet is alsof heel  in een feeststemming is. He-le-maal te gek!",
      "EUru": "Прямо сердце радуется, когда на\n смотрю.\nБудто на острове  фестиваль устроили. Мне нравится!",
      "JPja": "おやおや、楽しい気配がすると思ったら\nが\n飾ってあるじゃないか！\nこういう　賑やかなもんを　見てるとさ、\nなんだか　気分が高まってきて\n自然と　笑顔になっちゃうよね、",
      "KRko": "어라라, 이상하게 신난다 했더니\n이\n놓여 있었네!\n이런 걸 보고 있으면 막\n괜히 기분도 엄청 좋고\n자연히 미소짓게 되지 않냐? !",
      "TWzh": "哦哦，我還想說怎麼有種歡樂的氛圍，\n原來是這裡裝飾著\n啊！\n看著這麼歡樂的東西，\n情緒也會跟著高漲起來，\n讓人不自覺地露出笑容喔，。",
      "USen": "I can't stop grinning when I see our\n there.\nIt's like all of  is\ngetting its party on. I love it!",
      "USes": "Cada vez que paso por aquí y veo\nest , me da un montonal de alegría.\nLa decoración ya la tenemos, así que\nahora solo nos falta hacer el fiestón\nalrededor, .",
      "USfr": "Voir un  me fait vraiment sourire.\nÇa donne l'impression que tout  se prépare pour faire une fête en folie. J'adore!"
    }
  },
  {
    "label": "030",
    "attribute": "0x0000000000000000",
    "locale": {
      "CNzh": "我听说，\n这\n是从别的地方带过来的呢！\n外面的世界里，\n一定还有很多像这样的\n我不知道的有趣事物吧。。",
      "EUde": "Ich wüsst zu gern, was hinter \n hier steckt.\nIch stell mir da direkt vor, das wär\nBeute von irgend'nem krassen\nPiratenabenteuer auf hoher See.\nAber dann schau ich noch mal hin\nund hab auf einmal 'nen Billo-\nSouvenirladen vor Augen...\nWobei eigentlich alle meine liebsten\nMitbringsel aus Billo-Souvenirläden\nstammen, (Floskel).",
      "EUen": "I really wanna know the tale behind\n.\nI mean, I keep picturing loot from\nsome wild, swashbuckling adventure\non the high seas, (catchphrase).\nBut then I look again and start\nimagining some cheap gift shop\nsomewhere instead...\nNot that there's anything wrong with\nthat. Just about all of my favorite\nsouvenirs are from cheap gift shops!",
      "EUes": "Oye, ¿tú no te preguntas cómo\nporras habrá acabado por aquí\n?\nSeguro que detrás hay una historia\nflipante, con corsarios y abordajes\ny movidas piratescas, .",
      "EUfr": "J'aimerais bien connaître l'histoire\nde c't'étrange .\nJ'imagine des pirates, une épopée\nsur les sept mers, (expression)...\nAlors qu'si ça s'trouve, ça sort tout\ndroit d'une boutique d'souv'nirs à\nune clochette...\nJ'dis ça en connaissance de cause,\nvu que j'fréquente ce genre de\nboutique...",
      "EUit": "Mi interessa la storia che sta dietro\nquest .\nE come se mi evocasse avventure\npiratesche in lungo e in largo tra\ni sette mari, .\nMa poi guardo meglio e temo di\nriconoscere lo stile tipico di un\ndozzinale negozietto di souvenir...\nNon c'è niente di male, eh! Tutti i\nmiei souvenir preferiti vengono da\nnegozietti del genere.",
      "EUnl": "Ik wil echt weleens het verhaal weten achter  .\nIk bedoel, ik stel me er een roekeloos\navontuur op de woeste baren bij\nvoor, (catchphrase).\nMaar dan kijk ik nog eens en dan\ndenk ik toch eerder aan een\ngoedkope souvenirwinkel...\nNiet dat daar iets mis mee is. Daar\nkomt bijna al mijn favoriete meuk\nvandaan!",
      "EUru": "Вот бы узнать побольше про\n.\nТакое дело, я представляю себе\nлихие пиратские приключения за\nсемью морями. .\nА потом на ум приходит магазин\nдешевеньких сувениров где-нибудь\nна окраине...\nЯ не против, ты не подумай. У меня\nвсе сувениры из таких магазинов!",
      "JPja": "聞いた話によると、\nそこの　は\nよそからの　お土産らしいじゃないか\n外の世界には　まだまだ　こういう\nウチの知らない　おもしろいもんが\nたくさん　あるんだろうね、",
      "KRko": "듣자 하니 말인데,\n은\n다른 곳에서 온 물건이라더라?\n바깥 세상에는 아직도\n내가 모르는 재밌는 것들이\n잔뜩 있다는 걸 깨달았어! !",
      "TWzh": "我聽說那邊的\n，\n好像是來自其他地方的伴手禮喔。\n我想在島外的世界，應該還有很多這種\n我所不知道的有趣東西吧，。",
      "USen": "I really wanna know the tale behind\n.\nI mean, I keep picturing loot from\nsome wild, swashbuckling adventure\non the high seas, (catchphrase).\nBut then I look again and start\nimagining some cheap gift shop\nsomewhere instead...\nNot that there's anything wrong with\nthat. Just about all of my favorite\nsouvenirs are from cheap gift shops!",
      "USes": "Oye, ¿tú no te preguntas cómo\nrecórcholis habrá llegado aquí\n?\nSeguro que hay alguna historia\nlocaza detrás, con corsarios,\nabordajes y cuestiones piratescas.",
      "USfr": "J'aimerais bien connaître l'histoire\nde c't'étrange .\nJ'imagine des pirates, une épopée\nsur les sept mers, (expression)...\nAlors qu'si ça s'trouve, ça sort tout\ndroit d'une boutique d'souv'nirs à\nune clochette...\nJ'dis ça en connaissance de cause,\nvu que j'fréquente ce genre de\nboutique..."
    }
  },
  {
    "label": "999",
    "attribute": "0x0000000000000000",
    "locale": {
      "CNzh": "",
      "EUde": "",
      "EUen": "",
      "EUes": "",
      "EUfr": "",
      "EUit": "",
      "EUnl": "",
      "EUru": "",
      "JPja": "",
      "KRko": "",
      "TWzh": "",
      "USen": "",
      "USes": "",
      "USfr": ""
    }
  },
  {
    "label": "999_01",
    "attribute": "0x0000000000000000",
    "locale": {
      "CNzh": "在这摆放，\n布置的人很有品位啊！\n你说，把这个当作的\n地标怎么样？。",
      "EUde": "Was zur Butterblume?! Ist \n von dir?\nEcht voll -mäßig!",
      "EUen": "I don't believe it! Did YOU put \n here?\nI love it! It's so !",
      "EUes": "¡Hay que ir muy a tope por la vida\npara que se te ocurra poner aquí\n!\nEs una de las cosas que me molan\nde , ¡que la peña controla mil, !",
      "EUfr": "J'ai les mirettes qui partent en\nsucette ou t'as planté  là ?\nJe kiffe à 1 000 % ! Y a pas moyen\nd'faire plus  !",
      "EUit": "Non ci posso credere! Hai messo  proprio qui?\nNiente male! In perfetto \"stile ⁠\"!",
      "EUnl": "Ongelooflijk! Ben jij degene die hier\n geplaatst heeft?\nHe-le-maal top! Zoiets mafs is echt\ntypisch !",
      "EUru": "Ну и дела! Это ты сюда поставил\n?\nМне так нравится! Вполне в стиле\nострова !",
      "JPja": "ココに　とは\nいいセンス持ったヤツも　いたもんだ！\nどうだい、これを　の\nシンボルにするってのは？　",
      "KRko": "야외에 을\n갖다 놓다니 누군진 몰라도 센스 있네!\n야, 이 기회에 의\n심벌로 삼는 거 어때? ?",
      "TWzh": "把放這……\n看來島上有個很會設計的傢伙哩！\n怎麼樣？要不要把這個當成\n的象徵？。",
      "USen": "I don't believe it! Did YOU put \n here?\nI love it! It's so !",
      "USes": "¡No puedo creer que pusieras aquí\n!\nPor eso me encanta tanto vivir en ⁠, ¡los compis tienen las ideas más atómicas!",
      "USfr": "J'suis en train de perdre la boule\nou t'as placé  ici?\nJ'aime à 1 000 %! Y'a pas moyen\nd'faire plus !"
    }
  },
  {
    "label": "999_02",
    "attribute": "0x0000000000000000",
    "locale": {
      "CNzh": "嗯嗯，这\n这样看上去还挺不错的嘛。\n把它放在这里，怎么看都不会生厌，\n而且要是一旦拿走，没准就会觉得\n反而有些寂寥呢。。",
      "EUde": "  is' jetzt ma' keine Orchidee, aber das Teil is' mir ans Herz gewachsen.\nIch glaub schon, dass ich was\nvermissen würde, wenn's nich'\nmehr da wär, (Floskel).",
      "EUen": "I'm really gettin' my daily dose of\n today.\nI never realized how attached I was\ngettin'. I normally try not to get too\nsentimental 'bout stuff like this.",
      "EUes": "Pues aquí me tienes, admirando\n.\nCon esto de estar tanto tiempo fuera\nde casa, te acabas encariñando con\nlas movidas que hay por la isla.\n¡Me pasa hasta con la peña,\n!",
      "EUfr": "J'ai décidé d'faire coucou à m chèr  aussi souvent qu'possible.\nÀ force, j'm'y suis attachée... Et si un\nd'ces quatre, un gusse l'embarque,\nj'voudrais pas avoir de regrets.",
      "EUit": "Sto osservando attentamente \n. Non è niente male.\nNon mi ero resa conto di quanto\nmi piacesse. Se venisse \nmi dispiacerebbe un po'.",
      "EUnl": "Je hebt me betrapt! Ik was   aan het bewonderen.\nDat soort dingen fleuren de boel leuk op. Als  ineens weg  zijn, zou ik  best missen.",
      "EUru": "Никак не насмотрюсь на\n.\nЯ уже к нему даже привязалась...\nСтранно, чего это я нюни\nраспускаю?",
      "JPja": "へぇ、って\nこうして見ると　なかなか　いいじゃないか\n置いてあっても　全然あきないっつーか、\n無くなったら　寂しくなっちまうかも\nしれないね、",
      "KRko": "우와! 을\n밖에서 보니까 색다르네!\n계속 봐도 질릴 일은 없을 것 같아!\n반대로 없어지면 괜히\n섭섭해지지 않을까 몰라, ",
      "TWzh": "哦～\n擺在這裡，看起來還挺不錯的。\n那東西擺在那，感覺怎麼樣都看不膩，\n要是它某天不見了，\n我可能還會感到有些失落呢，。",
      "USen": "I'm really gettin' my daily dose of\n today.\nI never realized how attached I was\ngettin'. I normally try not to get too\nsentimental 'bout stuff like this.",
      "USes": "Pues aquí me tienes, admirando\n.\nCon esto de estar tanto tiempo\nafuera, te terminas encariñando con\nlas cosas que hay en la isla.\n¡Me pasa hasta con los vecinos, !",
      "USfr": "J'ai décidé d'faire coucou à m   aussi souvent qu'possible.\nÀ force, j'm'y suis attachée... Et si un\nd'ces quatre, un gusse l'embarque,\nj'voudrais pas avoir de regrets."
    }
  },
  {
    "label": "999_03",
    "attribute": "0x0000000000000000",
    "locale": {
      "CNzh": "把\n放在这里的人，会是谁呢？\n还真是很酷的想法呢！\n不得不说，我是肯定想不到要这样做的。\n看来我得多学习学习啊！。",
      "EUde": "Hast du irgend'ne Peilung, wer hier\n  hingeschleppt hat?\nDas nenn ich mal 'ne inspirierte Idee,\n(Floskel)!",
      "EUen": "Any idea who thought to stick \n there?\nI just wanna ask 'em why. I don't\nknow anything about decorating, and\nwhat they did there really works!",
      "EUes": "Vas andando tan pancha y... ¡zas,\n!\n¿Habrá brotado del suelo? ¿Se habrá\ncaído del cielo? ¿L habrá puesto ahí\nun vecino? ¡Nunca lo sabremos!",
      "EUfr": "Tu connais l'zigoto qu'a mis \n là ?\nPasque j'ai vraiment envie d'lui\ndemander... pourquoi ? J'suis une\nquiche en déco mais... j'adore !",
      "EUit": "Per caso tu sai chi ha messo lì \n?\nVorrei solo chiedergli perché l'ha\nfatto... Non capisco granché di\ndecorazioni, ma non è niente male.",
      "EUnl": "Enig idee wie daar  heeft neergezet?\nIk weet niet zoveel van dit soort\ndingen, maar ik zou diegene wel om\nwat decoratietips willen vragen!",
      "EUru": "Кто бы это мог оставить здесь\n?\nХочу спросить почему.\nЯ в украшениях не разбираюсь,\nно мне нравится эта идея.",
      "JPja": "を\nそこに　飾ったヤツは、誰なんだろうね？\nすっげー　イカした発想じゃないか\nとてもじゃないけど　ウチには思いつけないよ\nまったく　見習いたいもんだ、",
      "KRko": "을\n저기 갖다 놓은 건 대체 누굴까?\n진짜 끝내주는 생각 같아\n나로서는 상상도 할 수 없는 일이라고!\n정말이지 탐나는 센스라니까, !",
      "TWzh": "把\n裝飾在那裡的傢伙究竟是誰啊？\n這想法挺不賴的，\n如果是我肯定想不到這種創意，\n真是值得好好學習一番啊，。",
      "USen": "Any idea who thought to stick \n there?\nI just wanna ask 'em why. I don't\nknow anything about decorating, and\nwhat they did there really works!",
      "USes": "Vas de lo más pancha y... ¡zas,\n!\n¿Habrá brotado del suelo? ¿Se habrá\ncaído del cielo? ¿L habrá puesto ahí\nun vecino? ¡Nunca lo sabremos!",
      "USfr": "Tu connais l'zigoto qu'a mis \n là?\nPasque j'ai vraiment envie d'lui\ndemander... pourquoi? J'suis une\nquiche en déco mais... j'adore!"
    }
  }
]