﻿[
  {
    "label": "001",
    "attribute": "0x0000002700000000",
    "locale": {
      "CNzh": "你待会儿，也要参加钓鱼大赛吧？\n和我决胜负吧！虽然我是很想这么说，\n但是钓鱼大赛并不采用对战形式啦。\n不过，论气势我是不会输的！。",
      "EUde": "Du rockst doch bestimmt nachher\ndas Angelturnier, stimmt's oder hab\nich recht, (Floskel)?\nGehst sicher ab wie sonst was!\nAber mein Kampfgeist is' auch nich'\nvon schlechten Eltern!",
      "EUen": "You're gonna be in the Fishing\nTourney later, right? Think you've\ngot what it takes to beat me?\nI mean, you probably do. I'm no\nangler...but I wanna know if you\nTHINK you do, (catchphrase)!",
      "EUes": "¿Tienes pensado apuntarte\nal Torneo de Pesca?\nYo que tú ni me molestaba. Voy a ir\ntan a saco que no le voy a dejar ni\nun pececillo al resto de la peña.",
      "EUfr": "Tu vas t'inscrire au tournoi de pêche,\nj'imagine ? Tu crois pouvoir me\nbattre ?\nT'inquiète, moi je sais qu'tu peux.\nMais est-ce que toi tu le penses,\n ?",
      "EUit": "Parteciperai al torneo di pesca, vero?\nAssicurati di aver abbastanza spazio\nper i pesci che pescherai!\nRiceverai i punti anche se non hai\nspazio... ma poi cosa ci metti\nnell'acquario?",
      "EUnl": "Jij gaat je toch inschrijven voor het\nvistoernooi? Denk je dat je het in je\nhebt om mij te verslaan?\nNiet dat het een competitie is, maar\nik wil enkel weten of je dénkt dat je\nhet zou kunnen, (catchphrase)!",
      "EUru": "Собираешься участвовать в турнире\n«Мастер удочки»? Думаешь, что\nналовишь больше рыбы, чем я?\nНу, наверное, наловишь. Из меня\nрыбак так себе... Мне просто было\nинтересно. (catchphrase)!",
      "JPja": "このあと、釣り大会に参加するんだろ？\nウチと勝負しな！　って言いたいトコだけど、\n釣り大会って　バトル形式じゃないんだよな\nでも、気合いじゃ　負けないからね！　",
      "KRko": "이따 낚시대회 나갈 거지?\n나랑 대결하자고 말하고 싶은데\n낚시대회는 딱히 겨루는 게 아니라 아쉽네\n그래도 의욕 하나는 지지 않겠어! !",
      "TWzh": "你待會要參加釣魚大會對吧？\n「和我一決勝負吧！」……雖然我想這麼說啦，\n但釣魚大會並不是對戰形式的大會。\n不過氣勢上我是絕對不會輸的！。",
      "USen": "You're gonna be in the Fishing\nTourney later, right? Think you've\ngot what it takes to beat me?\nI mean, you probably do. I'm no\nangler...but I wanna know if you\nTHINK you do, (catchphrase)!",
      "USes": "¿Te vas a anotar al Torneo\nde Pesca, tú?\nYo que tú ni me molestaba. Voy a ir\narrasando tanto, que no le voy a\ndejar ni un pez a nadie.",
      "USfr": "Tu vas t'inscrire au tournoi de pêche,\nj'imagine? Tu crois pouvoir me\nbattre?\nT'inquiète, moi, j'sais qu'tu peux.\nMais est-ce que toi tu l'penses,\n?"
    }
  },
  {
    "label": "002",
    "attribute": "0x0000002700000000",
    "locale": {
      "CNzh": "钓鱼大赛的规则是，你钓到的鱼越多，\n你能获得的积分就越高！\n换句话说，\n不管啥种类，钓得越多越好！\n很简单吧！。",
      "EUde": "Wenn mein Denkkasten grade nich'\nkomplett abschmiert, gibt es für\njeden Fisch Punkte, oder?\nWär gar nich' verkehrt, einfach alles\nan Land zu ziehn. Da is' ein Schatten\nim Wasser? Auf ihn mit Gebrüll!",
      "EUen": "You get points for every fish you\ncatch in the tourney, right?\nSo you might as well catch any old\nfish! See a shadow in the water?\nBAM! Don't hesitate!",
      "EUes": "Como en el torneo te llevas puntos\npor cualquier pez que pilles, ¡yo voy\na ir muy a tope!\nEn cuanto vea una sombra en\nel agua, ¡allá que me lanzo!\nA ver si esta vez no vuelvo a acabar\ncon una colección de botas...",
      "EUfr": "Tous les poissons rapportent des\npoints pour le tournoi, alors chope\ntous les poissons sans exception !\nTu vois une ombre dans l'onde ?\nPas d'hésitation : paf le poisson !",
      "EUit": "Visto che ricevi punti per qualsiasi\npesce prendi durante il torneo...\nBeh, ti conviene prendere qualsiasi\npesce! Non appena vedi un'ombra\nin acqua, cala la lenza e ZACK!",
      "EUnl": "Je krijgt toch punten voor elke vis\ndie je tijdens het toernooi vangt?\nDus het maakt niet uit welke vis! Zie\nje een schaduw in het water? BOEM!\nMeteen toeslaan!",
      "EUru": "Очки в турнире дают за любую\nрыбу, верно?\nПоэтому лови все, что на крючок\nпопадется! Видишь силуэт в воде —\nзабрасывай удочку!",
      "JPja": "釣り大会は、釣ったサカナが多いほど\nポイントを　もらえるんだって？\nよーするに、なんでもいいから\n手当たり次第に　釣りまくれってことだね？\nシンプルじゃないか！　",
      "KRko": "낚시대회는 잡은 물고기 수가 많을수록\n포인트를 얻을 수 있다며?\n한마디로 뭐든 좋으니까\n닥치는 대로 잡아 들이라는 뜻이잖아?\n심플하고 좋구만! !",
      "TWzh": "聽說釣魚大會是只要釣到越多魚，\n就能拿到越多點數來著？\n簡單地說，就是不管什麼魚都行，\n只要看到就拼命釣，對吧？\n真是簡單明瞭！。",
      "USen": "You get points for every fish you\ncatch in the tourney, right?\nSo you might as well catch any old\nfish! See a shadow in the water?\nBAM! Don't hesitate!",
      "USes": "Como en el torneo te dan puntos por\ncualquier pez que atrapes, ¡yo\npescaré lo que sea que encuentre!\nEn cuanto vea una sombra en\nel agua, ¡zas!",
      "USfr": "Tous les poissons rapportent des\npoints pour le tournoi, alors pogne\ntous les poissons sans exception!\nTu vois une ombre dans l'eau?\nPas d'hésitation : paf le poisson!"
    }
  },
  {
    "label": "003",
    "attribute": "0x0000002700000000",
    "locale": {
      "CNzh": "说到鱼，\n生活在池塘或者沼地里的鱼，\n会因为特有的腥味而被嫌弃。\n但是，只有善于运用它的腥味来制作料理，\n这样的料理才有它的闪光点啊。\n就看如何用心发明新菜谱了！。",
      "EUde": "Haste schon mal Fisch aus 'nem\nTeich oder Sumpf vor dem\nRiechkolben gehabt?\nDie haben ja teilweise einen eher,\nöhm... „speziellen“ Geruch.",
      "EUen": "You ever been around a fish from a\npond or swamp? They smell, uh...\nwell, they smell.",
      "EUes": "¿Nunca te ha pasado que tiras\nla caña, te pones a esperar y\nte quedas sobado de pleno?\n¡A mí tampoco! Lo preguntaba...\npara una amiga a la que le gusta\nmás bien poco madrugar.",
      "EUfr": "T'as déjà pêché un poisson dans une\nmare ou dans un marais ? Ils ont une\nodeur, disons... Ils ont une odeur.",
      "EUit": "Hai mai pescato in uno stagno?\nI pesci che vivono negli stagni\nhanno un odore particolare...\nMa se tu scoprissi come attenuarlo,\npotresti venderli per gli acquari e\nfare stelline a palate, .",
      "EUnl": "Heb je weleens vis uit een vijver of\neen moeras geroken? Die ruikt, eh...\nnou ja, die stinkt behoorlijk.",
      "EUru": "Ты когда-нибудь держал рыбу из\nпруда или болота? Запах у нее...\nскажем, необычный.",
      "JPja": "サカナといえば、\n池とか沼とかで　生きてるサカナは\nクセがあるからって　嫌われがちだよな\nでも、クセを活かして　料理してやれば\nそういうヤツこそ　輝くと思うんだよね\nレシピの発明に　力が入るってもんさ、",
      "KRko": "물고기 하니 생각난 건데\n연못이나 늪에 사는 물고기는\n맛이나 냄새가 특이해서 보통 싫어하잖냐?\n하지만 특징을 살려서 요리하면\n의외로 훌륭한 음식이 완성될 때가 있어\n레시피 개발에 절로 힘이 들어간다니까!",
      "TWzh": "說到魚啊，\n生活在池塘或沼澤中的魚\n因為會有腥味，所以不太討喜啊。\n不過，要是能活用這點來烹調的話，\n應該有方法讓這種魚發揮牠獨有的特色吧！\n真讓人想努力開發食譜呢，。",
      "USen": "You ever been around a fish from a\npond or swamp? They smell, uh...\nwell, they smell.",
      "USes": "¿No te ha pasado que tiras la caña,\nesperas a que pique algo y te quedas\nperdidamente dormido?\n¡A mí no! Solo preguntaba...\npor una amiga que acostumbra\ndesvelarse.",
      "USfr": "T'as déjà pêché un poisson dans une\nmare ou dans un marais? Ils ont une\nodeur, disons... Ils ont une odeur."
    }
  },
  {
    "label": "004",
    "attribute": "0x0000002600000000",
    "locale": {
      "CNzh": "钓鱼大赛正在火热进行中呢！\n你不参加吗？\n想参加的话，\n去广场找俞司廷就行。。",
      "EUde": "Nach dem Krach zu urteilen is' das\nAngelturnier grade draußen im\nvollen Gange, (Floskel)...\nFalls du mit dem Gedanken spielst,\nda mitzumachen, quatsch einfach\nLomeus aufm Festplatz an. Hau rein!",
      "EUen": "From what I hear, the Fishing\nTourney is off the hook.\nIf you're gonna sign up, you'd better\ngo talk to C.J. in the plaza. Go get\n'em, (catchphrase)!",
      "EUes": "Creo que el Torneo de Pesca\nestá que arde, chato.\nSi no te has apuntado, vete a\nla plaza a hablar con CJ.\nAún no está todo el pescado\nvendido... Ji, ji, ji.",
      "EUfr": "Si je me goure pas, le tournoi de\npêche a commencé.\nSi t'as envie de jouer de la canne à\npêche, va voir Pollux sur la place\net inscris-toi,  !",
      "EUit": "Che io sappia, il torneo di pesca\nè già iniziato.\nSe vuoi partecipare, vai in piazza\ne rivolgiti a Castorino. Acchiappali\ntutti, (catchphrase)!",
      "EUnl": "Ik hoor van iedereen dat het\nvistoernooi is begonnen.\nAls je wilt meedoen, moet je bij\nC.J. zijn. Hij is op het plein te\nvinden. Succes, !",
      "EUru": "Ходят слухи, что турнир «Мастер\nудочки» уже в полном разгаре.\nЕсли хочешь поучаствовать,\nобратись к Си-Джею на площади.\nНи пуха ни пера! (catchphrase)!",
      "JPja": "釣り大会、盛り上がってるみたいだねぇ！\nアンタは　出ないのかい？\n参加したいヤツは　広場で\nジャスティンに　言えばいいんだよな？　",
      "KRko": "낚시대회가 흥하고 있는 모양인데\n넌 참가 안 하냐?\n참가하고 싶은 녀석은 광장에 있는\n저스틴한테 말하면 되는 거 맞지?",
      "TWzh": "釣魚大會的氣氛好像非常熱烈呢！\n你不參加嗎？\n想參加的人只要到廣場上\n跟俞司廷說一聲就行了吧？。",
      "USen": "From what I hear, the Fishing\nTourney is off the hook.\nIf you're gonna sign up, you'd better\ngo talk to C.J. in the plaza. Go get\n'em, (catchphrase)!",
      "USes": "Creo que el Torneo de Pesca\nestá que arde, tú.\nSi no te has apuntado, vete a\nla plaza a hablar con CJ.",
      "USfr": "Si j'me trompe pas, le tournoi de\npêche a commencé.\nSi t'as envie de jouer de la canne à\npêche, va voir Pollux sur la place\net inscris-toi, !"
    }
  },
  {
    "label": "005",
    "attribute": "0x0000002600000000",
    "locale": {
      "CNzh": "你问我参不参加钓鱼大赛？\n我感觉，今天不想钓鱼。\n我的信条就是，\n在自己想做的时候，做自己喜欢的事！\n不过，我挺喜欢鱼的，\n也不讨厌钓鱼。\n下次有机会我会参加的！。",
      "EUde": "Warum ich nich' auch beim\nAngelturnier mitmache,\n(Floskel)?\nIs' mir zu viel Theater. Und\nüberhaupt...\nIch angle, wenn ich Lust dazu hab,\nnicht wenn mir so 'n hergelaufenes\nTurnier das vorschreibt!",
      "EUen": "Huh? Oh yeah. I know the tourney's\ngoin' on. I just ain't in the mood for\nfishing today, (catchphrase).\nI woke up and it didn't feel like a\nfish day. Felt more like a bike day.\nMight be fish day next week. When\nit comes, I'll fish then. I don't need\na tourney to tell me what to do!",
      "EUes": "Que síii, ya sé que está toda la \npeña con el Torneo de Pesca, chato.\nEs que hoy me apetece cero andar\nde aquí para allá con la caña.\n¡Me estoy reservando para darlo\ntodo por la noche de farra!\nSi quiero pescar mañana o pasado,\nya iré. ¡A mí nadie me dice cuándo\nhacer las cosas, tú!",
      "EUfr": "Hein ? Bien sûr que chuis au parfum,\nrapport au tournoi qui a commencé,\n...\nC'est juste que chuis pas d'humeur à\ntaquiner l'goujon. Chuis plutôt\nd'humeur à sortir la bécane.\nCe sera peut-être pour la semaine\nprochaine. Je sortirai la canne quand\nj'serai d'humeur, tournoi ou pas !",
      "EUit": "Eh? Sì, so che è in corso il torneo\ndi pesca. È che non sono dell'umore\ngiusto per pescare, (catchphrase).\nOggi non è il giorno adatto al silenzio\ndei pesci, è quello perfetto per\nil rombo della mia motocicletta!\nForse mi verrà voglia la prossima\nsettimana. Non sarà un torneo a\ndettarmi cosa ho voglia di fare!",
      "EUnl": "Hè? O ja, ik wist al dat het toernooi\nbezig is. Ik heb vandaag alleen geen\nzin om te vissen.\nToen ik wakker werd, wist ik meteen\ndat het niks ging worden met vissen.\nHad meer zin in motorrijden.\nMisschien volgende week wel.\nIk vis alleen als ik zin heb. Ik laat me\nniet opjutten door zo'n toernooi!",
      "EUru": "В чем дело? А да! Идет турнир\n«Мастер удочки». Но сегодня\nмне не до рыбалки. (catchphrase).\nЯ проснулась и поняла, что\nсегодня не рыбный день.\nА, скорее, велосипедный.\nЕсли рыбный день выдастся на\nследующей неделе, тогда я и пойду\nрыбачить. А турнир мне не указ!",
      "JPja": "釣り大会に　出ないのかって？\nなんか今日は　釣りって気分じゃなくてね\nウチは　気が向いたときに\n好きなことやるのが　信条なのさ！\nま、サカナは好きだし\n釣りも　キライじゃないからね\nまた今度　参加するよ！　",
      "KRko": "낚시대회에 안 나가냐고?\n오늘은 영～ 낚시를 할 기분이 아니야\n기분이 내킬 때 하고 싶은 것을 하자!\n이게 바로 내 삶의 신조거든!\n뭐, 물고기도 좋아하고\n낚시도 싫어하는 건 아니니까\n다음번에 참가할게! !",
      "TWzh": "你問我「怎麼不參加釣魚大會」？\n因為我總覺得今天沒心情釣魚呢。\n在興致來的時候做喜歡做的事，\n這可是我的信念！\n不過也對，我既喜歡魚，\n而且也不討厭釣魚嘛。\n我下次會參加的！。",
      "USen": "Huh? Oh yeah. I know the tourney's\ngoin' on. I just ain't in the mood for\nfishing today, (catchphrase).\nI woke up and it didn't feel like a\nfish day. Felt more like a bike day.\nMight be fish day next week. When\nit comes, I'll fish then. I don't need\na tourney to tell me what to do!",
      "USes": "Sí... ya sé que todo el mundo está\nen el Torneo de Pesca.\nEs que hoy tengo cero ganas\nde andar por ahí con la caña.\n¡Estoy guardando mi energía porque\ntengo una fiesta más tarde!\nSi quiero pescar mañana o pasado,\nya iré. ¡Yo hago lo que quiero cuando\nquiero!",
      "USfr": "Hein? Bien sûr que chuis au courant\nque le tournoi a commencé,\n...\nC'est juste que chuis pas d'humeur à\ntaquiner la truite. Chuis plutôt\nd'humeur à sortir mon vélo.\nCe sera peut-être pour la semaine\nprochaine. Je sortirai la canne quand\nj'serai d'humeur, tournoi ou pas!"
    }
  }
]