﻿[
  {
    "label": "Bed",
    "locale": {
      "CNzh": "床铺",
      "EUde": "Betten",
      "EUen": "Beds",
      "EUes": "Camas",
      "EUfr": "Lits",
      "EUit": "Letti",
      "EUnl": "Bedden",
      "EUru": "Койки",
      "JPja": "ベッド",
      "KRko": "침대",
      "TWzh": "床鋪",
      "USen": "Beds",
      "USes": "Camas",
      "USfr": "Lits"
    }
  },
  {
    "label": "CashRegister",
    "locale": {
      "CNzh": "收银机",
      "EUde": "Kasse",
      "EUen": "Cash Register",
      "EUes": "Caja registradora",
      "EUfr": "Caisse enregistreuse",
      "EUit": "Cassa",
      "EUnl": "Kassa",
      "EUru": "Кассовый аппарат",
      "JPja": "レジ",
      "KRko": "계산대",
      "TWzh": "收銀機",
      "USen": "Cash Register",
      "USes": "Caja registradora",
      "USfr": "Caisse enregistreuse"
    }
  },
  {
    "label": "Chair",
    "locale": {
      "CNzh": "椅子",
      "EUde": "Sitzgelegenheiten",
      "EUen": "Chairs",
      "EUes": "Sillas",
      "EUfr": "Chaises",
      "EUit": "Sedie",
      "EUnl": "Stoelen",
      "EUru": "Стулья",
      "JPja": "イス",
      "KRko": "의자",
      "TWzh": "椅子",
      "USen": "Chairs",
      "USes": "Sillas",
      "USfr": "Chaises"
    }
  },
  {
    "label": "CookingStove",
    "locale": {
      "CNzh": "厨房",
      "EUde": "Küche",
      "EUen": "Kitchen Prep Spaces",
      "EUes": "Cocinas",
      "EUfr": "Plan de travail cuisine",
      "EUit": "Cucina",
      "EUnl": "Keuken",
      "EUru": "Кухонные элементы",
      "JPja": "キッチン",
      "KRko": "조리대",
      "TWzh": "廚房",
      "USen": "Kitchen Prep Spaces",
      "USes": "Módulos de cocina",
      "USfr": "Plan de travail cuisine"
    }
  },
  {
    "label": "Desk",
    "locale": {
      "CNzh": "课桌",
      "EUde": "Schülertische",
      "EUen": "Desks",
      "EUes": "Pupitres",
      "EUfr": "Bureaux",
      "EUit": "Banchi",
      "EUnl": "Bureaus",
      "EUru": "Парты",
      "JPja": "つくえ",
      "KRko": "책상",
      "TWzh": "書桌",
      "USen": "Desks",
      "USes": "Pupitres",
      "USfr": "Bureaux"
    }
  },
  {
    "label": "DoctorChair",
    "locale": {
      "CNzh": "医生椅子",
      "EUde": "Arztstuhl",
      "EUen": "Doctor's Chair",
      "EUes": "Sillón de consulta",
      "EUfr": "Chaise du médecin",
      "EUit": "Poltrona del dottore",
      "EUnl": "Doktersstoel",
      "EUru": "Кресло доктора",
      "JPja": "ドクターのイス",
      "KRko": "의사 의자",
      "TWzh": "醫生椅子",
      "USen": "Doctor's Chair",
      "USes": "Sillón de consulta",
      "USfr": "Chaise du médecin"
    }
  },
  {
    "label": "DoctorDesk",
    "locale": {
      "CNzh": "医生桌子",
      "EUde": "Arzttisch",
      "EUen": "Doctor's Desk",
      "EUes": "Mesa de consulta",
      "EUfr": "Bureau de docteur",
      "EUit": "Scrivania del medico",
      "EUnl": "Doktersbureau",
      "EUru": "Стол доктора",
      "JPja": "ドクターのつくえ",
      "KRko": "의사 책상",
      "TWzh": "醫生桌子",
      "USen": "Doctor's Desk",
      "USes": "Mesa de consulta",
      "USfr": "Bureau de docteur"
    }
  },
  {
    "label": "PatientChair",
    "locale": {
      "CNzh": "病人椅子",
      "EUde": "Patientenstuhl",
      "EUen": "Patient's Chair",
      "EUes": "Silla para paciente",
      "EUfr": "Chaise du patient",
      "EUit": "Sedia del paziente",
      "EUnl": "Patiëntenstoel",
      "EUru": "Стул для пациента",
      "JPja": "かんじゃのイス",
      "KRko": "환자 의자",
      "TWzh": "病人椅子",
      "USen": "Patient's Chair",
      "USes": "Silla para paciente",
      "USfr": "Chaise du patient"
    }
  },
  {
    "label": "Reception",
    "locale": {
      "CNzh": "柜台",
      "EUde": "Empfangstheke",
      "EUen": "Counter",
      "EUes": "Mostrador",
      "EUfr": "Comptoir",
      "EUit": "Bancone reception",
      "EUnl": "Balie",
      "EUru": "Стойка",
      "JPja": "カウンター",
      "KRko": "카운터",
      "TWzh": "櫃台",
      "USen": "Counter",
      "USes": "Mostrador",
      "USfr": "Comptoir"
    }
  },
  {
    "label": "Table",
    "locale": {
      "CNzh": "桌子",
      "EUde": "Tische",
      "EUen": "Tables",
      "EUes": "Mesas",
      "EUfr": "Tables",
      "EUit": "Tavoli",
      "EUnl": "Tafels",
      "EUru": "Столы",
      "JPja": "テーブル",
      "KRko": "테이블",
      "TWzh": "桌子",
      "USen": "Tables",
      "USes": "Mesas",
      "USfr": "Tables"
    }
  },
  {
    "label": "TeachersDesk",
    "locale": {
      "CNzh": "讲台",
      "EUde": "Lehrertisch",
      "EUen": "Teacher's Desk",
      "EUes": "Mesa de profe",
      "EUfr": "Bureau du prof",
      "EUit": "Cattedra",
      "EUnl": "Lerarenbureau",
      "EUru": "Учительский стол",
      "JPja": "きょうたく",
      "KRko": "교탁",
      "TWzh": "講桌",
      "USen": "Teacher's Desk",
      "USes": "Mesa de profe",
      "USfr": "Bureau du prof"
    }
  },
  {
    "label": "Torso",
    "locale": {
      "CNzh": "展示用人形模特",
      "EUde": "Schneiderpuppen",
      "EUen": "Display Mannequins",
      "EUes": "Maniquís",
      "EUfr": "Mannequins",
      "EUit": "Manichini",
      "EUnl": "Paspoppen",
      "EUru": "Манекены",
      "JPja": "ちんれつようマネキン",
      "KRko": "진열용 마네킹",
      "TWzh": "展示用人型模特兒",
      "USen": "Display Mannequins",
      "USes": "Maniquís",
      "USfr": "Mannequins"
    }
  }
]