﻿[
  {
    "label": "001",
    "locale": {
      "CNzh": "～",
      "EUde": "Schatzi",
      "EUen": "muffin",
      "EUes": "Caramelín",
      "EUfr": "schnouk",
      "EUit": "cucciolo",
      "EUnl": "muffin",
      "EUru": "кексик",
      "JPja": "ー",
      "KRko": "스",
      "TWzh": "～",
      "USen": "muffin",
      "USes": "Caramelín",
      "USfr": "mon chou"
    }
  },
  {
    "label": "002",
    "locale": {
      "CNzh": "大大",
      "EUde": "Schnuffi",
      "EUen": "butterbean",
      "EUes": "Guisante",
      "EUfr": "choupin",
      "EUit": "bruchino",
      "EUnl": "hartje",
      "EUru": "милашка",
      "JPja": "さん",
      "KRko": "님",
      "TWzh": "大大",
      "USen": "butterbean",
      "USes": "Pelusita",
      "USfr": "trésor"
    }
  },
  {
    "label": "003",
    "locale": {
      "CNzh": "队长",
      "EUde": "Maestro",
      "EUen": "lollipop",
      "EUes": "Solecito",
      "EUfr": "gaufrette",
      "EUit": "topino",
      "EUnl": "roomsoesje",
      "EUru": "капитан",
      "JPja": "キャプテン",
      "KRko": "캡틴",
      "TWzh": "隊長",
      "USen": "lollipop",
      "USes": "Solecito",
      "USfr": "gaufrette"
    }
  },
  {
    "label": "004",
    "locale": {
      "CNzh": "",
      "EUde": "Schnucki",
      "EUen": "cupcake",
      "EUes": "Ciruelilla",
      "EUfr": "taquin",
      "EUit": "dolcino",
      "EUnl": "cupcake",
      "EUru": "капкейк",
      "JPja": "",
      "KRko": "",
      "TWzh": "小",
      "USen": "cupcake",
      "USes": "Rayito",
      "USfr": "taquin"
    }
  },
  {
    "label": "005",
    "locale": {
      "CNzh": "同学",
      "EUde": "Käpt'n ",
      "EUen": "-bug",
      "EUes": "Coliflor",
      "EUfr": "petit bout",
      "EUit": "gioia",
      "EUnl": "kersje",
      "EUru": "жучок",
      "JPja": "くん",
      "KRko": "군",
      "TWzh": "同學",
      "USen": "-bug",
      "USes": "Coliflor",
      "USfr": "petit bout"
    }
  },
  {
    "label": "006",
    "locale": {
      "CNzh": "先生",
      "EUde": "Herr ",
      "EUen": "biscuit",
      "EUes": "Pimentín",
      "EUfr": "bichon",
      "EUit": "Lord ",
      "EUnl": "meneer ",
      "EUru": "рослый",
      "JPja": "ミスター",
      "KRko": "미스터",
      "TWzh": "先生",
      "USen": "biscuit",
      "USes": "Pimentín",
      "USfr": "bichon"
    }
  },
  {
    "label": "007",
    "locale": {
      "CNzh": "太郎",
      "EUde": "Großes ",
      "EUen": "sunflower",
      "EUes": "Pollito",
      "EUfr": "le héros",
      "EUit": "pulcino",
      "EUnl": "-kerel",
      "EUru": "пирожок",
      "JPja": "たろう",
      "KRko": "돌이",
      "TWzh": "太郎",
      "USen": "sunflower",
      "USes": "Pollito",
      "USfr": "le héros"
    }
  },
  {
    "label": "008",
    "locale": {
      "CNzh": "闺蜜",
      "EUde": "Kumpanin",
      "EUen": "bestie",
      "EUes": "Mazorquita",
      "EUfr": "peluche",
      "EUit": "carotina",
      "EUnl": "mevrouw ",
      "EUru": "зайка",
      "JPja": "マブっち",
      "KRko": "베프링",
      "TWzh": "閨蜜",
      "USen": "bestie",
      "USes": "Hadita",
      "USfr": "peluche"
    }
  },
  {
    "label": "009",
    "locale": {
      "CNzh": "心儿",
      "EUde": "Liebes",
      "EUen": "pumpkin",
      "EUes": "Gotita",
      "EUfr": "pelote",
      "EUit": "micina",
      "EUnl": "-kat",
      "EUru": "котенок",
      "JPja": "たん",
      "KRko": "냥",
      "TWzh": "妞",
      "USen": "pumpkin",
      "USes": "Gotita",
      "USfr": "toudoux"
    }
  },
  {
    "label": "010",
    "locale": {
      "CNzh": "甜儿",
      "EUde": "Sonne",
      "EUen": "-beans",
      "EUes": "Nubecita",
      "EUfr": "frisette",
      "EUit": "rucolina",
      "EUnl": "-snoesje",
      "EUru": "зефирка",
      "JPja": "ぽん",
      "KRko": "봉",
      "TWzh": "兒",
      "USen": "-beans",
      "USes": "Nubecita",
      "USfr": "frisette"
    }
  },
  {
    "label": "011",
    "locale": {
      "CNzh": "亲",
      "EUde": "Süßes ",
      "EUen": "sweetkins",
      "EUes": "Requetetú",
      "EUfr": "frangin",
      "EUit": "favola",
      "EUnl": "-knuffel",
      "EUru": "конфетка",
      "JPja": "ピー",
      "KRko": "삐",
      "TWzh": "貝比",
      "USen": "sweetkins",
      "USes": "Talento",
      "USfr": "frérot"
    }
  },
  {
    "label": "012",
    "locale": {
      "CNzh": "小",
      "EUde": "Funkel-",
      "EUen": "shmoopy",
      "EUes": "Chispichús",
      "EUfr": "mister",
      "EUit": "mito",
      "EUnl": "schattie",
      "EUru": "селфи",
      "JPja": "っち",
      "KRko": "딩",
      "TWzh": "仔",
      "USen": "shmoopy",
      "USes": "Mito",
      "USfr": "mon beau"
    }
  },
  {
    "label": "013",
    "locale": {
      "CNzh": "",
      "EUde": "Sternli",
      "EUen": "superstar",
      "EUes": "Brillis",
      "EUfr": "loulou",
      "EUit": "leggenda",
      "EUnl": "popster",
      "EUru": "поп-звезда",
      "JPja": "",
      "KRko": "",
      "TWzh": "小親親",
      "USen": "superstar",
      "USes": "Brillis",
      "USfr": "loulou"
    }
  },
  {
    "label": "014",
    "locale": {
      "CNzh": "伙伴",
      "EUde": "Glitzi-",
      "EUen": "DJ ",
      "EUes": "Superstar",
      "EUfr": "le crabe",
      "EUit": "sogno",
      "EUnl": "glitter-",
      "EUru": "золотце",
      "JPja": "メンバー",
      "KRko": "파트너",
      "TWzh": "夥伴",
      "USen": "glitter",
      "USes": "Superstar",
      "USfr": "le crabe"
    }
  },
  {
    "label": "015",
    "locale": {
      "CNzh": "欧巴",
      "EUde": "-Hop",
      "EUen": "jetsetter",
      "EUes": "Boy Band",
      "EUfr": "lutin",
      "EUit": "campione",
      "EUnl": "-fan",
      "EUru": "зая",
      "JPja": "ぴょん",
      "KRko": "뿅",
      "TWzh": "歐爸",
      "USen": "jetsetter",
      "USes": "Estrella",
      "USfr": "lutin"
    }
  },
  {
    "label": "016",
    "locale": {
      "CNzh": "哥",
      "EUde": "Stylo",
      "EUen": "funky",
      "EUes": "Megafán",
      "EUfr": "chéri",
      "EUit": "divo",
      "EUnl": "stijlicoon",
      "EUru": "блоггер",
      "JPja": "オニィ",
      "KRko": "오빠",
      "TWzh": "哥",
      "USen": "funky",
      "USes": "Megafán",
      "USfr": "chéri"
    }
  },
  {
    "label": "017",
    "locale": {
      "CNzh": "～～",
      "EUde": "Macker",
      "EUen": "superfan",
      "EUes": "-Pop",
      "EUfr": "Mister ",
      "EUit": "bello",
      "EUnl": "-idool",
      "EUru": "крепыш",
      "JPja": "ーー",
      "KRko": "룰루",
      "TWzh": "～～",
      "USen": "superfan",
      "USes": "Chamo",
      "USfr": "M'sieur "
    }
  },
  {
    "label": "018",
    "locale": {
      "CNzh": "妹",
      "EUde": "Diva",
      "EUen": "subscriber",
      "EUes": "Purpurina",
      "EUfr": "crevette",
      "EUit": "leprotta",
      "EUnl": "-diva",
      "EUru": "тренди",
      "JPja": "リーナ",
      "KRko": "레이디",
      "TWzh": "絲汀",
      "USen": "subscriber",
      "USes": "Galanita",
      "USfr": "crevette"
    }
  },
  {
    "label": "019",
    "locale": {
      "CNzh": "姐",
      "EUde": "Girlie",
      "EUen": "faboo",
      "EUes": "La Toi",
      "EUfr": "la star",
      "EUit": "stella",
      "EUnl": "hartendief",
      "EUru": "красава",
      "JPja": "オネェ",
      "KRko": "언니",
      "TWzh": "姐",
      "USen": "faboo",
      "USes": "Diva",
      "USfr": "la star"
    }
  },
  {
    "label": "020",
    "locale": {
      "CNzh": "姐",
      "EUde": "Hohes ",
      "EUen": "dancer",
      "EUes": "Estrella",
      "EUfr": "la puce",
      "EUit": "patatina",
      "EUnl": "super-",
      "EUru": "сахарная",
      "JPja": "ネェ",
      "KRko": "언냐",
      "TWzh": "姐",
      "USen": "dancer",
      "USes": "Celebridad",
      "USfr": "la puce"
    }
  },
  {
    "label": "021",
    "locale": {
      "CNzh": "",
      "EUde": "Goldschatz",
      "EUen": "gold star",
      "EUes": "Alhelí",
      "EUfr": "ma caille",
      "EUit": "stellina",
      "EUnl": "dotje",
      "EUru": "солнышко",
      "JPja": "",
      "KRko": "",
      "TWzh": "兒",
      "USen": "gold star",
      "USes": "Alhelí",
      "USfr": "mon trésor"
    }
  },
  {
    "label": "022",
    "locale": {
      "CNzh": "阿",
      "EUde": "Juwel",
      "EUen": "hun",
      "EUes": "Colibrí",
      "EUfr": "ma pêche",
      "EUit": "tesorino",
      "EUnl": "zoetelief",
      "EUru": "душечка",
      "JPja": "ッシー",
      "KRko": "씨",
      "TWzh": "希斯",
      "USen": "hun",
      "USes": "Trufita",
      "USfr": "ma pêche"
    }
  },
  {
    "label": "023",
    "locale": {
      "CNzh": "好朋友",
      "EUde": "Kindchen",
      "EUen": "dimples",
      "EUes": "Piñón",
      "EUfr": "bambin",
      "EUit": "pulcetta",
      "EUnl": "bambino",
      "EUru": "симпатяга",
      "JPja": "パルパル",
      "KRko": "사랑꾼",
      "TWzh": "好朋友",
      "USen": "dimples",
      "USes": "Piñón",
      "USfr": "bambin"
    }
  },
  {
    "label": "024",
    "locale": {
      "CNzh": "阿",
      "EUde": "Klein ",
      "EUen": "swanky",
      "EUes": "Cisne",
      "EUfr": "colibri",
      "EUit": "orsetto",
      "EUnl": "kleine ",
      "EUru": "обаяшка",
      "JPja": "お",
      "KRko": "꼬마",
      "TWzh": "小",
      "USen": "swanky",
      "USes": "Tesoro",
      "USfr": "colibri"
    }
  },
  {
    "label": "025",
    "locale": {
      "CNzh": "酱",
      "EUde": " junior",
      "EUen": "dumpling",
      "EUes": "Príncipe ",
      "EUfr": "chérubin",
      "EUit": "cicci",
      "EUnl": "mon cheri",
      "EUru": "сударь",
      "JPja": "やん",
      "KRko": "씨",
      "TWzh": "哥",
      "USen": "dumpling",
      "USes": "Príncipe",
      "USfr": "chérubin"
    }
  },
  {
    "label": "026",
    "locale": {
      "CNzh": "",
      "EUde": " maximus",
      "EUen": "button",
      "EUes": "Dr. ",
      "EUfr": "ouistiti",
      "EUit": "piccino",
      "EUnl": "-bink",
      "EUru": "кнопочка",
      "JPja": "",
      "KRko": "",
      "TWzh": "小子",
      "USen": "button",
      "USes": "Terroncito",
      "USfr": "ouistiti"
    }
  },
  {
    "label": "027",
    "locale": {
      "CNzh": "亲爱的",
      "EUde": "Liebling",
      "EUen": "snookums",
      "EUes": "Jilguero",
      "EUfr": "mon cœur",
      "EUit": "caruccio",
      "EUnl": "prinsje",
      "EUru": "дорогуша",
      "JPja": "ダーリン",
      "KRko": "달링",
      "TWzh": "達令",
      "USen": "snookums",
      "USes": "Chiquín",
      "USfr": "mon cœur"
    }
  },
  {
    "label": "028",
    "locale": {
      "CNzh": "公主",
      "EUde": "Bärchen",
      "EUen": "puddin'",
      "EUes": "Princesa ",
      "EUfr": "marmotte",
      "EUit": "duchessa",
      "EUnl": "prinsesje",
      "EUru": "принцесса",
      "JPja": "ヒメ",
      "KRko": "공주",
      "TWzh": "公主",
      "USen": "puddin'",
      "USes": "Princesa",
      "USfr": "marmotte"
    }
  },
  {
    "label": "029",
    "locale": {
      "CNzh": "妞",
      "EUde": "Frau ",
      "EUen": "tulip",
      "EUes": "Dra. ",
      "EUfr": "ma plume",
      "EUit": "peperina",
      "EUnl": "cara mia",
      "EUru": "барышня",
      "JPja": "っこ",
      "KRko": "순이",
      "TWzh": "子",
      "USen": "tulip",
      "USes": "Hojuelita",
      "USfr": "ma plume"
    }
  },
  {
    "label": "030",
    "locale": {
      "CNzh": "蜜儿",
      "EUde": "Gräfin ",
      "EUen": "luv",
      "EUes": "Alhaja",
      "EUfr": "bibiche",
      "EUit": "birbante",
      "EUnl": "-snoepje",
      "EUru": "сударыня",
      "JPja": "りん",
      "KRko": "룰루",
      "TWzh": "咩咩",
      "USen": "luv",
      "USes": "Chiquina",
      "USfr": "bibiche"
    }
  },
  {
    "label": "031",
    "locale": {
      "CNzh": "小东西",
      "EUde": "Kollege",
      "EUen": "rambler",
      "EUes": "Maquinote",
      "EUfr": "gredin",
      "EUit": "fratello",
      "EUnl": "boterbloem",
      "EUru": "коллега",
      "JPja": "っち",
      "KRko": "대장",
      "TWzh": "仔",
      "USen": "rambler",
      "USes": "Maquinaza",
      "USfr": "gredin"
    }
  },
  {
    "label": "032",
    "locale": {
      "CNzh": "阿",
      "EUde": "Rockröhre",
      "EUen": "backbeat",
      "EUes": "Chundachún",
      "EUfr": "rock star",
      "EUit": "amico",
      "EUnl": "rocker",
      "EUru": "дружище",
      "JPja": "お",
      "KRko": "꼬마",
      "TWzh": "小",
      "USen": "backbeat",
      "USes": "Pistacho",
      "USfr": "rock star"
    }
  },
  {
    "label": "033",
    "locale": {
      "CNzh": "老大",
      "EUde": "Genosse",
      "EUen": "highway",
      "EUes": "Juerguista",
      "EUfr": "as des as",
      "EUit": "Mega ",
      "EUnl": "headbanger",
      "EUru": "знаток",
      "JPja": "リーダー",
      "KRko": "리더",
      "TWzh": "頭兒",
      "USen": "highway",
      "USes": "Chiqui",
      "USfr": "as des as"
    }
  },
  {
    "label": "034",
    "locale": {
      "CNzh": "",
      "EUde": "Rebell",
      "EUen": "chief",
      "EUes": "DJ ",
      "EUfr": "crapule",
      "EUit": "magico ",
      "EUnl": "keiharde ",
      "EUru": "майор",
      "JPja": "",
      "KRko": "",
      "TWzh": "",
      "USen": "chief",
      "USes": "DJ ",
      "USfr": "crapule"
    }
  },
  {
    "label": "035",
    "locale": {
      "CNzh": "仔",
      "EUde": "-Blume",
      "EUen": "rosebud",
      "EUes": "Solista",
      "EUfr": "D.J. ",
      "EUit": "duro",
      "EUnl": "madeliefje",
      "EUru": "розанчик",
      "JPja": "ぼう",
      "KRko": "뿡",
      "TWzh": "寶寶",
      "USen": "rosebud",
      "USes": "Solista",
      "USfr": "D.J. "
    }
  },
  {
    "label": "036",
    "locale": {
      "CNzh": "帅哥",
      "EUde": "Chef",
      "EUen": "-o-rino",
      "EUes": "Tecnotrón",
      "EUfr": "M'sieur ",
      "EUit": "pappolo",
      "EUnl": "rap-",
      "EUru": "мастер",
      "JPja": "のすけ",
      "KRko": "벗",
      "TWzh": "帥氣",
      "USen": "-o-rino",
      "USes": "Tecno",
      "USfr": "M'sieur "
    }
  },
  {
    "label": "037",
    "locale": {
      "CNzh": "老板",
      "EUde": "Boss",
      "EUen": "cruiser",
      "EUes": "Bakalao",
      "EUfr": "boss",
      "EUit": "Re ",
      "EUnl": "toffe peer",
      "EUru": "пилигрим",
      "JPja": "しゃちょー",
      "KRko": "사장",
      "TWzh": "社長",
      "USen": "cruiser",
      "USes": "Copiloto",
      "USfr": "boss"
    }
  },
  {
    "label": "038",
    "locale": {
      "CNzh": "妹子",
      "EUde": "Mieze",
      "EUen": "reverb",
      "EUes": "Fenómena",
      "EUfr": "ma biche",
      "EUit": "lagnetta",
      "EUnl": "punkchick",
      "EUru": "эхо",
      "JPja": "じょう",
      "KRko": "아가씨",
      "TWzh": "姑娘",
      "USen": "reverb",
      "USes": "Fenómena",
      "USfr": "ma pote"
    }
  },
  {
    "label": "039",
    "locale": {
      "CNzh": "妞",
      "EUde": "Chica",
      "EUen": "motor",
      "EUes": "Rapera",
      "EUfr": "minette",
      "EUit": "cugina",
      "EUnl": "mop",
      "EUru": "активистка",
      "JPja": "っこ",
      "KRko": "낭자",
      "TWzh": "子",
      "USen": "motor",
      "USes": "Rapera",
      "USfr": "la p'tite"
    }
  },
  {
    "label": "040",
    "locale": {
      "CNzh": "大小姐",
      "EUde": "Missy",
      "EUen": "gigajolt",
      "EUes": "Cañera",
      "EUfr": "zoulette",
      "EUit": "Lady ",
      "EUnl": "topmeid",
      "EUru": "леди",
      "JPja": "おじょう",
      "KRko": "아가씨",
      "TWzh": "小姐姐",
      "USen": "gigajolt",
      "USes": "Rumba",
      "USfr": "turbine"
    }
  },
  {
    "label": "041",
    "locale": {
      "CNzh": "猪猪",
      "EUde": "Bäckchen",
      "EUen": "spud",
      "EUes": "Pancita",
      "EUfr": "pancake",
      "EUit": "palletta",
      "EUnl": "lekkerbek",
      "EUru": "печенька",
      "JPja": "キミっち",
      "KRko": "짱먹보",
      "TWzh": "豬豬",
      "USen": "spud",
      "USes": "Nugget",
      "USfr": "crêpe"
    }
  },
  {
    "label": "042",
    "locale": {
      "CNzh": "噗噗",
      "EUde": "Dr. ",
      "EUen": "Prof. Pie",
      "EUes": "Triple ",
      "EUfr": "nougat",
      "EUit": "frugolo",
      "EUnl": "-snoeperd",
      "EUru": "доктор",
      "JPja": "ぼん",
      "KRko": "빵",
      "TWzh": "噗噗",
      "USen": "Prof. Pie",
      "USes": "Triple ",
      "USfr": "nougat"
    }
  },
  {
    "label": "043",
    "locale": {
      "CNzh": "",
      "EUde": "Bonbon",
      "EUen": "tater tot",
      "EUes": "Bizcochito",
      "EUfr": "caramel",
      "EUit": "maestro",
      "EUnl": "koekje",
      "EUru": "картошечка",
      "JPja": "",
      "KRko": "",
      "TWzh": "超級",
      "USen": "tater tot",
      "USes": "Gomita",
      "USfr": "caramel"
    }
  },
  {
    "label": "044",
    "locale": {
      "CNzh": "仔",
      "EUde": "Hyper-",
      "EUen": "burrito",
      "EUes": "Súper ",
      "EUfr": "copain",
      "EUit": "stampino",
      "EUnl": "kruimel",
      "EUru": "мишка",
      "JPja": "ぼう",
      "KRko": "붕붕",
      "TWzh": "寶寶",
      "USen": "burrito",
      "USes": "Súper ",
      "USfr": "copain"
    }
  },
  {
    "label": "045",
    "locale": {
      "CNzh": "同学",
      "EUde": "Super-",
      "EUen": "buddy",
      "EUes": "Panecillo",
      "EUfr": "ounet",
      "EUit": "portento",
      "EUnl": "grote ",
      "EUru": "братец",
      "JPja": "－くん",
      "KRko": "군",
      "TWzh": "同學",
      "USen": "buddy",
      "USes": "Chamoy",
      "USfr": "ounet"
    }
  },
  {
    "label": "046",
    "locale": {
      "CNzh": "哥哥",
      "EUde": "Sir ",
      "EUen": "boss",
      "EUes": "Agente",
      "EUfr": "pilou",
      "EUit": "capo",
      "EUnl": "held ",
      "EUru": "босс",
      "JPja": "おにいちゃん",
      "KRko": "형아",
      "TWzh": "哥哥",
      "USen": "boss",
      "USes": "Agente",
      "USfr": "capitaine"
    }
  },
  {
    "label": "047",
    "locale": {
      "CNzh": "前辈",
      "EUde": "Schmecker",
      "EUen": "cookie",
      "EUes": "Flan",
      "EUfr": "inou",
      "EUit": "asso",
      "EUnl": "strooppie",
      "EUru": "дружище",
      "JPja": "センパイ",
      "KRko": "선배",
      "TWzh": "前輩",
      "USen": "cookie",
      "USes": "Flan",
      "USfr": "inou"
    }
  },
  {
    "label": "048",
    "locale": {
      "CNzh": "姐姐",
      "EUde": "Keks",
      "EUen": " Belle",
      "EUes": "Natilla",
      "EUfr": "sucrette",
      "EUit": "contessa",
      "EUnl": "heldin ",
      "EUru": "гурманчик",
      "JPja": "おねえちゃん",
      "KRko": "누나",
      "TWzh": "姐姐",
      "USen": "chef",
      "USes": "Gorgorito",
      "USfr": "sucrette"
    }
  },
  {
    "label": "049",
    "locale": {
      "CNzh": "公主",
      "EUde": "Wunder-",
      "EUen": "wonder bud",
      "EUes": "Tartaleta",
      "EUfr": "nénette",
      "EUit": "Regina ",
      "EUnl": "droom-",
      "EUru": "плюшечка",
      "JPja": "ひめ",
      "KRko": "공주",
      "TWzh": "公主",
      "USen": "wonder bud",
      "USes": "Merenguita",
      "USfr": "Super "
    }
  },
  {
    "label": "050",
    "locale": {
      "CNzh": "妹妹",
      "EUde": "Fräulein",
      "EUen": " Deluxe",
      "EUes": "Aceituna",
      "EUfr": "joliette",
      "EUit": "incanto",
      "EUnl": "-beestje",
      "EUru": "добрячка",
      "JPja": "こ",
      "KRko": "자",
      "TWzh": "丸子",
      "USen": "guacamole",
      "USes": "Uvita",
      "USfr": "adorable"
    }
  },
  {
    "label": "051",
    "locale": {
      "CNzh": "小",
      "EUde": "Vitamin ",
      "EUen": "Vitamin ",
      "EUes": "Bíceps",
      "EUfr": "biscoto",
      "EUit": "birba",
      "EUnl": "vitamine ",
      "EUru": "протеинчик",
      "JPja": "ちゃん",
      "KRko": "짱",
      "TWzh": "小",
      "USen": "Vitamin ",
      "USes": "Bíceps",
      "USfr": "champion"
    }
  },
  {
    "label": "052",
    "locale": {
      "CNzh": "合伙人",
      "EUde": "Power-",
      "EUen": "touchdown",
      "EUes": "Power ",
      "EUfr": "partenaire",
      "EUit": "decatleta",
      "EUnl": "kampioen",
      "EUru": "клык",
      "JPja": "あいぼう",
      "KRko": "에이스",
      "TWzh": "搭檔",
      "USen": "touchdown",
      "USes": "Power ",
      "USfr": "partenaire"
    }
  },
  {
    "label": "053",
    "locale": {
      "CNzh": "大大",
      "EUde": "Big ",
      "EUen": "Iron ",
      "EUes": "Musculitos",
      "EUfr": "loustic",
      "EUit": "fenomeno",
      "EUnl": "ultra-",
      "EUru": "железный",
      "JPja": "さん",
      "KRko": "니임",
      "TWzh": "大大",
      "USen": "Iron ",
      "USes": "Meteoro",
      "USfr": "p'tit clown"
    }
  },
  {
    "label": "054",
    "locale": {
      "CNzh": "小将",
      "EUde": "Champion",
      "EUen": "champ",
      "EUes": "Romboides",
      "EUfr": "bourrin",
      "EUit": "fulmine",
      "EUnl": "giga-",
      "EUru": "чемпион",
      "JPja": "きち",
      "KRko": "무적",
      "TWzh": "小將",
      "USen": "champ",
      "USes": "Rayo",
      "USfr": "le pro"
    }
  },
  {
    "label": "055",
    "locale": {
      "CNzh": "DJ. ",
      "EUde": "Großer",
      "EUen": "maximum",
      "EUes": "Pichichi",
      "EUfr": "colosse",
      "EUit": "roccia",
      "EUnl": "-kolos",
      "EUru": "здоровяк",
      "JPja": "DJ. ",
      "KRko": "DJ. ",
      "TWzh": "DJ. ",
      "USen": "maximum",
      "USes": "Bólido",
      "USfr": "colosse"
    }
  },
  {
    "label": "056",
    "locale": {
      "CNzh": "好搭档",
      "EUde": "Kumpel",
      "EUen": "racer",
      "EUes": "Cachas",
      "EUfr": "l'athlète",
      "EUit": "vecchio",
      "EUnl": "-man",
      "EUru": "гонщик",
      "JPja": "バディー",
      "KRko": "버디",
      "TWzh": "哥兒們",
      "USen": "racer",
      "USes": "Hermano",
      "USfr": "l'athlète"
    }
  },
  {
    "label": "057",
    "locale": {
      "CNzh": "大哥",
      "EUde": "Muskelmann",
      "EUen": "blaster",
      "EUes": "Míster",
      "EUfr": "malabar",
      "EUit": "socio",
      "EUnl": "sterspeler",
      "EUru": "лазерный",
      "JPja": "っさん",
      "KRko": "님",
      "TWzh": "哥",
      "USen": "blaster",
      "USes": "Míster",
      "USfr": "trocostaud"
    }
  },
  {
    "label": "058",
    "locale": {
      "CNzh": "大姐头",
      "EUde": "Legende",
      "EUen": "somersault",
      "EUes": "Mega ",
      "EUfr": "diva",
      "EUit": "atleta",
      "EUnl": "mega-",
      "EUru": "мега",
      "JPja": "アネキ",
      "KRko": "시스터",
      "TWzh": "大姐大",
      "USen": "somersault",
      "USes": "Jefa",
      "USfr": "diva"
    }
  },
  {
    "label": "059",
    "locale": {
      "CNzh": "乖乖",
      "EUde": "Nummer 1",
      "EUen": "mountain",
      "EUes": "Monitora",
      "EUfr": "gazelle",
      "EUit": "sportiva",
      "EUnl": "vedette",
      "EUru": "гора",
      "JPja": "－ちゃん",
      "KRko": "짱짱",
      "TWzh": "兒",
      "USen": "mountain",
      "USes": "Colibrí",
      "USfr": "gazelle"
    }
  },
  {
    "label": "060",
    "locale": {
      "CNzh": "阿姐",
      "EUde": "Miss ",
      "EUen": "goalie",
      "EUes": "Gacela",
      "EUfr": "miss",
      "EUit": "saetta",
      "EUnl": "trainer ",
      "EUru": "молния",
      "JPja": "ネーチャン",
      "KRko": "S라인",
      "TWzh": "阿姐",
      "USen": "goalie",
      "USes": "Gacela",
      "USfr": "solide"
    }
  },
  {
    "label": "061",
    "locale": {
      "CNzh": "小妞",
      "EUde": "Stöpsel",
      "EUen": "hero",
      "EUes": "Neojoven",
      "EUfr": "belette",
      "EUit": "collega",
      "EUnl": "hummel",
      "EUru": "малявка",
      "JPja": "こう",
      "KRko": "공",
      "TWzh": "小",
      "USen": "hero",
      "USes": "Espárrago",
      "USfr": "belette"
    }
  },
  {
    "label": "062",
    "locale": {
      "CNzh": "陛下",
      "EUde": "Vögelchen",
      "EUen": "skippy",
      "EUes": "Cibernauta",
      "EUfr": "pépite",
      "EUit": "pivello",
      "EUnl": "bengel",
      "EUru": "неженка",
      "JPja": "さま",
      "KRko": "경",
      "TWzh": "陛下",
      "USen": "skippy",
      "USes": "Garbanzo",
      "USfr": "pépite"
    }
  },
  {
    "label": "063",
    "locale": {
      "CNzh": "娃",
      "EUde": "Winzling",
      "EUen": "youngin",
      "EUes": "Cascajal",
      "EUfr": "coquin",
      "EUit": "amicone",
      "EUnl": "jongeling",
      "EUru": "мелюзга",
      "JPja": "っぺ",
      "KRko": "돌이",
      "TWzh": "仔",
      "USen": "youngin",
      "USes": "Pulguita",
      "USfr": "coquin"
    }
  },
  {
    "label": "064",
    "locale": {
      "CNzh": "伙计",
      "EUde": "Terrier",
      "EUen": "Kid ",
      "EUes": "Pequeñez",
      "EUfr": "moineau",
      "EUit": "microbo",
      "EUnl": "doerak ",
      "EUru": "хулиган",
      "JPja": "のじ",
      "KRko": "쓰",
      "TWzh": "吾友",
      "USen": "Kid ",
      "USes": "Pequeñez",
      "USfr": "moineau"
    }
  },
  {
    "label": "065",
    "locale": {
      "CNzh": "兄弟",
      "EUde": "Naseweis",
      "EUen": "lucky",
      "EUes": "Garbanzo",
      "EUfr": "terreur",
      "EUit": "gnomo",
      "EUnl": "schavuit",
      "EUru": "сорванец",
      "JPja": "きょうだい",
      "KRko": "브라더",
      "TWzh": "兄弟",
      "USen": "lucky",
      "USes": "Renacuajo",
      "USfr": "terreur"
    }
  },
  {
    "label": "066",
    "locale": {
      "CNzh": "大哥",
      "EUde": "Knilch",
      "EUen": "pup",
      "EUes": "Zagal",
      "EUfr": "sapajou",
      "EUit": "nonnetto",
      "EUnl": "ouwe kerel",
      "EUru": "хитрюга",
      "JPja": "アニキ",
      "KRko": "형",
      "TWzh": "大哥",
      "USen": "pup",
      "USes": "Pibe",
      "USfr": "canaille"
    }
  },
  {
    "label": "067",
    "locale": {
      "CNzh": "头儿",
      "EUde": "Kamerad",
      "EUen": "chum",
      "EUes": "Pipiolo",
      "EUfr": "microbe",
      "EUit": "paciocco",
      "EUnl": "ventje",
      "EUru": "товарищ",
      "JPja": "カシラ",
      "KRko": "형님",
      "TWzh": "老大",
      "USen": "chum",
      "USes": "Chamo",
      "USfr": "microbe"
    }
  },
  {
    "label": "068",
    "locale": {
      "CNzh": "姐们",
      "EUde": "Mini",
      "EUen": "peanut",
      "EUes": "Renacuaja",
      "EUfr": "bichette",
      "EUit": "pupa",
      "EUnl": "moppie",
      "EUru": "мисси",
      "JPja": "アネゴ",
      "KRko": "누이",
      "TWzh": "姐仔",
      "USen": "peanut",
      "USes": "Renacuaja",
      "USfr": "bichette"
    }
  },
  {
    "label": "069",
    "locale": {
      "CNzh": "老姐",
      "EUde": "Pilz",
      "EUen": "june bug",
      "EUes": "Pulguita",
      "EUfr": "puceron",
      "EUit": "bambola",
      "EUnl": "meiske",
      "EUru": "стрекоза",
      "JPja": "あねさん",
      "KRko": "언니야",
      "TWzh": "老姐",
      "USen": "june bug",
      "USes": "Chibola",
      "USfr": "puceron"
    }
  },
  {
    "label": "070",
    "locale": {
      "CNzh": "老妈",
      "EUde": "Purzel",
      "EUen": "scooter",
      "EUes": "Sabionda",
      "EUfr": "pépette",
      "EUit": "furbona",
      "EUnl": "bolleboos",
      "EUru": "умница",
      "JPja": "オフクロ",
      "KRko": "엄마",
      "TWzh": "老媽",
      "USen": "scooter",
      "USes": "Chamaca",
      "USfr": "geek"
    }
  },
  {
    "label": "071",
    "locale": {
      "CNzh": "儿",
      "EUde": "Prof. ",
      "EUen": "slick",
      "EUes": "-san",
      "EUfr": "apollon",
      "EUit": "genio",
      "EUnl": "knapperd",
      "EUru": "бренд",
      "JPja": "ちゃん",
      "KRko": "아기",
      "TWzh": "兒",
      "USen": "slick",
      "USes": "Gurú",
      "USfr": "apollon"
    }
  },
  {
    "label": "072",
    "locale": {
      "CNzh": "儿",
      "EUde": "Erbse",
      "EUen": "rutabaga",
      "EUes": "my friend",
      "EUfr": "big boss",
      "EUit": "artista",
      "EUnl": "groupie",
      "EUru": "селебрити",
      "JPja": "ちゃん",
      "KRko": "아기",
      "TWzh": "兒",
      "USen": "rutabaga",
      "USes": "Gamer",
      "USfr": "poulet"
    }
  },
  {
    "label": "073",
    "locale": {
      "CNzh": "～～",
      "EUde": "Trendy",
      "EUen": "hashtag",
      "EUes": "Zarigüeya",
      "EUfr": "machin",
      "EUit": "guapo",
      "EUnl": "hashtag",
      "EUru": "хэштег",
      "JPja": "ーー",
      "KRko": "",
      "TWzh": "～～",
      "USen": "hashtag",
      "USes": "\"My friend\"",
      "USfr": "machin"
    }
  },
  {
    "label": "074",
    "locale": {
      "CNzh": "～",
      "EUde": " Deluxe",
      "EUen": "maestro",
      "EUes": "Mc",
      "EUfr": "mon fan",
      "EUit": "Super ",
      "EUnl": "-talent",
      "EUru": "супер",
      "JPja": "ッー",
      "KRko": "베이비",
      "TWzh": "～",
      "USen": "maestro",
      "USes": "Mc",
      "USfr": "mon fan"
    }
  },
  {
    "label": "075",
    "locale": {
      "CNzh": "朋友",
      "EUde": "Cowboy",
      "EUen": "platinum",
      "EUes": "Mr. ",
      "EUfr": "cow-boy",
      "EUit": "gaucho",
      "EUnl": "winnaar",
      "EUru": "лейбл",
      "JPja": "アミーゴ",
      "KRko": "아미고",
      "TWzh": "小老弟",
      "USen": "platinum",
      "USes": "Mr. ",
      "USfr": "cowboy"
    }
  },
  {
    "label": "076",
    "locale": {
      "CNzh": "小哥",
      "EUde": "Meister",
      "EUen": "Sir ",
      "EUes": "Herr ",
      "EUfr": "bogosse",
      "EUit": "geometra",
      "EUnl": "DJ ",
      "EUru": "DJ ",
      "JPja": "にいさん",
      "KRko": "보스",
      "TWzh": "小哥",
      "USen": "DJ ",
      "USes": "Herr ",
      "USfr": "bogosse"
    }
  },
  {
    "label": "077",
    "locale": {
      "CNzh": "小子",
      "EUde": "-kun",
      "EUen": "guru",
      "EUes": "-kun",
      "EUfr": "winner",
      "EUit": "duca",
      "EUnl": "-boy",
      "EUru": "месье",
      "JPja": "ボーイ",
      "KRko": "보이",
      "TWzh": "小子",
      "USen": "guru",
      "USes": "Maestro",
      "USfr": "-san"
    }
  },
  {
    "label": "078",
    "locale": {
      "CNzh": "美眉",
      "EUde": "-chan",
      "EUen": "headliner",
      "EUes": "Ms. ",
      "EUfr": "baby",
      "EUit": "hermosa",
      "EUnl": "artieste",
      "EUru": "мадам",
      "JPja": "セニョリータ",
      "KRko": "세뇨리따",
      "TWzh": "甜心",
      "USen": "headliner",
      "USes": "Ms. ",
      "USfr": "darling"
    }
  },
  {
    "label": "079",
    "locale": {
      "CNzh": "小姐姐",
      "EUde": "Mäuschen",
      "EUen": "friendo",
      "EUes": "Frau ",
      "EUfr": "saucisse",
      "EUit": "fata",
      "EUnl": "my amie",
      "EUru": "ма-шер",
      "JPja": "ねえさん",
      "KRko": "누나누나",
      "TWzh": "甜姐兒",
      "USen": "friendo",
      "USes": "Frau ",
      "USfr": "caro mio"
    }
  },
  {
    "label": "080",
    "locale": {
      "CNzh": "美女",
      "EUde": "Baby",
      "EUen": "canapé",
      "EUes": "-chan",
      "EUfr": "poupée",
      "EUit": "mitica",
      "EUnl": "fangirl",
      "EUru": "фэшиониста",
      "JPja": "ガール",
      "KRko": "소녀",
      "TWzh": "美女",
      "USen": "canapé",
      "USes": "\"Mon amie\"",
      "USfr": "mi amiga"
    }
  }
]