﻿[
  {
    "label": "001",
    "attribute": "0x0000000000000000",
    "locale": {
      "CNzh": "",
      "EUde": "",
      "EUen": "",
      "EUes": "",
      "EUfr": "",
      "EUit": "",
      "EUnl": "",
      "EUru": "",
      "JPja": "",
      "KRko": "",
      "TWzh": "",
      "USen": "",
      "USes": "",
      "USfr": ""
    }
  },
  {
    "label": "001_01",
    "attribute": "0x0000000000000000",
    "locale": {
      "CNzh": "，哈喽～！\n没想到你会突然发来邀请……\n我真的超～开心的～！。",
      "EUde": "Der Wahnsinn! Eine Einladung von\ndir ist das Highlight meines Tages,\nmeiner Woche UND meines Monats!",
      "EUen": "Ohmigosh! Getting an invite from you\nhas totally been the highlight of my\nday, week, AND month!",
      "EUes": "Me hace ilusión mil que me hayas\ninvitado, guapi.\nLo he dejado todo y he venido\ncorriendo. Ya sabes que la moi, por\nsus fans, lo que sea, .",
      "EUfr": "Rho là là ! Ton invitation a illuminé\nma journée, ma semaine ET mon\nmois,  !",
      "EUit": "Allucinante! Il tuo invito è stato\ntroppo il top della mia giornata,\nsettimana e MESE, !",
      "EUnl": "Sjeempie! Een uitnodiging van jou!\nDat is echt het hoogtepunt van mijn\ndag, week én maand, !",
      "EUru": "Вау! Твое приглашение — лучшее,\nчто случилось за этот день, неделю\nи месяц тоже! .",
      "JPja": "　ヤッホ～！\nとつぜん　よびだしてくるなんて・・・\nちょーウレシイじゃん、もう～！　",
      "KRko": "아, 안녕～!\n이렇게 갑자기 부르면...\n너～무 기쁘잖아! 아이참～! !",
      "TWzh": "，哈囉～！\n沒想到你會突然邀請我……\n我覺得超～開心喔～！。",
      "USen": "Ohmigosh! Getting an invite from you\nhas totally been the highlight of my\nday, week, AND month!",
      "USes": "Me superalegra que me hayas\ninvitado, amigui.\nLo dejé todo y me vine corriendo. \nYa sabes que por mis fans hago\nlo que sea, .",
      "USfr": "Oh là là! Ton invitation a illuminé\nma journée, ma semaine ET mon\nmois, !"
    }
  },
  {
    "label": "001_02",
    "attribute": "0x0000000000000000",
    "locale": {
      "CNzh": "你好，！\n谢谢你的邀请啦！。",
      "EUde": "Hey, du bist's, (Spitzname), voll klasse! Ich mein, logo, dass du's bist.\nDu hast mich schließlich überhaupt\nerst eingeladen.",
      "EUen": "Ah, look! It's (nickname)!\nI mean, of course it's you... You're\nthe one who, like, invited me here.",
      "EUes": "¡(nickname) de mis amores! Esperaba verte aquí, pero aun así como que me hace mucha ilu.",
      "EUfr": "Ah, regardez qui voilà ! (surnom) ! Évidemment que c'est toi... Tu m'as invitée ici.",
      "EUit": "Guarda chi c'è! (nickname)! Cioè, ovvio... Mi hai invitata tu qui.",
      "EUnl": "Hé! Daar is (nickname)! Ik bedoel, tuurlijk ben jij het... Jij hebt me hier, zeg maar, uitgenodigd.",
      "EUru": "Ой, смотри! Это (nickname)! То есть это ты, конечно же... Это ты меня сюда пригласил.",
      "JPja": "チャオ、！\nおさそい　サンキュー！　",
      "KRko": "헬로, 아!\n초대해줘서 땡큐! !",
      "TWzh": "，你好呀！\n謝謝你邀請我～！。",
      "USen": "Ah, look! It's (nickname)!\nI mean, of course it's you... You're\nthe one who, like, invited me here.",
      "USes": "¡(nickname) de mi corazón! Esperaba verte aquí, pero aun así como que me da mucha alegría verte.",
      "USfr": "Ah, regardez qui voilà! (surnom)! Évidemment que c'est toi... Tu m'as invitée ici."
    }
  },
  {
    "label": "001_03",
    "attribute": "0x0000000000000000",
    "locale": {
      "CNzh": "久等了，！\n我补了个妆，花了不少时间……\n感谢你的邀请啦～！。",
      "EUde": "Tut mir megaleid, dass ich spät dran\nbin! Ich lass meine Fans sonst echt\nnicht warten, (Floskel).",
      "EUen": "I am SO sorry that I was running late,\n(nickname)!\nIt's not my style to keep folks\nwaiting, .",
      "EUes": "¿Llego muy tarde? ¡Dime que no,\nporfi! ODIO la impuntualidad con\ntodo mi corazón, (nickname).\nQue te hagan esperar NO es\nnada guay, .",
      "EUfr": "Désolée d'avoir traîné, (surnom) ! Faire poireauter les gens, c'est pas mon style !",
      "EUit": "Scusa il ritardo, (nickname)! Non è nel mio stile fare aspettare la gente, .",
      "EUnl": "Ooo, sorry, dat ik bijna te laat was, (nickname)! , dat is zo totaal niet mijn ding!",
      "EUru": "(nickname), прости за опоздание! Я не люблю заставлять себя ждать. .",
      "JPja": "おまたせ、！\nメイク直しに　時間かかっちゃった・・・\nさそってくれて　ありがと～！　",
      "KRko": "아! 기다렸지?\n준비하는 데 시간이 오래 걸려서...\n초대해줘서 고마워～! !",
      "TWzh": "，讓你久等了！\n因為補妝耽擱了一點時間……\n謝謝你邀請我～！。",
      "USen": "I am SO sorry that I was running late,\n(nickname)!\nIt's not my style to keep folks\nwaiting, .",
      "USes": "¿Llego muy tarde? ¡Dime que no,\nporfi! La impuntualidad no me\nsuperencanta, (nickname).\nQue te hagan esperar es lo peor\ndel mundo mundial, .",
      "USfr": "Désolée d'avoir traîné, (surnom)! Faire poireauter les gens, c'est pas mon style!"
    }
  },
  {
    "label": "002",
    "attribute": "0x0000000000000000",
    "locale": {
      "CNzh": "",
      "EUde": "",
      "EUen": "",
      "EUes": "",
      "EUfr": "",
      "EUit": "",
      "EUnl": "",
      "EUru": "",
      "JPja": "",
      "KRko": "",
      "TWzh": "",
      "USen": "",
      "USes": "",
      "USfr": ""
    }
  },
  {
    "label": "002_01",
    "attribute": "0x0000000000000000",
    "locale": {
      "CNzh": "",
      "EUde": "",
      "EUen": "",
      "EUes": "",
      "EUfr": "",
      "EUit": "",
      "EUnl": "",
      "EUru": "",
      "JPja": "",
      "KRko": "",
      "TWzh": "",
      "USen": "",
      "USes": "",
      "USfr": ""
    }
  },
  {
    "label": "003",
    "attribute": "0x0000000000000000",
    "locale": {
      "CNzh": "",
      "EUde": "",
      "EUen": "",
      "EUes": "",
      "EUfr": "",
      "EUit": "",
      "EUnl": "",
      "EUru": "",
      "JPja": "",
      "KRko": "",
      "TWzh": "",
      "USen": "",
      "USes": "",
      "USfr": ""
    }
  },
  {
    "label": "003_01",
    "attribute": "0x0000000000000000",
    "locale": {
      "CNzh": "哈喽～！能和\n在相会，\n我超开心的，立马就飞奔过来啦！。",
      "EUde": "Ich brauchte echt mal 'ne Auszeit!\nUnd, okay, wo kann man besser\nrelaxen als auf ?",
      "EUen": "I def was in need of a vacation!\nAnd what better place to relax\nthan , you know?",
      "EUes": "Mira, justo me pedía el cuerpo\nhacer una escapadita y como,\nno sé, ¿desconectar de todo?\n¡Qué suerte que  sea el lugar hiperperfecto para darse al relax y la chipichipez!",
      "EUfr": "J'avais vraiment trop besoin de\nvacances ! Et quel meilleur endroit\npour buller que  ?",
      "EUit": "Mi serviva troppo una vacanza!\nE, cioè, quale posto è meglio di\n?",
      "EUnl": "Ik was zo totaal aan vakantie toe! Echt wel! Dus: !!! Snap je?",
      "EUru": "Мне срочно нужен был отдых!\nА остров  — то, что нужно, чтобы расслабиться.",
      "JPja": "ヤッホ～！　と\nに会えるのが\nうれしくて、飛んで来ちゃった！　",
      "KRko": "안녕～! 이랑\n에서 만나는 게\n너무 기뻐서 날아왔다구! !",
      "TWzh": "哈囉～！一想到能和\n在見面，\n我就高興到火速趕來囉！。",
      "USen": "I def was in need of a vacation!\nAnd what better place to relax\nthan , you know?",
      "USes": "Mira, justo me pedía el cuerpo\nhacer una escapadita y como,\nno sé, ¿desconectarme de todo?\n¡Qué suerte que  sea el lugar hiperperfecto para\nrelajarse y pasar un rato hiperfabs!",
      "USfr": "J'avais vraiment trop besoin de\nvacances! Et quel meilleur endroit\nque  pour ça?"
    }
  },
  {
    "label": "003_02",
    "attribute": "0x0000000000000000",
    "locale": {
      "CNzh": "啊，你是吧！\n谢谢你的邀请！\n很高兴见到你。。",
      "EUde": "Du musst (Spielername) sein!\nVoll schön, dich zu treffen. Danke\nfür die Einladung, (Floskel)!",
      "EUen": "And you must be (player name),\nright?\nIt's, like, so great to meet you.\nThanks for the invite, !",
      "EUes": "¡Gracias mil por la invitación, (player name)⁠!\nComo que no me la esperaba y me\nhe venido en plan con lo puesto, .",
      "EUfr": "Tu dois être (nom du joueur), j'ai bon ? C'est cool de te rencontrer. Merci pour l'invite,  !",
      "EUit": "Tu devi essere (player name), no? Che storia, piacere di conoscerti. E grazie per l'invito, !",
      "EUnl": "Dus jij bent (player name)? Ik vind het zóóó super je te ontmoeten! Onwijs bedankt, !",
      "EUru": "А ты, наверное, (player name), да? Ну о-о-очень приятно. Спасибо, что пригласил! !",
      "JPja": "あっ　、だよね！\nおまねきしてくれて　サンキュー！\n会えて　ウレシイよ、",
      "KRko": "앗,  맞지?\n초대해줘서 고마워～!\n만나서 기뻐! !",
      "TWzh": "啊，你就是吧！\n謝謝你的邀請～！\n我很高興能見到你唷，。",
      "USen": "And you must be (player name),\nright?\nIt's, like, so great to meet you.\nThanks for the invite, !",
      "USes": "¡Gracias mil por la invitación, (player name)⁠!\nComo que no me la esperaba y\nme vine así, tal cual, con lo que llevaba puesto, .",
      "USfr": "Tu dois être (nom du joueur), j'ai raison? C'est cool de te rencontrer. Merci pour l'invitation, !"
    }
  },
  {
    "label": "003_03",
    "attribute": "0x0000000000000000",
    "locale": {
      "CNzh": "嘻嘻，打扰了～！\n谢谢你邀请我来，\n今天请多关照啦～！。",
      "EUde": "Findest du es auch so megaklasse,\ndass wir hier abhängen?\nSO GENIAL, (Floskel)!",
      "EUen": "Aren't you totally excited to spend\nsome time together? It's going to\nbe such a blast, !",
      "EUes": "¡Qué ilu me hace estar aquí y poder\npasar un rato contigo! Va a ser\nsupergenial, .",
      "EUfr": "On passe du temps ensemble, c'est\npas génial ? Moi, je trouve ça\ndément,  !",
      "EUit": "Non sei troppo contento di passare\ndel tempo con me? Andrà tutto alla\ngrande, !",
      "EUnl": "Is het geen feest dat we elkaar\nontmoeten? En het wordt alleen nog\nmaar leuker, ! Echt wel!",
      "EUru": "Я безумно счастлива провести\nс тобой время, а ты? Будет та-а-к\nздорово! .",
      "JPja": "えへへ、おじゃましてま～す！\n声かけてくれて　サンキューね、\n今日は　よろしく～！　",
      "KRko": "에헤헤, 놀러왔어～!\n말 걸어줘서 고마워\n오늘은 잘 부탁해～! !",
      "TWzh": "嘻嘻，打擾了～！\n謝謝你今天找我來，\n請多多指教囉～！。",
      "USen": "Aren't you totally excited to spend\nsome time together? It's going to\nbe such a blast, !",
      "USes": "¡Qué emoción estar aquí y poder\npasar un rato contigo! Va a\nser supergenial, .",
      "USfr": "On passe du temps ensemble, c'est\npas génial? Moi, je trouve ça\ndément, !"
    }
  },
  {
    "label": "011",
    "attribute": "0x0000000000000000",
    "locale": {
      "CNzh": "感谢你再次邀请我来！\n其实我也在想，\n要和你多聊聊呢～！。",
      "EUde": "Danke, dass du mich noch mal\neingeladen hast! Ich verbring ja doch\necht gern Zeit mit dir, (Floskel)!",
      "EUen": "Thanks for the follow-up invite!\nI was hoping to spend more time\ntalking with you too, !",
      "EUes": "No sabes la ilu que me hace que\nvuelvas a invitarme. ¡Con lo guay\nque me lo paso siempre contigo!",
      "EUfr": "C'est très sympa de m'inviter ! \nJ'avais encore plein de trucs à te\ndire sur moi,  !",
      "EUit": "Grazie mille dell'invito! Speravo\nanch'io di passare un po' di tempo\na chiacchierare con te, .",
      "EUnl": "Súperaardig van je om me opnieuw\nuit te nodigen! Ik had het eigenlijk al\neen beetje verwacht, !",
      "EUru": "Спасибо, что предложил снова\nвстретиться! Надеюсь, в этот раз мы\nсможем побольше поболтать!",
      "JPja": "リピしてくれて　サンキュー！\n実は　アタイも、もっとアンタと\nトークしたいって思ってたの～！　",
      "KRko": "또 불러줘서 땡큐～!\n사실 나도 너랑 좀 더\n얘길 나누고 싶었거든～! !",
      "TWzh": "謝謝你再次邀請我～！\n其實我也很想\n再跟你多聊聊呢～！。",
      "USen": "Thanks for the follow-up invite!\nI was hoping to spend more time\ntalking with you too, !",
      "USes": "No sabes lo feliz que me hace que\nvuelvas a invitarme. ¡Siempre me\nla paso supergenial contigo!",
      "USfr": "C'est très sympa de m'inviter! \nJ'avais encore plein de trucs à te\ndire sur moi, !"
    }
  },
  {
    "label": "101",
    "attribute": "0x0000000000000000",
    "locale": {
      "CNzh": "",
      "EUde": "",
      "EUen": "",
      "EUes": "",
      "EUfr": "",
      "EUit": "",
      "EUnl": "",
      "EUru": "",
      "JPja": "",
      "KRko": "",
      "TWzh": "",
      "USen": "",
      "USes": "",
      "USfr": ""
    }
  },
  {
    "label": "101_01",
    "attribute": "0x0000000000000000",
    "locale": {
      "CNzh": "一个人悠闲地喝喝咖啡也不错，\n但我更喜欢两个人一起愉快地\n边聊天边喝咖啡～！。",
      "EUde": "Sich allein bei einer heißen Tasse\nKaffee zu entspannen ist nice, aber\nzu zweit ist's natürlich obersupi!",
      "EUen": "Relaxing alone with a warm cup of\ncoffee is nice, but it's even better\ntalking with a bestie!",
      "EUes": "Mira, yo, superfán de relajarme en\ncasa con mi tacita de café.\nPero al final las cosas compartidas\nse disfrutan el doble. O sea, hasta\nliteralmente, .",
      "EUfr": "J'adore boire un café tranquillou,\nvraiment, mais ça ne vaut pas le café\navec son meilleur ami !",
      "EUit": "Non mi dispiace bermi un caffè da\nsola, ma in compagnia è decisamente\nda paura!",
      "EUnl": "In je eentje een koffietje drinken is\nsuperfijn, maar koffie met een van je\nbeste vriendjes is het allerfijnst!",
      "EUru": "Отдыхать одной за чашкой кофе,\nконечно, обалденно, но еще лучше\nэто делать с другом!",
      "JPja": "ひとりで　まったり飲むのもいいけど、\nふたりで楽しく　トークしながら飲む\nコーヒーも　大好きだよ～！　",
      "KRko": "혼자서 느긋하게 마시는 것도 좋지만\n둘이서 즐겁게 얘기하면서 마시는\n커피도 완전 좋아해～! !",
      "TWzh": "雖然一個人慢慢享用也不錯，\n但我還是最喜歡兩人一起\n開心地邊聊天邊喝咖啡唷～！。",
      "USen": "Relaxing alone with a warm cup of\ncoffee is nice, but it's even better\ntalking with a bestie!",
      "USes": "Mira, yo soy superfán de relajarme\nen casa con mi tacita de café.\nPero se disfruta el doble si me la tomo con un superamiguis.\nO sea, literalmente, .",
      "USfr": "J'adore boire un café tranquillou,\nvraiment, mais ça ne vaut pas le café\navec son meilleur ami!"
    }
  },
  {
    "label": "101_02",
    "attribute": "0x0000000000000000",
    "locale": {
      "CNzh": "你和很多不同的人来咖啡店打发时间吗～？\n如果听到了有趣的传闻，\n记得要和我分享哦～！。",
      "EUde": "Hast du schon viele in dieses Café\neingeladen? Ich will allen Tratsch\nhören! Hopp, schieß los!",
      "EUen": "Do you invite lots of folks here to the\ncafé? Because I need to hear ALL of\ntheir gossip! Dish for me.",
      "EUes": "Guapi, ¿invitas a mucha gente a\nla cafetería? No es porque no\nme sienta especial ni nada...\nPero una también tiene su orgullo\ny a veces necesita saber, oye.",
      "EUfr": "Tu invites beaucoup de gens dans\nce café ? Si oui, je veux connaître\ntous les derniers potins, mdr !",
      "EUit": "Inviti molta gente in caffetteria?\nVoglio troppo sentire qualche\npettegolezzo! Spara, ti ascolto.",
      "EUnl": "Nodig je veel vrienden hier uit in het\ncafé? Ik ben namelijk zóóó benieuwd\nnaar alle roddels! Lepel maar op!",
      "EUru": "Ты часто сюда приглашаешь кого-\nто? Я хочу узнать последние\nсплетни обо всех! Выкладывай.",
      "JPja": "いろんなコと　カフェ楽しんでる～？\nおもしろい　ウワサ話とかあったら、\nアタイにも　シェアしてよね～？　",
      "KRko": "다른 애들이랑도 카페에 오고 그래～?\n재밌는 소문 같은 거 있으면\n나한테도 알려줘야 해～! !",
      "TWzh": "你有和其他人一起去過咖啡店嗎？\n如果有什麼有趣的話題，\n能不能說給我聽聽看呢～？。",
      "USen": "Do you invite lots of folks here to the\ncafé? Because I need to hear ALL of\ntheir gossip! Dish for me.",
      "USes": "Guapi, ¿invitas a mucha gente a\nla cafetería? No es porque no\nme sienta especial ni nada...\nEs más bien porque necesito\nsaber los chismes que te contaron,\ndímelo todo, amigui.",
      "USfr": "Tu invites beaucoup de gens dans\nce café? Si oui, je veux connaître\ntous les derniers potins, lol!"
    }
  },
  {
    "label": "101_03",
    "attribute": "0x0000000000000000",
    "locale": {
      "CNzh": "待在这样令人放松的地方，我感觉自己\n内在的成熟气质都要显露出来了～。",
      "EUde": "Hier in Ruhe abzuhängen ist 'ne gute\nÜbung, wie man später 'ne Pause im\nhektischen Popstarleben einlegt.",
      "EUen": "Hanging out in a calm space like this\nis good practice for taking a break\nfrom the hectic life of a pop star.",
      "EUes": "Pensé en venir camuflada con gafas\nde sol y pañoleta porque no me\nape mucho firmar autógrafos...\nPero al final me he dicho:\n«¡No tienes por qué esconderte!»\ny aquí me tienes, al natural.",
      "EUfr": "Ça me fait du bien de me détendre\nici. Une fois star, il faudra que je\nprenne des pauses ici, au calme.",
      "EUit": "Cioè, 'sto posto è perfetto per fare\nuna pausa dalla fama e dagli impegni\ndi una pop star come me.",
      "EUnl": "Als ik wil leren om even afstand te\nnemen van het hectische popsterren-\nbestaan is dit dé perfecte plek.",
      "EUru": "Хорошо бывает расслабиться\nв таком тихом месте, как это. От\nжизни поп-звезды тоже устаешь.",
      "JPja": "こういう　落ち着いた場所にいるだけで、\n自分の中のオトナ　出ちゃうよね～、",
      "KRko": "이렇게 차분한 장소에 있으면\n감춰 뒀던 내 어른스러운 모습이\n드러나는 것 같지 않아～? ～?",
      "TWzh": "待在這種能令人安心放鬆的地方，\n能好好展現我成熟的一面呢～。",
      "USen": "Hanging out in a calm space like this\nis good practice for taking a break\nfrom the hectic life of a pop star.",
      "USes": "Pensé en venir camuflada con lentes\nde sol y pañoleta para que nadie me\nreconociera...\nPero al final dije:\n\"¡No tienes por qué esconderte!\"\ny aquí me tienes, al natural.",
      "USfr": "Ça me fait du bien de me détendre\nici. Une fois star, il faudra que je\nprenne des pauses ici, au calme."
    }
  },
  {
    "label": "101_04",
    "attribute": "0x0000000000000000",
    "locale": {
      "CNzh": "两个人在安静的咖啡店里……\n是不是很像电影里的场景？\n“分手吧，我们……”\n……类似这种？！\n请陪未来的女演员(resident name)\n一起练习吧！。",
      "EUde": "Zwei Leute sitzen in einem ruhigen\nCafé... Wir gucken beide ernst.\nTrinken Kaffee. Wie 'ne Seifenoper!\n„Es liegt nicht an dir, es liegt an mir.“\n„Ich weiß nicht, wie ich ohne dich\nleben soll.“\n„Ich weiß nicht, wie ich MIT dir leben\nsoll.“\nUnd dann werden sie von Ninjas\nangegriffen! Sie kämpfen gemeinsam,\num zu überleben. Action! Romanze!\nDrehbücher schreiben ist so einfach,\n(Floskel)!",
      "EUen": "Two folks sitting in a quiet café...\nBoth of us looking serious. Sipping\ncoffee. We're like a TV drama!\n\"We just aren't good for each other.\"\n\"I can't live without you.\"\n\"I can't live WITH you.\"\nAnd then they're attacked by ninjas!\nThey join forces to survive, and they\nrekindle their love! Action! Romance!\nWriting is easy, !",
      "EUes": "Míranos, dos personitas sentadas\nen una cafetería... con gesto serio\ny sorbiendo café.\n¡Es como si fuésemos los protas\nde una comedia romántica!\n«No eres tú, soy yo.»\n«Queremos cosas distintas...»\n«Te mereces algo mejor.»\nY entonces... ahí es cuando entran\nlos ninjas y los atacan. Deben unir\nfuerzas para sobrevivir y... ¡BAM!\n¡Vuelve a surgir la llama del amor!\nMira, si por lo que sea me canso de\nser superestrella del pop, siempre\npuedo hacerme guionista.",
      "EUfr": "Dis donc... On se croirait pas dans\nune série, là, à boire ensemble un\ncafé, en mode trop sérieux ?\n« Entre toi et moi, ça ne colle plus. ⁠»\n« Ne dis pas ça, je ne peux pas vivre\nsans toi ! ⁠»\n« Oui mais moi, j'en peux plus de\nvivre avec toi. ⁠»\nEt là, des ninjas les attaquent ! Les combattre ensemble fait renaître leur\npassion !\nEn fait, c'est super fastoche d'écrire\nun scénario,  !",
      "EUit": "Starsene qui in caffetteria, a\nsorseggiare un caffè con calma...\nCioè, praticamente è come un film!\n\"Il destino ci è avverso.\"\n\"Non potrei vivere senza di te.\"\n\"Ma non posso vivere nemmeno\nCON te.\"\nE poi arrivano dei ninja! Azione! C'è\nun combattimento, poi gli innamorati\nsi giurano amore eterno! Passione!\nCioè, scrivere è troppo la parte più\nfacile, !",
      "EUnl": "Twee types zitten aan de koffie in\neen stil café. Ze kijken ernstig...\nWe lijken wel een soapserie!\n\"We maken elkaar kapot.\"\n\"Zonder jou kan ik niet leven.\"\n\"Met jou kan ík niet leven.\"\nEn dan worden ze aangevallen door\nninja's! Ze slaan de aanval af en het\nvuur van hun liefde laait weer op!\nActie! Romantiek! Hartstikke\nmakkelijk, scenario's schrijven,\n!",
      "EUru": "Двое сидят в тихом кафе... Лица\nу них серьезные. Пьют кофе.\nПохоже на сцену из сериала!\n — Мы не подходим друг другу.\n— Я не знаю, как жить без тебя.\n— Я не знаю, как жить с тобой.\nИ тут на них нападают ниндзя! Они\nвместе дерутся с ними и снова друг\nв друга влюбляются! Романтика!\nПисать сценарии проще простого!\n.",
      "JPja": "しずかなカフェに　ふたり・・・\nドラマの　ワンシーンっぽくない？\n「おわりにしましょ、アタイたち・・・」\n・・・みたいな？！\n未来のじょゆう・(resident name)のために\n練習　付き合ってよ、",
      "KRko": "조용한 카페에 앉은 두 사람...\n꼭 드라마의 한 장면 같지 않아?\n'우리 이만 헤어져요...'\n...방금 대사 어땠어?\n미래의 대배우 (resident name)을 위해서\n연기 연습 좀 도와줘, !",
      "TWzh": "兩個人待在安靜的咖啡店……\n你不覺得很像電視劇場景嗎？\n「我們，分手吧……」\n類似……這種的！？\n為了未來的女演員(resident name)，\n請你陪我練習吧，。",
      "USen": "Two folks sitting in a quiet café...\nBoth of us looking serious. Sipping\ncoffee. We're like a TV drama!\n\"We just aren't good for each other.\"\n\"I can't live without you.\"\n\"I can't live WITH you.\"\nAnd then they're attacked by ninjas!\nThey join forces to survive, and they\nrekindle their love! Action! Romance!\nWriting is easy, !",
      "USes": "Míranos, dos personitas sentadas\nen una cafetería... con gesto serio\ny sorbiendo su cafecito.\n¡Es como si fuéramos los\nprotagonistas de una peli!\n\"No eres tú, soy yo\".\n\"Queremos cosas distintas...\".\n\"Te mereces algo mejor\".\nY entonces... ahí es cuando entran\nlos ninjas y atacan. Deben unir\nfuerzas para sobrevivir y... ¡BAM!\n¡Vuelven a ser superamiguis!\nMira, si por lo que sea me canso de\nser superestrella del pop, siempre\npuedo hacerme guionista.",
      "USfr": "Dis donc... On se croirait pas dans\nune série, là, à boire ensemble un\ncafé, en mode trop sérieux?\n« Entre toi et moi, ça ne marche plus. ⁠»\n« Ne dis pas ça, je ne peux pas vivre\nsans toi! ⁠»\n« Oui, mais moi, j'en peux plus de\nvivre avec toi. ⁠»\nEt là, des ninjas les attaquent! Les combattre ensemble fait renaître leur\npassion!\nEn fait, c'est super facile d'écrire\nun scénario, !"
    }
  },
  {
    "label": "101_05",
    "attribute": "0x0000000000000000",
    "locale": {
      "CNzh": "我和你说哦～！我读了\n《》\n这本书，它说的是……\n啊！不能剧透，\n万一哪天你也要读这本书……\n抱歉抱歉～你就当没听到啦～！。",
      "EUde": "Oh! Ich hab neulich „“ gelesen. Und ganz zum Schluss...\nWaaah! Ich darf dir die Wende nicht\nverraten! Oder dass es eine Wende\ngibt! Ich sag nix mehr, (Floskel)!",
      "EUen": "Oh! So, I read this one book called\n\".\"\nAnd at the end of it...\nGah! I can't tell you the twist ending!\nOr that there even is a twist! I'm, uh, gonna be quiet now, !",
      "EUes": "Me acabo de terminar este libro,\n«», y el final es...\nO sea, no te lo cuento porque te\narruino la sorpresa y esa es\nla mejor parte.\nPero si te animas a leerlo me avisas\ny lo comentamos con todo lujo de\ndetalles, .",
      "EUfr": "Oh ! Alors figure-toi que j'ai lu ce bouquin, « ⁠ ⁠».\nEt voilà pas qu'à la fin... Ah mais\nje peux pas te raconter la fin, ça se\nfait trop pas !\nBon je vais me taire, , je crois que ça vaudra mieux, lol !",
      "EUit": "Sai, ho letto un libro intitolato\n\"\".\nE finiva così...\nUah! No, non posso svelarti il finale\na sorpresa! Oh, no. Ti ho detto che\nc'è la sorpresa! Basta, non parlo più!",
      "EUnl": "Dus! Ik heb een boek uitgelezen! \n\"\" heette het. En aan het eind...\nPfff! Ik moet die rare wending niet\nverklappen... Of sowieso vertellen\ndat het een rare wending krijgt!\nOké, ik hou mijn mond al, !",
      "EUru": "А! Знаешь, я прочитала книгу\n«», и там в конце...\nОй! Зря я рассказываю, что там за\nповорот! И что он там вообще есть!\nЛадно, я лучше помолчу, наверное.",
      "JPja": "ちょっと　聞いてよ～！\n「」\nって本を読んだんだけど、結末がさぁ・・・\nあっ　ネタバレはダメだよね、\nいつか　読むかもしんないもんね・・・\nゴメンゴメ～ン、わすれて～！　",
      "KRko": "내 말 좀 들어봐～!\n''이란\n책을 읽었는데 글쎄 결말이 있지...!\n앗, 말해버릴 뻔했네!\n언젠가 읽을지도 모르는데...\n미안해! 못 들은 걸로 해줘～! !",
      "TWzh": "聽我說～！我上次讀了一本書，書名叫做\n《》，\n那本書的結局就是……\n啊，不能透漏劇情，\n畢竟你之後說不定也會去讀……\n抱歉抱歉～請你忘了吧～！。",
      "USen": "Oh! So, I read this one book called\n\".\"\nAnd at the end of it...\nGah! I can't tell you the twist ending!\nOr that there even is a twist! I'm, uh, gonna be quiet now, !",
      "USes": "Acabo de terminar este libro,\n\"\", y el final es...\nO sea, no te lo cuento porque te\narruino la sorpresa y esa es\nla mejor parte.\nPero si te animas a leerlo me avisas\ny lo comentamos con todo lujo de\ndetalles, .",
      "USfr": "Oh! Alors figure-toi que j'ai lu ce bouquin, « ⁠ ⁠».\nEt voilà pas qu'à la fin... Ah mais\nje peux pas te raconter la fin, ça se\nfait trop pas!\nBon je vais me taire, , je crois que ça vaudra mieux, lol!"
    }
  },
  {
    "label": "201",
    "attribute": "0x0000000000000000",
    "locale": {
      "CNzh": "",
      "EUde": "",
      "EUen": "",
      "EUes": "",
      "EUfr": "",
      "EUit": "",
      "EUnl": "",
      "EUru": "",
      "JPja": "",
      "KRko": "",
      "TWzh": "",
      "USen": "",
      "USes": "",
      "USfr": ""
    }
  },
  {
    "label": "201_01",
    "attribute": "0x0000000000000000",
    "locale": {
      "CNzh": "我正好想喝\n老板冲的咖啡了。\n好巧呀～。",
      "EUde": "Perfektes Timing! Gerade hab ich mir\nnoch gedacht, dass ich mega Lust\nauf Kofis Kaffee hätte, (Floskel).",
      "EUen": "You have the best timing! I was just\nthinking I wanted a cup of Brewster's\nfinest brown water, .",
      "EUes": "Jopé, no podías haberme llamado en\nmejor momento, guapi. Tenía un\nantojo de café de Fígaro....",
      "EUfr": "Eh ben toi, tu tombes vraiment à\npic ! Je me disais que j'avais trop\nenvie d'un caoua de Robusto !",
      "EUit": "Arrivi proprio in tempo! Stavo per\nordinare un caffè da paura, di quelli\nche fa Bartolo, .",
      "EUnl": "Hoe perfect is jouw timing! Ik zat net\nte denken hoeveel zin ik had in iets\nlekkers van Brewster, .",
      "EUru": "Ты как раз вовремя! Я только\nдумала заказать чашечку райского\nнектара у Брюстера. .",
      "JPja": "ちょうど　マスターのコーヒーが\n飲みたいな～って思ってたとこだったから、\nナイスタイミングだよ～、",
      "KRko": "안 그래도 마스터의 커피를\n마시고 싶다고 생각하고 있었어～\n나이스 타이밍～! !",
      "TWzh": "我正好想喝老闆的咖啡，\n你真會抓時機呢～。",
      "USen": "You have the best timing! I was just\nthinking I wanted a cup of Brewster's\nfinest brown water, .",
      "USes": "No podías haberme llamado en\nmejor momento, guapi. Tenía un\nantojo de café de Fígaro...",
      "USfr": "Eh ben, toi, tu tombes vraiment à\npic! Je me disais que j'avais trop\nenvie d'un café de Robusto!"
    }
  },
  {
    "label": "201_02",
    "attribute": "0x0000000000000000",
    "locale": {
      "CNzh": "我们在这里喝茶的事情，\n要是被上的大家知道了该怎么办呀～\n……嗯？你问我为什么？\n当然是因为会招·人·嫉·妒嘛！\n毕竟你这么受欢迎！\n当然比我还差一点点～开玩笑的！。",
      "EUde": "Versprich mir, dass unser Kaffeedate\nhier nicht in der Klatschpresse\nlandet, okay?\nWieso? Na ja, sonst reden bald alle\nvon der geheimnisvollen Inkognito-\nDiva... So ist das nun mal bei Stars!",
      "EUen": "Promise me you'll keep us meeting\nhere for coffee a secret... But not\nTOO much of a secret.\nWhy? Well, if we act like we're up to\nsomething, everyone else will want in\non it. That's how popularity works!",
      "EUes": "Prométeme que no le contarás\na nadie que quedamos aquí\npara tomar café, ¿vale?\nBueno, díselo solo a gente de\nconfianza para que el rumor\nse propague lo justo.\n¡Así seremos superpopulares,\n!",
      "EUfr": "Notre rencontre au café, c'est un\nsecret, ok ? Enfin, dis à tout le\nmonde que c'est un secret.\nPourquoi ? Ben c'est juste que jouer\nla carte de la confidentialité VIP, ça\nattire les gens.\nEt je te rappelle qu'en popularité,\nje m'y connais, mdr !",
      "EUit": "Promettimi che i nostri incontri qui\nrimarranno un segreto... Ma non\ntroppo, però.\nVuoi sapere perché? Un po' di\nmistero aiuta. La fama funziona\ntroppo così!",
      "EUnl": "Beloof je me dat je onze ontmoeting\ngeheimhoudt? Maar dan zo geheim\ndat er wel íets van mag uitlekken...\nWaarom? Als iedereen denkt dat wij\nhier iets bijzonders hebben, willen ze\nerbij horen. Zo word je dus populair!",
      "EUru": "Обещай держать нашу встречу\nв секрете... Только не в слишком\nбольшом.\nЗачем? Ну, если делать вид, что мы\nчто-то задумали, другим станет\nинтересно. А это популярность!",
      "JPja": "ここで　アタイらが　お茶したこと、\nのみんなに　広まったらどうしよ～・・・\n・・・え、なんでって？\nヤ・キ・モ・チ　焼かれちゃうじゃん！\n　人気者だもん！\nアタイの次にね～、なんちゃって！　",
      "KRko": "여기서 우리가 커피를 마신 건\n 애들한테 소문나면 어떡하지...?\n...응? 왜냐구?\n그야... 다들 질투할 게 뻔한걸!\n은 인기인이니까!\n내 다음으로 말야～ 농담이야! !",
      "TWzh": "要是我們在這喝茶的事\n被島上的大家知道的話，那該怎麼辦啊……\n咦……？你問為什麼嗎？\n因為那會招‧人‧嫉‧妒！\n畢竟很受歡迎！\n雖然還差我一點就是了～開玩笑的啦！。",
      "USen": "Promise me you'll keep us meeting\nhere for coffee a secret... But not\nTOO much of a secret.\nWhy? Well, if we act like we're up to\nsomething, everyone else will want in\non it. That's how popularity works!",
      "USes": "Prométeme que no le contarás\na nadie que quedamos de vernos\naquí para tomar café, ¿sí?\nBueno, díselo solo a gente de\nconfianza para que el rumor\nse propague lo justo y necesario.\n¡Así seremos superpopulares,\n!",
      "USfr": "Notre rencontre au café, c'est un\nsecret, OK? Enfin, dis à tout le\nmonde que c'est un secret.\nPourquoi? Ben c'est juste que jouer\nla carte de la confidentialité VIP, ça\nattire les gens.\nEt je te rappelle qu'en popularité,\nje m'y connais, lol!"
    }
  },
  {
    "label": "201_03",
    "attribute": "0x0000000000000000",
    "locale": {
      "CNzh": "我找到了想和你\n一起吃的，\n可惜这里不能带外面的食物。\n而且它的保质期也快到了，\n我就先自己一个人吃啦。\n下次和你分享我对它的评价！。",
      "EUde": "Man darf leider kein Essen hierher\nmitbringen. Schade, weil ich\n voll gern mag!",
      "EUen": "You can't bring outside food in here,\nor we could totes get to nomming on\n together.",
      "EUes": "Es una pena que no podamos\ntraernos cosis para picar de\ncasa, .\n¡Lo que íbamos a disfrutar\ncomiendo  juntis!",
      "EUfr": "On a pas le droit d'apporter son\nmanger, ici.\nTu penses bien que sinon, on serait\ndéjà en train de s'envoyer .",
      "EUit": "Peccato non si possa portare del cibo\nda fuori. Vorrei troppo sbafarmi un\nbel po' di .",
      "EUnl": "Je mag geen eigen eten meebrengen,\nanders konden we ons te buiten gaan\naan .",
      "EUru": "Сюда нельзя приносить еду, а то бы\nмы запросто умяли .",
      "JPja": "と　食べたい\nが　あったんだけど、\nここ持ちこみＮＧで　持ってこれなかったの\n賞味期限が　せまってるから\n今回は　アタイが食べちゃうけど、\n今度、レビュートークしてあげるね！　",
      "KRko": "이랑 같이 먹고 싶은\n이 있었는데\n여긴 외부 음식 반입 금지라서 못 가져왔어\n유통 기한이 얼마 안 남았으니까\n이번엔 그냥 내가 먹고\n다음에 감상을 들려줄게! !",
      "TWzh": "我本來有準備\n打算和分享，\n不過這裡禁帶外食，所以沒能帶進來。\n而且那東西快過期了，\n逼不得已，我只能先吃掉它……\n下次再跟你說說吃完的感想吧！。",
      "USen": "You can't bring outside food in here,\nor we could totes get to nomming on\n together.",
      "USes": "Es una pena que no podamos\ntraernos cositas para comer de\ncasa, .\n¡Imagínate lo que íbamos a disfrutar\ncomiendo  juntis!",
      "USfr": "On a pas le droit d'apporter sa\nbouffe, ici.\nTu penses bien que sinon, on serait\ndéjà en train de manger ."
    }
  },
  {
    "label": "301",
    "attribute": "0x0000000000000000",
    "locale": {
      "CNzh": "",
      "EUde": "",
      "EUen": "",
      "EUes": "",
      "EUfr": "",
      "EUit": "",
      "EUnl": "",
      "EUru": "",
      "JPja": "",
      "KRko": "",
      "TWzh": "",
      "USen": "",
      "USes": "",
      "USfr": ""
    }
  },
  {
    "label": "301_01",
    "attribute": "0x0000000000000000",
    "locale": {
      "CNzh": "一来到这里，我就会觉得，\n\n就是我的第二故乡呀～！。",
      "EUde": "Jedes Mal, wenn ich herkomme,\nfühle ich, dass  mein zweites Zuhause ist.",
      "EUen": "Coming here, I always feel like\n is my second\nhome.",
      "EUes": "Por mucho que me mude y viaje,\nsiempre llevaré  en el corazoncito...",
      "EUfr": "À chaque fois que je viens ici,\nj'ai l'impression d'être chez moi\nà .",
      "EUit": "Quando sono qui, mi sento troppo\ncome se  fosse la mia seconda casa.",
      "EUnl": " voelt altijd een\nbeetje als mijn tweede thuis.",
      "EUru": "Здесь я всегда чувствую, что остров\n — мой второй дом.",
      "JPja": "やっぱ　ここに来ると感じるよ、\nは\n第二の　ふるさとだわ～ってね！　",
      "KRko": "역시 여기 오면 말야\n나한테 은\n제2의 고향이구나～ 싶어져! !",
      "TWzh": "果然一來到這裡我就會覺得，\n\n是我的第二個故鄉呢～！。",
      "USen": "Coming here, I always feel like\n is my second\nhome.",
      "USes": "Por mucho que me mude y viaje,\nsiempre llevaré a  en el corazoncito...",
      "USfr": "À chaque fois que je viens ici,\nj'ai l'impression d'être chez moi\nà ."
    }
  },
  {
    "label": "301_02",
    "attribute": "0x0000000000000000",
    "locale": {
      "CNzh": "我在受过不少关照，\n现在就来这里喝一杯咖啡，\n为这座的发展做出一份贡献吧！。",
      "EUde": "Ich find  mega.\nEcht. Hab mich wie zu Hause gefühlt.\nDas mein ich ernst.",
      "EUen": "I loved .\nA bunch. It was like home for me.\nAnd I mean that.",
      "EUes": "Es que ADORO . Aquí siempre me siento como... no sé, ¿en casa?",
      "EUfr": "J'adore . Mais genre vraiment beaucoup, quoi.\nJe m'y sens comme chez moi.",
      "EUit": "Adoravo . Cioè, non puoi capire quanto. Mi sentivo a casa, dico sul serio.",
      "EUnl": "Ik vond  super! Echt supermegasuper! Ik voelde me hier helemaal thuis. Dat meen ik!",
      "EUru": "Жить на острове \nбыло круто. Просто обалденно.\nЯ чувствовала здесь себя как дома.",
      "JPja": "には　お世話になったし\nここで　コーヒーいっぱい飲んでって、\nのハッテンに　コーケンするね、",
      "KRko": "에는 신세 졌으니까\n여기서 커피를 잔뜩 마시고\n 발전에 공헌할게, !",
      "TWzh": "我之前曾受的照顧，\n為了對小島的發展做出貢獻，\n我要在這邊喝很多咖啡，。",
      "USen": "I loved .\nA bunch. It was like home for me.\nAnd I mean that.",
      "USes": "Es que ADORO . Aquí siempre me siento como... no sé, ¿en casa?",
      "USfr": "J'adore . Mais genre vraiment beaucoup, quoi.\nJe m'y sens comme chez moi."
    }
  },
  {
    "label": "301_03",
    "attribute": "0x0000000000000000",
    "locale": {
      "CNzh": "是你给了我\n来的机会，\n超感谢你的！。",
      "EUde": "Megavielen Dank, dass du mir einen\nGrund gegeben hast,  zu besuchen!",
      "EUen": "I am so happy you gave me an\nexcuse to visit !",
      "EUes": "Tú me das una excusa para visitar\n... ¡y aquí me planto!\nAunque tampoco es que necesite\nexcusas para venir a un sitio\ntan chipichipi.",
      "EUfr": "Je suis tellement contente que\ntu m'aies donné une raison de\nvenir à  !",
      "EUit": "Grazie mille di avermi dato\nla scusa per fare un salto\n !",
      "EUnl": "Ik vind het zó cool dat ik dankzij jou\neen excuus heb om weer eens naar\n te komen!",
      "EUru": "Я так рада, что ты дал мне повод\nприехать на остров !",
      "JPja": "に　来る機会を\n作ってくれた　には\nちょーカンシャだよ、",
      "KRko": "아～\n에 올 기회를\n만들어줘서 정～말 고마워, !",
      "TWzh": "我超感謝提供機會\n讓我來的\n喔，。",
      "USen": "I am so happy you gave me an\nexcuse to visit !",
      "USes": "Tú me das una excusa para visitar\n... ¡y aquí estoy!\nAunque tampoco es que necesite\nexcusas para venir a un lugar\ntan superencantador.",
      "USfr": "Je suis tellement contente que\ntu m'aies donné une raison de\nvenir à !"
    }
  },
  {
    "label": "401",
    "attribute": "0x0000000000000000",
    "locale": {
      "CNzh": "",
      "EUde": "",
      "EUen": "",
      "EUes": "",
      "EUfr": "",
      "EUit": "",
      "EUnl": "",
      "EUru": "",
      "JPja": "",
      "KRko": "",
      "TWzh": "",
      "USen": "",
      "USes": "",
      "USfr": ""
    }
  },
  {
    "label": "401_01",
    "attribute": "0x0000000000000000",
    "locale": {
      "CNzh": "我说我说，你要不要听听\n我之前身为偶像时的\n光辉历史～？。",
      "EUde": "Oooh, soll ich dir von den Zeiten\nerzählen, als auf  jeder über mich gesprochen hat?",
      "EUen": "Ooo, ooo, how about I tell you\nthe story of when I was THE talk of\n back in the day?",
      "EUes": "¿Te he contado ya todas las cosas\nsuperguays que pasaban en  cuando viví aquí?",
      "EUfr": "Dis, tu savais qu'à l'époque,\non parlait que de moi à  ?",
      "EUit": "E se ti dicessi che tempo fa ero,\ncioè, sulla bocca di tutti, qui\n ?",
      "EUnl": "O, zeg, trouwens! Zal ik je eens\nvertellen hoe razendpopulair ik ooit\nwas op ?",
      "EUru": "О-о, ну что, рассказать, как раньше\nна острове  только обо мне и говорили?",
      "JPja": "ねぇねぇ、アタイが\nのアイドルとして\nぶいぶい言わせてたころの話する～？　",
      "KRko": "있잖아, 내가\n의 아이돌로\n유명하던 시절 얘기 들어볼래～? ?",
      "TWzh": "欸欸，要不要聊聊之前我身為\n偶像時的\n輝煌事蹟呢～？。",
      "USen": "Ooo, ooo, how about I tell you\nthe story of when I was THE talk of\n back in the day?",
      "USes": "¿Te conté ya todas las cosas\nsupergeniales que pasaban en  cuando viví aquí?",
      "USfr": "Dis, tu savais qu'à l'époque,\non parlait que de moi à ?"
    }
  },
  {
    "label": "401_02",
    "attribute": "0x0000000000000000",
    "locale": {
      "CNzh": "自从我搬离这座，\n我就一直担心大家\n会不会因为少了我而感到孤单～\n不过，现在上\n有你在，\n肯定没问题啦～！。",
      "EUde": "Seitdem ich diese Insel verlassen\nhabe, hab ich mir Sorgen gemacht,\ndass alle ohne mich einsam wären.\nDa du jetzt auf  wohnst, mach ich mir aber keine Gedanken mehr!",
      "EUen": "Since leaving this island, I've been\nso worried about everyone being\nlonely without me.\nBut now that you're living here on\n, I'm totes not\nconcerned anymore!",
      "EUes": "Desde que me fui de la isla, me\npreocupa que todo el mundo\nme haya echado de menos.\nEs que a una le gustaría estar ahí\npara todo el mundo, pero, oye, una\nno puede partirse, ¿sabes?\nDe todas formas, sabiendo que tú\nestás en , como que ya me quedo más tranquila.",
      "EUfr": "En quittant cette île, je me faisais\ngrave du souci pour tous mes\nchéris à qui j'allais manquer.\nMais maintenant que t'es à , j'me fais plus du tout de soucis pour eux !",
      "EUit": "Quando ho lasciato l'isola, temevo\nche si sarebbero sentiti tutti troppo\nsoli senza di me.\nMa ora che ci vivi tu qui, non mi\nfaccio più nessun problema!",
      "EUnl": "Sinds ik hier weg ben, ben ik altijd\nbang geweest dat iedereen vreselijk\neenzaam zou zijn zonder mij.\nMaar nu ik weet dat jij op  woont, hoef ik me totaal geen zorgen meer te maken!",
      "EUru": "Когда я уехала с этого острова,\nя волновалась, как они тут будут\nбез меня. Заскучают, наверное.\nНо раз теперь ты живешь на\nострове , мне больше не о чем беспокоиться!",
      "JPja": "このを　引っこしてからも、\nアタイがいなくて　さみしくないかな～って\nみんなのことが　心配だったの\nでも、今の　には\nがいるから、\n問題ナッシングだね～！　",
      "KRko": "이 을 떠나고 나서도\n다들 내가 없어서 쓸쓸하지 않을까 하고\n무지 걱정했었거든～\n하지만 지금 에는\n이 있으니까\n아무 문제 없겠어～! !",
      "TWzh": "自從搬離這座島後，\n我一直很擔心大家\n會不會因為我不在而感到寂寞～\n不過現在的上\n有在，\n我想應該是沒問題啦～！。",
      "USen": "Since leaving this island, I've been\nso worried about everyone being\nlonely without me.\nBut now that you're living here on\n, I'm totes not\nconcerned anymore!",
      "USes": "Desde que me fui de la isla, me\npreocupa que todo el mundo\nme esté echando de menos.\nEs que a una le gustaría estar ahí\npara todo el mundo, pero, oye, una\nno puede dividirse, ¿sabes?\nDe todas formas, sabiendo que tú\nestás en , como que ya me quedo más tranquila.",
      "USfr": "En quittant cette île, je me faisais\nbeaucoup de soucis pour tous mes\nchéris à qui j'allais manquer.\nMais maintenant que t'es à , j'me fais plus du tout de soucis pour eux!"
    }
  },
  {
    "label": "401_03",
    "attribute": "0x0000000000000000",
    "locale": {
      "CNzh": "话说，我曾经是\n的居民，\n这件事我提过吗～？。",
      "EUde": "Hab ich dir je erzählt, dass ich mal\nauf  gewohnt\nhabe? Ha! Schon tausendmal, was?",
      "EUen": "Did I ever tell you that I used to live\non ? Ha! Like a\nmillion times probably.",
      "EUes": "Por si no lo sabías (aunque hay que vivir\nbajo una piedra para no enterarse), antes\nvivía en .",
      "EUfr": "Tu savais que, genre, j'avais habité à\n ? J'ai dû te le dire au moins un milliard de fois...",
      "EUit": "Te l'ho detto che una volta vivevo\n ? Ah! Di sicuro un milione di volte!",
      "EUnl": "Had ik je al eens verteld dat ik ooit op  heb gewoond? Ha! Vast wel een biljoen keer.",
      "EUru": "Я тебе говорила, что раньше жила\nна острове ? Ха! Да уже раз сто, наверное.",
      "JPja": "ていうか、アタイが\nの住民だったって事、\n言ったことあったっけ～？　",
      "KRko": "아 참, 내가\n의 주민이었다는 거\n말한 적 있던가～? ?",
      "TWzh": "對了，我之前是\n的居民，\n這件事我有跟你提過嗎～？。",
      "USen": "Did I ever tell you that I used to live\non ? Ha! Like a\nmillion times probably.",
      "USes": "Por si no lo sabías (aunque hay que vivir\nbajo una piedra para no enterarse), antes\nvivía en .",
      "USfr": "Tu savais que, genre, j'avais habité à\n? J'ai dû te le dire au moins un milliard de fois..."
    }
  },
  {
    "label": "501",
    "attribute": "0x0000000000000000",
    "locale": {
      "CNzh": "",
      "EUde": "",
      "EUen": "",
      "EUes": "",
      "EUfr": "",
      "EUit": "",
      "EUnl": "",
      "EUru": "",
      "JPja": "",
      "KRko": "",
      "TWzh": "",
      "USen": "",
      "USes": "",
      "USfr": ""
    }
  },
  {
    "label": "501_01",
    "attribute": "0x0000000000000000",
    "locale": {
      "CNzh": "真不错呀～！\n如果下次我决定搬家，\n那我要搬到像这样的上居住～。",
      "EUde": "Wenn ich umziehen müsste, würd ich\neinen Ort auswählen, der total wie\n ist, (Floskel).",
      "EUen": "If I was going to move somewhere,\nI'd totes like it to be someplace like\n, (catchphrase).",
      "EUes": "Cuando me mude algún día, será\na un sitio que sea tan guay como\n, .",
      "EUfr": "Si je devais déménager, je me verrais\ntrop bien dans un endroit comme\n, (expression).",
      "EUit": "Se dovessi trasferirmi, vorrei\ntroppo vivere in un posto come\n, .",
      "EUnl": "Als ik ooit moest verhuizen, zou het naar ergens als  zijn. Echt wel, (catchphrase).",
      "EUru": "Если я куда-то перееду, это будет\nместо вроде острова . .",
      "JPja": "　いいね～！\nもし　次に引っこすとしたら、\nこういうに　住みた～い、",
      "KRko": " 진짜 좋다～!\n만약 다음에 이사한다면\n이런 에 살고 싶어～ ～",
      "TWzh": "真不錯～！\n如果下次我要搬家，\n我會想搬到像這樣的島上來呢～。",
      "USen": "If I was going to move somewhere,\nI'd totes like it to be someplace like\n, (catchphrase).",
      "USes": "Cuando me mude algún día, será\na un lugar que sea tan genial como\n, .",
      "USfr": "Si je devais déménager, je me verrais\ntrop bien dans un endroit comme\n, (expression)."
    }
  },
  {
    "label": "501_02",
    "attribute": "0x0000000000000000",
    "locale": {
      "CNzh": "的咖啡店，\n非常高级呀～。",
      "EUde": "Das Café von  ist mega beeindruckend!",
      "EUen": "The  café is, like,\nway impressive!",
      "EUes": "O sea, ¿el café tan riquisísimo que\ntenéis en ? Superfán, ⁠.",
      "EUfr": "Le café de  est juste trop bon !",
      "EUit": "La caffetteria di  è troppo sconvolgente!",
      "EUnl": "Het café hier op  is dus echt wel onverwacht goed!",
      "EUru": "Кафе на острове \nпросто обалденное!",
      "JPja": "の　カフェって\nレベル高いよね～、",
      "KRko": "의 카페는\n레벨이 높은 것 같아～ ～",
      "TWzh": "的咖啡店，\n水準真高呢～。",
      "USen": "The  café is, like,\nway impressive!",
      "USes": "O sea, el café que tienen en  está requetedeli.\n¡Soy superfán, ⁠!",
      "USfr": "Le café de  est juste trop bon!"
    }
  },
  {
    "label": "501_03",
    "attribute": "0x0000000000000000",
    "locale": {
      "CNzh": "每喝一口老板冲的咖啡，\n我都会忍不住想，\n千里迢迢来一次也太值了～！。",
      "EUde": "Jeder Schluck von Kofis Kaffee gibt\nmir das Gefühl, dass meine Träume\nwahr werden können...\nWas will man mehr...?",
      "EUen": "Every sip of Brewster's coffee makes\nme feel just a little less like the\nwhole world is out to get me...\nAnd that's more than enough...",
      "EUes": "El café de Fígaro me hace sentir\nque todos mis sueños pueden\nhacerse realidad...\n¡Y seguro que los tuyos también,\n!",
      "EUfr": "Quand je bois le café de Robusto,\nje me sens un peu plus d'attaque\npour affronter le monde...\nEt c'est mieux que rien, lol !",
      "EUit": "Mi basta qualche sorso del caffè di\nBartolo per sentirmi più tranquilla...\nE scusa se è poco...",
      "EUnl": "Met elk slokje koffie van Brewster\nspoelt het gevoel dat de hele wereld\ntegen me is een beetje meer weg...\nMeer heb ik niet nodig...",
      "EUru": "С каждым глотком сваренного\nБрюстером кофе я все меньше\nощущаю враждебность этого мира...\nИ этого более чем достаточно для\nсчастья...",
      "JPja": "マスターのコーヒーを　ひとくち飲むたび、\nはるばる　遠出してきてよかった～って\n思えちゃうよ～！　",
      "KRko": "마스터의 커피를 한 모금 마실 때마다\n애써서 먼 곳까지 오길 잘했다는\n생각이 들어～! !",
      "TWzh": "每喝一口老闆沖泡的咖啡，\n都會讓我覺得\n不枉我大老遠來這一趟呢～！。",
      "USen": "Every sip of Brewster's coffee makes\nme feel just a little less like the\nwhole world is out to get me...\nAnd that's more than enough...",
      "USes": "El café de Fígaro me hace sentir\nque todos mis sueños pueden\nhacerse realidad...\n¡Y seguro que los tuyos también,\n!",
      "USfr": "Quand je bois le café de Robusto,\nje me sens un peu plus d'attaque\npour affronter le monde...\nEt c'est mieux que rien, lol!"
    }
  },
  {
    "label": "501_04",
    "attribute": "0x0000000000000000",
    "locale": {
      "CNzh": "随时都能喝到这样的咖啡，\n上的居民\n真是太幸福了～！。",
      "EUde": "Stell dir mal vor, du könntest diesen\nKaffee jederzeit trinken.\nDie Leute auf  haben es echt gut!",
      "EUen": "Imagine being able to drink this\ncoffee whenever you want.\nThe fine folks of \nare living such fab lives.",
      "EUes": "Jopé, qué suerte tenéis de vivir en\n... Poder beber\neste café siempre es... un sueño.",
      "EUfr": "Si je pouvais boire ce café\nn'importe quand... Trop belle la\nvie à  !",
      "EUit": "Pensa se potessimo bere questo\ncaffè in ogni posto in cui siamo...\nLa gente qui   è troppo fortunata!",
      "EUnl": "Stel je voor dat je deze koffie altijd\nkan drinken, wanneer je maar wilt!\nWauw, op  hebben ze het toch maar goed voor elkaar.",
      "EUru": "Только подумай, как обалденно\nприходить сюда и пить этот кофе,\nкогда захочешь.\nЖителям острова \nздорово повезло.",
      "JPja": "いつでも　このコーヒーを飲めるなんて、\nのコたち\nちょーゼイタクじゃん～、",
      "KRko": "언제든지 이 커피를 마실 수 있다니\n 주민들은\n무지 행복하겠다～! !",
      "TWzh": "居然能隨時喝到這種咖啡，\n上的居民\n過得真～奢侈呀～。",
      "USen": "Imagine being able to drink this\ncoffee whenever you want.\nThe fine folks of \nare living such fab lives.",
      "USes": "Aaay, qué suerte tienen quienes viven en ...\nPoder tomar este café siempre es... \nun sueño.",
      "USfr": "Si je pouvais boire ce café\nn'importe quand... Trop belle la\nvie à !"
    }
  },
  {
    "label": "501_05",
    "attribute": "0x0000000000000000",
    "locale": {
      "CNzh": "这家咖啡店绝对称得上是\n的焦点！\n我可以向你保证～！。",
      "EUde": "Dieses Café ist echt der beste Ort\nauf der ganzen Insel!",
      "EUen": "This café is, without a doubt, the\nbest place to visit on this island!",
      "EUes": "Esta isla es superguay en general,\n¡pero la cafetería es el punto más\nchipichipi del lugar!",
      "EUfr": "Ce café est le grand incontournable\nde cette île, c'est clair de chez\nclair, quoi !",
      "EUit": "Non c'è storia: la caffetteria è il\nposto più stratosferico da visitare\nsu quest'isola!",
      "EUnl": "Dit café is absoluut de allerbeste\nplek om te bezoeken op dit eiland!",
      "EUru": "Это кафе, конечно, — главная точка\nпритяжения на острове!",
      "JPja": "このカフェは　まちがいなく\nの　目玉スポットだね！\nアタイがほしょうする～！　",
      "KRko": "이 카페는 틀림없이\n의 명소야!\n내가 보장할게～! !",
      "TWzh": "這間咖啡店絕對算得上是\n的重要景點！\n這一點我能向你保證喔～！。",
      "USen": "This café is, without a doubt, the\nbest place to visit on this island!",
      "USes": "Esta isla es supergenial en general,\n¡pero la cafetería es el punto más\nmegachic del lugar!",
      "USfr": "Ce café est le grand incontournable\nde cette île, c'est clair de chez\nclair, quoi!"
    }
  }
]