﻿[
  {
    "label": "001",
    "attribute": "0x0000000000000000",
    "locale": {
      "CNzh": "嘿！我来做客啦！。",
      "EUde": "Yo! Ich komm dann mal rein,\n(Floskel)!",
      "EUen": "Yo! I'm comin' in, (catchphrase)!",
      "EUes": "¡Ya estoy dentro, crack!",
      "EUfr": "Yo ! Me voilà, (expression) !",
      "EUit": "Ehilà! Eccomi qua, !",
      "EUnl": "Yo! Ik ben er hoor, (catchphrase)!",
      "EUru": "Йоу! Вот и я! !",
      "JPja": "よっ！　おじゃまするぞー！　",
      "KRko": "오! 들어간다－! !",
      "TWzh": "嗨！我來你家打擾啦——！。",
      "USen": "Yo! I'm comin' in, (catchphrase)!",
      "USes": "¡Ya llegamos!",
      "USfr": "Yo! Me voilà, (expression)!"
    }
  },
  {
    "label": "002",
    "attribute": "0x0000000000000000",
    "locale": {
      "CNzh": "打扰啦！(nickname)！",
      "EUde": "Hallo, (Spitzname)!",
      "EUen": "Helloooo, (nickname)!",
      "EUes": "¿Cómo vas, (nickname)?",
      "EUfr": "Faites place à (nom du résident) !",
      "EUit": "Eeehi, (nickname)!",
      "EUnl": "Hallooooo, (nickname)!",
      "EUru": "Приветище, (nickname)!",
      "JPja": "シツレイするぞー！　(nickname)！",
      "KRko": "오니까 기쁘다－ (nickname)!",
      "TWzh": "打擾囉！(nickname)——！",
      "USen": "Helloooo, (nickname)!",
      "USes": "¡Qué rápido llegamos, (nickname)!",
      "USfr": "Faites place à (nom du résident)!"
    }
  },
  {
    "label": "003",
    "attribute": "0x0000000000000000",
    "locale": {
      "CNzh": "那我就不客气地进来啦！。",
      "EUde": "Darf ich reinkommen?",
      "EUen": "Make way, I'm here!",
      "EUes": "¡Comienza mi visita,\n(nickname)!",
      "EUfr": "Attention, je débarque !",
      "EUit": "Eccomi, sono qui!",
      "EUnl": "Hé, (nickname), ik ben er!",
      "EUru": "Привет, (nickname),\nя пришел!",
      "JPja": "エンリョなく　上がらせてもらうぞー！　",
      "KRko": "그럼 사양 않고 들어갈게－! !",
      "TWzh": "我就不客氣地進來囉——！。",
      "USen": "Make way, I'm here!",
      "USes": "¡Ya llegué, (nickname)!",
      "USfr": "Attention, je débarque!"
    }
  },
  {
    "label": "004",
    "attribute": "0x0000000000000000",
    "locale": {
      "CNzh": "(nickname)！\n是(resident name)哦！。",
      "EUde": "Hey, (Spitzname)! Ich bin's, dein Kumpel (Einwohnername)!",
      "EUen": "Hey, (nickname)! It's your\nbuddy, (resident name)!",
      "EUes": "¡(nickname)!\n¡Soy yo, (resident name)!",
      "EUfr": "Salut (surnom) !\nC'est moi, ton pote (nom du résident) !",
      "EUit": "Ehi, (nickname)! Sono io, (resident name)!",
      "EUnl": "Yo (nickname)! Ik ben het, (resident name)!",
      "EUru": "Привет, (nickname)!\nЭто я, (resident name)!",
      "JPja": "(nickname)！\n(resident name)だぞー！　",
      "KRko": "(nickname)!\n나 (resident name)이야－",
      "TWzh": "(nickname)！\n是我，(resident name)啦——！。",
      "USen": "Hey, (nickname)! It's your\nbuddy, (resident name)!",
      "USes": "¡(nickname)!\n¡Soy yo, (resident name)!",
      "USfr": "Salut (surnom)!\nC'est moi, ton chum (nom du résident)!"
    }
  },
  {
    "label": "005",
    "attribute": "0x0000000000000000",
    "locale": {
      "CNzh": "(nickname)！\n(resident name)来啦！。",
      "EUde": "Hey, (Spitzname)!\nIch bin's, der unvergleichliche\n(Einwohnername)!",
      "EUen": "Yo, (nickname)! It's me, the\none-and-only (resident name)!",
      "EUes": "¡(nickname)!\n¡(resident name) y sus musculitos\nestán aquí!",
      "EUfr": "Hé, (surnom) ! C'est moi, le seul et l'unique (nom du résident) !",
      "EUit": "Ehi, (nickname)! Sono arrivato! L'unico e inimitabile (resident name)!",
      "EUnl": "(nickname)! Ik ben het, (resident name)!",
      "EUru": "(nickname)!\nЭто (resident name)!",
      "JPja": "(nickname)！\n(resident name)が来たぞー！　",
      "KRko": "(nickname)!\n(resident name)이 왔다－!",
      "TWzh": "(nickname)！我是(resident name)！\n我來你家玩啦——！。",
      "USen": "Yo, (nickname)! It's me, the\none-and-only (resident name)!",
      "USes": "¡(nickname)!\n¡(resident name) y sus musculitos\nestán aquí!",
      "USfr": "Hé, (surnom)! C'est moi, le seul et l'unique (nom du résident)!"
    }
  },
  {
    "label": "006",
    "attribute": "0x0000000000000000",
    "locale": {
      "CNzh": "喂——(nickname)！\n是(resident name)啊，\n我来找你玩啦！。",
      "EUde": "Yo, (Spitzname)! Lust auf einen Muskelvergleich? Hier ist (Einwohnername)!",
      "EUen": "Yo, (nickname)! The muscle's\nhere. It's (resident name)!",
      "EUes": "¡(nickname)!\n¡Soy (resident name) y vengo\na tonificarte el día!",
      "EUfr": "Yo, (surnom) ! Besoin de muscles ? (nom du résident) est là !",
      "EUit": "Ehilà, (nickname)! Sono (resident name)! Ti servono per caso dei muscoli?",
      "EUnl": "Yo (nickname)! Had je misschien een krachtpatser besteld? Ik ben het, (resident name)!",
      "EUru": "Йоу, (nickname)! Доставку\nмышц заказывал?\nЭто я, (resident name)!",
      "JPja": "おーい　(nickname)！\n(resident name)だよ、\n遊びに来たぞー！　",
      "KRko": "야－ (nickname)!\n(resident name)이야, 놀러왔어－!",
      "TWzh": "喂——！(nickname)！\n我是(resident name)啦！\n我來你家玩了！。",
      "USen": "Yo, (nickname)! The muscle's\nhere. It's (resident name)!",
      "USes": "¡(nickname)!\n¡Soy (resident name) y vengo\na tonificarte el día!",
      "USfr": "Yo, (surnom)! Besoin de muscles? (nom du résident) est là!"
    }
  },
  {
    "label": "007",
    "attribute": "0x0000000000000000",
    "locale": {
      "CNzh": "喂——(nickname)！\n是(resident name)啊！\n快开门啊！。",
      "EUde": "Hallooo-hooo, (Spitzname)!\nIch bin's, (Einwohnername)!\nJemand zu Hause?",
      "EUen": "Are...are you in there?\nIt's me, (resident name)!",
      "EUes": "¡Hola, soy (resident name)!\n¿Estás en casa?",
      "EUfr": "Hééé ! (surnom) ! C'est (nom du résident) ! T'es chez toi ?",
      "EUit": "Ehi, (nickname)! Sono (resident name)! Ci sei?",
      "EUnl": "Joehoe! Ben je thuis? Ik ben het,\n(resident name)!",
      "EUru": "Эй... (nickname)!\nЭто (resident name)! Ты дома?",
      "JPja": "おーい、(nickname)！\n(resident name)だよ！\n開けてくれよー！　",
      "KRko": "야－ (nickname)!\n나 (resident name)이야－!\n문 좀 열어줘－!",
      "TWzh": "喂——！(nickname)！\n是我，(resident name)啦！\n幫我開門啊！。",
      "USen": "Are...are you in there?\nIt's me, (resident name)!",
      "USes": "¡(nickname)! ¡Soy (resident name)! ¿Estás en tu casa?",
      "USfr": "Hééé! (surnom)! C'est (nom du résident)! T'es chez toi?"
    }
  },
  {
    "label": "008",
    "attribute": "0x0000000000000000",
    "locale": {
      "CNzh": "(nickname)！\n你不在吗？。",
      "EUde": "(Spitzname)! Wenn du zu\nHause bist, zeige dich!",
      "EUen": "(nickname)! You home, pal?",
      "EUes": "¡(nickname)!\n¿Estás en casa, crack?",
      "EUfr": "(surnom) !\nT'es chez toi, p'tit gars ?",
      "EUit": "Ehi, (nickname)! Sei in casa?",
      "EUnl": "(nickname)! Ben je thuis?",
      "EUru": "(nickname)! Ты дома,\nдружище?",
      "JPja": "(nickname)！\nいないのかー？　",
      "KRko": "(nickname)아!\n집에 없냐－? ?",
      "TWzh": "(nickname)——！\n你在家嗎？。",
      "USen": "(nickname)! You home, pal?",
      "USes": "¡(nickname)!\n¿Estás en casa, máquina?",
      "USfr": "(surnom)!\nT'es chez toi, mon chum?"
    }
  },
  {
    "label": "009",
    "attribute": "0x0000000000000000",
    "locale": {
      "CNzh": "……是出门了吗？。",
      "EUde": "...Vielleicht ist er grad joggen?",
      "EUen": "...Maybe they went to the gym?",
      "EUes": "¿Habrá ido al gimnasio?",
      "EUfr": "Peut-être qu'il est allé faire\nun tour à la salle de sport ?",
      "EUit": "Forse è andato in palestra?",
      "EUnl": "Hm... Misschien is hij naar de\nsportschool?",
      "EUru": "Может быть, он ушел в спортзал?",
      "JPja": "・・・出かけてんのかな？　",
      "KRko": "...밖에 나갔나? ?",
      "TWzh": "是不是出門了啊……？。",
      "USen": "...Maybe they went to the gym?",
      "USes": "¿Se habrá ido al gimnasio?",
      "USfr": "Peut-être qu'il est allé faire\nun tour à la salle de sport?"
    }
  },
  {
    "label": "010",
    "attribute": "0x0000000000000000",
    "locale": {
      "CNzh": "……(nickname)那家伙，\n好像不在啊！\n没办法，我还是回去吧……。",
      "EUde": "...(Spitzname) ist wohl tatsächlich ausgeflogen. Dann jogge ich mal wieder nach Hause.",
      "EUen": "...They're not here, huh? Oh well!\nGuess I'll run back home.",
      "EUes": "Pues (nickname) no está en casa... Bueno, aún me da tiempo a dar un par de esprints, .",
      "EUfr": "Faut croire que (surnom) est pas chez lui... Bon ben, je vais aller courir un peu, à la place !",
      "EUit": "Mi sa che non è in casa. Poco male,\nandrò a fare una maratona.",
      "EUnl": "Zo te zien is (nickname) niet thuis... Ach, dan heb ik meer tijd voor mijn work-out.",
      "EUru": "Хм, нет никого? Ну ладно!\nПобегу тогда домой.",
      "JPja": "・・・(nickname)のヤツ、\nいないっぽいなー\nしょーがない　帰るとするかー・・・、",
      "KRko": "...(nickname) 녀석,\n집에 없나 보네－\n할 수 없지, 나도 가야겠다... ...",
      "TWzh": "(nickname)這傢伙……\n看來是不在家啊。\n沒辦法，我還是回家吧……。",
      "USen": "...They're not here, huh? Oh well!\nGuess I'll run back home.",
      "USes": "Pues (nickname) no está en su casa... Bueno, aún me da tiempo de hacer unas cuantas sentadillas.",
      "USfr": "Faut croire que ⁠(surnom) est pas chez lui... Bon ben, je vais aller courir un peu, à la place!"
    }
  },
  {
    "label": "011",
    "attribute": "0x0000000000000000",
    "locale": {
      "CNzh": "早上好！(nickname)！\n嘿嘿，\n我是不是来得太早啦？。",
      "EUde": "Na, schon wach, (Spitzname)?\nMeine Muskeln sind es noch nicht so\nganz, (Floskel)...",
      "EUen": "Rise and shine, (nickname)!\nOh, is it on the early side?",
      "EUes": "¡A levantarse, (nickname)! A lo mejor es un poco pronto, ...",
      "EUfr": "Allez, (surnom), la journée appartient aux lève-tôt ! D'ailleurs, elle a intérêt à valoir le coup...",
      "EUit": "Forza, in piedi (nickname)! Magari è un po' troppo presto...",
      "EUnl": "Wakker worden, (nickname)! Misschien is het beetje te vroeg...",
      "EUru": "Бодрое утро, (nickname)!\nИли я рановато пришел?",
      "JPja": "オハヨー！　(nickname)！\nへへっ、さすがに\nちょっと早かったかな？　",
      "KRko": "좋은 아침－! (nickname)!\n헤헷, 너무 일찍 왔나?\n?",
      "TWzh": "早啊——！(nickname)！\n嘿嘿，我是不是\n有點太早來了啊？。",
      "USen": "Rise and shine, (nickname)!\nOh, is it on the early side?",
      "USes": "¡A levantarse, (nickname)!\nA lo mejor es un poco temprano...",
      "USfr": "Allez, (surnom), la journée appartient aux lève-tôt! D'ailleurs, elle a intérêt à valoir le coup..."
    }
  },
  {
    "label": "012",
    "attribute": "0x0000000000000000",
    "locale": {
      "CNzh": "早哇！(nickname)！\n按照约定，我来找你玩啦！。",
      "EUde": "Hallo, (Spitzname)!\nDa bin ich, wie wir im Trainingsplan\nfestgesetzt hatten!",
      "EUen": "Ready or not, I'm here! Hope you're\nready to flex, (catchphrase).",
      "EUes": "¡Buenos días, (nickname)!\nListo para sudar, ¿verdad?",
      "EUfr": "(surnom) ! J'espère que je te dérange pas,  !",
      "EUit": "Eccomi qua! Spero tu sia pronto per\nun bell'allenamento, .",
      "EUnl": "Yo, (nickname)! Ik hoop dat je er klaar voor bent, (catchphrase).",
      "EUru": "А вот и я! Надеюсь, ты готов\nкачаться! (catchphrase)!",
      "JPja": "オーッス！　(nickname)！\n約束通り　遊びに来たぞー！　",
      "KRko": "안녕－ (nickname)!\n약속대로 놀러왔다구－! !",
      "TWzh": "嘿——！(nickname)！\n我按照約定來找你玩啦！。",
      "USen": "Ready or not, I'm here! Hope you're\nready to flex, (catchphrase).",
      "USes": "¡Buenos días, (nickname)!\nEstás listo para sudar, ¿no?",
      "USfr": "(surnom)! J'espère que je te dérange pas, !"
    }
  },
  {
    "label": "013",
    "attribute": "0x0000000000000000",
    "locale": {
      "CNzh": "晚上好！(nickname)！\n抱歉，\n我有点来迟了！。",
      "EUde": "Hey, (Spitzname)!\nIch bin etwas spät dran...\nTut mir leid, (Floskel).",
      "EUen": "Hey, (nickname)! Sorry if I'm\na bit late, (catchphrase).",
      "EUes": "¡Buenas noches, (nickname)! Disculpa que venga tan tarde, ...",
      "EUfr": "(surnom) ! Désolé de débarquer chez toi à une heure aussi tardive... .",
      "EUit": "Ehi, (nickname)! Scusa se arrivo così tardi, .",
      "EUnl": "Hé, (nickname)! Sorry dat ik er pas zo laat ben, (catchphrase).",
      "EUru": "Привет, (nickname)! Извини,\nесли опоздал. .",
      "JPja": "コンバンハー！　(nickname)！\n来るのが　おそくなって、\nゴメンなー！　",
      "KRko": "안녕－! (nickname)!\n늦게 와서 미안－! !",
      "TWzh": "你好啊，(nickname)——！\n抱歉，我來晚了！。",
      "USen": "Hey, (nickname)! Sorry if I'm\na bit late, (catchphrase).",
      "USes": "¡Buenas noches, (nickname)! Disculpa que venga tan tarde...",
      "USfr": "(surnom)! Désolé de débarquer chez toi à une heure aussi tardive... ."
    }
  },
  {
    "label": "014",
    "attribute": "0x0000000000000000",
    "locale": {
      "CNzh": "嘿嘿，(nickname)……\n都已经这么晚了，抱歉啊！\n不过你竟然还没睡，\n我真的好感动呀！。",
      "EUde": "Hey, (Spitzname)... Tut mir leid, es ist etwas spät... oder früh?\nBald ist schon wieder Zeit für mein\nMorgen-Workout, (Floskel).",
      "EUen": "Hey, sorry I'm so late. Time flies\nwhen you're flexin' your guns.\nWhoa...I mighta flexed too hard.\n(catchphrase), just kidding! The\nendorphins just kicked in.\nI'm ready to rock!",
      "EUes": "(nickname)... Perdona\nque haya venido tan tarde... ¿o tan\ntemprano?\nDentro de nada tengo que empezar\ncon el entreno, .",
      "EUfr": "Désolé, je suis un peu en retard. Je vois jamais le temps passer, quand je soulève de la fonte...\n(expression), puisque tu ne dors pas, on peut enchaîner avec des exercices. Je suis chaud bouillant !",
      "EUit": "Ehi, (nickname), scusa se arrivo così tardi... o così presto... Il tempo vola quando ci si allena!\nBeh, visto che sei ancora in piedi,\npotremmo fare una corsetta insieme.\nIo sono già bello caldo!",
      "EUnl": "Yo (nickname), sorry dat ik zo laat ben... of vroeg?\nNog even en het is de tijd dat ik\nnormaal zou opstaan voor mijn\nochtendgymnastiek...",
      "EUru": "Привет, я опоздал. Во время\nтренировок время летит незаметно.\nУф... похоже, я перестарался.\nДа шучу я, шучу! Для меня это\nне тренировка. Так, разминка!",
      "JPja": "へへ、(nickname)・・・\nこんな時間になっちゃって、ゴメンなー\nでも、起きててくれて\nオイラ　カンゲキだぞー！　",
      "KRko": "헤헤, (nickname)...\n이런 늦은 시간에 와서 미안－\n그래도 니가 깨어 있어서\n나 감동 먹었어! !",
      "TWzh": "嘿嘿，(nickname)……\n抱歉啊，這麼晚才來玩……\n不過你居然為了等我，到現在還沒有睡，\n我真的好感動啊——！。",
      "USen": "Hey, sorry I'm so late. Time flies\nwhen you're flexin' your guns.\nWhoa...I mighta flexed too hard.\n(catchphrase), just kidding! The\nendorphins just kicked in.\nI'm ready to rock!",
      "USes": "(nickname)... Disculpa que haya venido tan tarde... ¿o tan temprano?\nYa casi tengo que comenzar mi\nrutina de entrenamiento, .",
      "USfr": "Désolé, je suis un peu en retard. Je vois jamais le temps passer, quand je soulève de la fonte...\n(expression), puisque tu ne dors pas, on peut enchaîner avec des exercices. Je suis chaud bouillant!"
    }
  },
  {
    "label": "015",
    "attribute": "0x0000000000000000",
    "locale": {
      "CNzh": "打扰了！啊！\n刚才好像有个黑色的东西跑过去了……\n难道是蟑螂？！\n抱歉！\n我拒绝和这东西共处一室！\n难得来一次，但我还是先回去了！。",
      "EUde": "Bereit für eine Runde ⁠? Oh... War das etwa eine Kakerlake?\nNix da! Ich zeig doch nicht meine\nsupergeheimen Trainingstipps, wenn\nmir Kakerlaken dabei zugucken.\nHart gestählte Kakerlaken sind\nschließlich das Letzte, was wir auf\n(Inselname) wollen. Glaub mir.",
      "EUen": "You ready for some —\nUm... Was that a c-cockroach?\nNope! No way I'm showing off my\nsuper-secret workout moves with\na bunch of cockroaches watching.\nThe last thing we want is a team of\nextremely buff cockroaches running\naround (island name). Trust me.",
      "EUes": "Igual podemos darle un poco\nal , ya que estam...\nOye... ¿Acabo de ver una cucaracha?\nAh, no. ¡Me niego! Para que luego\ndescubra mis técnicas deportivas\nsupersecretas y las cuente por ahí.\nLo último que necesitamos en la isla\nes un pelotón de cucarachas con\nbíceps de acero como los míos.",
      "EUfr": "Prêt à suer à grosses gouttes pour\ncette séance de  dont tu te rapp... Attends... Un cafard ?!\nNan nan nan ! Je te montrerai pas\nmes techniques hyper-secrètes\ndevant ces bestioles rampantes.\nDes champions de  qui cavalent partout, (nom de l'île) a vraiment pas besoin de ça.",
      "EUit": "Pronto per un po' di ? Uhm... Ma è uno scarafaggio, quello?\nNo, non se ne parla! Non mostrerò\nle mie tecniche ultrasegrete di fronte\na queste bestiole.\nL'ultima cosa di cui abbiamo bisogno\nsono degli scarafaggi muscolosi in\ngiro per (island name), fidati.",
      "EUnl": "Ben je klaar voor een potje , eh... Was dat een k-kakkerlak?\nNeuh! Dacht het niet! Mooi niet dat\nik mijn supergeheime work-outmoves\naan een stel kakkerlakken laat zien.\nHet laatste wat we willen is een boel\nsupergespierde kakkerlakken die\n(island name) onveilig maken.",
      "EUru": "Ну что, ты уже готов приступить\nк ?.. Э-э-э... Это что,\nтаракан был?!\nНу нет! Так не пойдет! Я при\nтараканах свои секретные методы\nтренировки показывать не буду!\nОстрову (island name) совсем не нужны тараканы-качки. Не-а!",
      "JPja": "おじゃまするぞー！　って、\nなんか　今　黒いモンがよぎったような・・・\nまさか　ゴキブリかー？！\nわりー！\nオイラ　ソイツといっしょは　パスだ！\nせっかくだけど、また今度な！　",
      "KRko": "실례한다－! 음?\n지금 뭔가 까만 게 지나간 거 같은데...\n설마 바퀴벌레－?!\n끄응－!\n그 녀석이 있는 거면 난 갈게!\n미안하지만 다음에 보자! !",
      "TWzh": "打擾囉——！咦？\n剛才好像有個黑色物體從眼前跑過去……\n該不會是蟑螂吧！？\n抱歉！我無法和那傢伙待在同一個空間！\n雖然浪費這次機會很可惜，\n但我還是下次再來吧！。",
      "USen": "You ready for some —\nUm... Was that a c-cockroach?\nNope! No way I'm showing off my\nsuper-secret workout moves with\na bunch of cockroaches watching.\nThe last thing we want is a team of\nextremely buff cockroaches running\naround (island name). Trust me.",
      "USes": "Igual podemos practicar un poco\nde , ya que estam...\nOye... ¿Acabo de ver una cucaracha?\nAh, no. ¡Me niego! Para que luego\ndescubra mis técnicas deportivas\nsupersecretas y las cuente por ahí.\nLo último que necesitamos en la isla\nes un pelotón de cucarachas con\nbíceps de acero como los míos.",
      "USfr": "Prêt à suer à grosses gouttes pour\ncette séance de  dont tu te rapp... Attends... Un cafard?!\nNon non non! Je te montrerai pas\nmes techniques hyper-secrètes\ndevant ces bestioles rampantes.\nDes champions de  qui cavalent partout, (nom de l'île) a vraiment pas besoin de ça."
    }
  },
  {
    "label": "100",
    "attribute": "0x0000000000000000",
    "locale": {
      "CNzh": "啊，对了！\n我带了礼物过来给你！\n就是这个，快收下吧！",
      "EUde": "Bevor ich es vergesse!\nIch hab dir was mitgebracht.",
      "EUen": "Oh, I almost forgot! I brought you a\ngift. Here you go!",
      "EUes": "¡Huy, casi se me olvida!\nToma, te he traído un detallito.",
      "EUfr": "Oh, j'ai failli oublier ! Je t'ai apporté\nun petit truc. Tiens, c'est pour toi !",
      "EUit": "Per tutti i deltoidi, stavo per\ndimenticarmi! Ti ho portato\nun regalo!",
      "EUnl": "O, waar zit ik met mijn hoofd?! Ik\nheb nog een cadeautje voor je.\nAlsjeblieft!",
      "EUru": "Ах да, чуть не забыл! Я принес\nтебе подарок. Вот он!",
      "JPja": "あ、そうだ！\nオマエに、お土産を持ってきてたんだ！\nコレ、受け取ってくれー！",
      "KRko": "아, 맞다!\n널 위해서 선물을 가지고 왔다구!\n이거 받아주라－!",
      "TWzh": "啊，對了！\n我帶了小禮物要送給你！\n請你收下這個吧——！",
      "USen": "Oh, I almost forgot! I brought you a\ngift. Here you go!",
      "USes": "¡Uy, casi se me olvida!\nToma, traje un detallito.",
      "USfr": "Oh, j'ai failli oublier! Je t'ai apporté\nun petit truc. Tiens, c'est pour toi!"
    }
  },
  {
    "label": "101",
    "attribute": "0x0000000000000000",
    "locale": {
      "CNzh": "哎呀！我有带礼物过来！\n嘿嘿，不嫌弃的话，收下这个吧！！",
      "EUde": "Ach ja, ich hab noch ein Mitbringsel\ndabei. Hier, bitte schön!",
      "EUen": "Hey! I've got a gift for you. Enjoy!",
      "EUes": "¡Oye, tengo un regalito para ti!\n¡Que lo disfrutes!",
      "EUfr": "Hé ! J'ai un cadeau pour toi. Tiens !",
      "EUit": "Ehi, ho un regalo per te.\nSpero che ti piaccia!",
      "EUnl": "Yo! Ik heb een cadeautje voor je.\nVeel plezier ermee!",
      "EUru": "Физкульт-привет! А у меня для тебя\nподарок. Надеюсь, тебе понравится!",
      "JPja": "おっと！　お土産があったんだ！\nへへっ、よかったらコレ　どうぞー！！",
      "KRko": "아 참! 선물을 가져왔어!\n헤헷, 초대해줬으니까 감사의 뜻이야－!!",
      "TWzh": "對了！我有小禮物要給你！\n嘿嘿，如果你不嫌棄，就請收下吧——！！",
      "USen": "Hey! I've got a gift for you. Enjoy!",
      "USes": "¡Oye, tengo un regalito para ti!\n¡Que lo disfrutes!",
      "USfr": "Hé! J'ai un cadeau pour toi. Tiens!"
    }
  },
  {
    "label": "102",
    "attribute": "0x0000000000000000",
    "locale": {
      "CNzh": "对了对了，\n忘记把礼物给你啦！\n嘿嘿，我还是很机灵的吧？",
      "EUde": "Das hier sollte ich dir schon mal\ngeben! Siehst du, ich weiß, was\nsich gehört.",
      "EUen": "Oh right, I brought this for you. It's\na gift! Classy, right?",
      "EUes": "¡Ah, sí! ¡Te he traído un regalo!\nMola, ¿no?",
      "EUfr": "Oh, j'y pense ! Je t'ai apporté ça.\nC'est un petit cadeau de ma part !\nC'est chouette, non ?",
      "EUit": "Ah, dimenticavo! Ho un regalo\nper te! Che stile, eh?",
      "EUnl": "O ja, dit cadeautje is voor jou! Had je\nniet gedacht, hè?!",
      "EUru": "Ах да, ведь эту штуку я для тебя\nкупил. Это подарок! Классный,\nправда?",
      "JPja": "そうそう、お土産をわたすの\nわすれるとこだった！\nへへっ、けっこう気が利いてるだろー？",
      "KRko": "앗, 맞다!\n선물을 주는 걸 까먹을 뻔했네!\n헤헷, 나 섬세하지 않냐－?",
      "TWzh": "對了對了，我差點就忘記\n要拿小禮物給你了！\n嘿嘿，我做事還滿周到的吧？",
      "USen": "Oh right, I brought this for you. It's\na gift! Classy, right?",
      "USes": "¡Ah, sí! ¡Te traje un regalo!\nBrutal, ¿verdad?",
      "USfr": "Oh, j'y pense! Je t'ai apporté ça.\nC'est un petit cadeau de ma part!\nC'est cool, non?"
    }
  },
  {
    "label": "103",
    "attribute": "0x0000000000000000",
    "locale": {
      "CNzh": "是哦！\n我想你应该会喜欢这一类的东西，\n怎么样？。",
      "EUde": "!\nSo was gefällt dir doch sicher, oder?\nDu freust dich darüber bestimmt\nmindestens genau so wie ich über\neinen Protein-Shake, (Floskel)!",
      "EUen": "!\nThat's the kind of gift you like, right?\nLike the equivalent of giving me a\nprotein shake, (catchphrase)?",
      "EUes": "¡!\nPensé que algo así te gustaría, ...",
      "EUfr": " ! C'était juste à côté des boissons protéinées, dans le magasin.\nQuand je l'ai vu, je me suis dit que\nça te plairait,  !",
      "EUit": "!\nÈ il tipo di regalo che ti piace, no?\nInsomma, come se a me regalassero\nun frullato proteico, .",
      "EUnl": "!\nJij ben toch heel erg van dat soort\nspul? Een beetje zoals ik ben met\nproteïnedrankjes, (catchphrase)?",
      "EUru": "!\nТакой подарок тебе по душе, да?\nКак для меня протеиновый\nкоктейль? (catchphrase)?",
      "JPja": "だ！\nオマエ　こういうのスキかなーと\n思ったんだけど、どうだ？　",
      "KRko": "이야!\n니가 좋아할 것 같아서\n골랐는데 어떠냐? ?",
      "TWzh": "是喔！\n我猜你應該會喜歡這個，所以才買的！\n怎麼樣啊？。",
      "USen": "!\nThat's the kind of gift you like, right?\nLike the equivalent of giving me a\nprotein shake, (catchphrase)?",
      "USes": "¡!\nPensé que algo así te gustaría, ...",
      "USfr": "! C'était juste à côté des boissons protéinées, dans le magasin.\nQuand je l'ai vu, je me suis dit que\nça te plairait, !"
    }
  },
  {
    "label": "104",
    "attribute": "0x0000000000000000",
    "locale": {
      "CNzh": "是哦！\n我可是想了很久才选定的呢！。",
      "EUde": "!\nIch hab lange nachgedacht, um was\nBesonderes für dich zu finden!",
      "EUen": "!\nEnjoy! I really wanted to make sure\nI got you something special.",
      "EUes": "¡!\nSi te gusta, ¡el músculo de la alegría\nse me tonificará al instante!",
      "EUfr": " ! J'espère que ça te plaît ! Je voulais m'assurer que j'avais bien choisi.",
      "EUit": "!\nSpero che sia di tuo gusto!",
      "EUnl": "! Hopelijk heb ik precies het juiste voor je uitgekozen!",
      "EUru": "!\nНадеюсь, тебе понравится!\nЯ очень хотел угадать с подарком.",
      "JPja": "だ！\nけっこう考えて　選んできたぞー！　",
      "KRko": "이야!\n엄청 고민해서 고른 거라구－! !",
      "TWzh": "是！\n我想了很久才挑出來的喔——！。",
      "USen": "!\nEnjoy! I really wanted to make sure\nI got you something special.",
      "USes": "¡!\nSi te gusta, ¡el músculo de la alegría\nse me tonificará al instante!",
      "USfr": "!\nJ'espère que ça te plaît! Je voulais\nm'assurer que j'avais bien choisi."
    }
  },
  {
    "label": "105",
    "attribute": "0x0000000000000000",
    "locale": {
      "CNzh": "是哦！\n不用跟我客气啊！。",
      "EUde": "!\nIch hoffe,  gefällt, (Floskel)!",
      "EUen": "!\nYou look pumped, (catchphrase)!",
      "EUes": "¡!\n¡Para ti que es, crack!",
      "EUfr": " ! Ça a l'air de te donner la pêche !  !",
      "EUit": "!\nMi sembra tu sia emozionato,\ndico bene?",
      "EUnl": "! Zo te zien was mijn presentje een schot in de roos, (catchphrase)!",
      "EUru": "!\nЗнаю, тебе понравится!\n(catchphrase)!",
      "JPja": "だ！\nエンリョは無用だぞー！　",
      "KRko": "이야!\n사양할 필요 없다구－! !",
      "TWzh": "是！\n不必客氣啦——！。",
      "USen": "!\nYou look pumped, (catchphrase)!",
      "USes": "¡!\n¡Y es para ti, máquina!",
      "USfr": "! Ah, ça a l'air de te donner le goût! !"
    }
  },
  {
    "label": "200",
    "attribute": "0x0000020000000000",
    "locale": {
      "CNzh": "对了！\n机会难得，\n要不要来玩游戏？。",
      "EUde": "Hey! Willst du nicht zufällig was\nmit mir spielen, (Floskel)?",
      "EUen": "Hey! Wanna play a game or\nsomething, (catchphrase)?",
      "EUes": "¡Oye! ¿Quieres jugar a una cosa,\ncampeón?",
      "EUfr": "(expression) ! Ça te dirait, un petit jeu ?",
      "EUit": "Per tutti i deltoidi, ho un'idea!\nTi va di fare un gioco, ?",
      "EUnl": "Ik heb een idee! Wat dacht je van een\nspelletje of zo, (catchphrase)?",
      "EUru": "Физкульт-привет! Хочешь сыграть\nв какую-нибудь игру?\n(catchphrase)!",
      "JPja": "そうだ！\nせっかくだから、\nゲームでもしないかー？　",
      "KRko": "아, 그래!\n그냥 앉아만 있기도 그러니까\n게임 안 할래－? ?",
      "TWzh": "對了！\n難得我都來了，\n要不要一起玩個遊戲啊？。",
      "USen": "Hey! Wanna play a game or\nsomething, (catchphrase)?",
      "USes": "¡Oye! ¿Quieres jugar a algo,\ncampeón?",
      "USfr": "(expression)! Ça te dirait, un petit jeu?"
    }
  },
  {
    "label": "200_a",
    "attribute": "0x0000000000000000",
    "locale": {
      "CNzh": "来玩！",
      "EUde": "Gerne!",
      "EUen": "Sure!",
      "EUes": "¡Sí!",
      "EUfr": "Avec plaisir !",
      "EUit": "Sì!",
      "EUnl": "Graag!",
      "EUru": "Конечно!",
      "JPja": "しよう！",
      "KRko": "하자!",
      "TWzh": "來玩吧！",
      "USen": "Sure!",
      "USes": "¡Sí!",
      "USfr": "Avec plaisir!"
    }
  },
  {
    "label": "200_b",
    "attribute": "0x0000000000000000",
    "locale": {
      "CNzh": "现在不想玩",
      "EUde": "Ein andermal.",
      "EUen": "Not now, thanks.",
      "EUes": "Ahora no, gracias",
      "EUfr": "Pas maintenant, merci.",
      "EUit": "Adesso no, grazie.",
      "EUnl": "Nu niet, dank je.",
      "EUru": "Не сейчас, спасибо.",
      "JPja": "今はいいや",
      "KRko": "지금은 됐어",
      "TWzh": "現在不想玩",
      "USen": "Not now, thanks.",
      "USes": "Ahora no, gracias",
      "USfr": "Pas maintenant, merci."
    }
  },
  {
    "label": "201",
    "attribute": "0x0000020000000000",
    "locale": {
      "CNzh": "嘿，(nickname)！\n机会难得，\n要不要跟我用游戏一决胜负？。",
      "EUde": "Sag mal, (Spitzname)... Wo ich schon mal hier bin, wollen wir ein kleines Spiel spielen, (Floskel)?",
      "EUen": "Hey, since I'm here, you wanna play\na game or something, (catchphrase)?",
      "EUes": "¡Una cosa, (nickname)!\nYa que estoy aquí, ¿jugamos a algo?\nNo será de mucho sudar, lo prometo.",
      "EUfr": "Hé, vu que je suis là... ça te dirait de\njouer à un jeu avec moi,  ?",
      "EUit": "Senti, visto che sono qui, ti va di\nfare un gioco, ?",
      "EUnl": "Hé, nu ik hier toch ben, kunnen we\nnet zo goed een spelletje spelen.\nDoe je mee, (catchphrase)?",
      "EUru": "Слушай, раз уж я здесь, давай во\nчто-нибудь сыграем? (catchphrase)!",
      "JPja": "なあ、(nickname)！\nせっかくだし、\nオイラとゲームで勝負しないか？　",
      "KRko": "야, (nickname)!\n내가 재밌는 게임 알고 있는데\n나랑 대결 안 할래? ?",
      "TWzh": "喂，(nickname)！\n機會難得，\n要不要和我用遊戲一較高下啊？。",
      "USen": "Hey, since I'm here, you wanna play\na game or something, (catchphrase)?",
      "USes": "¡Una cosa, (nickname)!\nYa que estoy aquí, ¿jugamos a algo?\nNo tendrás que sudar, te lo prometo.",
      "USfr": "Hé, vu que je suis là... ça te dirait de\njouer à un jeu avec moi, ?"
    }
  },
  {
    "label": "201_a",
    "attribute": "0x0000000000000000",
    "locale": {
      "CNzh": "决一胜负！",
      "EUde": "Klingt gut!",
      "EUen": "Sounds fun!",
      "EUes": "¡Pues suena bien!",
      "EUfr": "Ce serait amusant !",
      "EUit": "Ma certo!",
      "EUnl": "Klinkt leuk!",
      "EUru": "Звучит занятно!",
      "JPja": "勝負する！",
      "KRko": "그래, 하자!",
      "TWzh": "來吧！",
      "USen": "Sounds fun!",
      "USes": "¡Suena bien!",
      "USfr": "Ce serait amusant!"
    }
  },
  {
    "label": "201_b",
    "attribute": "0x0000000000000000",
    "locale": {
      "CNzh": "我拒绝",
      "EUde": "Ich passe.",
      "EUen": "I'll pass.",
      "EUes": "Creo que paso",
      "EUfr": "Non merci.",
      "EUit": "No, grazie.",
      "EUnl": "Ik pas.",
      "EUru": "Нет, я не хочу.",
      "JPja": "お断りします",
      "KRko": "사양할게",
      "TWzh": "我現在不想玩",
      "USen": "I'll pass.",
      "USes": "Creo que paso",
      "USfr": "Non merci."
    }
  },
  {
    "label": "202",
    "attribute": "0x0000020000000000",
    "locale": {
      "CNzh": "(nickname)！\n接下来就用游戏，\n和我堂堂正正地比试一场吧？。",
      "EUde": "Willst du in einem Spiel gegen mich\nantreten? Dann sehen wir, wer von\nuns besser ist, (Floskel)!",
      "EUen": "Hey, you wanna play a game?\nBet ya can't beat me, (catchphrase)!",
      "EUes": "Oye, (nickname)...\n¿Quieres jugar a algo conmigo?\n¡A ver si me ganas, !",
      "EUfr": "Alors, ça te dirait qu'on joue à un\njeu ? Je parie que t'arriveras pas à\nme battre,  !",
      "EUit": "Ehi, ti va di giocare con me?\nMa ti avverto, non ce la farai mai\na battermi, !",
      "EUnl": "Yo, wat dacht je van een spelletje?\nMaar denk maar niet dat je van me\nkunt winnen, (catchphrase)!",
      "EUru": "Слушай, не хочешь сыграть в игру?\nСпорим, ты меня не обыграешь!\n(catchphrase)!",
      "JPja": "(nickname)！\n今からオイラと、\nゲームで　真剣勝負をしないかー？　",
      "KRko": "(nickname)!\n지금부터 나랑\n게임으로 승부를 겨루자－! !",
      "TWzh": "(nickname)！\n要不要現在跟我玩個遊戲，\n來一場真正的對決啊？。",
      "USen": "Hey, you wanna play a game?\nBet ya can't beat me, (catchphrase)!",
      "USes": "Oye, (nickname)...\n¿Quieres jugar a algo conmigo?\n¡A ver si me ganas, !",
      "USfr": "Alors, ça te dirait qu'on joue à un\njeu? Je parie que t'arriveras pas à\nme battre, !"
    }
  },
  {
    "label": "202_a",
    "attribute": "0x0000000000000000",
    "locale": {
      "CNzh": "来战！",
      "EUde": "Und ob wir das sehen!",
      "EUen": "You're on!",
      "EUes": "¡A ver!",
      "EUfr": "Pari tenu : on joue !",
      "EUit": "Giochiamo!",
      "EUnl": "Laten we spelen!",
      "EUru": "Спорим, обыграю!",
      "JPja": "いざ勝負！",
      "KRko": "좋아, 승부다!",
      "TWzh": "來對決吧！",
      "USen": "You're on!",
      "USes": "¡A ver!",
      "USfr": "Pari tenu : on joue!"
    }
  },
  {
    "label": "202_b",
    "attribute": "0x0000000000000000",
    "locale": {
      "CNzh": "不用了",
      "EUde": "Keine Lust...",
      "EUen": "You're probably right...",
      "EUes": "Seguro que no",
      "EUfr": "T'as peut-être raison...",
      "EUit": "Forse hai ragione...",
      "EUnl": "Je hebt vast gelijk...",
      "EUru": "Я не хочу...",
      "JPja": "けっこうです",
      "KRko": "아냐, 괜찮아",
      "TWzh": "沒關係，我現在不想玩",
      "USen": "You're probably right...",
      "USes": "Seguro que no",
      "USfr": "T'as peut-être raison..."
    }
  },
  {
    "label": "203",
    "attribute": "0x0000000000000000",
    "locale": {
      "CNzh": "这样啊！\n那我就慢慢地\n参观一下你的房间吧！。",
      "EUde": "Ich verstehe schon, meine Muskeln\nhaben dich eingeschüchtert. Dann\nsehe ich mich einfach mal um, ja?",
      "EUen": "I get it. I am pretty intimidating.\nI mean, check out these biceps,\n(catchphrase)! Ha!\nMind if I look around, then?",
      "EUes": "Te entiendo; yo es que intimido\nbastante, ¿sabes? Con estos bíceps,\n¡ya me dirás tú...!\n¿Te importa si echo un vistazo\na tu casa, entonces?",
      "EUfr": "Ah, je vois. Je suis intimidant, hein ?\nForcément, avec des biceps pareils !\nBon... ça te dérange pas si je fais\nun petit tour chez toi, à la place ?\n ?",
      "EUit": "Capisco, dev'essere colpa della\nmia massa muscolare. Ahahah,\nin effetti i miei bicipiti fanno paura!\nAllora spero non ti dispiaccia se do\nun'occhiata in giro, !",
      "EUnl": "Ik snap het volkomen. Zulke bicepsen\nals deze zijn ook intimiderend! Ha!\nDan snuffel ik even rond, oké?",
      "EUru": "Понятно. Я тебя напугал. Гы! Таких\nбицепсов я бы и сам испугался!\n!\nНу, можно я тогда здесь\nпотусуюсь?",
      "JPja": "そっか！\nじゃあ、オマエの部屋を\nゆっくり　見させてもらうよ！　",
      "KRko": "그렇구나!\n그럼 너희 집 구경이나\n실컷 하다 가야지! !",
      "TWzh": "你不想玩啊！\n那……就讓我好好地\n參觀一下你的房間吧！。",
      "USen": "I get it. I am pretty intimidating.\nI mean, check out these biceps,\n(catchphrase)! Ha!\nMind if I look around, then?",
      "USes": "Te entiendo; es que yo intimido\nbastante, ¿sabes? Con estos\nbíceps, ¡tú me dirás...!\n¿Te importa si le echo un vistazo\na tu casa, entonces?",
      "USfr": "Ah, je vois. Je suis intimidant, hein?\nForcément, avec des biceps pareils!\nBon... ça te dérange pas si je fais\nun petit tour chez toi, à la place?\n?"
    }
  },
  {
    "label": "204",
    "attribute": "0x0000000000000000",
    "locale": {
      "CNzh": "你不感兴趣吗？\n那我就只好\n仔细参观一下你的房间啦！。",
      "EUde": "Keine Lust? Kein Problem. Dann\nschaue ich mich einfach mal bei dir\num, wenn's recht ist, (Floskel).",
      "EUen": "Not interested, huh? That's alright.\nI'll just look around for a bit, then.\nIf it's OK with you, (catchphrase).",
      "EUes": "¿No te interesa? Bueno, pues sin\nproblemas. Entonces, voy a echar\nun vistazo a tu casa, ¿vale?",
      "EUfr": "Ça te tente pas ? Tant pis. Je jette\njuste un coup d'œil chez toi, alors.\nSi ça te dérange pas, .",
      "EUit": "Non ti interessa? Non fa niente.\nAllora, se per te va bene, do uno\nsguardo in giro, .",
      "EUnl": "Geen interesse, hè? Maakt niet uit.\nDan neus ik hier een beetje rond, als\nje het goed vindt, (catchphrase).",
      "EUru": "Не хочешь? Ну ладно. Если ты\nне возражаешь, я здесь немного\nосмотрюсь. .",
      "JPja": "あんまり　キョーミなかったか？\nそれなら、オマエの部屋を\nじっくり見学させてもらうよ！　",
      "KRko": "게임에는 관심 없냐?\n그럼 너희 집을\n탐험해봐야겠다, －!",
      "TWzh": "你沒什麼興趣喔？\n既然這樣，那就讓我仔細地\n參觀你的房間吧！。",
      "USen": "Not interested, huh? That's alright.\nI'll just look around for a bit, then.\nIf it's OK with you, (catchphrase).",
      "USes": "¿No te interesa? Bueno, no hay\nproblema. Entonces, voy a echarle\nun vistazo a tu casa, ¿te parece?",
      "USfr": "Ça te tente pas? Tant pis. Je jette\njuste un coup d'œil chez toi, alors.\nSi ça te dérange pas, ."
    }
  },
  {
    "label": "205",
    "attribute": "0x0000000000000000",
    "locale": {
      "CNzh": "唔，要是你没兴趣，\n那也是没办法的啦！\n我们还是悠闲一会儿吧！。",
      "EUde": "Alles klar, ich werde dich nicht\nzwingen! Kneifen ist keine Schande,\nwenn man eh keine Chance hätte.",
      "EUen": "If you're not into it, then you're\nnot into it! All good, (catchphrase).\nWe'll just take it easy, then.",
      "EUes": "Si no quieres, pues no quieres.\nPasamos aquí un rato agradable\ny ya está, ¿vale, crack?",
      "EUfr": "Si t'as pas envie de jouer, tant pis.\nJe vais juste passer un peu de temps\nchez toi, alors !  !",
      "EUit": "Beh, se non ti va, non ti va.\nVorrà dire che ci rilasseremo\ne basta, .",
      "EUnl": "Als het niet je ding is, is het niet je\nding. Dan hangen we hier toch\ngewoon even, (catchphrase)?",
      "EUru": "Ну нет так нет! Все в порядке.\nТогда просто так позависаем.\n!",
      "JPja": "ま、気が乗らないってんなら\nしかたないもんな！\nこのまま　まったりとするかー！　",
      "KRko": "뭐, 할 기분이 안 들면\n어쩔 수 없지!\n이대로 떠들기나 하자구, !",
      "TWzh": "好吧，既然你不感興趣，\n那我也不能勉強你！\n我們就繼續在房間放鬆吧——！。",
      "USen": "If you're not into it, then you're\nnot into it! All good, (catchphrase).\nWe'll just take it easy, then.",
      "USes": "Si no quieres, pues no quieres.\nPasamos aquí un rato agradable\ny ya está, ¿te parece?",
      "USfr": "Si t'as pas envie de jouer, tant pis.\nJe vais juste passer un peu de temps\nchez toi, alors! !"
    }
  }
]