﻿[
  {
    "label": "001",
    "attribute": "0x0000020000000000",
    "locale": {
      "CNzh": "噢！\n是吗！\n真不错，真不错！\n要不要赶紧试穿看看呢？。",
      "EUde": "!\nCool! Soll ich  sofort\nanprobieren, (Floskel)?",
      "EUen": "!\nVery cool! I can't wait to\nshow off my new gear!",
      "EUes": "¡!\n¡Qué ganas tengo de ponerme esto!",
      "EUfr": " ! C'est trop chouette ! Oh, j'ai envie de l'essayer tout de suite !",
      "EUit": "!\nPer tutti i deltoidi, non vedo l'ora\ndi sfoggiarl davanti a tutti!",
      "EUnl": "!\nCool, man! Ik kan niet wachten om\n te dragen!",
      "EUru": "!\nКласс! Хочу примерить\nпрямо сейчас!",
      "JPja": "おっ！\nかー！\nいいじゃん、いいじゃん！\nさっそく　着がえてみようかなー？　",
      "KRko": "오!\n이구나!\n야, 이거 진짜 멋있다!\n바로 갈아입어볼까－? !",
      "TWzh": "哦？\n是啊──！\n不錯嘛，不錯嘛！\n我現在就來穿穿看吧！。",
      "USen": "!\nVery cool! I can't wait to\nshow off my new gear!",
      "USes": "¡!\n¡Qué ganas tengo de ponerme esto!",
      "USfr": "!\nC'est trop malade! Oh, j'ai envie\nde l'essayer tout de suite!"
    }
  },
  {
    "label": "001_a",
    "attribute": "0x0000000000000000",
    "locale": {
      "CNzh": "快试穿看看！",
      "EUde": "Worauf wartest du?",
      "EUen": "Why wait? Try it on!",
      "EUes": "¡Pruébatelo ahora!",
      "EUfr": "Vas-y, essaie- !",
      "EUit": "Prova come ti sta!",
      "EUnl": "Waarom wachten?",
      "EUru": "Примерь, конечно!",
      "JPja": "着替えちゃえ！",
      "KRko": "갈아입자!",
      "TWzh": "快穿上去吧！",
      "USen": "Why wait? Try it on!",
      "USes": "¡Pruébatelo ahora!",
      "USfr": "Vas-y, essaie-!"
    }
  },
  {
    "label": "001_b",
    "attribute": "0x0000000000000000",
    "locale": {
      "CNzh": "之后再穿吧？",
      "EUde": "Später vielleicht?",
      "EUen": "Maybe later?",
      "EUes": "¡Póntelo luego!",
      "EUfr": "Plus tard, peut-être ?",
      "EUit": "Magari dopo?",
      "EUnl": "Misschien later?",
      "EUru": "Может, лучше потом?",
      "JPja": "あとにすれば？",
      "KRko": "다음에 입어!",
      "TWzh": "等一下再穿吧？",
      "USen": "Maybe later?",
      "USes": "¡Póntelo luego!",
      "USfr": "Plus tard, peut-être?"
    }
  },
  {
    "label": "002",
    "attribute": "0x0000020000000000",
    "locale": {
      "CNzh": "哦！\n是吗！\n我平时\n没怎么穿过这种类型的衣服，\n要不要挑战看看呢？。",
      "EUde": "!\nOb mir so was steht, (Floskel)?",
      "EUen": "!\nWow!\nI've never worn this sort of thing\nbefore. I wonder how I'll look...",
      "EUes": "¡!\nNunca se me había ocurrido ponerme\nalgo así... ¿Me quedará bien?",
      "EUfr": " !\nOh là là !\nJ'en ai jamais porté. Je me demande\nà quoi je vais ressembler, avec ça...",
      "EUit": "!\nNon ho mai messo qualcosa di simile\nprima d'ora... Chissà se mi starà\nbene...",
      "EUnl": "!\nZoiets heb ik nog nooit gedragen.\n me staan?",
      "EUru": "Ух ты! !\nВообще-то я такое никогда\nне носил. Интересно, как будет\nсмотреться...",
      "JPja": "へえ！\nかー\nオイラ、あんまり\nこういうの　着たことないけど、\n一度　チャレンジしてみようかな？　",
      "KRko": "오!\n이구나－\n나 사실 이런 옷은\n별로 입어본 적이 없는데\n한 번 도전해볼까－? ?",
      "TWzh": "喔……？\n是啊！\n雖然我很少穿這類型的衣服，\n但我是不是應該挑戰一次看看啊？。",
      "USen": "!\nWow!\nI've never worn this sort of thing\nbefore. I wonder how I'll look...",
      "USes": "¡!\nNunca se me había ocurrido ponerme\nalgo así... ¿Me quedará bien?",
      "USfr": "!\nOh là là!\nJ'en ai jamais porté. Je me demande\nà quoi je vais ressembler, avec ça..."
    }
  },
  {
    "label": "002_a",
    "attribute": "0x0000000000000000",
    "locale": {
      "CNzh": "挑战看看嘛",
      "EUde": "Lässt sich rausfinden!",
      "EUen": "One way to find out!",
      "EUes": "¡Pues cámbiate!",
      "EUfr": "Essaie, pour le savoir !",
      "EUit": "Scoprilo subito!",
      "EUnl": "Probeer maar snel uit!",
      "EUru": "Надевай, узнаешь!",
      "JPja": "チャレンジしなよ",
      "KRko": "도전해봐!",
      "TWzh": "試著挑戰一次吧",
      "USen": "One way to find out!",
      "USes": "¡Pues cámbiate!",
      "USfr": "Essaie, pour le savoir!"
    }
  },
  {
    "label": "002_b",
    "attribute": "0x0000000000000000",
    "locale": {
      "CNzh": "可能不太合适",
      "EUde": "Die Chance ist gering.",
      "EUen": "Yeah, I wonder...",
      "EUes": "No sé yo...",
      "EUfr": "Ça, tu verras bien.",
      "EUit": "È molto improbabile...",
      "EUnl": "De kans is klein...",
      "EUru": "Кто его знает...",
      "JPja": "いまいちかも",
      "KRko": "별로…",
      "TWzh": "好像沒有很適合你",
      "USen": "Yeah, I wonder...",
      "USes": "No sé...",
      "USfr": "Ça, tu verras bien."
    }
  },
  {
    "label": "003",
    "attribute": "0x0000000000000000",
    "locale": {
      "CNzh": "哦？！！\n什么啊，和我身上穿着的\n一模一样嘛！\n真受不了～\n倒是先好好调查一下啦！",
      "EUde": "Huch? Ist das etwa  ? So  hab ich doch schon an!\nImmerhin weiß , was zu meinen Muskeln passt...",
      "EUen": "Huh? Is...is this \n... Ha!\nI'm already wearing one!\nWell, can't say they didn't flex those\nresearch muscles!",
      "EUes": "¡!\nHace juego con lo que llevo puesto\nahora.\nParece que no le puso mucho\nmúsculo cerebral cuando decidió\ndarme algo así...",
      "EUfr": "... Comme  que je porte !\nY en a qui ne se sont pas trop foulés\npour trouver une idée...",
      "EUit": "! Proprio come  che indosso ora!\nBeh, non si può dire che non conosca\ni miei gusti...",
      "EUnl": "Huh? Maar dit  ... Ik draag nu precies !\nEigenlijk is dat supercool, want dat\nbetekent dat we hele goede vrienden\nzijn.",
      "EUru": "Ой! Это !\nПрямо как тот, что на мне!\nВот что значит хорошая подготовка!",
      "JPja": "おっ？！　！\nなんだー、オイラが着てるのと\nいっしょじゃんか！\nしょーがないヤツだな～\nちゃんと　リサーチしておけっての",
      "KRko": "어! 이네!\n뭐야－ 내가 입고 있는 거랑\n똑같잖아!\n녀석도 참～\n미리 조사 좀 해보지!",
      "TWzh": "喔！？！\n什麼嘛～這跟我身上穿著的\n不是一模一樣嗎！\n真是拿你們沒辦法耶～\n送禮之前要記得先好好研究過喔！",
      "USen": "Huh? Is...is this \n... Ha!\nI'm already wearing one!\nWell, can't say they didn't flex those\nresearch muscles!",
      "USes": "¡!\nY es muy parecido a lo que tengo\npuesto ahora.\nParece que no le puso mucho\nmúsculo cerebral cuando decidió\ndarme algo así...",
      "USfr": "... Comme  que je porte!\nY'en a qui ne se sont pas trop forcés\npour trouver une idée..."
    }
  },
  {
    "label": "004",
    "attribute": "0x0000000000000000",
    "locale": {
      "CNzh": "好！\n那我就来试穿看看！",
      "EUde": "Du hast recht. Es gibt eigentlich\nkeinen Grund zu zögern.",
      "EUen": "Good thinking, bud! Check it out!",
      "EUes": "¡Tienes razón! ¡Me cambio pero ya!",
      "EUfr": "Bonne idée, p'tit gars ! Tu pourras\nme dire ce que tu en penses !",
      "EUit": "Ottima idea! Vediamo!",
      "EUnl": "Gelijk heb je! Ik kleed me meteen om!",
      "EUru": "Ты прав, дружище! Зацени-ка!",
      "JPja": "よっしゃー！\nじゃあ、着がえてみるぞ！",
      "KRko": "좋아－!\n그럼 바로 갈아입을게!",
      "TWzh": "好──！\n那我就換上它看看吧！",
      "USen": "Good thinking, bud! Check it out!",
      "USes": "¡Tienes razón! ¡Me cambio ya mismo!",
      "USfr": "Bonne idée, mon chum! Tu pourras\nme dire ce que tu en penses!"
    }
  },
  {
    "label": "005",
    "attribute": "0x0000000000000000",
    "locale": {
      "CNzh": "也是啊，\n我要留到最需要的时候\n才穿起来！。",
      "EUde": "Stimmt, man muss ja auch nichts\nüberstürzen, (Floskel).",
      "EUen": "Yeah, no need to rush these things.",
      "EUes": "Tienes razón, tampoco tengo prisa...",
      "EUfr": "T'as raison. Y a pas le feu\nau gymnase.",
      "EUit": "Hai ragione, non c'è fretta.",
      "EUnl": "Ja, voor dat soort dingen kun je\ninderdaad beter je tijd nemen.",
      "EUru": "Да уж, торопиться не стоит.",
      "JPja": "そうだな、ここ一番って時まで\nとっておくよ！　",
      "KRko": "그것도 그러네!\n오늘이 딱이다! 할 때까지 놔둬야겠다,\n!",
      "TWzh": "你說的對，\n在必須要穿它的重要時刻來臨前，\n我就先好好收著吧！。",
      "USen": "Yeah, no need to rush these things.",
      "USes": "Tienes razón, tampoco tengo prisa...",
      "USfr": "T'as raison. Y'a pas le feu\nau gymnase."
    }
  },
  {
    "label": "006",
    "attribute": "0x0000000000000000",
    "locale": {
      "CNzh": "好！\n那就赶快来穿穿看！",
      "EUde": "Stimmt! Anprobieren geht über\nAnstieren!",
      "EUen": "OK! I'm gonna try on my new gear!",
      "EUes": "¡Vale! ¡Voy a cambiarme ahora\nmismito!",
      "EUfr": "D'accord ! Je vais essayer tout\nde suite ma nouvelle tenue !",
      "EUit": "Bene, faccio una prova subito!",
      "EUnl": "Ga ik meteen doen!",
      "EUru": "Хорошо! Сейчас переоденусь!",
      "JPja": "おっし！\nさっそく　着がえてみるかー！",
      "KRko": "좋아!\n바로 입어볼까－!",
      "TWzh": "好！\n我立刻就試著換上它──！",
      "USen": "OK! I'm gonna try on my new gear!",
      "USes": "¡Bueno! ¡Me voy a cambiar ahora\nmismo!",
      "USfr": "D'accord! Je vais essayer tout\nde suite ma nouvelle tenue!"
    }
  },
  {
    "label": "007",
    "attribute": "0x0000000000000000",
    "locale": {
      "CNzh": "是吗？\n那就先\n收起来好了！。",
      "EUde": "Na, du kannst einen ja richtig\nmotivieren... Dann kommt das gute\nStück erst mal in den Schrank!",
      "EUen": "Was that sarcasm? OK, fine. I'll put\nit away for now, (catchphrase).",
      "EUes": "No me digas eso... De momento \nvoy a poner esto en un cajón.",
      "EUfr": "Dis, y avait une pointe de sarcasme\ndans ta réponse, non ? Bon, je vais\nfermer les yeux pour le moment.",
      "EUit": "Eri sarcastico? D'accordo, per ora\nlasciamo stare...",
      "EUnl": "Jij bent recht voor zijn raap! Oké, ik\ndenk dat ik deze kleding een ander\nkeertje pas.",
      "EUru": "Ты меня подкалываешь? Ладно,\nотложу эту штуку в дальний ящик.",
      "JPja": "そうか？\nそれじゃ　とりあえず\nしまっておくかー、",
      "KRko": "그래?\n그럼 일단 잘 챙겨두지 뭐－ !",
      "TWzh": "是嗎？\n那……我就先把它收起來好了！。",
      "USen": "Was that sarcasm? OK, fine. I'll put\nit away for now, (catchphrase).",
      "USes": "No me digas eso... Lo guardaré\npor ahora, entonces.",
      "USfr": "Je sens de la moquerie dans ta voix.\nBon, je vais fermer les yeux pour\nle moment."
    }
  },
  {
    "label": "100",
    "attribute": "0x0000020000000000",
    "locale": {
      "CNzh": "怎么样？。",
      "EUde": "Na – was meinst du, (Floskel)?",
      "EUen": "Whaddaya think, (catchphrase)?",
      "EUes": "¿Qué te parece?",
      "EUfr": "Alors, qu'est-ce que t'en dis,\n ?",
      "EUit": "Che ne pensi, ?",
      "EUnl": "Wat denk je ervan?",
      "EUru": "Что скажешь?",
      "JPja": "どうだー？　",
      "KRko": "어떠냐－? ?",
      "TWzh": "怎麼樣啊？。",
      "USen": "Whaddaya think, (catchphrase)?",
      "USes": "¿Qué te parece?",
      "USfr": "Alors, qu'est-ce que t'en dis,\n?"
    }
  },
  {
    "label": "100_a",
    "attribute": "0x0000000000000000",
    "locale": {
      "CNzh": "很好看！",
      "EUde": "Steht dir sehr gut!",
      "EUen": "Looks great on you!",
      "EUes": "¡Te queda genial!",
      "EUfr": "Ça te va super bien !",
      "EUit": "Stai benissimo!",
      "EUnl": "Staat je geweldig!",
      "EUru": "Выглядит классно!",
      "JPja": "似合ってる！",
      "KRko": "잘 어울려!",
      "TWzh": "很適合你！",
      "USen": "Looks great on you!",
      "USes": "¡Te queda brutal!",
      "USfr": "Ça te va super bien!"
    }
  },
  {
    "label": "100_b",
    "attribute": "0x0000000000000000",
    "locale": {
      "CNzh": "嗯……",
      "EUde": "Hmmm...",
      "EUen": "Hmm...",
      "EUes": "Mmm...",
      "EUfr": "Hum...",
      "EUit": "Mmmh...",
      "EUnl": "Hmm...",
      "EUru": "Хм...",
      "JPja": "うーん・・・",
      "KRko": "으음～…",
      "TWzh": "這個嘛……",
      "USen": "Hmm...",
      "USes": "Mmm...",
      "USfr": "Hum..."
    }
  },
  {
    "label": "101",
    "attribute": "0x0000000000000000",
    "locale": {
      "CNzh": "是吗！\n嘿嘿，情绪高涨起来啦！",
      "EUde": "Danke! Deine Worte motivieren\nmehr als jedes mentale Training!",
      "EUen": "Aww, thanks! That really gets me\nfired up!",
      "EUes": "¡Gracias por el piropo! ¡Con tus\npalabras me han dado ganas de\nponerme a hacer sentadillas!",
      "EUfr": "Oh, mille mercis ! Un compliment,\nça me recharge les batteries !",
      "EUit": "Grazie mille! I miei muscoli sono\nsensibili ai complimenti!",
      "EUnl": "Ahh, dank je wel! Complimentjes zijn\nde benzine voor mijn training.",
      "EUru": "О, спасибо! Твое мнение для меня\nдействительно важно!",
      "JPja": "そうか！\nへへっ、テンション上がっちゃうなー！",
      "KRko": "그래?\n헤헷, 기분 최고다－!",
      "TWzh": "這樣啊！\n嘿嘿，我現在心情超好的啦──！",
      "USen": "Aww, thanks! That really gets me\nfired up!",
      "USes": "¡Gracias por el piropo! ¡Con tus\npalabras me dieron ganas de\nponerme a hacer sentadillas!",
      "USfr": "Oh, mille mercis! Un compliment,\nça me recharge les batteries!"
    }
  },
  {
    "label": "102",
    "attribute": "0x0000020000000000",
    "locale": {
      "CNzh": "嗯？\n该不会看起来很怪吧？。",
      "EUde": "Oje... In die Abseitsfalle getappt,\noder was, (Floskel)?",
      "EUen": "Uh-oh. No good, huh? Well that's\njust sad, (catchphrase).",
      "EUes": "¿No te mola? Pues qué pena...",
      "EUfr": "Oh oh... Ça me va pas, c'est ça ?\nC'est dommage.",
      "EUit": "Ah, non mi sta bene? Beh, peccato.",
      "EUnl": "O jee, niet cool? Dat is jammer.",
      "EUru": "Ой, как-то странновато выглядит.",
      "JPja": "ん？\nもしかして　ビミョーなカンジか？　",
      "KRko": "엉?\n혹시 그냥 그러냐? ?",
      "TWzh": "嗯？\n該不會……看起來很奇怪吧？。",
      "USen": "Uh-oh. No good, huh? Well that's\njust sad, (catchphrase).",
      "USes": "¿No te gusta? Pues qué lástima...",
      "USfr": "Oh oh... Ça me va pas, c'est ça?\nC'est dommage."
    }
  },
  {
    "label": "102_a",
    "attribute": "0x0000000000000000",
    "locale": {
      "CNzh": "没问题！",
      "EUde": "Nein, sieht gut aus!",
      "EUen": "Actually, it works!",
      "EUes": "¡No, te queda bien!",
      "EUfr": "Si si, ça te va !",
      "EUit": "Ti sta bene, invece!",
      "EUnl": "Het staat je juist goed!",
      "EUru": "По-моему, отлично!",
      "JPja": "大丈夫！",
      "KRko": "아냐, 좋아!",
      "TWzh": "不會！",
      "USen": "Actually, it works!",
      "USes": "¡Sí, te queda bien!",
      "USfr": "Si si, ça te va!"
    }
  },
  {
    "label": "102_b",
    "attribute": "0x0000000000000000",
    "locale": {
      "CNzh": "好像是的",
      "EUde": "Schön ist anders...",
      "EUen": "Yeah, it's sad.",
      "EUes": "Sí, es una pena...",
      "EUfr": "Oui, c'est dommage.",
      "EUit": "Già, peccato.",
      "EUnl": "Ja, echt jammer.",
      "EUru": "Да уж, печаль.",
      "JPja": "そうかも",
      "KRko": "그런 것 같아",
      "TWzh": "可能有一點",
      "USen": "Yeah, it's sad.",
      "USes": "Sí, una lástima...",
      "USfr": "Oui, c'est dommage."
    }
  },
  {
    "label": "103",
    "attribute": "0x0000000000000000",
    "locale": {
      "CNzh": "能听到你这么说，\n我就很有自信啦！\n先穿一阵子，\n用我的汗水来浸润一下吧！",
      "EUde": "Na, dann bin ich beruhigt.\nMal sehen, wie es sich damit\ntrainiert.",
      "EUen": "Oh! Well, good.\nOnly thing left to do is wear it until\nmy sweat seeps in and makes it\ntruly mine!",
      "EUes": "¡Ah, pues estupendo!\nAhora solo queda que se impregne\ndel aroma de mi sudor y ya estará\ntodo perfecto...",
      "EUfr": "Ah bon ! Tu me rassures !\nIl me reste plus qu'à  porter assez\nlongtemps pour lui faire absorber ma\nsueur et que je  sente bien à moi.",
      "EUit": "Oh! Bene allora.\nQuesto capo mi piace così tanto\nche lo userò anche per allenarmi.",
      "EUnl": "O! Gelukkig maar.\nMaar gauw erin gaan trainen! Zonder\nmijn vertrouwde zweetlucht voelt\ngeen enkel kledingstuk eigen!",
      "EUru": "Ого! Хорошо, даже отлично!\nОсталось только носить эту вещь,\nпока она не пропитается моим\nпотом, чтобы стать частью меня!",
      "JPja": "オマエに　そう言ってもらえると\n自信が　持てるよ！\nしばらく着て、\nオイラの汗を　しみこませとくよ！",
      "KRko": "니가 그렇게 말해주니까\n자신감이 생긴다!\n당분간 계속 입으면서\n내 땀이 스며들게 해야겠어－",
      "TWzh": "聽你這麼說，\n我就有自信了！\n讓我先穿個一段時間，\n讓汗水滋潤一下這件衣服吧！",
      "USen": "Oh! Well, good.\nOnly thing left to do is wear it until\nmy sweat seeps in and makes it\ntruly mine!",
      "USes": "¡Ah, buenísimo!\nAhora solo queda que se impregne\ndel aroma de mi sudor y ya estará\ntodo perfecto...",
      "USfr": "Ah bon! Tu me rassures!\nIl me reste plus qu'à  porter assez\nlongtemps pour lui faire absorber ma\nsueur et que je  sente bien à moi."
    }
  },
  {
    "label": "104",
    "attribute": "0x0000000000000000",
    "locale": {
      "CNzh": "好！\n刚才的你就当没看到吧！",
      "EUde": "Oh, klare Worte. Aber das ist mir\nlieber, als wenn du herumdruckst.",
      "EUen": "OK, then. Let's just pretend this\nnever happened.",
      "EUes": "Vale, entonces vamos a hacer como\nsi nunca hubieras visto todo esto.",
      "EUfr": "Bon. On va faire comme s'il ne s'était\nrien passé et oublier tout ça. OK ?",
      "EUit": "D'accordo, facciamo finta\nche non sia successo nulla.",
      "EUnl": "O, dat is klare taal. Maar dat kan ik\nwel waarderen.",
      "EUru": "Так, ладно. Давай сделаем вид,\nчто этого не было.",
      "JPja": "よし！\n今のは　なかったことにしてくれ！",
      "KRko": "자!\n지금 이건 없었던 일로 하자!",
      "TWzh": "好！\n你就當作剛剛什麼都沒看到吧！",
      "USen": "OK, then. Let's just pretend this\nnever happened.",
      "USes": "Bueno, entonces vamos a hacer\ncomo si nunca hubieras visto\ntodo esto.",
      "USfr": "Bon. On va faire comme s'il ne s'était\nrien passé et oublier tout ça. OK?"
    }
  },
  {
    "label": "105",
    "attribute": "0x0000000000000000",
    "locale": {
      "CNzh": "真是遗憾，\n看来我没有\n穿好这件衣服的才能啊！。",
      "EUde": "Vielleicht bin ich nur nicht der\nrichtige Typ dafür, (Floskel).",
      "EUen": "It's unfortunate, but I guess I just\ndon't have the fashion fortitude to\npull this off, (catchphrase).",
      "EUes": "Qué pena... Supongo que esta\nropa no está a la altura de mi\natlética complexión...",
      "EUfr": "C'est triste à dire, mais je crois que\nmon sens de la mode est pas assez\nmusclé pour porter ça, .",
      "EUit": "È un vero peccato, ma non credo\nche rispecchi molto il mio stile,\n.",
      "EUnl": "Wel jammer... Maar misschien ben ik\ngewoon niet het juiste type voor\nzulke kleren, .",
      "EUru": "Увы и ах, но у меня не настолько\nпрокачаны мышцы моды, чтобы\nэто надеть, .",
      "JPja": "ザンネンだけど、\nオイラに　この服を着こなす　サイノウは\nなかったようだなー！　",
      "KRko": "안타까운 일이지만\n나한텐 이 옷을 소화할 재능이\n없는 모양이야－! !",
      "TWzh": "雖然很可惜，\n但我似乎沒辦法\n駕馭這件衣服～！。",
      "USen": "It's unfortunate, but I guess I just\ndon't have the fashion fortitude to\npull this off, (catchphrase).",
      "USes": "Qué lástima... Supongo que esta\nropa no está a la altura de mi\natlética complexión...",
      "USfr": "C'est triste à dire, mais je crois que\nmon sens de la mode est pas assez\nmusclé pour porter ça, ."
    }
  },
  {
    "label": "201",
    "attribute": "0x0000000000000000",
    "locale": {
      "CNzh": "不愧是，\n这么准确地挑出了\n适合我的衣服呢～。",
      "EUde": "Es überrascht mich auch nicht, dass\n ein perfektes Kleidungsstück für mich aussucht.",
      "EUen": "I'm not surprised \nwould pick out the perfect\nclothes for me.",
      "EUes": "Con lo detallista que es\n, no me extraña\nque eligiera esto para mí.",
      "EUfr": "Ça me surprend pas de la part de  qu'elle ait su choisir le vêtement idéal pour moi.",
      "EUit": "Non mi meraviglia affatto che  abbia scelto un capo adatto a me.",
      "EUnl": "Het verbaast me helemaal niet dat  precies weet wat mij goed staat.",
      "EUru": "Почему-то я не удивлен, что\n сумела подобрать\nподходящую вещь для меня.",
      "JPja": "さすが　、\nちゃんと　オイラに　合う服を\n選んでくれたんだな～、",
      "KRko": "역시 이야!\n나한테 잘 어울리는 옷을\n정확하게 골라준다니까～ !",
      "TWzh": "不愧是，\n她很認真地挑選了\n適合我的衣服啊！。",
      "USen": "I'm not surprised \nwould pick out the perfect\nclothes for me.",
      "USes": "Con lo detallista que es\n, no me extraña\nque eligiera esto para mí.",
      "USfr": "Ça me surprend pas de la part de ⁠ qu'elle ait su choisir le vêtement idéal pour moi."
    }
  },
  {
    "label": "202",
    "attribute": "0x0000000000000000",
    "locale": {
      "CNzh": "别看那个样子，\n却很准确地挑出了\n适合我的衣服呢～。",
      "EUde": "Dass  guten Klamottengeschmack hat, sieht man ihr ja auch an, (Floskel)!",
      "EUen": " always looks\ngreat. No wonder she picked\nsomething good for me!",
      "EUes": "La estilosa de \nsabe elegir bien la ropa que\nme queda bien...",
      "EUfr": " est toujours bien habillée, pas étonnant qu'elle m'ait choisi quelque chose de chouette.",
      "EUit": "Si vede che  ha stile, quindi la sua scelta non mi sorprende affatto.",
      "EUnl": " ziet er altijd piekfijn uit, dus zij weet wel wat ze voor anderen moet uitkiezen.",
      "EUru": " сама всегда одета\nс иголочки. Я не удивлен, что она\nи мне подобрала стильную вещь.",
      "JPja": "って、\nああ見えて　ちゃんとオイラに　合うヤツ\nさがしてくれてんだよな～、",
      "KRko": "은\n보는 거랑 다르게 나랑 어울리는 걸\n제대로 찾아주네～ !",
      "TWzh": "別看那樣子，\n她還是有認真在找\n適合我的衣服啊！。",
      "USen": " always looks\ngreat. No wonder she picked\nsomething good for me!",
      "USes": " sí que sabe elegir bien la ropa que me favorece...",
      "USfr": " est toujours bien habillée, pas étonnant qu'elle m'ait choisi quelque chose de super beau."
    }
  },
  {
    "label": "203",
    "attribute": "0x0000000000000000",
    "locale": {
      "CNzh": "那家伙，\n品位果然挺好啊！\n连我都觉得这件很不错呢！。",
      "EUde": "Da zeigt sich das Modegespür von\n, was? Das ist sogar mir als Nicht-Experten klar!",
      "EUen": " has good fashion\nsense, huh? Even a musclehead\nlike me can see that!",
      "EUes": "El estilo de \nse ve a la legua en esto tan elegante que me ha elegido.",
      "EUfr": " a un goût très sûr en matière de mode, hein ? Même moi, je m'en rends compte !",
      "EUit": "Sì,  ha occhio per la moda. Persino uno come me se ne rende conto!",
      "EUnl": " heeft een goed modegevoel, hè? Zelfs een lomperik als ik ziet dat!",
      "EUru": "У  есть чувство\nстиля, правда? Даже такой увалень,\nкак я, в состоянии это понять!",
      "JPja": "のヤツ、\nやっぱ　いいセンスしてるよなー\nオイラ、あこがれちゃうぞー！　",
      "KRko": " 녀석,\n역시 센스가 좋다니까－\n가끔 부러워－! !",
      "TWzh": "我就知道，\n的品味果然很好啊。\n好到連我都覺得很羨慕她了！。",
      "USen": " has good fashion\nsense, huh? Even a musclehead\nlike me can see that!",
      "USes": "El estilo de  se ve a leguas en esto tan elegante que escogió para mí.",
      "USfr": " a bon goût en matière de mode, hein? Même moi, je m'en rends compte!"
    }
  },
  {
    "label": "204",
    "attribute": "0x0000000000000000",
    "locale": {
      "CNzh": "的\n品位可真好呀！\n我以前竟然都没发现呢！。",
      "EUde": "War mir übrigens gar nicht so klar,\ndass  so eine Modeexpertin ist, (Floskel).",
      "EUen": "I never really noticed how good\n's fashion\nsense is till now.",
      "EUes": "Con lo despreocupada que parece\n, ¡veo que sabe\nelegir ropa para sus amigos!",
      "EUfr": "Je ne m'en étais encore jamais rendu\ncompte, mais...  a\nplutôt bon goût en matière de mode.",
      "EUit": "Non me n'ero mai accorto, ma direi che  se ne intende\ndavvero di moda, giusto?",
      "EUnl": "Ik heb er nooit zo over nagedacht,\nmaar  heeft best wel gevoel voor mode, hè?",
      "EUru": "Я раньше не обращал внимания,\nно похоже, у \nотличное чувство стиля, правда?",
      "JPja": "って、\nけっこう　センスいいんだなー\nオイラ　今まで気づかなかったぞ！　",
      "KRko": "은\n생각보다 센스가 좋네－\n난 지금까지 눈치를 못 챘어, !",
      "TWzh": "的品味\n其實還滿不錯的嘛──！\n我之前都沒有發現耶！。",
      "USen": "I never really noticed how good\n's fashion\nsense is till now.",
      "USes": "Con lo despreocupada que parece\n, ¡veo que sabe\nelegir ropa para sus amigos!",
      "USfr": "Je ne m'en étais encore jamais rendu\ncompte, mais...  a plutôt bon goût en matière de mode."
    }
  },
  {
    "label": "205",
    "attribute": "0x0000000000000000",
    "locale": {
      "CNzh": "那家伙，\n竟然品位不错呢！\n呜……我好像比不上。。",
      "EUde": "Mir scheint, in Modeangelegenheiten\nist mir  eine Nase voraus. Solange es nur da so ist...",
      "EUen": "In the game of fashion, I can't\nbelieve I'm actually losing\nto .",
      "EUes": "No puedo negar que me gusta esto.\nPero me da mal rollo pensar que\n tiene más estilo\nque yo...",
      "EUfr": "Dans le match du monde de la mode,\nje viens de subir une cuisante défaite\nface à .",
      "EUit": "Non posso negare che mi piaccia.\nPerò mi lascia un po' così pensare che  abbia più stile di me...",
      "EUnl": "Ik kan niet geloven dat ik het op\nhet gebied van mode afleg tegen\n.",
      "EUru": "Если бы проводились соревнования\nпо моде, то я, как ни странно, мог\nбы и проиграть .",
      "JPja": "のヤツ、\n意外に　いいセンスしてんだなー\nくっ・・・　オイラ負けてるかも、",
      "KRko": " 녀석,\n의외로 센스가 좋은 모양이야－\n큭... 내가 질지도 몰라! !",
      "TWzh": "沒想到那傢伙\n還挺有品味的嘛～\n嗚……可能還贏過我，。",
      "USen": "In the game of fashion, I can't\nbelieve I'm actually losing\nto .",
      "USes": "No puedo negar que me gusta esto.\nPero no me agrada nada saber que\n tiene más\nestilo que yo...",
      "USfr": "Dans le match du monde de la mode,\nje viens de subir une cuisante défaite\nface à ."
    }
  },
  {
    "label": "206",
    "attribute": "0x0000000000000000",
    "locale": {
      "CNzh": "那家伙，\n品位比我还要好呢……\n可恶！比肌肉我可是不会输的！。",
      "EUde": " hat also einen besseren Geschmack als ich... Aber ich sprinte ja wohl schneller!",
      "EUen": "So  has better\ntaste than me? I gotta buff\nup my fashion sense!",
      "EUes": "Veo que  tiene\nmejores gustos que yo... ¡pero en\nmusculatura seguro que no me gana!",
      "EUfr": " a meilleur goût que moi... Va falloir me reprendre et vite muscler mon sens de la mode !",
      "EUit": "Quindi  ha più gusto di me... Lo vedremo, dopo che avrò allenato i miei muscoli modaioli!",
      "EUnl": "Dus  heeft betere smaak dan ik... Kun je goede smaak trainen?",
      "EUru": "Значит, у  вкус\nлучше... Блин от штанги! Нужно\nработать над мышцами моды!",
      "JPja": "のヤツ、\nオイラより　センスいいな・・・\nくそー、キンニクは負けてないぞ！　",
      "KRko": " 녀석,\n나보다 센스가 좋잖아...?\n크윽－! 근육으로는 안 진다－! !",
      "TWzh": "那傢伙的品味\n竟然比我還要好啊……\n可惡──！論肌肉我可不會輸啊！。",
      "USen": "So  has better\ntaste than me? I gotta buff\nup my fashion sense!",
      "USes": "Veo que  tiene\nmejores gustos que yo... ¡pero en\nmusculatura seguro que no me gana!",
      "USfr": " a meilleur goût que moi... Va falloir me reprendre et vite muscler mon sens de la mode!"
    }
  },
  {
    "label": "207",
    "attribute": "0x0000000000000000",
    "locale": {
      "CNzh": "的\n品位还真不错啊……\n好像发现了他不为人知的一面呢！。",
      "EUde": "Dass  sich in Modefragen so gut auskennt, hätte ich wirklich nicht gedacht!",
      "EUen": " has pretty good\ntaste... I never knew!",
      "EUes": "Vaya,  tiene gusto\npara la ropa... ¡Quién lo iba a pensar!",
      "EUfr": " a donc plutôt bon goût en matière de mode... Alors ça, je m'en serais jamais douté !",
      "EUit": "Però,  ha davvero buon gusto... Non me lo sarei mai aspettato!",
      "EUnl": " heeft smaak... Wie had dat gedacht?!",
      "EUru": "У  отличное чувство\nстиля... А я и не знал!",
      "JPja": "って\nけっこう　いいセンスしてるんだな・・・\n意外な一面を　見た気がするぞー、",
      "KRko": "은\n센스가 상당히 좋구나...\n의외의 면을 본 듯한 느낌이야－ !",
      "TWzh": "的品味，\n其實還滿不賴的嘛……\n總覺得看到了他不為人知的一面，。",
      "USen": " has pretty good\ntaste... I never knew!",
      "USes": "Vaya,  tiene\nbuen gusto para la ropa...\n¡Quién lo diría!",
      "USfr": " a donc plutôt bon goût en matière de mode... Alors ça, je m'en serais jamais douté!"
    }
  },
  {
    "label": "208",
    "attribute": "0x0000000000000000",
    "locale": {
      "CNzh": "那家伙，\n我还以为他要给我什么呢，这让我很意外，\n从此对他刮目相看啦！(catchphrase)。",
      "EUde": "Übrigens überrascht es mich, dass\n ein so stylisher Typ ist. Man lernt eben immer dazu!",
      "EUen": "I'm surprised that \nis so stylish. I'm seeing that\ndude in a whole new light!",
      "EUes": " va de enteradillo\npor la vida, ¡y de moda parece que sí\nque sabe un rato!",
      "EUfr": "Que  ait autant de style me surprend. Voilà qui me fait le voir sous un nouveau jour !",
      "EUit": "Mi sorprende che  abbia tanto stile. Devo riconsiderare l'idea che mi sono fatto di lui!",
      "EUnl": "Dat  zo modebewust is, wist ik niet. Ik zie die gast nu met hele andere ogen!",
      "EUru": "Я удивлен, что \nтакой стильный. Он открывается\nдля меня с новой стороны!",
      "JPja": "のヤツ、\n一体　何をくれるのかと思ったけど、\nあんがい　まともで見直したよ！　(catchphrase)",
      "KRko": " 녀석,\n대체 뭘 줄까 싶었는데\n생각보다 괜찮아서 다시 봤어! (catchphrase)!",
      "TWzh": "我原本還在想那傢伙\n到底會送我什麼東西……\n沒想到還不錯，讓我對他改觀了！(catchphrase)。",
      "USen": "I'm surprised that \nis so stylish. I'm seeing that\ndude in a whole new light!",
      "USes": " se la da de\ninteresante, ¡y de moda parece\nque sí sabe lo suyo!",
      "USfr": "Que ⁠ ait autant de style me surprend. Voilà qui me fait le voir sous un nouveau jour!"
    }
  },
  {
    "label": "209",
    "attribute": "0x0000000000000000",
    "locale": {
      "CNzh": "既然\n都做到这份上了，\n我也要好好道歉才行呢！。",
      "EUde": "Wenn sich  so um eine Aussöhnung bemüht, sollte ich mich auch entschuldigen!",
      "EUen": "Aw, if  is willing\nto go this far, I guess I should\ngo apologize too.",
      "EUes": "Huy, si  ha dado\neste paso, a lo mejor yo también\ndebería disculparme...",
      "EUfr": "Bon... Si  fait de tels efforts, je pense que je devrais aller m'excuser, moi aussi.",
      "EUit": "Per tutti i deltoidi, se le cose\nstanno così, dovrò scusarmi\ncon .",
      "EUnl": "Ahhh, als  zo haar best doet, moet ik ook maar sorry zeggen!",
      "EUru": "Уф, если уж  так\nзаморочилась, наверное, мне тоже\nстоит извиниться.",
      "JPja": "が　ここまでしてくれたなら\nオイラも　キッチリ\nあやまらなきゃな！　",
      "KRko": "이\n선물까지 보냈는데\n나도 똑바로 사과해야지! !",
      "TWzh": "既然\n都願意對我釋出善意了，\n我也得好好地向她道歉才行啊！。",
      "USen": "Aw, if  is willing\nto go this far, I guess I should\ngo apologize too.",
      "USes": "Uy, si  dio este\npaso, a lo mejor yo también\ndebería disculparme...",
      "USfr": "Bon... Si  fait de tels efforts, je pense que je devrais aller m'excuser, moi aussi."
    }
  },
  {
    "label": "210",
    "attribute": "0x0000000000000000",
    "locale": {
      "CNzh": "那家伙，\n原来一直很在意啊……\n好，我也要好好道歉！。",
      "EUde": " ist offensichtlich sehr an einer Aussöhnung gelegen. Dann sollte ich bald mit ihr reden!",
      "EUen": "I guess what happened is really\nbugging ... OK,\nI'll jog over and work it out.",
      "EUes": "Conociendo a , es\nnormal que estuviese preocupada\npor lo que pasó...\n¡Voy a darme una carrerita para\nir a verla y a ver si conseguimos\ntonificar los ánimos!",
      "EUfr": "Faut croire que notre dispute\npréoccupe  plus que je ne le croyais...\nBon, je vais faire un saut chez elle,\net on va régler ça.",
      "EUit": "Credo che   dispiaccia davvero tanto quanto è successo...\nBene, allora anch'io farò la mia parte.",
      "EUnl": "Zo te merken zit  er erg over in wat er gebeurd is... Ik moet dan maar snel met haar praten!",
      "EUru": "Наверное,  здорово\nпереживает из-за случившегося...\nМне нужно побегать об этом.",
      "JPja": "のヤツ、\n気にしてくれてたんだな・・・\nオイラも　ちゃんとあやまるよ！　",
      "KRko": " 녀석,\n마음에 두고 있었구나...\n나도 똑바로 사과해야겠다! !",
      "TWzh": "原來\n這麼在意這件事啊……\n我也要好好向她道歉！。",
      "USen": "I guess what happened is really\nbugging ... OK,\nI'll jog over and work it out.",
      "USes": "Conociendo a , es\nnormal que estuviera preocupada\npor lo que pasó...\n¡Voy a dar una carrerita para ir\na verla y a ver si conseguimos\ntonificar los ánimos!",
      "USfr": "Faut croire que notre dispute\npréoccupe  plus que je ne le croyais...\nBon, je vais faire un saut chez elle,\net on va régler ça."
    }
  },
  {
    "label": "211",
    "attribute": "0x0000000000000000",
    "locale": {
      "CNzh": "都\n做到这份上了，\n我也会好好道歉的！。",
      "EUde": "Wenn  so viel Aufwand betreibt, sollte ich mich auch bei ihr entschuldigen gehen.",
      "EUen": "If  is this serious\nabout our friendship, I'd better\ngo try to work things out.",
      "EUes": "La madurez de \nse nota en gestos como este.\n¡Venga, pelajes a la mar!",
      "EUfr": "Si  prend autant notre amitié au sérieux, je dois aller la voir pour me réconcilier avec elle.",
      "EUit": "Se   importa così tanto della nostra amicizia, allora anch'io devo darmi da fare.",
      "EUnl": "Als  zoveel geeft om onze vriendschap, kunnen we het beter proberen uit te praten.",
      "EUru": "Если наша дружба столько значит\nдля , нужно будет\nперед ней тоже извиниться.",
      "JPja": "が\nここまでしてくれたんだ、\nオイラも　ちゃんとあやまるよ！　",
      "KRko": "의\n진심이 느껴진다...!\n나도 똑바로 사과할래! !",
      "TWzh": "……\n她都讓步到這樣了，\n我也要好好向她道歉！。",
      "USen": "If  is this serious\nabout our friendship, I'd better\ngo try to work things out.",
      "USes": "La madurez de \nse nota en gestos como este. ¡No me\nquedaré atrás e iré a disculparme!",
      "USfr": "Si  prend autant notre amitié au sérieux, je dois aller la voir pour me réconcilier avec elle."
    }
  },
  {
    "label": "212",
    "attribute": "0x0000000000000000",
    "locale": {
      "CNzh": "那家伙，\n原来那么在意啊！\n好，我也要好好道歉！。",
      "EUde": " hat sich ja ganz schön ins Zeug gelegt. Ich sollte hin, damit wir unseren Streit begraben!",
      "EUen": "This bugs ol' ,\nhuh? Guess I'll sprint over for\nthe no-hard-feelings talk.",
      "EUes": "Lo que pasó parece haberle aguado\nla fiesta a ...\n¡Es momento de hacer las paces!",
      "EUfr": "Notre dispute semble tracasser\ncette chère .\nJe crois que je vais aller la voir pour\nla rassurer, on est toujours amis.",
      "EUit": "Mmmh,  ha fatto la sua parte, ora tocca a me... Mi precipiterò a fare la pace!",
      "EUnl": "Dus  is zich flink druk aan het maken? Dan is dit het moment om de strijdbijl te begraven.",
      "EUru": "Ха, значит,  из-за\nэтого переживает. Нужно будет\nзабежать к ней на мировую.",
      "JPja": "のヤツ、\nそんなに　気にしてくれてたのかー\nよし、オイラも　ちゃんとあやまるよ！　",
      "KRko": " 녀석,\n그렇게 마음에 걸렸나 보네－\n좋아, 나도 확실하게 사과하겠어! !",
      "TWzh": "原來\n這麼在意啊……\n好，我也要好好向她道歉！。",
      "USen": "This bugs ol' ,\nhuh? Guess I'll sprint over for\nthe no-hard-feelings talk.",
      "USes": "Parece que lo que pasó le aguó\nla fiesta a ...\n¡Es hora de hacer las paces!",
      "USfr": "Notre dispute semble fatiguer\ncette chère .\nJe crois que je vais aller la voir pour\nla rassurer, on est toujours amis."
    }
  },
  {
    "label": "213",
    "attribute": "0x0000000000000000",
    "locale": {
      "CNzh": "那家伙，\n竟然在意到这种地步吗……\n我才是必须要去道歉才行。。",
      "EUde": " hat sich wohl Sorgen gemacht... Ich muss den Streit mit ihm endgültig begraben!",
      "EUen": "Poor . He seems\nreally worried about all this...\nGuess we should have a chat.",
      "EUes": "Vaya, seguro que \nse ha tomado lo que pasó demasiado\na pecho...\n¡Esto no puede quedarse así!",
      "EUfr": "Pauvre , il semble très embêté par cette histoire...\nÇa peut pas continuer, faut qu'on ait\nune bonne discussion, tous les deux.",
      "EUit": "Immagino che   dispiaccia questa situazione... È ora che vada a parlare con lui.",
      "EUnl": "Die arme  is zo te zien helemaal van zijn padje door dit gedoe... Ik zal met hem gaan praten.",
      "EUru": "Бедняга . Похоже, он\nпереживает из-за нашей ссоры...\nСамое время нам с ним поговорить.",
      "JPja": "のヤツが\nこんなに　気にしてくれてたなんてな・・・\nオイラこそ　あやまりに行かないと、",
      "KRko": " 녀석이\n이렇게 신경 썼을 줄이야...\n나야말로 사과하러 가야겠어! !",
      "TWzh": "真沒想到\n居然這麼在意……\n我得去向他道歉才行，。",
      "USen": "Poor . He seems\nreally worried about all this...\nGuess we should have a chat.",
      "USes": "Vaya, seguro que se tomó lo que pasó demasiado\na pecho...\n¡Esto no se puede quedar así!",
      "USfr": "Pauvre , il semble très embêté par cette histoire...\nÇa peut pas continuer, faut qu'on ait\nune bonne jasette, tous les deux."
    }
  },
  {
    "label": "214",
    "attribute": "0x0000000000000000",
    "locale": {
      "CNzh": "那家伙，\n竟然比我先一步道歉，太狡猾啦！\n这次完全是我输了……。",
      "EUde": "Zur Hantel,  war mit seiner Entschuldigung schneller als ich! Aber sicher nur damit...",
      "EUen": "Aw, barbells. \njust out-apologized me!",
      "EUes": "¡Mancuernas! Golazo emotivo de\n... ¡Se ha ganado\ntodas mis disculpas!",
      "EUfr": "Ah, non !  vient de remporter la manche des excuses ! Va falloir que je m'améliore !",
      "EUit": "Per tutti i deltoidi! Nella gara\ndi scuse, sono stato battuto\nsul tempo da !\nDevo proprio migliorare i miei\nmuscoli scuso-facciali!",
      "EUnl": "Hè, verdraaid.  is beter dan ik in sorry zeggen! Dat kan ik niet over mijn kant laten gaan!",
      "EUru": "Ох, блин от штанги. \nвсе-таки выиграл в извинялки!\nЯ тоже попрошу у него прощения.",
      "JPja": "のヤツ、\nオイラより　先にあやまるなんて　ズルいぞー\n今回は　オイラの完敗だー・・・、",
      "KRko": " 녀석,\n나보다 먼저 사과하다니 치사하긴－\n이번엔 내가 완패다... ...",
      "TWzh": "沒想到那小子\n竟然先我一步道歉，太奸詐啦──！\n這次是我徹底輸給他了……。",
      "USen": "Aw, barbells. \njust out-apologized me!",
      "USes": "¡Mancuernas! Golazo emotivo de\n... ¡Ya se ganó\ntodas mis disculpas!",
      "USfr": "Ah, non!  vient de remporter la manche des excuses! Va falloir que je m'améliore!"
    }
  },
  {
    "label": "215",
    "attribute": "0x0000000000000000",
    "locale": {
      "CNzh": "……\n果然很有器量啊！\n我也要好好道歉！。",
      "EUde": "Nette Geste von !\nIch sollte rüberjoggen und mich\nauch bei ihm entschuldigen!",
      "EUen": "That  is a real\nstand-up dude. I'm gonna\ndash over and apologize!",
      "EUes": "Este  es un animal\nde principios. ¡Echaré una carrerita\npara ir a disculparme en persona!",
      "EUfr": "Ce  est vraiment quelqu'un sur qui on peut compter.\nJe vais aller en courant jusqu'à chez\nlui, et m'excuser moi aussi.",
      "EUit": "Certo che  è davvero in gamba. Credo che andrò da lui a scusarmi di persona.",
      "EUnl": "Die  is een goede gast. Ik jog even langs om ook mijn verontschuldigingen aan te bieden.",
      "EUru": "Этот  — малый\nне промах. На следующей пробежке\nзабегу к нему и извинюсь.",
      "JPja": "って、\nやっぱり　器がでかいよなー！\nオイラも　キッチリあやまるよ！　",
      "KRko": "은\n역시 그릇이 크구나－!\n나도 미안하다고 해야겠어! !",
      "TWzh": "果然\n是個很有度量的人啊！\n我也要好好向他道歉才行！。",
      "USen": "That  is a real\nstand-up dude. I'm gonna\ndash over and apologize!",
      "USes": "Este  es un tipo\nde principios. ¡Echaré una carrerita\npara ir a disculparme en persona!",
      "USfr": "Ce ⁠ est vraiment quelqu'un sur qui on peut compter.\nJe vais aller en courant jusqu'à chez\nlui, et m'excuser moi aussi."
    }
  },
  {
    "label": "216",
    "attribute": "0x0000000000000000",
    "locale": {
      "CNzh": "那家伙，\n看起来是非常在意啊……\n我也必须要好好道歉才行！。",
      "EUde": " hat unser Streit wohl gestresst. Ich muss mit ihm quatschen. Ist doch alles wieder gut!",
      "EUen": " was pretty\nstressed about this, huh? Well,\nI guess I'll apologize too.",
      "EUes": " parece un poco\nestresado con todo esto... Bueno,\nme disculparé yo también.",
      "EUfr": " semblait plutôt embêté par notre dispute. Je devrais aller m'excuser aussi, je crois.",
      "EUit": "Immagino che   dispiacesse molto... Beh, andrò a scusarmi anch'io.",
      "EUnl": " zat flink in de rats, hè? Laat ik ook maar even mijn excuses aanbieden.",
      "EUru": ", значит, из-за этого\nзаморочился? Наверное, мне тоже\nстоит перед ним извиниться.",
      "JPja": "のヤツ、\nけっこう　気にしてくれてたんだな・・・\nオイラも　ちゃんと　あやまるよ！　",
      "KRko": " 녀석,\n꽤나 신경 쓰였구나...\n나도 제대로 사과해야지! !",
      "TWzh": "看來\n其實挺在意的……\n我也得好好向他道歉才行！。",
      "USen": " was pretty\nstressed about this, huh? Well,\nI guess I'll apologize too.",
      "USes": " parece un poco\nestresado con todo esto... Bueno,\nme disculparé yo también.",
      "USfr": " semblait plutôt embêté par notre chicane. Je devrais aller m'excuser aussi, je crois."
    }
  },
  {
    "label": "300",
    "attribute": "0x0000000000000000",
    "locale": {
      "CNzh": "啊，但是的心意，\n有好好传达给我哦！。",
      "EUde": " hat es in jedem Fall nett gemeint, so viel ist klar. Und das ist ja die Hauptsache!",
      "EUen": "The important thing is that\n's feelings\nare loud and clear.",
      "EUes": "Lo importante es que he entendido\nperfectamente el mensaje que\n quería mandarme.",
      "EUfr": "Ce qui compte, en tout cas, c'est\nl'intention. Et c'est très gentil de\nla part de .",
      "EUit": "Ciò che importa è che l'affetto di  mi sia arrivato forte e chiaro.",
      "EUnl": " had het in ieder geval goed bedoeld. En daar gaat het uiteindelijk om!",
      "EUru": "Важно, что \nпо крайней мере четко заявил\nо своих чувствах!",
      "JPja": "あ、でも　のキモチは\nバシッと伝わったぞー！　",
      "KRko": "아, 그래도 의\n마음은 찡－하게 전해졌다구! !",
      "TWzh": "啊，不過，我有清楚地感受到\n的心意喔──！。",
      "USen": "The important thing is that\n's feelings\nare loud and clear.",
      "USes": "Lo importante es que entendí\nperfectamente el mensaje que me\nquería mandar .",
      "USfr": "Ce qui compte, en tout cas, c'est\nl'intention. Et c'est très gentil de\nla part de ⁠."
    }
  },
  {
    "label": "301",
    "attribute": "0x0000000000000000",
    "locale": {
      "CNzh": "啊，但是\n的心意，\n我已经完全了解啦！\n既然对方\n这么在意我，\n我也必须好好道歉才行呢！。",
      "EUde": "Aber dass  viel guten Willen gezeigt hat, ist mal klar wie Kloßbrühe.\nEs führt also kein Trimm-dich-Pfad\ndaran vorbei, dass ich mich auch\nbei ihr entschuldige, (Floskel).",
      "EUen": "'s feelings have\ngotten through to me though.\nShe went to a lot of trouble here, so\nI should probably go apologize too.",
      "EUes": "Lo que  quería\ntransmitirme está claro como un vaso\nde bebida isotónica transparente.\nCon la de molestias que se ha\ntomado, ¡ahora no me queda más\nremedio que disculparme en persona!",
      "EUfr": "Mais  a montré des signes de bonne volonté, c'était très clair. Même pour moi.\nElle s'est donné du mal, et je devrais\naller m'excuser à mon tour.",
      "EUit": "Apprezzo molto i sentimenti\ndi .\nNon sarà stato facile per lei, quindi\nvoglio scusarmi anch'io.",
      "EUnl": "Dat  het weer wil goed maken, is zo klaar als een klontje.\nZe heeft veel moeite gedaan, dus ik\nkan maar beter ook mijn excuses\naanbieden.",
      "EUru": " достучалась\nдо моего сердца.\nЕсли она так заморочилась, то\nи мне тоже стоит извиниться.",
      "JPja": "あ、でも　のキモチは\n十分　伝わったぞー！\nこんなに　気をつかって\nもらったからには、オイラも\nちゃんと　あやまんないとな！　",
      "KRko": "아, 그래도\n의 마음은\n충분히 잘 전해졌어－!\n이렇게까지 신경을 써주다니\n선물을 받은 이상\n나도 제대로 사과해야지! !",
      "TWzh": "啊，不過，\n我有充分地感受到\n的歉意喔。\n既然她都已經\n這麼為我著想了，\n那我也得好好地向她道歉才行！。",
      "USen": "'s feelings have\ngotten through to me though.\nShe went to a lot of trouble here, so\nI should probably go apologize too.",
      "USes": "Lo que  quería\ntransmitirme está claro como un vaso\nde bebida isotónica transparente.\nCon tantas molestias que se ha\ntomado, ¡ahora no me queda más\nremedio que disculparme en persona!",
      "USfr": "Mais  a montré des signes de bonne volonté, c'était très clair. Même pour moi.\nElle s'est donné du mal, et je devrais\naller m'excuser à mon tour."
    }
  },
  {
    "label": "302",
    "attribute": "0x0000000000000000",
    "locale": {
      "CNzh": "我已经收到那家伙的心意了！\n我也会好好道歉的！\n嘿嘿，\n竟然这么在乎我的感受，\n我真是完全没想到呢！。",
      "EUde": "Aber dass  unser Streit sooo belastet hat, war mir jetzt gar nicht klar, (Floskel).\nIch werde mich auch bei ihr\nentschuldigen, das ist ja wohl\nklar wie Kloßbrühe!",
      "EUen": "Heh, I didn't think \nwas so concerned about\nthis whole thing.\nHer feelings are pretty clear though.\nSo I'm going to apologize too.",
      "EUes": "Vaya, no se me había ocurrido\nque a  pudiese\npreocuparle tanto este asunto.\n¡Ya no hay excusa para no esprintar\ne ir a disculparme directamente!",
      "EUfr": "Mais j'aurais pas imaginé que toute\ncette histoire préoccuperait autant\n.\nElle a clairement fait un pas vers\nmoi, alors je vais aussi aller lui\nprésenter mes excuses.",
      "EUit": "Onestamente, non credevo che\nla faccenda stesse tanto a cuore\n ...\nComunque è chiaro cosa pensa,\nquindi anch'io porgerò le mie scuse.",
      "EUnl": "Hehehe, ik had nooit verwacht dat\n zich zo druk zou maken om dit hele gedoe.\nHet is wel zo sportief om zelf ook\nsorry te zeggen. Ik jog wel even bij\nhaar langs!",
      "EUru": "Эх, я и не думал, что \nтак переживает из-за этой истории.\nНо она точно дала это понять,\nтак что я, пожалуй, тоже извинюсь.",
      "JPja": "アイツのキモチは　しっかり受け取ったぞ！\nオイラも、ちゃんと　あやまるよ！\nへへっ、が\nこんなに　気をつかってくれるなんて\n思ってもみなかったぞ！　",
      "KRko": "그 녀석의 마음이 찡하게 다가온다!\n나도 미안하다고 사과해야겠어!\n헤헷, 이\n이 정도로 신경 써줄 거라고는\n생각도 못 했어! !",
      "TWzh": "我確實有感受到她的歉意喔！\n我也會好好道歉的──！\n嘿嘿，我怎麼樣都想不到\n竟然會\n這麼為我著想啊！。",
      "USen": "Heh, I didn't think \nwas so concerned about\nthis whole thing.\nHer feelings are pretty clear though.\nSo I'm going to apologize too.",
      "USes": "Vaya, no se me había ocurrido\nque a  le iba\na preocupar tanto este asunto.\n¡Ya no hay excusa para no ir corriendo a disculparme en persona!",
      "USfr": "Mais j'aurais pas imaginé que toute\ncette histoire préoccuperait autant\n.\nElle a clairement fait un pas vers\nmoi, alors je vais aussi aller lui\nprésenter mes excuses."
    }
  },
  {
    "label": "303",
    "attribute": "0x0000000000000000",
    "locale": {
      "CNzh": "但是，那家伙的心意，\n我已经全都收到了！\n我也必须要好好道歉才行呢！\n没想到\n竟然会这么在意我的感受，\n我真是有点意外哦！。",
      "EUde": "Aber nett von , sich zu entschuldigen. Auf die Idee hätte ich ja auch kommen können...\nMir war nur gar nicht so klar, dass\nunser Streit sie so belastet hat, (Floskel).",
      "EUen": "But it's nice of  to\napologize. I guess I should too.\nI didn't realize this was going to be\nsuch a big deal, (catchphrase).",
      "EUes": "Tampoco me sorprende que\n haya decidido\nmanejar esto de esta forma...\nAsí que tomaré una actitud madura\ne iré a disculparme en persona.",
      "EUfr": "J'apprécie que  ait fait l'effort de s'excuser, ceci dit. D'ailleurs, je devrais en faire autant.\nJ'aurais jamais imaginé que notre\ndispute prendrait une telle ampleur.",
      "EUit": "Mi fa piacere che  voglia scusarsi. E lo stesso dovrei fare io.\nMa onestamente non credevo che\nla cosa fosse diventata così seria,\n...",
      "EUnl": "Wel cool van  om zich te verontschuldigen. Dat moet ik ook maar gaan doen.\nIk had niet verwacht dat uitgerekend\n zich hier zoveel zorgen over zou maken.",
      "EUru": "Приятно, что \nрешила извиниться. Наверное,\nмне тоже стоит это сделать.\nЯ и не думал, что все настолько\nсерьезно.",
      "JPja": "でも、アイツのキモチは　十分　伝わったよ！\nオイラも、ちゃんと　あやまらないとな！\nまさか　が\nこんなに　気をつかってくれるとはなー\nオイラ、ちょっと意外だったぞ！　",
      "KRko": "그래도 그 녀석의 마음은\n충분히 잘 알겠어!\n나도 제대로 사과해야지!\n설마 이\n이렇게까지 신경을 쓸 줄이야－\n의외여서 놀랐다구! !",
      "TWzh": "不過，\n我確實有感受到她的歉意囉！\n我也得好好地向她道歉才行──！\n我實在是沒想到，\n竟然會這麼為我著想啊！\n讓我覺得有點意外耶！。",
      "USen": "But it's nice of  to\napologize. I guess I should too.\nI didn't realize this was going to be\nsuch a big deal, (catchphrase).",
      "USes": "Tampoco me sorprende que\n haya decidido\nmanejar esto de esta forma...\nAsí que tomaré una actitud madura\ne iré a disculparme en persona.",
      "USfr": "J'apprécie que ⁠ ait fait l'effort de s'excuser, ceci dit. D'ailleurs, je devrais en faire autant.\nJ'aurais jamais imaginé que notre\nchicane prendrait une telle ampleur."
    }
  },
  {
    "label": "304",
    "attribute": "0x0000000000000000",
    "locale": {
      "CNzh": "可是那家伙，\n其实根本没必要\n这么在意的啊！\n她都做到这份上了，\n我才是必须要\n好好去道歉才行呢！。",
      "EUde": "Aber nett von .\nIch wünschte nur, sie hätte sich\ngar nicht so viele Sorgen gemacht.\nIch denke, der Streit ging zu einem\nGroßteil auf meine Kappe. Eigentlich\nsollte ICH mich bei ihr entschuldigen!",
      "EUen": "I wish  wouldn't\nworry so much about this.\nBut what a nice thing she did for me.\nI'm the one who should be going to\nher with an apology, (catchphrase)!",
      "EUes": "Tampoco quería que\n se tomase\ntodo esto tan a la tremenda...\nPero me ha gustado este gesto.\n¡Ahora es mi turno de disculparme!",
      "EUfr": "J'aimerais que  ne prenne pas autant à cœur toute cette histoire, .\nMais elle a fait un beau geste à mon\négard. C'est moi qui devrais aller la\nvoir pour lui présenter des excuses !",
      "EUit": "Mi dispiace che  si sia disturbata tanto.\nComunque ha avuto un pensiero\ngentilissimo... Dovrei proprio andare\na scusarmi con lei, !",
      "EUnl": "Wat aardig van , maar ze had zich echt niet zoveel zorgen hoeven maken.\nEigenlijk ben ik degene die zijn\nexcuses aan zou moeten bieden!",
      "EUru": "Хотел бы я, чтобы \nтак не переживала из-за этого.\nКак приятно, что она отправила\nмне подарок. Теперь мне тоже\nнужно перед ней извиниться!",
      "JPja": "でも　のヤツ、\nこんなに　気をつかってくれなくても\nよかったのになー\nアイツが　ここまでしてくれたんだ、\nオイラの方こそ　ちゃんと\nあやまりに行かなきゃな！　",
      "KRko": "근데  녀석,\n그렇게 마음에 두지 않았어도\n됐는데 말야－\n이렇게까지 미안하단 맘을 표현하는데\n나야말로 제대로\n사과하러 가야겠어! !",
      "TWzh": "不過……\n明明可以\n不用這麼為我著想的！\n她都願意為我做到這種地步了，\n我也該好好向她道歉才行！。",
      "USen": "I wish  wouldn't\nworry so much about this.\nBut what a nice thing she did for me.\nI'm the one who should be going to\nher with an apology, (catchphrase)!",
      "USes": "Tampoco quería que\n se tomara\ntodo esto tan a pecho...\nPero me gustó este gesto.\n¡Ahora es mi turno de disculparme!",
      "USfr": "J'aimerais que ⁠ ne prenne pas autant à cœur toute cette histoire, .\nMais elle a fait un beau geste à mon\négard. C'est moi qui devrais aller la\nvoir pour lui présenter des excuses!"
    }
  },
  {
    "label": "305",
    "attribute": "0x0000000000000000",
    "locale": {
      "CNzh": "但是，的心意\n我已经完全了解了！\n我也是有点不成熟啊！\n他都特意\n做到这份上了，\n我也要赶快去道歉啦！。",
      "EUde": "Aber dass  sich hier sportlicher verhalten hat als ich selbst, (Floskel)...\nVielleicht bin ich nicht viel reifer als\ner... Ich sollte mich in jedem Fall\nauch bei ihm entschuldigen!",
      "EUen": "It's weird, but  is\nactually beating me at the\nmaturity game now.\nI admit I've been kind of bratty about\nthis whole thing. Guess I better\ntoughen up and go apologize.",
      "EUes": "Qué sorpresa me ha dado\n con este gesto\ntan maduro...\nTengo que admitir que he sido un\npoco «cachorril» con todo esto...\n¡A disculparse tocan!",
      "EUfr": "Pour ce qui est de faire preuve de maturité,  semble avoir pris une longueur d'avance...\nJe dois admettre que je me suis pas\nmontré très souple dans l'histoire.\nJe ferais mieux d'aller m'excuser.",
      "EUit": "Strano a dirsi, ma in quanto a maturità,  ha proprio vinto alla grande.\nDevo ammettere di aver agito male...\nMi sa che devo andare a scusarmi!",
      "EUnl": "Ik geef het niet graag toe, maar  gedraagt zich sportiever dan ik.\nMisschien ben ik ook een beetje een\nsnotaap geweest. Ik kan me maar\nbeter gaan verontschuldigen.",
      "EUru": "Странно, но , похоже,\nпереиграл меня в битве вежливости\nи порядочности.\nПризнаю, что вел себя не лучшим\nобразом. Наверное, мне тоже стоит\nсобрать волю в кулак и извиниться.",
      "JPja": "でも　のキモチは\n十分　伝わったぞ！\nオイラも、ちょっとオトナ気なかったなー\nアイツが　わざわざ\nここまでしてくれたんだから、\n早いとこ　あやまりに行ってくるよ！　",
      "KRko": "그래도 의 마음은\n아주 잘 전해졌어!\n나도 애처럼 굴었거든－\n녀석이 일부러\n이렇게까지 마음을 표현해줬으니까\n조만간 사과하러 가야겠어! !",
      "TWzh": "不過，我確實有感受到\n的心意喔！\n當時我的確有點太幼稚了……\n既然那傢伙\n都主動向我釋出善意了，\n我還是盡快去跟他道歉吧！。",
      "USen": "It's weird, but  is\nactually beating me at the\nmaturity game now.\nI admit I've been kind of bratty about\nthis whole thing. Guess I better\ntoughen up and go apologize.",
      "USes": "Qué sorpresa me dio\n con este\ngesto tan maduro...\nTengo que admitir que he sido un\npoco inmaduro con todo esto...\n¡Me toca disculparme!",
      "USfr": "Pour ce qui est de faire preuve de maturité,  semble avoir pris une longueur d'avance...\nJe dois admettre que je me suis pas\nmontré très souple dans l'histoire.\nJe ferais mieux d'aller m'excuser."
    }
  },
  {
    "label": "306",
    "attribute": "0x0000000000000000",
    "locale": {
      "CNzh": "但是\n为了我拼命思考的心意，\n已经完全传达给我啦！\n既然他都做到这份上了，\n我也必须要好好回应\n他的心意才行！。",
      "EUde": "Aber  hat sich in dieser Sache in jedem Fall sehr fair gezeigt.\nDa muss ich ja wohl mit ihm\ngleichziehen und mich auch bei\nihm entschuldigen, (Floskel)!",
      "EUen": "I don't always get \nand his ways, but this time\nhis feelings are clear.\nHe went to all this trouble, so I\nfigure the least I can do is go offer\nmy own apology, (catchphrase).",
      "EUes": "Hay veces que \nlogra sorprenderme, ¡y esta es\nuna de ellas!\nSu esfuerzo merece una respuesta,\n¡así que voy a ir a disculparme pero\nya, !",
      "EUfr": "Les réactions de  me laissent parfois perplexe, mais là, il fait preuve de bonne volonté.\nIl s'est donné du mal. Le moins que\nje puisse faire, c'est d'aller présenter\nmes excuses, .",
      "EUit": "Non sempre capisco il modo di agire di , ma stavolta non ci sono dubbi.\nSi è preso tutto questo disturbo...\nIl minimo che possa fare è scusarmi\ncon lui, .",
      "EUnl": " zal altijd een raadsel voor me blijven, maar deze keer zijn zijn gevoelens duidelijk.\nNa alle moeite die hij gedaan heeft,\nis het minste wat ik kan doen mijn\nexcuses aanbieden, .",
      "EUru": "Я не всегда понимал ,\nно в этот раз он однозначно\nвыразил свои намерения.\nОн так заморочился с подарком,\nчто мне ничего другого не остается,\nкак тоже извиниться, .",
      "JPja": "でも　が\nオイラのために　一生けんめい\n考えてくれたキモチは、十分　伝わったぞ！\nここまでしてくれたんだから、\nオイラも　アイツのキモチに\nちゃんとこたえなきゃな！　",
      "KRko": "그래도 이\n날 생각해주는 마음만큼은\n충분히 잘 전해졌어!\n이 정도로 신경 써줬는데\n나도 그 녀석의 마음에\n제대로 대답을 해야겠지! !",
      "TWzh": "不過，\n我確實有感受到\n為我著想的心意喔！\n既然他都願意為我做到這種地步了，\n我也得好好回應他的善意才行！。",
      "USen": "I don't always get \nand his ways, but this time\nhis feelings are clear.\nHe went to all this trouble, so I\nfigure the least I can do is go offer\nmy own apology, (catchphrase).",
      "USes": "Hay veces que \nlogra sorprenderme, ¡y esta es\nuna de ellas!\nSu esfuerzo merece una respuesta,\n¡así que voy a ir a disculparme ya\nmismo, !",
      "USfr": "Les réactions de ⁠ me laissent parfois perplexe, mais là, il fait preuve de bonne volonté.\nIl s'est donné du mal. Le moins que\nje puisse faire, c'est d'aller présenter\nmes excuses, ."
    }
  },
  {
    "label": "307",
    "attribute": "0x0000000000000000",
    "locale": {
      "CNzh": "那家伙，\n连道歉的方式都这么笨拙啊！\n但心意我已经\n充分感受到了！\n我决定也要好好去道歉！。",
      "EUde": "Aber  hat hier sportlich fair seine guten Absichten gezeigt, das steht mal fest!\nAuch wenn er ein komischer Kauz\nist... Jedenfalls sollte ich mich auch\nbei ihm entschuldigen, (Floskel)!",
      "EUen": "That  is a\nweird dude.\nBut his feelings on this whole mess\nare perfectly clear, so I probably\nneed to go offer an apology too.",
      "EUes": " es a veces\nun poco cascarrabias.\nPero ha demostrado que sabe\ntomarse las cosas con deportividad.\n¡Se ha ganado mis disculpas!",
      "EUfr": "Ce  est vraiment quelqu'un de bizarre, mais une chose est claire dans toute cette histoire...\nIl m'a tendu la main, alors je devrais\nsans doute aller lui présenter moi\naussi des excuses.",
      "EUit": "Certo che  è proprio un tipo strano.\nPerò la sua posizione riguardo\na quello che è accaduto tra noi è\nchiara. Andrò a fargli le mie scuse.",
      "EUnl": "Die  is een rare snuiter.\nMaar ik zie dat hij in dit geval alleen\nmaar goede bedoelingen heeft. Ik\nhoop dat hij mij ook wil vergeven.",
      "EUru": "Этот , конечно,\nстранный тип.\nНо теперь хоть понятно, что он\nпереживает из-за этой истории.\nДумаю, и мне следует извиниться.",
      "JPja": "のヤツ、\nあやまり方も　不器用だよなー\nでも　キモチは十分　伝わったぞ！\nオイラも、ちゃんと\nあやまることにするよ！　",
      "KRko": " 녀석,\n사과하는 것도 서투르기는－\n그래도 마음은 충분히 전해졌어!\n나도 확실하게 사과하러 갈게! !",
      "TWzh": "那小子，\n道歉的方式還真是笨拙啊……\n但是我充分地感受到他的心意了！\n我也去向他道歉吧！。",
      "USen": "That  is a\nweird dude.\nBut his feelings on this whole mess\nare perfectly clear, so I probably\nneed to go offer an apology too.",
      "USes": " es a veces\nun poco cascarrabias.\nPero ha demostrado que sabe\ntomarse las cosas con deportividad.\n¡Así que se ganó mis disculpas!",
      "USfr": "Ce ⁠ est vraiment quelqu'un de bizarre, mais une chose est claire dans toute cette histoire...\nIl m'a tendu la main, alors je devrais\nsans doute aller lui présenter moi\naussi des excuses."
    }
  },
  {
    "label": "308",
    "attribute": "0x0000000000000000",
    "locale": {
      "CNzh": "但的心意\n完全传达给我了，\n我会好好去道歉的！\n没想到\n他会特意做到这份上，\n我感觉有点开心哦！。",
      "EUde": "Aber gut, die Botschaft von  ist bei mir angekommen.\nDann muss ich mich unbedingt auch\nbei ihm entschuldigen! Aber das\ntue ich wirklich gern, (Floskel).",
      "EUen": "I totally get what \nis saying. I probably need to go\noffer my own apology now.\nI didn't think he'd go to such great\nlengths for me, but I'm glad he did!",
      "EUes": "Capto a la perfección lo que\n quiere decirme.\n¡Así que ya estoy tardando en\npedirle disculpas yo también!",
      "EUfr": " a clairement montré de la bonne volonté, alors je vais m'excuser à mon tour.\nJe m'attendais pas à ce qu'il fasse\nce pas vers moi, mais je suis bien\ncontent qu'il l'ait fait !",
      "EUit": "Capisco cosa sta cercando di dirmi  e probabilmente dovrei andare a scusarmi con lui.\nOnestamente non credevo che\nsarebbe arrivato a tanto, ma sono\nfelice che l'abbia fatto!",
      "EUnl": "De boodschap van  is luid en duidelijk doorgekomen.\nIk ben blij dat hij de eerste stap heeft\ngenomen. Nu is de beurt aan mij!",
      "EUru": " достучался до моего\nсердца. Я теперь тоже пойду\nи извинюсь перед ним.\nЯ думал, он гораздо хуже ко мне\nотносится, но очень рад, что это\nне так!",
      "JPja": "でも　のキモチは\n十分　伝わったから、\nちゃんと　あやまりに行ってくるよ！\nアイツが　わざわざ\nここまでしてくれると　思ってなかったから\nオイラ　ちょっとうれしかったぞー、",
      "KRko": "그래도 의 마음은\n충분히 잘 알겠으니까\n제대로 사과하러 갈게!\n그 녀석이 일부러\n선물까지 보낼 줄은 몰랐어서\n나도 좀 기쁘다－ !",
      "TWzh": "不過，我確實感受到\n的心意了，\n所以我也要去向他道歉──！\n只是我沒想到\n那小子竟然願意為我做到這種地步，\n其實，我稍微有點高興……。",
      "USen": "I totally get what \nis saying. I probably need to go\noffer my own apology now.\nI didn't think he'd go to such great\nlengths for me, but I'm glad he did!",
      "USes": "Capto a la perfección lo que me\nquiere decir .\n¡Así que ya debería ir a pedirle\ndisculpas yo también!",
      "USfr": " a clairement montré de la bonne volonté, alors je vais m'excuser à mon tour.\nJe m'attendais pas à ce qu'il fasse\nce pas vers moi, mais je suis bien\ncontent qu'il l'ait fait!"
    }
  }
]