﻿[
  {
    "label": "001",
    "locale": {
      "CNzh": "给好伙伴(nickname)",
      "EUde": "(Spitzname), alte Sportskanone!",
      "EUen": "To ultra-rival (nickname),",
      "EUes": "A (nickname), mi rival favorito:",
      "EUfr": "Mon cher (surnom),",
      "EUit": "A (nickname), rivale e partner!",
      "EUnl": "Lievelingsrivaal (nickname),",
      "EUru": "Это пушка, (nickname)!",
      "JPja": "マブダチの　(nickname)へ",
      "KRko": "절친 (nickname)에게",
      "TWzh": "給摯友(nickname)",
      "USen": "To ultra-rival (nickname),",
      "USes": "Mi rival favorito:",
      "USfr": "Mon cher (surnom),"
    }
  },
  {
    "label": "002",
    "locale": {
      "CNzh": "给最强的对手(nickname)",
      "EUde": "(Spitzname), mein Sport-Ass!",
      "EUen": "To box lifter (nickname),",
      "EUes": "A (nickname), el levantacajas:",
      "EUfr": "(surnom), mon grand rival,",
      "EUit": "A (nickname) dai pettorali epici!",
      "EUnl": "Aan dozensjouwer (nickname),",
      "EUru": "Слава гирям, (nickname)!",
      "JPja": "いちばんのライバル　(nickname)へ",
      "KRko": "최대의 라이벌 (nickname)에게",
      "TWzh": "給我最強的對手(nickname)",
      "USen": "To box lifter (nickname),",
      "USes": "(nickname) el levantacajas:",
      "USfr": "(surnom), mon grand rival,"
    }
  },
  {
    "label": "003",
    "locale": {
      "CNzh": "给最棒的朋友(nickname)",
      "EUde": "Hallo, (Spitzname)!",
      "EUen": "To the super-strong (nickname),",
      "EUes": "A (nickname), el superfuerte:",
      "EUfr": "Mon pote sportif (surnom),",
      "EUit": "A (nickname), forte e potente!",
      "EUnl": "Aan krachtpatser (nickname),",
      "EUru": "Богатырский (nickname)!",
      "JPja": "サイコーのとも　(nickname)へ",
      "KRko": "최고의 친구 (nickname)에게",
      "TWzh": "給我最棒的朋友(nickname)",
      "USen": "To the super-strong (nickname),",
      "USes": "El superfuerte (nickname):",
      "USfr": "Mon chum (surnom),"
    }
  },
  {
    "label": "101",
    "locale": {
      "CNzh": "我把之前没能交到你手上的\n谢礼给寄过来了！\n虽然我差点就把它给忘得一干二净，\n但在这种事情上怎么可以大意呢？\n嘿嘿，快收下吧！",
      "EUde": "Dass es ein Limit dafür gibt, was\nman mit sich tragen kann, leuchtet\nmir immer noch nicht ein. Ein Kilo\nmehr geht immer! Egal... Ich schick\ndir jetzt, wofür du zuletzt keinen\nPlatz hattest!",
      "EUen": "If there's one thing I know nothing\nabout, it's having a limit to how\nmuch I can lift. It sounds kinda fun!\nWhat's it like? The way you left\nthat thing behind was like...whoa!\nOh, and by the way, here it is.",
      "EUes": "Si hay algo en lo que no tengo\nlímite, es en poner límite al peso\nque soy capaz de levantar.\n¡Pero lo tuyo de la otra vez fue\ngaláctico! Aquí tienes lo que no\npudiste llevarte, deportista.",
      "EUfr": "Je t'envoie ci-joint le cadeau que\nj'avais pas pu te remettre l'autre\nfois pour te témoigner mon amitié.\nJ'ai bien failli l'oublier... mais grâce\nà une superbe action de jeu de ma\nmémoire, le voilà dans ta boîte !",
      "EUit": "Quando si parla di sollevamento\npesi, per me non ci sono limiti e\nso che anche tu non sei da meno!\nÈ un piacere avere un compagno\ncome te! Ti mando il regalo che\nnon ho potuto darti l'altro giorno.",
      "EUnl": "Als ik één ding niet kan, is het mijn\ngrenzen kennen bij het trainen. Het\nklinkt leuk om daar een keer achter\nte komen! Hoe zou dat zijn?\nTrouwens, hier is dat ene ding dat\nje bij me liet liggen. Alsjeblieft!",
      "EUru": "У меня дух захватывает от того,\nчто я не знаю своих пределов...\nно я понял, что они существуют,\nкогда увидел, что ты не смог\nзабрать ту штуку с собой. Кстати,\nприлагаю ее к письму!",
      "JPja": "こないだ　わたせなかった\nカンシャのキモチを　おくるぞ！\nあやうく　わすれるとこだったけど\nこーゆーことは　シッカリしとかないとな！\nへへっ　うけとってくれー！",
      "KRko": "지난번에 주지 못했던\n감사의 마음을 보낸다!\n하마터면 잊어버릴 뻔했지만\n이런 건 확실하게 마무리해야지!\n헤헷, 받아줘－!",
      "TWzh": "我把之前沒辦法給你的禮物\n和我的感謝之情一起寄給你啦！\n雖然我差點就忘記這件事，\n不過該做的事就得好好做！\n嘿嘿，快收下吧！",
      "USen": "If there's one thing I know nothing\nabout, it's having a limit to how\nmuch I can lift. It sounds kinda fun!\nWhat's it like? The way you left\nthat thing behind was like...whoa!\nOh, and by the way, here it is.",
      "USes": "Si hay algo en lo que no tengo\nlímite, es en poner límite al\npeso que puedo levantar.\n¡Pero lo tuyo de la otra vez fue\ngaláctico! Atrapa esto que no\npudiste llevarte, deportista.",
      "USfr": "Je t'envoie ci-joint le cadeau que\nj'avais pas pu te remettre l'autre\nfois pour te témoigner mon amitié.\nJ'ai bien failli l'oublier... mais grâce\nà une superbe action de jeu de ma\nmémoire, le voilà dans ta boîte!"
    }
  },
  {
    "label": "102",
    "locale": {
      "CNzh": "上次的事情可真是太感谢你了啊！\n我超开心的！\n本来应该当面递交给你的，\n不过像这样寄给你感觉也不错！\n快收下我的心意吧！",
      "EUde": "Ich schick dir hier, was ich dir\nzuletzt nicht persönlich geben\nkonnte. Postsendungen haben eh\nIhr Gutes. Manchmal verschicke ich\nHanteln an mich selbst, nur um dem\nPostboten was Gutes zu tun...",
      "EUen": "Usually I only send packages so\nthe mail folks can have ultra-heavy\nstuff to lift. But this time I sent that\nthing you couldn't take with you\nthe other day, which is only KINDA\nheavy. I hope they still liked it.",
      "EUes": "Normalmente solo envío paquetes\npara que la gente de correos haga\nbíceps, pero esta vez te envío lo\nque no pudiste llevarte. ¡Espero\nque te parezca lo suficientemente\npesado, plusmarquista!",
      "EUfr": "D'habitude, j'envoie que des trucs\nultra lourds, comme ça les gens ont\nquelque chose à soulever, mais là,\nc'est le cadeau que j'ai pas pu te\ndonner l'autre jour, alors c'est pas\nsi lourd. J'espère que ça ira.",
      "EUit": "Di solito invio solo pacchi pesanti\nper tenere in forma il postino. Ma\nper questa volta farò un'eccezione\ne ti manderò qualcosa di meno\npesante del solito, visto che te\nl'avevo promesso.",
      "EUnl": "Normaal stuur ik alleen pakketjes\nom postbodes superzwaar te laten\ntillen. Maar nu heb ik dat ding waar\nje laatst geen ruimte voor had op-\ngestuurd. Het was niet zó zwaar.\nHopelijk hebben ze ervan genoten.",
      "EUru": "Часто я шлю посылки специально,\nчтобы почтальоны качались!\nНо сейчас это легкий сувенир,\nкоторый ты оставил в прошлый\nраз. Надеюсь, почтальоны все\nравно оценят...",
      "JPja": "このまえは　マジサンキューな！\nスゲーうれしかったぞー！\nホントはちょくせつ　わたしたかったけど\nこうやって　おくるのもいいもんだよな！\nオイラのキモチ、うけとってくれー",
      "KRko": "지난번에는 정말 고마웠다!\n완전 기분 좋더라－!\n사실 직접 전하는 게 좋겠지만\n이렇게 보내는 것도\n나쁘지 않을 것 같아!\n내 마음을 받아줘－",
      "TWzh": "之前真是多謝你啦！\n我真是超級開心的──！\n其實我很想親手把禮物送給你，\n不過像這樣用寄的也不錯啦！\n快收下我的心意吧！",
      "USen": "Usually I only send packages so\nthe mail folks can have ultra-heavy\nstuff to lift. But this time I sent that\nthing you couldn't take with you\nthe other day, which is only KINDA\nheavy. I hope they still liked it.",
      "USes": "Normalmente solo envío paquetes\npara que la gente de correos haga\nbíceps, pero esta vez te envío lo\nque no pudiste llevarte. ¡Espero\nque te guste! (Y te sirva de paso\npara ejercitar esos bíceps).",
      "USfr": "D'habitude, j'envoie que des trucs\nultra lourds, comme ça les gens ont\nquelque chose à soulever, mais là,\nc'est le cadeau que j'ai pas pu te\ndonner l'autre jour, alors c'est pas\nsi lourd. J'espère que ça ira."
    }
  },
  {
    "label": "103",
    "locale": {
      "CNzh": "上次谢谢你了啊！\n滴水之恩当以涌泉相报！\n这可是我的座右铭！\n那时候没能给你的谢礼，\n你可得给我好好收下啊！",
      "EUde": "Ich schulde dir noch ein Danke-\nschön, weil deine Tasche zuletzt\nvoll war. Ich hab noch schnell\n Biceps Curls damit gemacht,\naber wenn du das liest, ist die\nSchuld beglichen.",
      "EUen": "It was fun hanging out with you the\nother day. Oh! Remember the thing\nI couldn't give you 'cause your\npockets were full? Here it is. Also, I\nmight've done  biceps curls\nwith it, so I hope it wasn't fragile!",
      "EUes": "¡Me lo pasé genial contigo la otra\nvez! ¿Y te acuerdas de lo que no\nte pudiste llevar porque tenías los\nbolsillos llenos? ¡Pues aquí está!\nDespués de las veces que lo he\nlevantado, ojalá siga entero...",
      "EUfr": "Un grand merci à toi pour l'autre\njour. C'est à charge de revanche,\nhein ! Et pour commencer à te\nrendre la pareille, je t'envoie déjà\nun petit cadeau que j'ai pas pu\nte remettre la dernière fois !",
      "EUit": "Grazie per l'altro giorno, è stato\nuno spasso. Oh! Ti ricordi di quella\ncosa che non potevo darti perché\navevi le tasche piene? Eccola qua!\nTra l'altro, prima di inviare il pacco\nl'ho sollevato  volte!",
      "EUnl": "Ik vond het leuk de laatste keer. O!\nWeet je nog dat ik je iets wilde\ngeven, maar dat je zakken vol\nzaten? Hier, alsjeblieft. Ik heb er\nmijn spierballen mee getraind, dus\nhopelijk is het niet breekbaar.",
      "EUru": "Мы отлично позанимались\nв прошлый раз! Шлю тебе ту штуку,\nкоторая не поместилась в твой\nрюкзак. Правда, я около  раз\nиспользовал ее вместо гантелей!\nНадеюсь, не сломалась!",
      "JPja": "こないだは　ありがとな！\nうけたオンは　ちゃんとかえす！\nこれが　オイラのモットーだ！\nあのとき　わたせなかったおれい、\nバシッと　うけとってくれー！",
      "KRko": "지난번에는 고마웠어!\n받은 은혜는 반드시 갚는다!\n이게 나의 모토거든!\n그때 미처 전하지 못했던 내 마음,\n꼭 받아줘－!",
      "TWzh": "之前真是多謝啦！\n有恩必報！\n這可是我的座右銘！\n那時候沒辦法給你的謝禮，\n你就爽快地收下吧──！",
      "USen": "It was fun hanging out with you the\nother day. Oh! Remember the thing\nI couldn't give you 'cause your\npockets were full? Here it is. Also, I\nmight've done  biceps curls\nwith it, so I hope it wasn't fragile!",
      "USes": "¡Me la pasé genial contigo la otra\nvez! ¿Y te acuerdas de lo que no\nte pudiste llevar porque tenías los\nbolsillos llenos? ¡Pues aquí está!\nPractiqué mis lanzamientos... ojalá\nno se haya roto.",
      "USfr": "Un grand merci à toi pour l'autre\njour. C'est à charge de revanche,\nhein! Et pour commencer à te\nrendre la pareille, je t'envoie déjà\nun petit cadeau que j'ai pas pu\nte remettre la dernière fois!"
    }
  },
  {
    "label": "201",
    "locale": {
      "CNzh": "来自精神十足的(resident name)",
      "EUde": "Dein (Einwohnername) (unlimitiert)",
      "EUen": "Limitless (resident name)",
      "EUes": "Sin límites, (resident name)",
      "EUfr": "Sportivement, (nom du résident)",
      "EUit": "Sconfinatamente (resident name)",
      "EUnl": "Grenzeloze (resident name)",
      "EUru": "(resident name) «без тормозов»!",
      "JPja": "キアイいっぱい　(resident name)より",
      "KRko": "기운이 가득한 (resident name) 보냄",
      "TWzh": "氣勢滿滿的(resident name)　筆",
      "USen": "Limitless (resident name)",
      "USes": "Sin límites, (resident name)",
      "USfr": "Sportivement, (nom du résident)"
    }
  },
  {
    "label": "202",
    "locale": {
      "CNzh": "大家的英雄(resident name)",
      "EUde": "Dein Oberheld (Einwohnername)",
      "EUen": "So many stamps... –(resident name)",
      "EUes": "Postalmente, (resident name)",
      "EUfr": "(nom du résident), le héros musclé",
      "EUit": "Troppi francobolli... (resident name)",
      "EUnl": "Vertil je niet... -(resident name)",
      "EUru": "Почтовый амбал, (resident name)!",
      "JPja": "みんなのヒーロー　(resident name)",
      "KRko": "모두의 히어로 (resident name)",
      "TWzh": "大家的英雄(resident name)",
      "USen": "So many stamps... –(resident name)",
      "USes": "Musculosamente, (resident name)",
      "USfr": "(nom du résident), le héros musclé"
    }
  },
  {
    "label": "203",
    "locale": {
      "CNzh": "来自兴致高昂的(resident name)",
      "EUde": "Dein Marathon-(Einwohnername)",
      "EUen": "Feeling the burn! –(resident name)",
      "EUes": "Aeróbicos saludos, (resident name)",
      "EUfr": "Énergiquement, (nom du résident)",
      "EUit": "Diamoci dentro, (resident name)",
      "EUnl": "Ik heb spierpijn! -(resident name)",
      "EUru": "«Мышцы в огне», (resident name).",
      "JPja": "テンションマックス　(resident name)より",
      "KRko": "기분 최고조 (resident name) 보냄",
      "TWzh": "情緒激昂的(resident name)　筆",
      "USen": "Feeling the burn! –(resident name)",
      "USes": "Potentes saludos, (resident name)",
      "USfr": "Énergiquement, (nom du résident)"
    }
  }
]