﻿[
  {
    "label": "001",
    "attribute": "0x0000000000000000",
    "locale": {
      "CNzh": "真好！真好！\n这个在胸口轰鸣的声响！\n一开始就这么动人心魄，\n实在是太厉害了！。",
      "EUde": "Das Geböller steigt mir jetzt schon\nbis in die Zehenspitzen!\nWenn sie so loslegen, dann blüht\nuns noch was, (Floskel)!",
      "EUen": "Wow! That sound's rattling all the\nway down in my toes, (catchphrase)!\nIf this is how they're kicking off, this\nshow is seriously gonna rock!",
      "EUes": "¡Qué ruido! ¡Qué explosiones!\n¡Qué alucine! El espectáculo ha\nempezado muy a topísimo, tú.",
      "EUfr": "Ouah ! Ces « boums » m'résonnent\ndans les os jusqu'au bout des pattes,\n(expression) !\nEt dire que c'est que l'début...\nOn a pas fini d'en prendre plein\nles mirettes !",
      "EUit": "Wow! Quegli scoppi mi rimbombano\nin tutto il corpo fino alla punta delle\nzampe, !\nSe iniziano così, il resto dello\nspettacolo sarà grandioso!",
      "EUnl": "Kanonnen! Die knal voel ik tot in\nmijn tenen, (catchphrase)!\nWat een veelbelovend begin!\nDit wordt echt ge-wel-dig!",
      "EUru": "Вот это да! Я этот звук всем телом\nпрочувствовала. !\nЕсли это только начало, то как же\nдальше дело пойдет?",
      "JPja": "いいね！　いいね！\nこの　腹の底まで響く　打ち上げの音！\n最初から　最高だなんて\n最強じゃないか！　",
      "KRko": "좋아! 최고야!\n이 뼛속 깊은 곳까지 울리는 화약 소리!\n처음부터 이렇게 클라이맥스라니\n진짜 마음에 든다! !",
      "TWzh": "好耶！好耶！\n這震撼人心的煙火發射聲真不錯啊！\n從一開始就這麼精彩，\n根本超棒的啊！。",
      "USen": "Wow! That sound's rattling all the\nway down in my toes, (catchphrase)!\nIf this is how they're kicking off, this\nshow is seriously gonna rock!",
      "USes": "¡Qué ruido! ¡Qué colores!\n¡Qué fiestón! El espectáculo\nempezó con todo, tú.",
      "USfr": "Ouah! Ces « boums » m'résonnent\ndans les os jusqu'au bout des pattes,\n(expression)!\nEt dire que c'est que l'début...\nOn a pas fini d'en prendre plein\nla face!"
    }
  },
  {
    "label": "002",
    "attribute": "0x0000000000000000",
    "locale": {
      "CNzh": "喔！我等很久啦！！\n诶嘿嘿，现在才刚开始，\n当然要精神十足地呐喊！。",
      "EUde": "EXPLOSIONEN! LÄRM!\nFARBENCHAOS!\nIch versuche, das Feuerwerk zu\nübertönen. Komm, mach mit,\n(Floskel)! Gahahaha!",
      "EUen": "LET'S DO THIIIIIS!\nCome on! Those fireworks shouldn't\nbe the only things making noise,\n(catchphrase)! Bwa ha ha!",
      "EUes": "¡Vamos! ¡A topeeee!\n¡Venga! ¡Tenemos que gritar muy\nfuerte! Si no, no se nos va a oír\ncon tanto ruidazo, .",
      "EUfr": "C'EST PARTI !\nAllez ! Y a pas d'raison qu'le feu\nd'artifice soit l'seul à pouvoir faire\ndu bruit, (expression) ! Ha ha!",
      "EUit": "EVVAIII!!! GRANDEEE!!!\nDai, un po' di tifo! Mica soltanto i\nfuochi possono essere rumorosi,\n! Ah ah ah!",
      "EUnl": "LAAT JE HOREN!\nKom op, jongens! Het vuurwerk mag niet het enige lawaai zijn, (catchphrase)! Haaa-haha!",
      "EUru": "Бабах! Бум!\nУра! Шуметь можно не только\nфейерверку. ! А-ха-ха!",
      "JPja": "よっ！　待ってましたーー！！\nエヘヘ、始まったばっかりだから\n景気よく　いかなきゃね！　",
      "KRko": "아! 짱이다～～～!!\n헤헷, 이제 방금 시작했잖아!\n처음부터 신나게 즐겨야지! !",
      "TWzh": "唷！我等很久啦——！！\n欸嘿嘿，大會才剛開始，\n當然要豪邁點炒熱氣氛啊！。",
      "USen": "LET'S DO THIIIIIS!\nCome on! Those fireworks shouldn't\nbe the only things making noise,\n(catchphrase)! Bwa ha ha!",
      "USes": "¡Vamooos! ¡A festejarrr!\n¡Oye! ¡Tenemos que gritar muy\nfuerte! Si no, no nos van a oír\ncon tanto ruidazo, .",
      "USfr": "C'EST PARTI!\nAllez! Y a pas d'raison qu'les feux\nd'artifice soit les seuls à pouvoir\nfaire du bruit, (expression)! Ha ha!"
    }
  },
  {
    "label": "003",
    "attribute": "0x0000000000000000",
    "locale": {
      "CNzh": "这光芒和声响！就算不特别说，\n也知道这次的烟花大会是铆足干劲的。\n(nickname)你也不要\n再保存体力啦！\n一起尽情奔跑吧！。",
      "EUde": "Dieser Lärm weckt ja Tote auf. \nZum Glück gab's auf der Insel bislang\nkeine, also kann keiner aufwachen!",
      "EUen": "If these fireworks can't get you all\nthe way revved up, then I can't help\nyou, (catchphrase). Bwa ha ha!",
      "EUes": "¡Explosióoon de luz y colooor!\n¡Venga, tenemos que darlo todo\npor el equipo, (nickname)!",
      "EUfr": "Si l'feu d'artifice suffit pas à t'coller\ndes étoiles plein l'palpitant, j'peux\nrien pour toi, (expression) ! Ha ha !",
      "EUit": "Se questi fuochi non ti fanno l'effetto\nche fanno a me, mi dispiace proprio\ntanto per te, . Ah ah ah!",
      "EUnl": "Als je van dit vuurwerk niet uit je dak\ngaat, dan ben je niet meer te redden,\n(catchphrase). Haaa-haha!",
      "EUru": "Если тебя даже фейерверк не\nвзбодрит, тебе уже ничего не\nпоможет. ! А-ха-ха!",
      "JPja": "この　光と音！　言われなくても\n気合いが入るって　モンだよ\n(nickname)も　体力温存してたら\nもったいないよ！\n一緒に　突っ走ろうね！　",
      "KRko": "이 빛! 이 소리! 누가 말 안 해도\n기합이 빡 들어간다니까\n(nickname) 너도 \n체력 아낀다고 그러지 마라!\n같이 한번 끝까지 가보자고! !",
      "TWzh": "看看這閃光！聽聽這聲響！\n不用說也知道這是精心製作的煙火啊。\n(nickname)，\n現在不全力享受就太可惜了啦！\n一起全力衝刺吧！。",
      "USen": "If these fireworks can't get you all\nthe way revved up, then I can't help\nyou, (catchphrase). Bwa ha ha!",
      "USes": "¡Explosióóón de luz y colooor!\n¡Vamos, tenemos que dar todo\npor el equipo, (nickname)!",
      "USfr": "Si les feux suffisent pas à t'coller\ndes étoiles plein l'palpitant, j'peux\nrien pour toi, (expression)! Ha ha!"
    }
  },
  {
    "label": "004",
    "attribute": "0x0000000000000000",
    "locale": {
      "CNzh": "(nickname)，你在看吗？\n光芒和声响碰撞在一起！\n太动人心魄了～。",
      "EUde": "Schon nicht schlecht, oder? Wie\n'ne Riesen-Heavy-Metal-Show am\nHimmel. Krass, (Floskel)!",
      "EUen": "Are you seeing what I'm seeing?! It's\nlike a big, loud rock show in the\nsky! This is awesome, (catchphrase)!",
      "EUes": "¿Te estás fijando bien en el cielo,\n(nickname)? ¡Pedazo espectáculo que tenemos delante!",
      "EUfr": "Tu zyeutes c'que j'zyeute ? Le ciel\nbalance du lourd, du bruyant, du\nshow dingo qui fait pas semblant !",
      "EUit": "Vedi anche tu quello che vedo io?!\nUno spettacolo U-NI-CO nel cielo!\nNon è grandioso, ?!",
      "EUnl": "Vind je al dat vuurwerk ook niet\nnet een groot, luid rockconcert in\nde lucht?!\nDit is he-le-maal te gek, (catchphrase)!",
      "EUru": "Ты тоже это видишь?! Будто в небе\nустроили потрясный рок-концерт!\nКрутота! !",
      "JPja": "(nickname)　見てるかい？\n光と音が　大渋滞だよ！\nやっぱり　迫力が違うねぇ～、",
      "KRko": "(nickname), 봤냐?\n빛이랑 소리가 뒤섞여서 완전 짱이야!\n역시 박력부터가 다르구만～! !",
      "TWzh": "(nickname)，你看見了沒？\n閃光與聲響充斥著整個天空喔！\n果然這股魄力就是與眾不同啊～。",
      "USen": "Are you seeing what I'm seeing?! It's\nlike a big, loud rock show in the\nsky! This is awesome, (catchphrase)!",
      "USes": "¿Viste bien el cielo, (nickname)? ¡Qué espectáculo que tenemos delante!",
      "USfr": "Tu zyeutes c'que j'zyeute? Le ciel\nbalance du lourd, du bruyant, un\nshow super qui fait pas semblant!"
    }
  },
  {
    "label": "005",
    "attribute": "0x0000000000000000",
    "locale": {
      "CNzh": "和好伙伴一起观赏的烟花是最棒的！\n这样一来，我们之间的纽带也更坚韧了。\n不过要是韧带过于紧绷就不太好啦！\n……烟花的声响这么大，\n你有听见我说话吗？。",
      "EUde": "Letztendlich geht's nich' um die\nRaketen, sondern um die Freunde,\nmit denen man sie anglotzt!\n...Zum Glück is' das Geböller so laut.\nDa können wir so tun, als hättest du\nden kitschigen Sülz nicht gehört.",
      "EUen": "The fireworks are so loud, nobody\ncan hear what anyone's saying!\n  \n, scarfing down\n, (catchphrase)!\nSee? Nobody heard that. Uh...\nWhat's that look for?",
      "EUes": "Los fuegos hacen tantísimo ruido\nque la peña no oye nada de nada.\nMira, podría contarte mi secreto\nmás profundo ahora mismo y a\nlo mejor ni te enterarías.\nPero no lo voy a hacer por si acaso.\n¡Mejor no arriesgarse, !",
      "EUfr": "L'feu d'artifice fait un d'ces boucans,\non peut déblatérer c'qu'on veut,\npersonne y pigera que dalle !\nC'est moi  fan d', de  et d' bien goûtu !\nTu vois, j'peux dire n'imp et y a pas\nun zig qui moufte. Euh... pourquoi\ntu m'regardes comme ça ?",
      "EUit": "I fuochi d'artificio sono così\nrumorosi che non si riesce a\nsentire niente se qualcuno parla!\n di -,  con , !\nVedi? Posso dire qualsiasi cosa e\nnessuno sentirà. Ehm... O sbaglio?",
      "EUnl": "De knallen van het vuurwerk zijn\nzo luid dat ik bijna niks anders\nkan horen!\n! ! ! ! ! (catchphrase)!\nZie je? Dat heeft niemand gehoord.\nEh... Waarom kijk je zo naar me?",
      "EUru": "Фейерверк такой громкий,\nчто можно орать всякую чепуху —\nвсе равно никто не услышит!\n под  любит  и нюхать\n и .\nВидишь? Никто не услышал.\nЭ... ! Никто ведь\nне услышал?!",
      "JPja": "ダチと　一緒に見る　花火って　最高だね！\nこれで　キズナも　深まるってもんだよ\nキズが深まったら　たいへんだけどね！\n・・・花火の音が　デカいけど\nちゃんと　聞こえたかな？　",
      "KRko": "절친이랑 같이 보는 불꽃놀이는 최고구만!\n이렇게 우리 사이의 인연도 깊어지는 거라구\n불꽃 튀는 사이가 되면 좀 곤란하겠지만!\n...불꽃 터지는 소리가 좀 큰데\n내 말 잘 들렸냐? ?",
      "TWzh": "和死黨一起看的煙火最棒了！\n這樣可以加深彼此間的感情喔。\n不過要是連代溝也一起加深的話，那可就糟了！\n嗯……雖然煙火很大聲，\n不過你應該有聽清楚吧？。",
      "USen": "The fireworks are so loud, nobody\ncan hear what anyone's saying!\n  \n, scarfing down\n, (catchphrase)!\nSee? Nobody heard that. Uh...\nWhat's that look for?",
      "USes": "Los fuegos hacen tantísimo ruido\nque los compis no oyen nada de nada.\nMira, podría contarte mi secreto\nmás profundo ahora mismo y a\nlo mejor ni me escucharías.\nPero, por si acaso, no lo voy a hacer.\n¡Mejor no arriesgarse, !",
      "USfr": "Les feux font un d'ces boucans,\non peut déblatérer c'qu'on veut,\npersonne entendra rien!\nC'est moi  fan d', de  et d' bien goûtu!\nTu vois, j'peux dire n'importe quoi et\npersonne comprend. Euh... pourquoi\ntu m'regardes comme ça?"
    }
  },
  {
    "label": "006",
    "attribute": "0x0000000000000000",
    "locale": {
      "CNzh": "烟花最棒！！\n诶嘿嘿，我要是从丹田发力大声喊的话，\n可不输给烟花的声响哦！。",
      "EUde": "Feuerwäääääääärk!\nHaste gehört? Ich lass mich doch\nnich' von ein paar Raketen\nübertönen, (Floskel)!",
      "EUen": "FIREWOOOORKS!\nYeah, keep those fireworks coming,\n(catchphrase)! More! More! More!",
      "EUes": "¡A tope con los fuegos!\nA este ritmo, mañana estaré afónica.\n¡Pero a mí, plin! ¡La vida hay que\nvivirla siempre al máximo!",
      "EUfr": "FEU D'ARTIFICE !\nOuais, encore des feux d'artifice,\n(expression) ! Encore ! Encore ! Encore !",
      "EUit": "FUOCHI D'ARTIFICIO!\nSì, continuaaate, !\nAncooora! Biiis! Triiis!",
      "EUnl": "VUURWEEERK!\nJa, blijf die pijlen maar afschieten, (catchphrase)!",
      "EUru": "Фейерверк!\nУра! Не сдавай! Еще давай!\n!",
      "JPja": "花火　サイコーー！！\nエヘヘ、ウチも　腹の底から　声を出したら\n花火の音に　負けないよ！　",
      "KRko": "불꽃놀이 최고～～～!!\n헤헷, 내가 단전에서부터 소리를 딱 지르면\n불꽃 터지는 소리보다 더 크다구! !",
      "TWzh": "煙火最棒啦——！！\n欸嘿嘿，只要我用丹田發聲，\n音量可不會輸給煙火喔！。",
      "USen": "FIREWOOOORKS!\nYeah, keep those fireworks coming,\n(catchphrase)! More! More! More!",
      "USes": "¡Que vivan los fuegooos!\nA este ritmo, mañana estaré afónica.\n¡Pero no importa! ¡La vida hay que\nvivirla siempre al máximo!",
      "USfr": "FEUX D'ARTIFICE!\nOuais, encore des feux d'artifice,\n(expression)! Encore! Encore! Encore!"
    }
  },
  {
    "label": "007",
    "attribute": "0x0000000000000000",
    "locale": {
      "CNzh": "好！再来！\n啊～啊～大声喊叫之后嗓子干干的。\n等会儿我要一口气\n喝干！。",
      "EUde": "Jaaa! Mehr Raketen!\nMehr Lärm! Hust, hust...\nVom Schreien hab ich einen ganz\ntrocknen Hals. Ich brauch dringend\n'nen Kübel !",
      "EUen": "MORE FIREW— Ack!\nOof! I think my throat's getting dry\nfrom all the screaming, (catchphrase).",
      "EUes": "¡Más! ¡Más! ¡Más!\n¡No podemos parar ahora! Tenemos\nque aprovechar el ritmillo que hemos\npillado, .",
      "EUfr": "ENCORE ! Argh...\nAïe ! J'crois qu'mes cordes vocales\nont bien morflé, pas moyen d'brailler\ncorrectement, (expression) !",
      "EUit": "ANCORA PIÙ FOOORT... i!\nOh, no! La mia voce è andata...\nHo urlato troppo, ...",
      "EUnl": "MEER VUURW-ugh!\nJoh! Ik denk dat mijn keel dat\nschreeuwen niet meer trekt,\n(catchphrase).",
      "EUru": "Еще фейерверк!\nУф! Глотка высохла от этого ора.\n.",
      "JPja": "よっしゃー！　もっといけー！\nあ～、あ～、叫んだら　のどが　カラカラだよ\nあとで　でも　一気飲み\nしようかな！　",
      "KRko": "오케이～! 더 해라 더～!\n아～ 아... 너무 소리를 질러서 목이 쉰 것 같아\n나중에 이라도\n한 사발 해야겠는데! !",
      "TWzh": "好耶——！盡量發射吧——！\n啊～啊～大聲喊叫後喉嚨都啞了。\n等等乾脆一口氣喝乾\n吧！。",
      "USen": "MORE FIREW— Ack!\nOof! I think my throat's getting dry\nfrom all the screaming, (catchphrase).",
      "USes": "¡Más! ¡Más! ¡Más!\n¡No podemos parar ahora! Que siga\nel ritmo y la fiestuqui, .",
      "USfr": "ENCORE! Argh...\nAïe! J'crois qu'mes cordes vocales\nont bien écopés, pas moyen d'crier\ncorrectement, (expression)!"
    }
  },
  {
    "label": "008",
    "attribute": "0x0000000000000000",
    "locale": {
      "CNzh": "情绪高涨起来了！\n这座上的烟花大会，毫不吝惜地专放这些\n又大又华丽的烟花，可真大方啊。。",
      "EUde": "Da oben in den Wolken geht's ab,\n(Floskel)!\nIch lass mich nich' leicht beeindru-\ncken, aber mit Feuerwerken haben\nsie's echt drauf auf dieser Insel!",
      "EUen": "Whoa! They are just rockin' that sky!\nWhat a show, (catchphrase)!",
      "EUes": "¡Subid bien alto, fueguecitos!\n¡Que se note que en esta isla\nsabemos cómo desfasar a saco!",
      "EUfr": "Ouah ! C'feu d'artifice fait des\nétincelles, le ciel pige rien à\nc'qui lui arrive, (expression) !",
      "EUit": "Uaaah! È come un concerto rock nel\ncielo! Che spettacolo, !",
      "EUnl": "Wauw! Kijk al die kleuren toch eens!\nWat een show, (catchphrase)!",
      "EUru": "Ух ты! Небо в трансе! Вот так шоу!\n!",
      "JPja": "盛り上がってきたねぇ！\nこのの花火って　でっかいのを　景気よく\n打ち上げるんだから　太っ腹だよね、",
      "KRko": "야 완전 신난다!\n이 의 불꽃축제는 커다란 불꽃을 기세 좋게\n펑펑 쏴대니까 내가 다 속이 시원해, !",
      "TWzh": "氣氛也熱絡起來啦！\n這座島上發射的煙火又大又多，\n真是一擲千金呢，。",
      "USen": "Whoa! They are just rockin' that sky!\nWhat a show, (catchphrase)!",
      "USes": "¡Vuelen alto, fuegooos!\n¡Que se note que en esta isla\nsabemos cómo festejar a lo grande!",
      "USfr": "Ouah! C'feu d'artifice fait des\nétincelles, le ciel comprend rien à\nc'qui lui arrive, (expression)!"
    }
  },
  {
    "label": "009",
    "attribute": "0x0000000000000000",
    "locale": {
      "CNzh": "烟花马上就要放完了，\n(nickname)，我是打算\n一直看到最后的哦。。",
      "EUde": "Das Feuerwerk is' in der Endphase.\nNich' schlappmachen, (Spitzname)!\nWer 'ne wahre Nachteule is', wird\njetzt gerade erst langsam wach,\n(Floskel)!",
      "EUen": "The fireworks are almost over, but\nyou better believe I'm not gonna\nmiss the ending, (catchphrase)!",
      "EUes": "No queda nada para que terminen\nlos fuegos, tío. ¡Creo que no estoy\npreparada mentalmente!",
      "EUfr": "L'feu d'artifice est quasi fini, mais\nc'est pas l'moment de détourner les\nmirettes... Bouquet final imminent !",
      "EUit": "I fuochi d'artificio sono quasi finiti,\nma non mi perderei il finale per\nniente al mondo, !",
      "EUnl": "De vuurwerkshow is bijna voorbij,\nmaar mooi niet dat ik het einde ga\nmissen, (catchphrase)!",
      "EUru": "Фейерверк скоро закончится.\nФинальную петарду я не пропущу,\nне сомневайся! !",
      "JPja": "もうすぐ花火が　終わるけど\n(nickname)、ウチは最後まで\n見届けてやるつもりだからね、",
      "KRko": "좀 있으면 불꽃축제가 끝날 텐데...\n야, (nickname)!\n난 마지막까지 다 보고 갈 거다! !",
      "TWzh": "煙火就快要放完了……\n(nickname)，我打算留在這\n直到看完最後一發煙火喔，。",
      "USen": "The fireworks are almost over, but\nyou better believe I'm not gonna\nmiss the ending, (catchphrase)!",
      "USes": "Ya falta muy poco para que terminen\nlos fuegos, compi. ¡Creo que no\nestoy preparada mentalmente!",
      "USfr": "Les feux sont quasiment finis, mais\nc'est pas l'moment de détourner les\nmirettes... Bouquet final imminent!"
    }
  },
  {
    "label": "010",
    "attribute": "0x0000000000000000",
    "locale": {
      "CNzh": "咦？！已经是这个时间了吗？\n烟花马上就要放完了呀。\n不过，全力以赴到最后一刻\n是我的一贯做法！\n鼓足气势上啊！。",
      "EUde": "Schon so spät?! Wie schnell die Zeit\nvergeht, wenn man Sachen beim\nExplodieren zuguckt, (Floskel)...\nIch halte natürlich bis zum Ende\ndurch, Ehrensache!",
      "EUen": "How'd it get so late? I guess it's like\nthat old saying \"Time flies while\nyou're watching the sky explode.\"\nWell, I'm gonna keep my hype up,\nand so should you! Hear that, sky?\nWe're here to the end, (catchphrase)!",
      "EUes": "¿Cómo puede ser tan tarde ya?\nSupongo que el tiempo pasa volando\ncuando lo das todo con los colegas.\nEn fin, no vamos a dejar que decaiga\nahora. ¡Partamos la pana hasta el\nmismísimo final, !",
      "EUfr": "Ouah, depuis quand il est si tard ?\nComme on dit, « l'temps passe vite\nquand on mate des feux d'artifice ».\nEn tout cas, j'vais pas aller m'pieuter\nmaintenant ! T'entends, l'ciel ?\nJ'squatte ici jusqu'au bout d'la nuit !",
      "EUit": "Com'è che si è fatto così tardi? Non\nc'è un proverbio che dice \"il tempo\nvola anche se il cielo suona il rock\"?\nMa io non vado da nessuna parte!\nHai sentito, cielo? Non me ne andrò\nfinché non la smetti, !",
      "EUnl": "Is het al zo laat? Joh, wat vliegt\nde tijd als je naar explosies aan\nhet kijken bent.\nNou, mooi niet dat wij al aftaaien!\nWij zijn hier tot de allerlaatste knal,\n(catchphrase)!",
      "EUru": "Уже так поздно? Как говорится, когда наблюдаешь за фейерверком\nв небе, часов не наблюдаешь.\nНо я успокаиваться не собираюсь,\nи ты держись! Слышишь, небо?\nМы не сдадимся! !",
      "JPja": "あれ？！　もうこんな時間かい？\nもうすぐ　花火が　終わっちゃうじゃないか\nそれでも　最後まで突っ走るのが\nウチらの流儀だよ！\n気合い入れて　いくよー！　",
      "KRko": "어?! 벌써 시간이 이렇게 됐어?\n곧 불꽃축제가 끝날 시간이잖아...\n그래도 마지막의 마지막까지\n전력질주하는 게 우리 스타일인 거 알지?\n더 더 신나게 놀자～! !",
      "TWzh": "咦！？已經這麼晚了嗎？\n這不就代表煙火快結束了嗎？\n即使如此，我們還是得\n全力享受到最後一刻喔！\n拿出幹勁來吧——！。",
      "USen": "How'd it get so late? I guess it's like\nthat old saying \"Time flies while\nyou're watching the sky explode.\"\nWell, I'm gonna keep my hype up,\nand so should you! Hear that, sky?\nWe're here to the end, (catchphrase)!",
      "USes": "¿Cómo se hizo tan tarde ya?\nEl tiempo pasa volando cuando te\ndiviertes a lo grande con tus compis.\nEn fin, no vamos a dejar que decaiga\nahora. ¡Que siga la fiesta hasta que\namanezca, !",
      "USfr": "Ouah, depuis quand il est si tard?\nComme on dit, « l'temps passe vite\nquand on r'garde les feux d'artifice ».\nEn tout cas, j'vais pas aller m'dormir\nmaintenant! T'entends, l'ciel?\nJ'squatte ici jusqu'au bout d'la nuit!"
    }
  },
  {
    "label": "011",
    "attribute": "0x0000000000000000",
    "locale": {
      "CNzh": "烟花大会也进入尾声，\n马上就是最终环节了！\n面对最后冲刺，当然要不遗余力，\n把气氛炒到最热！。",
      "EUde": "Das Feuerwerk is' auf der Ziel-\ngeraden. Jetzt wird hoffentlich noch\nmal voll aufgedreht, (Floskel)!",
      "EUen": "The fireworks are screeching around\nthe corner to the finish line. Tonight\nhas rocked super hard, (catchphrase)!",
      "EUes": "No me puedo creer que los fuegos\nestén a punto de terminar. ¡Pero si\nacaban de empezar, !",
      "EUfr": "Attention, l'feu d'artifice entre\ndans la dernière ligne droite...\nC'est l'heure du bouquet final !",
      "EUit": "I fuochi d'artificio sono in dirittura\nd'arrivo. Che serata da paura! Quasi\nmeglio di una festa, !",
      "EUnl": "Het einde van de vuurwerkshow komt\nalweer in zicht. Wat een topavond\nwas dit, (catchphrase)!",
      "EUru": "Фейерверк стремительно несется\nк финишу. Отличная ночка!\n!",
      "JPja": "花火大会も　大詰め、最終コーナーに\nさしかかった　あたりだね！\nラストスパートは　全力で\n盛り上がろうじゃないか！　",
      "KRko": "불꽃축제도 막바지에 접어들었구만!\n라스트 스퍼트다!\n온 힘을 다해 놀아 보자구, !",
      "TWzh": "煙火大會也差不多\n快要結束了呢！\n即使到了活動尾聲，\n也要全力炒熱氣氛喔！。",
      "USen": "The fireworks are screeching around\nthe corner to the finish line. Tonight\nhas rocked super hard, (catchphrase)!",
      "USes": "No puedo creer que los fuegos\nestén a punto de terminar. ¡Pero\nsi recién empiezan, !",
      "USfr": "Attention, les feux d'artifice entrent\ndans la dernière ligne droite...\nC'est l'heure du bouquet final!"
    }
  }
]