﻿[
  {
    "label": "001",
    "attribute": "0x0000000000000000",
    "locale": {
      "CNzh": "不好意思啊，\n稍微打搅你一下咯。。",
      "EUde": "Dann fall ich mal bei dir ein, Kleiner!",
      "EUen": "Sorry for bargin' in, kiddo. I'm just\nfull of mustard today, (catchphrase)!",
      "EUes": "Bueno, aquí estoy. ¡No veas qué\nganas tenía, (catchphrase)!",
      "EUfr": "J'espère que ça ne te gêne pas que\nje sois de passage, (expression) !",
      "EUit": "Spero di non disturbare troppo. Ma\ndai, su col morale! Ci divertiremo,\n!",
      "EUnl": "Sorry dat ik zomaar binnen kom\nstormen, jochie. Vandaag zit ik\nboordevol energie, (catchphrase)!",
      "EUru": "Ничего, что я напросился?\nОчень уж захотелось! (catchphrase)!",
      "JPja": "すまねぇな\nちょいと　ジャマするぜ、",
      "KRko": "하하\n잠깐 실례 좀 할게, !",
      "TWzh": "抱歉啦，\n讓我稍微打擾一下啊，。",
      "USen": "Sorry for bargin' in, kiddo. I'm just\nfull of mustard today, (catchphrase)!",
      "USes": "Bueno, aquí estoy. ¡No sabes\ncuántas ganas tenía de venir!",
      "USfr": "J'espère que ça ne te gêne pas que\nje sois de passage, (expression)!"
    }
  },
  {
    "label": "002",
    "attribute": "0x0000000000000000",
    "locale": {
      "CNzh": "我就来稍微\n打搅你一下咯！。",
      "EUde": "Ich bin da, (Floskel)!",
      "EUen": "Thanks for lettin' me come over!",
      "EUes": "¡Gracias por invitarme!",
      "EUfr": "C'est gentil de me laisser entrer !",
      "EUit": "Grazie dell'ospitalità!",
      "EUnl": "Bedankt voor de uitnodiging!",
      "EUru": "Спасибо за приглашение!",
      "JPja": "ちぃとばかり、\nジャマさせてもらうぜ？　",
      "KRko": "잠깐 실례 좀 한다! !",
      "TWzh": "我稍微打擾一下囉！。",
      "USen": "Thanks for lettin' me come over!",
      "USes": "¡Gracias por invitarme!",
      "USfr": "C'est gentil de me laisser entrer!"
    }
  },
  {
    "label": "003",
    "attribute": "0x0000000000000000",
    "locale": {
      "CNzh": "嘿嘿嘿……\n让我稍微休息一下吧。。",
      "EUde": "Gut, dann zeig mir mal deine\nVorratskammer, (Floskel).\nGra ha ha ha!",
      "EUen": "Alright, where can I kick back and\nput my feet up, (catchphrase)?",
      "EUes": "Estupendo. ¿Me puedo tumbar\nen algún sitio y poner las patas\nsobre una mesilla, (catchphrase)?",
      "EUfr": "Bon, où est-ce que je peux poser\nmon popotin pour commencer,\n ?",
      "EUit": "OK, OK. Dove posso mettermi\ncomodo, ?",
      "EUnl": "Oké, waar is de beste zitplek, (catchphrase)?",
      "EUru": "Ну, где мне сесть и чувствовать\nсебя как дома? (catchphrase)!",
      "JPja": "へへへ・・・\nちょいと　休ませてもらうかな、",
      "KRko": "헤헤헤...\n좀 쉬다 갈게, ",
      "TWzh": "嘿嘿嘿……\n讓我稍微休息一下吧，。",
      "USen": "Alright, where can I kick back and\nput my feet up, (catchphrase)?",
      "USes": "Estupendo. ¿Me puedo tumbar\nen algún sitio y poner las patas\nsobre una mesa?",
      "USfr": "Bon, où est-ce que je peux poser\nmon derrière pour commencer,\n?"
    }
  },
  {
    "label": "004",
    "attribute": "0x0000000000000000",
    "locale": {
      "CNzh": "嘿，我是(resident name)！\n我来找你玩咯～！。",
      "EUde": "Hallo! Hier ist (Einwohnername)...\nWie versprochen, (Floskel).",
      "EUen": "Hey, it's (resident name)! I heard\nthis was the place to\nbe, (catchphrase).",
      "EUes": "Soy (resident name)... ¿Te sueno de algo? Preguntando, preguntando, al final he encontrado tu casa.",
      "EUfr": "Hé, c'est (nom du résident) !\nJe suis venu te rendre visite !",
      "EUit": "Aloha! Sono io, (resident name)! Dicono tutti che questo posto è troppo bello. Ed eccomi qui.",
      "EUnl": "Hé, ik ben het (resident name)! Daar ben ik dan, (catchphrase).",
      "EUru": "Эй! Это (resident name)!\nЯ в гости пришел! (catchphrase)!",
      "JPja": "よう、(resident name)だ！\n遊びに　来たぜー！　",
      "KRko": "나다, (resident name)!\n약속대로 놀러왔다고－! !",
      "TWzh": "喲！是我，(resident name)啦！\n我來找你玩啦～！。",
      "USen": "Hey, it's (resident name)! I heard\nthis was the place to\nbe, (catchphrase).",
      "USes": "Soy (resident name)... Ya estoy listo para la tertulia en tu casa.",
      "USfr": "Hé, c'est (nom du résident)!\nJe suis venu te rendre visite!"
    }
  },
  {
    "label": "005",
    "attribute": "0x0000000000000000",
    "locale": {
      "CNzh": "嘿，(nickname)——！\n是我，我是(resident name)！\n我来找你啦——！。",
      "EUde": "Heda, (Spitzname)!\nIch bin's, (Floskel)!",
      "EUen": "Heya, (nickname)! It's you\nknow who, (catchphrase)!",
      "EUes": "¡Hola, (nickname)! Soy yo, ya sabes quién...\nEl representante de los jubilados,\n(catchphrase). ¡Ja, ja, ja!",
      "EUfr": "Hé, (surnom) !\nC'est moi ! (nom du résident) !",
      "EUit": "Ehilà, (nickname)! Sono chi sai tu, in carne e ossa. AHAHAH!",
      "EUnl": "Hé, (nickname)! Je hebt hoog bezoek, (catchphrase). Bwahaha!",
      "EUru": "Э-ге-гей, (nickname)!\nЭто я пожаловал! (catchphrase)!\nБу-га-га!",
      "JPja": "おう、(nickname)！\nオレだよ、\n(resident name)が来たぜー！　",
      "KRko": "어이, (nickname)－!\n나야,\n(resident name)이 왔다고－! !",
      "TWzh": "喂，(nickname)——！\n是我啦，我(resident name)來啦！。",
      "USen": "Heya, (nickname)! It's you\nknow who, (catchphrase)!",
      "USes": "¡Hola, (nickname)! Soy yo, ya sabes quién...\nEl representante de los jubilados,\n(catchphrase). ¡Ja, ja, ja!",
      "USfr": "Hé, (surnom)!\nC'est moi! (nom du résident)!"
    }
  },
  {
    "label": "006",
    "attribute": "0x0000000000000000",
    "locale": {
      "CNzh": "嘿，我是(resident name)！\n我来参观你家啦～！。",
      "EUde": "Rat mal, wer hier ist. Niemand anders\nals (Einwohnername)! Dann führ mich mal herum, (Floskel)!",
      "EUen": "Guess who. It's (resident name)!\nI came to check out your place.",
      "EUes": "Adivina quién soy...\n¡Sí, (resident name)! He venido\na ver tu casa, ¿te acuerdas?",
      "EUfr": "Salut ! C'est (nom du résident) !\nTu me fais entrer,  ?",
      "EUit": "Indovina un po' chi c'è? Io: (resident name) in persona! Eccomi a casa tua, finalmente.",
      "EUnl": "Raad eens wie er is. Ik ben het,\n(resident name)! Ik kom je huis bekijken.",
      "EUru": "Угадай кто! (resident name) же!\nПришел твои хоромы смотреть.",
      "JPja": "よう、(resident name)だ！\nオメェん家、見に来たぜー！　",
      "KRko": "여어, (resident name) 왔다!\n너네 집 좀 구경하자－! !",
      "TWzh": "喲，是我(resident name)啦！\n我來觀摩你家啦！。",
      "USen": "Guess who. It's (resident name)!\nI came to check out your place.",
      "USes": "Adivina quién soy...\n¡Sí, (resident name)! Vine a\nver tu casa, ¿te acuerdas?",
      "USfr": "Salut! C'est (nom du résident)!\nTu me fais entrer, ?"
    }
  },
  {
    "label": "007",
    "attribute": "0x0000000000000000",
    "locale": {
      "CNzh": "喂——是我啊——！\n……是没有听见吗？。",
      "EUde": "...Hörst du nicht?\nIch bin's, (Floskel)!",
      "EUen": "Hey, (catchphrase)! It's me!\n...Can you not hear me?!",
      "EUes": "¡Oye, que soy yo! ¿Hola?...\n¡¿No me oyes, (catchphrase)?!",
      "EUfr": "Hé, c'est moi,  !\n... Tu m'entends pas ?!",
      "EUit": "Ehilà, sono io! Ma non mi senti,\n?!",
      "EUnl": "Hé, (catchphrase), ik ben het! Hoor je me niet?!",
      "EUru": "(catchphrase)! Это я пришел!\nАу... Ты что, не слышишь?!",
      "JPja": "おーい、オレだー！\n・・・聞こえてねぇのかな？　",
      "KRko": "나 왔다－!\n...안 들리나? ?",
      "TWzh": "喂——是我啦——！\n嗯……沒聽見我的聲音嗎？。",
      "USen": "Hey, (catchphrase)! It's me!\n...Can you not hear me?!",
      "USes": "¡Oye, ya llegué! ¿Hola?...\n¡¿No me oyes?!",
      "USfr": "Hé, c'est moi, !\n... Tu m'entends pas?!"
    }
  },
  {
    "label": "008",
    "attribute": "0x0000000000000000",
    "locale": {
      "CNzh": "喂，(nickname)！\n如果你听得见的话，\n能不能到玄关来一趟啊～？。",
      "EUde": "Hallo, (Spitzname)! Öffnest du mir heute noch die Tür, (Floskel)?!",
      "EUen": "Hey, (nickname)! If you can\nhear me, answer the door!",
      "EUes": "¡Eh, (nickname)!\nSi me oyes, ¡abre la puerta!",
      "EUfr": "Hé, (surnom) !\nSi tu m'entends, ouvre-moi !",
      "EUit": "Ehi, (nickname)! Se mi senti, vieni alla porta!",
      "EUnl": "Hé, (nickname)! Als je me kunt horen, maak dan de deur open!",
      "EUru": "Эй, (nickname)! Ты меня\nслы-ы-ышишь? Открывай!",
      "JPja": "おい、(nickname)！\n聞こえてんなら、ちょっと玄関まで\n来てくれねぇか～？　",
      "KRko": "야, (nickname)!\n내 목소리 들리면 잠깐 현관으로\n나와봐～ ～",
      "TWzh": "喂，(nickname)！\n如果你有聽到的話，能麻煩你\n到玄關露個臉嗎？。",
      "USen": "Hey, (nickname)! If you can\nhear me, answer the door!",
      "USes": "¡Eh, (nickname)!\nSi me oyes, ¡abre la puerta!",
      "USfr": "Hé, (surnom)!\nSi tu m'entends, ouvre-moi!"
    }
  },
  {
    "label": "009",
    "attribute": "0x0000000000000000",
    "locale": {
      "CNzh": "(nickname)——！\n不快点让我进去的话，\n我就要被当成是怪人啦——！。",
      "EUde": "So langsam komm ich mir ziemlich\nblöd vor, hier draußen so\nherumzuschreien! Lass mich rein!",
      "EUen": "I feel like a weirdo standin' out here\nyellin'! So lemme in, (catchphrase)!",
      "EUes": "Esto de hablarle a una puerta\nno mola, ¿eh, (catchphrase)?\n¡Anda, déjame entrar!",
      "EUfr": "Ça commence à devenir gênant, là !\nRéponds-moi,  !",
      "EUit": "Mi sento sciocco a starmene qui\na parlare a una porta. Dai, fammi\nentrare, !",
      "EUnl": "Ik lijk wel een vreemde snuiter door\nhier buiten te staan schreeuwen!\nDus doe open, (catchphrase)!",
      "EUru": "Я уже устал тут орать! На меня\nвсе смотрят! Открывай дверь!\n(catchphrase)!",
      "JPja": "(nickname)！\n早く　入れてくれねぇと、\n変なヤツだと　思われちまうだろ！　",
      "KRko": "(nickname)－!\n빨리 문 좀 열어줘\n내가 이상한 사람 같잖아! !",
      "TWzh": "(nickname)——！\n你不快點放我進去的話，\n我就要被當成可疑人士啦！。",
      "USen": "I feel like a weirdo standin' out here\nyellin'! So lemme in, (catchphrase)!",
      "USes": "Esto de hablarle a una puerta no me\ngusta nada, ¿eh? ¡Anda, déjame\nentrar!",
      "USfr": "Ça commence à devenir gênant, là!\nRéponds-moi, !"
    }
  },
  {
    "label": "010",
    "attribute": "0x0000000000000000",
    "locale": {
      "CNzh": "真不在家啊？！\n哼！\n那我要回去啦！。",
      "EUde": "Bist du wirklich nicht zu Hause?\n(Floskel), ich geb's auf.",
      "EUen": "Are you seriously not home?\n(catchphrase), I'm goin' back to\nmy place now.",
      "EUes": "¿De verdad que no estás en casa?\nBueno, pues nada, (catchphrase),\nme vuelvo por donde he venido.",
      "EUfr": "T'es vraiment pas là ?\n(expression), bon ben j'ai plus\nqu'à retourner chez moi...",
      "EUit": "Ma veramente non ci sei? Allora me\nne torno a casa mia, .",
      "EUnl": "Ben je echt niet thuis? (catchphrase)⁠, dan ga ik maar terug naar huis.",
      "EUru": "Тебя там что, и правда нету?\n(catchphrase), однако! Ну что,\nпойду тогда домой...",
      "JPja": "マジで　留守なのかよ？！\nふんっ！\nオレは　もう　帰るからな！　",
      "KRko": "진짜 집에 없는 거냐?!\n흥! 나 간다, !",
      "TWzh": "你真的不在喔！？\n哼！那我可要回去啦！。",
      "USen": "Are you seriously not home?\n(catchphrase), I'm goin' back to\nmy place now.",
      "USes": "¿De verdad no estás en casa?\nBueno, pues nada, (catchphrase),\nme regreso por donde vine.",
      "USfr": "T'es vraiment pas là?\n(expression), bon ben j'ai plus\nqu'à retourner chez moi..."
    }
  },
  {
    "label": "011",
    "attribute": "0x0000000000000000",
    "locale": {
      "CNzh": "你早啊，(nickname)！\n你看看我，因为实在是太期待了，\n结果这一大早的就跑过来啦！。",
      "EUde": "Guten Morgen, (Spitzname)!\nIch konnte nicht mehr schlafen, da\ndachte ich mir, ich wecke dich auch!",
      "EUen": "Mornin', (nickname)! I'm up\nearly and full of vinegar!",
      "EUes": "¡Buenos días, (nickname)!\nA mi edad no necesito dormir tanto,\n¡así que hoy he madrugado a tope!",
      "EUfr": "Salut (surnom) !\nJe sais pas toi, mais moi je pète\nla forme !",
      "EUit": "Buongiorno, (nickname)! Eccomi qua, in piedi presto e pieno di energie. Come te, vedo.",
      "EUnl": "Goeiemorgen, (nickname)! Ik was al vroeg wakker en heb een prachtig ochtendhumeur!",
      "EUru": "Доброе утро, (nickname)!\nНе спишь? Вот и славно!",
      "JPja": "おはようさん、(nickname)！\nオレとしたことが、楽しみにしすぎて\nこんなに早く　来ちまったよ！　",
      "KRko": "좋은 아침, (nickname)!\n나도 참 너무 기대돼서\n이렇게 일찍 와버렸지 뭐냐, !",
      "TWzh": "(nickname)，早啊！\n我這人真是的，竟然因為太過期待，\n一大早就過來了！。",
      "USen": "Mornin', (nickname)! I'm up\nearly and full of vinegar!",
      "USes": "¡Buenos días, (nickname)!\nA mi edad no necesito dormir tanto,\n¡así que hoy madrugué!",
      "USfr": "Salut (surnom)!\nJe sais pas toi, mais moi je pète\nla forme!"
    }
  },
  {
    "label": "012",
    "attribute": "0x0000000000000000",
    "locale": {
      "CNzh": "好了，那我就打搅一下咯。\n看来你有好好遵守约定，在家里等我啊！\n(nickname)，你果然言出必行！",
      "EUde": "Wie geht's? Ich bin froh, dass du\nmich nicht versetzt hast! Ich hatte\nda irgendwie ein ungutes Gefühl.",
      "EUen": "Thanks for holdin' up your end of\nthe bargain and bein' here when\nI showed up. Good stuff!",
      "EUes": "Algo tan elemental como cumplir\nlo acordado ya no se ve mucho hoy\nen día... ¡Gracias por esperarme!",
      "EUfr": "Merci d'avoir tenu parole.\nJ'apprécie !",
      "EUit": "Grazie per essere rimasto in casa\ne aver mantenuto la parola.\nAnche se non credo che stesse\nper cadere. AHAHAH!",
      "EUnl": "Bedankt dat je je aan je afspraak\nhebt gehouden en hier was toen ik\nkwam. Fijn hoor!",
      "EUru": "Надо же, ты даже дома! \nСдержал слово, молодец!",
      "JPja": "さてと、ジャマさせてもらうぜ\n約束通り　ちゃんと　待っててくれたんだな！\nさすが、(nickname)だ！",
      "KRko": "자, 그럼 실례 좀 할게\n약속대로 기다려줘서 고맙다!\n역시 (nickname)이라니까!",
      "TWzh": "那麼……我就打擾啦。\n你有按照約定，好好地等著我啊！\n真不愧是(nickname)！",
      "USen": "Thanks for holdin' up your end of\nthe bargain and bein' here when\nI showed up. Good stuff!",
      "USes": "Algo tan elemental como cumplir lo\nacordado ya no se ve mucho hoy\nen día... ¡Gracias por esperarme!",
      "USfr": "Merci d'avoir tenu parole.\nJ'apprécie!"
    }
  },
  {
    "label": "013",
    "attribute": "0x0000000000000000",
    "locale": {
      "CNzh": "(nickname)！气色怎么样啊？\n是不是让你等得有点久啊？\n拜托你见谅啦！。",
      "EUde": "Wie geht's, (Spitzname)?\nTut mir leid, dass ich so spät\naufkreuze. Aber besser spät als nie!",
      "EUen": "How's it goin', (nickname)?\nSorry I kept you waitin' some.\nBut I'm here now! Gahaha!",
      "EUes": "¿Qué tal estás, (nickname)?\nDisculpa que te haya hecho esperar\nun rato, ¡pero aquí estoy! ¡Ja, ja, ja!",
      "EUfr": "Comment ça va, (surnom) ?\nDésolé si je t'ai fait attendre,\nmais je suis là, maintenant !",
      "EUit": "Come va, (nickname)?\nScusa se ti ho fatto aspettare.\nMa ora eccomi qua! AHAHAH!",
      "EUnl": "Hoe gaat het, (nickname)? Sorry dat ik je heb laten wachten. Maar nou ben ik er! Bwahaha!",
      "EUru": "Привет, (nickname)!\nЗаждался, поди? А вот и я!\nБу-га-га!",
      "JPja": "調子はどうでぇ？　(nickname)！\nちぃと　待たしちまったかい？\nま、許してくれよな！　",
      "KRko": "내가 왔다, (nickname)!\n내가 너무 늦게 왔나?\n이번만 좀 봐줘! !",
      "TWzh": "(nickname)，過得怎麼樣啊？\n有讓你等很久嗎？\n抱歉，你就原諒我吧！。",
      "USen": "How's it goin', (nickname)?\nSorry I kept you waitin' some.\nBut I'm here now! Gahaha!",
      "USes": "¿Cómo estás, (nickname)?\nDisculpa que te haya hecho esperar\nun rato, ¡pero aquí estoy! ¡Ja, ja, ja!",
      "USfr": "Comment ça va, (surnom)?\nDésolé si je t'ai fait attendre,\nmais je suis là, maintenant!"
    }
  },
  {
    "label": "014",
    "attribute": "0x0000000000000000",
    "locale": {
      "CNzh": "是不是来得有点晚啊？\n其实啊，我有不少事情要忙……\n抱歉啦，(nickname)！",
      "EUde": "Ist ein bisschen spät geworden...\nTut mir leid, war viel los heute.",
      "EUen": "Is it late? I'm a bit confused about\ntime. Almost like...I don't understand\ntime at all. Anyway, howdy!",
      "EUes": "¿Es tan tarde? No entiendo cómo\npuedo perder así la noción\ndel tiempo...\nBueno, hola. Después de todo,\n¿quién sabe lo que es el tiempo?",
      "EUfr": "Est-ce que tu trouves que j'arrive\nplutôt tard, ou plutôt tôt ?\nJ'imagine que tout est question\nde perspective...",
      "EUit": "È tardi? Non ho idea di che ore\nsiano. Veramente... non capisco\nproprio il tempo. Vabbè! Tutto OK?",
      "EUnl": "Is het laat? Ik ben slecht met tijd.\nHet is bijna... alsof ik geen gevoel\nheb voor tijd. Maar goed, hallo dus!",
      "EUru": "Я не опоздал? Что-то я во времени\nпутаюсь. Никогда не пойму... когда\nеще поздно, а когда уже рано.\nВ общем, привет!",
      "JPja": "ちょっと　遅くなっちまったか？\nいや、いろいろと　立て込んでてよ・・・\n悪かったな、(nickname)！",
      "KRko": "너무 늦게 왔나?\n아니 그게, 일정이 좀 밀려서...\n미안해, (nickname)!",
      "TWzh": "我是不是有點晚到啊？\n呃，因為剛好有點事耽擱啦……\n(nickname)，真的很抱歉！",
      "USen": "Is it late? I'm a bit confused about\ntime. Almost like...I don't understand\ntime at all. Anyway, howdy!",
      "USes": "¿Ya es tan tarde? No entiendo cómo\npuedo perder así la noción\ndel tiempo...\nBueno, hola. Después de todo,\n¿quién sabe lo que es el tiempo?",
      "USfr": "Est-ce que tu trouves que j'arrive\nplutôt tard, ou plutôt tôt?\nJ'imagine que tout est question\nde perspective..."
    }
  },
  {
    "label": "015",
    "attribute": "0x0000000000000000",
    "locale": {
      "CNzh": "那我就打扰一会儿啦……啊！\n蟑螂～？！\n喂喂！饶了我吧～\n就算是我也接受不了这家伙啊！\n今天我就先回去了，\n抱歉，有机会我会再来的！。",
      "EUde": "He, Kleiner, ich wollte kurz-- \nSapperlot! Ist da eben eine Kakerlake\nherumgehuscht?\nDann muss das wohl warten.\nDu solltest hier wohl erst mal\nsauber machen, (Floskel).",
      "EUen": "Hey, kiddo, I was— Uh... Did I just\nsee a cockroach scurryin' about?\nMaybe we oughta do this later.\nSeems you've got some cleanin'\nto do, .",
      "EUes": "Oye, jovencito... ¿Eso no era\nuna... cucaracha?\nCreo que será mejor dejar esto para\notro momento... y así le das prioridad\nal tema de la limpieza, .",
      "EUfr": "Salut, gamin ! Ça rou... Hein ?! Je\nrêve où je viens de voir un cafard ?\nOn devrait peut-être remettre ça à\nplus tard. On dirait que tu as du\nménage à faire, .",
      "EUit": "Ma... sbaglio o ho appena visto uno\nscarafaggio scorrazzare tranquillo\nper casa tua?\nMeglio se ci rivediamo dopo. Al posto\ntuo, ora io darei priorità a una bella\ndisinfestazione, .",
      "EUnl": "Hé, jochie, ik was- Eh... Zag ik hier\nnou een kakkerlak rondscharrelen?\nLaten we maar een nieuwe datum\nprikken. Hier moet eerst effe een\ndoekje overheen, .",
      "EUru": "Эй, козявка, я тут... Э-э-э... Это\nне таракан ли у тебя там сейчас\nпробежал?\nЗнаешь, я в другой раз зайду.\nТы, наверное, как раз генеральную\nуборку планируешь. !",
      "JPja": "ちょいと　ジャマするぜ・・・って、\nゴキブリ～？！\nおいおい、カンベンしてくれよ～\nこいつは、さすがのオレも　ムリだ！\n今日のところは　帰らせてもらうぜ\n悪ぃが、また今度ってことで！　",
      "KRko": "잠깐 실례한다... 음?\n바퀴벌레～?!\n야야, 이건 아니지!\n아무리 나라도 이 녀석은 무리다!\n오늘은 이만 돌아갈게\n미안하지만 다음에 보자! !",
      "TWzh": "打擾啦……呃，\n蟑螂～！？\n喂喂喂，饒了我吧～\n就算是我也忍受不了這傢伙！\n今天我就先回去了。\n抱歉，我下次再來吧！。",
      "USen": "Hey, kiddo, I was— Uh... Did I just\nsee a cockroach scurryin' about?\nMaybe we oughta do this later.\nSeems you've got some cleanin'\nto do, .",
      "USes": "Oye, jovencito... ¿Eso no era\nuna... cucaracha?\nCreo que será mejor dejar esto para\notro momento... y así le das prioridad\nal tema de la limpieza, .",
      "USfr": "Salut, le jeune! Ça rou... Hein?! Je\nrêve ou je viens de voir un cafard?\nOn devrait peut-être remettre ça à\nplus tard. On dirait que tu as du\nménage à faire, ."
    }
  },
  {
    "label": "100",
    "attribute": "0x0000000000000000",
    "locale": {
      "CNzh": "对了，趁着还没忘记……\n这个给你，你就收下它吧！\n只是一点小礼物而已，别客气！",
      "EUde": "Oh, bevor ich's vergesse... Ich hab\nhier was für dich. Erwarte nicht zu\nviel... aber auch nicht zu wenig!",
      "EUen": "Oh, before I forget. I brought\nsomethin' for you. Don't get too\nexcited...just a little excited. Gahaha!",
      "EUes": "Por cierto, que no se me olvide.\nTe he traído algo, pero no\nte emociones demasiado...\nEmociónate, pero con moderación.\n¡Ja, ja, ja!",
      "EUfr": "Ah, avant que j'oublie... Je t'ai\nramené un petit cadeau.\nPar contre t'emballe pas, ça m'a\npas coûté des mille et des cents\nnon plus.",
      "EUit": "Oh! Prima che me ne dimentichi, ho\nqualcosa per te. Ma non emozionarti\ntroppo... basta un po'. AHAHAH!",
      "EUnl": "O ja. Ik heb ook nog iets voor je.\nVerwacht er niet te veel van...\nmaar ook niet te weinig. Bwahaha!",
      "EUru": "Да, пока не забыл! А то бывает...\nЯ тебе подарок принес.\nТолько ты золотых гор не жди...\nразве что холмик золотой. Бу-га-га!",
      "JPja": "おっと、忘れねぇうちに・・・\nこれ、もらってくれよ！\n大したもんじゃねぇから　気にすんなって！",
      "KRko": "어이쿠, 그러고 보니...\n이거 받아!\n별거 아니니까 부담 갖지 말고!",
      "TWzh": "啊，趁我還沒忘記的時候……\n就請你收下這東西吧！\n一點薄禮，不必在意！",
      "USen": "Oh, before I forget. I brought\nsomethin' for you. Don't get too\nexcited...just a little excited. Gahaha!",
      "USes": "Por cierto, que no se me olvide.\nTe traje algo, pero no te\nemociones demasiado...\nEmociónate, pero con moderación.\n¡Ja, ja, ja!",
      "USfr": "Ah, avant que j'oublie... Je t'ai\nramené un petit cadeau.\nPar contre t'emballe pas, ça m'a\npas coûté une fortune non plus."
    }
  },
  {
    "label": "101",
    "attribute": "0x0000000000000000",
    "locale": {
      "CNzh": "对了对了，你收下这个吧。\n虽然不是什么大不了的东西，\n算是一点礼物吧。",
      "EUde": "Ach ja, ich hab dir was mitgebracht.\nNicht viel, nur ein kleines\nGastgeschenk. Muss ja.",
      "EUen": "Oh yeah, I brought you somethin'.\nIt's not much. Just a little souvenir.",
      "EUes": "Ah, oye, que te he traído algo.\nNo es gran cosa, pero espero\nque te guste.",
      "EUfr": "Ah, oui, je t'ai ramené un truc.\nC'est pas grand-chose, mais c'est\ntout de même mieux que rien.",
      "EUit": "Ehi, ti ho portato una cosa. Non è\nnulla di particolare, solo un piccolo\npensierino, .",
      "EUnl": "O ja, ik heb iets voor je meegebracht.\nHet stelt niet veel voor. Het is maar\neen souvenirtje.",
      "EUru": "А, я ж тебе кое-что принес!\nМелочь, конечно, но все же.",
      "JPja": "そうそう、これ　受け取ってくれよ\n大したもんじゃねぇんだが、\n土産って　やつだよ",
      "KRko": "맞다, 이거 받아\n대단한 건 아니지만\n남의 집에 빈손으로 올 수는 없지",
      "TWzh": "對了對了，收下這個吧。\n不是什麼貴重的東西，\n就是點小禮物啦。",
      "USen": "Oh yeah, I brought you somethin'.\nIt's not much. Just a little souvenir.",
      "USes": "Ah, oye, te traje algo.\nNo es gran cosa, pero\nespero que te guste.",
      "USfr": "Ah, oui, je t'ai rapporté un truc.\nC'est pas grand-chose, mais c'est\ntout de même mieux que rien."
    }
  },
  {
    "label": "102",
    "attribute": "0x0000000000000000",
    "locale": {
      "CNzh": "我带了礼物来送给你哦。\n毕竟要到你家做客嘛，\n这点礼数还是得尽的！",
      "EUde": "Ich hab sogar ein Mitbringsel dabei.\nIch hoffe, es weiß zu gefallen!",
      "EUen": "Don't worry, I didn't come\nempty-handed. Here, it's\nthe least I could do.",
      "EUes": "Ah... Que casi se me olvida.\nTengo algo para ti. Qué menos, ¿no?",
      "EUfr": "Si tu pensais que j'allais débarquer\nles mains vides, eh bien tu te\nfourrais le doigt dans l'œil !\nTiens, c'est bien le moins que\nje pouvais faire !",
      "EUit": "Rilassati, non sono venuto a zampe\nvuote. Ecco, tieni: è il minimo che\npotessi fare.",
      "EUnl": "Geen zorgen, ik ben niet met lege\nhanden gekomen. Alsjeblieft, dit is\nwel het minste dat ik kon doen.",
      "EUru": "Ты не беспокойся, я не с пустыми\nруками! Вот, смотри, что притащил!",
      "JPja": "オメェに　土産を　持って来たぜ\n家に　呼んでもらうんだから、\nこれくらいは　しねぇとな！",
      "KRko": "너한테 줄 선물을 가져왔어!\n기껏 집에 초대해줬는데\n이 정도는 준비해야지!",
      "TWzh": "我帶禮物來囉。\n畢竟讓人招待，\n這點基本禮數還是要有嘛！",
      "USen": "Don't worry, I didn't come\nempty-handed. Here, it's\nthe least I could do.",
      "USes": "Ah... Que casi se me olvida. Tengo\nalgo para ti. Es lo menos que podía\nhacer, ¿no?",
      "USfr": "Si tu pensais que j'allais débarquer\nles mains vides, eh bien tu te mettais\nle doigt dans l'œil!\nTiens, c'est bien le moins que\nje pouvais faire!"
    }
  },
  {
    "label": "103",
    "attribute": "0x0000000000000000",
    "locale": {
      "CNzh": "这是！\n我觉得你应该会\n喜欢这种东西。。",
      "EUde": "!\nIch dachte mir, so was könnte dir\nnoch fehlen, (Floskel).",
      "EUen": "Kinda figured you could use\n!\nHope I was right, (catchphrase)!",
      "EUes": "Pensé que podría gustarte\n, (catchphrase).",
      "EUfr": "Comme tu peux le voir, c'est\n,  !",
      "EUit": "Volevo portarti qualcosa che\nti tornasse utile, ...\nE così ho pensato a !",
      "EUnl": "Ik dacht dat je wel iets als dit kon gebruiken, (catchphrase).  !",
      "EUru": "Мне не нужно, может хоть тебе\nпригодится. (catchphrase)! Вот,\nдержи !",
      "JPja": "だ！\nオメェ、こういうの\n好きなんじゃねぇかと思ってな、",
      "KRko": "이다!\n왠지 니가 이런 걸\n좋아할 것 같아서 가져와봤어, ",
      "TWzh": "這是喔！\n我覺得你應該會喜歡\n這類東西啦，。",
      "USen": "Kinda figured you could use\n!\nHope I was right, (catchphrase)!",
      "USes": "Pensé que esto podría gustarte:\n, (catchphrase).",
      "USfr": "Comme tu peux le voir, c'est\n, !"
    }
  },
  {
    "label": "104",
    "attribute": "0x0000000000000000",
    "locale": {
      "CNzh": "这是！\n你可别跟我客气啊！\n啊哈哈哈！",
      "EUde": "Und jetzt versuch bloß nicht, es\nabzulehnen. Es ist ja auch nur\n.",
      "EUen": "Don't try to be all fancy by turnin'\ndown my gift. Who doesn't want\n?",
      "EUes": "No me dirás que no te hace falta\n, ¿verdad?",
      "EUfr": "Franchement, tu vas quand même\npas me faire l'affront de refuser\n ?",
      "EUit": "E non pensarci nemmeno a rifiutare\nil mio regalo. In fondo, è pur sempre\n!",
      "EUnl": "Probeer maar niet chic te doen door mijn  af te wijzen. Wie zegt daar nee tegen?",
      "EUru": "И не смей отказываться — так\nпринято! Вот, держи\n.",
      "JPja": "だ！\nエンリョなんか　すんじゃねぇぞ！\nがーはっは！",
      "KRko": "이다!\n사양 말고 받아!\n으－하하핫!",
      "TWzh": "這是喔！\n用不著跟我客氣啦！\n哇～哈哈！",
      "USen": "Don't try to be all fancy by turnin'\ndown my gift. Who doesn't want\n?",
      "USes": "No me dirás que no necesitas\n, ¿verdad?",
      "USfr": "Franchement, tu vas quand même\npas me faire l'affront de refuser\n?"
    }
  },
  {
    "label": "105",
    "attribute": "0x0000000000000000",
    "locale": {
      "CNzh": "这是！\n要是你喜欢的话，\n我也算是没有枉费心思啊。。",
      "EUde": "!\nNa, ist das was? Sag bitte Ja, sonst\nfühle ich mich schlecht.",
      "EUen": "I reckon whatever makes a friend\nsmile is worth the effort. So I got you\n!",
      "EUes": "Si  te puede hacer feliz, entonces yo también me alegro.",
      "EUfr": "Je parie que t'as toujours rêvé que\nquelqu'un t'offre spontanément\n !",
      "EUit": "Se sei felice di , allora\nne è valsa la pena di prenderti\n!",
      "EUnl": "Als je er blij mee bent, dan was het de moeite waard.  !",
      "EUru": "С трудом добыл, между прочим,\nно для друга ничего не жалко!\nВот, !",
      "JPja": "だ！\nオメェが　喜んでくれりゃあ、\n用意した　かいがあるってもんさ、",
      "KRko": "이다!\n니가 기쁘게 받아주면 좋겠어\n그래야 준비한 보람이 있지, ",
      "TWzh": "這是喔！\n如果能讓你開心的話，\n也就不枉我費心準備了！。",
      "USen": "I reckon whatever makes a friend\nsmile is worth the effort. So I got you\n!",
      "USes": "Si te hace feliz recibir , entonces yo también me alegro.",
      "USfr": "Je parie que t'as toujours rêvé que\nquelqu'un t'offre spontanément\n!"
    }
  },
  {
    "label": "200",
    "attribute": "0x0000020000000000",
    "locale": {
      "CNzh": "喂，(nickname)！\n我们要不要玩点游戏啊？。",
      "EUde": "Ich hab eine Idee, (Floskel).\nWarum spielen wir nicht was?",
      "EUen": "Hey, I got an idea. Why don't we play\na game or somethin', (catchphrase)?",
      "EUes": "Oye, tengo una idea. ¿Y si jugamos\na algo, (catchphrase)?",
      "EUfr": "Tiens, j'ai une idée. Et si on jouait\nà un jeu,  ?",
      "EUit": "Ehi, m'è venuta un'idea. Perché non\ngiochiamo a qualcosa, ?",
      "EUnl": "Hé, ik heb een idee. Zullen we een\nspel spelen of zo, (catchphrase)?",
      "EUru": "О, что я придумал! Давай в игру\nсыграем? (catchphrase)!",
      "JPja": "おい、(nickname)！\nちょっとした　ゲームでもしねぇか？　",
      "KRko": "야, (nickname)!\n게임이나 좀 해볼래? ?",
      "TWzh": "喂，(nickname)！\n要不要來玩個小遊戲啊？。",
      "USen": "Hey, I got an idea. Why don't we play\na game or somethin', (catchphrase)?",
      "USes": "Oye, tengo una idea. ¿Y si jugamos\na algo, (catchphrase)?",
      "USfr": "Tiens, j'ai une idée. Et si on jouait\nà un jeu, ?"
    }
  },
  {
    "label": "200_a",
    "attribute": "0x0000000000000000",
    "locale": {
      "CNzh": "我想玩！",
      "EUde": "Einverstanden!",
      "EUen": "Let's play!",
      "EUes": "¡A jugar!",
      "EUfr": "Bonne idée !",
      "EUit": "Va bene!",
      "EUnl": "Ja!",
      "EUru": "Давай!",
      "JPja": "やるやる！",
      "KRko": "할래!",
      "TWzh": "好啊好啊！",
      "USen": "Let's play!",
      "USes": "¡A jugar!",
      "USfr": "Bonne idée!"
    }
  },
  {
    "label": "200_b",
    "attribute": "0x0000000000000000",
    "locale": {
      "CNzh": "现在先不了",
      "EUde": "Nicht nötig...",
      "EUen": "Not right now.",
      "EUes": "Ahora no...",
      "EUfr": "P'têt pas maintenant.",
      "EUit": "Non adesso.",
      "EUnl": "Nu liever niet.",
      "EUru": "Не сейчас.",
      "JPja": "今はいいや",
      "KRko": "지금은 됐어",
      "TWzh": "下次吧",
      "USen": "Not right now.",
      "USes": "Ahora no...",
      "USfr": "P'têt pas maintenant."
    }
  },
  {
    "label": "201",
    "attribute": "0x0000020000000000",
    "locale": {
      "CNzh": "好，(nickname)！\n我们来玩个游戏吧，\n我要跟你决一胜负！。",
      "EUde": "Willst du dich mal mit mir messen,\nKleiner? Dann lass uns in einem\nSpiel gegeneinander antreten!",
      "EUen": "You feelin' competitive, kiddo?\nLet's play a game—you against me!",
      "EUes": "¿Qué te parece un duelo\nde generaciones? Tú y yo...\n¡Experiencia contra innovación!",
      "EUfr": "Tu te sens d'humeur compétitive,\ngamin ? Ça te dit de jouer à un\npetit jeu ?",
      "EUit": "Ti senti competitivo oggi? E ti va di\naffrontarmi, allora? Dai, facciamo un\ngioco!",
      "EUnl": "Heb je zin in een wedstrijdje, jochie?\nLaten we een spelletje tegen elkaar\nspelen!",
      "EUru": "А знаешь что, козявка?\nДавай в игру сыграем!\nОдин на один!",
      "JPja": "よし、(nickname)！\nいっちょ、\nオレと　ゲームで勝負しようぜ！　",
      "KRko": "그래, (nickname)!\n나랑 게임 한판 하자, !",
      "TWzh": "好，(nickname)！\n你就跟我來一場遊戲對決吧！。",
      "USen": "You feelin' competitive, kiddo?\nLet's play a game—you against me!",
      "USes": "¿Qué te parece un duelo\nde generaciones? Tú y yo...\n¡Experiencia contra innovación!",
      "USfr": "Tu te sens d'humeur compétitive,\nle jeune? Ça te dit de jouer à un\npetit jeu?"
    }
  },
  {
    "label": "201_a",
    "attribute": "0x0000000000000000",
    "locale": {
      "CNzh": "好啊～！",
      "EUde": "Gern!",
      "EUen": "Sure!",
      "EUes": "¡Venga!",
      "EUfr": "Ouais !",
      "EUit": "Certo!",
      "EUnl": "Tuurlijk!",
      "EUru": "С удовольствием!",
      "JPja": "いいよー！",
      "KRko": "그래!",
      "TWzh": "好啊——！",
      "USen": "Sure!",
      "USes": "¡Juguemos!",
      "USfr": "Ouais!"
    }
  },
  {
    "label": "201_b",
    "attribute": "0x0000000000000000",
    "locale": {
      "CNzh": "现在先不了",
      "EUde": "Keine Lust...",
      "EUen": "Not right now.",
      "EUes": "No, déjalo...",
      "EUfr": "Pas maintenant.",
      "EUit": "Adesso no.",
      "EUnl": "Ik kan nu niet.",
      "EUru": "Не сейчас.",
      "JPja": "今はいいや",
      "KRko": "지금은 됐어",
      "TWzh": "下次吧",
      "USen": "Not right now.",
      "USes": "No, gracias",
      "USfr": "Pas maintenant."
    }
  },
  {
    "label": "202",
    "attribute": "0x0000020000000000",
    "locale": {
      "CNzh": "难得来一趟，\n要不要和我用游戏\n来决一胜负啊？。",
      "EUde": "So, was nun, (Floskel)?\nMöchtest du vielleicht was spielen?",
      "EUen": "Well, what should we do? Maybe play\nsome kinda game? Whaddaya think?",
      "EUes": "Esto... ¿puedo proponerte una\nactividad? ¿Un juego, por ejemplo?\n¿Te apetece?",
      "EUfr": "Tiens, vu qu'on est là... Ça te dirait\nde jouer à un jeu ?",
      "EUit": "Allora che si fa? Magari un gioco,\nper esempio? Che ne dici?",
      "EUnl": "Nou, wat zullen we doen? Misschien\neen spelletje? Wat vind je ervan?",
      "EUru": "Это... что дальше-то делать будем?\nМожет, в игру сыграем?\nЧто скажешь?",
      "JPja": "せっかくだし、\nオレと　ゲームで\n一勝負ってのはどうでぇ？　",
      "KRko": "모처럼 좋은 기회니까\n나랑 게임 한판 어때? ?",
      "TWzh": "難得到你家玩，\n我們用遊戲來較量一下吧？。",
      "USen": "Well, what should we do? Maybe play\nsome kinda game? Whaddaya think?",
      "USes": "Este... ¿puedo proponerte una\nactividad? ¿Un juego, por ejemplo?\n¿Te animas?",
      "USfr": "Tiens, vu qu'on est là... Ça te dirait\nde jouer à un jeu?"
    }
  },
  {
    "label": "202_a",
    "attribute": "0x0000000000000000",
    "locale": {
      "CNzh": "我不会输的！",
      "EUde": "Au ja!",
      "EUen": "Let's play!",
      "EUes": "Sí, ¡juguemos!",
      "EUfr": "Bonne idée !",
      "EUit": "Sì, dai!",
      "EUnl": "Ja, een spelletje!",
      "EUru": "Давай!",
      "JPja": "負けないよ！",
      "KRko": "안 질 거야!",
      "TWzh": "我不會輸的！",
      "USen": "Let's play!",
      "USes": "Sí, ¡juguemos!",
      "USfr": "Bonne idée!"
    }
  },
  {
    "label": "202_b",
    "attribute": "0x0000000000000000",
    "locale": {
      "CNzh": "不了",
      "EUde": "Lieber nicht.",
      "EUen": "Nah, no thanks.",
      "EUes": "No, gracias",
      "EUfr": "Euh, non merci.",
      "EUit": "No, ora no, grazie.",
      "EUnl": "Nee, bedankt.",
      "EUru": "Нет, спасибо.",
      "JPja": "やめとくよ",
      "KRko": "아니",
      "TWzh": "算了吧",
      "USen": "Nah, no thanks.",
      "USes": "No, gracias",
      "USfr": "Euh, non merci."
    }
  },
  {
    "label": "203",
    "attribute": "0x0000000000000000",
    "locale": {
      "CNzh": "噢，这样啊？\n那我就好好参观一下\n你的房间吧。。",
      "EUde": "Nein, (Floskel)?!\nDann schnüffele ich nur mal\nin deiner Wohnung herum.",
      "EUen": "Eh, no problem. I got a lot of\nsnoopin' around your place to\ndo anyway. Gahaha!",
      "EUes": "Bueno, da igual. Todavía puedo\nentretenerme viendo qué tienes\npor aquí, ¡ja, ja, ja!",
      "EUfr": "Bah, pas grave. J'ai pas encore fini\nde fouiner, de toute façon. Ha ha !",
      "EUit": "OK, nessun problema. Ad ogni modo,\nsarò troppo occupato a curiosare\nin giro per casa tua. AHAHAH!",
      "EUnl": "O, geen probleem. Er zijn nog\ngenoeg hoekjes en gaatjes in je huis\ndie ik nog niet heb gezien. Bwahaha!",
      "EUru": "Как знаешь. Я здесь все равно еще\nне во все уголки свой нос засунул.\nБу-га-га!",
      "JPja": "おっ、そうかい？\nそれじゃ、オレは　ゆっくりと\n部屋の中を　見せてもらうとするか、",
      "KRko": "엇, 그래?\n그럼 난 천천히 방 구경이나 할게, ",
      "TWzh": "喔，這樣啊？\n那麼我就悠哉地\n觀察一下你的房間吧，。",
      "USen": "Eh, no problem. I got a lot of\nsnoopin' around your place to\ndo anyway. Gahaha!",
      "USes": "Bueno, da igual. Todavía puedo\nentretenerme viendo qué tienes\npor aquí, ¡ja, ja, ja!",
      "USfr": "Bah, pas grave. J'ai pas encore fini\nde fouiner, de toute façon. Ha ha!"
    }
  },
  {
    "label": "204",
    "attribute": "0x0000000000000000",
    "locale": {
      "CNzh": "噢，别介意！\n而且我也忙着参观你的房间呢！\n啊哈哈哈！",
      "EUde": "In Ordnung, kein Problem. Dann\nbleibt mir mehr Zeit, dein Zuhause\nzu inspizieren!",
      "EUen": "Alright, that's fine. More time for\nme to explore your homestead\nanyway.",
      "EUes": "No pasa nada, más tiempo que\nme queda para inspeccionar tu\nmobiliario.",
      "EUfr": "Pas grave, t'en fais pas. Ça me laisse\nplus de temps pour juger ta déco\nintérieure, ha ha !",
      "EUit": "OK, allora. Vorrà dire che avrò più\ntempo per... esplorare casa tua,\n.",
      "EUnl": "Oké, dat is prima. Dan heb ik meer\ntijd om je huis te verkennen.",
      "EUru": "Дело твое. Мне-то только лучше —\nбольше времени по твоему дому\nбродить.",
      "JPja": "おう、気にすんな！\nオレだって　部屋の観察で　忙しいしな！\nがーはっは！",
      "KRko": "뭐, 내 말은 신경 쓰지 마!\n나도 방 구경하느라 바쁘거든!\n으－하하핫!",
      "TWzh": "喔，別在意！\n畢竟我也要忙著觀察房間嘛！\n哇～哈哈！",
      "USen": "Alright, that's fine. More time for\nme to explore your homestead\nanyway.",
      "USes": "No pasa nada, así tengo más tiempo\npara inspeccionar tu mobiliario.",
      "USfr": "Pas grave, t'en fais pas. Ça me\nlaisse plus de temps pour juger\nta décoration intérieure, ha ha!"
    }
  },
  {
    "label": "205",
    "attribute": "0x0000000000000000",
    "locale": {
      "CNzh": "这样啊？\n那今天，\n我们就好好聊聊天吧。。",
      "EUde": "Kein Interesse? Tja, man kann\nnatürlich auch einfach rumstehen\nund quatschen. Gra ha ha!",
      "EUen": "Not interested, huh? Well, I guess\nwe could just sit around yakkin'\nsome more, (catchphrase). Gahaha!",
      "EUes": "¿No te interesa, (catchphrase)? Bueno, también podemos sentarnos\na mirar el techo, ¡ja, ja, ja!",
      "EUfr": "Ah bon ? Pas grave, on peut toujours\npasser le temps en débattant de tout\net de rien,  !",
      "EUit": "Non ti interessa, eh? Beh, allora\nstiamocene solo a chiacchierare\nun altro po', .",
      "EUnl": "Geen interesse, hè? Nou, dan\nkunnen we wel nog een tijdje zitten\nleuteren, (catchphrase). Bwahaha!",
      "EUru": "Не хочешь? Так и будем дальше\nязыками чесать? (catchphrase)!\nЯ только за! Бу-га-га!",
      "JPja": "そうかい？\nんじゃ、今日のところは\nオメェと　語り合うことにするかぁ、",
      "KRko": "그래?\n그럼 오늘은 너랑\n얘기나 나누지 뭐, ",
      "TWzh": "是嗎？\n那麼今天我們就來\n好好地促膝長談吧～。",
      "USen": "Not interested, huh? Well, I guess\nwe could just sit around yakkin'\nsome more, (catchphrase). Gahaha!",
      "USes": "¿No te interesa? Bueno, también\npodemos sentarnos a mirar el\ntecho, ¡ja, ja, ja!",
      "USfr": "Ah bon? Pas grave, on peut toujours\npasser le temps en débattant de tout\net de rien, !"
    }
  }
]