﻿[
  {
    "label": "001_01",
    "attribute": "0x0000000000000000",
    "locale": {
      "CNzh": "哟！(nickname)！\n你选择的这个地方\n很棒哦！\n今后总有遇到困难的时候，\n同为住在这座岛上的居民，\n就让我们互相帮助吧！。",
      "EUde": "Yo, (Spitzname).\nDie Location, die du für mein Zelt\nausgesucht hast? Ganz großes Kino.\nWirst mir sicher öfter unter die Arme\ngreifen. Aber denk dran: Eine Hand\nwäscht die andere. Bin für dich da.",
      "EUen": "Letting you pick out my tent plot was\ntotally the right call. Thanks a\nmillion, (nickname). You rock!\nReally feels like things are startin'\noff on the right foot here. This spot's\ngiving off super good vibes!\nIt's rad that we're looking out for\neach other. Let's keep doing that!",
      "EUes": "Menos mal que te dejé elegir a ti\ndónde montar el campamento,\n(nickname).\n¡El sitio es la caña de la montaña!\nTengo la sensación de que voy\na estar en mi salsa aquí.\nAdemás... Te traes un rollo muy\nflipante. ¡Presiento que acabaremos\nsiendo coleguillas inseparables!",
      "EUfr": "J'suis bien jouasse de t'avoir laissé\nchoisir l'emplacement d'ma tente.\nT'as assuré ta cacahuète !\nJ'ai l'impression d'partir d'la bonne\npatte ici. Ce coin m'inspire, il envoie\ndes vibrations d'première bourre.\nÇa fait quand même plaiz de penser\nqu'on s'occupe l'un de l'autre. Faut\ncontinuer sur c'te lancée !",
      "EUit": "Ho fatto bene a lasciarti scegliere\ndove piantare la mia tenda. Beh, che\ndire, (nickname)? Grazie!\nSembra che ora le cose inizino a\ngirare per il verso giusto e questo\nluogo rilascia sensazioni positive.\nÈ bello aiutarsi a vicenda. Dovremmo\nfarlo sempre, .",
      "EUnl": "Het was een topidee om jou het\nplekje voor mijn tent te laten kiezen.\nEnorm bedankt, (nickname).\nDit avontuur beginnen we alvast\nop de juiste manier. Deze plek geeft\nme een enorm goed gevoel!\nEcht fijn dat we elkaar al zo flink\nhelpen. Laten we dat vooral blijven\ndoen!",
      "EUru": "Я не ошиблась, разрешив тебе\nвыбрать место для палатки. Класс!\nСпасибо, (nickname)!\nКажется, жизнь на новом месте\nначинается хорошо! Энергетика\nздесь превосходная!\nКак здорово, что мы друг другу\nпомогли. Давай и впредь так\nделать!",
      "JPja": "よっ、(nickname)！\nアンタが　決めてくれた　この場所、\nなかなか　調子いいよー！\nこれからも　なにかと　世話になるかもだけど\n同じ島の　住民同士、\n助け合っていこうじゃないか！　",
      "KRko": "안녕, (nickname)!\n니가 골라준 여기 말이야,\n아주 마음에 든다!\n앞으로 많이 마주치게 될 텐데\n같은 섬 주민끼리 서로 도우면서\n잘 지내보자! !",
      "TWzh": "唷，(nickname)！\n你幫我挑的這個地方啊，\n我還挺中意的喔～！\n我想之後或許還會受你照顧，\n既然都是同一座島上的居民，\n就讓我們互相幫助吧！。",
      "USen": "Letting you pick out my tent plot was\ntotally the right call. Thanks a\nmillion, (nickname). You rock!\nReally feels like things are startin'\noff on the right foot here. This spot's\ngiving off super good vibes!\nIt's rad that we're looking out for\neach other. Let's keep doing that!",
      "USes": "Menos mal que te dejé elegir a ti\ndónde poner mi tienda de campaña,\n(nickname).\n¡Elegiste un espacio bien chévere\npara tu servidora! Me agrada esa\nactitud de ayudar al compi.",
      "USfr": "J'suis contente de t'avoir laissé\nchoisir l'emplacement d'ma tente.\nT'es vraiment chouette, cacahuète!\nJ'ai l'impression d'partir d'la bonne\npatte ici. Ce coin m'inspire, il envoie\ndes vibrations d'première.\nÇa fait quand même plaisir de penser\nqu'on s'occupe l'un de l'autre. Faut\ncontinuer sur c'te lancée!"
    }
  },
  {
    "label": "001_02",
    "attribute": "0x0000000000000000",
    "locale": {
      "CNzh": "哟！(nickname)！\n你为我挑选的搭帐篷的地方\n真的很棒，我很喜欢！\n今后总有遇到困难的时候，\n同为住在这座岛上的居民，\n就让我们互相帮助吧！。",
      "EUde": "Die Location für mein Zelt is' nich'\nnur der Hammer, nein, nein. Die is'\nder ganze Werkzeugkasten!\nHast ein 1-a-Händchen bewiesen,\n(Spitzname). Mich haste ab jetzt öfter an der Backe!",
      "EUen": "Yo, (nickname)! I'm gettin' a\nreal good vibe from the tent plot you\npicked for me. Thanks for the hand!\nWe've gotta look out for each other\nhere. If you ever need anything,\ndon't be shy, (catchphrase)!",
      "EUes": "¡Oye, (nickname)! Me has elegido un sitio de lo más flipante.\nEs como si me conocieras de toda\nla vida o algo. ¡Me gusta este buen\nrollito que nos traemos!\nEspero que no seamos solo vecinos,\n¡sino coleguillas inseparables,\n(catchphrase)!",
      "EUfr": "Salut, (surnom) !\nMerci encore d'avoir choisi un\nemplacement pour ma tente !\nLe p'tit doigt d'ma grosse patte m'a\ndit qu'c'était un coin où j'allais bien\nm'fendre la poire ! T'as assuré !\nC'est sympa d'm'avoir rendu ce p'tit\nservice ! Hésite pas à m'faire signe\nsi t'as b'soin d'quèqu'chose !",
      "EUit": "Sai, (nickname), il posto che\nhai scelto per la mia tenda rilascia\nsensazioni positive.\nBeh, grazie dell'aiuto! Qui dobbiamo occuparci l'uno dell'altra.\nPerciò, se tu dovessi avere bisogno\ndi qualcosa, non esitare troppo a\nchiederlo, .",
      "EUnl": "Yo, (nickname)! Ik voel me\necht helemaal top op de plek die je\nvoor mijn tent hebt uitgekozen.\nEnorm bedankt voor de hulp! We\nmoeten elkaar ook wel helpen hier\nop het eiland.\nLaat het me vooral weten als ik jou ergens mee kan helpen, (catchphrase)!",
      "EUru": "Знаешь, (nickname), у места,\nкоторое ты выбрал, определенно\nхорошая энергетика. Спасибо!\nНужно помогать друг другу!\nЕсли тебе что-то понадобится,\nсразу говори! (catchphrase)!",
      "JPja": "よっ、(nickname)！\nアンタが　選んでくれた　テントの場所、\nなかなか　イイ感じで　気に入ったよ！\nこれからも　なにかと　世話になるかもだけど\n同じ島の　住民同士、\n助け合っていこうじゃないか！　",
      "KRko": "안녕! (nickname)!\n네가 골라준 텐트 위치 말이야,\n마음에 들더라!\n같은 섬에 사는 이웃끼리\n얼굴 볼 일도 많을 텐데\n서로 도우면서 잘 지내보자! !",
      "TWzh": "唷，(nickname)！\n我很喜歡你幫我選的帳篷位置，\n感覺超棒的喔！\n我想之後或許還會受你照顧，\n既然都是同一座島上的居民，\n就讓我們互相幫助吧！。",
      "USen": "Yo, (nickname)! I'm gettin' a\nreal good vibe from the tent plot you\npicked for me. Thanks for the hand!\nWe've gotta look out for each other\nhere. If you ever need anything,\ndon't be shy, (catchphrase)!",
      "USes": "¡Oye, (nickname)! Elegiste un lugar bien coquetón para tu servidora.\nEs como si me conocieras de toda\nla vida o algo. ¡Me gusta esta buena\nonda que nos traemos!\nSigue así y dentro de poco serás uno\nde mis compis inseparables,\n(catchphrase).",
      "USfr": "Salut, (surnom)!\nMerci encore d'avoir choisi un\nemplacement pour ma tente!\nLe p'tit doigt d'ma grosse patte m'a\ndit qu'c'était un coin où j'allais bien\nm'amuser! T'as assuré!\nC'est sympa d'm'avoir rendu ce p'tit\nservice! Hésite pas à m'faire signe\nsi t'as b'soin d'quèqu'chose!"
    }
  },
  {
    "label": "002",
    "attribute": "0x0000000000000000",
    "locale": {
      "CNzh": "哟！(nickname)！\n多亏你帮我下定了决心，\n才顺利选定了搭帐篷的地点。\n今后总有遇到困难的时候，\n同为住在这座岛上的居民，\n就让我们互相帮助吧！。",
      "EUde": "Echt sauber, dass du mir letztens\nverbal unter die Arme gegriffen hast.\nMein Zelt steht jetzt, (Floskel).\nAber weeßte, (Spitzname)...\nMit all den Nasen, die hier rumlaufen,\nis' die Insel alles andere als einsam.\nOch, Gänseblümchen. Dich nehm ich\nda außen vor. Bist doch der Coolste.\nUnd jetzt lass uns gehörig rocken!",
      "EUen": "(nickname)! Thanks a ton for\nearlier. I got my tent all up and\nrunning thanks to that pep talk.\nThe brochure said we'd be living on\nan uninhabited island, so I was all\nready to go solo, (catchphrase).\nI could totally go for having rock\nstars like you around, though!\nLet me know if you need anything.",
      "EUes": "Gracias por echarme un cable\ncon la ubicación de mi casa, (nickname).\nYa he montado el chiringuito\ny estoy lista para darlo todo.\nTenía entendido que esta isla estaba\ndeshabitada, así que venía pensando\nque me aburriría a saco...\nPero al final he encontrado a mi\ncompañero de aventuras ideal: ¡tú!\nEstoy deseando ver qué movidas\norganizamos en la isla...\n¡Va a ser la caña!",
      "EUfr": "(surnom) ! Merci encore pour l'autre fois. J'ai pu monter ma tente, y a pas eu d'lézard.\nLa brochure causait d'île déserte,\nalors j'm'étais plutôt préparée pour\nla grande vie d'naufragée !\nMais j'suis bien jouasse d'avoir une\ncélébrité comme toi sous la patte !\nFais-moi signe si j'peux t'aider.",
      "EUit": "Non so come dirtelo, (nickname), ma è grazie a te se la mia tenda ora è pronta all'uso.\nSul dépliant c'era scritto che avrei\nvissuto su un'isola deserta e mi\naspettavo una vita in solitudine.\nMa non mi dispiace avere intorno\nqualcuno come te. Fammi sapere se\nc'è qualcosa in cui posso aiutarti.",
      "EUnl": "(nickname)! Superbedankt voor je hulp. Dankzij je peptalk stond mijn tent voor ik het wist.\nVolgens de folder is dit een\nonbewoond eiland, dus ik verwachtte\neen solobestaan, (catchphrase).\nMaar met zulke toffe types als jij kan\nik hier ook prima wonen! Trek aan de\nbel als ik iets voor je kan doen.",
      "EUru": "(nickname)! Огромное\nспасибо! Я в два счета разбила\nпалатку с твоей помощью.\nВ рекламном проспекте говорилось,\nчто остров необитаем. Поэтому\nя и подумала, что буду здесь одна.\nНо если все такие звезды, как ты,\nто я готова смириться с компанией!\nГовори, если понадобится помощь.",
      "JPja": "よっ、(nickname)！\nアンタが　背中を押してくれたおかげで、\nテントの場所が　思い通りに　決まったよ\nこれからも　なにかと　世話になるかもだけど\n同じ島の　住民同士、\n助け合っていこうじゃないか！　",
      "KRko": "안녕, (nickname)!\n네가 도와준 덕분에\n좋은 장소에 텐트를 쳤어!\n앞으로도 이렇게 종종 도와줘!\n같은 섬 주민끼리\n상부상조하면서 잘 지내보자! !",
      "TWzh": "唷，(nickname)！\n多虧有你推了我一把，\n我才能順利地決定搭帳篷的位置！\n我想之後或許還會受你照顧，\n既然都是同一座島上的居民，\n就讓我們互相幫助吧！。",
      "USen": "(nickname)! Thanks a ton for\nearlier. I got my tent all up and\nrunning thanks to that pep talk.\nThe brochure said we'd be living on\nan uninhabited island, so I was all\nready to go solo, (catchphrase).\nI could totally go for having rock\nstars like you around, though!\nLet me know if you need anything.",
      "USes": "Gracias por echarme una mano\ncon la ubicación de mi casa, (nickname).\n¡Ahora sí estoy lista para lo que\nvenga y más!\nPensé que como la isla estaba\ndeshabitada todo iba a estar más\naguado que un flan caliente...\nPero aquí encontré a mi nuevo\ncompi favorito... ¡tú!\nYa me emocioné de pensar en la de\ncosas que vamos a poder armar en\nesta isla, tú.",
      "USfr": "(surnom)! Merci encore pour l'autre fois. J'ai pu monter ma tente, y'a pas eu d'problème.\nLa brochure parlait d'île déserte,\nalors j'm'étais plutôt préparée pour\nla grande vie d'naufragée!\nMais j'suis bien contente d'avoir une\ncélébrité comme toi sous la patte!\nFais-moi signe si j'peux t'aider."
    }
  },
  {
    "label": "003_01",
    "attribute": "0x0000000000000000",
    "locale": {
      "CNzh": "对了！为了感谢你帮我找到住的地方，\n这的手册，\n请你收下吧！",
      "EUde": "Ich hab's! Ich zerbrech mir schon\n'ne Weile den Kopf drüber, wie ich\ndir mal was Gutes tun kann...\nEndlich kam mir der Geistesblitz!\n'ne knallharte Anleitung für \nDIY-. Ha!",
      "EUen": "Oh yeah!\nI was thinking about how to thank\nyou, and I came up with a recipe for\n!",
      "EUes": "¡Ah, por cierto! Tendré que darte\nlas gracias como es debido, ¿o qué?\nComo sé que te gusta el bricolaje,\naquí tienes lo que yo llamo «Proyecto ». ¡Flipa!",
      "EUfr": "Ah, ouais !\nJ'me d'mandais comment t'remercier,\npis j'ai décidé d't'offrir un plan\nde  !",
      "EUit": "Oh, giusto!\nCercavo un modo per ringraziarti\ne ho trovato questo schema per\n!",
      "EUnl": "O, ja! Ik zat te denken hoe ik je kon\nbedanken...\n...en toen bedacht ik een plan voor !",
      "EUru": "Кстати! Я тут голову ломала,\nкак бы тебя отблагодарить.\nВот и придумала инструкцию на\nодин предмет. Он называется\n!",
      "JPja": "そうそう！　住まい探しの　お礼に、\nこの　のレシピを\nもらっておくれよ！",
      "KRko": "맞다! 집터를 찾아준 답례로 이걸 줄게!\n의\n레시피야, 받아줘!",
      "TWzh": "對了對了！為了答謝你幫我找住處，\n你就收下這個\n的方程式吧！",
      "USen": "Oh yeah!\nI was thinking about how to thank\nyou, and I came up with a recipe for\n!",
      "USes": "Para que no digas que soy una\nmalagradecida, te voy a dar algo\nque espero que te sirva.\nEstuve pensando en qué regalarte\ny se me ocurrió darte mi \"Proyecto \".",
      "USfr": "Ah, ouais!\nJ'me d'mandais comment t'remercier,\npis j'ai décidé d't'offrir un plan\nde ⁠!"
    }
  },
  {
    "label": "003_02",
    "attribute": "0x0000000000000000",
    "locale": {
      "CNzh": "我刚来到这座岛的时候，\n看到到处都是杂草，\n所以我就想到了一个用杂草制作的DIY！",
      "EUde": "Was sticht einem hier auf der Insel\nals Allererstes ins Auge? Ganz klar!\nDas Unkraut, das hier so wuchert!\nDer Anblick allein war die Inspiration\nfür dieses knallharte Bastelprojekt.\nMusst dich nich' bedanken.",
      "EUen": "Alright, so the first thing I thought\nwhen I got here was, \"Now THAT'S\na lot of weeds.\"\nThat's kinda where I got the idea.\nIt's a DIY project that uses weeds!",
      "EUes": "Cuando llegué a la isla no podía\nparar de flipar con la cantidad\nde hierbajos que había, tú.\nAsí que se me ocurrió darles salida\ncon el tema del bricolaje. ¿A que\nes una idea rompedora, coleguilla?",
      "EUfr": "Quand j'me suis pointée ici, j'me suis\ntout d'suite dit : « ouah, ça manque\npas d'mauvaise herbe dans l'coin » !\nD'où l'idée d't'offrir ça ! C'est un\nplan d'bricolage pour lequel faut\npas lésiner sur la mauvaise herbe !",
      "EUit": "La prima cosa che ho pensato\nquando sono arrivata è stata:\n\"Accipicchia, quante erbacce!\"\nE poi ho avuto un'idea geniale.\nUn progetto fai da te con le erbacce!",
      "EUnl": "Oké, het eerste wat ik dacht bij\naankomst, was: Nou, wat groeit er\nhier veel onkruid, joh!\nZo kwam ik aan dit idee. Het idee\nvoor een doe-het-zelfproject waarin\nonkruid wordt gebruikt!",
      "EUru": "Когда я только добралась сюда,\nя сразу подумала, что чего-чего,\nа сорняков тут хватает.\nОтсюда и идея взялась.\nДля моего проекта «Сделай сам»\nсорняки и нужны!",
      "JPja": "この島に来た直後、あまりにも\n雑草だらけの光景を見て、\n雑草を使ったＤＩＹを　ひらめいたのさ！",
      "KRko": "이 섬에 막 도착했을 때\n무성한 잡초를 보고\n잡초를 활용한 DIY가 떠올랐거든!",
      "TWzh": "剛來到這座島時，\n我看到整片滿滿的雜草，\n就想到用雜草來ＤＩＹ哩！",
      "USen": "Alright, so the first thing I thought\nwhen I got here was, \"Now THAT'S\na lot of weeds.\"\nThat's kinda where I got the idea.\nIt's a DIY project that uses weeds!",
      "USes": "Cuando llegué a la isla no podía\ncreer la cantidad de maleza que\nhabía, tú.\nRecordé aquella vez que estaba muy\naburrida y me puse a ver videos de\nunos supuestos proyectos de taller.\nEra algo así como proyectos que una\nmisma hace con cualquier material\ncomo la maleza. Chévere, ¿no?\nNo sé si yo tenga la paciencia para\nhacer uno de esos proyectos, la\nverdad... pero algo me dice que tú sí.",
      "USfr": "Quand j'me suis pointée ici, j'me suis\ntout d'suite dit : « ouah, ça manque\npas d'mauvaise herbe dans l'coin »!\nD'où l'idée d't'offrir ça! C'est un\nplan d'bricolage pour lequel faut\npas lésiner sur la mauvaise herbe!"
    }
  },
  {
    "label": "003_03",
    "attribute": "0x0000000000000000",
    "locale": {
      "CNzh": "如果你还不会制作DIY，\n可以去找狸克教你，\n马上去服务处看看吧！",
      "EUde": "Wenn du dich noch nich' ans\nBasteln getraut hast, hau mal\nTom Nook an.\nDer organisiert KOSTENLOSE\nSchnupperkurse im Servicecenter.\nKonnt's auch erst nich' glauben...",
      "EUen": "If you've never done a DIY project\nbefore, you should ask Tom Nook to\nhelp you out.\nHe's doing free DIY demos over at\nResident Services.",
      "EUes": "Si nunca te ha coincidido trabajar\nen un proyecto hasta ahora, habla\ncon Tom Nook, tú.\nTe explicará cómo funciona el tema\nen la oficina de gestión vecinal.\n¡Y sin cobrarte ni nada! (Cosa rara...)",
      "EUfr": "Si t'as jamais tâté d'l'établi et qu't'y\nconnais peau d'balle en bricolage, va\nvoir Tom Nook, il t'fera un topo.\nIl organise des démonstrations\nd'bricolage au bureau des résidents,\net ça t'coûtera pas une clochette !",
      "EUit": "Se non hai mai fatto un progetto\nfai da te, dovresti chiedere aiuto\na Tom Nook.\nOrganizza dei corsi introduttivi\nsul tema al centro servizi. E sono\npure gratuiti! (Da non crederci...)",
      "EUnl": "Als je nog niet eerder aan een\ndoe-het-zelfproject hebt gewerkt,\nkun je Tom Nook om hulp vragen.\nHij geeft gratis doe-het-zelflessen\nbij de servicebalie.",
      "EUru": "У тебя уже есть опыт с проектами\n«Сделай сам»? Если нет, то лучше\nТома Нука попросить тебе помочь.\nОн как раз проводит бесплатные\nуроки «Сделай сам» в бюро услуг.",
      "JPja": "ＤＩＹを　やったことがないんだったら\nたぬきちさんが　教えてくれるみたいだから、\nまずは　案内所に行ってみるといいよ！",
      "KRko": "DIY를 해본 적이 없으면\n너굴씨가 알려준다니까\n우선 안내소에 가봐!",
      "TWzh": "要是你沒做過ＤＩＹ，\n狸克好像可以教你，\n你可以先去服務處看看喔！",
      "USen": "If you've never done a DIY project\nbefore, you should ask Tom Nook to\nhelp you out.\nHe's doing free DIY demos over at\nResident Services.",
      "USes": "Si no has hecho ningún proyecto\nde taller hasta ahora, habla con\nTom Nook, tú.\nTe explicará cómo funciona el tema\nen la oficina de gestión vecinal.\nY sin cobrarte ni nada. (Qué raro...).",
      "USfr": "Si t'as jamais tâté d'l'établi et qu't'y\nconnais trop rien en bricolage, va\nvoir Tom Nook, il t'fera un topo.\nIl organise des démonstrations\nd'bricolage au bureau des résidents,\net ça t'coûtera pas une clochette!"
    }
  },
  {
    "label": "003_04",
    "attribute": "0x0000000000000000",
    "locale": {
      "CNzh": "就算是杂草，换个角度来看，\n也是这座岛的宝贵资源！\n让我们一起好好利用吧！。",
      "EUde": "Unkraut is' DAS Material, das uns\nhier garantiert nich' ausgehen wird.\nSchon mal so gesehn, (Floskel)?",
      "EUen": "Think about it. Weeds are the most\nabundant natural resource we have.\nMay as well use 'em, (catchphrase)!",
      "EUes": "Al fin y al cabo, los hierbajos son\nel recurso natural más abundante\nque tenemos, .\n¡Mejor usarlos para algo que dejar\nque se queden ahí muertos de\nla risa!",
      "EUfr": "Après tout, y a pas plus abondant\nqu'la mauvaise herbe dans l'coin...\nAutant en profiter, (expression) !",
      "EUit": "Pensaci un attimo. Le erbacce sono\nla più grande risorsa naturale che\nabbiamo sull'isola.\nSarebbe il caso di cominciare\na usarle, !",
      "EUnl": "Zeg nou zelf. Hier groeit toch volop\nonkruid? Daar kunnen we dus mooi\ngebruik van maken, (catchphrase)!",
      "EUru": "Если подумать, сорняки — наш\nсамый распространенный ресурс.\nГде-то же они должны пригодиться!",
      "JPja": "雑草だって、見方によっては\n島の　大事な　資源だからね！\nうまく　活用していこうよ！　",
      "KRko": "잡초도 보는 관점에 따라서는\n훌륭한 자원이 될 수 있어!\n잘 활용해봐! !",
      "TWzh": "就算是雜草，換個角度看，\n也是島上很重要的資源喔！\n我們就好好活用它吧！。",
      "USen": "Think about it. Weeds are the most\nabundant natural resource we have.\nMay as well use 'em, (catchphrase)!",
      "USes": "El recurso más abundante de esta\nisla es la maleza, (catchphrase).\nYo digo que hay que aprovecharla.",
      "USfr": "Après tout, y'a pas plus abondant\nqu'la mauvaise herbe dans l'coin...\nAutant en profiter, (expression)!"
    }
  },
  {
    "label": "004",
    "attribute": "0x0000000000000000",
    "locale": {
      "CNzh": "对了、对了！\n为了感谢你帮我找到住的地方，\n请收下这份礼物吧！\n哎呀！\n你的持有物好像满了！\n那么，这份谢礼，\n我待会儿放到你家的邮箱里吧。\n你可别忘了拿哦！。",
      "EUde": "Ich wollt dir noch was geben,\nfür all deine Hilfe und so,\n(Floskel)!\nSieht aber so aus, dass wir die\nÜbergabe verschieben müssen.\nDeine Tasche is' ja schon randvoll!\nMacht aber nix. Dann kriegste von\nmir einfach ein Päckchen in deinen\nBriefkasten geworfen. BÄM!",
      "EUen": "Oh yeah! I wanted to thank you\nfor the help, (catchphrase)!\nSo, I've got something for you now,\nbut it looks like your pockets are full.\nIt's all good. I'll toss it in the mail.\nJust don't forget about it, alright?",
      "EUes": "¡Ah, por cierto! Tendré que darte\nlas gracias como es debido, ¿o qué?\n¡Pero bueno! ¿No tienes un mísero\nhuequecillo para guardar la movida\nque te iba a dar?\nPues nada, simpático. Ya te la\nmandaré luego al buzón, ¿sí?\n¡Que no se te olvide, !",
      "EUfr": "Ah, au fait ! J'voulais t'remercier\npour l'coup d'patte qu'tu m'as filé,\n(expression) !\nDu coup, j't'ai dégoté un p'tit\nquèqu'chose, mais j'crois qu't'as\nd'jà les poches qui débordent.\nT'inquiète, j't'enverrai mon cadeau\npar courrier... Le laisse pas roupiller\ndans ta boîte aux lettres, d'ac ?",
      "EUit": "Oh, sì! Beh, ecco, volevo ringraziarti\nper l'aiuto in qualche modo.\nPerciò ho qui una cosa per te, ma\nmi sembra che tu abbia le tasche\npiene, .\nNessun problema. Te la lascio nella\ncassetta delle lettere. Ma non\ndimenticarti di prenderla, OK?",
      "EUnl": "O ja! Joh, ik wilde je nog bedanken\nvoor je hulp, (catchphrase)!\nDus ik heb iets voor je, maar zo te\nzien heb je er geen ruimte voor.\nHe-le-maal geen probleem. Ik stuur\nhet wel met de post. Maar vergeet\nhet niet, oké?",
      "EUru": "Ах да! Я хотела поблагодарить тебя\nза помощь! (catchphrase)!\nХм. У меня тут кое-что для тебя\nбыло, но вижу, что с местом\nв твоих карманах туго.\nНичего, тогда почтой отправлю.\nТолько, пожалуйста, не забудь\nв почтовый ящик заглянуть!",
      "JPja": "そうそう！\n住まい探しの　お礼をしなくちゃね\n受け取ってくれるかい？\nと思ったけど、どうやら今は\nもちものが　いっぱいみたいだねぇ\nそんなら、アンタの家のポストに\nあとで　入れておくとするか\n忘れずに　受け取っておくれよ！　",
      "KRko": "맞다!\n집터를 찾아준 답례를 해야지!\n이걸 받아줘!\n어, 근데 지금은\n짐이 너무 많은 것 같네?!\n그럼 너네 집 우편함에\n넣어 둘 테니까\n잊지 말고 꺼내가! !",
      "TWzh": "對了對了！\n你幫我找住處，我得給你謝禮才行呢。\n不知道你願意收下嗎？\n……我是這樣想啦，\n但你的持有物品好像已經滿了。\n既然這樣，\n我就晚點再放進你家郵筒好了。\n你可別忘了去拿啊！。",
      "USen": "Oh yeah! I wanted to thank you\nfor the help, (catchphrase)!\nSo, I've got something for you now,\nbut it looks like your pockets are full.\nIt's all good. I'll toss it in the mail.\nJust don't forget about it, alright?",
      "USes": "Tengo un regalo de agradecimiento\npara ti... Te lo daría pero no tienes ni\nun mísero espacio en tus bolsillos.\n¡No te preocupes! Te mando tu\nregalo a tu casa y ya. No te olvides\nde revisar tu buzón, ¿eh?",
      "USfr": "Ah, au fait! J'voulais t'remercier\npour l'coup d'patte qu'tu m'as filé,\n(expression)!\nDu coup, j't'ai trouvé un p'tit\nquèqu'chose, mais j'crois qu't'as\nd'jà les poches qui débordent.\nT'inquiète, j't'enverrai mon cadeau\npar courrier... Le laisse pas roupiller\ndans ta boîte aux lettres, d'ac?"
    }
  },
  {
    "label": "011",
    "attribute": "0x0000000000000000",
    "locale": {
      "CNzh": "啊！这把伞……\n难道是用我给你的手册\n自己DIY的？\n做得很棒呢！",
      "EUde": "Alter Falter, Verwalter! Da haste ja\n'nen hammerharten Regenschirm\nam Start, (Floskel)!\nDir die Anleitungen abzutreten hat\nsich total gelohnt. Das Teil sieht echt\nepisch aus, Gänseblümchen!",
      "EUen": "Whoa! Sweet umbrella!\nWait, did you make that with the DIY\nrecipe I gave you? Great job! Way to\nknock it out of the park!",
      "EUes": "¡Ahí va! Ese paraguas tan flipante...\nNo me lo digas: ¡te has montado\nun proyecto de bricolaje con\nlas instrucciones que te di!",
      "EUfr": "Wow ! Y déchire ton pébroc !\nTu l'as bricolé avec le plan que\nje t'ai refourgué ? Beau boulot !",
      "EUit": "Ehi! Niente male quest'ombrello!\nLo hai fatto con lo schema fai da\nte che ti ho dato io? Quasi quasi\nti faccio i complimenti, guarda!",
      "EUnl": "Wauw! Dat is een fijne paraplu!\nWacht eens even, heb je die gemaakt\nmet het doe-het-zelfplan dat je van\nmij hebt? Wat tof, zeg! Mooi gedaan!",
      "EUru": "Ого! Классный зонт!\nПогоди-ка, ты его сделал по\nмоей инструкции «Сделай сам»?\nПолучилось круче, чем я думала!",
      "JPja": "あっ！　その　かさ・・・\nもしかして　ウチが　あげたレシピで\nさっそく　ＤＩＹ　してみてくれたのかい？\nなかなか　上手に　できてるね！",
      "KRko": "앗! 그 우산...\n혹시 내가 준 레시피를 보고\nDIY로 직접 만든 거야?\n잘 만들었는데?",
      "TWzh": "啊！那把傘……\n該不會是用我給的方程式\nＤＩＹ做的吧？\n做得挺不錯的呢！",
      "USen": "Whoa! Sweet umbrella!\nWait, did you make that with the DIY\nrecipe I gave you? Great job! Way to\nknock it out of the park!",
      "USes": "¡Uyyy! Qué paraguas tan atómico...\nEspera... ¿¡lo hiciste con las\ninstrucciones que te di!? ¡Goaooo!",
      "USfr": "Wow! Il est super ton parapluie!\nTu l'as bricolé avec le plan que\nje t'ai donné? Beau travail!"
    }
  },
  {
    "label": "012_01",
    "attribute": "0x0000000000000000",
    "locale": {
      "CNzh": "不光是下雨天，\n晴天的时候也可以用来遮阳，\n是不是很棒呀？。",
      "EUde": "Und wenn die Sonne lacht, schützt\ndich das Teil vor den UV-Strahlen...\nOder meinem Blumenregen!",
      "EUen": "Do you like it? You're usin' it, so I\nguess so. Plus having some portable\nshade's gotta be nice, (catchphrase).",
      "EUes": "¿A que te viene al pelo? Si llueve,\nte protege de la lluvia; si hace sol,\nte mantiene fresquito y a la sombra.\n¡Es un puntazo, !",
      "EUfr": "T'as l'air d'en faire bon usage.\nFaut dire que c'est bien pratique\nquand ça cogne, .",
      "EUit": "Deve piacerti proprio tanto, se lo usi\nanche quando non piove. O forse è\nperché ami l'ombra, ?",
      "EUnl": "En, is het wat? Je maakt er gebruik\nvan, dus vast wel? En verplaatsbare\nschaduw is superfijn, (catchphrase).",
      "EUru": "Тебе он нравится? Видимо да, раз\nты его используешь.\nК тому же, таскать с собой щит от\nсолнца — отличная идея!\n(catchphrase)!",
      "JPja": "雨の日だけじゃなくて\nこんな晴れた日には　日よけにもなるし、\nなかなか　いいもんだろ？　",
      "KRko": "비 오는 날뿐만 아니라\n맑은 날엔 양산으로도 쓸 수 있으니까\n여러모로 유용하지? ?",
      "TWzh": "不只下雨天能派上用場，\n就連這麼燦爛的晴天都能拿來遮陽，\n挺不錯的吧？。",
      "USen": "Do you like it? You're usin' it, so I\nguess so. Plus having some portable\nshade's gotta be nice, (catchphrase).",
      "USes": "¿Verdad que está chévere? Si llueve,\nte protege de la lluvia; si hace sol,\nte mantiene fresquito.",
      "USfr": "T'as l'air d'en faire bon usage.\nFaut dire que c'est bien pratique\nquand ça tombe, ."
    }
  },
  {
    "label": "012_02",
    "attribute": "0x0000000000000000",
    "locale": {
      "CNzh": "最适合下雨天散步时使用了，不是吗？\n看到你有用到它，我好开心！。",
      "EUde": "Und super praktisch, wenn du an\nRegentagen keinen Bock auf 'ne\nFreiluftdusche hast!",
      "EUen": "Do you like it? I mean, you're using\nit, so I guess so. That, or you're just\ntryin' to keep dry, (catchphrase)!",
      "EUes": "¿A que viene al pelo para no acabar\nempapado en un día como este,\n?",
      "EUfr": "Tu dois bien l'aimer vu que tu te\ntrimballes avec. Ça, ou t'as juste\nenvie d'garder les plumes au sec.",
      "EUit": "Se lo stai usando, si vede che ti\npiace. Oppure lo usi solo perché\nnon vuoi bagnarti, (catchphrase)?",
      "EUnl": "En, is het wat? Je maakt er gebruik\nvan, dus vast wel? Of hou je het\nanders niet droog, (catchphrase)?",
      "EUru": "Тебе нравится? Явно да, раз ты\nего используешь. Или ты просто не\nхочешь промокнуть! (catchphrase)!",
      "JPja": "雨の日の　お散歩にピッタリだろ？\n活用してくれて　ウチも嬉しいよ！　",
      "KRko": "비 오는 날 산책할 때 딱이지?\n잘 써줘서 나도 기분 좋다! !",
      "TWzh": "這正好適合雨天散步時用吧？\n你能夠活用方程式，我也很開心！。",
      "USen": "Do you like it? I mean, you're using\nit, so I guess so. That, or you're just\ntryin' to keep dry, (catchphrase)!",
      "USes": "¿Verdad que viene como anillo\nal dedo en un día tan lluvioso como\neste, (catchphrase)?",
      "USfr": "Tu dois bien l'aimer vu que tu te\ntrimballes avec. Ça, ou t'as juste\nenvie d'garder les plumes au sec."
    }
  },
  {
    "label": "012_03",
    "attribute": "0x0000000000000000",
    "locale": {
      "CNzh": "最适合下雪天散步时使用了，不是吗？\n看到你有用到它，我好开心！。",
      "EUde": "Bei 'nem massiven Schneesturm, so\nwie heute, wirste vorm Schlimmsten\nbewahrt. Total praktisch, gell?",
      "EUen": "You like it? You're usin' it, so I guess\nso. Or you just wanna keep the snow\nout of your eyes, (catchphrase).",
      "EUes": "No me dirás que no es útil: ¡puedes\ncorretear por la nieve sin acabar\nempapado del todo, !",
      "EUfr": "Tu dois bien l'aimer pour l'exhiber\ncomme ça. Ou alors c'est que t'aimes\npas avoir d'la neige dans les yeux.",
      "EUit": "Se lo stai usando, si vede che ti\npiace. Oppure vuoi solo ripararti\ndalla neve, ?",
      "EUnl": "En, is het wat? Je maakt er gebruik\nvan, dus vast wel? De sneeuw blijft\ntenminste uit je ogen, (catchphrase).",
      "EUru": "Тебе нравится? Явно да, раз ты его\nиспользуешь.\nИли ты просто не хочешь, чтобы\nтебя завалило снегом...\n(catchphrase)!",
      "JPja": "雪の日の　お散歩にピッタリだろ？\n活用してくれて　ウチも嬉しいよ！　",
      "KRko": "눈 오는 날 산책할 때 딱이지?\n잘 써주니까 나도 기쁘다! !",
      "TWzh": "這正好適合在雪中散步時用吧？\n你能夠活用方程式，我也很開心！。",
      "USen": "You like it? You're usin' it, so I guess\nso. Or you just wanna keep the snow\nout of your eyes, (catchphrase).",
      "USes": "No me vas a decir que no es útil:\n¡puedes corretear por la nieve sin\nacabar empapado!",
      "USfr": "Tu dois bien l'aimer pour l'exhiber\ncomme ça. Ou alors c'est que t'aimes\npas avoir d'la neige dans les yeux."
    }
  },
  {
    "label": "012_04",
    "attribute": "0x0000000000000000",
    "locale": {
      "CNzh": "不仅仅是下雨天，\n晴天也可以用它来遮阳，\n是不是很棒？。",
      "EUde": "Musst 'nen mächtigen Regenschirm-\nSpleen haben, wenn du um die\nUhrzeit so durch die Gegend stapfst.\nEy, das war keine Kritik!\nMein Motto is': „Leben und leben\nlassen.“ Weißte doch, (Floskel).",
      "EUen": "You must REALLY like it to be usin' it\nthis late. Hey, I ain't gonna judge.\nYou do you, (catchphrase).",
      "EUes": "Te protege del sol, de la lluvia... ¿y\nde la mirada cotilla de las estrellas?\nQue yo no te juzgo, ¿eh, majo? Tú\ncorretea con él tan alegremente,\n.",
      "EUfr": "Tu dois en être super fier pour\nte trimballer avec même la nuit.\nÀ moins que t'aies peur de ramasser\nune étoile filante sur le coin du nez !",
      "EUit": "Deve davvero piacerti tanto se lo usi\nanche con il sereno. Io non giudico,\nfai pure come ti pare, .",
      "EUnl": "Kannonnen, je krijgt er echt geen\ngenoeg van, zeg. Maar hé, doe\ngewoon je ding. Oké, (catchphrase)?",
      "EUru": "Тебе видимо очень нравится этот\nзонт, если ты ходишь с ним\nдаже поздней ночью.\nНичего не имею против! Делай то,\nчто считаешь нужным!\n(catchphrase)!",
      "JPja": "雨の日だけじゃなくて\n晴れた日なんかは　日よけにもなるし、\nなかなか　いいもんだろ？　",
      "KRko": "꼭 비가 오지 않더라도\n맑은 날에는 양산으로 쓸 수도 있고\n괜찮지? ?",
      "TWzh": "這傘不僅雨天可以用，\n晴天還能拿來遮陽，\n很不錯吧？。",
      "USen": "You must REALLY like it to be usin' it\nthis late. Hey, I ain't gonna judge.\nYou do you, (catchphrase).",
      "USes": "Te protege del sol, de la lluvia... ¿y\nde la mirada de los enemigos?\nBueno, aunque tú no necesitas ese\núltimo tipo de protección... ¡Aquí\ntodos son tus amigos!",
      "USfr": "Tu dois en être super fier pour\nte trimballer avec même la nuit.\nÀ moins que t'aies peur de ramasser\nune étoile filante sur le coin du nez!"
    }
  }
]