﻿[
  {
    "label": "002",
    "attribute": "0x00000000",
    "locale": {
      "CNzh": "(player name)，\n打造别墅的时候，承蒙你照顾了～\n你为我花了这么多精力，\n所以我特意给你准备了一份谢礼！\n请不要客气，收下吧。",
      "EUde": "Jou! Vielen Dank für das Ferienhaus.\nIch fühle mich hier wie ein Fisch im\nWasser, njuk njuk!\nUm mich zu bedanken, habe ich auch\neine Kleinigkeit für dich besorgt...\nHoffentlich gefällt sie dir!",
      "EUen": "Well, I'm sure impressed with my\nvacation home. I can't stop admiring\nhow much thought you put into it!\nAnyway, I got you something. It's\njust my way of saying thanks!",
      "EUes": "¡Mi casa de vacaciones me deja más\nimpresionado que una perca de\nveinte kilos, ñuk! Y todo gracias a ti.\nPor eso, ¡te tengo un detalle para\nque veas que aprecio mucho el gran\nesfuerzo que has hecho!",
      "EUfr": "La villa de vacances que tu m'as\nconcoctée est vraiment une perle,\nniouk niouk !\nTu as donc bien mérité un petit\ncadeau. Rassure-toi, ce n'est pas un\nvieux poisson dont je ne veux pas.",
      "EUit": "Beh, devo dire che la mia casa\nvacanze è incredibile. Ammiro\nl'impegno che ci hai messo!\nComunque, ti ho preso una cosa.\nÈ il mio modo di dirti grazie!",
      "EUnl": "Nou, ik ben ontzettend onder de\nindruk van mijn vakantiehuis. Het\nvakmanschap spat ervan af!\nOm je te bedanken heb ik een\nkleinigheidje voor je... Hopelijk\nvalt het bij je in de smaak!",
      "EUru": "Дача моя вышла на славу. Ты там\nвсе так хорошо продумал!\nУ меня тут есть для тебя одна\nмелочь — в благодарность за\nработу.",
      "JPja": "(player name)さん、\n別荘づくりで　お世話になったね～\nすごく　がんばってくれたから\nちゃんと　お礼しなくっちゃって思ってね！\nよかったら　もらってくれるかな？",
      "KRko": "(player name)님,\n지난번에는 신세 많이 졌어～\n내 별장을 그렇게나 열심히 만들어줬으니까\n당신한테 뭔가 보답을 하고 싶어서 말이야!\n괜찮으면 이걸 받아주겠어?",
      "TWzh": "(player name)，\n打造別墅的事，真是受你關照啦～\n我想送一份禮物\n來答謝這麼努力的你！\n你現在方便收下它嗎？",
      "USen": "Well, I'm sure impressed with my\nvacation home. I can't stop admiring\nhow much thought you put into it!\nAnyway, I got you something. It's\njust my way of saying thanks!",
      "USes": "¡Mi casa de vacaciones me deja más\nimpresionado que una perca de\nveinte kilos, ñuk! Y todo gracias a ti.\nPor eso, ¡te tengo un regalo para\nque veas que aprecio mucho el gran\nesfuerzo que has hecho!",
      "USfr": "La villa de vacances que tu m'as\nconcoctée est vraiment une perle,\nniouk niouk!\nTu as donc bien mérité un petit\ncadeau. Rassure-toi, ce n'est pas un\nvieux poisson dont je ne veux pas."
    }
  },
  {
    "label": "002_001",
    "attribute": "0x00000000",
    "locale": {
      "CNzh": "这是～！\n这个非常不错的，你也用用看吧。\n吸溜，吸溜溜。",
      "EUde": "Es handelt sich um  !\nSo  habe ich auch in meinem\nFerienhaus, darum sollst du nicht\nzu kurz kommen!",
      "EUen": "!\nMine's so nice I decided you oughta\nhave your own! Nyuuuk, nyuk, nyuk!",
      "EUes": "¡!\n mí me gusta tanto que he decido\nque tú deberías tener otr igual,\n¡ñuk, ñuk, ñuk!",
      "EUfr": ", eh oui, niouk niouk !",
      "EUit": "!\n è così bell che ho deciso\nche devi averne un anche tu!\nNiuuuk, niuk, niuk!",
      "EUnl": "!\n zo'n succes dat je er\nzelf vast ook wel iets aan hebt!\nNjuk, njuk, njuk!",
      "EUru": "Это !\nУ меня такой же есть. Я его так\nлюблю, что не мог не поделиться\nрадостью. Хе-хе-хе!",
      "JPja": "で～す！\nすごく良かったから　おたくもどうぞ！\nズビ、ズビビ",
      "KRko": "이야～!\n엄청 좋길래 당신도 한번 써보라구～\n뇨홍, 뇨홍홍!",
      "TWzh": "這是～！\n我覺得這東西很不錯，你也用用看吧。\n吸～吸吸～",
      "USen": "!\nMine's so nice I decided you oughta\nhave your own! Nyuuuk, nyuk, nyuk!",
      "USes": "¡!\n mí me gusta tanto que quise\nque tuvieras un igual, ¡ñuk, ñuk, ñuk!",
      "USfr": ", eh oui, niouk niouk!"
    }
  },
  {
    "label": "002_002",
    "attribute": "0x00000000",
    "locale": {
      "CNzh": "诶呀？你的口袋满了，\n拿不下这个了～\n那你就之后再来找我拿吧！",
      "EUde": "Oh, warte mal, deine Tasche ist leider\nvoll. Dann bleibt dein Geschenk wohl\nvorerst bei mir...\nAber hol es dir bitte ab, sobald du\nein wenig Platz im Setzkescher hast!",
      "EUen": "Whoops! Your pockets are full! That's\na very non-gravy situation you've got\ngoing on. Nyuk, nyuk!\nThat's no problem! Just go clear\na little room and come on back.",
      "EUes": "¡Ñuk, tienes los bolsillos llenos!\nNi aunque fuera de peces me\nalegraría; no te cabe nada más.\n¡Pero no hay problema! Vacíalos\nun poco y vuelve aquí para que\npueda darte mi regalo, ñuk.",
      "EUfr": "Mais... tes poches sont pleines\ncomme des huîtres ! Si tu veux ton\ncadeau, il va falloir faire de la place.",
      "EUit": "Ooops! Hai le tasche piene! Peggio\ndi una scatola di sardine. Niuk, niuk!\nMa non è un problema! Vai a fare\nun po' di spazio e torna qui.",
      "EUnl": "Oeps! Je zakken zijn voller dan een\nblik sardientjes! Njuk, njuk, njuk!\nMaar geen probleem! Kom gewoon\nstraks weer terug wanneer je je fuik\ngelicht hebt!",
      "EUru": "Охохонюшки! Набитые карманы!\nВ таких и малек из пруда не\nпоместится. Хе-хе!\nНо мы эту проблему живо решим!\nОсвободи место и возвращайся.",
      "JPja": "あれあれ？\nポケットがいっぱいで　持てないね～\nそれじゃ　またあとで　取りに来てよ！",
      "KRko": "어라라? 주머니가 가득해서\n넣을 곳이 없나보네～\n그럼 다음에 다시 받으러 와!",
      "TWzh": "哎呀哎呀？你的口袋裝得太滿，\n所以拿不動嗎～？\n那就請你之後再來找我拿吧！",
      "USen": "Whoops! Your pockets are full! That's\na very non-gravy situation you've got\ngoing on. Nyuk, nyuk!\nThat's no problem! Just go clear\na little room and come on back.",
      "USes": "¡Ñuk, tienes los bolsillos llenos!\nNi aunque fuera de peces me\nalegraría; no te cabe nada más.\n¡Pero no hay problema! Vacíalos\nun poco y vuelve aquí para que\nte pueda dar mi regalo, ñuk.",
      "USfr": "Mais... tes poches sont pleines\ncomme des huîtres! Si tu veux ton\ncadeau, il va falloir faire de la place."
    }
  },
  {
    "label": "002_003",
    "attribute": "0x00000000",
    "locale": {
      "CNzh": "啊！你的随身物品整理好了？\n那么，\n请收下我的谢礼吧。",
      "EUde": "Jou, jetzt scheinst du wieder Platz\nin deiner Kühlbox zu haben, also\nbekommst du auch dein Geschenk!",
      "EUen": "Lightened your load a bit, huh?\nHere's what I wanted to give you.",
      "EUes": "Parece que ya has descargado peso\nun poco, ¿ñuk? Aquí tienes lo que\nquería darte.",
      "EUfr": "Alors, tu as fait de la place dans tes\npoches ? Parfait, je vais pouvoir te\nremettre ton cadeau, niouk niouk.",
      "EUit": "Hai scaricato quelle sardine, eh?\nEcco il regalo che volevo darti.",
      "EUnl": "Jij komt je net weer uitwerpen?\nMooi zo! Hier heb je je cadeautje.",
      "EUru": "Полегче стало? Тогда держи\nподарок.",
      "JPja": "荷物、持てるようになったの？\nそれじゃ　おいらからのお礼、\nもらってくれるかな？",
      "KRko": "오오! 주머니를 정리하고 온 거야?\n그럼 내가 주는 선물을 받아줘!",
      "TWzh": "哦！你的包包已經裝得下了嗎？\n那麼你現在方便收下\n我準備的謝禮嗎？",
      "USen": "Lightened your load a bit, huh?\nHere's what I wanted to give you.",
      "USes": "Parece que ya has descargado un\npoco de peso, ¿ñuk? Aquí tienes\nlo que quería darte.",
      "USfr": "Alors, tu as fait de la place dans tes\npoches? Parfait, je vais pouvoir te\nremettre ton cadeau, niouk niouk."
    }
  }
]