﻿[
  {
    "label": "001",
    "attribute": "0x0000000000000000",
    "locale": {
      "CNzh": "喂，很疼啊！\n！\n但如果是你……\n被你打击一下也无妨哦？\n讲笑啦，哈哈！！",
      "EUde": "Hey! Was sollte das denn?\nWenn du mich schlägst, warn mich\nwenigstens vorher. Oder, besser\nnoch... Schlag mich einfach nicht!",
      "EUen": "Whoa! What was that?\nIf you're gonna hit me, at least\ngive me a heads-up. Or, y'know...\njust DON'T hit me!",
      "EUes": "¡Oooye! ¿A qué viene ese golpe\na traición?\nPodrías avisarme antes para no\ndarme esos sustos. O mejor aún...\n¡no me pegues!",
      "EUfr": "Eh ! Qu'est-ce qui se passe ?\nSi tu veux me cogner, préviens-moi\navant... Ou mieux... va cogner\nailleurs si j'y suis !",
      "EUit": "Che dolooor! Perché questo colpo\na tradimento?\nAlmeno avvertimi prima di fare\nqueste cose. O meglio ancora...\nNon colpirmi, (catchphrase)!",
      "EUnl": "Hola! Wat was dat?\nAls je me zo nodig een klap wilt\ngeven, waarschuw me dan eerst\neven. Of... sla me gewoon NIET!",
      "EUru": "Эй! Это еще что такое?\nЕсли вдруг соберешься ударить,\nто хоть предупреждай! А лучше...\nвообще не надо меня бить!",
      "JPja": "ちょ、痛いよ！　\n！\nでも、キミになら・・・\n叩かれてもいいかな？\nなんてね、ハッハ－！",
      "KRko": "아! 아프다구!\n군, !\n그래도 상대가 그대라면...\n맞아줄 수도 있어, \n그냥 그렇다구, 하핫!",
      "TWzh": "慢著，很痛啦！　\n！\n不過如果是你出手……\n或許挨打也不錯？。\n說笑的啦，哈哈！",
      "USen": "Whoa! What was that?\nIf you're gonna hit me, at least\ngive me a heads-up. Or, y'know...\njust DON'T hit me!",
      "USes": "¡Oooyeee! ¿A qué viene ese golpe?\nSi me vas a golpear, por lo menos\navísame con anticipación. O mejor\ntodavía... ¡no me golpees!",
      "USfr": "Eh! Qu'est-ce qui se passe?\nSi tu veux me cogner, préviens-moi\navant... Ou mieux... va cogner\nailleurs si j'y suis!"
    }
  },
  {
    "label": "002",
    "attribute": "0x0000000000000000",
    "locale": {
      "CNzh": "稍等一下！\n这是……你表现爱的方式吗？\n那个……即便如此，\n很痛呀，希望你能停手。。",
      "EUde": "Was war das denn, (Floskel)?!\nDu ruinierst meine Frisur! Und den\nRest von mir auch!",
      "EUen": "(catchphrase)! What was that?!\nYou're gonna mess up my hair\nand, like, my body!",
      "EUes": "¡(catchphrase)! ¿Te parece bonito\npegarme de esa forma?\n¿Así me agradeces todas las\nrecomendaciones de discos que\nte he hecho desde que te conozco?",
      "EUfr": "(expression) ! C'était quoi, ça ?\nTu vas démolir le savant agencement\nde ma coupe dernier cri... et en plus,\ntu risques de me faire mal !",
      "EUit": "Ma che ti piglia, (catchphrase)?!\nNon vorrai mica rovinare la mia\ncapigliatura da favola, vero?\nE poi rischi anche di farmi male!",
      "EUnl": "(catchphrase)! Wat was dat?!\nMijn hele haar raakt door de war zo!\nGa lekker iemand anders vervelen!",
      "EUru": "(catchphrase)! Как ты смеешь?!\nЯ все утро трудился над своей\nпрической, а ты!..",
      "JPja": "ちょっと　待った！\nこれは・・・キミの　愛情表現なのかな？\nあの・・・だったとしても、\n痛いから　やめてほしいんだけど、",
      "KRko": "잠깐 스톱!\n이건... 그대의 애정 표현인가?\n혹시... 그렇더라도\n아프니까 그만두지 않겠어? ...",
      "TWzh": "你等一下！\n這是……你表達親近的方式嗎？\n不過……即使是這樣，\n我也希望你停手，因為會痛，。",
      "USen": "(catchphrase)! What was that?!\nYou're gonna mess up my hair\nand, like, my body!",
      "USes": "¡(catchphrase)! ¿Te parece bonito\npegarme de esa forma?\n¿Así me agradeces todas las\nrecomendaciones de discos que\nte hice desde que te conozco?",
      "USfr": "(expression)! Pourquoi t'as fait ça?\nTu vas complètement ruiner ma\ncoupe de cheveux... sans parler\nde mon intégrité physique!"
    }
  },
  {
    "label": "003",
    "attribute": "0x0000000000000000",
    "locale": {
      "CNzh": "喂，能不能停手？\n如果你有话想说，\n我希望能得到绅士般的应对啊……",
      "EUde": "Könntest du das lassen?\nKommuniziere mit Worten,\n(Spitzname)!",
      "EUen": "Uh, can you NOT right now?\nUse your words, (nickname)!",
      "EUes": "Te lo diré «parafraseando» a mi\nbloguero favorito: ¡PARA de\nhacer eso!",
      "EUfr": "Euh... Tu pourrais te calmer un poil ?\nSi t'as quelque chose à dire, utilise\nta bouche, (surnom) !",
      "EUit": "Ehm, ti daresti una calmata? Tipo\nsubito? Se devi dirmes qualcosa,\nfallo a parole, (nickname)!",
      "EUnl": "Eh, kun je dat laten? Als je aandacht\nwilt, kun je ook gewoon woorden\ngebruiken, (nickname)!",
      "EUru": "Ох, ну зачем же сразу лупить,\n(nickname)?! Ты что,\nговорить разучился?! Фи!",
      "JPja": "ちょっと　やめてくれないか？\n何か言いたいことがあるなら\n紳士的に　対応してほしかったな・・・",
      "KRko": "이제 그만 좀 하지, ?\n하고 싶은 말이 있다면\n말로 해도 되잖아, ?",
      "TWzh": "你可以住手了嗎？\n要是有話想說的話，\n我希望你拿出紳士的態度來應對……",
      "USen": "Uh, can you NOT right now?\nUse your words, (nickname)!",
      "USes": "Ey, ¡PARA de hacer eso!\n¡Que con palabras te entiendo,\n(nickname)!",
      "USfr": "Euh... Tu pourrais te calmer un peu?\nSi t'as un message à faire passer,\nutilise ta bouche, (surnom)!"
    }
  },
  {
    "label": "004",
    "attribute": "0x0000000000000000",
    "locale": {
      "CNzh": "呵呵呵，，\n区区捕虫网……\n可是没法抓住我的哟！。",
      "EUde": "Ha-HA! Dachtest du etwa, du\nkönntest mich einfangen wie ein\nInsekt? Tja, falsch gedacht!",
      "EUen": "Uh, can you NOT right now?\nUse your words, (nickname)!",
      "EUes": "Je, je. ¿Me has confundido con\nun bicho cualquiera que podrías\natrapar con una simple red?",
      "EUfr": "Euh... Tu pourrais te calmer un poil ?\nSi t'as quelque chose à dire, utilise\nta bouche, (surnom) !",
      "EUit": "Ehm, ti daresti una calmata? Tipo\nsubito? Se devi dirmes qualcosa,\nfallo a parole, (nickname)!",
      "EUnl": "Eh, kun je dat laten? Als je aandacht\nwilt, kun je ook gewoon woorden\ngebruiken, (nickname)!",
      "EUru": "Эй, ты не могла бы без рук?\nИли ты язык проглотила,\n(nickname)!",
      "JPja": "フフフ、\nムシとりあみじゃ・・・\nボクは　つかまえられないよ！　",
      "KRko": "후후후, 군\n잠자리채로는...\n나를 잡을 수 없다구, !",
      "TWzh": "呵呵，，\n用捕蟲網……\n可是抓不到我的喔！。",
      "USen": "Uh, can you NOT right now?\nUse your words, (nickname)!",
      "USes": "Pues, ¿me has confundido con\nun insecto que tratas de atraparme\ncon una simple red?",
      "USfr": "Euh... Tu pourrais te calmer un peu?\nSi t'as un message à faire passer,\nutilise ta bouche, (surnom)!"
    }
  },
  {
    "label": "005",
    "attribute": "0x0000000000000000",
    "locale": {
      "CNzh": "我对这种事，\n并不喜欢啊……。",
      "EUde": "Hey, ich bin da kein Freund von.\nKannst du das bitte bleiben lassen?",
      "EUen": "Hey, I'm not really a fan of that.\nCan you knock it off?",
      "EUes": "No me hace ninguna gracia eso que\nhaces. Entiendo tu obsesión por mí,\npero déjalo, por favor.",
      "EUfr": "Ça va pas, la tête ? Si tu veux un\nautographe, tu peux me le demander\ngentiment !",
      "EUit": "Ehi, dacci un taglio, OK? A quello\nche stai facendo, eh... non ai miei\ncapelli, por favor.",
      "EUnl": "Hé, daar word ik niet echt blij van.\nKun je ermee ophouden?",
      "EUru": "Я опечален твоими действиями.\nПерестань, пожалуйста!",
      "JPja": "ボク、こういうのが　スキってわけじゃ\nないんだけど・・・、",
      "KRko": "나 딱히...\n이런 취미는 없는데, ...",
      "TWzh": "老實說，我並不喜歡\n這種行為呢……。",
      "USen": "Hey, I'm not really a fan of that.\nCan you knock it off?",
      "USes": "No me hace ninguna gracia eso que\nhiciste. Entiendo tu obsesión por mí,\npero ya basta, por favor.",
      "USfr": "Mais? Si tu veux un autographe,\nil suffit de me le demander\ngentiment!"
    }
  },
  {
    "label": "006",
    "attribute": "0x0000000000000000",
    "locale": {
      "CNzh": "被打击了好多次……\n我看起来像很舒服的样子吗？。\n要是你这么认为，那就误会我啦！\n！",
      "EUde": "Hast du  im Kopf?\nLASS DAS!\nIch mag das nicht! Niemand mag das!\nSuch dir ein anderes Hobby!\nUnglaublich, (Floskel)...",
      "EUen": "Sweet sassy ...\nSTOP THAT!\nI don't like it! I never will!\nGet a new hobby or something!\nYeesh...",
      "EUes": "¿Te lo tengo que repetir?\n¡PARA YA!\n¡No me gusta que hagas eso!\n¡No lo repitas! Búscate otra\nafición, anda...",
      "EUfr": "T'as  dans la caboche, ou quoi ? Arrête ça tout de suite !\nJe sais pas... Trouve-toi un autre\npasse-temps... ou au moins un autre\npunching-ball, (expression) !",
      "EUit": "Ti è andato \ndi traverso, per caso?\nSmettila!\nNon me gusta che tu faccia così!\nTrovati un altro pasatiempo!\nMa guarda te...",
      "EUnl": " ... STOP DAARMEE!\nIk vind het niet leuk! En dat zal\nnooit veranderen! Ga lekker op zoek\nnaar een andere hobby! Tjee...",
      "EUru": "Во имя ...\nПрекрати!\nМне это не нравится! И не\nпонравится! Придумай себе другое\nхобби! Драться уже не модно...",
      "JPja": "何度も　叩かれて・・・\nキモチよさそうに　見えたかい？　\nだとしたら　誤解だよ！\n！",
      "KRko": "몇 번이나 맞는 걸...\n좋아하는 것처럼 보였나, ?\n그건 터무니없는 오해라구!\n군!",
      "TWzh": "你覺得我看起來……\n像在享受挨打嗎？。\n！\n如果你這麼想的話，那就是天大的誤會了！",
      "USen": "Sweet sassy ...\nSTOP THAT!\nI don't like it! I never will!\nGet a new hobby or something!\nYeesh...",
      "USes": "¿Te lo tengo que repetir?\n¡BASTA DE HACER ESO!\n¡No me gusta! ¡No lo vuelvas\na hacer! Búscate otro pasatiempo...",
      "USfr": "T'as  dans la caboche, ou quoi? Arrête ça tout de suite!\nJe sais pas... Trouve-toi un autre\npasse-temps... ou au moins un autre\npasse-nerfs, (expression)!"
    }
  }
]