﻿[
  {
    "label": "001",
    "attribute": "0x00000013",
    "locale": {
      "CNzh": "哈喽！我是(resident name)。\n你是哪位？\n哦！是(player name)！\n感谢你一直以来的关照！\n呃，或许没关照过……\n那么，找我有什么事吗？",
      "EUde": "Ahoi! Hier ist (Einwohnername).\nWer ist da? Was? Bist du dieser Kredithai?\nAch, du bist es, (Spielername)!\nUff. Dachte schon, ich müsste wieder\nuntertauchen.\nSchön, von dir zu hören! \nAlso, alles in Butter auf dem Kutter?\nBrauchst du was?",
      "EUen": "Ahoy there! (resident name) here.\nWho's this? Wait. Are you that loan shark?\nOh! It's you, (player name)!\nPhew. Thought I'd have to go off the grid again.\nWell, good to hear from you!\nSo, what's the scuttlebutt?\nDid you need something?",
      "EUes": "¡Ah del barco! (resident name) al habla. ¿Quién es? A ver qué me quieren vender ahora.\n¡Ah, eres tú, (player name)! Menos mal... Ya me temía esa chapa de que si quiero pagar menos por el seguro del barco.\n¡Me alegro de oírte!\nDime, ¿qué te cuentas?",
      "EUfr": "Oui, allô ? (nom du résident) à l'appareil. À qui ai-je affaire ? Un instant. Si c'est la banque, je suis pas là...\nAh, (nom du joueur) ! Tu m'as fait peur. J'ai un petit découvert sur mon compte, tu vois, et, enfin...\nJe suis content de t'entendre !\nDis-moi tout. Je peux faire quelque\nchose pour toi ?",
      "EUit": "Pronto?! Qui è (resident name).\nChi parla? Aspetta... Non sarà mica quello\nsqualo della banca...?\nOh! Sei tu, (player name)! Qual\nbuon vento! Così non devo spiccare di nuovo\nil volo.\nFelice di sentirti! Dimmi pure.\nPosso fare qualcosa per te?",
      "EUnl": "Ahoi! Dit is (resident name). Wie is dit? Wacht. Ben jij die piraat van wie ik een zak klingels heb geleend?\nO! Jij bent het, (player name)! Gelukkig. Ik dacht dat ik weer onder de radar moest blijven.\nFijn om van je te horen! Maar wat\nwil je me vertellen? Steek van wal,\nlandrot!",
      "EUru": "Привет сухопутным! (resident name)\nна связи! Ой, ты кто? Погоди...\nТы не из судовой инспекции?\nА, это ты, (player name)! Уф.\nЯ уж думал, опять отговорки придумывать\nпридется.\nРад видеть! Что стряслось?\nТы что-то хотел?",
      "JPja": "ハロー！　ワタシは　(resident name)デス\nアナタは　ドナタさんデスカ？\nOh!　(player name)さんデスカ！\nそのセツは　タイヘンおせわに　なりました！\nま、なってないカモ　しれマセンが・・・\nで、ゴヨウケンは　なんデスカ？",
      "KRko": "헬로! 저는 (resident name)입니다\n당신은 누구시죠?\nOh! (player name)님이군요!\n지난번엔 신세를 많이 졌습니다!\n지지 않았을지도 모릅니다만...\n그런데 무슨 일입니까?",
      "TWzh": "哈囉！我是(resident name)。\n你是哪位？\nOh！是(player name)！\n那個時候，謝謝你照顧了！\n呃，或許也沒有照顧啦……\n對了，找我有什麼事嗎？",
      "USen": "Ahoy there! (resident name) here.\nWho's this? Wait. Are you that loan shark?\nOh! It's you, (player name)!\nPhew. Thought I'd have to go off the grid again.\nWell, good to hear from you!\nSo, what's the scuttlebutt?\nDid you need something?",
      "USes": "¡Ah del barco! (resident name) al habla. ¿Quién es? A ver qué me quieren vender ahora.\n¡Ah, eres tú, (player name)! Menos mal... Ya me temía ese sermón de que\nsi quiero pagar menos por mi seguro del barco.\n¡Me alegro de oírte! Gracias por toda\ntu ayuda cuando estuve en tu isla.\nDime, ¿en qué te puedo ayudar?",
      "USfr": "Oui, allô? (nom du résident) à l'appareil. À qui ai-je affaire? Un instant. Si c'est la banque, je suis pas là...\nAh, (nom du joueur)! Tu m'as fait peur. J'ai un petit découvert sur mon compte, tu vois, et, enfin...\nJe suis content de t'entendre!\nDis-moi tout. Je peux faire\nquelque chose pour toi?"
    }
  },
  {
    "label": "002",
    "attribute": "0x00000013",
    "locale": {
      "CNzh": "呀！露营！\n听起来很酷啊！\n好像很有趣的样子！\n不过！真的很可惜，\n我应该去不了……\n虽然一直都没和你说过，\n但其实我正身在暴风雨之中，\n感觉又要遭遇船难了哦！\n我和你或许\n今后没法再次见面……\n哦——天哪！\n我的船～～～！\n那么，抱歉了……\n咔嗒……嘟——嘟——嘟——",
      "EUde": "Aye, aye, Kapitän! Klingt gut!\nLass uns die Einzelheiten be--\nHallo? Hallo? Hörst du auch dieses\nRauschen? Beim Klabautermann,\njetzt höre ich gar nichts mehr...\nHALLO? HALLOOOO?\nDieser vermaledeite Fernsprecher!\nKlick! Tut, tut, tut...",
      "EUen": "Aye aye! Camping! Sounds\nlike tons o' fun.\nWhat's that you said? You hear that\ncrackling noise? It's my phone.\nYou're cutting out...\nHELLO? HELLLOOOO?\nI CAN'T HEAR YOU!\nSheesh. This thing is always on the fritz.\nClick! Beep, beep, beep...",
      "EUes": "¡Rayos! Suena muy... ¿bien?\nLo que pasa es que ando muy liado...\nNo quería decir nada, pero estoy...\n¡en medio de una terrible tormenta!\nSí, eso es, una tormenta... ¡Podría\nnaufragar en cualquier momento!\nQuizás no volvamos a vern...\n¡Por el kraken!\n¡Mi baaarco!\nTengo que cortar...\n(¡Clic! Bip, bip, bip...)",
      "EUfr": "Ha ha, du camping ! Quelle bonne idée ! Bien sûr que je suis partant !\nHein ? Qu'est-ce que tu dis ? Il y a de la friture, j'entends mal. \nTu es toujours là ? Nom d'une quille,\nla technologie, je vous jure...\nALLÔ ? ALLÔÔÔÔ ?\nJE T'ENTENDS PLUS !\nPfff, ce truc ne marche jamais quand on a\nbesoin de lui.\nClic ! Bip, bip, bip...",
      "EUit": "Sì? Campeggio, eh? Sembra una\ncosa divertente.\nCome dici? Senti qualcosa che\ngracchia? È il mio telefono. La linea\nsta naufragando...\nPRONTO? PRONTOOO?\nNON TI SENTO!\nUff. Quest'affare fa sempre le bizze.\nClick! Biiip, biiip, biiip...",
      "EUnl": "Aye-aye, kapitein! Dat klinkt\ngeweldig!\nWat zeg je? Hoor je ook zo'n\ngekraak? Volgens mij is het mijn\nmobieltje. Ik hoor je niet...\nHALLO? HALLLOOOO?\nKUN JE ME HOREN?\nJeetje. Dit ding doet het ook nooit.\nKlik! Tuut, tuut, tuut...",
      "EUru": "Есть, капитан! Кемпинг —\nэто отличная идея!\nЧто ты говоришь? Кто хрипит?\nЭто мой телефон. Связь плохая...\nАЛЛО? АЛЛО, ГОВОРЮ!\nНЕ СЛЫШУ НИЧЕГО!\nТрап мне в клюв! Сплошные помехи!\nКлик! Пи-и-ип... пи-и-ип...\nпи-и-ип... пи-и-ип...",
      "JPja": "Yah!　キャンピング！\nサウンズ　グレート！\nとても　たのしそうデスネ！\nBut!　しかし　ザンネンながら\nそちらには　いけそうにありマセン・・・\nいままで　だまっていたのデスが\nじつはいま　アラシの　マッタダナカで、\nいまにも　そうなん　しそうなんデスヨ！\nもう　アナタとは　2どと\nあえないカモ　しれ・・・\nオー　マイ　ゴーッシュ！\nワタシの　フネが～～～！\nで　は　シ　ツ　レ　イ　い　た　し　ま　す　・　・　・\nプチッ・・・　ツー　ツー　ツー",
      "KRko": "Wow! 캠핑!\n잇 사운즈 그레이트!\n몹시 기대됩니다!\nBut! 하지만 아쉽게도\n저는 그곳에 갈 수 없습니다...\n끝까지 숨기려고 했지만\n사실 지금 이곳은 폭풍의 한가운데입니다!\n당장이라도 조난을 당할 것 같습니다!\n이제 당신과는 두 번 다시\n만나지 못할지도 모...\n오 마이 갓!\n내 배가～～～!\n그　럼　이　만　실　례　하　겠　습　니　다...\n뚝... 뚜－ 뚜－ 뚜－",
      "TWzh": "Yah！露營！\n聽起來不錯！\n好像很有趣的樣子！\nBut！真可惜，\n我可能去不了你那裡……\n我一直沒跟你說，\n其實我正處在暴風雨之中，\n現在我好像又要遭遇船難了！\n搞不好我\n再也見不到你了……\nOh My Gosh！\n我的船～～～！\n那 就 先 這 樣 了 ……\n喀擦……嗶——嗶——嗶——",
      "USen": "Aye aye! Camping! Sounds\nlike tons o' fun.\nWhat's that you said? You hear that\ncrackling noise? It's my phone.\nYou're cutting out...\nHELLO? HELLLOOOO?\nI CAN'T HEAR YOU!\nSheesh. This thing is always on the fritz.\nClick! Beep, beep, beep...",
      "USes": "¡Rayos! Suena muy... ¿bien?\nLo que pasa es que estoy ocupado...\nNo quería decir nada, pero estoy...\n¡en medio de una terrible tormenta!\nSí, eso es, una tormenta... ¡Podría\nnaufragar en cualquier momento!\nQuizás no volvamos a vern...\n¡Por el kraken!\n¡Mi baaarco!\nTengo que dejarte...\n(¡Clic! Bip, bip, bip...).",
      "USfr": "Ha ha, du camping! Quelle bonne idée! Bien sûr que je suis partant!\nHein? Qu'est-ce que tu dis? Ça griche, j'entends mal. \nTu es toujours là? Nom d'une quille,\nla technologie, je vous jure...\nALLÔ? ALLÔÔÔÔ?\nJE T'ENTENDS PLUS!\nPfff, ce truc ne marche jamais quand on a\nbesoin de lui.\nClic! Bip, bip, bip..."
    }
  },
  {
    "label": "101",
    "attribute": "0x00000013",
    "locale": {
      "CNzh": "嗯呀嗯呀……哈喽……\n我是潇洒的水手(resident name)。\n……唔，别墅？！\n啊！是作为我的第二个住处吧！\n……哇!\n你会筹备所有事项吗？！\n那我现在就去找你！",
      "EUde": "Schmatz, schmatz, schmatz... Nur\nnoch zehn Minuten...\nHuh?! Oh, hallo!\nHier ist (Einwohnername), meines Zeichens Seevogel.\nEin Ferienhaus? Das ist wie eine\nKajüte an Land, ja? Und du willst es\nsogar für mich herrichten?\nKlingt großartig! Das muss ich den\nanderen erzählen. Sie fragen neuer-\ndings oft, wann ich Urlaub mache.",
      "EUen": "Nyam nyam nyam... Just ten more\nminutes... Huh?! Oh, hi! This is\n(resident name), gull of the sea.\nA vacation home? That's like a ship's\ncabin but on land, right? And you say\nyou'll even outfit it for me?\nThat sounds great! Wait'll I tell the\nothers. They've been asking about\nmy vacation plans a lot lately.",
      "EUes": "Zzz... Fiu... Solo diez minutitos más...\n¡Ah, hola! Aquí (resident name), intrépido navegante de mares varios.\n¿Una casa de vacaciones? Como\nun camarote pero en tierra, ¿no?\nY dices que tú te ocupas de todo...\n¡Me parece una gran idea! Ya verás\ncuando se lo cuente a mi tripulación.\n¡Se pondrán verdes de la envidia!",
      "EUfr": "Zzz... Gnam, gnam... Hein ?!\nOh, salut ! Ici (nom du résident), mouette des sept mers.\nU-Une maison de vacances ? Comme\nune cabine, mais sur la terre ferme ?\nEt tu t'occupes de l'aménager ?\nC'est prodigieux ! Les autres vont\nfaire une de ces têtes quand je vais\nle leur raconter...\nIls demandent toujours si j'ai des\nplans pour les vacances.",
      "EUit": "Gnuuu, gnuuu, gnuuu... Ancora\ncinque minuti... Eh?! Oh, ciao! Sono\n(resident name) dei sette mari.\nUna casa vacanze? Cioè una cabina\ndi una nave, ma su terra? E me la\nvuoi pure decorare?\nPer tutte le ancore, mi piace! Devo\navvertire la mia ciurma. Sai, vogliono\nsapere cosa farò per le vacanze.",
      "EUnl": "Nom-nom-nom... Tien minuutjes,\nmomentje... Hm? O, hallo daar! Met\n(resident name), meeuw der zee.\nEen vakantiehuisje? Je bedoelt een\nsoort kajuit maar dan aan land? En\ndat ga jij voor me in orde maken?\nIk ben overstag! Dan kan ik ook eens\nzeggen dat ik vakantieplannen hebt.",
      "EUru": "Хр-р-р... мня-мня... Ну еще десять\nминуток... А?! Ой, привет! Вольная\nчайка (resident name) слушает!\nДача? Это как каюта, но на суше,\nверно? И ты ее даже обустроишь?\nЗвучит отлично! Вот команда\nобрадуется! А то они все про мои\nпланы на отпуск спрашивают.",
      "JPja": "ムニャムニャ・・・　ハロー・・・\nイキなすいへいさん、(resident name)デース\n・・・Hummm　ベッソウ？！\nAh!　セカンドハウスのことデスネ\nWow!　アナタが　ぜんぶ\nオゼンをタテテ　くれるのデスか？！\nだったら　イマすぐ　いきマース！",
      "KRko": "흠냐흠냐... 헬로...\n멋쟁이 선원 (resident name)입니다\nHummm... 별장?!\nAh! 세컨드 하우스를 말씀하시는 거군요\nWow! 당신이 전부\n맡아서 해주시는 겁니까?!\n그렇다면 당장 가겠습니다!",
      "TWzh": "滴咕滴咕……Hello……\n我是有魅力的水手，(resident name)～\nHummm……別墅！？\nAh!意思是要幫我蓋第二個家對吧。\nWow!你會幫我打點好所有事務嗎！？\n那麼我馬上過去找你！",
      "USen": "Nyam nyam nyam... Just ten more\nminutes... Huh?! Oh, hi! This is\n(resident name), gull of the sea.\nA vacation home? That's like a ship's\ncabin but on land, right? And you say\nyou'll even outfit it for me?\nThat sounds great! Wait'll I tell the\nothers. They've been asking about\nmy vacation plans a lot lately.",
      "USes": "Zzz... Fiu... Solo diez minutitos más...\n¡Ah, hola! Aquí (resident name), valiente navegante de bravos mares.\n¿Una casa de vacaciones? Como\nun camarote pero en tierra, ¿no?\nY dices que tú te encargas de todo...\n¡Me parece una gran idea! Ya verás\ncuando se lo cuente a mi tripulación.\n¡Se pondrán verdes de la envidia!",
      "USfr": "Zzz... Gnam, gnam... Hein?!\nOh, salut! Ici (nom du résident), mouette des sept mers.\nU-Une maison de vacances? Comme\nune cabine, mais sur la terre ferme?\nEt tu t'occupes de l'aménager?\nQuelle idée de génie! Je vais dire ça\naux autres. Ils demandent toujours si\nj'ai des plans pour les vacances."
    }
  }
]