﻿[
  {
    "label": "001",
    "attribute": "0x0000000000000000",
    "locale": {
      "CNzh": "然然那儿卖的树苗，\n非常适合用来锻炼肌肉，所以我很喜欢！\n就算长大以后也还是比上的树木矮，\n很适合每天用来做弹跳练习，\n增强自己的弹跳力！。",
      "EUde": "Die Pflanzen, die Gerd verkauft,\nhaben genau die richtige Höhe,\num als Hürde zu dienen.\nOh, sie BETTELN mich geradezu AN,\nüber sie hinwegzuspringen!",
      "EUen": "The saplings Leif sells are the perfect\nheight for hurdle practice. It's almost\nlike they WANT me to jump them!",
      "EUes": "Los árboles jóvenes que vende\nGandulio tienen la altura perfecta\npara saltarlos por encima.\nSi planto unos cuantos podré\nmontarme un circuito de salto\nal árbol.",
      "EUfr": "Les pousses d'arbres que vend\nRacine ont la hauteur parfaite pour\nmon entraînement de saut de haies.\nC'est comme si elles n'attendaient\nque ça !",
      "EUit": "I germogli che vende Florindo sono\nperfetti per la corsa a ostacoli.\nSe ne pianto un bel po', potrò\ncreare un circuito perfetto per\ni miei allenamenti.",
      "EUnl": "Die zaailingen die Leif verkoopt,\nhebben de perfecte hoogte om\nals horde te dienen.\nDie groene gastjes SMEKEN er bijna\nom dat ik over ze heen spring!",
      "EUru": "Лейф продает идеальные побеги\nдля бега с препятствиями. Они так\nи называются — побеги!",
      "JPja": "レイジのとこで売ってる　木のなえは\nキントレにピッタリで　お気に入りなんだー！\n大きくなっても　の木よりは高くないから、\n毎日とびこえて　ジャンプ力を上げるのに\nちょーどいいんだよ！　",
      "KRko": "늘봉이가 파는 나무 묘목은\n트레이닝에 딱이라 마음에 쏙 들어－!\n다 자라도 의 나무보단 작으니까\n매일 뛰어넘으면서 점프력을 키우기에\n안성맞춤이라구! !",
      "TWzh": "我很喜歡然然賣的樹苗，\n那非常適合用來健身！\n就算樹苗長大也不會比島上的樹高，\n所以很適合每天跳過它一次，\n用來提升自己的跳躍力喔！。",
      "USen": "The saplings Leif sells are the perfect\nheight for hurdle practice. It's almost\nlike they WANT me to jump them!",
      "USes": "Los árboles jóvenes que vende\nGandulio tienen la altura perfecta\npara saltarles por encima.\nSi pongo unos cuantos podré\nhacer un circuito de carreras\ncon obstáculos.",
      "USfr": "Les pousses d'arbres que vend\nRacine ont la hauteur parfaite pour\nmon entraînement de saut de haies.\nC'est comme si elles n'attendaient\nque ça!"
    }
  },
  {
    "label": "002",
    "attribute": "0x0000000000000000",
    "locale": {
      "CNzh": "你知道吗？\n然然那儿卖的花朵种子，\n好像有无法在这座岛上得到的种类呢！\n如果你对园艺感兴趣，可以去看看哦！\n翻铲泥土也是一种不错的锻炼肌肉的方式，\n从这方面来说我是极力推荐的！。",
      "EUde": "Gerd verkauft exotische Blumen-\nsamen. Wenn du auf dem Gartentrip\nbist, dann schau mal bei ihm vorbei.\nDas ist außerdem eine gute Ausrede,\num im Dreck zu wühlen.\nSchließlich ist das ein ordentliches\nWorkout an der frischen Luft,\n(Floskel)!",
      "EUen": "Leif's selling some real exotic flower\nseeds. If you're into gardening, you\nshould definitely see what he's got.\nPlus it's an excuse to dig in the\ndirt, which is usually a pretty solid\nworkout, (catchphrase)!",
      "EUes": "Gandulio vende semillas de flores\nmuy exóticas. Si te va la jardinería,\ndeberías echarles un vistazo.\n¿Sabes cómo planto yo las flores?\n¡Haciendo sentadillas!\nAyudo a la naturaleza y de paso\nhago ejercicio. ¡Es un dos por uno!",
      "EUfr": "Racine vend des graines de fleurs\nsuper exotiques. Si ton truc, c'est le\njardinage, tu peux pas passer à côté !\nSinon, profites-en pour creuser des\ntrous. Ça, c'est un entraînement en\nbéton pour les biceps, (expression) !",
      "EUit": "Florindo vende semi di fiori molto\nesotici. Se ti piace il giardinaggio,\ndovresti darci un'occhiata.\nSai come pianto i fiori io?\nFacendo flessioni!\nCosì faccio qualcosa per l'ambiente\ne contemporaneamente mi alleno.\nGeniale, no?",
      "EUnl": "Leif verkoopt een boel exotische\nbloemzaadjes. Wie groene vingers\nheeft, moet zeker bij hem langsgaan.\nEn dan heb je ook gelijk een excuus\nom in de grond te wroeten... Een\nuitstekende work-out, (catchphrase)!",
      "EUru": "Лейф продает экзотические семена.\nЕсли ты любишь разводить цветы,\nзагляни к нему.\nСадоводство — еще один повод\nрыться в земле, а это серьезная\nтренировка! !",
      "JPja": "オマエ、知ってたか？\nレイジんとこの花の種って　この島じゃ\n手に入らない花も　あるそうだぞー？\n園芸にキョーミがあるなら　見て来いよ！\n土いじりは　いいキントレにもなるから\nそーゆー意味でもおすすめだぞー！　",
      "KRko": "너, 그 얘기 들었냐?\n늘봉이가 파는 꽃씨 중엔\n이 섬에서 얻지 못하는 꽃도 있다더라－?\n혹시 원예에 관심 있으면 보고 와!\n흙 고르기는 트레이닝에도 좋으니까\n그런 의미로도 추천한다구－! !",
      "TWzh": "跟你說喔，你知道嗎？\n據說然然賣的那些種子裡面，\n有這座島上沒有的花耶！\n如果你對園藝有興趣的話就去看看吧！\n挖土也算一種很有效的健身運動，\n我也很推薦用這方法來健身喔！。",
      "USen": "Leif's selling some real exotic flower\nseeds. If you're into gardening, you\nshould definitely see what he's got.\nPlus it's an excuse to dig in the\ndirt, which is usually a pretty solid\nworkout, (catchphrase)!",
      "USes": "Gandulio vende semillas de flores\nmuy exóticas. Si se te da bien la\njardinería, deberías echar un vistazo.\n¿Sabes cómo planto yo las flores?\n¡Haciendo sentadillas!\nAyudo a la naturaleza y de paso\nhago ejercicio. ¡Claro que sí!",
      "USfr": "Racine vend des graines de fleurs\nsuper exotiques. Si ton truc, c'est le\njardinage, tu peux pas passer à côté!\nSinon, profites-en pour creuser des\ntrous. Ça, c'est un entraînement de\nfou pour les biceps, (expression)!"
    }
  },
  {
    "label": "003",
    "attribute": "0x0000000000000000",
    "locale": {
      "CNzh": "我跑步的时候，\n会不小心踩到\n路上的花朵。\n虽然它们不会因此马上枯萎，\n但那些可能是别人种的花，\n所以我还是要小心些才是！。",
      "EUde": "Ich bin beim Joggen gestolpert...\nund voll in ein Blumenbeet gepurzelt.\nEs ist nichts passiert, aber ein\nSchock war es doch. Fast hätte ich\nanderer Leute Gartenarbeit ruiniert!",
      "EUen": "I tripped while doing sprints and\nended up trampling a few flowers.\nEverything looked fine, but I still\nkinda feel bad. I wouldn't wanna\nwreck someone else's work!",
      "EUes": "El otro día, sin querer, pisé una flor\nmientras corría una maratón.\nPor suerte a la flor no le pasó\nnada, pero me sentí fatal.\nTengo que aprender a controlar\nmi energía por el bien de todos.",
      "EUfr": "Pendant mon footing, j'ai écrasé\nquelques fleurs, sans faire exprès.\nElles s'en sont remis, mais je m'en\nveux d'avoir abîmé le travail de\nquelqu'un d'autre !",
      "EUit": "L'altro giorno ho calpestato dei fiori\nmentre correvo una maratona.\nPer fortuna se la sono cavata,\nma mi sono sentito malissimo.\nDevo imparare a controllare la\nmia energia per il bene di tutti,\n.",
      "EUnl": "Tijdens mijn dagelijkse sprintje ben\nik onderuit gegaan... en ben zo op\neen aantal bloemen beland.\nZe zagen er nog goed uit, maar het\nzit me toch niet lekker. Ik wil niet\nandermans harde werk verpesten.",
      "EUru": "Я споткнулся во время пробежки\nи помял цветы.\nВроде я их не поломал, но меня все\nравно мучает совесть. Ведь кто-то\nстарался, ухаживал за ними!",
      "JPja": "オイラ　うっかりダッシュして\nそこらへんの花を\nふんじゃうことがあるんだよなー\nすぐには　散らないけど\nだれかが世話してる花かもしれないし\nもっと　気を付けることにするよ！　",
      "KRko": "난 무아지경으로 대시하다가\n앞에 있는 꽃을 보지 못하고\n밟아버릴 때가 있단 말이지－\n밟는다고 꽃이 바로 없어지는 건 아니지만\n누가 돌보는 꽃일지도 모르니까\n좀 더 조심해야겠어! !",
      "TWzh": "我在衝刺的時候，\n偶爾會不小心踩到附近的花。\n雖然不會馬上因此而枯萎，\n但它們搞不好是有人細心栽培的花朵，\n所以我以後會更加小心的！。",
      "USen": "I tripped while doing sprints and\nended up trampling a few flowers.\nEverything looked fine, but I still\nkinda feel bad. I wouldn't wanna\nwreck someone else's work!",
      "USes": "El otro día, sin querer, pisé una flor\nmientras corría una maratón.\nPor suerte a la flor no le pasó\nnada, pero me sentí muy mal.\nTengo que aprender a controlar\nmi energía por el bien de todos.",
      "USfr": "Pendant mon jogging, j'ai écrasé\nquelques fleurs, sans faire exprès.\nElles s'en sont remises, mais je m'en\nveux d'avoir abîmé le travail de\nquelqu'un d'autre!"
    }
  },
  {
    "label": "004",
    "attribute": "0x0000000000000000",
    "locale": {
      "CNzh": "我觉得植物和肌肉\n有很相似的地方呢！\n你只要每天细心照顾它们，\n你就有可能得到超出预期的效果！\n无论何事，积累都是很重要的！。",
      "EUde": "Pflanzen und Muskeln haben viel\ngemeinsam, (Floskel).\nSie wachsen am besten, wenn sie\ngenug Flüssigkeit, Aufmerksamkeit\nund Pflege bekommen.",
      "EUen": "Plants and muscles have got a lot\nin common, (catchphrase).\nLike how both see the biggest gains\nwhen they get proper hydration and\nstick to a good maintenance routine.",
      "EUes": "¿Te has fijado en que las plantas\ny los músculos tienen mucho\nen común?\n¡Ambos se hacen más fuertes\ncon buenos cuidados y mucha\nhidratación, !",
      "EUfr": "Les plantes et les muscles, c'est\npresque la même chose, (expression).\nSi tu veux leur donner le meilleur,\nhydrate-les juste comme il faut et\nprends-en soin tous les jours.",
      "EUit": "Hai mai notato che le piante\ne i muscoli hanno un sacco di\ncose in comune?\nEntrambi diventano più grandi e forti\ncurandoli con amore e idratandoli\ncome si deve, !",
      "EUnl": "Planten en spieren hebben meer met\nelkaar gemeen dan je zou denken,\n(catchphrase).\nVoor het beste resultaat moet je ze\niedere dag aandacht geven!",
      "EUru": "У растений и мышц много общего.\n(catchphrase).\nИ те и другие растут лучше всего,\nесли о них правильно заботиться.",
      "JPja": "オイラ　植物とキンニクって\nちょっと　にてると思うんだー\n毎日　しっかりメンテナンスしてりゃ\n期待以上のこうかが　現れることもあるからな！\n何事も　つみ重ねが大事だぞー！　",
      "KRko": "어쩐지 식물이랑 근육은\n좀 닮은 것 같지 않냐－?\n매일 정성껏 관리하면\n기대 이상의 효과가 나타난다는 점이 말이야!\n역시 뭐든지 꾸준해야 돼－! !",
      "TWzh": "我覺得種植植物跟健身\n其實有幾分相似喔。\n只要你每天都有好好照顧，\n它們就有可能展現出超乎期待的成果！\n任何事都是一步一腳印的！。",
      "USen": "Plants and muscles have got a lot\nin common, (catchphrase).\nLike how both see the biggest gains\nwhen they get proper hydration and\nstick to a good maintenance routine.",
      "USes": "¿Te has fijado en que las plantas\ny los músculos tienen mucho\nen común?\n¡Ambos se hacen más fuertes\ncon buenos cuidados y mucha\nhidratación, !",
      "USfr": "Les plantes et les muscles, c'est\npresque la même chose, (expression).\nSi tu veux leur donner le meilleur,\nhydrate-les juste comme il faut et\nprends-en soin tous les jours."
    }
  },
  {
    "label": "005",
    "attribute": "0x0000000000000000",
    "locale": {
      "CNzh": "你知道地球日\n是什么日子吗？\n它是为了让大家重视自然环境而设立的！\n我们生存所需的氧气就要靠植物来生产！\n我平时锻炼得多，吸的空气也多，\n所以我要种很多很多绿色植物！。",
      "EUde": "Schon mitgekriegt, dass heute Tag\nder Natur ist? Da geht's um Pflanzen\nund all so was!\nPflanzen atmen doch das ein, was\nwir ausatmen...\nDas heißt, wenn wir beim Training\nschwer ins Hecheln kommen, dann\ntun wir dem Grünzeug was Gutes!",
      "EUen": "I am all about Nature Day. It's just...\nthe BEST planet to work out on. It's\ngot air, water, gravity...everything!\nI mean, have you ever tried\nworking out on other planets?\nIt's impossible!\nSo here's to the earth, my very\nfavorite gym, (catchphrase)!",
      "EUes": "El Día de la Naturaleza debería ser\ntodo el año y no solo un día,\n¿no crees?\nPorque este planeta está muy bien;\ntiene las condiciones perfectas para\nentrenar a tope.\nDebemos cuidarlo para que dure\nmuchísimo tiempo, .",
      "EUfr": "Je célèbre le jour de la nature comme\nil se doit. Parce que, quand on y\npense, la nature fait bien les choses.\nElle fournit de l'air, de l'eau, une\ngravité parfaite et tout ce qu'il faut\npour un entraînement optimal.\nAlors vive la nature, mon\ncentre de fitness préféré, (expression) !",
      "EUit": "La Giornata della natura dovrebbe\nessere tutto l'anno e non solo un\ngiorno, non credi anche tu?\nInsomma, questo pianeta è davvero\nil massimo. Ha le condizioni ideali\nper allenarsi alla grande.\nDobbiamo averne cura perché\nduri ancora tantissimo tempo,\n.",
      "EUnl": "Ik vind Natuurdag erg belangrijk.\nDoor de natuur is dit gewoon... de\nBESTE planeet om op te trainen.\nJe hebt er lucht, water, proteïne-\nshakes, zwaartekracht... Oftewel,\nalles wat je nodig hebt!\nSerieus, heb je weleens proberen te\nsporten op een andere planeet? Dat\nis niet te doen, man!\nDus lang leve de aarde, mijn\nfavoriete sportschool, (catchphrase)!",
      "EUru": "Люблю День природы. Ведь наша\nпланета... самая классная планета\nдля тренировок.\nТут тебе и воздух, и вода, и земное\nпритяжение... все что душе угодно!\nЯ серьезно, ты пробовал на других\nпланетах тренироваться? То-то же!\nЭто просто невозможно!\nИ вообще, мне приятнее всего\nзаниматься спортом, твердо стоя\nна земле! (catchphrase)!",
      "JPja": "オマエ、アースデーって\nどんな日なのか　知ってるか？\n植物とか　自然のことを考える日なんだぞ！\n空気は　植物が作ってくれてるからな！\nいっぱいキントレして　空気をすってるぶん、\nオイラ　いっぱい緑を育てるんだー！　",
      "KRko": "너, 지구의 날이\n어떤 날인지 알고 있냐?\n식물과 자연에 대해 생각해보는 날이야!\n공기는 식물이 만들어 주잖냐!\n트레이닝하면서 공기를 잔뜩 마시는 만큼\n자연도 잔뜩 키워야겠어－! !",
      "TWzh": "我問你，你知道地球日是什麼日子嗎？\n是用來讓人思考植物\n以及大自然相關事物的日子喔！\n畢竟空氣可是靠植物製造出來的！\n既然我做了很多健身運動，吸了很多空氣，\n那我也要種一大堆綠色植物！。",
      "USen": "I am all about Nature Day. It's just...\nthe BEST planet to work out on. It's\ngot air, water, gravity...everything!\nI mean, have you ever tried\nworking out on other planets?\nIt's impossible!\nSo here's to the earth, my very\nfavorite gym, (catchphrase)!",
      "USes": "El Día de la Naturaleza debería\ncelebrarse todo el año y no solo\nun día, ¿no crees?\nPorque este planeta está muy bien;\nnos da todo para que podamos\nentrenar como se debe.\nDebemos cuidarlo para que dure\nmuchísimo tiempo, (catchphrase).",
      "USfr": "Je célèbre le jour de la nature comme\nil se doit. Parce que, quand on y\npense... c'est la planète idéale.\nOn y trouve de l'air, de l'eau, une\ngravité parfaite et tout ce qu'il faut\npour un entraînement optimal.\nSans farce, tu as déjà essayé de\nfaire des exercices sur une autre\nplanète? C'est impossible!\nAlors longue vie à la Terre, mon\ncentre d'entraînement préféré, (expression)!"
    }
  }
]