﻿[
  {
    "label": "001",
    "attribute": "0x0000000000000000",
    "locale": {
      "CNzh": "，\n浸满了\n我睡觉时流的汗！\n感觉就好像\n被自己的气味包围着，\n可以熟睡到天亮哦！。",
      "EUde": "  hier hat es dir wohl besonders angetan, was?\nJa,  ist echt so bequem, wie \naussieht. Das hab ich ausgiebig\ngetestet.\nGute Erholung ist nun mal genauso\nwichtig wie das Training selbst,\n(Floskel)!",
      "EUen": "Ah, my .\nAs you can smell, it soaks up a ton\nof my post-workout sweat.\nIt's like I'm swaddled in a cocoon of\ngym socks and old yoga mats.\nI guess you could say I sleep\nlike a baby—a really muscular\nbaby, !",
      "EUes": "¡Ah, mi  ha absorbido litros y litros de mi sudor!\nHace que el cuarto huela a gimnasio\nque alimenta...\n¡Y así duermo como un tonificado\ny musculado bebé, (catchphrase)!",
      "EUfr": "...  en a absorbé, de la sueur, au cours de mes siestes post-exercices.\nAllongé dedans, je me sens comme\ndans un doux cocon de chaussettes\nde sport et de tapis de gymnastique.\nJe crois qu'on peut dire que j'y dors\ncomme un bébé. Enfin... un bébé très\nmusclé, hein !  !",
      "EUit": "\n.\nAdoro buttarmici sopra dopo\nun allenamento particolarmente\nintenso.\nCi faccio di quelle dormite,\n!",
      "EUnl": "Mijn   elke nacht de vele liters zweet die ik bij elkaar heb gesport.\nEn  nog comfortabel ook! Alsof\nik in sportsokken en yogamatten\ngewikkeld ben. Verrukkelijk!\nZo slaap ik iedere nacht weer als\neen roos... Een buitengewoon stoere,\ngespierde roos, !",
      "EUru": "Мой !\nСтарое доброе лежбище, политое\nлитрами пота после тренировок.\nЧувствуешь себя в уютном коконе\nспортивных носков и старых\nгимнастических матов.\nСон просто как у младенца.\nМускулистого такого младенца.\n!",
      "JPja": "には\nオイラが　ねてる間の汗が\nガッツリ　しみこんでるんだ！\nまるで　自分のニオイに\nつつまれてる　キブンで、\n朝まで　グッスリだぞー？　",
      "KRko": ",\n내가 자는 동안 흘린 땀이\n듬－뿍 스며 있어!\n내 냄새가 이불처럼\n나를 폭 안아주는 기분이라\n아침까지 푹 잘 수 있다구, !",
      "TWzh": "上面，\n已經完全吸收\n我睡覺時流的汗了──！\n睡在上面的感覺\n就像被自己的味道包裹住，\n可以一覺熟睡到天亮喔，。",
      "USen": "Ah, my .\nAs you can smell, it soaks up a ton\nof my post-workout sweat.\nIt's like I'm swaddled in a cocoon of\ngym socks and old yoga mats.\nI guess you could say I sleep\nlike a baby—a really muscular\nbaby, !",
      "USes": "¡Ah, mi  ha absorbido litros y litros de mi sudor!\nHace que el cuarto huela a gimnasio\ncomo ninguna otra cosa...\n¡Y así duermo como un bebé\nbien tonificado, (catchphrase)!",
      "USfr": "...  en a absorbé, de la sueur, au cours de mes siestes post-exercices.\nAllongé dedans, je me sens comme\ndans un doux cocon de bas de\nsport et de tapis de gymnastique.\nJe crois qu'on peut dire que j'y dors\ncomme un bébé. Enfin... un bébé très\nmusclé, hein! !"
    }
  },
  {
    "label": "002",
    "attribute": "0x0000000000000000",
    "locale": {
      "CNzh": "如果要看电视，\n我还是最喜欢　\n体育节目啦！\n尤其是，\n我会声援得太用力，\n第二天一定会肌肉酸痛啊！。",
      "EUde": "Wenn ich mal fernsehe, gucke ich\nam liebsten !\nIch lebe das dann immer voll mit...\nund war hinterher schon manchmal\nheiser vom Anfeuern!",
      "EUen": "For a long time, I didn't know there\nwas anything other than sports on\nTV. Who needs all that news stuff?\nI really like  shows,\nbut sometimes I cheer so hard, my\nmuscles get sore!",
      "EUes": "A mí lo que más me gusta ver en la\ntele son los deportes, ¡sobre todo las\nretransmisiones de !\n¡A veces me pongo a animar con\ntanto ahínco que acabo con unas\nagujetas de campeonato!",
      "EUfr": "J'ai longtemps ignoré que la télé\ndiffusait autre chose que du sport.\nQui ça intéresse, les actualités ?\nCe que j'aime, c'est les compétitions\nde . Parfois, j'attrape des courbatures à force d'applaudir !",
      "EUit": "Ho sentito dire che in televisione\nnon danno solo programmi di sport.\nChissà che noia...\nIl mio sport preferito da guardare\nin TV? .\nUna volta mi sono stirato\nun polpaccio durante un'esultanza\nparticolarmente scomposta.",
      "EUnl": "Heel lang wist ik niet dat er andere\ndingen op tv kwamen dan sport. Wie\nkijkt er nou naar het nieuws?\nAls er  op tv is, ben ik niet van de buis weg te slaan!",
      "EUru": "Долгое время я не подозревал, что,\nкроме спортивных, есть и другие\nканалы. Кто их вообще смотрит?\nОсобенно я люблю передачи про\n. Иногда так болею,\nчто потом мышцы болят!",
      "JPja": "オイラ、\nテレビを見るなら　やっぱ\nスポーツ番組が　一番スキかなー\n特に　だと\nおうえんに　力が入りすぎて　次の日\n必ず　キンニク痛になるからさ！　",
      "KRko": "나는 말야, TV 볼 때는 역시\n스포츠 방송이 제일 좋더라－\n특히  중계라도 하는 날엔\n응원하느라 너무 힘을 줘서\n다음 날 꼭 근육통이 생긴다니까! !",
      "TWzh": "講到看電視，\n我最喜歡看的\n果然還是運動節目吧──！\n特別是的節目，\n我每次都邊看邊賣力加油，\n所以隔天老是會肌肉痠痛啊！。",
      "USen": "For a long time, I didn't know there\nwas anything other than sports on\nTV. Who needs all that news stuff?\nI really like  shows,\nbut sometimes I cheer so hard, my\nmuscles get sore!",
      "USes": "A mí lo que más me gusta ver en la\ntele son los deportes, ¡sobre todo las\nretransmisiones de !\n¡A veces me pongo a animar con\ntanta emoción que termino con\ndolores en todos los músculos!",
      "USfr": "J'ai longtemps ignoré que la télé\ndiffusait autre chose que du sport.\nQui ça intéresse, les actualités?\nCe que j'aime, c'est les compétitions\nde ⁠. Parfois, j'attrape des courbatures à force d'applaudir!"
    }
  },
  {
    "label": "003",
    "attribute": "0x0000000000000000",
    "locale": {
      "CNzh": "在上\n边听音乐边锻炼肌肉，\n是我最近的爱好哦！\n随着节奏活动身体，\n肌肉也会变得很灵活哦！\n感受过之后就再也难以放弃啦！。",
      "EUde": "Während des Trainings höre ich\nimmer gerne Musik auf \n.\nDas pusht! Da kann man direkt\ndoppelt so schwere Gewichte\nstemmen, (Floskel)!",
      "EUen": "Working out while listening to music\non my ...\nIf I just move to the beat, my muscles\nwill be busting out of my shirt! Try it\nonce and you won't be able to stop!",
      "EUes": "Escuchar música con mi  mientras entreno es lo más.\n¡Una vez que empezamos, ni yo\nni mis músculos podemos parar!",
      "EUfr": "Aaah ! S'entraîner tout en écoutant\nde la musique sur ...\nQuand on se cale bien sur le rythme,\non peut se gonfler les muscles à en\nfaire craquer le t-shirt !\nEssaie donc, tu verras : une fois\nlancé, c'est dur de s'arrêter,  !",
      "EUit": "Quando faccio le flessioni, ascolto musica con  ...\nDopo un po', inizio a sentire il ritmo\ndella musica che scorre nei muscoli\ne non riesco più a fermarmi!\nDovresti provare anche tu!",
      "EUnl": "Trainen terwijl ik naar muziek luister\nop mijn ?\nDat is het allerbeste ooit! Ik hoef\nenkel op het ritme te bewegen om\nspieren te krijgen! Probeer maar!",
      "EUru": "Во время тренировок у меня всегда\n играет...\nКогда я двигаюсь под музыку,\nмышцы просто разрывают\nфутболку, как рельефные аккорды!",
      "JPja": "で\n音楽を聞きながら　キントレするのが\nマイブームなんだー！\nリズムにあわせて　カラダを動かすと、\nキンニクも　いいカンジで動くから\n一度知ったら　やめられないぞー！　",
      "KRko": "으로\n음악을 들으면서\n운동하는 게 요즘 취미야－!\n리듬에 맞춰서 몸을 움직이면\n근육 운동이 골고루 되거든!\n이젠 멈출 수가 없어－!! !",
      "TWzh": "我最近很喜歡一邊用\n聽音樂，\n一邊進行健身運動喔──！\n只要跟著音樂擺動身體，\n就可以鍛鍊到不少肌肉喔！\n知道這點以後，我就完全上癮了！。",
      "USen": "Working out while listening to music\non my ...\nIf I just move to the beat, my muscles\nwill be busting out of my shirt! Try it\nonce and you won't be able to stop!",
      "USes": "Escuchar música con mi  es lo máximo para entrenar.\n¡En cuanto empezamos, ni yo ni\nmis músculos podemos parar!",
      "USfr": "Aaah! S'entraîner tout en écoutant\nde la musique sur ...\nQuand on se cale bien sur le rythme,\non peut se gonfler les muscles à en\nfaire craquer le t-shirt!\nEssaie donc, tu verras : une fois\nparti, c'est dur de s'arrêter, !"
    }
  },
  {
    "label": "004",
    "attribute": "0x0000000000000000",
    "locale": {
      "CNzh": "怎么啦？\n我屋里有，\n很让你意外吗？\n可能看不出来，\n其实我对时间是很苛刻的哦！\n如果不分早中晚，不过上有规律的生活，\n是锻炼不出好肌肉的啊！。",
      "EUde": " \nist echt praktisch.\nBeim Sport ist Disziplin gefragt!\nDa muss man Trainingszeiten\ngenau einhalten, (Floskel)!",
      "EUen": "What? Are you checking out\nmy ?\nIt might come as a surprise, but I'm\ndeeply concerned about time.\nIf you wanna bulk up, you gotta get\nserious! There's only so many hours\nin the day to work out, (catchphrase)!",
      "EUes": "Ah, mi , fiel compañer que cuenta mis horas de entreno...\nComo comprenderás, hay que estar\nsiempre muy pendiente del tiempo,\ntigre.\n¡Para entrenar como toca, no puedes\nperder ni un segundo, !",
      "EUfr": "Ah, eh bien oui, j'ai  chez moi.\nÇa te surprendra peut-être, mais je\nsuis très à cheval sur les horaires.\nEn muscu, il faut un rythme strict !\nEt le bon moment pour s'entraîner,\nc'est à toute heure de la journée,\n !",
      "EUit": "Che c'è? Non hai mai visto ?\nPer me sapere sempre che ora è\nha un'importanza fondamentale.\nPer esempio, adesso è l'ora degli\naddominali. Più tardi sarà quella del\njogging! E poi quella delle flessioni!\nE, a fine allenamento, sarà l'ora di\nguardarsi allo specchio e ammirare\ni frutti del duro lavoro, !",
      "EUnl": "Mijn   niet verkeerd, hè? Ja, hoor!   is graag goed bij de tijd.\nDe tijd weten is iets wat me\nontzettend aan het hart gaat.\nSpierballen kweken moet je serieus\nnemen! En zo weet ik dat het altijd\ntijd om te trainen is, .",
      "EUru": "Что? На мой  загляделся?\nВозможно, это покажется странным,\nно время для меня очень важная\nштука.\nЕсли хочешь накачаться, нельзя\nтерять ни минуты! Спорт в любое\nвремя дня и ночи! .",
      "JPja": "なんだー？　オイラの部屋に\nがあるのは\n意外だったかー？\nオイラ、こう見えて\n時間には　けっこう　うるさいぞ！\n朝、昼、夜と　きそく正しい生活をしないと\nいいキンニクが　できないからな！　",
      "KRko": "뭐야－? 내 방에\n이\n있을 줄 몰랐단 표정이네－?\n내가 이래 보여도\n시간 관리엔 꽤 철저하다구!\n아침, 점심, 저녁, 이렇게\n규칙적으로 생활하지 않으면\n좋은 근육은 생기지 않아! !",
      "TWzh": "怎麼啦？\n怎麼一直盯著我房間裡的\n看？\n難道你很在意時間嗎？\n真巧，我也很注重時間管理喔！\n不論早、中、晚都得過著規律的生活，\n否則是練不出好肌肉的！。",
      "USen": "What? Are you checking out\nmy ?\nIt might come as a surprise, but I'm\ndeeply concerned about time.\nIf you wanna bulk up, you gotta get\nserious! There's only so many hours\nin the day to work out, (catchphrase)!",
      "USes": "Ah, mi , fiel compañer que cuenta mis horas de entrenamiento...\nComo comprenderás, hay que estar\nsiempre muy pendiente del tiempo,\ntigre.\n¡Para entrenar como se debe, no\npuedes perder ni un segundo, !",
      "USfr": "Ah, eh bien oui, j'ai  chez moi.\nÇa te surprendra peut-être, mais je\nsuis très à cheval sur les horaires.\nEn muscu, il faut un rythme strict!\nEt le bon moment pour s'entraîner,\nc'est à toute heure de la journée,\n!"
    }
  },
  {
    "label": "005",
    "attribute": "0x0000000000000000",
    "locale": {
      "CNzh": "植物这东西……\n生长得超快对吧？可要是一直盯着看，\n却又一点儿变化都没有啊！\n莫非是趁我睡着的时候，\n才气势满满地拼命生长吗？\n要是这样，还真有点可怕呢。。",
      "EUde": "Pflanzen wachsen doch ziemlich\nschnell. Aber warum sieht man sie\ndenn nie beim Größerwerden?\nWachsen sie nur nachts, wenn ich\nschlafe? Das wäre ja irgendwie\nschon ein bisschen gruselig...",
      "EUen": "Plants grow super fast, right? But I\nnever see 'em growing, no matter\nhow hard I stare at 'em.\nDoes that mean they're growing like\ncrazy when I'm asleep? Whoa...\nI'm kinda freakin' myself out here.",
      "EUes": "Las plantas crecen superrápido, pero, por más que las miro fijamente,\nno hay forma de ver cómo lo hacen...\n¿Será que solo crecen cuando estoy\ndurmiendo para que no descubra\nsu secreto?\nHuy, qué mal rollo...",
      "EUfr": "Les plantes ont une croissance super\nrapide, paraît-il... Comment ça se fait\nqu'on les voie jamais pousser ?\nJ'ai beau les regarder fixement, \nrien ! Ou alors, elles attendent qu'on\ndorme pour pousser à toute vitesse ?\nOh là là... C'est pas très rassurant,\ntout ça...",
      "EUit": "Certe piante crescono velocissime.\nLa cosa strana è che non si fanno\nmai vedere.\nA volte passo pomeriggi interi\na osservarle, ma loro niente.\nNon è che lo fanno apposta e\ncrescono solo quando esco per\nla mia corsetta serale?",
      "EUnl": "Planten groeien supersnel, toch?\nHoe kan het dan dat ik ze nooit zie\ngroeien hoeveel ik ook naar ze staar?\nGroeien ze soms alleen als ik slaap?\nEn wat doen ze dan nog meer?\nMan o man... Dat is doodeng!",
      "EUru": "Растения быстро растут, правда? Но\nсколько я за ними ни следил, так\nни разу и не застукал их за этим.\nОни, наверное, растут вовсю, пока\nя сплю! Ну и дела... От такого\nпросто голова кругом идет.",
      "JPja": "植物ってさ、のびるの　スゲー早いだろ？　\nでも、じーっと見てても\nぜんぜん　変わらないんだよなー\nこれって　オイラがねてる間に\nスゲーいきおいで　のびてるってことか？\nだとしたら　ちょっとこわいな、",
      "KRko": "식물은 엄청 빨리 자라잖아?\n근데 가만～히 보고 있어도\n전혀 변하지가 않더라구－\n이건 내가 자고 있는 사이에\n엄청난 기세로 자라고 있기 때문일까?\n그렇게 생각하면 좀 무서운걸, ...",
      "TWzh": "植物這種東西不是都長得很快嗎？\n但是盯著它們看的時候，\n卻完全看不出任何變化啊……\n該不會是趁我睡著的時候\n以超高速成長吧？\n真是那樣的話，就有點可怕了……。",
      "USen": "Plants grow super fast, right? But I\nnever see 'em growing, no matter\nhow hard I stare at 'em.\nDoes that mean they're growing like\ncrazy when I'm asleep? Whoa...\nI'm kinda freakin' myself out here.",
      "USes": "Las plantas crecen superrápido,\npero, por más que las miro fijamente,\nno hay forma de ver cómo lo hacen...\n¿Será que solo crecen cuando estoy\ndurmiendo para que no descubra\nsu secreto?\nUy, qué misterio...",
      "USfr": "Les plantes ont une croissance super\nrapide, paraît-il... Comment ça se fait\nqu'on les voie jamais pousser?\nJ'ai eu beau les regarder fixement,\nrien! Ou alors, elles attendent qu'on\ndorme pour pousser à toute vitesse?\nOh là là... C'est pas très rassurant,\ntout ça..."
    }
  },
  {
    "label": "006",
    "attribute": "0x0000000000000000",
    "locale": {
      "CNzh": "，\n对我的锻炼来说，\n是不可或缺之物！\n做深蹲做到瘫软，\n大汗淋漓地在浴缸里潜水……\n呜～！难以抗拒！！。",
      "EUde": "  ist aus meinem Trainingsplan nicht wegzudenken!\nDu meinst, dass man da doch nur\nfaul in warmem Wasser herumliegt?\nStimmt ganz genau!\nNoch nie davon gehört, wie wichtig\nein Entspannungsbad für die\nMuskeln ist, (Floskel)?",
      "EUen": "My  is\ncritical for my training!\nI do squats until my legs are noodley\nand I'm soaked with sweat. Then I\nhop into the tub...\nI basically turn into a big bowl of\nramen, (catchphrase)!",
      "EUes": "Mi  es de vital importancia para mi entreno, ¿sabes, deportista?\nPrimero hago mi ración de\nacuabdominales y sentadillas\ndiaria...\n¡Y después no hay nada mejor que\ntomar un baño calentito para relajar\nlos músculos, !",
      "EUfr": " est un élément de mobilier essentiel pour mon entraînement !\nJ'enchaîne les flexions jusqu'à être\ntrempé de sueur, avec les jambes\ntremblantes comme des nouilles.\nEt là, je plonge dans la baignoire...\nÇa fait comme si j'étais dans un bol\nde soupe aux nouilles,  !",
      "EUit": " è un elemento chiave nel mio programma di allenamento!\nFaccio gli squat finché le zampe non\nmi reggono più, poi mi butto nella\nvasca...\nE mi sciolgo, !",
      "EUnl": "Mijn   van essentieel belang voor mijn training!\nIk doe squats tot mijn benen trillen\nen ik druip van het zweet. En dan\nspring ik het bad in...\nEn daar laat ik mezelf tot soep\ntrekken! .",
      "EUru": "Мой  крайне важен для моих тренировок!\nЯ приседаю, пока мои ноги не\nпревратятся в вареные макароны.\nПотом принимаю горячую ванну...\nПочти что вермишелевый суп\nполучается. (catchphrase)!",
      "JPja": "は\nオイラの　キントレには\nかかせない　アイテムなんだ！\nクタクタになるまで　スクワットをこなし、\n汗だくになって　よくそうにダイブ・・・\nくう～っ、たまんないぞー！！　",
      "KRko": "은\n내가 트레이닝 할 때\n없어서는 안 될 물건이지!\n곤죽이 될 때까지 스쿼트를 한 다음에\n땀범벅인 채로 욕조에 다이빙...!\n크～ 끝내준다－!! !",
      "TWzh": "\n對我的健身運動來說，\n是不可或缺的東西──！\n在深蹲到疲憊不堪、汗流浹背之後，\n再一口氣泡進去……\n唔～真是爽快極啦──！！。",
      "USen": "My  is\ncritical for my training!\nI do squats until my legs are noodley\nand I'm soaked with sweat. Then I\nhop into the tub...\nI basically turn into a big bowl of\nramen, (catchphrase)!",
      "USes": "Mi  es de vital importancia para mi rutina, ¿sabes?\nPrimero hago mi ración de\nacuabdominales y sentadillas\ndiaria...\n¡Y después no hay nada mejor que\ntomar un baño caliente para relajar\nlos músculos, !",
      "USfr": "\nest un élément de mobilier essentiel\npour mon entraînement!\nJ'enchaîne les flexions jusqu'à être\ntrempé de sueur, avec les jambes\ntremblantes comme des nouilles.\nEt là, je plonge dans le bain...\nÇa fait comme si j'étais dans un bol\nde soupe aux nouilles, !"
    }
  },
  {
    "label": "008",
    "attribute": "0x0000000000000000",
    "locale": {
      "CNzh": "，\n很不错吧？\n是我的必需品哦。\n嘿嘿，一面对书桌，\n不知怎么就比躺在床上更困，\n一下子就能睡过去呢！。",
      "EUde": "Na, wie gefällt dir  ?\n ist nützlich, wenn man mal\nwas liest. Besonders häufig sitze\nich nicht dran, (Floskel)...",
      "EUen": "Hey, you liking my\n?\nIf I'm not working out, sometimes I'll\nsit there and read. It, um...doesn't\nget used much, .",
      "EUes": "Cuando no entreno, me gusta\nsentarme un rato a mi  y leer...\nComo ves, no está muy usad, .",
      "EUfr": "Oui, c'est vrai : je possède un superbe  !\nQuand je m'entraîne pas, il m'arrive\nde m'asseoir devant et de lire. Bon...\nje l'use pas beaucoup. .",
      "EUit": "Ah, sì, sì, giusto,  ...\nQuando non mi alleno, mi piace\nsedermi a leggere un po'...\nCerto, come vedi non è molto usat,\n.",
      "EUnl": "Vind je mijn  mooi?\nAls mijn trainingsschema het toelaat,\nzit ik er weleens aan te lezen.  dus... zo goed als nieuw.",
      "EUru": "А, на \nсмотришь?\nКогда я не тренируюсь, я там сижу\nи читаю. Кстати... надо бы там пыль\nпротереть. !",
      "JPja": "、\nいいだろー？\nオイラの　マストアイテムなんだー\nへへっ、つくえに向かうと\nなぜか　ベッドより　ソッコーで\nねむれるんだよなー！　",
      "KRko": ",\n멋지지－?\n내 필수품이야－\n헤헷, 책상에 앉아 있으면\n왠지 침대에 누웠을 때보다\n더 빨리 잠이 들거든－! !",
      "TWzh": "說到，\n很不錯對吧？\n我不能沒有它啊。\n嘿嘿，不曉得為什麼，\n我坐在桌子前的時候，總是可以比待在床上\n還要快睡著耶！。",
      "USen": "Hey, you liking my\n?\nIf I'm not working out, sometimes I'll\nsit there and read. It, um...doesn't\nget used much, .",
      "USes": "Cuando no entreno, me gusta\nsentarme un rato en mi  y leer...\nComo ves, no está muy usad, .",
      "USfr": "Oui, c'est vrai : je possède un superbe !\nQuand je m'entraîne pas, il m'arrive\nde m'asseoir devant et de lire. Bon...\nje l'use pas beaucoup. ."
    }
  },
  {
    "label": "009",
    "attribute": "0x0000000000000000",
    "locale": {
      "CNzh": "我最近非常热衷\n用\n来锻炼哦。\n臀部保持看似坐稳，\n但其实是悬空的姿势静止不动！\n腿会颤抖得很厉害，相当有效哦！。",
      "EUde": "  hat mir immer gute Dienste geleistet.\nNirgendwo sonst kann man sich\nso gut ausruhen und gleichzeitig\nGewichte stemmen, (Floskel)!",
      "EUen": "Nice! You just found my favorite spot\nto lift weights, (catchphrase).\nI've crushed so many reps in my\n that I'm\nnostalgic just talking about it!",
      "EUes": "¡Bien! Veo que has encontrado mi\nlugar favorito para hacer pesas,\n(catchphrase).\nHe ganado tanta masa muscular con\nmi ...\n¡que me siento más fuerte solo con !",
      "EUfr": "Joli ! Tu as repéré mon coin préféré\npour soulever des poids, (expression).\nJ'en ai soulevé tellement dans ce\nch ...\nC'est le siège... de mes exploits !",
      "EUit": "Forte! Hai trovato il mio posto\npreferito dove fare sollevamento\npesi, .\nHo fatto talmente tanti esercizi con   che ho nostalgia solo a parlarne!",
      "EUnl": "Mijn   altijd van pas bij het gewichtheffen, .\nMijn onderlichaam kan er tot rust\nkomen terwijl ik mijn armspieren aan\nhet werk zet... Zaaaalig!",
      "EUru": "О, класс! Это как раз мое\nлюбимое местечко, чтобы веса\nтягать. .\nЭтот  — просто кладезь воспоминаний для моих бицепсов и трицепсов!",
      "JPja": "を使って\nキントレするのが、\n最近の　マイブームなんだー\nすわらずに　ギリギリのとこで\nういたまんま　キープする！\n足がふるえて　けっこうキクぞー！　",
      "KRko": "으로\n트레이닝을 하는 데\n요즘 푹 빠졌어－\n앉지 말고 아슬아슬한 데서\n뜬 상태로 자세를 유지하는 거야!\n다리가 떨려서 효과 좋다구～!! !",
      "TWzh": "我最近很喜歡\n用\n來進行健身運動──！\n運動的時候不要完全坐下去，\n臀部保持稍微懸空的姿勢！\n這時腳就會開始顫抖，很有效果喔！。",
      "USen": "Nice! You just found my favorite spot\nto lift weights, (catchphrase).\nI've crushed so many reps in my\n that I'm\nnostalgic just talking about it!",
      "USes": "¡Bien! Veo que encontraste mi\nlugar favorito para hacer pesas,\n(catchphrase).\nNo sabes la masa muscular que he\nganado con mi ...\n¡Me siento más fuerte de solo !",
      "USfr": "Joli! Tu as repéré mon coin préféré\npour soulever des poids, (expression).\nJ'en ai soulevé tellement dans ce\nch ...\nC'est le siège... de mes exploits!"
    }
  },
  {
    "label": "010",
    "attribute": "0x0000000000000000",
    "locale": {
      "CNzh": "嘿嘿，\n，\n非常适合用来做意象训练哦。\n在舞台上沐浴着聚光灯的\n我的汗水和肌肉……\n唔～太帅了！！。",
      "EUde": "  ist eigentlich sehr praktisch.\nWenn man damit auftritt, bieten\nsich erstklassige Gelegenheiten,\ndie Muckis zu zeigen!\nBlöd nur, dass es so lang dauert,\nbis man ein Instrument spielen\nkann, (Floskel)!",
      "EUen": "I sure hope I can show off my\nmuscles along with my\n one day.\nPicture it—I'm rocking out onstage,\nfans're screaming, got my biceps\nshinin' in the spotlight...so awesome!\nLearning an instrument takes a long\ntime though. You really gotta stick\nwith it, !",
      "EUes": "Mi  me sirve para fortalecer mi imagen.\nImagínate el espectáculo de verme\ncon esto sobre el escenario mientras\nmis fans disfrutan de mis músculos.\nAunque a lo mejor me cuesta\nun poco aprender a tocarl...",
      "EUfr": ", c'est un excellent prétexte pour faire étalage de ses muscles.\nImagine : moi sur scène, les fans qui\nhurlent devant, et mes biceps luisant\nsous les feux des projecteurs... Ah !\nL'ennui, c'est qu'apprendre à jouer\nd'un instrument prend un temps fou.\nFaut vraiment vouloir en imposer !",
      "EUit": "  è perfett per far risaltare i miei muscoli.\nImmagina: io sul palco con una folla\ndi fan adoranti e i miei bicipiti che\nguizzano sotto i riflettori... Mitico!\nL'unico problema è che per imparare\na suonare uno strumento ci vuole un\nsacco di tempo...\nDevi veramente darci dentro con\ncostanza assoluta, !",
      "EUnl": "Ik gebruik   om er ooit mee met m'n spieren te pronken.\nZie je het voor je? Ik op het podium,\nuitzinnige fans, mijn bicepsen\nschitteren in het licht... gaaf!\nMaar een instrument leren spelen\nkost tijd. Daar moet je in investeren.\n!",
      "EUru": "Мои мышцы и мой  когда-нибудь увидят сцену.\nПредставь: софиты, музыка,\nпублика в восторге... Отпад!\nПравда, играть я не умею. Но это\nкак работа над прессом — терпение\nи труд! .",
      "JPja": "へへっ、\nは\nイメトレ用に　ちょうどいいんだー\nステージの上で　スポットライトをあびる\nオイラの　汗とキンニク・・・\nくぅ～っ、カッコイイ！！　",
      "KRko": "헤헷,\n은\n이미지 트레이닝용으로 딱이야－!\n무대 위에서 스포트라이트를 받는\n내 땀과 근육...\n크～ 끝내준다! !",
      "TWzh": "嘿嘿，\n\n正好可以用來做意象訓練喔。\n我的汗水和肌肉\n沐浴在舞台的聚光燈之下……\n哇～太酷啦——！！。",
      "USen": "I sure hope I can show off my\nmuscles along with my\n one day.\nPicture it—I'm rocking out onstage,\nfans're screaming, got my biceps\nshinin' in the spotlight...so awesome!\nLearning an instrument takes a long\ntime though. You really gotta stick\nwith it, !",
      "USes": "Mi  me sirve para fortalecer mi imagen.\nImagínate el espectáculo de verme\ncon esto sobre el escenario mientras\nmis fans disfrutan de mis músculos.\nAunque a lo mejor me cuesta\nun poco aprender a tocarl...",
      "USfr": ", c'est un excellent prétexte pour faire étalage de ses muscles.\nImagine : moi sur scène, les fans qui\nhurlent devant, et mes biceps luisant\nsous les feux des projecteurs... Ah!\nL'ennui, c'est qu'apprendre à jouer\nd'un instrument prend un temps fou.\nFaut vraiment vouloir en imposer!"
    }
  },
  {
    "label": "011",
    "attribute": "0x0000000000000000",
    "locale": {
      "CNzh": "怎么啦？我房间里\n有，\n很叫你意外吗？\n毕竟，想要练出好肌肉，\n饮食方面是很重要的啊！\n不过我最近没怎么用啦……。。",
      "EUde": "Na, gefällt dir  ?\nGesunde Sachen selbst zuzubereiten\nist einfach das Beste, um den\nErnährungsplan zu optimieren!\nLeider lässt mir mein Trainingsplan\nnur selten Zeit dazu, (Floskel)!",
      "EUen": "You checking out my\n?\nI read that the best way to up your\ngains was learning to cook and\ncontrolling what goes in your food.\n...So far I've figured out how to\nboil water, (catchphrase).",
      "EUes": "¿Qué? ¿Echándole un vistazo\na mi ?\nEl entreno no solo consiste en\nlevantar mancuernas; ¡también es\ncrucial alimentarse como toca!\nEn temas de cocina, sé usar \n y... hervir agua, de momento.",
      "EUfr": "Je suis bien équipé, hein ? J'ai même\n !\nJ'ai lu qu'apprendre à cuisiner était\nl'idéal pour un athlète, ça lui permet\nde maîtriser toute son alimentation.\nBon... pour le moment, j'ai appris à...\nfaire bouillir de l'eau, .",
      "EUit": "Tutti ammirano  !\nUn articolo di \"Palestra extra\" dice\nche per controllare il peso devi\nprima imparare a cucinare.\nSono ancora ai primi allenamenti\nculinari, però. Tipo bollire l'acqua\nper la pasta, ...",
      "EUnl": "Wat vind je van mijn ?\nDe beste manier om aan je lijf te\nwerken, is leren koken, zodat je zelf\nbepaalt wat je binnenkrijgt.\nWater koken kan ik al...",
      "EUru": "А, !\nЯ где-то услышал, что правильная\nдиета помогает нарастить массу.\nИ что нужно самому готовить.\nИ я уже научился кипятить воду!\n.",
      "JPja": "なんだー？　オイラの部屋に\nが　あって\n意外だったかー？\nやっぱ　食事は　いいキンニクを作るために\nめっちゃ　大事だからな！\nあんまり使ってないけどさ・・・、",
      "KRko": "뭐냐－? 내 방에\n이\n있는 게 그렇게 의외냐－?\n역시 좋은 근육을 만들려면\n식사도 중요한 법이거든!\n요즘은 별로 안 쓰지만, ...",
      "TWzh": "怎麼啦？看到我的房間裡\n有，\n讓你覺得很意外嗎～？\n如果想要打造出完美肌肉，\n飲食控管也是很重要的喔！\n……雖然我很少使用啦，。",
      "USen": "You checking out my\n?\nI read that the best way to up your\ngains was learning to cook and\ncontrolling what goes in your food.\n...So far I've figured out how to\nboil water, (catchphrase).",
      "USes": "¿Qué? ¿Echándole un vistazo\na mi ?\nEl entrenamiento no solo consiste en\nlevantar mancuernas; ¡también es\ncrucial alimentarse bien!\nEn temas de cocina, sé usar \n y... hervir agua, por el momento.",
      "USfr": "Je suis bien équipé, hein? J'ai même\n!\nJ'ai lu qu'apprendre à cuisiner était\nl'idéal pour un athlète, ça lui permet\nde maîtriser toute son alimentation.\nBon... pour le moment, j'ai appris à...\nfaire bouillir de l'eau, ."
    }
  },
  {
    "label": "012",
    "attribute": "0x0000000000000000",
    "locale": {
      "CNzh": "噢！你果然\n一眼就看到了\n吗？\n很不错吧～！\n我非常喜欢哦！\n不过，锻炼最重要的不是道具啦！。",
      "EUde": "  ist nicht schlecht, was?\nGehört natürlich zu den wichtigeren\nDingen in meiner Bude...",
      "EUen": "That \ncatch your eye? Pretty\nsweet, ain't it?\nBut equipment's only half the\nequation. You gotta know how to\nuse it right too, .",
      "EUes": "Hay gente que necesita tener en casa\nuna silla, una mesa, una cama y un\nmueble para la ropa...\nSi me preguntas a mí, te diré que\n es fundamental, .",
      "EUfr": "Ah, tu as sûrement remarqué  super  ! C'est du matériel de champion !\nMais un bon équipement ne fait pas\ntout... Il faut aussi savoir comment\nbien l'utiliser,  !",
      "EUit": "In molti rimangono affascinati   .\nMa l'equipaggiamento adatto è solo\nl'inizio. Devi anche sapere come\nusarlo, !",
      "EUnl": "Mijn   een knap staaltje vernuft, hè?\nMaar mijn apparaten zijn er niet voor de show. Je moet ze gebruiken, !",
      "EUru": "А, !\nКрасотища, правда? Вещь!\nНо инвентарь — это еще не все.\nВсе — это когда им правильно\nпользуешься! !",
      "JPja": "おっ、やっぱり\nが\n目に入ったかー？\nいいだろ～！\nお気に入りの　キントレグッズなんだー！\n大事なのは　道具じゃないけどな！　",
      "KRko": "오, 역시\n이\n제일 눈에 띄지－?\n멋지지 않냐?!\n내가 제일 좋아하는 운동 기구야－!\n뭐, 중요한 건 도구가 아니지만! !",
      "TWzh": "哦！你果然有看到\n我房間裡的\n啊？\n很不錯吧！\n它可是我最喜歡的健身用品之一喔──！\n不過器材其實不是最重要的啦！。",
      "USen": "That \ncatch your eye? Pretty\nsweet, ain't it?\nBut equipment's only half the\nequation. You gotta know how to\nuse it right too, .",
      "USes": "Hay gente que necesita tener en su\ncasa una silla, una mesa, una cama\ny un mueble para la ropa...\nSi me preguntas a mí, te diré que\nmi  es lo único que necesito, .",
      "USfr": "Ah, tu as sûrement remarqué  super ! C'est du matériel de champion!\nMais un bon équipement ne fait pas\ntout... Il faut aussi savoir comment\nbien l'utiliser, !"
    }
  },
  {
    "label": "016",
    "attribute": "0x0000000000000000",
    "locale": {
      "CNzh": "只要把\n放在房间里，就可以在室内\n体验户外生活了！\n不用在意是否会下雨，\n随时都能感受到野外生存的氛围，\n相当不错呢！。",
      "EUde": "Was ist? Warum starrst du   denn so an, (Floskel)?\nSo ein Outdoor-Look ist doch cool!\nErst recht, wenn es draußen\neisig kalt ist...",
      "EUen": "Ah, you must be admiring\nmy !\nPerfect, right? I feel like I'm\nroughing it, even when I'm all snug\nin my house, (catchphrase)!",
      "EUes": "¡Anda, diría que has encontrado\nmi !\nA veces me gusta sentirme en\ncontacto con la naturaleza...\n¡incluso dentro de casa!",
      "EUfr": "Sympa d'avoir  chez soi, hein ? ...\nEn fait, j'ai parfois envie de retrouver\nl'atmosphère du plein air, même si je\nsuis bien au chaud dans ma maison !",
      "EUit": "  salta subito all'occhio, eh?\nSai com'è, a volte mi piace avere la\nsensazione di essere all'aperto...\nallenandomi comodamente al chiuso!",
      "EUnl": "Mijn  hier binnenshuis zetten was een gewaagde keuze, hè?\nNou, soms wil een  het buitenleven binnenhalen, zodat hij er zelf niet uit hoeft!",
      "EUru": "Что, не налюбуешься на мой\n?\nЛюблю чувствовать себя частью\nстихии, даже когда сижу дома.\n.",
      "JPja": "を\n置いてるだけで、部屋ん中でも\nアウトドア生活が　できるんだ！\n雨とか　気にしないですむから\nいつでも　サバイバル気分が味わえて\nけっこういいぞ！　",
      "KRko": "이 있으면\n실내에서도 아웃도어 생활을\n즐길 수 있다구!\n비가 와도 신경쓰지 않아도 되니까\n언제든지 서바이벌 기분을 맛볼 수 있어서\n완전 좋아－! !",
      "TWzh": "房間內只要擺著\n，\n就能在室內體驗到戶外生活喔！\n而且這樣還不用擔心下雨，\n可以隨時享受野外求生的氛圍，\n感覺超棒的！。",
      "USen": "Ah, you must be admiring\nmy !\nPerfect, right? I feel like I'm\nroughing it, even when I'm all snug\nin my house, (catchphrase)!",
      "USes": "No tiene nada de raro que esté mi  aquí...\nA veces me gusta sentirme en\ncontacto con la naturaleza...\n¡incluso dentro de casa!",
      "USfr": "Cool d'avoir  chez soi, hein? ...\nEn fait, j'ai parfois envie de retrouver\nl'atmosphère du plein air, même si je\nsuis bien au chaud dans ma maison!"
    }
  },
  {
    "label": "017",
    "attribute": "0x0000000000000000",
    "locale": {
      "CNzh": "你是不是很在意那个\n？\n你很识货嘛！。\n不同的照明设备投射出的光影效果不同，\n在不同灯光下的肌肉，看起来也会不一样。\n这可是我的必需品哦！。",
      "EUde": "So   ist schon ziemlich nützlich...\nIch habe ständig Albträume, dass mir\njemand alle meine Muskeln klaut.\nAber hiermit kann ich gut gucken,\nob sie noch alle da sind, und weiter\nSchnarchübungen machen.",
      "EUen": "Oh... You're checking out\nmy ...\nI have this recurring nightmare where\nsomeone steals all of my muscles.\nThe extra light makes it way easier to\nmake sure my muscles are still there\nand get back to doing snore reps!",
      "EUes": "Ah, parece que te gusta\nmi ...\nTengo una pesadilla recurrente\nen la que mis músculos se vuelven\nflácidos.\nCon esta luz puedo comprobar\nel perfecto estado de mis músculos\ny volver a dormirme tan feliz.",
      "EUfr": "Oh... Tu admires mon éclatant\n...\nIl se trouve que je fais souvent un\ncauchemar où un malotru débarque\net me vole tous mes muscles.\nAvec ça, au moins, je suis tranquille,\npersonne n'empêchera mes biceps\nde faire leurs séances de roupillon !",
      "EUit": "Oh... Stai guardando  ...\nHo questo incubo ricorrente in cui\nqualcuno mi ruba tutti i muscoli...\nCon un po' di luce extra è più facile\nvedere che i muscoli sono ancora lì\ne tornare a fare pisolini energetici!",
      "EUnl": "Mijn   echt onmisbaar geworden...\nSoms droom ik namelijk dat mijn\nspieren worden gestolen en dan\nword ik badend in het zweet wakker.\nMet wat extra licht zie ik gelukkig\nmeteen dat mijn spieren er nog zijn\nen kan ik lekker verder tukken.",
      "EUru": "Что, нравится ?\nА мне последнее время один\nи тот же кошмар снится: что все\nмои мышцы кто-то украл!\nТак что я теперь всегда со светом\nсплю: проснулся, проверил — все\nна месте — и храпишь себе дальше!",
      "JPja": "が\n気になるってか？\nオマエ、よくわかってんなー！　\n照明によっちゃあ　かげの出来具合で\nキンニクの見え方が　変わるから、\nオイラのマストアイテムなんだー！　",
      "KRko": "이\n신경 쓰여?\n너, 보는 눈이 있구나－! !\n조명에 따라서 그림자 지는 게 달라서\n근육도 다 다르게 보이니까\n나한테는 필수품이야－! !",
      "TWzh": "你對\n感到很好奇嗎？\n你的眼光挺不錯的嘛！。\n根據燈光照射的角度，會產生不同的陰影，\n也會影響肌肉呈現的模樣，\n這可是我的必備物品喔——！。",
      "USen": "Oh... You're checking out\nmy ...\nI have this recurring nightmare where\nsomeone steals all of my muscles.\nThe extra light makes it way easier to\nmake sure my muscles are still there\nand get back to doing snore reps!",
      "USes": "Ah, parece que te gusta\nmi ...\nTengo una pesadilla recurrente\nen la que mis músculos se vuelven\nflácidos.\nCon esta luz puedo comprobar\nel perfecto estado de mis músculos\ny volver a dormirme tranquilo.",
      "USfr": "Oh... Tu admires mon éclatant\n...\nIl se trouve que je fais souvent un\ncauchemar où un malotru débarque\net me vole tous mes muscles.\nAvec ça, au moins, je suis tranquille,\npersonne n'empêchera mes biceps\nde faire leurs séances de sieste!"
    }
  },
  {
    "label": "018",
    "attribute": "0x0000000000000000",
    "locale": {
      "CNzh": "这是。\n想要独当一面，\n仪表也是非常重要的！\n不过，我大多数情况都是用它\n来检视自己的肌肉。。",
      "EUde": "Gut, dann bin ich jetzt mal\nbizepsmäßig ehrlich mit dir,\n(Floskel).\nVor   hier teste ich meine berühmten Muskelposen.",
      "EUen": "OK, I'm going to be totally honest\nwith you, (catchphrase).\nYes, I do muscle poses in front of\nmy .",
      "EUes": "Vale, te voy a confesar una cosa, (catchphrase). Pero que quede entre tú y yo...\nEnsayo poses de culturismo delante\nde mi .",
      "EUfr": "Bon, pour la musculature, j'ai déjà\ntout ce qu'il me faut, (expression).\nEt pour la réflexion, j'ai  !",
      "EUit": "OK, sarò completamente onesto\ncon te, ...\nÈ bello avere  perché così posso ammirarmi i muscoli.",
      "EUnl": "Zeg, je denkt vast dat ik mijn  gebruik om mijn spieren te bewonderen...\nNou, dat klopt als een bus!",
      "EUru": "Открою тебе секрет. !\n мне\nнужен, чтобы смотреть на себя\nв разных позах, играя мышцами.",
      "JPja": "その　、\nやっぱ　一人前になるには\n身だしなみも　大事だと思ってさ！\nまぁ、たいてい　キンニクのカクニン用に\n使ってるんだけど、",
      "KRko": "역시 사람은 몸가짐도 중요하잖냐!\n그래서 은\n방에 하나쯤 있어야 한다고 생각해－\n말은 이렇게 해도 사실\n거의 근육 확인용으로\n쓰고 있지만, ...",
      "TWzh": "有那個\n是因為我覺得如果想要獨當一面的話，\n就得好好保持儀容整潔才行！\n不過實際上，我只有用來\n確認肌肉的狀態而已，。",
      "USen": "OK, I'm going to be totally honest\nwith you, (catchphrase).\nYes, I do muscle poses in front of\nmy .",
      "USes": "Bueno, te voy a confesar una cosa, (catchphrase). Pero que quede entre tú y yo...\nEnsayo poses de fisicoculturismo delante de mi .",
      "USfr": "Bon, pour la musculature, j'ai déjà\ntout ce qu'il me faut, (expression).\nEt pour la réflexion, j'ai !"
    }
  },
  {
    "label": "019",
    "attribute": "0x0000000000000000",
    "locale": {
      "CNzh": "嗯？\n你很在意这个\n吗？\n我、我可没有在里面放奇怪的东西哦！\n……不过，里面可能会有\n被汗水浸透的衣服之类的……。",
      "EUde": "Oh nein! Mach bloß nicht \n da auf!\nEs sei denn, du stehst auf das Aroma\ndurchgeschwitzter Trainingsanzüge,\n(Floskel).",
      "EUen": "Oh! You really shouldn't open\nmy ...\nAt least, not unless you like\nthe smell of sweaty workout\nclothes, (catchphrase).",
      "EUes": "Esto... No deberías abrir\nmi ...\nA menos que te guste el olor \na ropa sudada, (catchphrase).",
      "EUfr": "Oh ! N'hésite pas à ouvrir m fidèle ...\nSauf si tu as quelque chose contre\nle délicat parfum de la sueur bien\nfraîche, (expression).",
      "EUit": "Oh! Meglio se non apri  ...\nA meno che non ti piaccia l'odore\ndei vestiti sudati, .",
      "EUnl": "O! Je kunt maar beter niet mijn  openen...\nBehalve als je houdt van de geur van\nmet zweet doordrenkte sportkleren,\n(catchphrase). Zoals ik!",
      "EUru": "Ой! \nлучше не открывать...\nЕсли, конечно, тебе не нравится\nзапах пропахшей потом\nспортивной формы! (catchphrase)!",
      "JPja": "ん？\nその　が\n気になるのか？\nべ、別に　あやしいもんとか　入ってないぞ！\n・・・汗まみれのウェアくらいは\nあるかもしれないけど・・・、",
      "KRko": "응?\n그 이\n신경 쓰여?\n따, 딱히 이상한 건 안 들어 있어!\n...땀범벅이 된 옷 같은 건\n들어 있을 수도 있지만, ...",
      "TWzh": "嗯？\n你對\n感到很好奇嗎？\n裡、裡面沒放什麼奇怪的東西啦！\n呃……有可能會有沾滿汗水的衣服\n之類的啦……。",
      "USen": "Oh! You really shouldn't open\nmy ...\nAt least, not unless you like\nthe smell of sweaty workout\nclothes, (catchphrase).",
      "USes": "Este... No deberías abrir\nmi ...\nA menos que te guste el olor \na ropa sudada, (catchphrase).",
      "USfr": "Oh! N'hésite pas à ouvrir m fidèle ...\nSauf si tu as quelque chose contre\nle délicat parfum de la sueur bien\nfraîche, (expression)."
    }
  },
  {
    "label": "020",
    "attribute": "0x0000000000000000",
    "locale": {
      "CNzh": "看着，\n我想到了一个很厉害的锻炼动作！\n不过实际尝试了一下，\n我的身体关节太僵硬了，\n完全没法做到。。",
      "EUde": "Ich bin ja ein Muskelpaket, aber  kleine  hier ist auch nicht ohne!\nInsekten sind der Hammer! Es gibt\nwelche, die können das Hundertfache\nihres Körpergewichts stemmen!\nMit genügend Disziplin und einem\nstraffen Trainingsplan schaff ich das\nin ein paar Jahren bestimmt auch!",
      "EUen": "Sometimes I think I'm pretty fit,\nbut I think twice when I look at\nmy .\nBugs are crazy! Some of 'em can\nlift a hundred times their own body\nweight. If only...",
      "EUes": "Cuando me creo el más fuerte del\nmundo, me curo la soberbia mirando\na mi .\n¡Los bichos sí que están cuadrados!\nAlgunos pueden levantar cosas que\npesan cien veces más que ellos.\nYa quisiera yo, ...\nPero, en mi caso, ¿cuántos kilos\nserían?... (si sumo y me llevo tres...)\n¡Huy, quita, quita! No quiero hernias.",
      "EUfr": "On peut dire que je suis un sportif de\nhaut niveau, mais quand je regarde\n...\n... on évolue vraiment pas dans la\nmême catégorie ! Les insectes ont\ndes capacités incroyables !\nTu savais que certains peuvent\nsoulever 100 fois leur poids ? Si\nseulement je pouvais faire pareil...",
      "EUit": "A volte penso di essere in forma, ma\npoi mi vengono i dubbi quando vedo\n .\nGli insetti sono pazzeschi! Pensa\nche alcuni di loro possono sollevare\ncentinaia di volte il proprio peso.\nChe sogno...",
      "EUnl": "Soms denk ik het toppunt van fitheid te zijn, maar dan kijk ik naar mijn .\nDie beestjes zijn beesten! Sommige\nkunnen wel honderd keer hun eigen\ngewicht dragen. Kon ik dat maar...",
      "EUru": "Иногда мне думается, что я неплохо\nподкачан, а потом как посмотрю на\n...\nНасекомые — это сила! Некоторые\nмогут поднять в сотни раз больше\nсвоего веса. Мне бы так...",
      "JPja": "を　見てると\nスゲー関節技が　ひらめくんだ！\nでも　じっさい試してみると\n体が　カタすぎて　オイラの関節が\n悲鳴を上げちゃうんだけどな、",
      "KRko": "을 보면\n엄청난 운동 기술이 생각난단 말이지!\n하지만 실제로 해보면\n몸이 너무 뻣뻣해서 \n오히려 내 관절들이 비명을 질러, ...",
      "TWzh": "看到後，\n我突然想到一個超厲害的關節技！\n我實際演練了一下．但身體實在太硬了，\n現在我的關節痛得哇哇叫，。",
      "USen": "Sometimes I think I'm pretty fit,\nbut I think twice when I look at\nmy .\nBugs are crazy! Some of 'em can\nlift a hundred times their own body\nweight. If only...",
      "USes": "Si crees que yo tengo una fuerza\nbrutal, observa nomás un rato a mi\n.\n¡Algunos insectos pueden levantar\ncien veces el peso de su propio\ncuerpo!\nQuién pudiera, ...\nA ver que saco la cuenta de cuántos\nkilos serían en mi caso... (más tres, menos uno, me llevo dos...).\n¡Uy, olvídate del tema! Que yo no\nquiero hernias.",
      "USfr": "On peut dire que je suis un sportif de haut niveau, mais quand je regarde\n...\n... on évolue vraiment pas dans la\nmême catégorie! Les insectes ont\ndes capacités incroyables!\nTu savais que certains peuvent\nsoulever 100 fois leur poids? Si\nseulement je pouvais faire pareil..."
    }
  },
  {
    "label": "021",
    "attribute": "0x0000000000000000",
    "locale": {
      "CNzh": "这\n是我用来克服自己的弱点的！\n感觉只要和它一起生活，\n有一天我也可以不用游泳圈游泳了！\n嘿嘿，你要为我见证哦？！。",
      "EUde": "Ich lass mich seit Kurzem von \n hier im Schwimmen coachen!\nEin paar Monate noch, dann kann\nich vielleicht endlich die Schwimm-\nflügelchen weglassen, (Floskel)!",
      "EUen": "This little guy? He's here to help\ninspire me to swim more. He's\n.\nOne day, if I work hard enough,\nI might even be able to swim\nwithout floaties, (catchphrase)!",
      "EUes": "Fíjate, su presencia me inspira para\nnadar. En el agua, quiero ser como\n.\nTanto me motiva, que pronto podré\nnadar sin flotadores, (catchphrase).",
      "EUfr": "Oh,  ? Je te présente ma muse en\nmatière de natation. C'est .\nSi je continue de travailler très dur,\nun jour, je sais que je pourrai nager\nsans flotteurs,  !",
      "EUit": "  mi dà la spinta a nuotare di più, .\nUn giorno, lavorando sodo, potrei\naddirittura riuscire a nuotare senza\nbraccioli!",
      "EUnl": "?    me met mijn zwemtechnieken.\nAls ik hard genoeg blijf trainen,\nkan ik op een dag zwemmen zonder\nzwembandjes, (catchphrase)!",
      "EUru": "А! Это мой тренер по плаванию,\n.\nЯ очень стараюсь. Надеюсь, скоро\nсмогу даже без надувного круга.\n!",
      "JPja": "その　は\nオイラの　弱点こくふくアイテムなんだ！\nそいつと　いっしょに　くらしてると\nそのうち　うきわなしで　泳げそうな気がしてさ！\nへへっ、見てろよー？！　",
      "KRko": "은\n내 약점 극복에 도움을 주는 친구야!\n녀석이랑 같이 살면 조만간\n튜브가 없어도 헤엄칠 수 있게 될 것 같아서!\n헤헷, 두고보라고－! !",
      "TWzh": "那個\n能讓我克服自己的弱點喔！\n和牠生活在一起之後，\n我感覺自己就算沒有泳圈，也能游泳了！\n嘿嘿，你看著吧——？！。",
      "USen": "This little guy? He's here to help\ninspire me to swim more. He's\n.\nOne day, if I work hard enough,\nI might even be able to swim\nwithout floaties, (catchphrase)!",
      "USes": "Su presencia me inspira para nadar.\nEn el agua, quiero ser como\n.\nTanto me motiva, que pronto podré\nnadar sin flotadores, (catchphrase).",
      "USfr": "Oh, ? Je te présente ma muse en\nmatière de natation. C'est .\nSi je continue de travailler très dur,\nun jour, je sais que je pourrai nager\nsans flotteurs, !"
    }
  },
  {
    "label": "022",
    "attribute": "0x0000000000000000",
    "locale": {
      "CNzh": "",
      "EUde": "",
      "EUen": "",
      "EUes": "",
      "EUfr": "",
      "EUit": "",
      "EUnl": "",
      "EUru": "",
      "JPja": "",
      "KRko": "",
      "TWzh": "",
      "USen": "",
      "USes": "",
      "USfr": ""
    }
  },
  {
    "label": "023",
    "attribute": "0x0000000000000000",
    "locale": {
      "CNzh": "看到我的房间里有\n，\n你好像觉得很意外？\n嘿嘿，为了不弄坏艺术品，\n我需要在家也保持高度精神集中，\n这样就能起到锻炼精神力的作用！。",
      "EUde": "Na, was hältst du von  edlen\n?\nWer sagt denn, dass ich mich neben\nSport nicht auch noch für etwas\nanderes interessieren kann?\nIch muss halt nur beim Stretching\naufpassen, dass ich das Teil nicht\numreiße!",
      "EUen": "Checking out that great work of art?\nMy ?\nI do have to be a little more careful\nwhen I do my  practice\nin here, but it's so worth it.",
      "EUes": "¡Ja! Mi  es mi gran obra de arte.\nEso sí, ahora debo tener cuidado\ncuando practico  en casa, no vaya a ser que me  cargue.",
      "EUfr": "Je pensais pas avoir un jour une\nœuvre d'art chez moi. Et , en plus.\n m'oblige à un peu de retenue\nquand je fais , mais ça en vaut la peine.",
      "EUit": "Hai visto che opera d'arte? È \n.\nOra, però, quando mi alleno in casa\ndevo fare molta più attenzione.",
      "EUnl": "Je krijgt zeker geen genoeg van mijn ?\nIk moet nu wel wat meer oppassen bij een potje , maar dat is het meer dan waard.",
      "EUru": "Что,  тебя заинтересовал? Настоящий шедевр, да?\nМеста для  стало меньше, слежу, чтобы не задеть ненароком. Но оно того стоит!",
      "JPja": "オイラの部屋に\nが\nかざってあるのが　意外って顔だな？\nへへっ、ゲージュツ作品を　こわさないように\n部屋ん中でも　集中して行動することで\nメンタルを　きたえてるんだー！　",
      "KRko": "내 방에\n이 있는 게\n의외라는 얼굴이구만－?\n헤헷, 예술 작품을 망가뜨리지 않도록\n방 안에서도 집중해서 조심조심 움직이면서\n정신력을 단련하고 있는 거야－! !",
      "TWzh": "我房裡放著\n，\n你怎麼一臉意外的樣子？\n嘿嘿，為了不弄壞藝術作品，\n在房裡走動也要集中精神，\n可算是一種精神訓練喔——！。",
      "USen": "Checking out that great work of art?\nMy ?\nI do have to be a little more careful\nwhen I do my  practice\nin here, but it's so worth it.",
      "USes": "¡Ja! Mi  es mi gran obra de arte.\nEso sí, ahora debo tener cuidado\ncuando practico  en casa, no vaya a ser que  rompa.",
      "USfr": "Je pensais pas avoir un jour une\nœuvre d'art chez moi. Et , en plus.\n m'oblige à un peu de retenue\nquand je fais , mais ça en vaut la peine."
    }
  },
  {
    "label": "024",
    "attribute": "0x0000000000000000",
    "locale": {
      "CNzh": "你很在意？\n不愧是(nickname)啊！\n它不仅可以摆在室内作为装饰，\n还能拿在手里用来做负重训练，\n正好可以代替哑铃！。",
      "EUde": " scheint dir wohl zu gefallen, was?\nIch mag so multifunktionale Deko-\nSachen, die man zur Not auch als\nTrainingsgewichte nutzen kann!",
      "EUen": "Something caught your eye, huh?\nMy ?\nI'm all about multifunctional stuff\nlike that. It's a decoration...that I\ncan use as a free weight!",
      "EUes": "Ah, te gusta mi , ¿eh? Es multifuncional.\nEs decir, sirve de decoración...\n¡y también como peso para levantar!",
      "EUfr": "Tu as l'air d'aimer autant que moi\n magnifique ...\nJ'aime l'art multifonction. Cette\nsuper déco a aussi le poids idéal\npour mes exercices d'épaulé-jeté !",
      "EUit": "Qualcosa ha catturato\nla tua attenzione? \n?\nLa roba multifunzionale come quella\nè il massimo per me.\nÈ un oggetto decorativo... che posso\nusare anche come peso!",
      "EUnl": "Mijn   er wezen, hè?\nIk hou van dat soort multifunctionele dingen.  mijn huis... en ik gebruik  voor mijn training.",
      "EUru": "Что, приглянулся мой ?\nЛюблю такие универсальные\nштуки! И глаз радует... и как\nгиря сгодится.",
      "JPja": "が気になるか？\nさすがだな　(nickname)！\n部屋のインテリアにもなるし、\n持つには　ちょうどいい重さだから\nダンベル代わりに　ピッタリなんだ！　",
      "KRko": "에\n관심이 있어?\n역시 (nickname)이야!\n방을 꾸미는 데도 좋고,\n손에 들면 딱 좋은 무게라서\n덤벨 대신에 잘 쓰고 있어! !",
      "TWzh": "你對有興趣嗎？\n真不愧是(nickname)啊！\n它不只可以用來裝飾房間，\n拿起來也有一定的重量，\n很適合當啞鈴使用喔！。",
      "USen": "Something caught your eye, huh?\nMy ?\nI'm all about multifunctional stuff\nlike that. It's a decoration...that I\ncan use as a free weight!",
      "USes": "Ah, te gusta mi , ¿eh? Es multifuncional.\nEs decir, sirve de decoración...\n¡y también como peso para levantar!",
      "USfr": "Tu as l'air d'aimer autant que moi\n magnifique ...\nJ'aime l'art multifonctions. Cette\nsuper décoration a aussi le poids\nidéal pour mes exercices dorsaux!"
    }
  },
  {
    "label": "025",
    "attribute": "0x0000000000000000",
    "locale": {
      "CNzh": "怎么了？看到我房间里\n有，\n你一脸很意外的表情啊。\n把这类艺术品装饰在房间里，\n会让人觉得成熟帅气，不是吗？。",
      "EUde": "Mit so   rechnet hier sicher niemand, oder?\nTja, wenn ich nicht gerade meine\nMuskeln stähle, schleife ich auch\ngern mal meinen Kunstverstand.",
      "EUen": "What? Taking a close look at\nmy ?\nI'm not all about muscles and sweat.\nJust MOSTLY about muscles and\nsweat, (catchphrase).",
      "EUes": " contradice el extendido prejuicio de que solo rindo culto a los músculos.\nEn realidad mi gran pasión es el arte.\nLo que pasa es que mi cuerpo entra\nen esa categoría, .",
      "EUfr": "Un problème ? Tu sembles regarder\n de manière dubitative.\nMoi, je l'aime bien, ce truc. Presque\nautant que les muscles et la sueur,\nc'est dire, .",
      "EUit": "Alcuni si stupiscono tantissimo\ndi trovare in casa mia .\nGuarda che io non sono mica un tipo\ntutto muscoli e basta, sai?\nA volte anche sudore e trazioni,\n!",
      "EUnl": "Hehehe. Mijn   alle aandacht naar zich toe, hè?\nIk geef om meer dan spieren en\nzweten alleen, hoor. Maar ik kan nu\neven niks bedenken, (catchphrase)!",
      "EUru": "Что? Смотришь на  и глазам не веришь? Ну и зря!\nЯ иногда и искусством интересуюсь,\nне одними мускулами. Но мускулы\nу меня в приоритете! .",
      "JPja": "なんだ？　オイラの部屋に\nが\n置いてあるのが　意外って顔だな？\nそーゆー　ゲージュツ作品を　かざってると\nオトナっぽくて　かっこいいだろ？　",
      "KRko": "뭐냐? 내 방에\n이 있는 게\n의외라는 얼굴이구만－?\n예술 작품을 방에 장식해두면\n어른스러워 보이고 멋지지 않냐－? ?",
      "TWzh": "什麼？\n擺放在我房裡，\n你怎麼一臉很意外的樣子？\n像這樣把藝術作品擺放在房間裡面，\n是不是很像大人，很帥氣？。",
      "USen": "What? Taking a close look at\nmy ?\nI'm not all about muscles and sweat.\nJust MOSTLY about muscles and\nsweat, (catchphrase).",
      "USes": " contradice el extendido prejuicio de que solo rindo culto a los músculos.\nEn realidad, mi gran pasión es el arte. Lo que pasa es que mi cuerpo entra en esa categoría, .",
      "USfr": "Un problème? Tu sembles regarder\n de manière dubitative.\nMoi, je l'aime bien, ce truc. Presque\nautant que les muscles et la sueur,\nc'est dire, ."
    }
  },
  {
    "label": "026",
    "attribute": "0x0000000000000000",
    "locale": {
      "CNzh": "之前，我做完室内运动后，\n就用这\n来凉快凉快，结果感冒了。\n果然，出完汗以后，\n必须擦干才行呢。\n你也要注意哦！。",
      "EUde": "Wenn ich hier drin   anwerfe, kann es schon ziemlich kühl werden.\nDeshalb sehe ich zu, dass ich mich\nnach einem schweißtreibenden\nTraining immer gut abtrockne.\nSo weit kommt es noch, dass ich\nmich von einer Erkältung auf die\nReservebank schicken lasse!",
      "EUen": "Yeah, it can get pretty chilly in\nhere when I fire up the old\n.\nI actually have to be careful when\nI'm cooling down after a big workout.\nDon't wanna deep-freeze my glutes!",
      "EUes": "Sí, puede llegar a hacer bastante\nfresco con   aquí.\nY debo tener cuidado, porque no es\nbueno enfriarse de golpe después\nde haber sudado a saco.",
      "EUfr": "Quand j'allume , c'est vrai que ça peut jeter un froid.\nD'ailleurs je fais toujours attention à\néviter le choc thermique, quand je\nme rafraîchis après mes exercices.\nCe serait dommage d'être transformé\nen statue de glace façon athlète\nolympique !",
      "EUit": "Sì, può diventare molto fresco\nqui dentro quando accendo \nfidat .\nTra l'altro devo fare attenzione dopo\nun allenamento intenso o rischio di\ncongelarmi i glutei!",
      "EUnl": "Ja, ja! Het kan hier best frisjes worden als ik mijn  aanzet.\nBij mijn coolingdown moet ik echt\noppassen. Mijn monnikskapspieren\nmogen geen ijskapspieren worden!",
      "EUru": "Знаю, тут теперь вечная мерзлота.\n опять работал на полную катушку.\nВообще не стоит переохлаждаться\nпосле тренировок. Так и мускулы\nягодиц застудить недолго!",
      "JPja": "こないだ　室内トレーニングのあとに\nその　で\nすずんでたら　カゼ引いちゃってさ\nやっぱ　汗をかいたら\nちゃんと　ふかなきゃダメだよなー、\nオマエも　気を付けろよー？　",
      "KRko": "얼마 전에 홈 트레이닝을 한 후에\n으로\n몸을 식혔더니 감기에 걸렸어...\n역시 땀을 흘린 다음에는\n잘 닦아야 한다고 느꼈지－\n너도 조심해라－! !",
      "TWzh": "前陣子我做完室內訓練後，\n想說打開\n來涼快一下，結果就感冒了。\n果然流了汗，還是要好好擦乾才行。\n你也要注意喔——！。",
      "USen": "Yeah, it can get pretty chilly in\nhere when I fire up the old\n.\nI actually have to be careful when\nI'm cooling down after a big workout.\nDon't wanna deep-freeze my glutes!",
      "USes": "Sí, a veces se pone bastante frío\ncon   aquí.\nY debo tener cuidado, porque no es\nbueno enfriarse de golpe después\nde haber sudado a lo loco.",
      "USfr": "Quand j'allume , c'est vrai que ça peut jeter un froid.\nD'ailleurs je fais toujours attention à\néviter le choc thermique, quand je\nme rafraîchis après mes exercices.\nCe serait dommage d'être transformé\nen statue de glace façon athlète\nolympique!"
    }
  },
  {
    "label": "027",
    "attribute": "0x0000000000000000",
    "locale": {
      "CNzh": "这是一件\n能帮助我克服自身弱点的道具！\n只要和这家伙共同起居，\n我就能拥有适应海中生活的身体了吧？\n嘿嘿，你就看着吧？！。",
      "EUde": "Ich hoffe, du hast nicht vor, mit\n  einen Blinzel-Wettkampf zu starten!\nGlaub mir, gegen  verlierst du.\nIch hab mir erst neulich dabei das\nlinke Augenlid gezerrt!",
      "EUen": "Hey, if you wanna lose a staring\ncontest, keep on looking right at\nmy .\nTrust me, you can't win with that\nthing. I sprained an eyeball trying!",
      "EUes": "No estarás pensando echarle\nun pulso de miradas a mi\n, ¿no?\nDesde ya te digo que no le vas\na ganar. ¡Yo lo intenté y me hice\nun esguince en el ojo derecho!",
      "EUfr": "Si  t'a tapé dans l'œil, ne soutiens pas son regard trop longtemps.\nUne fois, j'ai essayé. Je me suis luxé\nla pupille !",
      "EUit": "Beh, se vuoi perdere una gara di\nsguardi, continua pure a fissare\n .\nFidati, non puoi vincere. Io mi sono\nslogato un bulbo oculare provandoci!",
      "EUnl": "Wie keihard ingemaakt wil worden bij een staarwedstrijd, moet naar mijn  kijken.\nGeloof me, dat is onbegonnen werk.\nIk heb het zo vaak geprobeerd dat ik\nmijn oog heb verrekt.",
      "EUru": "Если хочешь проиграть в гляделки,\nсмотри на мой .\nПоверь мне, выиграть невозможно.\nЯ чуть глаза не сломал, тренируясь!",
      "JPja": "その　は\nオイラの弱点に　打ちかつためのアイテムなんだ！\nコイツと　いっしょに　くらしていれば\n海ん中でも　平気な体になれそうだろ？\nへへっ、見てろよー？！　",
      "KRko": "은\n내 약점을 이겨내기 위한 아이템이야!\n같이 살다 보면\n바닷속에서도 견딜 수 있게 되지 않을까?\n헤헷, 두고 봐라－?! !",
      "TWzh": "那個\n可是用來克服我弱點的道具喔！\n只要跟這傢伙一起生活，\n身體應該就能變得可以適應海中環境吧？\n嘿嘿，你等著看吧——！？。",
      "USen": "Hey, if you wanna lose a staring\ncontest, keep on looking right at\nmy .\nTrust me, you can't win with that\nthing. I sprained an eyeball trying!",
      "USes": "No estarás pensando en hacer una\ncompetencia de mirada fija con mi\n, ¿no?\nDesde ya te digo que no le vas\na ganar. ¡Yo lo intenté y me hice\nun esguince en el ojo derecho!",
      "USfr": "Si  t'a tapé dans l'œil, ne soutiens pas son regard trop longtemps.\nUne fois, j'ai essayé. Je me suis luxé\nla pupille!"
    }
  },
  {
    "label": "028",
    "attribute": "0x0000000000000000",
    "locale": {
      "CNzh": "房间里装饰着它的话，\n平时就可以经常端详\n肌肉鼓胀的最佳程度！\n对于运动员来说，\n日常保持最佳体态\n是最基础的事情！。",
      "EUde": "Gefällt dir das Foto? Man beachte\ndie Muskeln – sehen sie darauf nicht\nwie gemeißelt aus?\nIch weiß, ich weiß, so sehen die auch\nim Original aus... Aber doppelt hält\nbesser, (Floskel)!",
      "EUen": "Oh...that. Yeah, I commissioned that\nportrait when I was in absolute peak\nphysical condition.\nI mean, I'm STILL in absolute peak\nphysical condition, but it's nice to\nhave the photo, (catchphrase).",
      "EUes": "Ah, sí... Me hice ese retrato cuando\nme encontraba en la plenitud\nde mis facultades físicas.\nLo cual no es mucho especificar,\nporque ese es mi estado habitual, (catchphrase).",
      "EUfr": "Oh... Oui, ça me revient. Ce portrait\na été réalisé un jour où j'étais au top\nde ma forme.\nEn fait, je suis TOUJOURS au top\nde ma forme. Mais c'est chouette\nd'avoir une photo, .",
      "EUit": "Ah... quel ritratto. Sì, ho chiesto di\nfarmelo quando ero in condizioni\nfisiche a dir poco ideali.\nBeh, anche adesso sono al top, come\nsempre, ma è gratificante ammirare i\npropri muscoli in foto, !",
      "EUnl": "Vind je het een mooie foto? Die\nheb ik laten maken toen ik op de\ntoppen van mijn kunnen was.\nIk ben natuurlijk NOG STEEDS in\ntopvorm, maar ik zie mijn spieren\ngraag vereeuwigd op een foto.",
      "EUru": "О... это. На этом снимке\nя в отличной спортивной форме.\nВ смысле, конечно, я все еще\nв отличной спортивной форме,\nно приятно иметь доказательство!",
      "JPja": "それ、フダンから\nベストな　キンニクの　ハリ具合を\nカクニンできるように　かざってるんだー！\n一流の　アスリートなら\n最高のコンディションを　キープするのは\nキホン中の　キホンだからなー！　",
      "KRko": "평소부터 \n나의 베스트 근육을 확인할 수 있도록\n도와주는 역할이야－!\n최상의 컨디션을 유지하는 건\n운동선수의 기본이니까－! !",
      "TWzh": "裝飾在那邊的東西\n能讓我在平時\n好好檢視自己的肌肉狀況喔！\n身為一個運動員，\n保持在最完美的狀態\n可是基本中的基本啊——！。",
      "USen": "Oh...that. Yeah, I commissioned that\nportrait when I was in absolute peak\nphysical condition.\nI mean, I'm STILL in absolute peak\nphysical condition, but it's nice to\nhave the photo, (catchphrase).",
      "USes": "Ah, sí... Me hice ese retrato cuando\nme encontraba en la plenitud\nde mis facultades físicas.\nLo cual no es mucho decir, porque\nese es mi estado habitual, (catchphrase).",
      "USfr": "Oh... Oui, ça me revient. Ce portrait\na été réalisé un jour où j'étais au top\nde ma forme.\nEn fait, je suis TOUJOURS au top\nde ma forme. Mais c'est malade\nd'avoir une photo, ."
    }
  },
  {
    "label": "029",
    "attribute": "0x0000000000000000",
    "locale": {
      "CNzh": "怎么？你很在意\n这吗？\n我想起来了，你好像也很喜欢这类东西的。\n只要房间里摆上它，\n心情好得就像回到小时候一样！\n诶？你说我本来就还是个小孩？！。",
      "EUde": "Man fragt sich bestimmt, was \n bei mir zu Hause zu suchen hat, stimmt's?\nIch bring's trotzdem nicht übers\nHerz,  wegzuwerfen. Aber spielen\nwerd ich damit ganz sicher nicht!",
      "EUen": "Oh, you're wondering about my\n, eh?\nWell, you know how nostalgia is.\nThat's why I keep that thing around.\nI definitely don't still play with it...",
      "EUes": " es de esas cosas que se tienen en casa por pura nostalgia.\n miro y me acuerdo de cuando era\n esmirriad y con el cuerpo aún por desarrollar...\nVamos, que no es que juegue con  ni nada de eso...",
      "EUfr": "Oh, tu veux savoir ce que je pense de\n chouette  ?\nEh bien sache qu' me rend tout\nnostalgique. Même si je ne joue pas\navec...",
      "EUit": " è una di quelle cose che si tengono in\ncasa per pura nostalgia.\nE a volte per giocarci...",
      "EUnl": "Mijn   , hè?\nIk ben er erg blij mee, puur uit\nnostalgie, hoor. Niet omdat ik er\nnog af en toe mee speel...",
      "EUru": "Засмотрелся на мой , да?\nВоспоминания о детстве накатили.\nВот и держу здесь. Не подумай,\nя уже не играюсь...",
      "JPja": "なんだ？　が\n気になるってか？\nオマエも　こういうのスキそうだもんな\n部屋に置いてるだけで　コドモのころみたいに\nテンションが上がるぞ！\nえ？　まだコドモだろってー？！　",
      "KRko": "뭐냐? 이\n자꾸 신경 쓰이냐?\n너도 좋아하는구나－\n그냥 방에 놓여 있는 것뿐인데\n어릴 때 생각이 나서 엄청 신나－!\n엥? 지금도 어린애 아니냐고－?! !",
      "TWzh": "什麼？你對\n很有興趣嗎？\n你看起來也很喜歡這種東西啊。\n光是把它擺在房裡，\n心情就會像小時候一樣開心喔！\n咦？你說我還是小孩子！？。",
      "USen": "Oh, you're wondering about my\n, eh?\nWell, you know how nostalgia is.\nThat's why I keep that thing around.\nI definitely don't still play with it...",
      "USes": " es una de esas cosas que uno tiene en su casa por pura nostalgia.\n miro y me acuerdo de cuando era\n flacuch y con el cuerpo aún por desarrollar...\nO sea, que no es que todavía  use para jugar ni nada de eso...",
      "USfr": "Oh, tu veux savoir ce que je pense de\n  trop cool?\nEh bien sache qu' me rend tout\nnostalgique. Même si je ne joue pas\navec..."
    }
  },
  {
    "label": "030",
    "attribute": "0x0000000000000000",
    "locale": {
      "CNzh": "嗯？你很在意\n这吗？\n你可真够敏锐的啊！。\n房间里要是有一件这样的东西，\n就能营造出一点成熟氛围，很帅气吧？\n什么？你觉得小孩子才会这样想？！",
      "EUde": "Oh, fragst du dich jetzt, was ich mit\n  anfangen kann?\nTja, bei mir dreht sich eben nicht\nimmer nur alles um Bizeps, Trizeps\nund !\nSchließlich will auch mein Hirn hin\nund wieder trainiert werden! Ist 'nem\nMuskel gar nicht mal so unähnlich.",
      "EUen": "Oh, did that catch your eye? Why,\nyes, you've found my treasured\n!\nSee? I'm not just all about muscles\nand gains and , right?\nI have depth! I'm sophisticated!\nYou can't see my brain muscle, but\nit's flexing SUPER hard right now.",
      "EUes": "... es mi máquina de ejercicio para el coco.\nDespués de todo, el cerebro es como\nun músculo más, y lo quiero tener\nbien tonificado, .",
      "EUfr": "Oh, tu as fait une trouvaille ?  fait partie de ce que j'ai de plus cher !\nTu vois ? Y a pas que les muscles et , dans ma vie. Je suis complexe ! Et sophistiqué !\nEt tu peux pas voir mon cerveau,\nmais il est en pleine séance de\nflexions-extensions.",
      "EUit": "  è il mio tesoro!\nVedi che non sono solo bicipiti e\n? Ho sviluppato anche\nsentimenti e muscoli del cuore!\nBeh, di certo non puoi vedere\nneanche l'attività motoria del mio\ncervello, ma è super allenato!",
      "EUnl": "Het verbaast sommige lui dat ik iets als  weet te waarderen.\nMijn leven bestaat uit meer dan spieren en ! Ik heb diepgang!\nMijn hersenspieren zie je misschien\nniet, maar ze zijn enorm.",
      "EUru": "О, ты заметил? Мой драгоценный\n!\nВидишь? Меня интересуют не\nтолько мышцы, \nи победы. Я еще и умный!\nМышцы мозга не видны снаружи,\nно я их тоже качаю.",
      "JPja": "ん？　が\n気になるってか？\nオマエ、やっぱ　するどいな！　\nこういうのが部屋にあると\nちょっと　大人っぽくて　カッコいいだろー？\nえっ、そういうとこが　コドモだってー？！",
      "KRko": "응?\n 말이야?\n너, 보는 눈이 있네－! \n방에 하나쯤 있으면\n좀 어른 같고 멋지잖냐－!\n뭐? 그렇게 생각하는 게 어린애 같다고－?!",
      "TWzh": "我覺得房間裡擺著\n，\n真的是很棒的想法喔！。\n因為只要有這東西，\n就會有既成熟又帥氣的氛圍啊！\n咦？你說我強調成熟反而感覺很幼稚！？",
      "USen": "Oh, did that catch your eye? Why,\nyes, you've found my treasured\n!\nSee? I'm not just all about muscles\nand gains and , right?\nI have depth! I'm sophisticated!\nYou can't see my brain muscle, but\nit's flexing SUPER hard right now.",
      "USes": "... es mi máquina de ejercicio para la mente.\nDespués de todo, el cerebro es como\nun músculo más, y lo quiero tener\nbien tonificado, .",
      "USfr": "Oh, tu as fait une trouvaille?  fait partie de ce que j'ai de plus cher!\nTu vois? Y'a pas que les muscles et , dans ma vie. Je suis complexe! Et sophistiqué!\nEt tu peux pas voir mon cerveau,\nmais il est en pleine séance de\nflexions-extensions."
    }
  },
  {
    "label": "031",
    "attribute": "0x0000000000000000",
    "locale": {
      "CNzh": "我最近对这类杂货\n很痴迷哦！\n前段时间，\n我还梦见房间里\n全都是。\n睁开眼睛的时候，\n免不了有一种噩梦缠身的感觉。。",
      "EUde": "In letzter Zeit bin ich total scharf\nauf so Gedöns wie   dort.\n hat mich neulich sogar mal quer\nüber die Insel gejagt! Also im Traum.\nWar trotzdem kein Spaß, glaub mir.\nWenn ich im richtigen Leben doch\nauch nur so schnell wie in meinen\nTräumen sprinten könnte...",
      "EUen": "Lately, I've been into doodads like\nmy  here.\nI did have a dream that one came to\nlife and was chasing me. But...I set a\nnew dream-10K PR, so it's all good!",
      "EUes": "Hace poco soñé que  como  cobraba vida y me perseguía.\nImagínate que ocurriese de verdad.\nEntonces sí que iba a batir todos\nlos récords de velocidad...",
      "EUfr": "Je m'intéresse à la mode des trucs\nqui font « adulte », à commencer par\n.\nJ'ai même rêvé qu' était vivant\net me courait après. Ça m'a permis\nd'améliorer mon chrono aux 10 km.",
      "EUit": "Di recente sono un po' ossessionato\nda oggetti vari, tipo  .\nHo sognato persino che uno di quegli\noggetti prendeva vita e mi inseguiva!\nMa... ovviamente non riusciva\nad acchiapparmi! Nella corsa sono\nimbattibile!",
      "EUnl": "De laatste tijd ben ik geïnteresseerd in dingen als mijn .\nIk droomde laatst wel dat  tot\nleven  en achter me aan\n...\nHet was doodeng, maar wat was ik\nsnel, man!",
      "EUru": "В последнее время я интересуюсь\nвсякими штуковинами типа\n.\nМне приснилось, что одна такая\nштука ожила и напала на меня. Но... я уже обновил гаджет для снов.",
      "JPja": "オイラ　このごろは、\nこういう　ざっかに　ハマってるんだー\nこないだなんか　部屋中\nだらけに\nなってるユメを　見たんだけど・・・\nさすがに　うなされて\n目が覚めちゃったぞー、",
      "KRko": "나 요즘\n생활감이 느껴지는 소품이 너무 좋더라고－\n얼마 전에는 방 안이 전부\n으로\n가득한 꿈까지 꿨다니까－!\n거의 가위 눌린 수준이었어, ...",
      "TWzh": "我最近很喜歡這種生活雜貨喔。\n之前還夢到房間裡有著\n滿滿的！\n從夢裡醒來後，\n覺得自己好像做了一場惡夢，。",
      "USen": "Lately, I've been into doodads like\nmy  here.\nI did have a dream that one came to\nlife and was chasing me. But...I set a\nnew dream-10K PR, so it's all good!",
      "USes": "Hace poco soñé que  como  cobraba vida y me perseguía.\nImagínate si pasara de verdad.\nEntonces sí que batiría todos\nlos récords de velocidad...",
      "USfr": "Je m'intéresse à la mode des trucs\nqui font « adulte », à commencer par\n.\nJ'ai même rêvé qu' était vivant\net me courait après. Ça m'a permis\nd'améliorer mon chrono aux 10 km."
    }
  },
  {
    "label": "032",
    "attribute": "0x0000000000000000",
    "locale": {
      "CNzh": "你这副表情就像是在问我有没有好好使用\n啊？\n哈哈，你可别小瞧我哦！\n当然有在经常用啦！\n我偶尔还会把它当作\n锻炼肌肉的道具来使用呢。。",
      "EUde": "Warum schaust du mich so an, als ob\nich noch nicht mal wüsste, was \n ist?\nSelbstverständlich benutz ich \nauch! Als ob ich andauernd nur\nGewichte im Kopf hätte...\nWobei... Wenn ich wirklich Gewichte\nIM Kopf hätte, wär meine Nacken-\nmuskulatur garantiert wie aus Stahl!",
      "EUen": "You're giving me this look like,\n\"Does he really use \n?\"\nOf COURSE I use it, (catchphrase).\nIt's not like I have a kettlebell\ninstead of a brain.\nAlthough...if I did...imagine how\nstrong my neck would get...",
      "EUes": "Por supuesto que sé usar mi . ¿Creías que el tarro solo me da para correr?\nNo me hizo falta ni mirar el manual\nde instrucciones para aprender\na .",
      "EUfr": "Je te vois venir... « Est-ce qu'il\nutilise vraiment  ? ⁠»\nFigure-toi que oui, . C'est pas un poids de 100 kilos que j'ai dans la caboche.\nQuoique... si c'était le cas... imagine\nla taille de mes muscles trapèzes...",
      "EUit": "Ho imparato molto presto a usare\n.\nDopo aver studiato il libretto di\nistruzioni. Non ho mica un\nvogatore al posto del cervello!\nAnche se... pensa a quanto\nsarebbero forti i miei muscoli\noccipitali!",
      "EUnl": "Aan je snoet te zien vraag je je af of ik mijn  echt gebruik...\nMaar NATUURLIJK, (catchphrase)! Ik heb heus geen stel halters in mijn hoofd in plaats van een stel hersens.\nAlhoewel... Als ik dat wel zou\nhebben... Denk je eens in hoe sterk\nmijn nekspieren zouden zijn...",
      "EUru": "Ты на меня так смотришь, будто\nсомневаешься, что я использую\n.\nКонечно, использую. .\nТы не думай, что у меня гиря вместо мозгов.\nХотя... если подумать... это была\nбы отличная тренировка для мышц\nшеи...",
      "JPja": "オイラが　を\nちゃんと　使えてるのかって　顔してるな？\nハハッ、なめるなよー？！\nもちろん　バッチリ使いこなしてるぞ！\nたまーに　キントレグッズに見立てて\n使うこともあるけどなー、",
      "KRko": "내가 을\n제대로 쓰고 있는지 의심하는 얼굴인데?\n하핫－ 얕보지 말라구－!\n그야말로 100% 활용하고 있거든－!\n가－끔씩 트레이닝 용품처럼\n쓸 때도 있지만, －!",
      "TWzh": "你一臉覺得我不會使用\n的表情喔。\n哈哈，可別小看我喔？\n我可是很擅長使用這種東西的！\n我偶爾會拿它來健身啦，。",
      "USen": "You're giving me this look like,\n\"Does he really use \n?\"\nOf COURSE I use it, (catchphrase).\nIt's not like I have a kettlebell\ninstead of a brain.\nAlthough...if I did...imagine how\nstrong my neck would get...",
      "USes": "Por supuesto que sé usar mi . ¿Creías que tenía la cabeza de adorno?\nNo me hizo falta ni mirar el manual\nde instrucciones para aprender\na .",
      "USfr": "Je te vois venir... « Est-ce qu'il\nutilise vraiment ? ⁠»\nFigure-toi que oui, . C'est pas un poids de 100 kilos que j'ai dans la caboche.\nQuoique... si c'était le cas... imagine\nla taille de mes muscles trapèzes..."
    }
  },
  {
    "label": "033",
    "attribute": "0x0000000000000000",
    "locale": {
      "CNzh": "房间里\n安置上，\n这样我在屋子里也能尽情流汗了！\n先用它让身体暖和起来再进行锻炼，\n这样一来就能出很多汗，我很推荐啊！\n不过地板就会变得湿淋淋啦！。",
      "EUde": "Ziemlich cool, was? Für mich ist   der Pokalsieger dieser Heizperiode!\nTraining wie im Hochsommer,\naber ganz ohne unsportlichen\nSonnenbrand, (Floskel)!",
      "EUen": "Nice, huh? I absolutely love\nmy .\nThe only thing better than a tough\nat-home workout is a ridiculously\nsweaty at-home workout.",
      "EUes": "Sé lo que estás pensando, pero no: no uso  para el calentamiento.\nEso sí, va genial para entrenos\nsudorosos, .",
      "EUfr": "Pas mal, hm ? Crois-moi, ce petit  envoie des joules !\nQu'y a-t-il de mieux qu'un exercice\ncorsé chez toi ? Un exercice où tu\nperds des litres de sueur chez toi !",
      "EUit": "Bello, eh? Vado matto per \n.\nL'unica cosa migliore di una bella\nsudata all'aperto è una bella\nsudata nella propria casetta!",
      "EUnl": "Cool, hè? Ik ben wég van mijn .\nEr is maar één ding beter dan een\nzware thuistraining, en dat is een\nbelachelijk hete thuistraining.",
      "EUru": "Нравится? Я и сам без ума от этого\n.\nТо что надо, чтобы как следует\nвспотеть во время интенсивной\nтренировки. Всегда об этом мечтал!",
      "JPja": "オイラ、部屋ん中でも　いい汗をかくために\nを\n置いてるんだー！\nガンガンに　体を温めてから　キントレすると\nいっぱい汗が出てくるから　おススメだぞ！\nゆか、ビショビショになるけどな！　",
      "KRko": "난 방 안에서도 땀을 흘리기 위해서\n을\n갖다 놨어－!\n이걸로 뜨끈하게 몸을 데운 다음에 운동하면\n땀이 엄청나게 나니까 너도 해봐!\n바닥이 좀 축축해지긴 하지만, !",
      "TWzh": "房間裡有，\n我就能盡情揮灑汗水啦！\n像這樣溫暖身體後再健身，\n就能提升出汗量，感覺超棒的！\n不過地板會被我弄濕就是了……。",
      "USen": "Nice, huh? I absolutely love\nmy .\nThe only thing better than a tough\nat-home workout is a ridiculously\nsweaty at-home workout.",
      "USes": "Brutal, ¿eh? Aunque no uso  para el calentamiento.\nSí que va genial para entrenamientos sudorosos, .",
      "USfr": "Pas mal, hm? Crois-moi, ce petit  envoie des joules!\nQu'y a-t-il de mieux qu'un exercice\ncorsé chez toi? Un exercice où tu\nperds des litres de sueur chez toi!"
    }
  },
  {
    "label": "034",
    "attribute": "0x0000000000000000",
    "locale": {
      "CNzh": "你果然会这么盯着看啊。\n我的海报是不是很叫人着迷啊？\n海报里的我的肌肉状态\n比其他任何时候都要好，\n所以我很中意它！。",
      "EUde": "Braucht dir nicht peinlich zu sein,\ndas Poster so anzustarren. Ist ja\nauch kein Wunder, bei DEM Motiv!\nDas Bild wurde nach einer mehr-\nstündigen Hantel-Session geknipst.\nDicker waren meine Bizepse selten!",
      "EUen": "Can't help but stare, right? Don't\nworry. That's a perfectly normal\nreaction to physical perfection.\nI had just finished a workout when\nthis was taken, so my bicep peaks\nare extra peaky. Good stuff!",
      "EUes": "Se te van los ojos, ¿eh? Normal, le\npasa a todo el mundo. La perfección\nfísica es lo que tiene.\nPosé justo después de terminar\nuna sesión de brazos, por eso me\nsalen tan marcados los bíceps.",
      "EUfr": "Pas facile d'en détacher les yeux,\nhein ? T'en fais pas. C'est la réaction\nnormale à la perfection physique.\nElle a été prise à la fin d'une séance\nd'entraînement, alors mes muscles\nsaillants... saillent encore plus.",
      "EUit": "Non puoi fare a meno di ammirarmi,\nvero? Beh, è una reazione normale\ndavanti alla pura perfezione fisica.\nAvevo appena finito un allenamento e\nin questo poster i miei bicipiti erano\nancora in tensione. Ottimo scatto!",
      "EUnl": "Je kunt je ogen er niet van afhouden,\nhè? Dat is een normale reactie op\nhet zien van lichamelijke perfectie.\nToen die foto werd genomen, had ik\nnet een work-out gehad. Mijn spieren\nstaan er op hun best op!",
      "EUru": "Что, глаз не отвести? Не волнуйся,\nэто нормально. Обычная реакция\nна физическое совершенство.\nЯ как раз закончил тренировку, так\nчто моя гора мускулов была на пике\nрельефности. Хорошо вышло!",
      "JPja": "やっぱ　まじまじ見ちゃうよなー\nオイラのポスター、ほれぼれするだろ？\nこのときの　キンニクの仕上がり、\nいつにもまして　サイコーだったから\nお気に入りなんだー！　",
      "KRko": "역시 자꾸 눈이 가지－?\n내 포스터, 진짜 잘 나오지 않았냐?\n이때 근육 상태가\n평소보다 훨씬 더 잘 잡혀 있어서\n나도 엄청 맘에 들어－! !",
      "TWzh": "果然會讓人想一直盯著看啊……\n我的海報很令人著迷吧？\n攝影時我的肌肉狀況比平時還要完美，\n所以我很中意這張海報喔——！。",
      "USen": "Can't help but stare, right? Don't\nworry. That's a perfectly normal\nreaction to physical perfection.\nI had just finished a workout when\nthis was taken, so my bicep peaks\nare extra peaky. Good stuff!",
      "USes": "Se te van los ojos, ¿eh? Tranqui, le\npasa a todo el mundo. Eso es lo que\nhace la perfección física.\nPosé justo después de terminar\nuna sesión de brazos, por eso me\nsalen tan marcados los bíceps.",
      "USfr": "Pas facile d'en détacher les yeux,\nhein? T'en fais pas. C'est la réaction\nnormale à la perfection physique.\nElle a été prise à la fin d'une séance\nd'entraînement, alors mes muscles\nsaillants... saillent encore plus."
    }
  },
  {
    "label": "035",
    "attribute": "0x0000000000000000",
    "locale": {
      "CNzh": "把这样的\n音乐封面装饰在房间里，\n是不是显得既懂行又帅气啊？\n我当然也好好听音乐的！\n……不过，回过神来的时候，\n常常发现自己睡着了。。",
      "EUde": "Die Cover mancher Alben könnten\nglatt als Kunst durchgehen, findest\ndu nicht auch?\nBesonders gut gefällt mir ja das\nAlbum „“.\nDas macht ordentlich was her.\nAlso nicht bloß optisch! Man kann im\nTakt der Musik nämlich auch prima\nSit-ups machen, (Floskel)!",
      "EUen": "Album covers make great art. They're\njust so...sophisticated. Especially\n.\nOh! I mean. That's not why it's\ndisplayed or anything. I also like\nthe music. It's a good cardio tune!",
      "EUes": "Las portadas de discos siempre\nquedan genial como decoración.\nMi  me hace parecer más culto y sofisticado.\nY, por si fuera poco, la canción\ntambién me viene al pelo para\nhacer cardio. ¡Todo son ventajas!",
      "EUfr": "Les pochettes de disques font de\nchouettes décos murales, surtout\n.\nMais je l'écoute aussi de temps en\ntemps ! À vrai dire, j'ai pas trouvé\nmieux quand je fais de la cardio !",
      "EUit": "Copertine di album come opere\nd'arte da appendere alle pareti!\nSono così... sofisticate.\nSpecialmente se si tratta di .\nAh! Ma non è solo per arredare!\nMi piace anche la musica. È quella\ngiusta per un allenamento cardio!",
      "EUnl": "Lui die platenhoezen een ereplekje in\nhun huis geven, zijn vaak best cool.\nMaar wie \"⁠⁠⁠\" uitstalt in zijn huis, is pas echt HEEL cool...\nZelf vind ik de muziek gewoon heel\ngoed. Uitstekend voor mijn cardio-\ntraining!",
      "EUru": "Обложки альбомов — крутой декор.\n«» сразу показывает мой тонкий вкус.\nОй! То есть... Он здесь не поэтому.\nМне сама музыка нравится! Хорошо\nподходит для кардиотренировок!",
      "JPja": "みたいな\nミュージックジャケットを　部屋にかざるって\nちょっとツウっぽくて　カッコいいよなー？\nもちろんミュージックも　ちゃんと聞くぞ！\n・・・まあ　気が付いたら\nいつも　ねちゃってるんだけど、",
      "KRko": " 같은\n음반 재킷을 방에다 장식해두면\n음악에 대해 잘 아는 것 같아서 멋지지 않냐－?\n물론 노래도 잘 듣고 있다구!\n...항상 정신을 차리면\n어느샌가 잠들었던 걸 깨닫지만, ...",
      "TWzh": "把\n這種唱片包裝放在房間當擺飾，\n感覺就像是專業人士，很帥氣對吧？\n當然音樂本身我也有好好聽喔！\n雖然……每次都是醒來後才發現\n自己聽到睡著就是了，。",
      "USen": "Album covers make great art. They're\njust so...sophisticated. Especially\n.\nOh! I mean. That's not why it's\ndisplayed or anything. I also like\nthe music. It's a good cardio tune!",
      "USes": "Las portadas de discos siempre\nquedan genial como decoración.\nMi  me hace parecer más culto y sofisticado.\nY, por si fuera poco, la canción\ntambién me viene al pelo para\nhacer cardio. ¡Son todas ventajas!",
      "USfr": "Les pochettes de disques font de\nbelles décorations, surtout .\nMais je l'écoute aussi de temps en\ntemps! À vrai dire, j'ai pas trouvé\nmieux quand je fais du cardio!"
    }
  },
  {
    "label": "036",
    "attribute": "0x0000000000000000",
    "locale": {
      "CNzh": "大家都说我房间里有股汗味，\n我就想用的\n气味来掩盖一下。\n之前来家里玩的时候，\n忍着一脸为难，没待多久就回去了。\n看来没遮掩成功啊。。",
      "EUde": "Neulich meinte doch glatt jemand,\ndass es bei mir daheim „ein bisschen\nnach Schweiß“ riechen würde.\nIch hatte eigentlich gehofft, dass \n hier was ausrichten könnte.\nAber als neulich  zu Besuch kam, hat  direkt auf der Türschwelle wieder kehrtgemacht.\nSchätze, gegen meinen natürlichen\nKörpergeruch können selbst Blumen\nnicht anstinken!",
      "EUen": "I've been told my room \"reeks of\nsweat.\" That's why I put out \n.\nA buddy came over recently, made a\nweird face, and left...but which came\nfirst, the stink or ?",
      "EUes": "Alguien me dijo que mi casa olía\nraro, así que espero que mejore con\n.\nHace poco  estuvo aquí y se marchó con cara chunga, así que no sé si ayuda mucho.",
      "EUfr": "Avant, on disait que chez moi, ça\n« empestait la sueur »...\nMais tout ça a changé depuis que j'ai\n.\n est passé l'autre fois,  s'est bouché le nez et  est parti en courant.\nLa question est de savoir qui de  ou de l'odeur était là en premier...",
      "EUit": "Mi hanno detto che casa mia \"puzza\ndi sudore\".\nCosì ho pensato che la soluzione\nnon poteva che essere .\nPoi però è venut da me , ha fatto una faccia strana e se n'è andat...\nÈ stato un po' imbarazzante. Pensi\nche non abbia funzionato?",
      "EUnl": "Om te voorkomen dat mijn huis te veel naar zweet gaat ruiken gebruik ik  .\nLaatst kwam een vriend van me\nlangs, maar hij is niet lang gebleven\nomdat hij het alsnog vond stinken.\nHij deed haast alsof er iets mis is\nmet een gezonde zweetlucht.",
      "EUru": "Мне сказали, что у меня дома запах\nпота стоит. Ну, вот я и поставил\nтут .\nТак недавно зашел ,\nскривился и вылетел пулей.\nМожет, это вообще от него пахнет?",
      "JPja": "みんなに　部屋が汗くさいって　言われるから\nの　ニオイで\nごまかせないかと　思ったんだけど\nこないだ　が来たときに\nビミョーな顔して　スグ帰ってったから\nごまかしきれなかったみたいだ、",
      "KRko": "자꾸 나한테 방에서 땀 냄새가 난다길래\n 냄새로\n어떻게 숨길 수 없을까 하고 놔봤는데...\n얼마 전에 이 놀러왔을 때\n묘～한 표정으로 바로 집에 간 걸 보면\n안 숨겨졌나 봐, －",
      "TWzh": "因為大家都說我的房間有汗臭味，所以我用\n的氣味\n來試著掩蓋看看。\n不過上次來玩時，\n進門後不久就帶著複雜的表情回去了。\n看來是掩蓋失敗了啊，。",
      "USen": "I've been told my room \"reeks of\nsweat.\" That's why I put out \n.\nA buddy came over recently, made a\nweird face, and left...but which came\nfirst, the stink or ?",
      "USes": "Alguien me dijo que mi casa olía a\nsudor, así que espero que mejore con\n.\nHace poco  estuvo aquí y puso una cara extraña, así que\nno sé si ayuda mucho.",
      "USfr": "Avant, on disait que chez moi, ça\n« empestait la sueur »...\nMais tout ça a changé depuis que j'ai\n.\n est passé l'autre fois,  s'est bouché le nez et  est parti en courant.\nLa question est de savoir qui de  ou de l'odeur était là en premier..."
    }
  },
  {
    "label": "037",
    "attribute": "0x0000000000000000",
    "locale": {
      "CNzh": "像\n这样的小物件，摆在房间里\n不收起来反而是首选！\n不然，收纳的时候，\n要是不小心和衣物混同着塞在一起，\n这些小物件就会被弄得乱七八糟。。",
      "EUde": " scheint es dir ja mächtig angetan zu haben, was?\nTja, mir irgendwie auch. Notfalls\nkann man  auch prima als\nTrainingsgewicht nehmen.",
      "EUen": "I get it. You're curious about my\n, yeah?\nStuff like that is best left out.\nOtherwise I'll mistake it for workout\ngear, and... Well, it won't be pretty.",
      "EUes": "No me lo digas: te intriga mucho\nmi .\nEstá expuest para no confundirlo\ncon la ropa de entreno y ponérmel\nantes de tonificar por error.\nDigamos que... es un error que\nno quiero volver a cometer, .",
      "EUfr": "Je sais... Qu'est-ce que je fabrique\navec  ?\nJ'aime  garder bien en évidence.\nParce que si j'y fais pas attention,\nje risque de  prendre pour un\naccessoire d'entraînement...\nEt le résultat serait pas beau à voir,\n.",
      "EUit": "  sta molto bene fuori.\nSe fosse in casa, potrei scambiarl\nper un attrezzo e... diciamo che non\nfarebbe una bella fine, .",
      "EUnl": "Klein grut zoals   hier mooi, hè?\nBeter dat  hier uitgestald \ndan dat  bij mijn sportkleren\n, (catchphrase).",
      "EUru": "Я понял. Тебе интересно, почему\n здесь? Я предпочитаю держать его на виду.\nПотому что, если перепутаю его\nсо спортивной формой... будет\nто еще зрелище. .",
      "JPja": "みたいな\n小物は、かたづけないで\n部屋にかざっとくのが　ベストだな！\nでないと、うっかり\nウェアといっしょに　しまいこんで\nぐちゃぐちゃになるんだよ、",
      "KRko": " 같은 건\n어디 집어넣지 말고\n방에다 장식해두는 게 제일이야!\n안 그러면 나도 모르게\n운동복이랑 같이 넣었다가\n땀 냄새가 밸지도 모른다구, －",
      "TWzh": "像\n這種小東西，不收納起來\n直接裝飾在房間裡才是最好的！\n不然要是不小心和衣服收在一起，\n那可是會變得亂七八糟的喔，。",
      "USen": "I get it. You're curious about my\n, yeah?\nStuff like that is best left out.\nOtherwise I'll mistake it for workout\ngear, and... Well, it won't be pretty.",
      "USes": "No me digas: te intriga mucho\nmi .\nEstá expuest para que no l\nconfunda con la ropa del gimnasio\ny me l ponga por error.\nDigamos que... es un error que\nno quiero volver a cometer, .",
      "USfr": "Je sais... Qu'est-ce que je fabrique\navec ?\nJ'aime  garder bien en évidence.\nParce que si j'y fais pas attention,\nje risque de  prendre pour un\naccessoire d'entraînement...\nEt le résultat serait pas beau à voir,\n."
    }
  },
  {
    "label": "038",
    "attribute": "0x0000000000000000",
    "locale": {
      "CNzh": "不把收好，\n而是把它装饰在房间里，\n我听说这是一种很帅气的行为！\n这样一来，\n我就有借口在房间里晾晒\n浸满汗水的衣物了！。",
      "EUde": "Da staunst du, was?   macht echt was her, oder?\nRein optisch macht sich das Teil\nauf jeden Fall besser als ein\nabgewetztes Paar Jogginghosen.",
      "EUen": "I hear it's super IN these days\nto decorate with stuff like my\n.\nWorks great for me! Now folks can't\naccuse me of stuffing my dirty gym\nclothes back in their drawers, heh.",
      "EUes": "Al parecer se lleva lo de decorar con\n.\n¡Me viene al pelo! Así aireo la ropa\ndespués de entrenar y la casa está\nadornada. ¡Viva la eficiencia!",
      "EUfr": "Il paraît qu'utiliser  comme déco est à la mode, .\nEt quel succès pour moi ! On ne me\nreproche plus de ranger mes tenues\npleines de sueur dans mes placards !",
      "EUit": "Pare che ora vada di moda arredare\nla casa con capi di vestiario, come\n.\nA me sta benissimo, eh! Ora nessuno\nmi può accusare di lasciare i vestiti\nda palestra sudati sul pavimento!",
      "EUnl": "Je huis inrichten met zoiets als  is tegenwoordig schijnbaar helemaal in.\nHartstikke goed, (catchphrase)! Nu kan niemand zeggen dat ik mijn vieze sportkleren gewoon in een la ram.",
      "EUru": "Слышал, это в дизайне последнее\nслово —  как декор. .\nГы-гы-гы, теперь никто не скажет,\nчто я свою грязную спортивную\nодежду по их ящикам прячу.",
      "JPja": "あえて　を\nかたづけないで　部屋にかざるのが\nカッコいいって聞いたんだ！\nこれで　アセまみれのウェアを\n部屋に　ほったらかしておいても\n言いわけできるってなー！　",
      "KRko": "을\n치우지 않고 일부러 방에 장식해두는 게\n멋있는 거라고 들었어!\n이러면 땀으로 범벅이 된 운동복을\n방에다 그대로 놔도\n인테리어라고 변명할 수 있겠는데－! !",
      "TWzh": "不收拾，\n而是將其用來裝飾房間，\n我聽說這是一種很帥的做法喔！\n而且這樣還能為散亂在房間內的\n那些沾滿汗水的衣服找藉口！。",
      "USen": "I hear it's super IN these days\nto decorate with stuff like my\n.\nWorks great for me! Now folks can't\naccuse me of stuffing my dirty gym\nclothes back in their drawers, heh.",
      "USes": "Al parecer se usa lo de decorar con\n.\n¡Me viene al pelo! Así ventilo la ropa\ndespués de entrenar y la casa está\nadornada. ¡Viva la eficiencia!",
      "USfr": "Il paraît qu'utiliser  comme décoration est à la mode.\nEt quel succès pour moi! On ne me\nreproche plus de ranger mes tenues\npleines de sueur dans mes placards!"
    }
  },
  {
    "label": "039",
    "attribute": "0x0000000000000000",
    "locale": {
      "CNzh": "啊，可别随随便便\n去碰啊？！\n我为了锻炼腿部肌肉，\n额外给它加了重量，结果太沉了，\n穿着它连路都不好走。。",
      "EUde": "Hey! Geh lieber nicht zu dicht ran an\n .\n hab ich neulich beim Trainieren\ngetragen, und zwar ohne Socken.\nHalt also lieber Sicherheitsabstand...",
      "EUen": "Whoa there! Don't get too close to\nmy .\nThey're pretty ripe, heh. I added\nweights to bust my quads, but I also\nforgot to wear socks, so...it's bad.",
      "EUes": "¡Pero bueno! ¡No te acerques tanto\na mi !\nLe he puesto unas pesas interiores\npara hacer más músculo cuando\ncamino, .\nComo tú no estás acostumbrado\na darle tanta caña a las piernas,\nlo mismo podrías hacerte daño.",
      "EUfr": "N'avance pas plus ! Pour ta santé,\nreste à bonne distance de m\npauvre .\nPour tout dire,  n'a pas eu une\nexistence facile, récemment.\nJe me suis lesté pour travailler les\nquadriceps, mais j'ai oublié de mettre des chaussettes...\n a encore du mal à s'en remettre.",
      "EUit": "Ehi! Non avvicinarti troppo\n .\nNiente male, eh?\nHo aggiunto dei pesi per potenziare\ni quadricipiti, ma poi ho dimenticato\ndi indossare le calze, quindi... Uffa!",
      "EUnl": "Ho eens even! Kom niet te dicht bij mijn .  wil je niet ruiken, geloof me.\nIk heb  één keer gedragen om te\nzien of het wat was... Maar ik weet\nweer waarom ik blootsvoets sport!",
      "EUru": "Эй! Держись-ка подальше от моих\n. Они довольно пахучие, гы-гы-гы.\nЯ взял утяжелители, чтобы мышцы\nбедер тренировать, но был без\nносков... Так что там все плохо.",
      "JPja": "あ、には\nうかつに　さわるんじゃないぞ？！\n足の筋力アップのために\n重りを付けてみたんだけど、\n重すぎて　マトモに歩けないんだ、",
      "KRko": "아, 은\n함부로 만지면 안 된다?!\n다리의 근력을 키우기 위해서\n더 무겁게 해 놨는데\n너무 무거워서 걸을 수가 없더라, ...",
      "TWzh": "啊，不要隨便去碰\n喔！？\n我為了鍛鍊腿部肌肉，\n所以有試著將它加重，\n不過因為太重了，連走路都有困難啊，。",
      "USen": "Whoa there! Don't get too close to\nmy .\nThey're pretty ripe, heh. I added\nweights to bust my quads, but I also\nforgot to wear socks, so...it's bad.",
      "USes": "¡Pero bueno! ¡No te acerques tanto\na mi !\nLe puse unas pesas interiores\npara hacer más músculo cuando\ncamino, .\nPero como tú no estás acostumbrado\na trabajar tanto las piernas, quizás\npodrías hacerte daño.",
      "USfr": "N'avance pas plus! Pour ta santé,\nreste à bonne distance de m\npauvre .\nPour tout dire,  n'a pas eu une\nexistence facile, récemment.\nJe me suis lesté pour travailler les\nquadriceps, mais j'ai oublié de mettre des bas...\n a encore du mal à s'en remettre."
    }
  },
  {
    "label": "040",
    "attribute": "0x0000000000000000",
    "locale": {
      "CNzh": "你说这啊。\n我最近迷上了\n制作料理。\n在制作料理的过程中，\n我总能想到锻炼肌肉的好方法！\n不过嘛，料理的味道我保证不了！。",
      "EUde": "Interessierst du dich für meine\nFutterkraftkammer? So nenn ich\nmeine Küche, (Floskel).\nWie? Was soll mit   da sein?\nOb  geschmeckt ? Weiß nicht. Mal zu kosten erschien mir dann doch eher wie Risikosport...",
      "EUen": "I never knew you could get such\namazing results by working out\nin the food gym, .\nOh...you might call it a kitchen.\nAnd you might call that \n.",
      "EUes": "No me imaginaba que se podían\nobtener unos resultados tan brutales\nentrenando en el cenódromo.\nSí, así llamo yo a la cocina.\n¡A tonificar el paladar con \n!",
      "EUfr": "Ça y est, je me suis mis à l'athlétisme\nculinaire ! Et ça tombe bien, vu que\nj'ai déjà une cuisine de champion.\nEt  que tu vois là, je peux te dire qu' bat tous les records.\nSi c'est bon ? Aucune idée. Après tout, j'y connais rien, à l'athlétisme\nculinaire.",
      "EUit": "Hai visto i risultati che ho ottenuto\nal cibodromo?\nOh... È così che chiamo la cucina,\n. E lì c'è \n.",
      "EUnl": "Ik wist niet dat je zulke geweldige\nresultaten kon bereiken in een\nvoedselsportschool, .\nO... Dat heet natuurlijk gewoon een\nkeuken. En dat  eigenlijk .",
      "EUru": "Никогда не думал, что можно так\nхорошо овладеть кухонными\nединоборствами. .\nТо есть... научиться так хорошо\nготовить. Особенно .",
      "JPja": "ああ、その　な\n最近　オイラ料理を作るのに\nハマっちゃってさー\n調理してると　キントレメニューの\nいいアイデアが　うかんでくるんだ！\n味の　ほしょうは　ないけどなー！　",
      "KRko": "아－ 이\n신경 쓰여?\n사실 요즘에 요리에 빠졌거든－\n요릴 하다 보면 괜찮은 트레이닝 루틴\n아이디어가 마구 떠오른다구!\n맛은 장담 못 하지만 말야－! !",
      "TWzh": "啊，那個嗎？\n其實我最近\n開始迷上了做料理……\n當我在做料理時，腦中就會浮現出\n改良健身清單的好點子喔！\n不過我無法保證料理的味道就是了！。",
      "USen": "I never knew you could get such\namazing results by working out\nin the food gym, .\nOh...you might call it a kitchen.\nAnd you might call that \n.",
      "USes": "No me imaginaba que se podían\nobtener unos resultados tan brutales\nentrenando en el cenódromo.\nSí, así llamo yo a la cocina.\n¡A tonificar el paladar con \n!",
      "USfr": "Ça y est, je me suis mis à l'athlétisme\nculinaire! Et ça tombe bien, vu que\nj'ai déjà une cuisine de champion.\nEt  que tu vois là, je peux te dire qu' bat tous les records.\nSi c'est bon? Aucune idée. Après tout, j'y connais rien, à l'athlétisme\nculinaire."
    }
  },
  {
    "label": "041",
    "attribute": "0x0000000000000000",
    "locale": {
      "CNzh": "我说，食品模型简直和真的一模一样，\n你不觉得超厉害吗？\n我对这种还挺感兴趣的。\n其实这个\n也是……\n啊！嘿嘿，没什么。。",
      "EUde": "Kannst du glauben, dass   da selbst gemacht ist?\nJa, ganz genau, und zwar mit richtig\nechten Zutaten. Alles frisch und\nvom Feinsten...\nHey, warum guckst du mich so\nkomisch an? Das ist keine Attrappe, (Floskel)!",
      "EUen": "Can you believe someone crafted the\n there?\nYep, it's definitely the real deal,\nmade by hand using real ingredients.\nNot some kind of prop, heh...\nWhy are you looking at me like that?",
      "EUes": "Parece mentira que a alguien\nse le haya ocurrido elaborar \n de ahí.\nY con ingredientes 100 % naturales,\nmás orgánicos que el campo.\n¡Como lo oyes!\nEjem... ¿Qué pasa?\n¿Por qué pones esa cara?",
      "EUfr": "Dire que quelqu'un a préparé\n ici !\nEt garanti authentique, préparé à\nla patte ! Pas la pâle imitation pour\ngosiers de troisième division !\nOh non, pas la version toute faite et\nsans âme ramassée dans un rayon !\nEh, pourquoi tu me fixes comme ça ?",
      "EUit": "Hai visto questo modellino?\nA volte sono così realistici che\nsembrano veri.\n che ho qui lo sembra, in effetti.\nOh! E se lo fosse per davvero?",
      "EUnl": "Kun je geloven dat iemand   helemaal zelf gemaakt heeft?\nJa, echt een knap staaltje werk met\nlekkere ECHTE ingrediënten. Heus\ngeen plastic namaak, hehehe...\nZeg, waarom kijk je me zo gek aan?",
      "EUru": "Представляешь, кто-то сам сделал\nэтот ?\nДа, вручную, из настоящих\nингредиентов. И вышел настоящий\n, ага...\nЧто ты на меня так смотришь?",
      "JPja": "なぁ　食品サンプルって\n本物ソックリで　スゴイと思わないか？\nオイラ　ちょっと　キョーミあるんだよなー\n実は　その\nも・・・\nおっと！　へへっ　なんでもないぞ、",
      "KRko": "있잖아, 음식 샘플 말이야－\n진짜랑 똑 닮은 게 완전 신기하지 않냐?\n나 은근히 관심 있거든－\n사실 거기 있는\n도...\n앗! 헤헷, 암것도 아냐, !",
      "TWzh": "我問你，你不覺得那些\n能以假亂真的食品模型很厲害嗎？\n我對那種東西還挺感興趣的。\n其實那邊的\n也是……\n哎呀！嘿嘿，沒什麼啦，。",
      "USen": "Can you believe someone crafted the\n there?\nYep, it's definitely the real deal,\nmade by hand using real ingredients.\nNot some kind of prop, heh...\nWhy are you looking at me like that?",
      "USes": "Parece mentira que a alguien\nse le haya ocurrido elaborar \n de ahí.\nY con ingredientes 100 % naturales,\nmás orgánicos que el campo.\n¡Como lo oyes!\nEjem... ¿Qué pasa?\n¿Por qué pones esa cara?",
      "USfr": "Dire que quelqu'un a préparé\n ici!\nEt garanti authentique, préparé à\nla patte! Pas la pâle imitation pour\ngosiers de troisième division!\nOh non, pas la version toute faite et\nsans âme ramassée dans un rayon!\nEh, pourquoi tu me fixes comme ça?"
    }
  },
  {
    "label": "999",
    "attribute": "0x0000000000000000",
    "locale": {
      "CNzh": "",
      "EUde": "",
      "EUen": "",
      "EUes": "",
      "EUfr": "",
      "EUit": "",
      "EUnl": "",
      "EUru": "",
      "JPja": "",
      "KRko": "",
      "TWzh": "",
      "USen": "",
      "USes": "",
      "USfr": ""
    }
  },
  {
    "label": "999_01",
    "attribute": "0x0000000000000000",
    "locale": {
      "CNzh": "嘿嘿，\n别一直盯着我看啦！\n我的秘密才没有\n藏在那种地方哦？。",
      "EUde": "Der Kram in meinem Haus scheint\nes dir ja ganz schön angetan\nzu haben, (Floskel)!\nAber zum Weltklasseathleten wirst\ndu nicht dadurch, dass du in meiner\nBude alles hartnäckig anstarrst...",
      "EUen": "Wow. You're really curious about the\nstuff in my house, (catchphrase).\nBut you aren't going to discover any\nsecrets to becoming a world-class\nathlete just by staring at my stuff.",
      "EUes": "Vaya, veo que te interesa mucho\nlo que tengo en casa, atleta...\nPero, si lo que buscas es descubrir\nmis secretos de entreno, ¡vas listo!",
      "EUfr": "Eh ben... quelle curiosité face à\ntout ce que j'ai dans ma maison,\n !\nMais tu sais... examiner mes affaires\nt'aidera pas à percer mon secret pour\ndevenir un athlète de niveau mondial.",
      "EUit": "Uau, mi pare che tu abbia un grande\ninteresse per l'arredamento di casa\nmia.\nMa guardare i miei mobili tutto il\ngiorno non farà di te un atleta di\nlivello internazionale, .",
      "EUnl": "Het is altijd leuk om in andermans\nhuis rond te snuffelen, vind je ook\nniet?\nMaar denk maar niet dat je zo al mijn\nsportgeheimen zult ontrafelen.",
      "EUru": "Ух ты. Я вижу, что тебе у меня\nочень нравится. .\nНо ты вряд ли достигнешь таких\nже успехов в спорте, как я, просто\nрассматривая мои вещи.",
      "JPja": "へへっ、あんまり\nジロジロ　見ないでくれよー\nオイラのヒミツは　そんなとこに\nかくれてないぞー？　",
      "KRko": "헤헷, 그렇게\n뚫어져라 쳐다보지 마－\n내 비밀은 그런 데에\n숨겨져 있지 않다구－! !",
      "TWzh": "嘿嘿，\n不要一直盯著看啦～\n我的秘密可沒有藏在那種地方喔？。",
      "USen": "Wow. You're really curious about the\nstuff in my house, (catchphrase).\nBut you aren't going to discover any\nsecrets to becoming a world-class\nathlete just by staring at my stuff.",
      "USes": "Vaya, veo que te interesa mucho\nlo que tengo en mi casa...\nPero, si lo que buscas es descubrir\nmis secretos de entrenamiento,\n¡ni lo sueñes!",
      "USfr": "Eh ben... quelle curiosité face à tout\nce que j'ai dans ma maison,\n!\nMais tu sais... examiner mes affaires\nt'aidera pas à percer mon secret pour\ndevenir un athlète de niveau mondial."
    }
  },
  {
    "label": "999_02",
    "attribute": "0x0000000000000000",
    "locale": {
      "CNzh": "摆在这里，\n感觉很不错吧？\n它可是这个房间的亮点啊！\n嘿嘿，你想模仿的话，\n我也不介意哦！。",
      "EUde": "  ist schon ein besonders edles Stück.\nDass ich  für mein ultrageheimes\nGanzkörper-Power-Workout nutze,\nbleibt aber unter uns, okay?",
      "EUen": "Ha! Oops! I completely forgot I left\nmy  out.\nWell, I guess now you know the big\nsecret to my aerobics routine. Let's\nkeep this between you and me, OK?",
      "EUes": "¡Anda, se me había olvidado por\ncompleto que tenía a la vista mi !\nAhora ya sabes cuál es mi secreto\npara hacer la tabla anaeróbica\nperfecta, ...\nQue quede entre tú y yo,\n¿vale, máquina?",
      "EUfr": "Ha ! Oups ! J'ai complètement oublié\nde ranger  .\nBah quoi ?! Tu donnes pas de noms à\ntes équipements d'aérobic ? Dans ce\ncas, tu peux garder tout ça pour toi ?",
      "EUit": "Caspitina! Mi ero proprio dimenticato di rimettere a posto  .\nBeh, ora hai scoperto il segreto\ndei miei allenamenti aerobici...\nChe resti tra noi, d'accordo?",
      "EUnl": "Mijn  ruim ik meestal op bij bezoek, maar voor jou maak ik een uitzondering.\nIk wil niet dat iedereen weet wat\nhet ultrageheime wapen voor mijn\ntraining is. Dus mondje dicht, oké?",
      "EUru": "Ха! Упс! Забыл убрать .\nНу, теперь ты знаешь мой секрет\nаэробных тренировок. Только\nбольше никому не говори, ладно?",
      "JPja": "が\nあるなんて　いいだろー？\nこの部屋の　こだわりポイントなんだ！\nへへっ、マネしてくれても\nかまわないからな！　",
      "KRko": "이\n있으니까 엄청 좋지－?\n이 방에서 제일 맘에 드는 부분이라구!\n헤헷, 생각 있으면\n너도 따라 해봐라－! !",
      "TWzh": "這個\n感覺很不錯吧？\n這可是這房間的看點！\n嘿嘿，你想模仿\n也可以喔！。",
      "USen": "Ha! Oops! I completely forgot I left\nmy  out.\nWell, I guess now you know the big\nsecret to my aerobics routine. Let's\nkeep this between you and me, OK?",
      "USes": "¡Vaya, se me había olvidado por\ncompleto que tenía a la vista\nmi !\nAhora ya sabes cuál es mi secreto\npara hacer la tabla anaeróbica\nperfecta, ...\nPero que quede entre tú y yo,\n¿eh, máquina?",
      "USfr": "Ha! Oups! J'ai complètement oublié\nde ranger  .\nBah quoi?! Tu donnes pas de noms à\ntes équipements d'aérobic? Dans ce\ncas, tu peux garder tout ça pour toi?"
    }
  },
  {
    "label": "999_03",
    "attribute": "0x0000000000000000",
    "locale": {
      "CNzh": "因为我只在房间里放我喜欢的物品，\n所以会被人说房间摆设的平衡感不好。\n不过，好在我体型的平衡感很完美，\n正好可以抵消！。",
      "EUde": "Ich höre in letzter Zeit manchmal,\ndass hier irgendwas nicht im\n„Gleichgewicht“ sei...\nQuatsch! Wer sich so souverän auf\n'nem Schwebebalken bewegt wie ich,\nhat mehr als genug Gleichgewicht!",
      "EUen": "Folks always tell me that my\n\"room balance\" is off since I just\n\"randomly\" display stuff I like.\nJoke's on them though! I have\nperfect physical balance, so it all\nevens out in the end, (catchphrase).",
      "EUes": "Siempre me dicen que la decoración\nde mi casa no está muy equilibrada\nporque no pienso demasiado en ella.\nPero, como corporalmente tengo un\nsentido del equilibrio perfecto, una\ncosa compensa la otra, .",
      "EUfr": "On me dit souvent que cette pièce\nn'est pas « équilibrée », parce que\nje pose n'importe quoi, n'importe où.\nHeureusement, mon corps, lui, est\nparfaitement équilibré, alors ça\ncontrebalance, .",
      "EUit": "La gente mi dice spesso che non ho\nsenso dell'equilibrio in casa perché\nmetto in mostra solo ciò che amo.\nAlla gente piace scherzare! Il mio\nequilibrio fisico è perfetto, quindi\ntutto è bilanciato, !",
      "EUnl": "Sommige lui vinden de balans van\nmijn interieur niet helemaal oké.\nMaar dat maakt me geen voetbal uit,\nzolang mijn lichamelijke balans maar\nperfect is, (catchphrase)!",
      "EUru": "Мне все говорят, что у меня дома\n«негармонично». Я, мол, предметы\nдекора расставляю как попало.\nНичего они не понимают! У меня\nв фигуре гармонии хоть отбавляй,\nтак что все сходится. .",
      "JPja": "オイラ　気に入ったモンしか　置かないから、\n部屋のバランスが悪いって　言われるんだけど\n体のバランスは　バッチリとれてるから\nプラマイゼロで　問題なしだー！　",
      "KRko": "난 내 맘에 드는 것만 두니까\n인테리어의 밸런스가 나쁘다는 얘길 듣는데\n몸의 밸런스는 완벽하니까\n플러스 마이너스 제로야!\n문제없다구－! !",
      "TWzh": "因為我只會用喜歡的東西當擺設，\n所以常常被說房間的美感很不平衡。\n不過身體健康的平衡我可是有好好保持，\n這樣互相抵消就沒問題了吧！。",
      "USen": "Folks always tell me that my\n\"room balance\" is off since I just\n\"randomly\" display stuff I like.\nJoke's on them though! I have\nperfect physical balance, so it all\nevens out in the end, (catchphrase).",
      "USes": "Siempre me dicen que la decoración\nde mi casa no está muy equilibrada\nporque no pienso demasiado en ella.\nPero, como corporalmente tengo un\nsentido del equilibrio perfecto, una\ncosa compensa la otra, .",
      "USfr": "On me dit souvent que cette pièce\nn'est pas « équilibrée », parce que\nje pose n'importe quoi, n'importe où.\nHeureusement, mon corps, lui, est\nparfaitement équilibré, alors ça\ncontrebalance, ."
    }
  }
]