﻿[
  {
    "label": "001",
    "attribute": "0x00000C0100000000",
    "locale": {
      "CNzh": "哈罗～！\n今天真的是总见面呢～！。",
      "EUde": "Heute laufen wir uns echt ständig\nüber den Weg! Ist das Zufall oder ist\nheute etwa (Einwohnername)-Tag?\nWenn du magst, kann ich dir gern ein\nsigniertes Foto von mir geben,\n(Floskel). Tihihi!",
      "EUen": "Hiii! Ohmigosh! We have seen\neach other, just, soooooo\nmany times today!",
      "EUes": "¡Requeteholi, ! ¿No nos\nhemos visto hoy como mil veces\no más? ¿Las has contado?",
      "EUfr": "Hey ! C'est fou, on peut pas faire\ndeux pas sans tomber sur toi, lol !",
      "EUit": "Allucinante, ci siamo incontrati una\ncifra di volte oggi!",
      "EUnl": "Hoiii! Sjeempie! We hebben elkaar,\nzeg maar, al zooooooo vaak gezien\nvandaag.",
      "EUru": "Приветик! С ума сойти! Мы с тобой\nсегодня прямо не разлей вода.",
      "JPja": "ヤッホー！\n今日はホントに　よく会うね～！　",
      "KRko": "안녕～!\n오늘은 진짜 자주 보네～! !",
      "TWzh": "嗨嗨～！\n今天真的是很常碰到你呢～！。",
      "USen": "Hiii! Ohmigosh! We have seen\neach other, just, soooooo\nmany times today!",
      "USes": "¡Holiiis, ! ¿Cuántas\nveces nos hemos visto hoy?\n¿Las contaste?",
      "USfr": "Hey! C'est fou, on peut pas faire\ndeux pas sans tomber sur toi, lol!"
    }
  },
  {
    "label": "002",
    "attribute": "0x00000C0100000000",
    "locale": {
      "CNzh": "感觉今天和\n说了好多好多话呀～！。",
      "EUde": "Heute haben wir echt über alle\nmöglichen Themen gequatscht.\nNicht wahr, (Spitzname)?\nEs tut gut zu wissen, dass man so\ngute Freunde hat! Du bist der Beste,\n(Floskel)!",
      "EUen": "I feel like I've seen you more today\nthan I've seen anyone else. Ever!",
      "EUes": "Bueno, (nickname), ¿todavía nos quedan cosas que decirnos, ?",
      "EUfr": "J'hallucine, on arrête pas de\nse parler aujourd'hui !",
      "EUit": "Ehi, (nickname), mi sembra di averti visto una cifra di volte oggi!",
      "EUnl": "Volgens mij heb ik jou vandaag vaker\ngesproken dan alle anderen hier. Bij\nelkaar opgeteld!",
      "EUru": "У меня такое ощущение, что мы\nс тобой уже в сотый раз говорим\nза сегодня!",
      "JPja": "今日は　と\nたくさん　お話ししてる気がするねー！　",
      "KRko": "오늘은 하고\n얘기를 많이 하는 느낌이야! !",
      "TWzh": "感覺今天跟你\n說了好多話呢～！。",
      "USen": "I feel like I've seen you more today\nthan I've seen anyone else. Ever!",
      "USes": "Bueno, (nickname), ¿todavía nos quedan cosas que decirnos, ?",
      "USfr": "J'hallucine, on arrête pas de\nse parler aujourd'hui!"
    }
  },
  {
    "label": "003",
    "attribute": "0x00000C0100000000",
    "locale": {
      "CNzh": "啊，又见面了～！\n我都记不得今天\n我们究竟见过几次啦～！。",
      "EUde": "Tihihi! Ich weiß schon gar nicht\nmehr, wie oft wir heute miteinander\ngequatscht haben, (Floskel).\nDu gibst mir echt das Gefühl,\nein absoluter VIP zu sein!",
      "EUen": "How many times have we met today?\nI totally lost count!",
      "EUes": "¡Aquí estás otra vez! Mis fans van\na tener celos de tanto que hablo\ncontigo, .",
      "EUfr": "Encore toi ?! J'sais pas combien\nde fois on s'est vus aujourd'hui !",
      "EUit": "Quante volte ci siamo visti oggi?\nCioè, ho perso il conto!",
      "EUnl": "Hoe vaak zijn we elkaar vandaag al\ntegengekomen? Ik ben echt de tel\nkwijt!",
      "EUru": "Сколько раз мы встречались\nсегодня? Я уже со счета сбилась!",
      "JPja": "あっ、また会ったね～！\nもう今日だけで、何回　会ったか\nわすれちゃったよ～！　",
      "KRko": "앗, 또 만났네～!\n오늘만 벌써 몇 번째인지\n기억도 안 나～! !",
      "TWzh": "啊，又見面了～！\n我都已經記不清楚，\n今天到底跟你碰過幾次面了～！。",
      "USen": "How many times have we met today?\nI totally lost count!",
      "USes": "¡Aquí estás otra vez! Mis fans van\na tener celos de tanto que hablo\ncontigo, .",
      "USfr": "Encore toi?! J'sais pas combien\nde fois on s'est vus aujourd'hui!"
    }
  }
]