﻿[
  {
    "label": "001",
    "locale": {
      "CNzh": "你说对吧，(nickname)？",
      "EUde": "Du, (Spitzname)...",
      "EUen": "Say, (nickname)...",
      "EUes": "Buenas, (nickname):",
      "EUfr": "Dis-moi, (surnom)...",
      "EUit": "Ehi, (nickname)...",
      "EUnl": "Zeg, (nickname)...",
      "EUru": "Ну, привет, (nickname)...",
      "JPja": "なぁ？　(nickname)",
      "KRko": "야, (nickname)",
      "TWzh": "(nickname)，你說是吧？",
      "USen": "Say, (nickname)...",
      "USes": "Buenas, (nickname):",
      "USfr": "Dis-moi, (surnom)..."
    }
  },
  {
    "label": "002",
    "locale": {
      "CNzh": "你知道吗，(nickname)",
      "EUde": "Hör mal, (Spitzname).",
      "EUen": "Word of advice, (nickname),",
      "EUes": "Un consejo para (nickname):",
      "EUfr": "Le savais-tu, (surnom) ?",
      "EUit": "Ascolta me, (nickname)...",
      "EUnl": "Een tip voor je, (nickname),",
      "EUru": "Здравствуй, (nickname),",
      "JPja": "しってるか、(nickname)",
      "KRko": "(nickname), 그거 아냐?",
      "TWzh": "(nickname)，你知道嗎？",
      "USen": "Word of advice, (nickname),",
      "USes": "Un consejo para (nickname):",
      "USfr": "Le savais-tu, (surnom)?"
    }
  },
  {
    "label": "003",
    "locale": {
      "CNzh": "给赶潮流的(nickname)",
      "EUde": "Tag, (Spitzname).",
      "EUen": "Check it out, (nickname),",
      "EUes": "Fíjate, (nickname):",
      "EUfr": "Cher gamin,",
      "EUit": "Senti, (nickname)!",
      "EUnl": "Moet je horen, (nickname),",
      "EUru": "Привет тебе, (nickname),",
      "JPja": "イマドキの　(nickname)へ",
      "KRko": "젊은이 (nickname)에게",
      "TWzh": "給現在的(nickname)",
      "USen": "Check it out, (nickname),",
      "USes": "Fíjate, (nickname):",
      "USfr": "Cher jeune,"
    }
  },
  {
    "label": "004",
    "locale": {
      "CNzh": "给认真的(nickname)",
      "EUde": "Guter Rat für dich, (Spitzname)!",
      "EUen": "Got some advice, (nickname)...",
      "EUes": "Joven amigo (nickname):",
      "EUfr": "Petit conseil, (surnom)...",
      "EUit": "Una cosa, (nickname)...",
      "EUnl": "Een goede raad, (nickname)...",
      "EUru": "Дорогой друг (nickname),",
      "JPja": "マジメな　(nickname)へ",
      "KRko": "성실한 (nickname)에게",
      "TWzh": "給認真的(nickname)",
      "USen": "Got some advice, (nickname)...",
      "USes": "Joven amigo (nickname):",
      "USfr": "Petit conseil, (surnom)..."
    }
  },
  {
    "label": "005",
    "locale": {
      "CNzh": "最近还好吗，(nickname)？",
      "EUde": "Tja, (Spitzname)...",
      "EUen": "Hey, (nickname)...",
      "EUes": "Buenas, (nickname):",
      "EUfr": "Dis-moi, (surnom)...",
      "EUit": "Ehilà, (nickname)...",
      "EUnl": "Ha die (nickname)...",
      "EUru": "Привет, (nickname)...",
      "JPja": "ゲンキか、(nickname)？",
      "KRko": "잘 지내냐? (nickname)",
      "TWzh": "(nickname)，你好嗎？",
      "USen": "Hey, (nickname)...",
      "USes": "Buenas, (nickname):",
      "USfr": "Dis-moi, (surnom)..."
    }
  },
  {
    "label": "006",
    "locale": {
      "CNzh": "你听我说，(nickname)",
      "EUde": "Zum Thema Angeln, (Spitzname).",
      "EUen": "To my fishin' buddy (nickname),",
      "EUes": "Estimado (nickname):",
      "EUfr": "Cher féru de pêche,",
      "EUit": "Caro il mio pescatore,",
      "EUnl": "Aan mijn vismaatje (nickname),",
      "EUru": "Любознательный (nickname),",
      "JPja": "きいてくれ、(nickname)",
      "KRko": "내 얘기 좀 들어봐, (nickname)",
      "TWzh": "(nickname)，你聽我說",
      "USen": "To my fishin' buddy (nickname),",
      "USes": "Estimado (nickname):",
      "USfr": "Cher mordu de pêche,"
    }
  },
  {
    "label": "007",
    "locale": {
      "CNzh": "我说啊，(nickname)",
      "EUde": "Gut zuhören, (Spitzname)!",
      "EUen": "Listen up, (nickname)...",
      "EUes": "Oye, (nickname):",
      "EUfr": "Écoute, (surnom)...",
      "EUit": "Ascolta, (nickname)...",
      "EUnl": "Luister eens, (nickname)...",
      "EUru": "Твоему вниманию, (nickname)...",
      "JPja": "あのな、(nickname)",
      "KRko": "있잖냐, (nickname)",
      "TWzh": "(nickname)，我跟你說",
      "USen": "Listen up, (nickname)...",
      "USes": "Oye, (nickname):",
      "USfr": "Écoute, (surnom)..."
    }
  },
  {
    "label": "008",
    "locale": {
      "CNzh": "听好了，(nickname)！",
      "EUde": "An den Jungspund (Spitzname)",
      "EUen": "To my young friend (nickname),",
      "EUes": "Joven amigo (nickname):",
      "EUfr": "Salutations (surnom),",
      "EUit": "Ciao (nickname), amico mio...",
      "EUnl": "Kleine (player name),",
      "EUru": "(nickname), привет,",
      "JPja": "いいか、(nickname)！",
      "KRko": "잘 들어, (nickname)!",
      "TWzh": "(nickname)，你聽好了！",
      "USen": "To my young friend (nickname),",
      "USes": "Joven amigo (nickname):",
      "USfr": "Salutations, (surnom),"
    }
  },
  {
    "label": "009",
    "locale": {
      "CNzh": "噢，(nickname)！",
      "EUde": "Heda, (Spitzname)!",
      "EUen": "Hey there, (nickname)!",
      "EUes": "¿Qué hay, (nickname)?",
      "EUfr": "Salut (surnom).",
      "EUit": "Aloha, (nickname)!",
      "EUnl": "Hallo daar, (nickname)!",
      "EUru": "Слушай сюда, (nickname)!",
      "JPja": "おう、(nickname)！",
      "KRko": "이봐, (nickname)!",
      "TWzh": "嗨，(nickname)！",
      "USen": "Hey there, (nickname)!",
      "USes": "¿Qué tal, (nickname)?",
      "USfr": "Salut (surnom)!"
    }
  },
  {
    "label": "010",
    "locale": {
      "CNzh": "但是，(nickname)……",
      "EUde": "Hilf mir mal, (Spitzname)!",
      "EUen": "Help me out, (nickname)...",
      "EUes": "Ilustre (nickname):",
      "EUfr": "Il faut que je te dise...",
      "EUit": "Aiuto, (nickname)...",
      "EUnl": "Vertel me eens, (nickname)...",
      "EUru": "Значит так, (nickname)...",
      "JPja": "しかし、(nickname)・・・",
      "KRko": "근데 (nickname)…",
      "TWzh": "不過，(nickname)……",
      "USen": "Help me out, (nickname)...",
      "USes": "Ilustre (nickname):",
      "USfr": "Il faut que je te dise..."
    }
  },
  {
    "label": "101",
    "locale": {
      "CNzh": "你对自己的健康有信心吗？\n突然感冒的时候，\n或者不小心受伤的时候，\n只要静养一阵子就能自然好的话倒也罢，\n不过一旦拖久了可就麻烦了啊。\n平时就得多留个心眼才行。",
      "EUde": "Hältst du dich auch ordentlich fit?\nSolltest du, wenn du mit mir mithal-\nten willst! (Scherz.) Um gesund zu\nbleiben, muss man wissen, wie man\nsich richtig erholt. Nachbarn beob-\nachten zum Beispiel entspannt.",
      "EUen": "You keepin' yourself healthy these\ndays? You gotta be strong if you\nwanna go toe-to-toe with me! And\nto get strong, you gotta recover\nwell. And that means watchin'\nplenty of TV and loungin' around.",
      "EUes": "¿Te mantienes en forma estos\ndías? ¡Haces bien si quieres\nestar a mi nivel! Entre otras\ncosas, tienes que mirar\nmucho la tele y holgazanear\nun buen rato. ¡Ja, ja, ja!",
      "EUfr": "J'espère que tu prends bien soin\nde ta santé, c'est important si tu\nveux être aussi bien portant que\nmoi une fois que tu auras mon\nâge ! Mon conseil : ne néglige\njamais ton temps de sommeil !",
      "EUit": "Ti tieni in forma di questi\ntempi, vero? Perché per\nessere al mio livello devi.\nMa non ti preoccupare, non\nè difficile... io vivo al piano\nterra. AHAHAH!",
      "EUnl": "Leef je nog wel een beetje\ngezond? Je moet wel sterk in je\nschoenen staan als je mij wilt\nkunnen bijbenen! En dat betekent\nook hard ontspannen: veel tv-\nkijken dus, en rondhangen en zo.",
      "EUru": "Ты там следишь за здоровьем?\nЕсли хочешь достичь моего\nуровня, здоровье должно быть\nкрепким, козявка.\nНо и на диване полежать не\nзабывай!",
      "JPja": "オメェ　けんこうには　ジシンあるか？\nきゅうに　カゼをひいちまったり\nうっかりケガでも　しちまったとき、\nあんせいにして　なおるなら　イイけどよ。\nながびくことになると、タイヘンだぜ。\nひごろから　きをつけておかねぇとな。",
      "KRko": "너 건강은 괜찮냐?\n갑자기 감기에 걸리거나\n실수로 다쳤을 때 푹 쉬고\n금방 나으면 다행이지만\n오래가게 되면 큰일이야.\n평소부터 건강에 신경 써야 돼.",
      "TWzh": "你對自己的身體狀況有自信嗎？\n突然得了感冒，\n或是不小心受傷，\n如果你有靜養痊癒的話就沒問題。\n不過病情一拖久的話，那可就糟糕了。\n這平時就得留意。",
      "USen": "You keepin' yourself healthy these\ndays? You gotta be strong if you\nwanna go toe-to-toe with me! And\nto get strong, you gotta recover\nwell. And that means watchin'\nplenty of TV and loungin' around.",
      "USes": "¿Te mantienes en forma estos\ndías? ¡Haces bien si quieres\nestar a mi nivel! Entre otras\ncosas, tienes que mirar\nmucho la tele y holgazanear\nun buen rato. ¡Ja, ja, ja!",
      "USfr": "J'espère que tu prends bien soin\nde ta santé, c'est important si tu\nveux être aussi bien portant que\nmoi quand tu auras mon âge!\nMon conseil : ne néglige\njamais ton temps de sommeil!"
    }
  },
  {
    "label": "102",
    "locale": {
      "CNzh": "道具这种东西，\n用的时间越长就越顺手。\n你应该也有一两件\n特别喜欢的道具吧？\n特别是自己亲手制作的道具，\n好好珍惜的话更是会日久生情啊。",
      "EUde": "Hier ein guter Rat, Kleiner. Je\nmehr man ein Werkzeug benutzt,\numso mehr passt es sich deinen\nHänden an. Es wächst mit dir, wie\nein Baum, den du gepflanzt hast.\n...Solange es nicht kaputt geht.",
      "EUen": "Take it from me, kiddo. The more\nyou use a tool, the more it'll break\nin and fit your hands perfectly.\nTreat it almost like a plant that'll\ngrow as you nourish it. Isn't it\nsatisfyin' to fix things yourself?",
      "EUes": "Una herramienta, cuanto más\nla usas, mejor se acomoda a\ntu mano. Pero también tiende\na romperse. Trátalas bien,\npues te brindan el placer\nde reparar cosas tú mismo.",
      "EUfr": "Plus tu utilises un outil, plus il\ns'adapte à la forme de ta main\net devient facile à manier. Raison\nde plus pour en prendre bien soin\npour qu'il puisse t'accompagner\ndes années durant !",
      "EUit": "Più usi uno strumento e più ti\nabituerai a usarlo. Ma anche lui\nsi abituerà a venire suonato da te!\nInsomma, imparerà a sopportarti.\nE da questa tolleranza reciproca\nnascerà la vera musica.",
      "EUnl": "Even een klein advies, jochie. Je\ngereedschap gaat steeds meer\nnaar je handen staan naarmate je\nhet vaker gebruikt. Als je er goed\nvoor zorgt, krijg je er veel voor\nterug. Heel bevredigend is dat.",
      "EUru": "Хочу поделиться советом,\nкозявка. Если пользоваться\nинструментом регулярно, он\nначинает принимать форму руки\nи становится по-настоящему\nтвоим, что крайне приятно...",
      "JPja": "どうぐってのは　つかいこめば\nつかいこむほど　てに　なじんでくるんだ。\nオメェも　おきにいりの　どうぐが\nひとつや　ふたつ　あるんじゃねぇか？\nとくに　ジブンでつくった　どうぐは、\nだいじに　つかえば　あいちゃくもわくぜ。",
      "KRko": "도구는 사용하면 사용할수록\n손에 익기 마련이지.\n너도 자주 쓰는 도구 한두 개쯤 있지 않아?\n직접 만든 도구면 더욱더 그렇고.\n소중히 다루다 보면 애착이 생겨\n다른 도구와는 다른 존재감을 갖게 되지.",
      "TWzh": "工具這種東西，\n會越用越得心應手。\n你應該也有\n一兩樣喜歡的工具吧？\n特別是自製的工具，\n要是珍惜地使用，也會起愛護之心啊。",
      "USen": "Take it from me, kiddo. The more\nyou use a tool, the more it'll break\nin and fit your hands perfectly.\nTreat it almost like a plant that'll\ngrow as you nourish it. Isn't it\nsatisfyin' to fix things yourself?",
      "USes": "Las herramientas, cuanto más\nlas usas, mejor se acomodan a\ntu mano. Pero también tienden\na romperse. Trátalas bien,\npues te brindan el placer\nde reparar cosas tú mismo.",
      "USfr": "Plus tu utilises un outil, plus il\ns'adapte à la forme de ta main\net devient facile à manier. Raison\nde plus pour en prendre bien soin\npour qu'il puisse t'accompagner\npendant des années!"
    }
  },
  {
    "label": "103",
    "locale": {
      "CNzh": "我打算让你了解一下，\n盆栽那种光是用言语\n无法表达出来的魅力，\n所以我才写起了这张心意卡。\n但是换成文字的话又写不下全部的优点啊。\n不过这也说明了盆栽正是如此深奥。",
      "EUde": "Wollte dir etwas über Bonsai-\nBäume schreiben. Aber dann hab\nich mich mal etwas in das Thema\nvertieft, und mir ging auf, dass\ndas alles nie in eine Karte passt.\nAlso was soll's.",
      "EUen": "I was gonna write you a whole\nthing about how amazing bonsai\ntrees are, but then I started\ndaydreamin' about 'em and pretty\nsoon I realized that I can't really\ncover it in a note, so here we are.",
      "EUes": "Iba a redactar un manifiesto\nacerca de la belleza de los\nbonsáis, pero me perdí en\nensoñaciones y ahora me\ndoy cuenta de que solo\npuedo escribirte esta nota.",
      "EUfr": "Je comptais t'apprendre tout ce\nqu'il y avait à savoir au sujet des\nbonsaïs car je t'aime bien, mais je\nme suis rendu compte qu'il faudrait\nau moins une cinquantaine de\ncartes pour faire le tour du sujet.",
      "EUit": "Volevo dirti quanto trovo belli\ni bonsai. Poi ho capito che non\nbasterebbe una cartiera per lodare\ncome si deve i miei piccoletti. E\nadesso ho già finito lo spazio in\nquesto biglietto, quindi ti saluto.",
      "EUnl": "Ik was van plan een heel betoog\nte schrijven over alle mooie\neigenschappen van bonsai-\nboompjes, maar in mijn hoofd werd\nhet allemaal veel te groot om nog\nin dit berichtje te passen. Dus.",
      "EUru": "Хотел написать пару слов о том,\nкак прекрасны деревья бонсай,\nно замечтался о них и сбился\nс мысли. И вообще, их красоту\nне описать в одном письме, так\nчто на этом все, козявка.",
      "JPja": "コトバで　うまく　つたえられない\nぼんさいの　ミリョクってのを、\nオメェに　おしえてやろうとおもって\nメッセージカードを　かきはじめたんだが、\nモジだと　ぎゃくに　かききれねぇな。\nま、それだけ　おくがふかいってことだ。",
      "KRko": "분재의 매력에 대해 말로는 잘\n설명할 수 없지만 어떻게든 너한테도\n그 매력을 가르쳐주고 싶어서 카드를\n쓰기로 했는데 글로 적으려니 이제는 너무\n쓸 말이 많아 다 담을 수가 없네.\n아무튼 분재의 세계는 그만큼 심오해.",
      "TWzh": "我想告訴你\n盆栽那無法以言語傳達的魅力，\n所以才開始寫心意卡，\n但發現用寫得反而寫不完啊。\n不過這也代表\n盆栽的魅力就是如此深奧。",
      "USen": "I was gonna write you a whole\nthing about how amazing bonsai\ntrees are, but then I started\ndaydreamin' about 'em and pretty\nsoon I realized that I can't really\ncover it in a note, so here we are.",
      "USes": "Iba a redactar un manifiesto\nacerca de la belleza de los\nbonsáis, pero me perdí en\nensoñaciones y ahora me\ndoy cuenta de que solo\npuedo escribirte esta nota.",
      "USfr": "Je comptais t'apprendre tout ce\nqu'il y avait à savoir au sujet des\nbonsaïs, car je t'aime bien, mais je\nme suis rendu compte qu'il faudrait\nau moins une cinquantaine de\ncartes pour faire le tour du sujet."
    }
  },
  {
    "label": "104",
    "locale": {
      "CNzh": "偶尔找个地方躺下来休息一下，\n不是也挺好的吗？\n你总是铆足了劲全力冲刺，\n有时也得适度放松一下才行啊。\n因为这种话当着面实在是说不出口，\n所以就写成心意卡寄给你啦。",
      "EUde": "Ich red ja gern drüber, wie faul die\nJugend heutzutage ist, und sich\ngefälligst mehr anstrengen soll.\nAber entspannen ist auch wichtig.\nKäfer beobachten, Kakteen\nsammeln...",
      "EUen": "I'm probably always yakkin' about\nhow you should work hard, but\nyou gotta know how to kick back\nand be lazy too! It's an important\nlife skill, kiddo. Go take a bath, eat\nsome candy, and call me tomorrow.",
      "EUes": "Sé que doy mucho la paliza\ncon lo del esfuerzo, pero tú\ntambién sabes cómo hacer\nuna defensa de la vagancia,\nque también es necesaria,\n¡ja, ja, ja!",
      "EUfr": "Peu importe combien de choses tu\nas à faire, n'oublie pas de prendre\nun peu de temps pour toi. Mange\nun chocolat, prends un bain,\nallonge-toi un petit quart d'heure...",
      "EUit": "Io dico sempre che bisogna\nimpegnarsi... ma conta tanto\nanche rallentare e rilassarsi.\nAh, e quando ti fermi, non\ndimenticare di tirare il freno\na mano. AHAHAH!",
      "EUnl": "Ik zit wel vaak te zeuren over het\nbelang van hard werken, maar je\nmoet je ook weten te ontspannen!\nLuiheid en verveling kun je leren.\nNeem een bad, snoep tot je niet\nmeer kunt, bel me morgen.",
      "EUru": "Я тут вот о чем подумал...\nНадо хорошо трудиться, но\nи отдыхать надо не забывать.\nВовремя залечь на диван —\nважный навык, козявка.\nЕсли что, звони!",
      "JPja": "たまには　どっかに　ごろっとねころんで、\nきゅうけいするのも　いいんじゃねぇか？\nオメェは　いつも　がんばってるから、\nときどき　いきぬき　しねぇとな。\nちょくせつ　こんなこと　いえねぇから、\nメッセージで　つたえさせてもらうよ。",
      "KRko": "가끔은 아무 데나 드러누워서\n쉬는 것도 괜찮지 않냐?\n넌 항상 뭐든 열심히 하니까\n가끔씩 한숨 돌려줘야 돼.\n직접 만나면 이런 얘기가 좀처럼\n입에서 안 나와서 이렇게 카드로 전한다.",
      "TWzh": "偶爾找個地方躺下來休息，\n不也挺好的嗎？\n你一直都很努力，\n偶爾也要放鬆一下才行啊。\n因為我不好意思面對面說這種事，\n所以就用心意卡告訴你囉。",
      "USen": "I'm probably always yakkin' about\nhow you should work hard, but\nyou gotta know how to kick back\nand be lazy too! It's an important\nlife skill, kiddo. Go take a bath, eat\nsome candy, and call me tomorrow.",
      "USes": "Sé que soy muy insistente\ncon lo del esfuerzo, pero tú\ntambién sabes cómo hacer\nuna defensa de la vagancia,\nque también es necesaria,\n¡ja, ja, ja!",
      "USfr": "Peu importe combien de choses tu\nas à faire, n'oublie pas de prendre\nun peu de temps pour toi. Mange\nun chocolat, prends un bain,\nallonge-toi un petit quart d'heure..."
    }
  },
  {
    "label": "105",
    "locale": {
      "CNzh": "我本来在岛上慢悠悠地散步，\n然后路过机场附近的时候，\n脑海里突然浮现出你的面庞。\n不知为何总觉得有些挂怀，\n于是就决定给你寄一张心意卡。\n等你心血来潮了，就给我个回复吧。",
      "EUde": "Bin neulich einfach so meines\nWeges gegangen und hab mir\nnichts Böses dabei gedacht,\nals ich plötzlich an dich denken\nmusste. Also dachte ich mir, ich\nschreib dir mal. So, erledigt.",
      "EUen": "I was just walkin' around the other\nday, thinkin' about nothin' in\nparticular, when I suddenly thought\nof you. Not sure why, but I thought\nI'd better send you a quick note in\ncase you felt like writin' back.",
      "EUes": "El otro día estaba dando una\nvuelta, cuando de pronto me\nacordé de ti. No sé por qué,\npero sentí la necesidad de\nescribirte esta tarjeta. Pues\neso, aquí está.",
      "EUfr": "L'autre jour, je me promenais\ntranquillement, quand soudain je\nme suis demandé ce que tu pouvais\nbien être en train de faire à ce\nmoment précis. Du coup, je t'écris\npour te poser la question.",
      "EUit": "L'altro giorno camminavo senza\npensare a nulla in particolare,\nquando ho pensato a te. Mi è\nvenuta voglia di scriverti ed eccoci\nqui! Se ora tu stai pensando a me,\npuoi rispondermi e saremo pari!",
      "EUnl": "Ik liep laatst zo'n beetje nergens\naan te denken en ineens zat jij in\nmijn hoofd. Waarom weet ik niet,\nmaar ik stuur je maar even een\nbericht, dan kun je me terug-\nschrijven als je zin hebt.",
      "EUru": "Я тут вышел подышать воздухом\nи вспомнил про тебя, козявка.\nДавненько о тебе ничего не\nслышал, как поживаешь там?\nНе забывай иногда писать\nсвоему старому приятелю!",
      "JPja": "さんぽがてら　しまを　あるいてたら、\nひこうじょうのそばを　とおったときに\nオメェのカオが　アタマにうかんでよぉ。\nみょうに　ひっかかったモンだから、\nメッセージカードを　だすことにしたんだ。\nま、きがむいたら、へんじくれよ。",
      "KRko": "산책도 할 겸 섬을 걸어다녔는데\n비행장 근처를 지나가다가 니가 문득\n떠올랐어.\n그때부터 이상하게 계속 니 얼굴이\n머릿속을 맴돌길래 이렇게 메시지 카드를\n보낸다. 마음 내키면 답장 보내줘.",
      "TWzh": "我在島上散步，\n經過機場旁的時候，\n腦海裡就浮現了你的臉啊。\n因為我挺在意的，\n所以就決定寄心意卡給你了。\n是說，等你想回的時候再給我回覆吧。",
      "USen": "I was just walkin' around the other\nday, thinkin' about nothin' in\nparticular, when I suddenly thought\nof you. Not sure why, but I thought\nI'd better send you a quick note in\ncase you felt like writin' back.",
      "USes": "El otro día estaba dando una\nvuelta, cuando de pronto me\nacordé de ti. No sé por qué,\npero sentí la necesidad de\nescribirte esta tarjeta. Pues\neso, aquí está.",
      "USfr": "L'autre jour, je me promenais\ntranquillement, quand soudain je\nme suis demandé ce que tu pouvais\nbien être en train de faire à ce\nmoment précis. Du coup, je t'écris\npour te poser la question."
    }
  },
  {
    "label": "106",
    "locale": {
      "CNzh": "最近不知为何，\n经常读到跟钓鱼相关的杂志啊。\n弄得我连晃饵和鱼形假饵之类的专业名词\n都给记住了。\n不过要是光看看杂志就能提高钓鱼技术的话，\n也就没那么多烦恼了。",
      "EUde": "In letzter Zeit hab ich 'ne Menge\nAngelzeitschriften gelesen. Da\nlernt man Wörter... „Wobbler“ zum\nBeispiel. Oder „Nassfliege“. Ich\nhab sie alle nachgeschlagen! Aber\nbeim Angeln hilft das nichts.",
      "EUen": "I've been readin' a lot of fishin'\nmagazines lately, and lemme tell\nyou, they're filled with all kinds of\ngoofy words. Like...wobbling. And\ncrankbait. I looked 'em up, but it's\nnot helpin' me get better at fishin'.",
      "EUes": "Estoy leyendo sobre pesca\núltimamente y parece que\nlas cañas tienen un carrete...\n¿Será para fotografiar peces?\nPorque sabes que las fotos\nse hacen con carretes, ¿no?",
      "EUfr": "Je me suis abonné à un magazine\nde pêche dernièrement, mais\nil y a trop de mots compliqués\nlà-dedans. De toute façon, à mon\navis rien n'égale l'entraînement\nà l'ancienne !",
      "EUit": "mi sono messo a leggere delle\nriviste di pesca... Negli articoli\nusano paroloni tipo \"bombarda\",\n\"innescare\"... Non sapevo mica\nche fosse uno sport così...\nesplosivo. AHAHAH!",
      "EUnl": "Ik zit de laatste tijd steeds in van\ndie visblaadjes te neuzen en ze\nstaan vol met rare woorden als...\nschoepjes en spinners. Ik heb dat\nvisserslatijn opgezocht, maar beter\nging ik er niet van vissen.",
      "EUru": "Я тут начал почитывать журналы\nо рыбалке. Какие-то заумные\nсловечки там пишут, козявка...\nА главное — толку никакого.\nРыба как не ловилась, так и не\nловится...",
      "JPja": "なぜか　さいきん、つりカンケイのざっしを\nよむきかいが　おおくてよ。\nウォブリングやら　クランクベイトやら、\nせんもんようごまで　おぼえちまったぜ。\nま、ざっしをよむだけで　つりのウデマエが\nあがるんなら、せわが　ねぇんだけどよ。",
      "KRko": "요즘 왠지 낚시 관련 잡지를\n읽을 일이 많아졌거든.\n워블링이니 크랭크베이트니 하는\n전문 용어까지 알게 됐어.\n잡지만 읽어서 낚시 실력을 쑥쑥\n키울 수 있다면 좋을 텐데.",
      "TWzh": "最近讀釣魚類雜誌的機會\n莫名地多。\n看到連晃餌啊、曲軸餌之類的專門用語\n都記在腦裡了。\n不過要是光讀雜誌就能增進釣魚技術，\n那就輕鬆多了。",
      "USen": "I've been readin' a lot of fishin'\nmagazines lately, and lemme tell\nyou, they're filled with all kinds of\ngoofy words. Like...wobbling. And\ncrankbait. I looked 'em up, but it's\nnot helpin' me get better at fishin'.",
      "USes": "Estoy leyendo sobre pesca\núltimamente y parece que\nlas cañas tienen un carrete...\n¿Será para fotografiar peces?\nPorque sabes que las fotos\nse toman con carretes, ¿no?",
      "USfr": "Je me suis abonné à un magazine\nde pêche dernièrement, mais\nil y a trop de mots compliqués\nlà-dedans. De toute façon, à mon\navis rien n'égale l'entraînement\nà l'ancienne!"
    }
  },
  {
    "label": "107",
    "locale": {
      "CNzh": "天上掉下来馅饼这种事听着很美好，\n但世间可没那么单纯。\n平时乍看之下一派轻松的那些家伙，\n其实暗地里都做了无数的努力哦。\n罗马不是一日建成的，\n正所谓千里之行始于足下啊。",
      "EUde": "Das schnelle Geld klingt nach 'ner\nprima Idee, oder? Aber das kannst\ndu vergessen! Manche Leute sehen\naus, als würd's bei ihnen funktio-\nnieren, aber das täuscht! Also\nmerk dir: Keine Abkürzungen!",
      "EUen": "Makin' easy money sounds good,\nright? Well, it's never that easy!\nSome folks that look like they're\njust sailin' through life might be\nworkin' real hard behind the\nscenes. No shortcuts, kiddo!",
      "EUes": "Muchos quieren hacer dinero\nsin esfuerzo, ¡pero nunca es\nfácil! Hasta los especuladores\ntienen que trabajar muy duro;\nel mundo de los chanchullos\nes muy competitivo...",
      "EUfr": "Tu crois aux clochettes faciles ?\nMoi pas ! Si on pouvait devenir\nriche sans se fouler, à mon avis\nça se saurait. Je vais te dire une\nbonne chose : il n'y a que l'effort\nhonnête qui paie vraiment.",
      "EUit": "Molta gente cerca sempre di\ntrovare una scorciatoia, ma per\nottenere certi risultati non esiste\nuna via facile. Al limite, si trovano\nscarpe comode per percorrerla.\nAHAHAH!",
      "EUnl": "Slapend rijk worden klinkt mooi,\nhè? Nou, vergeet het maar!\nSommige lui lijken wel heel\nmakkelijk door het leven te fietsen,\nmaar die werken er intussen wel\nknetterhard voor. Niks voor niks!",
      "EUru": "Я тут вот о чем подумал...\nЛегкие дини — звучит заманчиво,\nтак ведь, козявка? Но так не\nбывает, вот в чем загвоздка.\nБез труда не выловишь\nи рыбки из пруда...",
      "JPja": "ラクしてかせぐってのは　きこえがイイが、\nよのなか　そんな　タンジュンじゃねぇぜ。\nパッとみ、ラクしてそうに　みえるヤツらは\nみえないところで　ドリョクしてんのさ。\nどんなことにも　ちかみちなんてねぇ、\nひびの　つみかさねが　みをむすぶんだ。",
      "KRko": "놀면서 돈을 번다, 듣기엔 좋지만\n세상 일이 그렇게 쉽게 되진 않아.\n언뜻 보면 쉽게 돈을 버는 것 같은\n녀석들도 보이지 않는 데서 노력하고 있지.\n매사에 지름길이란 없어. 평소부터\n열심히 해야 열매를 맺을 수 있는 거야.",
      "TWzh": "輕鬆賺錢聽起來很美好，\n但這世界上可沒這麼單純。\n乍看之下一派輕鬆的那些人，\n私底下可是很拼命的啊。\n無論任何事都無法一蹴可幾，\n需要每天努力累積才有成果。",
      "USen": "Makin' easy money sounds good,\nright? Well, it's never that easy!\nSome folks that look like they're\njust sailin' through life might be\nworkin' real hard behind the\nscenes. No shortcuts, kiddo!",
      "USes": "Muchos quieren hacer dinero\nsin esfuerzo, ¡pero nunca es\nfácil! Hasta los especuladores\ntienen que trabajar muy duro;\nel mundo de los chanchullos\nes muy competitivo...",
      "USfr": "Tu crois aux clochettes faciles?\nMoi pas! Si on pouvait devenir\nriche sans effort, à mon avis\nça se saurait. Je vais te dire une\nbonne chose : il n'y a que l'effort\nhonnête qui paie vraiment."
    }
  },
  {
    "label": "108",
    "locale": {
      "CNzh": "人生难免经历大风大浪。\n风头正盛的时候，\n就得满心祈愿好景长存了。\n但问题在于诸事不顺的时候。\n在那种情况下，仍旧能保持开朗积极的心态，\n那么总有一天能够成为别人憧憬的对象的。",
      "EUde": "Der Ozean des Lebens hat Wellen!\nAuf der Welle zu reiten ist spaßig.\nAber erst mal ganz nach oben\nzu paddeln? Tja, das ist der\nschwierige Teil. Wenn du das\nlernst, wirst du es weit bringen.",
      "EUen": "News flash, kiddo—the ocean of\nlife has waves! Now, ridin' down\nthe face of 'em is pretty sweet.\nBut paddlin' to the top? Now that's\nthe tricky part. Learn to do that,\nand you'll go far.",
      "EUes": "¡Novedades, jovencito: el\nocéano de la vida tiene olas!\nEs muy agradable dejarse\nllevar, pero remar hasta sus\ncrestas... No sé yo. ¡Nunca\nolvides el chaleco salvavidas!",
      "EUfr": "La vie est faite de hauts et de bas,\ntu sais ? Mon secret pour les\nappréhender, c'est de veiller à\ntoujours rester d'humeur égale.\nComme ça, je ne tombe jamais\nde trop haut.",
      "EUit": "La vita non è semplice. È come\nuna grande onda... cavalcarla non\nè difficile, ma arrivare sulla cresta?\nQuello non è da tutti. Impara a\nscalare l'onda! Scendere giù non\nsarà mai un problema.",
      "EUnl": "Ik heb nieuws voor je, jochie: het\nleven bestaat uit bergen en dalen.\nDe top bereik je met heel veel\nvallen en opstaan. En daarna gaat\nhet alleen nog maar bergafwaarts.\nHaha, dat je het even weet!",
      "EUru": "Подумай вот о чем. Жизнь — она\nже, как океан. Волны приходят\nи уходят, ты с ними ничего не\nподелаешь. Но можно научиться\nбороздить волны — и тогда все\nнепременно получится, козявка!",
      "JPja": "じんせいってのには　なみがあるんだ。\nオメェが　うまく　なみにのれてるときは、\nそれが　つづくように　いのるしかねぇ。\nモンダイは　うまくいかないときだ。\nそこでも、くさらず　あかるくいられれば、\nいつか　だれかの　あこがれになれるぜ。",
      "KRko": "인생에는 굴곡이 있어.\n일이 잘 풀릴 때는 그 기세가\n계속되길 기도하는 수밖에 없지.\n잘 풀리지 않을 때가 문제야.\n그때도 꺾이지 않고 항상 긍정적으로\n행동하면 존경받는 사람이 될 수 있을 거야.",
      "TWzh": "人生是有起伏的。\n當你乘上浪頭的時候，\n你只能祈禱浪潮會持續下去。\n問題出在不順遂的時候。\n如果那時候還能不自暴自棄、保持開朗，\n總有一天會成為別人眼中的偶像喔。",
      "USen": "News flash, kiddo—the ocean of\nlife has waves! Now, ridin' down\nthe face of 'em is pretty sweet.\nBut paddlin' to the top? Now that's\nthe tricky part. Learn to do that,\nand you'll go far.",
      "USes": "¡Te tengo noticias, jovencito: el\nocéano de la vida tiene olas!\nEs muy agradable dejarse\nllevar, pero remar hasta sus\ncrestas... No sé yo. ¡Nunca\nolvides el chaleco salvavidas!",
      "USfr": "La vie est faite de hauts et de bas,\ntu sais? Mon secret pour les\nappréhender, c'est de veiller à\ntoujours rester d'humeur égale.\nComme ça, je ne tombe jamais\nde trop haut."
    }
  },
  {
    "label": "109",
    "locale": {
      "CNzh": "最近过得怎么样啊？\n今天不知为何，\n突然想给你写点东西。\n虽然我有时会口无遮拦，\n不过我真的很庆幸\n能够和你成为朋友啊。",
      "EUde": "Wie geht's dir denn so? Ich dachte\nmir, ich meld mich mal. Vielleicht\nwirke ich immer etwas grantig,\naber mir liegt schon einiges dran,\ndass du guter Dinge bist.",
      "EUen": "How's life treatin' you these days?\nIt just seemed like a good time to\nwrite you a note and check in.\nI know I might be grumpy from time\nto time, but I'm really rootin' hard\nfor you, kiddo.",
      "EUes": "¿Cómo te trata la vida? ¿Y\ncómo la tratas tú? Solo quería\ncharlar un rato contigo... Sé\nque soy un poco plasta con\nmis batallitas, pero contigo\nme esforzaré por reducirlas.",
      "EUfr": "Comment ça va ces temps-ci ?\nJ'avais envie de prendre de tes\nnouvelles, me demande pas\npourquoi. J'ai bien le droit\naprès tout, non ?",
      "EUit": "Come ti va la vita? Spero che\nnon te la passi troppo male,\nperché mi dispiacerebbe.\nNon sembra, ma ho il cuore\ntenero. Come un tortino al\ncioccolato. AHAHAH!",
      "EUnl": "Hoe staat het leven ervoor\ntegenwoordig? Ik was even\nbenieuwd, dus vandaar dit bericht.\nIk kom dan misschien af en toe wat\nknorrig over, jou kan ik goed\nhebben, jochie.",
      "EUru": "Как жизнь молодая, козявка?\nДавненько не слышал ничего\nо тебе. Я знаю, я бываю грубоват,\nно я же не бессердечен.\nТы хоть заглядывай иногда,\nне забывай своего старика!",
      "JPja": "さいきん、ちょうしは　どうでぇ？\nきょうは　なんとなく　オメェあてに\nメッセージを　だしたくなっちまってな。\nときにはキツいことも　いっちまうが、\nオメェと　トモダチになれたことを\nオレはホントに　よかったとおもってるぜ。",
      "KRko": "요즘 어떻게 지내냐?\n왠지 오늘은 너한테 메시지 카드를\n쓰고 싶어졌어.\n가끔 거친 말이 나갈 때도 있지만\n난 너와 친구가 된 걸 내 인생\n최고의 행운이라고 생각해.",
      "TWzh": "你最近狀況怎樣啊？\n不知道為什麼，\n今天突然想寄心意卡給你。\n雖然偶爾會說點重話，\n但我可是由衷認為\n能跟你當朋友很幸運喔。",
      "USen": "How's life treatin' you these days?\nIt just seemed like a good time to\nwrite you a note and check in.\nI know I might be grumpy from time\nto time, but I'm really rootin' hard\nfor you, kiddo.",
      "USes": "¿Cómo te trata la vida? ¿Y\ncómo la tratas tú? Solo quería\ncharlar un rato contigo... Sé\nque soy un poco pesado con\nmis historias, pero contigo\nme esforzaré por reducirlas.",
      "USfr": "Comment ça va ces temps-ci?\nJ'avais envie de prendre de tes\nnouvelles, me demande pas\npourquoi. J'ai bien le droit\naprès tout, non?"
    }
  },
  {
    "label": "110",
    "locale": {
      "CNzh": "时尚这东西还真是深奥啊。\n我平常大都是抓起手边的一件衣服，\n穿上就出门了，\n但时髦的人不会这样对吧？\n我实在是不敢相信\n有人会在镜子前面磨蹭几个小时啊。",
      "EUde": "Weißt du, was ich nicht verstehe?\nWie man in seinen eigenen Sachen\nvorm Spiegel stehen kann. Die hat\nman ja selbst gekauft, also weiß\nman, wie sie aussehen. Zieh ein-\nfach irgendwas an, und ab dafür.",
      "EUen": "Know what I don't get? Tryin' on\nyour own clothes in the mirror. You\nbought 'em, so you already know\nwhat they look like! Just throw on\nwhatever and start your day! Yeah,\nI'm not exactly a fashion guru.",
      "EUes": "No entiendo por qué la gente\nse prueba ropa frente al\nespejo. ¿No la han visto ya\ncuando la han comprado?\nMucho narcisismo es lo que\nhay, ya te lo digo yo.",
      "EUfr": "J'ai jamais compris les gens qui\nse regardent dans le miroir quand\nils s'habillent. J'veux dire, ils ont\ndéjà oublié à quoi ils ressemblaient\nou quoi ? Un habit c'est un habit,\nil va pas changer de tête...",
      "EUit": "Non capisco chi si prova i\nvestiti allo specchio prima di\nuscire di casa. Cioè, se li hai\ncomprati ti stanno bene, no?\nO è per far provare qualche\nposa allo specchio?",
      "EUnl": "Weet je wat ik niet snap? Je eigen\nkleren passen voor de spiegel. Je\nweet toch al hoe ze eruit zien, je\nhebt ze zelf gekocht?! Kleed je\ngewoon aan en begin je dag! Tja,\neen stijlgoeroe zal ik nooit worden.",
      "EUru": "Я вот знаешь чего никогда не\nмог понять? Зачем рассматривать\nв зеркале свою собственную\nодежду? Ты ж ее сам купил\nи прекрасно знаешь, как она\nвыглядит... Чушь какая-то...",
      "JPja": "ファッションってのは　おくがふけぇな。\nオレは、てぢかにあるふくを　そのまま\nはおって　でかけることが　おおいけど、\nオシャレなヤツは　そうはいかねぇんだろ？\nかがみのまえで、なんじかんも　なやむ\nヤツがいるなんて　しんじられねぇよ。",
      "KRko": "패션은 정말 심오한 세계야.\n난 손에 잡히는 옷을 그냥 걸치고\n나가는 경우가 대부분인데\n옷 잘 입는 녀석들은 안 그런다며?\n거울 앞에서 몇 시간이나 고민하며\n옷을 고르다니 난 상상도 못 할 일이야.",
      "TWzh": "流行這玩意還真深奧啊。\n雖然我經常隨手抓一件衣服\n就穿出門了，\n但是愛打扮的人不會這樣吧？\n我還真不敢相信有人可以\n在鏡子面前煩惱好幾個小時啊。",
      "USen": "Know what I don't get? Tryin' on\nyour own clothes in the mirror. You\nbought 'em, so you already know\nwhat they look like! Just throw on\nwhatever and start your day! Yeah,\nI'm not exactly a fashion guru.",
      "USes": "No entiendo por qué la gente\nse prueba ropa frente al\nespejo. ¿No la vieron cuando\nla compraron? Mucho narcisismo\nes lo que hay, ya te lo digo yo.",
      "USfr": "J'ai jamais compris les gens qui\nse regardent dans le miroir quand\nils s'habillent. J'veux dire, ils ont\ndéjà oublié à quoi ils ressemblaient\nou quoi? Un habit c'est un habit,\nil va pas changer de tête..."
    }
  },
  {
    "label": "201",
    "locale": {
      "CNzh": "身体可是资本啊。(resident name)",
      "EUde": "Mach mal Pause! –(Einwohnername)",
      "EUen": "Get to it! Sincerely, (resident name)",
      "EUes": "Compitiendo, (resident name)",
      "EUfr": "C'est important. (nom du résident)",
      "EUit": "Ti stimo, (resident name)",
      "EUnl": "Werk eraan, (resident name)",
      "EUru": "Твой друг (resident name)",
      "JPja": "カラダは　シホンだからな、(resident name)",
      "KRko": "뭐든 건강이 우선이야, (resident name)",
      "TWzh": "身體是人生的資本啊。(resident name)",
      "USen": "Get to it! Sincerely, (resident name)",
      "USes": "Compitiendo, (resident name)",
      "USfr": "C'est important, (nom du résident)"
    }
  },
  {
    "label": "202",
    "locale": {
      "CNzh": "虽然有时候也会弄坏就是了。(resident name)",
      "EUde": "Merk dir das! –(Einwohnername)",
      "EUen": "Sometimes they just break though...",
      "EUes": "Dales un descanso, (resident name)",
      "EUfr": "Et oui. Signé, (nom du résident)",
      "EUit": "Musicalmente tuo. (resident name)",
      "EUnl": "Maar stuk gaan ze soms toch...",
      "EUru": "На этом у меня все...",
      "JPja": "こわれるときも　あるけどな、(resident name)",
      "KRko": "망가질 때도 있지만 말야, (resident name)",
      "TWzh": "雖然有時候會用壞啦。(resident name)",
      "USen": "Sometimes they just break though...",
      "USes": "Dales un descanso, (resident name)",
      "USfr": "Eh oui. Signé, (nom du résident)"
    }
  },
  {
    "label": "203",
    "locale": {
      "CNzh": "今天就先写到这里吧。(resident name)",
      "EUde": "Das war's. –(Einwohnername)",
      "EUen": "Guess that's it. –(resident name)",
      "EUes": "Desorientado, (resident name)",
      "EUfr": "Du coup tant pis. (nom du résident)",
      "EUit": "Tutto qui! (resident name)",
      "EUnl": "Dat is alles, (resident name)",
      "EUru": "Конец связи, (resident name)",
      "JPja": "きょうは　ここまで、(resident name)より",
      "KRko": "오늘은 이만 줄일게, (resident name) 보냄",
      "TWzh": "今天就先寫到這吧，(resident name)　筆",
      "USen": "Guess that's it. –(resident name)",
      "USes": "Desorientado, (resident name)",
      "USfr": "Du coup tant pis, (nom du résident)"
    }
  },
  {
    "label": "204",
    "locale": {
      "CNzh": "爱管闲事的(resident name)",
      "EUde": "Dein entspannter (Einwohnername)",
      "EUen": "Not a physician, (resident name)",
      "EUes": "Con equilibrio, (resident name)",
      "EUfr": "Docteur (nom du résident)",
      "EUit": "Goditi la vita! (resident name)",
      "EUnl": "Je hobbytherapeut, (resident name)",
      "EUru": "Держи хвост трубой! (resident name)",
      "JPja": "おせっかいな　(resident name)より",
      "KRko": "참견쟁이 (resident name) 보냄",
      "TWzh": "愛管事的(resident name)　筆",
      "USen": "Not a physician, (resident name)",
      "USes": "Con equilibrio, (resident name)",
      "USfr": "Docteur (nom du résident)"
    }
  },
  {
    "label": "205",
    "locale": {
      "CNzh": "再见啦。(resident name)",
      "EUde": "Schreib mal! –(Einwohnername)",
      "EUen": "Hope to hear back. –(resident name)",
      "EUes": "Esperándote, (resident name)",
      "EUfr": "Réponds-moi ! (nom du résident)",
      "EUit": "Ci si vede! (resident name)",
      "EUnl": "In afwachting, (resident name)",
      "EUru": "До связи, (resident name)",
      "JPja": "じゃあな、(resident name)",
      "KRko": "그럼 안녕, (resident name)",
      "TWzh": "就先這樣吧。(resident name)",
      "USen": "Hope to hear back. –(resident name)",
      "USes": "Esperándote, (resident name)",
      "USfr": "Réponds-moi! (nom du résident)"
    }
  },
  {
    "label": "206",
    "locale": {
      "CNzh": "道听途说行不通的对吧？(resident name)",
      "EUde": "Petri Heil, (Einwohnername)",
      "EUen": "A fishin' fool, (resident name)",
      "EUes": "Saludos, (resident name)",
      "EUfr": "(nom du résident)",
      "EUit": "(resident name), aspirante pescatore",
      "EUnl": "Je visfanaat, (resident name)",
      "EUru": "С недоумением, (resident name)",
      "JPja": "みみがくもんじゃダメか、(resident name)",
      "KRko": "주워들은 지식으론 안 되나? (resident name)",
      "TWzh": "光看不做不行吧，(resident name)",
      "USen": "A fishin' fool, (resident name)",
      "USes": "Saludos, (resident name)",
      "USfr": "(nom du résident)"
    }
  },
  {
    "label": "207",
    "locale": {
      "CNzh": "偶尔认真一回的(resident name)",
      "EUde": "Ich mein's ernst! –(Einwohnername)",
      "EUen": "Not jokin', (resident name)",
      "EUes": "Sin exagerar, (resident name)",
      "EUfr": "(nom du résident) le sage",
      "EUit": "Il tuo pellegrino (resident name)",
      "EUnl": "Ik meen het, (resident name)",
      "EUru": "На полном серьезе, (resident name)",
      "JPja": "たまにはマジメな　(resident name)より",
      "KRko": "가끔 진지한 (resident name)이",
      "TWzh": "偶爾認真的(resident name)　筆",
      "USen": "Not jokin', (resident name)",
      "USes": "Sin exagerar, (resident name)",
      "USfr": "(nom du résident) le sage"
    }
  },
  {
    "label": "208",
    "locale": {
      "CNzh": "大彻大悟的(resident name)",
      "EUde": "Reite auf der Welle! –(Einwohnername)",
      "EUen": "Ride the wave. –(resident name)",
      "EUes": "Entre las olas, (resident name)",
      "EUfr": "Neutrement tien, (nom du résident)",
      "EUit": "Il tuo surfista (resident name)",
      "EUnl": "Blijf klimmen, (resident name)",
      "EUru": "Попутного ветра! (resident name)",
      "JPja": "ハードボイルドな　(resident name)より",
      "KRko": "하드보일드한 (resident name)이",
      "TWzh": "硬派的(resident name)　筆",
      "USen": "Ride the wave. –(resident name)",
      "USes": "Entre las olas, (resident name)",
      "USfr": "Neutrement tien, (nom du résident)"
    }
  },
  {
    "label": "209",
    "locale": {
      "CNzh": "今后也请多多关照啦。(resident name)",
      "EUde": "Schöne Grüße, (Einwohnername)",
      "EUen": "Sincerely, (resident name)",
      "EUes": "Sinceramente, (resident name)",
      "EUfr": "Amicalement, (nom du résident)",
      "EUit": "(resident name), quasi uno chef",
      "EUnl": "In ernst, (resident name)",
      "EUru": "Твой приятель (resident name)",
      "JPja": "これからも　ヨロシクな、(resident name)",
      "KRko": "앞으로도 잘 부탁한다, (resident name)",
      "TWzh": "以後也請多關照啦。(resident name)",
      "USen": "Sincerely, (resident name)",
      "USes": "Sinceramente, (resident name)",
      "USfr": "Amicalement, (nom du résident)"
    }
  },
  {
    "label": "210",
    "locale": {
      "CNzh": "我还是一知半解的就好。(resident name)",
      "EUde": "Dein Modekenner (Einwohnername)",
      "EUen": "Confidently, (resident name)",
      "EUes": "Perplejo, (resident name)",
      "EUfr": "Réfléchis-y, (nom du résident)",
      "EUit": "Il tuo perplesso (resident name)",
      "EUnl": "Vol zelfvertrouwen, (resident name)",
      "EUru": "Не хворай там, (resident name)",
      "JPja": "オレぁ　あさいままでいいぜ、(resident name)",
      "KRko": "난 앞으로도 아마추어로 살래, (resident name)",
      "TWzh": "我還是少知道點好。(resident name)",
      "USen": "Confidently, (resident name)",
      "USes": "Perplejo, (resident name)",
      "USfr": "Réfléchis-y, (nom du résident)"
    }
  }
]