﻿[
  {
    "label": "101",
    "attribute": "0x00000013",
    "locale": {
      "CNzh": "啊……您、您好。\n请问，找我有什么事吗？\n……您、您说……建造别墅？\n抱歉，\n这不在我的管辖范围之内……\n不、不是这样吗？您要为我设计别墅？\n那、那个，我这就过去找您，\n请和我说说详细情况，\n可以吗……",
      "EUde": "Öh... H-hallo. Was darf ich für--\nBitte? Ferienhäuser?\nOje, damit kenne ich mich leider--\nWie? Eines für mich? In dem ich\nUrlaub machen kann und so?\nOh. Öh. Also, wenn das so ist...\nK-könnte ich vielleicht schnell auf\neine Besprechung vorbeikommen?\nGinge das?\nAuch nicht zu viele Umstände?",
      "EUen": "Oh... H-hello. Can I, um, help you?\nHuh? Vacation homes?\nSorry. That area's outside of my\njurisdiction, so I can't, um... Huh?\nYou want me to vacation there?\nOh, in that case, um...c-can I head\nover now to hear more details?\nWould that be OK?",
      "EUes": "Esto... ¿Dígame? ¿Qué q-querías?\n¿Eh? ¿Un centro de vacaciones?\nLo siento... En esa zona no t-tengo\nautorización para patrullar, porque...\nAh, ¿una casa para vivir yo allí?\nSiendo esa la oferta... p-puedo\nacercarme y me cuentas los detalles.\nSi te parece bien, claro.",
      "EUfr": "Oh... Bonjour. Euh, que puis-je faire\npour toi...? Pardon ? Une maison\nde vacances ?\nDésolé, je travaille à la circulation,\npas à l'urbanisme... Comment ? Tu\nvoudrais me préparer une villa ?\nDans ce cas... est-ce que je pourrais\npasser maintenant pour en discuter ?\nEnfin si je ne dérange pas, bien sûr...",
      "EUit": "Oh... P-Pronto. Posso, uhm, fare\nqualcosa per te? Eh? Case vacanze?\nMi spiace. Quella zona non è nella\nmia giurisdizione e... Mh? Dovrei\nandarci a passare le vacanze?\nOh, beh, in tal caso... potrei, ecco,\nvenire a discuterne lì? Si potrà?",
      "EUnl": "O... Hallo. Kan ik je, eh, helpen?\nWat zeg je? Vakantiehuizen?\nSorry. Dat gebied valt buiten mijn\njurisdictie, dus ik kan helaas niks...\nO? Je wilt dat ik daar vakantie kom\nhouden?\nGoh, kan ik in dat geval, eh...\nlangskomen voor meer inlichtingen?\nZou dat oké zijn?",
      "EUru": "Да... Алло. Чем могу, э-э-э, быть\nполезен? Что? Дачи?\nИзвини. Этот район находится за\nпределами моего участка, я не...\nА? Предлагаешь мне там отдыхать?\nВ таком случае, э-э-э... д-давай\nя подъеду и ты мне все\nрасскажешь? Удобно будет?",
      "JPja": "あっ・・・　は、はいっ\nあの　何かご用でしょうか？\n・・・べ、別荘・・・ですか？\n申し訳ありませんが、\nそちらは　カンカツ外でして・・・\nそ、そうじゃない？　わたしに別荘を提案？\nあ、あの　今すぐ　そちらに行きますので\n詳しい話を　聞かせてもらっても\nいいですか・・・",
      "KRko": "앗... 예옙\n저, 뭘 도와드리면 될까요?\n...벼, 별장이요...?\n죄송합니다만\n그쪽은 제 관할이 아니라서...\n그, 그게 아니라 저한테 제안하시는 거라고요?\n저, 저기 지금 바로 그쪽으로 갈 테니\n자세한 얘기를 들려주실 수\n있겠습니까...?",
      "TWzh": "啊……你、你好，\n請問有什麼事嗎？\n要……要蓋別墅……是嗎？\n不好意思，\n這件業務不在我的管轄範圍內……\n我、我誤會了？你是說要幫我蓋別墅？\n那、那個，我現在馬上去找你，\n到時候再請你告訴我詳情，\n可以嗎……？",
      "USen": "Oh... H-hello. Can I, um, help you?\nHuh? Vacation homes?\nSorry. That area's outside of my\njurisdiction, so I can't, um... Huh?\nYou want me to vacation there?\nOh, in that case, um...c-can I head\nover now to hear more details?\nWould that be OK?",
      "USes": "Este... ¿Dígame? ¿Qué q-quería?\n¿Eh? ¿Una casa de vacaciones?\nLo siento... En esa zona no tengo\nautorización para patrullar, porque...\nAh, ¿un lugar para mis vacaciones?\nSiendo esa la oferta... p-puedo\nacercarme y me cuenta los detalles.\nSi le parece bien, claro.",
      "USfr": "Oh... Bonjour. Euh, que puis-je faire\npour toi...? Pardon? Une maison\nde vacances?\nDésolé, je travaille à la circulation,\npas à l'urbanisme... Comment? Tu\nvoudrais me préparer une maison?\nDans ce cas... est-ce que je pourrais\npasser maintenant pour en discuter?\nEnfin si je ne dérange pas, bien sûr..."
    }
  }
]