﻿[
  {
    "label": "001",
    "attribute": "0x00000018",
    "locale": {
      "CNzh": "先做好生活的准备吧……",
      "EUde": "Ich sollte mich hier erst mal\nein wenig einrichten...",
      "EUen": "I should get my new home set\nup first...",
      "EUes": "Lo primero es terminar los\npreparativos de mi nuevo hogar.",
      "EUfr": "Tu devrais d'abord songer à\nt'installer correctement chez toi...",
      "EUit": "Meglio se prima mi costruisco\nuna casa...",
      "EUnl": "Je kunt er beter eerst voor\nzorgen dat je tent staat...",
      "EUru": "Наверное, лучше сначала\nздесь немного обжиться...",
      "JPja": "まずは　暮らしの準備を\n整えてしまおう・・・",
      "KRko": "일단 생활에 필요한 준비를\n제대로 마쳐 놓자...",
      "TWzh": "先做好生活的準備吧……",
      "USen": "I should get my new home set\nup first...",
      "USes": "Primero tengo que terminar con los\npreparativos para mi nuevo hogar.",
      "USfr": "Tu devrais d'abord songer à\nt'installer correctement chez toi..."
    }
  },
  {
    "label": "002",
    "attribute": "0x00000018",
    "locale": {
      "CNzh": "今天就先\n进入帐篷休息吧……",
      "EUde": "Ich sollte mich erst mal etwas\nin meinem Zelt ausruhen...",
      "EUen": "I should probably take a rest in\nmy tent before doing that...",
      "EUes": "Quizá antes de nada debería\necharme una cabezadita en\nmi tienda de campaña...",
      "EUfr": "Tu devrais te reposer dans ta tente\navant de faire ça...",
      "EUit": "Prima forse dovrei riposarmi un po'\nnella mia tenda...",
      "EUnl": "Je kunt beter even uitrusten\nin je tent voordat je dat doet...",
      "EUru": "Сначала отдохну в палатке,\nа потом загляну туда.",
      "JPja": "今日のところは\nテントに入って　休もう・・・",
      "KRko": "오늘은 그만\n텐트에서 쉬자...",
      "TWzh": "今天就先\n進入帳篷休息吧……",
      "USen": "I should probably take a rest in\nmy tent before doing that...",
      "USes": "Quizá antes que nada debería\ndescansar un poco en mi tienda\nde campaña...",
      "USfr": "Tu devrais te reposer dans ta tente\navant de faire ça..."
    }
  }
]