﻿[
  {
    "label": "001",
    "attribute": "0x0000020000000000",
    "locale": {
      "CNzh": "啊，！\n祝你生日快乐！\n今天你可是主角呢！",
      "EUde": "Hey! Herzlichen Glückwunsch zum\nGeburtstag! Kann man gar nicht oft\ngenug sagen – du bist heute der Star.",
      "EUen": "Yo! Happy birthday! Can't say it\nenough times because you're\nthe star of the day.",
      "EUes": "¡Feliz cumpleaños! No puedo dejar\npasar la felicitación, ¡porque hoy\ntú eres la estrella!",
      "EUfr": "Joyeux anniversaire ! Oui, on te l'a\ndéjà dit dix fois, mais il faut faire\navec ! C'est la dure vie des stars !",
      "EUit": "Hola! Buon compleanno! Non lo\nripeterò mai abbastanza, in fondo\nsei la star di oggi!",
      "EUnl": "Yo! Gefeliciteerd! Ik kan het niet\nvaak genoeg zeggen, want jij bent\nvandaag de ster!",
      "EUru": "Йо! С днем рождения! Могу целый\nдень это повторять, ведь сегодня\nты звезда!",
      "JPja": "あ、！\nハッピーバースデー！\n今日は　キミが　主人公だ！",
      "KRko": "아, 군!\n해피 버스데이!\n오늘은 그대가 주인공이야!",
      "TWzh": "啊，！\nHappy Birthday！\n你是今天的主角喔！",
      "USen": "Yo! Happy birthday! Can't say it\nenough times because you're\nthe star of the day.",
      "USes": "¡Feliz cumpleaños! No puedo dejar\npasar mi saludo, ¡porque hoy\ntú eres la estrella!",
      "USfr": "Bonne fête! Oui, on te l'a déjà\ndit dix fois, mais il faut faire avec!\nC'est la dure vie des stars!"
    }
  },
  {
    "label": "001_a",
    "attribute": "0x0000000000000000",
    "locale": {
      "CNzh": "这个送给你！",
      "EUde": "Hier, für dich!",
      "EUen": "Hey, take this!",
      "EUes": "¡Toma, para ti!",
      "EUfr": "Tiens, c'est pour toi !",
      "EUit": "Ecco a te!",
      "EUnl": "Dit is voor jou!",
      "EUru": "Держи!",
      "JPja": "これあげる！",
      "KRko": "이거 줄게!",
      "TWzh": "這個給你！",
      "USen": "Hey, take this!",
      "USes": "¡Toma, para ti!",
      "USfr": "Tiens, c'est pour toi!"
    }
  },
  {
    "label": "001_b",
    "attribute": "0x0000000000000000",
    "locale": {
      "CNzh": "谢谢！",
      "EUde": "Danke!",
      "EUen": "Thanks!",
      "EUes": "¡Gracias!",
      "EUfr": "Merci !",
      "EUit": "Grazie!",
      "EUnl": "Bedankt!",
      "EUru": "Спасибо!",
      "JPja": "ありがとう！",
      "KRko": "고마워!",
      "TWzh": "謝謝你！",
      "USen": "Thanks!",
      "USes": "¡Gracias!",
      "USfr": "Merci!"
    }
  },
  {
    "label": "002",
    "attribute": "0x0000020000000000",
    "locale": {
      "CNzh": "可能你今天都已经听到厌烦了……\n祝你生日快乐！\n！",
      "EUde": "Du kannst es wahrscheinlich schon\nnicht mehr hören, aber... Herzlichen\nGlückwunsch zum Geburtstag!",
      "EUen": "You may be sick of hearing this\ntoday, but... Happy birthday!",
      "EUes": "Lo mismo ya te has cansado de que\nte lo digan, pero... ¡feliz cumpleaños!",
      "EUfr": "Tu dois en avoir par-dessus la\ncasquette d'entendre ça, mais...\nJoyeux anniversaire !",
      "EUit": "Non ne potrai più di sentirtelo dire,\nma... buon compleanno!",
      "EUnl": "Misschien heb je dit vandaag al\nduizend keer gehoord, maar...\nGefeliciteerd!",
      "EUru": "Тебе, наверное, уже надоело это\nслышать, и все же... С днем\nрождения!",
      "JPja": "今日は　聞き飽きてるかもしれないけど・・・\nハッピーバースデー！\n！",
      "KRko": "다른 사람에게도 많이 들었겠지만...\n해피 버스데이, 군!",
      "TWzh": "雖然你今天可能已經聽膩了……\nHappy Birthday！\n！",
      "USen": "You may be sick of hearing this\ntoday, but... Happy birthday!",
      "USes": "Quizás ya estás cansado de que\nte lo digan, pero... ¡feliz cumpleaños!",
      "USfr": "Tu dois en avoir par-dessus la\ncasquette d'entendre ça, mais...\nBonne fête!"
    }
  },
  {
    "label": "002_a",
    "attribute": "0x0000000000000000",
    "locale": {
      "CNzh": "这个送给你！",
      "EUde": "Hier, für dich!",
      "EUen": "Hey, take this!",
      "EUes": "¡Toma, ten esto!",
      "EUfr": "Tiens, c'est pour toi !",
      "EUit": "Ecco a te!",
      "EUnl": "Dit is voor jou!",
      "EUru": "Держи!",
      "JPja": "これあげる！",
      "KRko": "이거 가져!",
      "TWzh": "這個給你！",
      "USen": "Hey, take this!",
      "USes": "¡Toma, ten esto!",
      "USfr": "Tiens, c'est pour toi!"
    }
  },
  {
    "label": "002_b",
    "attribute": "0x0000000000000000",
    "locale": {
      "CNzh": "谢谢！",
      "EUde": "Danke!",
      "EUen": "Thanks!",
      "EUes": "¡Gracias!",
      "EUfr": "Merci !",
      "EUit": "Grazie!",
      "EUnl": "Bedankt!",
      "EUru": "Спасибо!",
      "JPja": "ありがとう！",
      "KRko": "고마워!",
      "TWzh": "謝謝你！",
      "USen": "Thanks!",
      "USes": "¡Gracias!",
      "USfr": "Merci!"
    }
  },
  {
    "label": "003",
    "attribute": "0x0000020000000000",
    "locale": {
      "CNzh": "啊，，\n祝你生日快乐！\n这是(resident name)满怀爱意的祝福……",
      "EUde": "„Herzlichen Glückwunsch zum\nGeburtstag“ kann man niemals oft\ngenug sagen. Ich zumindest nicht!",
      "EUen": "You can never say buon giorno\ntoo many times. That's Latin for\nhappy birthday!",
      "EUes": "Hoy toca que te diga «buongiorno».\n¡Significa «feliz cumpleaños» en\nlatín!",
      "EUfr": "On ne dit jamais trop « joyeux\nanniversaire ». En tout cas,\npas moi !",
      "EUit": "Oggi ti ripeterò mille volte\n\"Good morning!\" Significa \"buon\ncompleanno\" in latino!",
      "EUnl": "Je kunt nooit vaak genoeg buon\ngiorno zeggen. Dat is Latijn voor\nfijne verjaardag!",
      "EUru": "Бонжорно! Могу повторять это\nсколько угодно. Это значит «С днем\nрождения!»",
      "JPja": "あ、\nハッピーバースデー！\n(resident name)より　愛を込めて・・・",
      "KRko": "아, 군!\n해피 버스데이!\n진심으로 축하해...",
      "TWzh": "啊，。\nHappy Birthday！\n這是來自(resident name)的愛的祝福……",
      "USen": "You can never say buon giorno\ntoo many times. That's Latin for\nhappy birthday!",
      "USes": "Hoy me toca decirte \"bonchorno\".\n¡Significa \"feliz cumpleaños\" en\nlatín!",
      "USfr": "On ne dit jamais trop « bonne\nfête ». En tout cas, pas moi!"
    }
  },
  {
    "label": "003_a",
    "attribute": "0x0000000000000000",
    "locale": {
      "CNzh": "这个送给你！",
      "EUde": "Hier, für dich!",
      "EUen": "Hey, take this!",
      "EUes": "¡Ten, toma esto!",
      "EUfr": "Tiens, c'est pour toi !",
      "EUit": "Ecco a te!",
      "EUnl": "Dit is voor jou!",
      "EUru": "Держи!",
      "JPja": "これあげる！",
      "KRko": "이거 받아!",
      "TWzh": "這個給你！",
      "USen": "Hey, take this!",
      "USes": "¡Ten, toma esto!",
      "USfr": "Tiens, c'est pour toi!"
    }
  },
  {
    "label": "003_b",
    "attribute": "0x0000000000000000",
    "locale": {
      "CNzh": "谢谢！",
      "EUde": "Danke!",
      "EUen": "Thanks!",
      "EUes": "¡Gracias!",
      "EUfr": "Merci !",
      "EUit": "Grazie!",
      "EUnl": "Bedankt!",
      "EUru": "Спасибо!",
      "JPja": "ありがとう！",
      "KRko": "고마워!",
      "TWzh": "謝謝你！",
      "USen": "Thanks!",
      "USes": "¡Gracias!",
      "USfr": "Merci!"
    }
  },
  {
    "label": "004",
    "attribute": "0x0000000000000000",
    "locale": {
      "CNzh": "过了今天，\n你又变得更成熟了呢。。",
      "EUde": "Und damit bist du wieder etwas\nweiser. So wie ich nach einer\nTypberatung. Ha-HA!",
      "EUen": "And with that, you're one step\ncloser to becoming a wise elder.\nLike me. Ha HA!",
      "EUes": "Ya te va quedando menos para ser\nadulto, serio y responsable. Como\nyo más o menos, ¡je, je!",
      "EUfr": "Et te voilà un peu plus près d'avoir\nla sagesse des anciens. Pas encore\nautant que moi, ceci dit. Ha HA !",
      "EUit": "E così hai fatto un altro passo verso\nla saggezza. Io ci sono già arrivato.\nAh ah ah!",
      "EUnl": "Je bent nu weer één stap dichter bij\nde status van wijze oudere. Je weet\nwel, wat ik dus ben. HaHA!",
      "EUru": "Сегодня ты становишься немного\nмудрее. Почти как я. Хо-хо!",
      "JPja": "これで　キミも\n大人の階段を　ひとつ上ったんだね、",
      "KRko": "이제 그대도\n한 걸음 더 어른에 가까워졌군, !",
      "TWzh": "這麼一來，\n你又更成熟了一點呢，。",
      "USen": "And with that, you're one step\ncloser to becoming a wise elder.\nLike me. Ha HA!",
      "USes": "Ya falta menos para que te conviertas en un adulto, serio y responsable.\nComo yo más o menos, ¡je, je!",
      "USfr": "Et te voilà un peu plus près d'avoir\nla sagesse des anciens. Pas encore\nautant que moi, ceci dit. Ha HA!"
    }
  },
  {
    "label": "005",
    "attribute": "0x0000000000000000",
    "locale": {
      "CNzh": "无论到了几岁，\n我们都是彼此的好朋友。\n这一点你千万不要忘记。。",
      "EUde": "Ich hoffe, du hattest eine ganz\nausgezeichnete Geburtstagsfeier,\n(Floskel)!",
      "EUen": "Anyway, I hope you had a great\nbirthday celebration, (catchphrase)!",
      "EUes": "Bueno, ¡espero que lo hayas pasado\nmuy bien, (catchphrase)!",
      "EUfr": "En tout cas, j'espère que tu t'es bien\namusé, (expression) !",
      "EUit": "Comunque spero che passerai\nun bellissimo compleanno,\n(catchphrase)!",
      "EUnl": "Ik hoop dat je vandaag een briljante\ntijd hebt gehad, (catchphrase)!",
      "EUru": "Надеюсь, ты хорошо отметил\nдень рождения! (catchphrase)!",
      "JPja": "いくつになっても\nボクらは　大切な友達だ\nそれだけは　覚えていてほしい、",
      "KRko": "아무리 나이를 먹어도\n우린 소중한 친구야!\n그것만은 기억해줬으면 해, !",
      "TWzh": "無論變成幾歲，\n我們對彼此來說都是重要的朋友。\n你只要記得這件事就足夠了，。",
      "USen": "Anyway, I hope you had a great\nbirthday celebration, (catchphrase)!",
      "USes": "Bueno, ¡espero que la hayas pasado\nmuy bien, (catchphrase)!",
      "USfr": "En tout cas, j'espère que tu t'es bien\namusé, (expression)!"
    }
  },
  {
    "label": "006",
    "attribute": "0x0000000000000000",
    "locale": {
      "CNzh": "今后也请多关照哦。。",
      "EUde": "Stylish bleiben! Ha-HA!\n(Floskel)!\nHeute gibt's für dich gleich ALLE\n(Einwohnername)-Mottos auf einmal. Nichts zu danken!",
      "EUen": "Stay cool. Ha HA! (catchphrase)!\nBoom, you just got all the\nsignature (resident name) lines\nat once. You're welcome!",
      "EUes": "Los vinilos suenan mejor que\ncualquier formato digital. ¡Je, je!\n¿Qué te parece, (catchphrase)?\nAhí te dejo un comentario típico\nde (resident name). ¡De nada!",
      "EUfr": "Ne renonce jamais à la classitude.\nHa HA ! (expression) !\nEt voilà, les trois répliques fétiches\nde (nom du résident) d'un seul coup. C'est cadeau !",
      "EUit": "Troppo giusto, (catchphrase)! Ah ah ah!\nBoom, le frasi migliori di (resident name), tutte insieme per te. Non serve ringraziarmi!",
      "EUnl": "Vet, hoor. Echt de bom. HaHA! \n(catchphrase)!\nBam, daar kreeg je gewoon alle klassieke (resident name)-uitspraken bij elkaar. Geniet ervan!",
      "EUru": "В любой ситуации сохраняй\nспокойствие. Хо-хо! (catchphrase)!\nВот тебе коронная фраза от\n(resident name). Можешь не\nблагодарить.",
      "JPja": "これからも　よろしくね、",
      "KRko": "앞으로도 친하게 지내자, !",
      "TWzh": "以後也請多指教喔，。",
      "USen": "Stay cool. Ha HA! (catchphrase)!\nBoom, you just got all the\nsignature (resident name) lines\nat once. You're welcome!",
      "USes": "Los vinilos suenan mejor que\ncualquier formato digital. ¡Je, je!\n¿Qué te parece, (catchphrase)?\nAhí te dejo un comentario típico\nde (resident name). ¡De nada!",
      "USfr": "Ne renonce jamais à la classitude.\nHa HA! (expression)!\nEt voilà, les trois répliques fétiches\nde ⁠(nom du résident) d'un seul coup. C'est cadeau!"
    }
  },
  {
    "label": "007",
    "attribute": "0x0000000000000000",
    "locale": {
      "CNzh": "说到生日，\n不得不提的就是蛋糕呢。\n……说起来，\n今天的\n有股香甜的味道呢……。",
      "EUde": "Geburtstage versüßen einem das\nLeben, nicht wahr?\nAls wäre der ganze Tag ein Kuchen.\nEinfach ein kleiner Kuchen mit etwas\nZuckerguss...",
      "EUen": "Birthdays are pretty sweet,\nwouldn't you say?\nLike, the whole day is just a piece\nof cake. A piece of cake small\nenough to fit into a tiny cup...",
      "EUes": "Bueno... Los cumpleaños son días\nmuy dulces, ¿no te parece?\nDulces como un pastel... como\nun pastelito...",
      "EUfr": "Les anniversaires apportent tant de\ndouceur...\nC'est comme si toute la journée\nn'était que douceur... Une douceur\nqui tient dans un moule en papier...",
      "EUit": "I compleanni sono il massimo\ndella dolcezza, verdad?\nTutto il giorno non fai altro che\nsentire palabras smielate. Bisogna\nstare attenti alle vespe...",
      "EUnl": "Het is echt wel top om jarig te zijn,\nvind je ook niet?\nDe hele dag is net als een stuk taart.\nOf je weet wel, zo'n gebakje dat in\nzo'n feestelijk papieren bakje zit...",
      "EUru": "Классная все-таки\nвещь — день рождения, да?\nСтолько кексиков вокруг. Таких\nмаленьких, вкусненьких...\nнаверное.",
      "JPja": "バースデーといえば\nなんと言っても　ケーキだよね\n・・・そういえば、\n今日の　、\n甘くて　イイ匂いがするな～・・・、",
      "KRko": "생일 하면 역시\n케이크를 빼놓을 수 없지\n...그러고 보니 \n오늘 군한테서\n달콤하고 좋은 향기가 나는걸, ?",
      "TWzh": "說到Birthday，\n當然不能少了蛋糕啊。\n……對了，\n今天的\n有股香香甜甜的味道……。",
      "USen": "Birthdays are pretty sweet,\nwouldn't you say?\nLike, the whole day is just a piece\nof cake. A piece of cake small\nenough to fit into a tiny cup...",
      "USes": "Bueno... Los cumpleaños son días\nmuy dulces, ¿no te parece?\nDulces como un pastel... como\nun pastelito...",
      "USfr": "Les journées de fête apportent\ntant de douceur...\nC'est comme si toute la journée\nn'était que douceur... Une douceur\nqui tient dans un moule en papier..."
    }
  },
  {
    "label": "008",
    "attribute": "0x0000000000000000",
    "locale": {
      "CNzh": "你吃过生日蛋糕了没有呀，\n？\n我也很想分享一下\n那甜美的好味道呢。。",
      "EUde": "Okay, du hast schon deinen ganzen\nGeburtstagskuchen gegessen,\noder...?",
      "EUen": "Cool, cool, cool, cool...\nSo did you already eat all\nof your birthday cake, or...",
      "EUes": "Bueno, bueno, bueno... ¿Ya te\nhas comido todos tus pastelitos\nde cumpleaños?",
      "EUfr": "Pas de problème... Et à part ça, tu\nas englouti tous tes cupcakes, ou...",
      "EUit": "Tosto, tosto, tosto, tosto...\nAllora, ti sei già mangiato tutti\ni cupcake di compleanno?",
      "EUnl": "Cool, cool, cool, cool... Zeg, zijn er\neigenlijk nog cupcakes over?",
      "EUru": "Класс, класс...\nЗначит, ты уже все именинные\nкексы съел или... я ошибаюсь?",
      "JPja": "バースデーケーキは　もう　食べたのかい？\n\nボクも　あの甘美なテイストを　ぜひ\nおすそわけされたいものだよ、",
      "KRko": "생일 케이크는 먹었어?\n군?\n달콤하고 부드러운 그 맛을...\n나도 느껴보고 싶군, !",
      "TWzh": "你已經吃過生日蛋糕了嗎？\n。\n希望我也可以分到一口\n那甜美的Taste，。",
      "USen": "Cool, cool, cool, cool...\nSo did you already eat all\nof your birthday cake, or...",
      "USes": "Bueno, bueno, bueno... ¿Ya te\ncomiste todos tus pastelitos\nde cumpleaños?",
      "USfr": "Pas de problème... Et à part\nça, tu as englouti tous tes\ncupcakes, ou..."
    }
  },
  {
    "label": "009",
    "attribute": "0x0000000000000000",
    "locale": {
      "CNzh": "哇哦！\n看起来多么美味的纸杯蛋糕呀！\n谢谢你！。",
      "EUde": "Hey! Dazu sage ich nicht nein.\n(Floskel), das sieht ja höchst\ndelikat aus!",
      "EUen": "Whoa! I won't say no to that.\n(catchphrase), this looks delicious!",
      "EUes": "¡Oooh! No podría rechazarlo.\n¡Tiene una pinta deliciosa,\n(catchphrase)!",
      "EUfr": "Ouah ! Alors là, je ne dis pas non.\n(expression), ça a l'air délicieux !",
      "EUit": "Uau! Non posso rifiutare. Sembra\nuna vera delizia, (catchphrase)!",
      "EUnl": "Zo! Daar zeg ik geen nee tegen. (catchphrase), dit ziet er supersmakelijk uit!",
      "EUru": "Вот это да! Не откажусь.\n(catchphrase)! Ням-ням, как же это\nвкусно выглядит!",
      "JPja": "ワオ！\n美味しそうな　カップケーキじゃないか！\nサンキュー、",
      "KRko": "오!\n먹음직스러운 컵케이크잖아!\n땡큐, !",
      "TWzh": "Wow！\n這杯子蛋糕看起來真美味！\nThank you，。",
      "USen": "Whoa! I won't say no to that.\n(catchphrase), this looks delicious!",
      "USes": "¡Oooh! ¡¿Cómo diría que no?!\n¡Tiene un aspecto delicioso,\n(catchphrase)!",
      "USfr": "Wow! Alors là, je dis pas non.\n(expression), ça a l'air délicieux!"
    }
  },
  {
    "label": "010",
    "attribute": "0x0000000000000000",
    "locale": {
      "CNzh": "这纸杯蛋糕……\n对你来说很重要吧？\n也请允许我给你准备一份回礼吧！",
      "EUde": "Tja, dann halt dich fest – ich habe\nauch etwas für dich!",
      "EUen": "Right back atcha. I got something\nfor you too!",
      "EUes": "¡Pues yo también tengo algo para ti!",
      "EUfr": "Attends deux secondes. Moi aussi,\nj'ai quelque chose pour toi !",
      "EUit": "Abbiamo avuto la stessa idea\ngeniale, ovviamente. Anch'io ho\nqualcosa per te!",
      "EUnl": "Daar verdien je wat voor terug. Ik\nheb namelijk ook iets voor jou!",
      "EUru": "А у меня для тебя тоже кое-что\nесть!",
      "JPja": "このカップケーキ・・・\nキミの　大切なものだろ？\nボクからも　ぜひ　プレゼントさせてくれ！",
      "KRko": "이 컵케이크...\n그대의 소중한 물건 아닌가?\n나도 그대에게 선물을 주고 싶군!",
      "TWzh": "這個杯子蛋糕……\n是你重視的東西沒錯吧？\n那麼請務必讓我送你回禮！",
      "USen": "Right back atcha. I got something\nfor you too!",
      "USes": "¡Pues yo también tengo algo para ti!",
      "USfr": "Attends deux secondes. Moi aussi,\nj'ai quelque chose pour toi!"
    }
  },
  {
    "label": "011",
    "attribute": "0x0000000000000000",
    "locale": {
      "CNzh": "很高兴能收到你准备的惊喜。\n其实，我也准备好了要给你的。\n请收下吧。。",
      "EUde": "Huch! Du verschenkst Sachen?\nDas ist ja mal typisch\n(Spitzname)!\nTja, dann sollte ich etwas tun, das\ntypisch (Einwohnername) ist...\nund dir auch etwas schenken!",
      "EUen": "Wow, you're giving stuff away?\nThat's classic (nickname)!\nWell, allow me to pull a classic\n(resident name)... I got something\nfor you too!",
      "EUes": "¿Estás repartiendo regalos?\n¡Eso es sin duda muy (nickname)!\nBueno, pues yo no voy a ser menos\n(resident name)... ¡y también\ntengo algo para ti!",
      "EUfr": "Tu distribues des cadeaux alors que\nc'est toi qui as pris un an de plus ?!\nDu (surnom) tout craché !\nDu coup, tu m'autoriseras à faire du\n(nom du résident) tout craché... J'ai quelque chose pour toi, moi aussi !",
      "EUit": "Ah, stai regalando tus cosas? Sei\nsempre il solito, (nickname)!\nBeh, allora io farò il solito (resident name)... Anch'io ho qualcosa para ti!",
      "EUnl": "Wauw, geef je zomaar cadeautjes\nweg? Dat is natuurlijk een typische\n(nickname)-actie!\nNou dat kan (resident name) natuurlijk ook... Kijk eens wat ik voor je heb!",
      "EUru": "Вот это да! Ты еще всем подарки\nдаришь! Очень в твоем стиле,\n(nickname)!\nА вот это в стиле (resident name)...\nУ меня тоже есть кое-что для тебя!",
      "JPja": "キミからのサプライズ　嬉しいよ\nでもね、実は　ボクも用意してたんだ\nどうか　受け取ってくれ、",
      "KRko": "그대의 서프라이즈 선물, 정말 기쁘군!\n하지만 사실은 나도 선물을 준비했어!\n부디 받아줬으면 해, !",
      "TWzh": "你的驚喜讓我感到很開心喔。\n不過……其實我也有準備禮物，\n請你收下它吧，。",
      "USen": "Wow, you're giving stuff away?\nThat's classic (nickname)!\nWell, allow me to pull a classic\n(resident name)... I got something\nfor you too!",
      "USes": "¿Estás repartiendo regalos?\n¡Eso es sin duda muy (nickname)!\nBueno, pues yo no voy a ser menos\n(resident name)...\n¡También tengo algo para ti!",
      "USfr": "Tu distribues des cadeaux alors que\nc'est toi qui as pris un an de plus?!\nDu (surnom) tout craché!\nDu coup, tu m'autoriseras à faire du\n(nom du résident) tout craché... J'ai quelque chose pour toi, moi aussi!"
    }
  },
  {
    "label": "012",
    "attribute": "0x0000000000000000",
    "locale": {
      "CNzh": "我也准备了礼物\n想要送给你……\n但你好像拿不下了呢。\n看来没法亲手送给你了，\n一会儿我给你寄过去吧。。",
      "EUde": "Ich möchte dir auch etwas schenken,\ndoch im Moment hast du wohl\nkeinen Platz dafür.\nIch schicke es dir einfach. Wenn es\nankommt, hast du den Grund längst\nvergessen und bist überrascht!",
      "EUen": "I wanna give you something too,\nbut it looks like you don't have\nany room right now.\nEh, I'll just mail it to you. By the\ntime you get it, you'll have forgotten\nabout this and it'll be a fun surprise!",
      "EUes": "Yo también quiero darte algo, pero\nparece que ahora no puedes llevar\nmás cosas.\nBueno, te lo enviaré por correo.\n¡Cuando te llegue, te habrás olvidado\ny será una sorpresa!",
      "EUfr": "Moi aussi, je veux t'offrir un petit\ncadeau, mais on dirait que tes\npoches sont pleines.\nBah, je te l'enverrai par la poste...\nLe temps qu'il arrive, t'auras oublié\net ça te fera une surprise !",
      "EUit": "Anche io vorrei darti una cosa,\nma a quanto pare non hai spazio in\nquesto momento.\nAllora te la manderò per posta. Così\nnel frattempo ti sarai scordato todo\ne sarà una vera sorpresa!",
      "EUnl": "Ik wil je iets teruggeven, maar het\nlijkt erop dat je niks meer kunt\nmeenemen.\nOké, dan stuur ik het je wel per post.\nAls het lang genoeg duurt, is het bij\naankomst opnieuw een verrassing!",
      "EUru": "Я тебе тоже хочу кое-что подарить,\nно, кажется, у тебя нет свободного\nместа.\nЛадно, отправлю по почте. Пока\nдойдет, ты уже забудешь, и будет\nтебе сюрприз!",
      "JPja": "ボクも　キミのために\nプレゼントを　贈りたいんだけど・・・\nもちものが　いっぱいのようだね\n手渡しじゃなくなるけど、\nあとで　郵送しておくよ、",
      "KRko": "나도 그대를 위해\n선물을 주고 싶은데...\n주머니가 가득 찬 모양이군\n직접 주지 못해서 아쉽지만\n나중에 우편으로 보낼게, !",
      "TWzh": "我也特別準備了禮物\n想送給你……\n但你好像拿不動了呢。\n雖然沒辦法親手送給你，\n但我還是晚點寄給你好了，。",
      "USen": "I wanna give you something too,\nbut it looks like you don't have\nany room right now.\nEh, I'll just mail it to you. By the\ntime you get it, you'll have forgotten\nabout this and it'll be a fun surprise!",
      "USes": "Yo también quiero darte algo, pero\nparece que ahora no puedes cargar\ncon más cosas.\nBueno, te lo enviaré por correo.\n¡Cuando te llegue, quizás ya no lo\nrecuerdes y será una sorpresa!",
      "USfr": "Moi aussi, je veux t'offrir un petit\ncadeau, mais on dirait que tes\npoches sont pleines.\nBah, je te l'enverrai par la poste...\nLe temps qu'il arrive, t'auras oublié\net ça te fera une surprise!"
    }
  },
  {
    "label": "013",
    "attribute": "0x0000000000000000",
    "locale": {
      "CNzh": "我也有礼物送给你……\n本来是这么想的，\n但看你好像拿不下了啊。\n礼物我一会儿给你寄过去吧。。",
      "EUde": "Tja, ich habe auch eine Kleinigkeit\nfür dich... Aber deine Tasche\nscheint voll zu sein.\nMein Geschenk ist wirklich schwer\nund reimt sich auf „Wühlschrank“.\nNur ein Witz. Ich schicke es dir zu.",
      "EUen": "I actually have a little something\nfor you too...but you don't have\nroom to carry it.\nIt's really heavy and it rhymes with\n\"befrigerator.\" Just kidding. I'll send\nit to you in the mail later.",
      "EUes": "Tengo también algo para ti... pero\nno te queda sitio para llevarlo.\nEs pesado y rima con «meganevera».\nEs broma. Te lo envío luego por\ncorreo.",
      "EUfr": "J'ai aussi un petit quelque chose\npour toi, mais tu n'as pas assez\nde place.\nC'est énorme, et son nom rime\navec « fermoir à glace ». Ha HA, je\nplaisante ! Je te l'enverrai plus tard.",
      "EUit": "A dire il vero avrei anche io una\ncosetta per te... ma non hai spazio\nper portarla.\nPesa un sacco e fa rima con\n\"permosifone\". Scherzo! Te la\nmanderò per posta.",
      "EUnl": "Eigenlijk heb ik ook iets voor jou...\nmaar dat kun je er nu niet meer bij\nhebben.\nHet is zwaar en rijmt op \"zoelkast\".\nGeintje. Ik stuur het je per post, dus\nje ziet het wel verschijnen.",
      "EUru": "У меня тоже для тебя кое-что есть...\nно, я смотрю, тебе некуда мой\nподарок положить.\nЭто что-то тяжелое, рифмуется со\nсловом «молодильник». Шучу!\nОтправлю тебе подарок по почте.",
      "JPja": "じゃあ、ボクからも　プレゼントを・・・\nって　思ったけど、\nもちものが　いっぱいみたいだね\nプレゼントは　あとで送っておくよ、",
      "KRko": "그럼 나도 선물을 주...려고 했는데\n주머니가 가득 찬 모양이네\n우편으로 보내둘게, !",
      "TWzh": "那我也要送你禮物……\n不過，\n你好像拿不動了呢。\n我等等再送去給你吧，。",
      "USen": "I actually have a little something\nfor you too...but you don't have\nroom to carry it.\nIt's really heavy and it rhymes with\n\"befrigerator.\" Just kidding. I'll send\nit to you in the mail later.",
      "USes": "Yo también tengo algo para ti... pero\nno te queda lugar para llevarlo.\nEs pesado y rima con \"megarmario\".\nEs un chiste. Luego te lo envío por\ncorreo.",
      "USfr": "J'ai aussi un petit quelque chose\npour toi, mais t'as pas assez\nde place.\nC'est énorme, et son nom rime\navec « fermoir à glace ». Ha HA, je\nplaisante! Je te l'enverrai plus tard."
    }
  },
  {
    "label": "014",
    "attribute": "0x0000000000000000",
    "locale": {
      "CNzh": "你这样吊人胃口，\n我也并不讨厌哦。。",
      "EUde": "Huch! Der alte Cupcake-Trick!\nUnd ich bin prompt drauf\nreingefallen, (Spitzname).",
      "EUen": "Whoa! The old cupcake switcheroo!\nYou got me, (nickname).",
      "EUes": "¡Hala! ¡El viejo truco del pastelito\ndenegado! Vale, (nickname),\nbuena jugada la tuya.",
      "EUfr": "Oh ! Le vieux coup du cupcake qui se\ndéfile quand on croit le déguster !\nBien joué, (surnom).",
      "EUit": "Uau! Il viejo trucco del cupcake!\nCi sono cascato, (nickname).",
      "EUnl": "Hé! De klassieke truc met de\nverdwenen cupcake! Daar had je me\nte pakken, (nickname).",
      "EUru": "Ого! Да ты у нас знаменитый\nкексопередумщик? Ты меня\nозадачил, (nickname).",
      "JPja": "そうやって　ジラされるのも\nボクは　キライじゃないよ、",
      "KRko": "그런 밀고 당기기도\n나쁘지 않지, ...",
      "TWzh": "我其實不討厭\n你這樣吊我胃口喔，。",
      "USen": "Whoa! The old cupcake switcheroo!\nYou got me, (nickname).",
      "USes": "¡Oh! ¡El viejo truco del pastelito que se esfuma! Vaya, (nickname),\nesta vez me engañaste.",
      "USfr": "Oh! Le vieux coup du cupcake qui se\ndéfile quand on croit le déguster!\nBien joué, (surnom)."
    }
  },
  {
    "label": "015",
    "attribute": "0x0000000000000000",
    "locale": {
      "CNzh": "啊，！\n祝你生日快乐！\n今天你可是主角呢！。",
      "EUde": "Hey! Herzlichen Glückwunsch zum\nGeburtstag! Kann man gar nicht oft\ngenug sagen – du bist heute der Star.",
      "EUen": "Yo! Happy birthday! Can't say it\nenough times because you're the\nstar of the day.",
      "EUes": "¡Feliz cumpleaños! No puede faltar\nmi felicitación, ¡porque hoy tú eres\nla estrella!",
      "EUfr": "Joyeux anniversaire ! Oui, on te l'a\ndéjà dit dix fois, mais il faut faire\navec ! C'est la dure vie des stars !",
      "EUit": "Hola! Buon compleanno! Non lo\nripeterò mai abbastanza, in fondo\nsei la star di oggi!",
      "EUnl": "Yo! Gefeliciteerd! Ik kan het niet\nvaak genoeg zeggen, want jij bent\nvandaag de ster!",
      "EUru": "Йо! С днем рождения! Могу целый\nдень это повторять, ведь сегодня\nты звезда!",
      "JPja": "あ、！\nハッピーバースデー！\n今日は　キミが　主人公だ！　",
      "KRko": "아, 군!\n해피 버스데이!\n오늘은 그대가 주인공이야! !",
      "TWzh": "啊，！\nHappy Birthday！\n你是今天的主角喔！。",
      "USen": "Yo! Happy birthday! Can't say it\nenough times because you're the\nstar of the day.",
      "USes": "¡Feliz cumpleaños! No puede faltar\nmi saludo, ¡porque hoy tú eres\nla estrella!",
      "USfr": "Bonne fête! Oui, on te l'a déjà dit\ndix fois, mais il faut faire avec!\nC'est la dure vie des stars!"
    }
  },
  {
    "label": "016",
    "attribute": "0x0000000000000000",
    "locale": {
      "CNzh": "可能你都已经听到厌烦了……\n祝你生日快乐！\n！。",
      "EUde": "Du kannst es wahrscheinlich schon\nnicht mehr hören, aber... Herzlichen\nGlückwunsch zum Geburtstag!",
      "EUen": "You may be sick of hearing this\ntoday, but... Happy birthday!",
      "EUes": "Quizá estés cansado de oírlo, pero...\n¡feliz cumpleaños!",
      "EUfr": "Tu dois en avoir par-dessus la\ncasquette d'entendre ça, mais...\nJoyeux anniversaire !",
      "EUit": "Non ne potrai più di sentirtelo dire,\nma... buon compleanno!",
      "EUnl": "Misschien heb je dit vandaag al\nduizend keer gehoord, maar...\nGefeliciteerd!",
      "EUru": "Тебе, наверное, уже надоело это\nслышать, и все же... С днем\nрождения!",
      "JPja": "もう　聞き飽きてるかも　しれないけど・・・\nハッピーバースデー！\n！　",
      "KRko": "다른 사람들에게도 많이 들었겠지만...\n해피 버스데이!\n군, !",
      "TWzh": "雖然你今天可能已經聽膩了……\nHappy Birthday！\n！。",
      "USen": "You may be sick of hearing this\ntoday, but... Happy birthday!",
      "USes": "Quizás estés cansado de oírlo, pero...\n¡feliz cumpleaños!",
      "USfr": "Tu dois en avoir par-dessus la\ncasquette d'entendre ça, mais...\nBonne fête!"
    }
  },
  {
    "label": "017",
    "attribute": "0x0000000000000000",
    "locale": {
      "CNzh": "啊，，\n祝你生日快乐！\n(resident name)满怀爱的祝福。。",
      "EUde": "„Herzlichen Glückwunsch zum\nGeburtstag“ kann man niemals oft\ngenug sagen. Ich zumindest nicht!",
      "EUen": "You can never say buon giorno\ntoo many times. That's Latin for\nhappy birthday!",
      "EUes": "Hoy corresponde que te diga\n«buongiorno». ¡Porque significa\n«feliz cumpleaños» en griego!",
      "EUfr": "On ne dit jamais trop « joyeux\nanniversaire ». En tout cas,\npas moi !",
      "EUit": "Oggi ti ripeterò mille volte\n\"Good morning!\" Significa \"buon\ncompleanno\" in latino!",
      "EUnl": "Je kunt nooit vaak genoeg buon\ngiorno zeggen. Dat is Latijn voor\nfijne verjaardag!",
      "EUru": "Бонжорно! Могу повторять это\nсколько угодно. Это значит «С днем\nрождения!»",
      "JPja": "あ、\nハッピーバースデー！\n(resident name)より　愛を込めて、",
      "KRko": "아, 군!\n해피 버스데이!\n(resident name)님의 진심이야, !",
      "TWzh": "啊，。\nHappy Birthday！\n這是來自(resident name)的愛喔，。",
      "USen": "You can never say buon giorno\ntoo many times. That's Latin for\nhappy birthday!",
      "USes": "Hoy corresponde que te diga\n\"bonchorno\". ¡Porque significa\n\"feliz cumpleaños\" en griego!",
      "USfr": "On ne dit jamais trop « bonne\nfête ». En tout cas, pas moi!"
    }
  },
  {
    "label": "018",
    "attribute": "0x0000000000000000",
    "locale": {
      "CNzh": "这不是……\n那时候的纸杯蛋糕吗？\n也要分给我吗……？\n你是个多么温柔的人啊！\n谢谢你。。",
      "EUde": "Moment mal... Gibst du mir etwa\neinen Cupcake von der Party?\nAlso geht die Feier wohl weiter,\n(Floskel)!",
      "EUen": "Wait...are you giving me a\ncupcake from the party?\nThat...technically makes this\nthe after party, doesn't it?",
      "EUes": "¡Anda!... ¿Me das ese pastelito?\nBueno... Esto implica que tu fiesta\nse prolonga, ¿no?",
      "EUfr": "Attends... c'est un cupcake de\nton anniversaire que tu m'offres ?\nAutrement dit... On est en pleine\nafter pour VIP, là !",
      "EUit": "Ma... vuoi darmi quel cupcake\ndella fiesta? Vuol dire... che siamo\ngià al dopo fiesta?",
      "EUnl": "Wauw! Krijg ik zo'n cupcake van je\nverjaardagsfeestje?\nDan is dit technisch gezien... de\nafterparty, of niet?",
      "EUru": "Стоп... ты меня угощаешь кексом\nс вечеринки?\nА это значит... что вечеринка\nпродолжается!",
      "JPja": "それは・・・あの時の\nカップケーキじゃないか？　\nボクにも　おすそわけを・・・？\nキミは　なんて　優しい人なんだ！\nありがとう、",
      "KRko": "이건... 생일 파티 때 컵케이크잖아?\n이걸 내게...?\n그대는 정말 다정한 사람이야!\n고마워, !",
      "TWzh": "這個……\n不是那時候的杯子蛋糕嗎？\n你要分給我……？\n你怎麼這麼好！\n謝謝你，。",
      "USen": "Wait...are you giving me a\ncupcake from the party?\nThat...technically makes this\nthe after party, doesn't it?",
      "USes": "¡Vaya!... ¿Me das ese pastelito?\nBueno... Esto implica que tu fiesta\nse prolonga, ¿no?",
      "USfr": "Attends... c'est un cupcake de\nta fête que tu m'offres?\nAutrement dit... On est en plein\nafter pour VIP, là!"
    }
  },
  {
    "label": "021",
    "attribute": "0x0000020000000000",
    "locale": {
      "CNzh": "啊，！\n昨天是你的生日对吧？\n抱歉有点迟了……\n祝你生日快乐！。",
      "EUde": "Herzlichen Glückwunsch zum\nGeburtstag nachträglich!\nIch wusste, dass du gestern\nGeburtstag hattest, aber erzwungene\nPünktlichkeit ist so spießig.",
      "EUen": "Happy belated birthday! I knew it\nwas your birthday yesterday, but\nI wanted to be fashionably late.",
      "EUes": "Con un poquito de retraso, ¡pero\nfeliz cumpleaños!\nSé que fue ayer, pero si te felicito\nhoy es mucho más «indie», ¿no te\nparece?",
      "EUfr": "Joyeux anniversaire en retard !\nJe sais que c'était hier, mais\nla ponctualité, c'est has-been.",
      "EUit": "Buon compleanno in ritardo!\nLo so che il tuo compleanno era\nieri, ma volevo farmi desiderare.",
      "EUnl": "Nog gefeliciteerd, hè! Ik wist wel dat\nje gister jarig was, maar het is veel\nunieker om het vandaag te zeggen.",
      "EUru": "С прошедшим днем рождения!\nЯ знаю, что он был вчера, просто\nхотел выдержать элегантную паузу.",
      "JPja": "あ、！\n昨日って　キミのバースデーだったよね？\n遅くなったけど・・・\nハッピーバースデー！　",
      "KRko": "아, 군!\n어제는 그대의 생일이었지?\n인사가 좀 늦었지만...\n해피 버스데이, !",
      "TWzh": "啊，！\n昨天是你的Birthday吧？\n雖然晚了點……\nHappy Birthday！。",
      "USen": "Happy belated birthday! I knew it\nwas your birthday yesterday, but\nI wanted to be fashionably late.",
      "USes": "Con un poquito de retraso, ¡pero\nfeliz cumpleaños!\nSé que fue ayer, pero si te felicito\nhoy es mucho más \"indie\", ¿no te\nparece?",
      "USfr": "Bonne chance en retard!\nJe sais que c'était hier, mais\nla ponctualité, c'est has-been."
    }
  },
  {
    "label": "021_a",
    "attribute": "0x0000000000000000",
    "locale": {
      "CNzh": "这个送给你！",
      "EUde": "Hier, für dich!",
      "EUen": "Hey, take this!",
      "EUes": "¡Toma, para ti!",
      "EUfr": "Tiens, c'est pour toi !",
      "EUit": "Ehi, questo è per te!",
      "EUnl": "Dit is voor jou!",
      "EUru": "Держи!",
      "JPja": "これあげる！",
      "KRko": "이거 줄게!",
      "TWzh": "這個給你！",
      "USen": "Hey, take this!",
      "USes": "¡Toma, para ti!",
      "USfr": "Tiens, c'est pour toi!"
    }
  },
  {
    "label": "021_b",
    "attribute": "0x0000000000000000",
    "locale": {
      "CNzh": "谢谢！",
      "EUde": "Danke!",
      "EUen": "Thanks!",
      "EUes": "¡Gracias!",
      "EUfr": "Merci !",
      "EUit": "Grazie!",
      "EUnl": "Bedankt!",
      "EUru": "Спасибо!",
      "JPja": "ありがとう！",
      "KRko": "고마워!",
      "TWzh": "謝謝你！",
      "USen": "Thanks!",
      "USes": "¡Gracias!",
      "USfr": "Merci!"
    }
  },
  {
    "label": "022",
    "attribute": "0x0000020000000000",
    "locale": {
      "CNzh": "啊，！\n虽然有点迟了，\n但想要传达的心情是不变的哦。。\n祝你生日快乐！\n！",
      "EUde": "Ich bin etwas spät dran mit\nGratulieren, aber das bedeutet\nnicht, dass ich es nicht ernst meine.\nAlso, ohne weitere Vorrede...\nEinen herzlichen Glückwunsch zum\nGeburtstag nachträglich!",
      "EUen": "I know I'm a bit late on wishing\nyou a happy birthday, but that\ndoesn't mean I mean it any less.\nSo, without further ado... I bid\nyou happy birthday!",
      "EUes": "Sé que vengo a felicitarte un poco\ntarde, pero lo hago de todo corazón.\nAsí que, sin más «sonámbulos»...\n¡feliz cumpleaños!",
      "EUfr": "Je sais que je suis un peu en retard\npour te souhaiter ton anniversaire,\nmais le cœur y est...\nPour la peine, je te souhaite un\ndouble anniversaire : le premier en\nretard, et l'autre très en avance !",
      "EUit": "Lo so che sono in ritardo per\ngli auguri di cumpleaños, ma non\nvuol dire che siano meno importanti.\nE allora andiamo dritti al sodo...\ntanti auguri!",
      "EUnl": "Ik weet dat ik een beetje laat ben\nmet mijn felicitaties, maar ik meen\nhet wel, hoor.\nDus, ben je er klaar voor?\nGefeliciteerd!",
      "EUru": "Хоть мои поздравления и немного\nзапоздалые, но от этого не менее\nискренние.\nИтак, без лишних церемоний...\nприми мои поздравления с днем\nрождения!",
      "JPja": "あ、！\n遅くなってしまったけど\n伝えたい気持ちは　同じだよ、\nハッピーバースデー！\n！",
      "KRko": "아, 군!\n인사가 좀 늦었지만\n마음만은 꼭 전하고 싶어, \n해피 버스데이!\n군!",
      "TWzh": "啊，！\n雖然晚了，\n但我想傳達的心意是一樣的喔，。\nHappy Birthday！\n！",
      "USen": "I know I'm a bit late on wishing\nyou a happy birthday, but that\ndoesn't mean I mean it any less.\nSo, without further ado... I bid\nyou happy birthday!",
      "USes": "Sé que vengo a felicitarte un poco\ntarde, pero lo hago de todo corazón.\nAsí que, sin más \"sonámbulos\"...\n¡feliz cumpleaños!",
      "USfr": "Je sais que je suis un peu en retard\npour te souhaiter bonne fête,\nmais le cœur y est...\nPour la peine, ce sera double\nbonne fête : une première fois en\nretard, et une autre très en avance!"
    }
  },
  {
    "label": "022_a",
    "attribute": "0x0000000000000000",
    "locale": {
      "CNzh": "这个送给你！",
      "EUde": "Hier, für dich!",
      "EUen": "Hey, take this!",
      "EUes": "¡Ten, para ti!",
      "EUfr": "Tiens, c'est pour toi !",
      "EUit": "Ehi, questo è per te!",
      "EUnl": "Dit is voor jou!",
      "EUru": "Держи!",
      "JPja": "これあげる！",
      "KRko": "이거 가져!",
      "TWzh": "這個給你！",
      "USen": "Hey, take this!",
      "USes": "¡Toma, para ti!",
      "USfr": "Tiens, c'est pour toi!"
    }
  },
  {
    "label": "022_b",
    "attribute": "0x0000000000000000",
    "locale": {
      "CNzh": "谢谢！",
      "EUde": "Danke!",
      "EUen": "Thanks!",
      "EUes": "¡Gracias!",
      "EUfr": "Merci !",
      "EUit": "Grazie!",
      "EUnl": "Bedankt!",
      "EUru": "Спасибо!",
      "JPja": "ありがとう！",
      "KRko": "고마워!",
      "TWzh": "謝謝你！",
      "USen": "Thanks!",
      "USes": "¡Gracias!",
      "USfr": "Merci!"
    }
  },
  {
    "label": "023",
    "attribute": "0x0000020000000000",
    "locale": {
      "CNzh": "那个，……\n现在应该还来得及吧？\n祝你生日快乐！。",
      "EUde": "Bin ich schon zu spät, um dir noch\neinen herzlichen Glückwunsch zum\nGeburtstag zu wünschen?\nEgal – ich tu's trotzdem. Herzlichen\nGlückwunsch zum Geburtstag!",
      "EUen": "Am I too late to wish you a happy\nbirthday? Don't care—doing it\nanyway. Happy birthday!",
      "EUes": "¿Llego demasiado tarde para\ndesearte un feliz cumpleaños?\nDa igual, lo haré de todos modos.\n¡Feliz cumpleaños!",
      "EUfr": "Il est déjà trop tard pour te souhaiter\nun joyeux anniversaire ? Bah, ça\nm'est égal. Joyeux anniversaire !",
      "EUit": "È troppo tardi per farti gli auguri?\nNon importa, te li faccio lo stesso.\nBuon compleanno!",
      "EUnl": "Ben ik te laat om je te feliciteren?\nAch, maakt mij niks uit, ik doe het\ngewoon toch. Gefeliciteerd!",
      "EUru": "Тебя уже поздно поздравлять\nс днем рождения? А я все равно\nпоздравлю. С днем рождения!",
      "JPja": "あの、・・・\n今なら　まだ間に合うかな？\nハッピーバースデー！　",
      "KRko": "저어, 군...\n아직 늦지 않았으려나?\n생일 축하해, !",
      "TWzh": "，那個……\n現在還來得及嗎？\nHappy Birthday！。",
      "USen": "Am I too late to wish you a happy\nbirthday? Don't care—doing it\nanyway. Happy birthday!",
      "USes": "¿Llego demasiado tarde para\ndesearte un feliz cumpleaños?\nDa igual, lo haré de todos modos.\n¡Feliz cumpleaños!",
      "USfr": "Il est déjà trop tard pour te souhaiter\nbonne fête? Bah, ça m'est égal.\nBonne fête!"
    }
  },
  {
    "label": "023_a",
    "attribute": "0x0000000000000000",
    "locale": {
      "CNzh": "这个送给你！",
      "EUde": "Hier, für dich!",
      "EUen": "Hey, take this!",
      "EUes": "¡Toma esto!",
      "EUfr": "Tiens, c'est pour toi !",
      "EUit": "Ehi, questo è per te!",
      "EUnl": "Dit is voor jou!",
      "EUru": "Держи!",
      "JPja": "これあげる！",
      "KRko": "이거 받아!",
      "TWzh": "這個給你！",
      "USen": "Hey, take this!",
      "USes": "¡Toma esto!",
      "USfr": "Tiens, c'est pour toi!"
    }
  },
  {
    "label": "023_b",
    "attribute": "0x0000000000000000",
    "locale": {
      "CNzh": "谢谢！",
      "EUde": "Danke!",
      "EUen": "Thanks!",
      "EUes": "¡Gracias!",
      "EUfr": "Merci !",
      "EUit": "Grazie!",
      "EUnl": "Bedankt!",
      "EUru": "Спасибо!",
      "JPja": "ありがとう！",
      "KRko": "고마워!",
      "TWzh": "謝謝你！",
      "USen": "Thanks!",
      "USes": "¡Gracias!",
      "USfr": "Merci!"
    }
  },
  {
    "label": "025",
    "attribute": "0x0000000000000000",
    "locale": {
      "CNzh": "啊，！\n昨天是你的生日对吧？\n抱歉有点迟了……\n祝你生日快乐！。",
      "EUde": "Herzlichen Glückwunsch zum\nGeburtstag nachträglich!\nIch wusste, dass du gestern\nGeburtstag hattest, aber erzwungene\nPünktlichkeit ist so spießig.",
      "EUen": "Happy belated birthday! I knew it\nwas your birthday yesterday, but\nI wanted to be fashionably late.",
      "EUes": "Con un poquito de retraso, ¡pero\nfeliz cumpleaños!\nSé que fue ayer, pero si te felicito\nhoy es mucho menos «mainstream»,\n¿no te parece?",
      "EUfr": "Joyeux anniversaire en retard !\nJe sais que c'était hier, mais\nla ponctualité, c'est has-been.",
      "EUit": "Buon compleanno in ritardo!\nLo so che il tuo compleanno era\nieri, ma volevo farmi desiderare.",
      "EUnl": "Nog gefeliciteerd, hè! Ik wist wel dat\nje gister jarig was, maar het is veel\nunieker om het vandaag te zeggen.",
      "EUru": "С прошедшим днем рождения!\nЯ знаю, что он был вчера, просто\nхотел выдержать элегантную паузу.",
      "JPja": "あ、！\n昨日って　キミのバースデーだったよね？\n遅くなったけど・・・\nハッピーバースデー！　",
      "KRko": "아, 군!\n어제는 그대의 생일이었지?\n인사가 늦어지고 말았지만...\n해피 버스데이, !",
      "TWzh": "啊，！\n昨天是你的Birthday吧？\n雖然晚了點……\nHappy Birthday！。",
      "USen": "Happy belated birthday! I knew it\nwas your birthday yesterday, but\nI wanted to be fashionably late.",
      "USes": "Con un poquito de retraso, ¡pero\nfeliz cumpleaños!\nSé que fue ayer, pero si te felicito\nhoy es mucho menos \"mainstream\",\n¿no te parece?",
      "USfr": "Bonne fête en retard!\nJe sais que c'était hier, mais\nla ponctualité, c'est has-been."
    }
  },
  {
    "label": "026",
    "attribute": "0x0000000000000000",
    "locale": {
      "CNzh": "啊，！\n虽然有点迟了，\n但想要传达的心情是不变的哦。。\n祝你生日快乐！\n！",
      "EUde": "Ich bin etwas spät dran mit\nGratulieren, aber das bedeutet\nnicht, dass ich es nicht ernst meine.\nAlso, ohne weitere Vorrede...\nEinen herzlichen Glückwunsch zum\nGeburtstag nachträglich!",
      "EUen": "I know I'm a bit late on wishing\nyou a happy birthday, but that\ndoesn't mean I mean it any less.\nSo, without further ado... I bid\nyou happy birthday!",
      "EUes": "Sé que vengo a felicitarte un poco\ntarde, pero lo hago de todo corazón.\nAsí que, sin más «dilatación»...\n¡feliz cumpleaños!",
      "EUfr": "Je sais que je suis un peu en retard\npour te souhaiter ton anniversaire,\nmais le cœur y est...\nPour la peine, je te souhaite un\ndouble anniversaire : le premier en\nretard, et l'autre très en avance !",
      "EUit": "Lo so che sono in ritardo per\ngli auguri di cumpleaños, ma non\nvuol dire che siano meno importanti.\nE allora andiamo dritti al sodo...\ntanti auguri!",
      "EUnl": "Ik weet dat ik een beetje laat ben\nmet mijn felicitaties, maar ik meen\nhet wel, hoor.\nDus, ben je er klaar voor?\nGefeliciteerd!",
      "EUru": "Хоть мои поздравления и немного\nзапоздалые, но от этого не менее\nискренние.\nИтак, без лишних церемоний...\nприми мои поздравления с днем\nрождения!",
      "JPja": "あ、！\n遅くなってしまったけど\n伝えたい気持ちは　同じだよ、\nハッピーバースデー！\n！",
      "KRko": "아, 군!\n늦어지고 말았지만\n마음만은 꼭 전하고 싶어, !\n해피 버스데이,\n군!",
      "TWzh": "啊，！\n雖然晚了，\n但我想傳達的心意是一樣的喔，。\nHappy Birthday！\n！",
      "USen": "I know I'm a bit late on wishing\nyou a happy birthday, but that\ndoesn't mean I mean it any less.\nSo, without further ado... I bid\nyou happy birthday!",
      "USes": "Sé que vengo a felicitarte un poco\ntarde, pero lo hago de todo corazón.\nAsí que, sin más \"dilatación\"...\n¡feliz cumpleaños!",
      "USfr": "Je sais que je suis un peu en retard\npour te souhaiter bonne fête,\nmais le cœur y est...\nPour la peine, ce sera double\nbonne fête : une première fois en\nretard, et une autre très en avance!"
    }
  },
  {
    "label": "027",
    "attribute": "0x0000000000000000",
    "locale": {
      "CNzh": "那个，……\n现在应该还来得及吧？。\n祝你生日快乐！\n！",
      "EUde": "Bin ich schon zu spät, um dir noch\neinen herzlichen Glückwunsch zum\nGeburtstag zu wünschen?\nEgal – ich tu's trotzdem.\nHerzlichen Glückwunsch zum\nGeburtstag!",
      "EUen": "Am I too late to wish you a happy\nbirthday? Don't care—doing it\nanyway. Happy birthday!",
      "EUes": "¿Llego demasiado tarde para\ndesearte un feliz cumpleaños?\nNo sé por qué pregunto, si lo haré\nde todos modos. ¡Feliz cumpleaños!",
      "EUfr": "Il est déjà trop tard pour te souhaiter\nun joyeux anniversaire ? Bah, ça\nm'est égal. Joyeux anniversaire !",
      "EUit": "È troppo tardi per farti gli auguri?\nNon importa, te li faccio lo stesso.\nBuon compleanno!",
      "EUnl": "Ben ik te laat om je te feliciteren?\nAch, maakt mij niks uit, ik doe het\ngewoon toch. Gefeliciteerd!",
      "EUru": "Тебя уже поздно поздравлять\nс днем рождения? А я все равно\nпоздравлю. С днем рождения!",
      "JPja": "あの、・・・\n今なら　まだ間に合うかな？　\nハッピーバースデー！\n！",
      "KRko": "저기, 군...\n아직 늦진 않았겠지? ?\n생일 축하해!\n군!",
      "TWzh": "，那個……\n現在還來得及嗎？。\nHappy Birthday！\n！",
      "USen": "Am I too late to wish you a happy\nbirthday? Don't care—doing it\nanyway. Happy birthday!",
      "USes": "¿Llego demasiado tarde para\ndesearte un feliz cumpleaños?\nNo sé por qué pregunto, si lo haré\nde todas formas. ¡Feliz cumpleaños!",
      "USfr": "Il est déjà trop tard pour te souhaiter\nbonne fête? Bah, ça m'est égal.\nBonne fête!"
    }
  }
]