﻿[
  {
    "label": "001",
    "attribute": "0x0000000000000000",
    "locale": {
      "CNzh": "打搅了！。",
      "EUde": "Danke für die Einladung, (Floskel)!",
      "EUen": "Thanks for having me, (catchphrase).",
      "EUes": "Muchas gracias por acogerme\nen tu casa, (catchphrase).",
      "EUfr": "Merci de m'accueillir chez toi, (expression).",
      "EUit": "Merci di avermi invitata,\n.",
      "EUnl": "Bedankt voor de uitnodiging, (catchphrase).",
      "EUru": "Спасибо за приглашение!\n!",
      "JPja": "おじゃましまーす！　",
      "KRko": "실례합니다, !",
      "TWzh": "打擾了～。",
      "USen": "Thanks for having me, (catchphrase).",
      "USes": "Muchas gracias por recibirme en\ntu casa, (catchphrase).",
      "USfr": "Merci de m'accueillir chez toi, (expression)."
    }
  },
  {
    "label": "002",
    "attribute": "0x0000000000000000",
    "locale": {
      "CNzh": "打搅啦！。",
      "EUde": "Das ist also deine gute Stube,\n(Floskel)!",
      "EUen": "Thanks for letting me visit you like\nthis, (catchphrase)!",
      "EUes": "¡Ya estamos aquí, (catchphrase)!",
      "EUfr": "Merci de me laisser visiter ta maison,\n(expression).",
      "EUit": "Merci per la gentile ospitalità,\n.",
      "EUnl": "Ik vind het leuk om hier te zijn, (catchphrase)!",
      "EUru": "Я очень рада, что ты пригласил\nменя в гости. .",
      "JPja": "失礼しま～す！　",
      "KRko": "초대해주셔서 감사합니다! !",
      "TWzh": "不好意思～！。",
      "USen": "Thanks for letting me visit you like\nthis, (catchphrase)!",
      "USes": "¡Ya estamos aquí, (catchphrase)!",
      "USfr": "Merci de me laisser visiter ta maison,\n(expression)."
    }
  },
  {
    "label": "003",
    "attribute": "0x0000000000000000",
    "locale": {
      "CNzh": "那我就进来了哦。。",
      "EUde": "Nett, dass du mich in deinen\nheiligen Hallen willkommen heißt,\n(Floskel)!",
      "EUen": "So nice of you to have me here,\n(catchphrase). Thanks!",
      "EUes": "¡Qué contenta estoy de poder\nvisitar tu casa, (catchphrase)!",
      "EUfr": "C'est vraiment gentil de me recevoir,\n(expression).",
      "EUit": "Sono così feliiice di poter visitare\nil tuo pied-à-terre. Merci, merci,\nmerci, .",
      "EUnl": "Wat is het fijn om hier te zijn, (catchphrase). Bedankt!",
      "EUru": "Это так мило с твоей стороны,\nчто ты меня пригласил.\n! Спасибо!",
      "JPja": "上がらせてもらいますね、",
      "KRko": "저, 들어갈게요! !",
      "TWzh": "那我就進來囉，。",
      "USen": "So nice of you to have me here,\n(catchphrase). Thanks!",
      "USes": "¡Qué contenta estoy de poder\nvisitar tu casa, (catchphrase)!",
      "USfr": "C'est vraiment gentil de me recevoir,\n(expression)."
    }
  },
  {
    "label": "004",
    "attribute": "0x0000000000000000",
    "locale": {
      "CNzh": "请问有人吗～\n我是(resident name)，\n我来玩啦～！。",
      "EUde": "Hallo-hooo!\nIch bin's, (Einwohnername)!\nDarf ich eintreten, (Floskel)?",
      "EUen": "Knock knock! It's (resident name)!\nI've come for a visit, (catchphrase)!",
      "EUes": "¡Hola, hola, (catchphrase)!\nSoy yo, (resident name).\nHabíamos quedado hoy.",
      "EUfr": "Toc-toc ! C'est moi, (nom du résident). Je voulais te rendre visite, (expression) !",
      "EUit": "Toc, toc, !\nC'est moi, (resident name). Sono venuta a farti visita!",
      "EUnl": "Hallooooo! Ik ben het, (resident name)! Mag ik binnenkomen, (catchphrase)?",
      "EUru": "Тук-тук! Это я, (resident name).\nЯ к тебе в гости пришла!\n!",
      "JPja": "ごめんくださ～い\n(resident name)です\n遊びに来ました～！　",
      "KRko": "똑똑～\n(resident name)이에요!\n놀러왔어요～! !",
      "TWzh": "有人在家嗎～\n我是(resident name)，\n我過來玩囉～！。",
      "USen": "Knock knock! It's (resident name)!\nI've come for a visit, (catchphrase)!",
      "USes": "¡Hola, hola, (catchphrase)! Soy yo, (resident name). Vengo de visita.",
      "USfr": "Toc-toc! C'est moi, (nom du résident). Je voulais te rendre visite, (expression)!"
    }
  },
  {
    "label": "005",
    "attribute": "0x0000000000000000",
    "locale": {
      "CNzh": "请问～在家吗？\n我是(resident name)！。",
      "EUde": "Hallo? (Spitzname)?\nIch bin's, (Einwohnername)!\n(Floskel)!",
      "EUen": "Hello? It's me, (resident name).",
      "EUes": "¡Hola! Soy (resident name).\n¿Hay alguien en casa?",
      "EUfr": "(surnom), tu es là ?\nC'est moi, (nom du résident).",
      "EUit": "Ci sei, (nickname)? C'est moi, (resident name).",
      "EUnl": "Hallo? (nickname)? Ik ben het, (resident name).",
      "EUru": "Ау! (nickname)!\nЭто я, (resident name).",
      "JPja": "あのー　\n(resident name)ですー！　",
      "KRko": "저기... 님～\n(resident name)이에요, !",
      "TWzh": "請問～在家嗎？\n我是(resident name)～。",
      "USen": "Hello? It's me, (resident name).",
      "USes": "¡Hola! Soy (resident name).\n¿Hay alguien en casa?",
      "USfr": "(surnom), tu es là?\nC'est moi, (nom du résident)."
    }
  },
  {
    "label": "006",
    "attribute": "0x0000000000000000",
    "locale": {
      "CNzh": "，\n我是(resident name)！。",
      "EUde": "(Spitzname)? Hier ist\n(Einwohnername), (Floskel).",
      "EUen": "You at home, (nickname)?\nIt's your friend (resident name).",
      "EUes": "¡Hola, (nickname)!\nSoy (resident name).",
      "EUfr": "(surnom) ? C'est (nom du résident), .",
      "EUit": "Salut, (nickname)! C'est moi, (resident name), .",
      "EUnl": "(nickname)? Hier is (resident name), (catchphrase).",
      "EUru": "(nickname)! Это я пришла,\n(resident name). (catchphrase)!",
      "JPja": "、\n(resident name)ですー！　",
      "KRko": "(nickname)님,\n(resident name) 왔어요～ !",
      "TWzh": "，\n我是(resident name)～。",
      "USen": "You at home, (nickname)?\nIt's your friend (resident name).",
      "USes": "¡Hola, (nickname)!\nSoy (resident name).",
      "USfr": "(surnom)? C'est moi, (nom du résident)."
    }
  },
  {
    "label": "007",
    "attribute": "0x0000000000000000",
    "locale": {
      "CNzh": "不好意思～，\n如果你在家的话，\n麻烦到玄关来一下哦～！。",
      "EUde": "Hallo-ho, (Spitzname)!\nWenn du da bist, lass mich\nbitte rein, (Floskel)!",
      "EUen": "Do you hear me, (nickname)?\nIf you're home, can you come to the\ndoor, please?",
      "EUes": "¿Estás ahí, (nickname)?\n¿Me oyes? Si estás en casa, porfa,\n¿podrías acercarte a la puerta?",
      "EUfr": "(surnom), tu m'entends ?\nSi tu es chez toi, est-ce que tu peux\nvenir ouvrir la porte, (expression) ?",
      "EUit": "Ci sei, (nickname)? Riesci a sentirmi?\nSe sei lì nel tuo pied-à-terre,\npotresti aprirmi la porta?",
      "EUnl": "(nickname)? Hoor je me?\nAls je thuis bent, kun je dan\nde deur openmaken?",
      "EUru": "(nickname)!\nТы меня слышишь?\nЕсли ты дома, пожалуйста,\nоткрой дверь!",
      "JPja": "すみませ～ん、\nいらっしゃったら\n玄関まで　お願いしま～す！　",
      "KRko": "저기요～ 님!\n계시면 현관으로\n나와주세요～! !",
      "TWzh": "不好意思～！\n如果你在家的話，\n可以請你到玄關這邊來嗎～！。",
      "USen": "Do you hear me, (nickname)?\nIf you're home, can you come to the\ndoor, please?",
      "USes": "¿Estás ahí, (nickname)?\n¿Me oyes? Si estás en casa,\n¿podrías acercarte a la puerta?",
      "USfr": "(surnom), tu m'entends?\nSi tu es chez toi, est-ce que tu peux\nvenir ouvrir la porte, (expression)?"
    }
  },
  {
    "label": "008",
    "attribute": "0x0000000000000000",
    "locale": {
      "CNzh": "！\n你在家吗～？。",
      "EUde": "Bist du überhaupt zu Hause,\n(Floskel)?",
      "EUen": "Are you even in there, (catchphrase)?",
      "EUes": "¿Hola? ¿Hay alguien?",
      "EUfr": "(surnom), est-ce que tu es chez toi,  ?",
      "EUit": "Ci sei o no, ?",
      "EUnl": "(nickname)? Ben je thuis, (catchphrase)?",
      "EUru": "Ты дома? (catchphrase)?",
      "JPja": "！\nいらっしゃいますかー？　",
      "KRko": "(nickname)님!\n계세요? ?",
      "TWzh": "！\n你在家嗎～～？。",
      "USen": "Are you even in there, (catchphrase)?",
      "USes": "¿Hola? ¿Hay alguien?",
      "USfr": "(surnom), est-ce que tu es chez toi?"
    }
  },
  {
    "label": "009",
    "attribute": "0x0000000000000000",
    "locale": {
      "CNzh": "……哎呀，不在家吗？。",
      "EUde": "...Nanu, (Floskel)?\nNiemand zu Hause?",
      "EUen": "Huh. Could it be no one's home?",
      "EUes": "Puede que haya salido...",
      "EUfr": "(expression)... Est-ce qu'il serait\nsorti ?",
      "EUit": "Forse è uscito...",
      "EUnl": "Misschien is hij niet thuis?",
      "EUru": "Может, он куда-нибудь ушел?",
      "JPja": "・・・あら、お留守かしら？　",
      "KRko": "...어머, 안 계시나? ?",
      "TWzh": "哎呀……是不是不在家呢？。",
      "USen": "Huh. Could it be no one's home?",
      "USes": "Puede que haya salido...",
      "USfr": "(expression)... Est-ce qu'il serait\nsorti?"
    }
  },
  {
    "label": "010",
    "attribute": "0x0000000000000000",
    "locale": {
      "CNzh": "？\n看来好像不在家呢，\n那我就先回去了哦～？。",
      "EUde": "(Spitzname) scheint wohl nicht da zu sein. Dann gehe ich am besten wieder...",
      "EUen": "Doesn't seem like (nickname)\nis home. Guess I'll be on my way.",
      "EUes": "¿(nickname)? Me parece que no estás en casa, así que me rindo.",
      "EUfr": "Euh... (surnom) ? Bon, tu n'as pas l'air d'être chez toi. Je\nn'insiste pas, .",
      "EUit": "Sembra che (nickname) non sia in casa... Bien, sarà per un'altra volta.",
      "EUnl": "Hallo? (nickname)? Het lijkt er niet op dat je thuis bent, dus dan ga ik maar weer, (catchphrase).",
      "EUru": "Очевидно, (nickname) не\nдома. Ладно, пойду...",
      "JPja": "？\nお留守の　ようなので\n今日は　帰らせてもらいますねー？　",
      "KRko": "(nickname)님?\n댁에 안 계신 것 같아서\n오늘은 이만 돌아갈게요! !",
      "TWzh": "？\n看來不在家呢，\n那今天我就先回去囉～～？。",
      "USen": "Doesn't seem like (nickname)\nis home. Guess I'll be on my way.",
      "USes": "¿(nickname)? Ni hablar, será mejor que me vaya.",
      "USfr": "Euh... (surnom)? Bon, tu n'as pas l'air d'être chez toi. Je\nn'insiste pas, ."
    }
  },
  {
    "label": "011",
    "attribute": "0x0000000000000000",
    "locale": {
      "CNzh": "早上好！\n因为我实在是等不及了，\n一早就过来啦！。",
      "EUde": "Guten Morgen! Ich konnte es nicht\nerwarten, deshalb bin ich jetzt schon\ngekommen, (Floskel)!",
      "EUen": "It's a beautiful morning, isn't it?\nI couldn't wait another minute, so I\nthought I'd come over early.",
      "EUes": "¡Buenos días, (nickname)!\nTenía tantas ganas de verte que\nhe venido a primera hora.",
      "EUfr": "Belle matinée, n'est-ce pas ? Je sais\nqu'il est tôt, mais je n'en pouvais\nplus d'attendre,  !",
      "EUit": "Bonjour, (nickname)! Non riuscivo più ad aspettare, allora ho deciso di venire presto!",
      "EUnl": "Goeiemorgen, (nickname)! Ik kon geen minuut meer wachten, dus ik ben al vroeg gekomen.",
      "EUru": "Доброе утро! Я просто не могла\nбольше терпеть и решила\nзаглянуть в гости!",
      "JPja": "おはようございます！\n待ちきれなくって\n朝から　来ちゃいました！　",
      "KRko": "안녕하세요!\n마음이 급해서\n아침 일찍 와버렸어요! !",
      "TWzh": "早安！\n因為我實在是等不及了，\n所以一大早就跑來找你了！。",
      "USen": "It's a beautiful morning, isn't it?\nI couldn't wait another minute, so I\nthought I'd come over early.",
      "USes": "¡Hoy es un hermoso día! Tenía tantas\nganas de verte que vine tempranito.",
      "USfr": "Belle matinée, n'est-ce pas? Je sais\nqu'il est tôt, mais je n'en pouvais\nplus d'attendre, !"
    }
  },
  {
    "label": "012",
    "attribute": "0x0000000000000000",
    "locale": {
      "CNzh": "打搅啦～！\n我按照约定来玩了哦～。",
      "EUde": "Hallo, (Floskel)!\nDa bin ich, wie verabredet!",
      "EUen": "Thanks for having me over! I was\neager to take you up on your kind\ninvitation, (catchphrase).",
      "EUes": "¡Aquí estoy, como quedamos!\nSiempre me lo paso fenomenal\ncontigo, no me lo perdería por nada.",
      "EUfr": "Merci de me recevoir ! J'étais\nimpatiente de répondre à ton\ninvitation, .",
      "EUit": "Merci di avermi invitato! Come\npromesso, sono venuta a trovarti,\n.",
      "EUnl": "Hallo! Hier ben ik dan, zoals\nafgesproken, (catchphrase).",
      "EUru": "Спасибо за приглашение!  Я пришла, как договаривались.\n!",
      "JPja": "おじゃましま～す！\nお約束どおり　遊びに来ましたよ～、",
      "KRko": "들어갈게요～!\n약속한 대로 놀러왔어요～ !",
      "TWzh": "打擾了～！\n我依照約定來找你玩囉～。",
      "USen": "Thanks for having me over! I was\neager to take you up on your kind\ninvitation, (catchphrase).",
      "USes": "¡Aquí estoy, como quedamos!\nTengo el presentimiento de que\nla pasaremos genial.",
      "USfr": "Merci de me recevoir! J'étais\nimpatiente de répondre à ton\ninvitation, ."
    }
  },
  {
    "label": "013",
    "attribute": "0x0000000000000000",
    "locale": {
      "CNzh": "晚上好，！\n这么晚才来真是不好意思，\n稍微打搅你一下哦。。",
      "EUde": "Guten Abend, (Spitzname)!\nTut mir leid, dass ich so spät dran\nbin, (Floskel).",
      "EUen": "Thanks for the invite, (catchphrase).\nIt's fun to stay out late every once\nin a while.",
      "EUes": "¿Qué tal, bichín? Perdona que haya\nvenido a estas horas, pero mejor\ntarde que nunca, (catchphrase).",
      "EUfr": "Merci pour l'invitation, (expression).\nJ'aime bien veiller tard, de temps\nen temps.",
      "EUit": "Bonsoir, (nickname)! Mi dispiace essere passata a quest'ora, \nperò meglio tardi che mai, no?",
      "EUnl": "Hallo, (nickname)! Sorry, het is wat laat...\nMaar bedankt dat ik mocht komen, (catchphrase).",
      "EUru": "Спасибо за приглашение! Иногда\nнадо выбираться в люди!\n(catchphrase)!",
      "JPja": "こんばんは　、\n夜分遅くに　すみません\nおじゃましますね、",
      "KRko": "안녕하세요, 님!\n늦은 밤에 와서 죄송해요!\n들어갈게요, !",
      "TWzh": "晚安，。\n這麼晚來打擾你，\n真是抱歉，。",
      "USen": "Thanks for the invite, (catchphrase).\nIt's fun to stay out late every once\nin a while.",
      "USes": "¿Qué tal, calabacita? Perdón que\nvenga a estas horas, pero más vale\ntarde que nunca, (catchphrase).",
      "USfr": "Merci pour l'invitation, (expression).\nJ'aime bien veiller tard, de temps\nen temps."
    }
  },
  {
    "label": "014",
    "attribute": "0x0000000000000000",
    "locale": {
      "CNzh": "晚上好，。\n谢谢你这种时间\n还让我进来。。",
      "EUde": "Guten Abend, (Spitzname)!\nOder vielleicht eher schon\n„Guten Morgen“, (Floskel)...",
      "EUen": "Hey, (nickname)! Thanks for\nhaving me over this evening.\nOr should I say...\"morning\"? I'm so\nmuch funnier at night, (catchphrase).",
      "EUes": "¡Hola! ¿Qué tal tu día? Aunque\ntécnicamente ya está empezando\nuno nuevo...\nBueno, aquí estoy, lista para\npasárnoslo bomba, (catchphrase).",
      "EUfr": "Ah, (surnom)...\nmerci de m'accueillir cette nuit. Ou\nest-ce déjà le matin, (expression) ?",
      "EUit": "Salut, (nickname)! Come procede la notte? O forse dovrei dire la mattina?\nMerci di avermi fatto entrare\nnonostante sia ormai così tardi,\n...",
      "EUnl": "Hoi, (nickname)! Hoe is je nacht? Of kan ik beter ⁠ochtend⁠ zeggen, (catchphrase)?\nBedankt dat ik nog zo laat langs\nmag komen...",
      "EUru": "Привет, (nickname)!\nСпасибо, что решил провести\nсо мной вечер.\nИли сейчас... утро? Вечер мне\nбольше по душе. (catchphrase)!",
      "JPja": "こんばんは　、\nこんな時間なのに　お部屋に入れてくださって\nありがとうございます、",
      "KRko": "안녕하세요, 님!\n이 시간에 댁 안에 들여주셔서\n감사합니다! !",
      "TWzh": "，晚安。\n非常感謝你\n這麼晚了還讓我進來，。",
      "USen": "Hey, (nickname)! Thanks for\nhaving me over this evening.\nOr should I say...\"morning\"? I'm so\nmuch funnier at night, (catchphrase).",
      "USes": "¡Hola! ¿Qué tal va tu noche? \nO debería decir, mañana... pues\ntécnicamente ya es un nuevo día.\nGracias por recibirme, (catchphrase).",
      "USfr": "Ah, (surnom)...\nmerci de m'accueillir cette nuit. Ou\nest-ce déjà le matin, (expression)?"
    }
  },
  {
    "label": "015",
    "attribute": "0x0000000000000000",
    "locale": {
      "CNzh": "打扰啦……\n哎呀呀呀！！蟑螂～！\n抱歉……你诚意邀请我来，\n但现在我觉得自己没办法\n静下心来和你聊天……\n今天我就先回去了，\n非常感谢你的邀请！。",
      "EUde": "Vielen Dank für die Einladung...\nIIIIIIEEEK! KAKERLAKE!\nOh weh... Es tut mir leid, das nach\ndieser freundlichen Einladung sagen\nzu müssen. Aber ich kann nicht...\nEs tut mir sehr leid, aber vielleicht\nklappt es ein andermal. Ich muss\neinfach... gehen. Bis später, ja?",
      "EUen": "Thanks for having me over to your...\nEEEEEEP! COCKROACH!\nOh my... I feel awful saying this,\nsince you were so kind as to invite\nme into your home, but...I can't.\nI'm so sorry, but let's try this again\nanother time. I just... I need to go\nnow. We'll chat later, OK?",
      "EUes": "Gracias por recibirme en tu hogar\ny... Pero, calabacín, ¡que tienes\ncucarachinas en casa!\nYo respeto a todos los seres vivos...\npero como se me cuele una en la\nropa, ¡luego tendré plaga en casa!\nSiento tener que marcharme\ndespués de tan amable invitación.\nNo me lo tengas en cuenta, ¿vale?",
      "EUfr": "Merci de m'accueillir dans ta\ncharmante demeu...\nHIIIIIII ! UN CAFARD !\nOh... Je suis navrée... Tu as eu la\ngentillesse de m'inviter, mais là... je\nne peux pas.\nPardon encore, mais on va devoir\nreporter. Je... Je dois y aller. Tout de\nsuite. On se voit plus tard ?",
      "EUit": "Merci di avermi invitata nel tu-\nAAAAHHH! UNO SCARAFAGGIO!\nCapperini... Sono désolée di dire\nuna cosa simile dopo il tuo gentile\ninvito, mais... non posso stare qui.\nScusami, magari facciamo un'altra\nvolta, oui? Io, ecco... devo andare\nadesso. À plus tard.",
      "EUnl": "Wat gezellig om even langs te\nkomen... IEEEEEP! EEN KAKKERLAK!\nO, jee... Het spijt me zeer, zeker\nomdat je zo lief was om me uit te\nnodigen, maar... ik kan dit niet.\nLaten we dit een andere keer\nopnieuw proberen. Nu moet ik...\ngewoon gaan. Tot later, oké?",
      "EUru": "Спасибо, что пригласил меня в...\nИ-и-и-и-и-и!!! Тарака-а-ан!!\nОх... Мне так стыдно это говорить,\nты ведь меня пригласил, но...\nя не могу зайти.\nПрости, давай попробуем в другой\nраз. Я просто... Мне пора. Потом\nпоболтаем, ладно?",
      "JPja": "失礼しま～す・・・\nキャァァァ！！　ゴキブリが～！\nすみません・・・　お招きいただいたのに\nわたし、落ち着いて　おしゃべり\nできそうにありません・・・\n今日のところは　おいとましますね\nほんとうに　ごめんなさい！　",
      "KRko": "실례합니다～...\n꺄아아악!! 바퀴벌레다～!\n죄송해요... 모처럼 초대해주셨지만\n제가 침착하게 이야기를\n나눌 수 있을 것 같지 않아요...\n오늘은 이만 돌아갈게요\n정말 죄송해요! !",
      "TWzh": "打擾了……\n呀啊啊啊！！有蟑螂～！\n抱歉……難得你招待我來玩，\n不過我現在實在沒辦法\n冷靜下來聊天……\n真的很抱歉，\n今天我就先告辭了！。",
      "USen": "Thanks for having me over to your...\nEEEEEEP! COCKROACH!\nOh my... I feel awful saying this,\nsince you were so kind as to invite\nme into your home, but...I can't.\nI'm so sorry, but let's try this again\nanother time. I just... I need to go\nnow. We'll chat later, OK?",
      "USes": "Gracias por recibirme en tu hogar...\nUy, cucarachita. Digo... lechuguita...\n¡tienes cucarachitas en tu casa!\nYo respeto a todos los seres vivos...\npero no me gustaría que se me\ntrepara una a la ropa.\n¡No quisiera tener una plaga en casa!\nLo lamento mucho, pero mejor luego\nnos vemos, ¿sí? No me lo tomes\na mal, porfa.",
      "USfr": "Merci de m'accueillir dans ta\ncharmante demeu...\nHIIIIIII! UN CAFARD!\nOh... Je suis navrée... Tu as eu la\ngentillesse de m'inviter, mais là... je\nne peux pas.\nPardon encore, mais on va devoir\nreporter. Je... Je dois y aller. Tout de\nsuite. On se voit plus tard?"
    }
  },
  {
    "label": "100",
    "attribute": "0x0000000000000000",
    "locale": {
      "CNzh": "啊，对了对了。\n虽然不是什么大不了的东西，\n不嫌弃的话，就请你收下这个吧。",
      "EUde": "Ach ja, bevor ich's vergesse...\nIch habe dir hier was Kleines\nmitgebracht.",
      "EUen": "Oh, before I forget... This isn't much,\nbut I brought you a gift.",
      "EUes": "Ah, antes de que se me olvide.\nTe he traído una tontería para\nagradecerte tu hospitalidad.",
      "EUfr": "Ah, j'ai failli oublier...\nJe ne suis pas venue les mains vides,\nmême si ce n'est rien de fou.",
      "EUit": "Oh, prima che mi dimentichi... Ho\nqui un pensierino per ringraziarti\ndella tua ospitalità.",
      "EUnl": "O, voor ik het vergeet... Het stelt\nniet veel voor, maar ik heb een\ncadeau voor je meegebracht.",
      "EUru": "Ой, чуть не забыла...\nЯ тебе принесла маленький\nподарок.",
      "JPja": "あ、そうそう\n手土産と言っては　なんですが\nこれ、よかったら　どうぞ",
      "KRko": "아, 이거요!\n선물이라고 하기에는 뭐하지만\n받아주시겠어요?",
      "TWzh": "啊，對了對了。\n這是一點小小的伴手禮，\n如果不嫌棄的話，就請你收下吧。",
      "USen": "Oh, before I forget... This isn't much,\nbut I brought you a gift.",
      "USes": "Ah, antes de que se me olvide.\nTe traje un detalle muy pequeño\npara agradecerte tu hospitalidad.",
      "USfr": "Ah, j'ai failli oublier...\nJe ne suis pas venue les mains vides,\nmême si ce n'est rien de fou."
    }
  },
  {
    "label": "101",
    "attribute": "0x0000000000000000",
    "locale": {
      "CNzh": "我带来了一点小礼物，\n不嫌弃的话就请收下吧。",
      "EUde": "Hier, ein kleines Gastgeschenk\nfür dich!",
      "EUen": "I have a little gift for you. I'm really\nhoping that you'll like it.",
      "EUes": "Por cierto, he traído un regalo\npara el anfitrión, o sea, ¡para ti!",
      "EUfr": "J'ai un petit cadeau pour toi.\nJ'espère qu'il te fera plaisir.",
      "EUit": "Ho qui un regalino per te. Spero che\nti farà piacere!",
      "EUnl": "Ik heb een cadeautje voor je. Ik hoop\nheel erg dat je het leuk vindt.",
      "EUru": "У меня для тебя подарок.\nНадеюсь, он тебе понравится.",
      "JPja": "手土産を　持ってきましたので\nよかったら　どうぞ",
      "KRko": "작은 선물을 준비했으니까\n받아주세요!",
      "TWzh": "我帶了伴手禮來，\n如果不嫌棄的話，就請你收下吧。",
      "USen": "I have a little gift for you. I'm really\nhoping that you'll like it.",
      "USes": "Por cierto, traje un regalo para\nel anfitrión, o sea, ¡para ti!",
      "USfr": "J'ai un petit cadeau pour toi.\nJ'espère qu'il te fera plaisir."
    }
  },
  {
    "label": "102",
    "attribute": "0x0000000000000000",
    "locale": {
      "CNzh": "不嫌弃的话，请你收下这个。",
      "EUde": "Darf ich dir ein kleines Mitbringsel\nüberreichen?",
      "EUen": "This isn't much, but I hope you'll\naccept this gift.",
      "EUes": "Oh, he pensado que sería un buen\ndetalle traerte una cosilla.",
      "EUfr": "Tiens, un petit quelque chose pour\ntoi. Rien de grandiose, mais j'espère\nquand même que ça te plaira...",
      "EUit": "Non è niente di eccezionale, ma ecco\nun pensierino per te... Spero che ti\npiaccia.",
      "EUnl": "Ik heb een kleinigheidje voor je\nmeegenomen.",
      "EUru": "Это, конечно, мелочь, но надеюсь,\nчто тебе будет приятно.",
      "JPja": "よかったら　これ、もらってください",
      "KRko": "이거, 드릴게요!",
      "TWzh": "如果不嫌棄的話，就請你收下這個吧。",
      "USen": "This isn't much, but I hope you'll\naccept this gift.",
      "USes": "Oh, pensé que sería un buen\ndetalle traerte una cosita.",
      "USfr": "Tiens, un petit quelque chose pour\ntoi. Rien de grandiose, mais j'espère\nquand même que ça te plaira..."
    }
  },
  {
    "label": "103",
    "attribute": "0x0000000000000000",
    "locale": {
      "CNzh": "这是，\n我觉得你\n应该会喜欢这种东西……。",
      "EUde": ".\nIch dachte mir, so was könnte dir\ngefallen, (Floskel)...",
      "EUen": ".\nIt seemed like something that you\nmight like, (catchphrase)...",
      "EUes": "Es .\nPensé que te gustaría, (catchphrase)...",
      "EUfr": ". J'ai pensé que tu aimerais,\n(expression)...",
      "EUit": "È . Ho pensato che ti avrebbe fatto plaisir, ...",
      "EUnl": ". Dat leek me echt iets voor jou, (catchphrase)...",
      "EUru": ".\nЯ подумала, что тебе это\nпонравится... ...",
      "JPja": "です\n　こういうの\nお好きかなと思って・・・、",
      "KRko": "이랍니다!\n님은 이런 걸\n좋아하실 것 같아서요, !",
      "TWzh": "這是，\n，\n我想說你應該會喜歡這類型的東西……。",
      "USen": ".\nIt seemed like something that you\nmight like, (catchphrase)...",
      "USes": "Es .\nEspero que te guste...",
      "USfr": ". J'ai pensé que tu aimerais,\n(expression)..."
    }
  },
  {
    "label": "104",
    "attribute": "0x0000000000000000",
    "locale": {
      "CNzh": "这是。\n请不要客气，\n收下它吧。。",
      "EUde": "Hoffentlich ist das was für dich...\n, (Floskel)!",
      "EUen": "Picked just for you, (catchphrase).\n!",
      "EUes": "Es .\nL he elegido especialmente para ti, (catchphrase).",
      "EUfr": ". J'ai choisi ça spécialement pour toi,\n(expression)...",
      "EUit": "Ho scelto questo regalino per te...\nÈ , .",
      "EUnl": "Ik heb iets voor je uitgezocht, (catchphrase)... .",
      "EUru": "Это .\nНадеюсь, тебе понравится.\n.",
      "JPja": "です\nエンリョなく\n受け取ってくださいね、",
      "KRko": "이에요～\n사양하지 마시고 받아주세요! !",
      "TWzh": "這是，\n請你別客氣，儘管收下吧，。",
      "USen": "Picked just for you, (catchphrase).\n!",
      "USes": "Es .\nL elegí especialmente para ti.",
      "USfr": ". J'ai choisi ça spécialement pour toi,\n(expression)..."
    }
  },
  {
    "label": "105",
    "attribute": "0x0000000000000000",
    "locale": {
      "CNzh": "这是，\n请你收下吧。。",
      "EUde": "...\nNur, um mich für deine nette\nEinladung erkenntlich zu zeigen!",
      "EUen": "...\nJust a little something to say thanks\nfor having me over, (catchphrase).",
      "EUes": "Es .\nNo es gran cosa, pero espero\nque te sea útil, (catchphrase).",
      "EUfr": "... C'est juste ma manière de te remercier de ton invitation.",
      "EUit": "È . Una petite cosina per ringraziarti dell'invito, .",
      "EUnl": "... Een kleinigheidje om je te bedanken voor je gastvrijheid, (catchphrase).",
      "EUru": "...\nВ знак благодарности за твое\nгостеприимство. .",
      "JPja": "です\nどうぞ　お受け取りください、",
      "KRko": "이에요!\n받아주세요! !",
      "TWzh": "這是，\n就請你收下吧，。",
      "USen": "...\nJust a little something to say thanks\nfor having me over, (catchphrase).",
      "USes": "Es .\nNo es la gran cosa, pero espero\nque te sea útil, (catchphrase).",
      "USfr": "... C'est juste ma manière de te remercier de ton invitation."
    }
  },
  {
    "label": "200",
    "attribute": "0x0000020000000000",
    "locale": {
      "CNzh": "，\n机会难得，\n要不要玩点游戏呀？。",
      "EUde": "Sag mal, (Spitzname)... Wo ich schon mal hier bin, wollen wir ein kleines Spielchen spielen?",
      "EUen": "I think it might be fun if we played a\ngame together, (catchphrase). What\ndo you think?",
      "EUes": "Oye, flor, ¿qué tal si jugamos\na un juego, (catchphrase)?",
      "EUfr": "Ça serait rigolo si on jouait à un jeu,\ntoi et moi. Qu'est-ce que tu en dis,\n ?",
      "EUit": "Dimmi, ti andrebbe di giocare a\nqualcosa insieme, ?",
      "EUnl": "Ik denk dat het leuk zou zijn om een spelletje te spelen, (catchphrase). Wat denk jij?",
      "EUru": "Может, сыграем в какую-нибудь\nвеселую игру? Как думаешь?\n(catchphrase)!",
      "JPja": "、\nせっかくなので\nゲームでもして　遊びませんか？　",
      "KRko": "님,\n모처럼 왔으니까\n게임이라도 하면서 놀까요? ?",
      "TWzh": "，\n我難得有機會來你家，\n要不要一起玩點遊戲呢？。",
      "USen": "I think it might be fun if we played a\ngame together, (catchphrase). What\ndo you think?",
      "USes": "Oye, ¿qué tal si jugamos algo, (catchphrase)?",
      "USfr": "Ça serait rigolo si on jouait à un jeu,\ntoi et moi. Qu'est-ce que tu en dis,\n?"
    }
  },
  {
    "label": "200_a",
    "attribute": "0x0000000000000000",
    "locale": {
      "CNzh": "来玩吧！",
      "EUde": "Unbedingt!",
      "EUen": "Sounds great!",
      "EUes": "¡Suena divertido!",
      "EUfr": "Super idée !",
      "EUit": "Che bella idea!",
      "EUnl": "Goed idee!",
      "EUru": "Давай!",
      "JPja": "する！",
      "KRko": "좋아!",
      "TWzh": "我要玩！",
      "USen": "Sounds great!",
      "USes": "¡Suena divertido!",
      "USfr": "Super idée!"
    }
  },
  {
    "label": "200_b",
    "attribute": "0x0000000000000000",
    "locale": {
      "CNzh": "先不了吧",
      "EUde": "Vielleicht später.",
      "EUen": "Not now, OK?",
      "EUes": "Ahora no",
      "EUfr": "Bof, pas maintenant.",
      "EUit": "Adesso no.",
      "EUnl": "Misschien later.",
      "EUru": "Может, позже.",
      "JPja": "今はいいかな",
      "KRko": "지금은 됐어",
      "TWzh": "現在先不用",
      "USen": "Not now, OK?",
      "USes": "Ahora no",
      "USfr": "Bof, pas maintenant."
    }
  },
  {
    "label": "201",
    "attribute": "0x0000020000000000",
    "locale": {
      "CNzh": "对了！如果你愿意的话，\n我们要不要玩点游戏呀？。",
      "EUde": "Ach ja! Ich hab mir gedacht,\nvielleicht könnten wir ein Spiel\nzusammen spielen, (Floskel)?",
      "EUen": "Oh! Why don't we play a game or\nsomething, (catchphrase)?",
      "EUes": "¡Oh! Se me ha ocurrido una idea.\n¿Te apetece jugar a algo, (catchphrase)?",
      "EUfr": "Oh ! Nous pourrions jouer à un jeu,\nqu'est-ce que tu en penses, (expression) ?",
      "EUit": "Oh! Mi è venuta un'idea. Perché non\nfacciamo un gioco, ?",
      "EUnl": "O! Zullen we een spelletje spelen, (catchphrase)?",
      "EUru": "О! Почему бы нам не сыграть\nво что-нибудь? ?",
      "JPja": "そうだ！　よかったら\nゲームでも　しませんか？　",
      "KRko": "아, 그렇지! 혹시\n저랑 같이 게임하실래요? ?",
      "TWzh": "對了！如果可以的話，\n要不要玩點遊戲呢？。",
      "USen": "Oh! Why don't we play a game or\nsomething, (catchphrase)?",
      "USes": "¡Oh! Tengo una idea. ¿Y si jugamos\na algo, (catchphrase)?",
      "USfr": "Oh! Nous pourrions jouer à un jeu,\nqu'est-ce que tu en penses, (expression)?"
    }
  },
  {
    "label": "201_a",
    "attribute": "0x0000000000000000",
    "locale": {
      "CNzh": "来玩吧！",
      "EUde": "Gute Idee!",
      "EUen": "Sure, let's play!",
      "EUes": "Claro",
      "EUfr": "Oui, d'accord !",
      "EUit": "Certo!",
      "EUnl": "Ja, leuk!",
      "EUru": "Да, давай поиграем!",
      "JPja": "しよう！",
      "KRko": "하자!",
      "TWzh": "來玩吧！",
      "USen": "Sure, let's play!",
      "USes": "Claro",
      "USfr": "Oui, d'accord!"
    }
  },
  {
    "label": "201_b",
    "attribute": "0x0000000000000000",
    "locale": {
      "CNzh": "今天先不玩",
      "EUde": "Von mir aus nicht.",
      "EUen": "No, thanks.",
      "EUes": "No mucho",
      "EUfr": "Sans façon.",
      "EUit": "No, grazie.",
      "EUnl": "Nee, dank je.",
      "EUru": "Не хочу.",
      "JPja": "今日は　やめとく",
      "KRko": "오늘은 안 할래",
      "TWzh": "今天先不玩",
      "USen": "No, thanks.",
      "USes": "No, gracias",
      "USfr": "Sans façon."
    }
  },
  {
    "label": "202",
    "attribute": "0x0000020000000000",
    "locale": {
      "CNzh": "，\n我们要不要\n玩点游戏呀？。",
      "EUde": "Was meinst du, (Spitzname)...\nSollen wir ein Spiel spielen,\n(Floskel)?",
      "EUen": "I feel like this moment really calls for\na game, (catchphrase). Don't you?",
      "EUes": "Eh, (nickname), ¿por qué no jugamos a un juego, (catchphrase)?",
      "EUfr": "C'est le moment idéal pour jouer à\nun petit jeu, . Ça te tente ?",
      "EUit": "Ehi, (nickname)... Che ne diresti di partecipare a un gioco, ?",
      "EUnl": "Ik denk dat dit hét moment is om een spelletje te spelen, (catchphrase). Vind je ook niet?",
      "EUru": "Может, поиграем во что-нибудь?\nДавай? !",
      "JPja": "\nよかったら\nゲームで　遊びませんか？　",
      "KRko": "님,\n혹시 게임 안 하실래요? ?",
      "TWzh": "，\n如果可以的話，\n要不要玩點遊戲呢？。",
      "USen": "I feel like this moment really calls for\na game, (catchphrase). Don't you?",
      "USes": "Eh, (nickname), ¿y si\njugamos un juego, (catchphrase)?",
      "USfr": "C'est le moment idéal pour jouer à\nun petit jeu, . Ça te tente?"
    }
  },
  {
    "label": "202_a",
    "attribute": "0x0000000000000000",
    "locale": {
      "CNzh": "来玩吧！",
      "EUde": "Sehr gern!",
      "EUen": "Absolutely!",
      "EUes": "¡Venga, sí!",
      "EUfr": "Et comment !",
      "EUit": "Mi piacerebbe molto!",
      "EUnl": "Gelijk heb je!",
      "EUru": "С удовольствием!",
      "JPja": "遊ぶ！",
      "KRko": "게임하자!",
      "TWzh": "來玩吧！",
      "USen": "Absolutely!",
      "USes": "¡Sí!",
      "USfr": "Et comment!"
    }
  },
  {
    "label": "202_b",
    "attribute": "0x0000000000000000",
    "locale": {
      "CNzh": "不了",
      "EUde": "Ungern...",
      "EUen": "Um... Not really.",
      "EUes": "Paso...",
      "EUfr": "En fait, pas trop.",
      "EUit": "Adesso no...",
      "EUnl": "Eh... nee, liever niet.",
      "EUru": "В другой раз.",
      "JPja": "やめとく",
      "KRko": "사양할게",
      "TWzh": "算了",
      "USen": "Um... Not really.",
      "USes": "Paso...",
      "USfr": "En fait, pas trop."
    }
  },
  {
    "label": "203",
    "attribute": "0x0000000000000000",
    "locale": {
      "CNzh": "哎呀，这样啊。\n那我们今天就来\n聊聊天吧。。",
      "EUde": "Verstehe...\nDann belassen wir es heute mal\nbei einem Plausch!",
      "EUen": "Oh, alright. I'm always up for some\nmore chitchat, (catchphrase).",
      "EUes": "De acuerdo... Entonces podemos\nseguir charlando, .",
      "EUfr": "Bon, comme tu veux. On peut aussi\nsimplement papoter, .",
      "EUit": "Oh, va bene... Allora continuiamo\npure a chiacchierare.",
      "EUnl": "O. Oké. Voor gezellig kletsen ben ik\naltijd in, (catchphrase).",
      "EUru": "Ясно. Ну хорошо. Тогда просто\nпобеседуем. Этому я всегда рада.\n(catchphrase)!",
      "JPja": "あら、そうですか\nじゃあ今日は おしゃべりして\n楽しみましょう、",
      "KRko": "어머, 그러세요?\n그럼 오늘은\n즐거운 대화를 나눠요, !",
      "TWzh": "哎呀，這樣啊。\n那今天我們就來\n開心聊聊天吧，。",
      "USen": "Oh, alright. I'm always up for some\nmore chitchat, (catchphrase).",
      "USes": "De acuerdo... Podemos continuar\ncharlando, (catchphrase).",
      "USfr": "Bon, comme tu veux. On peut aussi\nsimplement papoter, ."
    }
  },
  {
    "label": "204",
    "attribute": "0x0000000000000000",
    "locale": {
      "CNzh": "我知道了，\n那就坐下来聊聊天吧。。",
      "EUde": "Alles klar. Sich einfach nur in Ruhe\nzu unterhalten, ist ja auch schön,\n(Floskel).",
      "EUen": "OK, maybe another time. I'm happy\nto keep talking.",
      "EUes": "Vale, quizá en otro momento.\nNo me importa seguir hablando\nde lo que quieras.",
      "EUfr": "D'accord, une autre fois peut-être.\nNous pouvons continuer de bavarder,\nça me convient.",
      "EUit": "Va bene, magari un'altra volta.\nParlare con te è così piacevole!",
      "EUnl": "Oké, dan misschien een andere keer.\nHet is ook leuk om nog even door te\nkletsen.",
      "EUru": "Хорошо, поиграем в другой раз.\nМожно просто побеседовать.",
      "JPja": "わかりました\nでは　ゆっくりお話ししましょう、",
      "KRko": "알겠습니다!\n그럼 천천히 대화를 나눠요, !",
      "TWzh": "我知道了，\n那我們就悠閒地聊聊天吧，。",
      "USen": "OK, maybe another time. I'm happy\nto keep talking.",
      "USes": "Está bien, lo dejamos para otra\nocasión. Sigamos hablando de lo\nque quieras.",
      "USfr": "D'accord, une autre fois peut-être.\nNous pouvons continuer de jaser,\nça me convient."
    }
  },
  {
    "label": "205",
    "attribute": "0x0000000000000000",
    "locale": {
      "CNzh": "这样啊，\n那我就好好\n参观一下你的房间吧。。",
      "EUde": "Keine Lust? Dann werde ich mir\neinfach nur deine Räumlichkeiten\nansehen, (Floskel)!",
      "EUen": "OK. Then I'll just take in all the lovely\nsights your home has to offer.",
      "EUes": "Vale, si no te apetece, podemos\nseguir hablando como hasta ahora.",
      "EUfr": "D'accord, c'était juste une idée\ncomme ça. Dans ce cas, je continue\nd'explorer ta formidable maison.",
      "EUit": "D'accordo, in fondo era solo un'idea.\nIo adoooro stare con te, non importa\ncosa facciamo.",
      "EUnl": "Oké, prima. Dan geniet ik verder van\nal het moois dat hier te zien is!",
      "EUru": "Не хочешь? Тогда я просто поброжу\nпо твоему прелестному дому.",
      "JPja": "そうですか\nでは　じっくり　お部屋の中を\n見させていただきますね、",
      "KRko": "네, 알겠습니다!\n그럼 댁을 천천히 구경할게요, !",
      "TWzh": "這樣啊……\n那就讓我好好參觀一下\n你的房間吧，。",
      "USen": "OK. Then I'll just take in all the lovely\nsights your home has to offer.",
      "USes": "Bueno, si no tienes ganas ahora,\npuedo seguir disfrutando de la\nhermosa vista que ofrece tu casita.",
      "USfr": "D'accord, c'était juste une idée\ncomme ça. Dans ce cas, je continue\nd'explorer ta formidable maison."
    }
  }
]