﻿[
  {
    "label": "001",
    "attribute": "0x0000000000000000",
    "locale": {
      "CNzh": "哇～！\n是！",
      "EUde": "!",
      "EUen": "You caught me my very own\n!",
      "EUes": "¡Me has traído mi propi !",
      "EUfr": "Grâce à toi, j'ai maintenant \npropre  !",
      "EUit": "Non dirmi che questo bell'esemplare di  l'hai catturato apposta per me?",
      "EUnl": "Je hebt voor mij  gevangen!",
      "EUru": "Это ты мне поймал\n?!",
      "JPja": "わぁ～！\n！",
      "KRko": "와아～!\n이다!",
      "TWzh": "哇～！\n是！",
      "USen": "You caught me my very own\n!",
      "USes": "¡Me trajiste mi propi !",
      "USfr": "Grâce à toi, j'ai maintenant \npropre !"
    }
  },
  {
    "label": "002",
    "attribute": "0x0000000000000000",
    "locale": {
      "CNzh": "没错！\n这就是！",
      "EUde": "!\nKein Zweifel!",
      "EUen": "This is it, alright! Just what\nI asked you to catch—\n!",
      "EUes": "¡!\nEs justo lo que quería, gracias.",
      "EUfr": " ! C'est exactement ce que je voulais.",
      "EUit": "Guarda, guarda... È proprio  che ti avevo chiesto di portarmi!",
      "EUnl": "Het is je gelukt! Dit is  waar ik je om heb gevraagd!",
      "EUru": "!\nЭто именно то, что я хотела!",
      "JPja": "間違いありません！\nです！",
      "KRko": "틀림없네요!\n이에요!",
      "TWzh": "沒錯！\n這就是！",
      "USen": "This is it, alright! Just what\nI asked you to catch—\n!",
      "USes": "¡!\nEs justo lo que quería, gracias.",
      "USfr": "! C'est exactement ce que je voulais."
    }
  },
  {
    "label": "003",
    "attribute": "0x0000000000000000",
    "locale": {
      "CNzh": "这是……！\n是！",
      "EUde": "Irre ich mich, oder ist das...\nm!",
      "EUen": "I don't believe it! You found my\n!",
      "EUes": "¡No me lo puedo creer!\n¡Es !",
      "EUfr": "Je n'arrive pas à y croire ! C'est bien\n, comme je te l'avais demandé !",
      "EUit": "Non ci posso credere! Hai trovato\n!",
      "EUnl": "Ongelofelijk! Je hebt  voor me gevangen!",
      "EUru": "Даже не верится! Ты нашел\n!",
      "JPja": "これは・・・！\n！",
      "KRko": "이건...!\n!",
      "TWzh": "這個是……！\n！",
      "USen": "I don't believe it! You found my\n!",
      "USes": "¡No lo puedo creer!\n¡!",
      "USfr": "Je n'arrive pas à y croire! C'est bien\n, comme je te l'avais demandé!"
    }
  },
  {
    "label": "004",
    "attribute": "0x0000020000000000",
    "locale": {
      "CNzh": "咦？！太厉害了！\n这不是\n吗！\n真的可以吗？\n竟然把这么贵重的东西\n送给我……。",
      "EUde": "Oh?! Unglaublich! \n!\nBist du sicher, dass du mir so\netwas Wertvolles geben willst?",
      "EUen": "I can't believe I'm holding a real, live\n!\nThese are so rare! Are you sure you\nwant to part with it?",
      "EUes": "No me puedo creer que tenga  de verdad aquí mismo.\nNo son fáciles de conseguir,\n¿seguro que me l puedo quedar?",
      "EUfr": "Tu m'as vraiment rapporté  ?\n sont extrêmement rares ! Tu\nes sûr de vouloir t'en séparer ?",
      "EUit": "Uaaau, sogno o son desta?\n!\nUna creatura cooosì rara! Sei sicuro\ndi volermela dare?",
      "EUnl": "Wauw, is dit  ?\nWat een zeldzame vondst! Weet je\nzeker dat je die aan mij wilt geven?",
      "EUru": "Неужели я держу настоящего\n?\nЭто же такая редкость! Я точно\nмогу забрать его?",
      "JPja": "えっ？！　すごいです！\nじゃ\nありませんか！\nいいんでしょうか？\nこんな貴重なものを\nいただいて・・・、",
      "KRko": "앗?! 굉장해요!\n\n아닌가요?!\n정말 괜찮은가요?\n이렇게 귀한 걸 제가 가져도? ?",
      "TWzh": "咦！？太厲害了！\n這不就是\n嗎！\n我真的可以收下\n這麼稀有的生物嗎……。",
      "USen": "I can't believe I'm holding a real, live\n!\nThese are so rare! Are you sure you\nwant to part with it?",
      "USes": "No puedo creer que tenga  de verdad.",
      "USfr": "Tu m'as vraiment rapporté ?\n sont extrêmement rares! Tu\nes sûr de vouloir t'en séparer?"
    }
  },
  {
    "label": "004_a",
    "attribute": "0x0000000000000000",
    "locale": {
      "CNzh": "请收下吧",
      "EUde": "Nimm ruhig!",
      "EUen": "It's yours.",
      "EUes": "Es para ti",
      "EUfr": "C'est pour toi.",
      "EUit": "È un regalo per te.",
      "EUnl": "Voor jou!",
      "EUru": "Это тебе.",
      "JPja": "どうぞ",
      "KRko": "물론이지",
      "TWzh": "請收下吧",
      "USen": "It's yours.",
      "USes": "Es para ti",
      "USfr": "C'est pour toi."
    }
  },
  {
    "label": "004_b",
    "attribute": "0x0000000000000000",
    "locale": {
      "CNzh": "还是算了",
      "EUde": "Nur gucken!",
      "EUen": "I'd like that back.",
      "EUes": "No es para ti",
      "EUfr": "C'est à moi.",
      "EUit": "Non è per te...",
      "EUnl": "Alleen naar kijken!",
      "EUru": "Это не тебе.",
      "JPja": "やっぱ、やめる",
      "KRko": "역시 관둘래",
      "TWzh": "還是算了",
      "USen": "I'd like that back.",
      "USes": "No es para ti, lo siento",
      "USfr": "C'est à moi."
    }
  },
  {
    "label": "005",
    "attribute": "0x0000000000000600",
    "locale": {
      "CNzh": "咦！！\n真的可以吗？！",
      "EUde": "Was?! Wirklich?",
      "EUen": "Oh wow, really?\nDo you mean it?",
      "EUes": "Ay, ¿de verdad?\n¿Seguro?",
      "EUfr": "Oh sérieusement ?\nTu ne me fais pas une blague ?",
      "EUit": "Comment?\nDici sul serio?",
      "EUnl": "Wauw, echt waar? Meen je dat?",
      "EUru": "Правда? Нет, ты серьезно?",
      "JPja": "えっ！！\n本当に　いいんですね？！",
      "KRko": "네?!\n정말 괜찮으세요?!",
      "TWzh": "咦！！\n真的可以嗎！？",
      "USen": "Oh wow, really?\nDo you mean it?",
      "USes": "Ay, ¿de verdad?\n¿Para mí?",
      "USfr": "Oh sérieusement?\nTu ne me fais pas une farce?"
    }
  },
  {
    "label": "006",
    "attribute": "0x0000000000000000",
    "locale": {
      "CNzh": "哎呀，这样啊……\n没关系的，请别介意。\n不管什么种类都可以，\n麻烦你替我抓来独角仙哦。。",
      "EUde": "Oh, ich verstehe...\nIst schon gut.\nVielleicht findest du ja noch einen\nanderen gehörnten Käfer, den du mir\nüberlassen würdest, (Floskel).",
      "EUen": "Sure, alright...\nI understand.\nMaybe the next one, (catchphrase).\nI'd welcome any rhinoceros beetle.",
      "EUes": "Ah, claro, perdona...\n¿Podrías cazar otro escarabajo\nastado que sea para mí?",
      "EUfr": "Oh oui, bien sûr...\nJe comprends.\n(expression), peut-être que le\nprochain scarabée à corne sera\npour moi.",
      "EUit": "Ma certo, capisco...\nLa prossima volta, magari. Mi va\nbene qualsiasi scarabeo.",
      "EUnl": "Ja, natuurlijk... Dat begrijp ik wel.\nMisschien de volgende keer, (catchphrase). Ik ben altijd blij met zo'n gehoornde kever.",
      "EUru": "Хорошо... Ничего страшного.\n(catchphrase)! Подожду другого.\nЯ любого жука-носорога возьму.",
      "JPja": "あら、そうですか・・・\nいえ、お気になさらず\nどんな種類でも　いいので\nカブトムシ　お願いしますね、",
      "KRko": "어머, 그러세요...?\n아니에요, 신경 쓰지 마세요!\n종류는 상관없으니까\n장수풍뎅이를 부탁드려요! !",
      "TWzh": "哎呀，這樣啊……\n沒事的，請不要介意。\n無論是什麼種類的獨角仙都可以，\n再麻煩你抓來給我囉，。",
      "USen": "Sure, alright...\nI understand.\nMaybe the next one, (catchphrase).\nI'd welcome any rhinoceros beetle.",
      "USes": "Ah, claro, perdona...\n¿Podrías atrapar otro escarabajo\nastado que sea para mí?",
      "USfr": "Oh oui, bien sûr...\nJe comprends.\n(expression), peut-être que le\nprochain scarabée à corne sera\npour moi."
    }
  },
  {
    "label": "007",
    "attribute": "0x0000000000000000",
    "locale": {
      "CNzh": "哎呀，这样啊……\n没关系的，请别介意。\n不管什么种类都可以，\n麻烦你替我抓来锹形虫哦。。",
      "EUde": "Oh, ich verstehe...\nIst schon gut.\nVielleicht findest du ja noch einen\nanderen Hirschkäfer, den du mir\nüberlassen würdest, (Floskel).",
      "EUen": "No problem, of course.\nBut if you catch another stag beetle\nthat you're willing to donate to me...",
      "EUes": "Ningún problema, te lo devuelvo.\nSi atrapas otro escarabajo ciervo,\n¿podría quedármelo?",
      "EUfr": "C'est ton insecte, fais-en ce que\ntu veux.\nMais si jamais tu trouves un autre\nlucane que tu accepterais de me\ndonner...",
      "EUit": "Pas de problème, figurati...\nMa se ti capitasse di acchiappare\nun altro coleottero e avessi voglia\ndi regalarmelo... Io sono qui!",
      "EUnl": "Dat is natuurlijk geen probleem.\nMaar als je nog een hertkever vangt,\nhoop ik dat je hem aan me wilt\ngeven...",
      "EUru": "Конечно, без проблем.\nНо если поймаешь еще одного\nжука-оленя, можешь отдать\nего мне...",
      "JPja": "あら、そうですか・・・\nいえ、お気になさらず\nどんな種類でも　いいので\nクワガタ　お願いしますね、",
      "KRko": "어머, 그러시구나...\n아니에요, 마음에 두지 마세요～\n종류는 안 가리니까\n사슴벌레 한 마리만 부탁드려요, !",
      "TWzh": "哎呀，這樣啊……\n沒事的，請不要介意。\n無論是什麼種類的鍬形蟲都可以，\n再麻煩你抓來給我囉，。",
      "USen": "No problem, of course.\nBut if you catch another stag beetle\nthat you're willing to donate to me...",
      "USes": "Ningún problema, te lo devuelvo.\nSi atrapas otro escarabajo ciervo,\n¿podría quedármelo?",
      "USfr": "C'est ton insecte, fais-en ce que\ntu veux.\nMais si jamais tu trouves un autre\nlucane que tu accepterais de me\ndonner..."
    }
  },
  {
    "label": "008",
    "attribute": "0x0000000000000000",
    "locale": {
      "CNzh": "哎呀，这样啊……\n没关系的，请别介意。\n不管什么种类都可以，\n麻烦你替我抓来一只蝉哦。。",
      "EUde": "Oh, ich verstehe...\nIst schon gut.\nVielleicht findest du ja noch eine\nandere Zikade, die du mir\nüberlassen würdest, (Floskel).",
      "EUen": "OK, sure... You caught it, after all.\nIf you're still willing to catch me a\ncicada of my own, I'd be grateful.",
      "EUes": "Ah, entendido... Tienes todo\nel derecho a quedártela.\nPero, flor, si pudieras cazar otra\ncigarra para mí, me harías un gran\nfavor.",
      "EUfr": "Je n'ai pas dit le contraire... Après\ntout, c'est toi qui as attrapé cet\ninsecte.\nMais si jamais tu mets la main sur\nune autre cigale, ma demande tient\ntoujours.",
      "EUit": "Ma certo... Non dev'essere facile\nsepararsi da un insettino talmente\nadoraaabile.\nComunque, se ti venisse voglia di\nacchiappare una cicala e regalarmela,\nio non ti direi di no!",
      "EUnl": "Oké, prima... Jij hebt hem tenslotte\ngevangen.\nMaar ik zou je erg dankbaar zijn, als\nje voor mij ook een cicade wilt\nvangen.",
      "EUru": "Ладно, хорошо... Это же ты\nпоймал.\nЕсли захочешь поймать цикаду\nспециально для меня, приму\nс удовольствием.",
      "JPja": "あら、そうですか・・・\nいえ、お気になさらず\nどんな種類でも　いいので\nセミを一匹　お願いしますね、",
      "KRko": "앗, 그러세요...?\n아니, 신경 안 쓰셔도 돼요!\n어떤 종류든 상관없으니까요,\n매미 한 마리만 잡아주세요, !",
      "TWzh": "哎呀，這樣啊……\n沒事的，請不要介意。\n無論是什麼種類的蟬都可以，\n再麻煩你抓一隻給我囉，。",
      "USen": "OK, sure... You caught it, after all.\nIf you're still willing to catch me a\ncicada of my own, I'd be grateful.",
      "USes": "Ah, entendido... Tienes todo\nel derecho a quedártela.\nPero, flor, si atrapas otra cigarra\npara mí, me harías un gran favor.",
      "USfr": "Je n'ai pas dit le contraire... Après\ntout, c'est toi qui as attrapé cet\ninsecte.\nMais si jamais tu mets la main sur\nune autre cigale, ma demande tient\ntoujours."
    }
  },
  {
    "label": "010",
    "attribute": "0x0000000000000000",
    "locale": {
      "CNzh": "哎呀，这样啊……\n没关系的，请别介意。\n不管什么种类都可以，\n麻烦你替我抓来蝴蝶哦。。",
      "EUde": "Oh, ich verstehe...\nIst schon gut.\nVielleicht findest du ja noch einen\nanderen Schmetterling, den du mir\nüberlassen würdest, (Floskel).",
      "EUen": "Sure, you caught it. There you go...\nI'd still be grateful if you would\ncatch a butterfly for me, though.",
      "EUes": "Bueno, tú la has atrapado...\n¿No podrías cazar otra mariposa\npara mí? Sería un detalle...",
      "EUfr": "Je ne dis pas le contraire...\nDu coup ma demande tiens toujours,\nsi tu as envie d'attraper un papillon\npour moi.",
      "EUit": "Certo, l'hai catturata tu, in fondo...\nComunque ti sarei infinitamente\ngrata se un giorno catturassi una\nfarfalla tutta per me!",
      "EUnl": "Natuurlijk, jij hebt hem gevangen.\nAlsjeblieft, daar heb je hem weer...\nMaar ik zou het erg aardig van je\nvinden als je voor mij een vlinder\nvangt.",
      "EUru": "Конечно, это же ты поймал. Вот...\nНо если ты мне поймаешь бабочку,\nбуду очень благодарна.",
      "JPja": "あら、そうですか・・・\nいえ、お気になさらず\nどんな種類でも　いいので\nチョウチョ　お願いしますね、",
      "KRko": "앗, 그러시군요...\n아니에요, 충분히 이해해요～\n종류는 지정하지 않을 테니까\n나비를 부탁드릴게요, !",
      "TWzh": "哎呀，這樣啊……\n沒事的，請不要介意。\n無論是什麼種類的蝴蝶都可以，\n再麻煩你抓來給我囉，。",
      "USen": "Sure, you caught it. There you go...\nI'd still be grateful if you would\ncatch a butterfly for me, though.",
      "USes": "Bueno, tú la atrapaste...\n¿No podrías atrapar otra mariposa\npara mí? Sería un gran detalle...",
      "USfr": "Je ne dis pas le contraire...\nMais ma demande tient toujours,\nsi tu as envie d'attraper un papillon\npour moi."
    }
  },
  {
    "label": "011",
    "attribute": "0x0000000000000000",
    "locale": {
      "CNzh": "哎呀，这样啊……\n没关系的，请别介意。\n不管什么种类都可以，\n麻烦你替我抓来一只蜻蜓哦。。",
      "EUde": "Oh, ich verstehe...\nIst schon gut.\nVielleicht findest du ja noch eine\nandere Libelle, die du mir\nüberlassen würdest, (Floskel).",
      "EUen": "Yes, of course you can have it back.\nI hope you'll consider catching me a\ndragonfly of my own, (catchphrase).",
      "EUes": "Ah, entonces te la devuelvo sin falta.\nEspero que puedas atrapar una\nlibélula que sea luego para mí.",
      "EUfr": "Bien sûr, je te  rends.\nJ'espère que tu vas quand même\nessayer d'attraper une libellule pour\nmoi, .",
      "EUit": "Ah, in questo caso te la restituisco\nsubito.\nSpero che un giorno sarai così\ngentile da portarmi una libellula\ntutta per me, (catchphrase).",
      "EUnl": "Ja, natuurlijk.\nIk hoop dat je voor mij ook een\nlibel wilt vangen, (catchphrase).",
      "EUru": "Конечно, забирай.\nМожет, поймаешь стрекозу\nспециально для меня?\n(catchphrase).",
      "JPja": "あら、そうですか・・・\nいえ、お気になさらず\nどんな種類でも　いいので\nトンボを一匹　お願いしますね、",
      "KRko": "어머, 그러신가요...?\n아, 마음에 두지 마세요!\n어떤 종류든 괜찮으니까\n잠자리 한 마리만\n잡아주셨으면 좋겠어요, !",
      "TWzh": "哎呀，這樣啊……\n沒事的，請不要介意。\n無論是什麼種類的蜻蜓都可以，\n再麻煩你抓一隻給我囉，。",
      "USen": "Yes, of course you can have it back.\nI hope you'll consider catching me a\ndragonfly of my own, (catchphrase).",
      "USes": "Ah, entonces te la devuelvo, no\npasa nada.\nEspero que puedas atrapar una\nlibélula que sea luego para mí.",
      "USfr": "Bien sûr, je te  rends.\nJ'espère que tu vas quand même\nessayer d'attraper une libellule pour\nmoi, ."
    }
  },
  {
    "label": "012",
    "attribute": "0x0000000000000000",
    "locale": {
      "CNzh": "哎呀，这样啊……\n没关系的，请别介意。\n不管什么种类都可以，\n麻烦你替我\n抓来停留在花朵上的虫子哦。。",
      "EUde": "Oh, ich verstehe...\nIst schon gut.\nVielleicht findest du ja noch ein\nanderes Insekt auf einer Blüte, \ndas du mir überlassen würdest.",
      "EUen": "No problem, since you're the one\nwho caught it in the first place...\nBut if you spot and catch another\nbug sitting on a flower, I'd love to\ntake that one off of your hands.",
      "EUes": "¿Vas a quedarte con este bichito?\nBueno, no pasa nada. Tú eres el\ndueño y tienes todo el derecho.\nSi por casualidad ves a otro bicho\nposado en una flor, ¿podrías cazarlo\npara mí?",
      "EUfr": "Bien sûr, c'est toi qui l'as attrapé,\ncet insecte...\nMais si jamais tu trouves un autre\ninsecte amateur de fleurs, je me\nferai un plaisir de t'en délester.",
      "EUit": "Ma certo... È un insettino sublime\ne hai tutto il diritto di tenertelo...\nMa se ne trovi un altro posato su\nun fiore, sarei felicissimissima di\naverlo!",
      "EUnl": "Geen probleem, want jij bent degene\ndie hem heeft gevangen...\nMaar als je nog eens een insect op\neen bloem ziet zitten en vangt, neem\nik het graag van je aan.",
      "EUru": "Без проблем, это же ты поймал...\nЕсли еще увидишь на каком-нибудь\nцветке насекомое, приноси! Возьму\nс удовольствием.",
      "JPja": "あら、そうですか・・・\nいえ、お気になさらず\nどんな種類でも　いいので\n花の上に　とまってるムシ、\nお願いしますね、",
      "KRko": "아, 그러시구나...\n아니에요, 신경 쓰지 마세요!\n종류는 어떤 거든 좋으니까\n꽃에 앉는 곤충을\n잡아주시면 좋겠어요, !",
      "TWzh": "哎呀，這樣啊……\n沒事的，請不要介意。\n只要是停在花朵上的昆蟲，\n無論什麼種類都可以，\n再麻煩你抓來給我囉，。",
      "USen": "No problem, since you're the one\nwho caught it in the first place...\nBut if you spot and catch another\nbug sitting on a flower, I'd love to\ntake that one off of your hands.",
      "USes": "Bueno, te entiendo...\nSi de casualidad ves a otro insecto\nposado en una flor, ¿podrías\natraparlo para mí?",
      "USfr": "Bien sûr, c'est toi qui l'as attrapé,\ncet insecte...\nMais si jamais tu trouves un autre\ninsecte amateur de fleurs, je me\nferai un plaisir de t'en débarrasser."
    }
  },
  {
    "label": "013",
    "attribute": "0x0000000000000000",
    "locale": {
      "CNzh": "哎呀，这样啊……\n没关系的，请别介意。\n不管什么种类都可以，\n麻烦你替我\n抓来停在树墩上的虫子哦。。",
      "EUde": "Oh, ich verstehe...\nIst schon gut.\nVielleicht findest du ja noch ein an-\nderes Insekt auf einem Baumstumpf,\ndas du mir überlassen würdest.",
      "EUen": "Oh, of course... You caught this one.\nBut if you could catch me a bug from\na tree stump, I'd sure appreciate it.",
      "EUes": "Ah, bueno es saberlo...\nPero si ves otro bicho parado en\nun tocón, ¿podrías atraparlo para\nmí, ?",
      "EUfr": "Oh, bien sûr...\nAprès tout, c'est ton insecte.\nMais si tu vois un autre insecte sur\nune souche, sache que je suis\ntoujours preneuse.",
      "EUit": "Oh, buono a sapersi...\nMa se decidessi di portarmi un altro\ninsetto trovato su un ceppo d'albero,\nne sarei felicissimissimissima!",
      "EUnl": "O, natuurlijk... Jij hebt hem\ngevangen.\nMaar als je voor mij een insect wil\nvangen dat op een boomstam zit,\nben ik je erg dankbaar.",
      "EUru": "Ах да, конечно... Ты же поймал.\nЕсли заметишь на пне еще\nнасекомое, поймаешь его для\nменя? Буду очень благодарна!",
      "JPja": "あら、そうですか・・・\nいえ、お気になさらず\nどんな種類でも　いいので\n切り株にとまってるムシ\nお願いしますね、",
      "KRko": "앗, 그러세요...?\n아니에요, 마음에 두실 거 없어요!\n종류는 상관없으니까\n그루터기에 앉는 곤충을\n잡아주셨으면 좋겠어요, !",
      "TWzh": "哎呀，這樣啊……\n沒事的，請不要介意。\n只要是停在樹樁上的昆蟲，\n無論什麼種類都可以，\n再麻煩你抓來給我囉，。",
      "USen": "Oh, of course... You caught this one.\nBut if you could catch me a bug from\na tree stump, I'd sure appreciate it.",
      "USes": "Ah, bueno es saberlo...\nPero si ves otro insecto parado en\nun tocón, ¿podrías atraparlo para\nmí, (catchphrase)?",
      "USfr": "Oh, bien sûr...\nAprès tout, c'est ton insecte.\nMais si tu vois un autre insecte sur\nune souche, sache que je suis\ntoujours preneuse."
    }
  },
  {
    "label": "021",
    "attribute": "0x0000000000000000",
    "locale": {
      "CNzh": "哇～！\n是！",
      "EUde": "Oh!  !",
      "EUen": "Look at this—it's my very own\n!",
      "EUes": "¡Anda! ¡Por fin voy a tener\n!",
      "EUfr": "Regarde un peu ! J'ai enfin  ! Qu'est-ce  !",
      "EUit": "Incredibile!   per me!",
      "EUnl": "Kijk nou, mijn eigen !",
      "EUru": "Вот это да, моя собственная рыба!\n!",
      "JPja": "わぁ～！\n！",
      "KRko": "와아～!\n!",
      "TWzh": "哇～！\n是！",
      "USen": "Look at this—it's my very own\n!",
      "USes": "¡Rabanitos! ¡Por fin voy a tener\n!",
      "USfr": "Regarde un peu! J'ai enfin ! Qu'est-ce !"
    }
  },
  {
    "label": "022",
    "attribute": "0x0000000000000000",
    "locale": {
      "CNzh": "没错！\n这就是！",
      "EUde": "Ohne Zweifel!  !",
      "EUen": "I'm so excited! You caught my\n!",
      "EUes": "¡Oh, lo has logrado! Me has pescado\n.",
      "EUfr": "Tu as attrapé  , et  est pour moi !",
      "EUit": "Oh, che emozione! Mi hai portato\n!",
      "EUnl": "Wat spannend! Je hebt  voor me gevangen!",
      "EUru": "Я так рада! Ты поймал мне\n!",
      "JPja": "間違いありません！\nです！",
      "KRko": "틀림없어요!\n이네요!",
      "TWzh": "沒錯！\n這就是！",
      "USen": "I'm so excited! You caught my\n!",
      "USes": "¡Oh, lo lograste! Pescaste\n.",
      "USfr": "Tu as attrapé  , et  est pour moi!"
    }
  },
  {
    "label": "023",
    "attribute": "0x0000000000000000",
    "locale": {
      "CNzh": "这是……！\n是！",
      "EUde": "Ist das...? Ja, !",
      "EUen": "Is this...? It really is! You found\nmy !",
      "EUes": "Oh, pero... ¡si me has traído\n!",
      "EUfr": "C'est vrai ? Vrai de vrai...? Tu as\ntenu parole, tu m'as apporté  ! Youpi !",
      "EUit": "Non dirmi che... Ma sì, non sogno!\nÈ !",
      "EUnl": "Is dit?! Ja, het is mijn !",
      "EUru": "Глазам своим не верю. Неужели\nэто... Да! Ты нашел мне\n!",
      "JPja": "これは・・・！\n！",
      "KRko": "이건...!\n!",
      "TWzh": "這個是……！\n！",
      "USen": "Is this...? It really is! You found\nmy !",
      "USes": "Oh... ¡me trajiste !",
      "USfr": "C'est vrai? Sans farce...? Tu as\ntenu parole, tu m'as apporté ! Youpi!"
    }
  },
  {
    "label": "024",
    "attribute": "0x0000020000000000",
    "locale": {
      "CNzh": "咦？！太厉害了！\n这不是\n吗！\n真的可以吗？\n竟然把这么贵重的东西\n送给我……。",
      "EUde": "Oh?! Wie schön! Das ist , nicht wahr?\nKann ich  wirklich annehmen?\nSo etwas Kostbares...",
      "EUen": "I can't believe I'm holding this\n!\nThese are so rare! Are you sure you\nwant to part with it?",
      "EUes": "¡Increíble! ¡Es de verdad!\n¡Es !\nNo son fáciles de conseguir,\n¿seguro que me l puedo quedar?",
      "EUfr": "Je n'arrive pas à croire que je tiens  entre mes pattes !\nC'est un spécimen si rare ! Tu es\nvraiment sûr de vouloir t'en\nséparer ?",
      "EUit": "Non posso credere\ndi avere tra le zampe\n!\nÈ una creatura così rara! Vuoi\ndavvero separartene?",
      "EUnl": "Ik kan het haast niet geloven dat ik echt  vasthoud!\nWat een zeldzame vangst! Weet je\nzeker dat je er afstand van wilt\ndoen?",
      "EUru": "Даже не верится! Я держу в руках\n!\nЭто такая редкость! Тебе не жалко\nрасставаться?",
      "JPja": "えっ？！　すごいです！\nじゃ\nありませんか！\nいいんでしょうか？\nこんな貴重なものを\nいただいて・・・、",
      "KRko": "앗?! 굉장하네요!\n이잖아요?\n제가 이렇게 귀한 걸\n받아도 괜찮을까요? ?",
      "TWzh": "咦！？太厲害了！\n這不就是\n嗎！\n我真的可以收下\n這麼稀有的生物嗎……。",
      "USen": "I can't believe I'm holding this\n!\nThese are so rare! Are you sure you\nwant to part with it?",
      "USes": "¡No lo puedo creer! ¡Es !\nNo son fáciles de conseguir,\n¿seguro que me l puedo quedar?",
      "USfr": "Je n'arrive pas à croire que je tiens  entre mes pattes!\nC'est un spécimen si rare! Tu es\nvraiment sûr de vouloir t'en\nséparer?"
    }
  },
  {
    "label": "024_a",
    "attribute": "0x0000000000000000",
    "locale": {
      "CNzh": "请收下吧",
      "EUde": "Nimm schon!",
      "EUen": "You take it.",
      "EUes": "Para ti",
      "EUfr": "C'est cadeau.",
      "EUit": "È per te!",
      "EUnl": "Neem maar!",
      "EUru": "Это тебе.",
      "JPja": "どうぞ",
      "KRko": "자, 받아",
      "TWzh": "請收下吧",
      "USen": "You take it.",
      "USes": "Para ti",
      "USfr": "C'est un cadeau."
    }
  },
  {
    "label": "024_b",
    "attribute": "0x0000000000000000",
    "locale": {
      "CNzh": "还是算了",
      "EUde": "Gehört leider mir...",
      "EUen": "I'd like to hold onto it.",
      "EUes": "Es para mí",
      "EUfr": "C'est à moi.",
      "EUit": "È per me...",
      "EUnl": "Ik wil hem houden.",
      "EUru": "Оставлю себе.",
      "JPja": "やっぱ、やめる",
      "KRko": "역시 안 되겠어",
      "TWzh": "還是算了",
      "USen": "I'd like to hold onto it.",
      "USes": "Es para mí",
      "USfr": "C'est à moi."
    }
  },
  {
    "label": "025",
    "attribute": "0x0000000000000600",
    "locale": {
      "CNzh": "咦！！\n真的可以吗？！",
      "EUde": "Was?! Bist du dir auch ganz sicher?",
      "EUen": "Really? Oh wow! Thanks so much!",
      "EUes": "¿De verdad? ¡Qué bien!\n¡Eres el mejor!",
      "EUfr": "Vraiment ? Oh ouah !\nMerci, merci, merci !",
      "EUit": "Davvero? Oh, uaaau!\nMerci, merci, merci!",
      "EUnl": "Echt waar? O, wauw! Enorm bedankt!",
      "EUru": "Правда? Ух ты! Спасибо огромное!",
      "JPja": "えっ！！\n本当に　いいんですね？！",
      "KRko": "네?!\n진짜로요?!",
      "TWzh": "咦！！\n真的可以嗎！？",
      "USen": "Really? Oh wow! Thanks so much!",
      "USes": "¿De verdad? ¡Qué bien!\n¡Eres el mejor!",
      "USfr": "Vraiment? Oh ouah!\nMerci, merci, merci!"
    }
  },
  {
    "label": "026",
    "attribute": "0x0000000000000000",
    "locale": {
      "CNzh": "哎呀，这样啊……\n没关系的，请别介意。\n不管什么种类都可以，\n麻烦你替我钓河里的鱼哦。。",
      "EUde": "Oh, ich verstehe...\nNein wirklich, ist in Ordnung.\nEventuell findest du ja noch einen\nanderen Süßwasserfisch, den du mir\nguten Gewissens abtreten kannst!",
      "EUen": "Of course... You're the one who\nreeled this in, in the first place.\nBut if you catch another river creature that you'd be willing to\ngive to me...",
      "EUes": "Lo entiendo, tú l has pescado,\npor lo que tienes todo el derecho\na quedártel.\nPero si pudieras traerme algún pez\nu otro animalico de agua dulce para\nmí, te lo agradecería.",
      "EUfr": "C'est normal... C'est le fruit de\nta pêche.\nMais si tu remontes une autre\ncréature qui vit dans les rivières,\nça m'intéresse toujours...",
      "EUit": "Ma certo... Sei tu ad aver preso\nquesto bell'esemplare.\nMa se ti capita di prenderne un altro,\nsarei felice di riceverlo in regalo...",
      "EUnl": "Ja, natuurlijk... Jij bent tenslotte\ndegene die hem heeft gevangen.\nMaar als je nog iets in de rivier\nvangt, hoop ik dat je het aan mij wilt\ngeven...",
      "EUru": "Конечно... Это же тебе на удочку\nпопалось это существо.\nНо если ты в речке поймаешь еще\nодно и тебе будет не жалко\nего для меня...",
      "JPja": "あら、そうですか・・・\nいえ、お気になさらず\nどんな種類でも　いいので\n川のおサカナ　お願いしますね、",
      "KRko": "어머, 그러시구나...\n아니에요, 신경 안 쓰셔도 돼요～\n종류는 상관없으니까\n강에 사는 물고기를 부탁드려요, !",
      "TWzh": "哎呀，這樣啊……\n沒事的，請不要介意。\n只要是河川裡的魚，無論什麼種類都可以，\n再麻煩你釣來給我囉，。",
      "USen": "Of course... You're the one who\nreeled this in, in the first place.\nBut if you catch another river creature that you'd be willing to\ngive to me...",
      "USes": "Lo entiendo, tú l pescaste,\npor lo que tienes todo el derecho\na quedártel.\nPero si pudieras traerme un pez\no ser de agua dulce, te lo\nagradecería.",
      "USfr": "C'est normal... C'est le fruit de\nta pêche.\nMais si tu remontes une autre\ncréature qui vit dans les rivières,\nça m'intéresse toujours..."
    }
  },
  {
    "label": "027",
    "attribute": "0x0000000000000000",
    "locale": {
      "CNzh": "哎呀，这样啊……\n没关系的，请别介意。\n不管什么种类都可以，\n麻烦你替我钓海里的鱼哦。。",
      "EUde": "Oh, ich verstehe...\nNein wirklich, ist in Ordnung.\nEventuell findest du ja noch einen\nanderen Salzwasserfisch, den du mir\nguten Gewissens abtreten kannst!",
      "EUen": "No problem. It was your catch.\nStill, if you reel in another fish from\nthe ocean, I'd love to take that one.",
      "EUes": "Ningún problema. Es tod tuy.\nOye, si por casualidad pescas\nalgo más en el mar, ¿me lo podría\nquedar yo?",
      "EUfr": "Pas de souci. C'est toi qui l'as pêché,\nce poisson.\nMais si tu en trouves un autre,\npense à moi, d'accord ?",
      "EUit": "Pas de problème, certo... Questo\nesemplare è tuo.\nMa se ne pescassi un altro, sarei\nfelicissimissima di averlo!",
      "EUnl": "Geen probleem. Het is jouw vangst.\nMaar als je nog een zoutwaterdiertje\nvangt, hou ik me warm aanbevolen.",
      "EUru": "Не волнуйся. Это же твой улов.\nНо если будешь рыбачить в океане,\nи клюнет еще рыбка, заберу ее\nсебе с удовольствием.",
      "JPja": "あら、そうですか・・・\nいえ、お気になさらず\nどんな種類でも　いいので\n海のおサカナ　お願いしますね、",
      "KRko": "어머, 그러세요...?\n아니에요, 신경 쓰지 마세요!\n종류는 아무거나 상관없으니까요,\n바닷물고기를 부탁드려요, !",
      "TWzh": "哎呀，這樣啊……\n沒事的，請不要介意。\n只要是海裡的魚，無論什麼種類都可以，\n再麻煩你釣來給我囉，。",
      "USen": "No problem. It was your catch.\nStill, if you reel in another fish from\nthe ocean, I'd love to take that one.",
      "USes": "Ningún problema. Es tod tuy.\nOye, si de casualidad pescas algo\nmás en el mar, ¿me lo podría quedar\nyo?",
      "USfr": "Pas de souci. C'est toi qui l'as pêché,\nce poisson.\nMais si tu en trouves un autre,\npense à moi, d'accord?"
    }
  },
  {
    "label": "031",
    "attribute": "0x0000000000000000",
    "locale": {
      "CNzh": "谢谢你！\n请务必让我送你一点谢礼。",
      "EUde": "Vielen Dank! Hier, eine Belohnung!",
      "EUen": "Thank you so much!\nAnd this is for you!",
      "EUes": "¡Muchísimas gracias! Toma, esto\nes para ti.",
      "EUfr": "Merci beaucoup !\nTiens, c'est pour toi !",
      "EUit": "Merci, merci, merci! Permettimi\ndi sdebitarmi!",
      "EUnl": "Heel erg bedankt! En dit is voor jou!",
      "EUru": "Спасибо огромное! А это — тебе.",
      "JPja": "ありがとうございます！\nぜひ　お礼をさせてください",
      "KRko": "감사합니다!\n저도 사례를 해드리고 싶어요!",
      "TWzh": "非常感謝！\n請務必讓我送你謝禮！",
      "USen": "Thank you so much!\nAnd this is for you!",
      "USes": "¡Muchísimas gracias! Toma, esto\nes para ti, (catchphrase).",
      "USfr": "Merci beaucoup!\nTiens, c'est pour toi!"
    }
  },
  {
    "label": "032",
    "attribute": "0x0000000000000000",
    "locale": {
      "CNzh": "谢谢你！\n虽然只是小小的心意，我准备了一份谢礼。",
      "EUde": "Tausend Dank! Darf ich mich hiermit\nerkenntlich zeigen?",
      "EUen": "Thank you, thank you!\nHere's a little something\nto show my appreciation.",
      "EUes": "¡Gracias, flor! Quiero darte algo\na cambio de tu amabilidad.",
      "EUfr": "Je te remercie, (surnom) !\nTiens, quelqu'un d'aussi gentil\nmérite bien un petit cadeau.",
      "EUit": "Merci beaucoup! Questo è solo\nun pensierino per dimostrarti\nla mia gratitudine.",
      "EUnl": "Dank je wel, dank je wel! Hier heb je\neen kleinigheidje om je te bedanken.",
      "EUru": "Спасибо, спасибо, спасибо! Это\nтебе в знак благодарности.",
      "JPja": "ありがとうございます！\nささやかですが　お礼を用意しました",
      "KRko": "감사해요!\n사소한 거지만 답례품을 준비했어요～",
      "TWzh": "非常感謝！\n這是一點薄禮，還請你不要嫌棄。",
      "USen": "Thank you, thank you!\nHere's a little something\nto show my appreciation.",
      "USes": "¡Gracias, flor! Quiero darte algo\na cambio de tu amabilidad.",
      "USfr": "Je te remercie, (surnom)!\nTiens, quelqu'un d'aussi gentil\nmérite bien un petit cadeau."
    }
  },
  {
    "label": "033",
    "attribute": "0x0000000000000000",
    "locale": {
      "CNzh": "谢谢你！\n我准备了一份特别的谢礼，\n请你务必收下。",
      "EUde": "Vielen Dank!\nDarf ich mich hiermit revanchieren?",
      "EUen": "Thank you so much!\nCan I please give this\nto you in return?",
      "EUes": "¡Gracias mil! Acepta esto como\nmuestra de mi gratitud, porfa.",
      "EUfr": "Merci beaucoup ! Tiens, en échange,\nje voudrais que tu acceptes ça.",
      "EUit": "Merci, merci, merci! Accetta questo\npiccolo pensiero come segno della\nmia gratitudine.",
      "EUnl": "Heel erg bedankt! Mag ik je dit\ngeven als bedankje?",
      "EUru": "Большое спасибо! Можно я тебе\nтоже кое-что подарю?",
      "JPja": "ありがとうございます！\nとっておきの　お礼を　用意したので\nどうぞ　受け取ってください",
      "KRko": "정말 감사해요!\n따로 답례를 준비했으니까\n부디 받아주세요!",
      "TWzh": "非常感謝！\n這次準備的謝禮是我珍藏許久的東西，\n還請你務必收下。",
      "USen": "Thank you so much!\nCan I please give this\nto you in return?",
      "USes": "¡Gracias! Acepta esto como\nmuestra de mi gratitud.",
      "USfr": "Merci beaucoup! Tiens, en échange,\nje voudrais que tu acceptes ça."
    }
  },
  {
    "label": "034",
    "attribute": "0x0000000000000000",
    "locale": {
      "CNzh": "谢谢你！\n其实呢，我已经\n准备好了一份谢礼。",
      "EUde": "Danke, danke, danke! Ich hab dir\nauch was Kleines als Belohnung\nbesorgt gehabt...",
      "EUen": "Thank you! I got you a small gift\nbecause you said you'd do this.",
      "EUes": "¡Muchas gracias! Te mereces\nun regalito a cambio, ¿no crees?",
      "EUfr": "Merci ! Et pour te montrer ma\ngratitude, je voudrais t'offrir un\ncadeau.",
      "EUit": "Merci! Ti meriti in cambio un bel\nregalino per la tua gentilezza.",
      "EUnl": "Bedankt! Omdat je zei dat je dit zou\ndoen, heb ik al een cadeautje voor je\ngehaald.",
      "EUru": "Спасибо! Вот тебе кое-что за то,\nчто ты согласился помочь.",
      "JPja": "ありがとうございます！\n実は　もう　お礼の品物を\n用意していたんですよ",
      "KRko": "정말 감사합니다!\n사실은 이미 답례로 드릴 것도\n준비해놨답니다!",
      "TWzh": "非常感謝！\n其實我已經準備好了\n要送給你的謝禮囉。",
      "USen": "Thank you! I got you a small gift\nbecause you said you'd do this.",
      "USes": "¡Muchas gracias! Te mereces\nun regalito a cambio, ¿no crees?",
      "USfr": "Merci! Et pour te montrer ma\ngratitude, je voudrais t'offrir un\ncadeau."
    }
  },
  {
    "label": "041",
    "attribute": "0x0000000000000000",
    "locale": {
      "CNzh": "这是，\n代表着我内心的感谢之情。\n请你务必用用看哦。。",
      "EUde": "Ich hoffe, du hast Verwendung für\n .\n(Floskel), noch einmal danke!",
      "EUen": "I hope you can use\n.\n(catchphrase), thanks again.",
      "EUes": "Es , espero que te sirva, .",
      "EUfr": "On a toujours besoin d', pas vrai ? Merci encore, .",
      "EUit": "Spero che ti faccia comodo\n.\nE ancora merci, (catchphrase)!",
      "EUnl": "Ik hoop dat je iets hebt aan  . (catchphrase), nogmaals bedankt.",
      "EUru": "Вот, .\nНадеюсь, тебе пригодится. Еще\nраз спасибо. (catchphrase)!",
      "JPja": "なんです\nわたしからの　感謝の気持ちを　表しました\nぜひ　使ってくださいね、",
      "KRko": "이에요!\n감사의 마음을 담았답니다～\n부디 잘 사용해주세요, !",
      "TWzh": "這是。\n這代表著我對你的感謝，\n還請你善加利用喔，",
      "USen": "I hope you can use\n.\n(catchphrase), thanks again.",
      "USes": "Es ,\nespero que te sirva, (catchphrase).",
      "USfr": "On a toujours besoin d', pas vrai? Merci encore, ."
    }
  },
  {
    "label": "042",
    "attribute": "0x0000000000000000",
    "locale": {
      "CNzh": "这是，\n要是合你心意的话\n就好了……\n这次真是太感谢你了，\n以后有什么事再拜托你咯。。",
      "EUde": ". Ich hoffe, du kannst damit etwas anfangen...\nDu warst mir eine Riesenhilfe!\nIch wusste, ich kann mich auf\ndich verlassen, (Floskel).",
      "EUen": ".\nI hope that's something you like.\nYou've been such a big help. I knew\nI could count on you, (catchphrase).",
      "EUes": "No estaba segura de qué darte,\nasí que al final me he decidido por\n.\n¡Te agradezco mucho la ayuda!",
      "EUfr": ", j'espère que ça te fait plaisir.\nJe savais que je pouvais compter sur\ntoi, .",
      "EUit": "Non sapevo bene cosa darti,\nquindi alla fine ho optato per\n.\nAncora merci per il tuo aiuto!",
      "EUnl": ". Ik hoop dat je er iets aan hebt.\nJe hebt me zo goed geholpen. Ik\nwist wel dat ik op jou kon rekenen,\n(catchphrase).",
      "EUru": "Это .\nНадеюсь, тебе понравится.\nТы меня так выручил. Я знала, что\nна тебя можно положиться.\n(catchphrase).",
      "JPja": "です\n気に入ってもらえたら\nいいんですけど・・・\nほんとうに　助かりました\nまた　何かの時は　お願いしますね、",
      "KRko": "이랍니다!\n마음에 드셨으면 좋겠는데...\n정말로 감사합니다!\n나중에 또 무슨 일이 생기면\n그때도 잘 부탁드려요, !",
      "TWzh": "這是。\n希望你會喜歡\n這個東西……\n我真的非常感謝你，\n以後也請你多多關照喔，。",
      "USen": ".\nI hope that's something you like.\nYou've been such a big help. I knew\nI could count on you, (catchphrase).",
      "USes": "No estaba segura de qué darte,\nasí que al final me decidí por\n.\n¡Te agradezco mucho la ayuda!",
      "USfr": ", j'espère que ça te fait plaisir.\nJe savais que je pouvais compter sur\ntoi, ."
    }
  },
  {
    "label": "043",
    "attribute": "0x0000000000000000",
    "locale": {
      "CNzh": "这是！\n是我仔细考虑后选出来的。\n要是你喜欢就好了。\n幸好你\n帮了我一把，真是太感谢你了。。",
      "EUde": "!\nHoffentlich findest du Gefallen daran.\nDu hast mir sehr geholfen!",
      "EUen": "!\nHope you like it, (nickname).\nBecause you really helped me out!",
      "EUes": "Es . Te mereces mucho más, pero es lo único que puedo ofrecerte.",
      "EUfr": " ! J'espère que ça te fait plaisir, (surnom). Et merci encore !",
      "EUit": "Ho  per te, (nickname). Merci, mi hai aiutato davvero tanto!",
      "EUnl": "! Hopelijk ben je er blij mee, (nickname).\nWant je hebt me echt enorm\ngeholpen!",
      "EUru": "!\nНадеюсь, тебе понравится,\n(nickname).",
      "JPja": "です！\nわたしなりに　選んでみたので\n気に入っていただけると　うれしいです\nの\nおかげで　ほんとに助かりました、",
      "KRko": "이에요!\n열심히 고민해서 골랐는데\n마음에 드셨으면 좋겠네요!\n님,\n정말 감사합니다, !",
      "TWzh": "這是！\n是我精心挑選出來的，\n希望你能夠喜歡。\n幸好願意協助，\n真的幫了我一個大忙，。",
      "USen": "!\nHope you like it, (nickname).\nBecause you really helped me out!",
      "USes": "Es .\nTe mereces mucho más, pero es lo único que puedo ofrecerte.",
      "USfr": "! J'espère que ça te fait plaisir, (surnom). Et merci encore!"
    }
  },
  {
    "label": "044",
    "attribute": "0x0000000000000000",
    "locale": {
      "CNzh": "这是！\n只是我的一点心意，\n今天真的很感谢你～。",
      "EUde": "! Das ist das Mindeste, was ich dir schuldig bin, (Floskel)!",
      "EUen": "!\n(catchphrase)! I felt like I had to do\nsomething in return for your help.",
      "EUes": "Sentí que debía compensarte tanto\nesfuerzo, así que te he comprado\n.",
      "EUfr": " !  ! C'est le moins que je puisse faire, tu m'as tellement aidée.",
      "EUit": "Sentivo di dover ricambiare tanta\ngentilezza, quindi ti ho preso\n.",
      "EUnl": "! (catchphrase)! Ik wilde iets voor je doen om je te bedanken voor je hulp.",
      "EUru": "Это ,\nдержи. (catchphrase)! Хочу тебя\nотблагодарить за помощь.",
      "JPja": "です！\nわたしからの　気持ちです\n今日は　助かりました～、",
      "KRko": "이에요!\n제 마음이랍니다!\n정말 감사드려요～ ～",
      "TWzh": "這是！\n是我的一點心意。\n今天多謝你了，。",
      "USen": "!\n(catchphrase)! I felt like I had to do\nsomething in return for your help.",
      "USes": "Sentí que debía compensarte tanto\nesfuerzo, así que te compré\n.",
      "USfr": "! ! C'est le moins que je puisse faire, tu m'as tellement aidée."
    }
  },
  {
    "label": "045",
    "attribute": "0x0000000000000000",
    "locale": {
      "CNzh": "这是，\n不介意的话就请拿去用吧。\n以后有什么事再拜托你咯！。",
      "EUde": ". Ich hoffe, das bringt rüber, wie dankbar ich dir bin, (Floskel)!",
      "EUen": ".\nI hope you can use it, (catchphrase).",
      "EUes": "¡Es ! ¡Espero que te guste, !",
      "EUfr": "... Fais-en bon usage, .",
      "EUit": "È .\nSpero che ti sia utile, (catchphrase).",
      "EUnl": ". Hopelijk heb je er iets aan, (catchphrase).",
      "EUru": ".\nМожет, пригодится.\n(catchphrase).",
      "JPja": "です\n良かったら　使ってくださいね\nまた　何かの時は　お願いします！　",
      "KRko": "인데요,\n부디 받아주세요!\n앞으로도 잘 부탁드려요! !",
      "TWzh": "這個是。\n不嫌棄的話請拿去用吧。\n以後也請你多多關照喔！。",
      "USen": ".\nI hope you can use it, (catchphrase).",
      "USes": "¡! ¡Espero que te guste, (catchphrase)!",
      "USfr": "... Fais-en bon usage, ."
    }
  },
  {
    "label": "046",
    "attribute": "0x0000000000000000",
    "locale": {
      "CNzh": "这是！\n希望你可以拿去用用。\n今天真是\n太感谢你了！。",
      "EUde": ", als Zeichen meiner Wertschätzung.",
      "EUen": "To show how much I appreciate you...\n!",
      "EUes": "No es gran cosa, pero espero que\n sirva como agradecimiento.",
      "EUfr": ", c'est pour te montrer à quel point tu comptes pour moi.",
      "EUit": "Non è una gran cosa, ma spero che  basti come segno di gratitudine.",
      "EUnl": "  geef ik je om je te laten zien hoezeer ik je hulp waardeer.",
      "EUru": "Это  —\nтебе в знак моей благодарности.",
      "JPja": "です！\n使ってくださると　うれしいです\n今日は　ほんとうに\n助かりました！　",
      "KRko": "이에요!\n잘 써주시면 좋겠어요!\n오늘은 정말로 \n감사했어요! !",
      "TWzh": "這是！\n希望你能夠拿去使用。\n今天真的\n很感謝你！。",
      "USen": "To show how much I appreciate you...\n!",
      "USes": "No es gran cosa, pero espero que\n sirva como agradecimiento.",
      "USfr": ", c'est pour te montrer à quel point tu comptes pour moi."
    }
  },
  {
    "label": "051",
    "attribute": "0x0000000000000000",
    "locale": {
      "CNzh": "真想快点看看呢～！。",
      "EUde": "Oooh! Zeig her, zeig her!",
      "EUen": "Ooh! I can't wait to see it!",
      "EUes": "¡Oooh! ¡Qué ganas de verlo!",
      "EUfr": "Ooh ! J'ai hâte de voir ça !",
      "EUit": "Oooh! Non sto più nella pelle\ndalla curiosità!",
      "EUnl": "O! Ik kan niet wachten!",
      "EUru": "Ой, не терпится посмотреть!",
      "JPja": "早く見たいです～！　",
      "KRko": "빨리 보고 싶어요～! !",
      "TWzh": "我想趕快看看～！。",
      "USen": "Ooh! I can't wait to see it!",
      "USes": "¡Oooh! ¡Qué ganas de verlo!",
      "USfr": "Ooh! J'ai hâte de voir ça!"
    }
  },
  {
    "label": "052",
    "attribute": "0x0000000000000000",
    "locale": {
      "CNzh": "好期待呀！。",
      "EUde": "Dann bin ich ja mal gespannt!",
      "EUen": "My heart's pounding! This is great!",
      "EUes": "¡Qué nervios!",
      "EUfr": "Mon cœur s'emballe ! Quelle bonne\nnouvelle !",
      "EUit": "Il cuore mi batte fortissimissimo!\nChe emoziooone!",
      "EUnl": "Mijn hart bonst! Dit is geweldig!",
      "EUru": "У меня даже сердце колотится от\nрадости! Как здорово!",
      "JPja": "ドキドキしますね！　",
      "KRko": "두근두근하네요! !",
      "TWzh": "好緊張喔！。",
      "USen": "My heart's pounding! This is great!",
      "USes": "¡Qué nervios!",
      "USfr": "Mon cœur s'emballe! Quelle bonne\nnouvelle!"
    }
  },
  {
    "label": "053",
    "attribute": "0x0000000000000000",
    "locale": {
      "CNzh": "哎呀，怎么了吗？\n请赶快让我看看吧。。",
      "EUde": "Oh, was ist denn los?\nBitte zeig mir doch deinen Fang!",
      "EUen": "Is something the matter?\nI'm really excited to see it.",
      "EUes": "¿Pasa algo? Pensaba que tenías\nalgo para mí.",
      "EUfr": "Qu'y a-t-il ? J'ai hâte de voir ce que\ntu m'as apporté, .",
      "EUit": "C'è qualcosa che non va? Sono\nansiosa di vedere cosa mi hai\nportato.",
      "EUnl": "Wat is er aan de hand? Ik kan haast\nniet wachten.",
      "EUru": "Что такое? Мне же очень хочется\nпосмотреть!",
      "JPja": "あら、どうかしましたか？\n早く　見せてくださいね、",
      "KRko": "어머, 왜 그러세요?\n얼른 보여주세요～ !",
      "TWzh": "哎呀，怎麼了嗎？\n請快點讓我看看嘛，。",
      "USen": "Is something the matter?\nI'm really excited to see it.",
      "USes": "¿Pasa algo? Pensaba que tenías\nalgo para mí.",
      "USfr": "Qu'y a-t-il? J'ai hâte de voir ce que\ntu m'as apporté, ."
    }
  },
  {
    "label": "054",
    "attribute": "0x0000000000000000",
    "locale": {
      "CNzh": "呵呵，\n你真会吊胃口呢。。",
      "EUde": "Du machst es gerne spannend, was?",
      "EUen": "You're a master at\nbuilding anticipation!",
      "EUes": "¡Me tienes en ascuas!",
      "EUfr": "Tu es le roi du suspense !",
      "EUit": "Sei davvero molto bravo a farmi\nstare sulle spine tu, eh?",
      "EUnl": "Jij weet de spanning er wel in te\nhouden!",
      "EUru": "Ты меня прямо заинтриговал!",
      "JPja": "うふふ、\nじらすのが　お上手ですね、",
      "KRko": "후훗,\n너무 기다리게 하지 마시고요! !",
      "TWzh": "呵呵，\n你真會吊人胃口呢，。",
      "USen": "You're a master at\nbuilding anticipation!",
      "USes": "¡Me tienes en ascuas!",
      "USfr": "Tu es le roi du suspense!"
    }
  },
  {
    "label": "101",
    "attribute": "0x0000000000000000",
    "locale": {
      "CNzh": "独角仙\n经常停在树干上呢。\n不管什么种类都可以，\n就麻烦你抓一只了。。",
      "EUde": "Gehörnte Käfer sitzen oft an Bäumen.\nBitte bringe mir irgendeinen Käfer\naus dieser Familie.",
      "EUen": "You can usually find rhinoceros\nbeetles climbing on tree trunks.\nHope you can catch one for me.",
      "EUes": "Necesitaba que me atraparas algún\nescarabajo astado. Suelen verse\nen los troncos de los árboles.\n¡Espero que tengas suerte!",
      "EUfr": "Tu devrais trouver des scarabées\nqui ont des cornes sur le tronc des\narbres.\nJ'espère que tu pourras m'en\napporter un.",
      "EUit": "Si vedono spesso degli scarabei\nsui tronchi d'albero.\nSpero tanto che avrai fortuna\ne riuscirai a prendermene uno!",
      "EUnl": "Gehoornde kevers klimmen vaak\ntegen bomen op.\nHopelijk kun je er eentje voor me\nvangen.",
      "EUru": "Жуки-носороги обычно ползают по\nдеревьям.\nНадеюсь, поймаешь мне такого.",
      "JPja": "カブトムシって\nよく木の幹に　とまっていますよね\n種類は　なんでもいいので\nよろしくお願いします、",
      "KRko": "장수풍뎅이는\n나무줄기에 자주 붙어 있더라구요!\n종류는 뭐든 괜찮으니까\n잘 부탁드려요! !",
      "TWzh": "獨角仙的話……\n我經常看到牠停在樹幹上呢。\n無論什麼種類都可以，\n就麻煩你抓來給我囉，。",
      "USen": "You can usually find rhinoceros\nbeetles climbing on tree trunks.\nHope you can catch one for me.",
      "USes": "Necesitaba que me atraparas un\nescarabajo astado. Suelen verse\nen los troncos de los árboles.\n¡Espero que tengas suerte!",
      "USfr": "Tu devrais trouver des scarabées\nà cornes sur le tronc des arbres.\nJ'espère que tu pourras m'en\napporter un."
    }
  },
  {
    "label": "102",
    "attribute": "0x0000000000000000",
    "locale": {
      "CNzh": "锹形虫\n经常停在树干上呢。\n不管什么种类都可以，\n就麻烦你抓一只了。。",
      "EUde": "Hirschkäfer findet man häufig an\nBäumen. Bitte bringe mir irgendeinen\nKäfer aus dieser Familie.",
      "EUen": "Stag beetles seem to like sitting\naround on random tree trunks.\nI really hope you can catch me one.",
      "EUes": "Te pedí que me cazaras algún tipo\nde escarabajo ciervo.\nA esos escarabajos les gusta\nposarse en los troncos de los árboles.",
      "EUfr": "J'ai souvent vu des lucanes sur le\ntronc des arbres.\nJ'espère vraiment que tu en\ntrouveras un pour moi.",
      "EUit": "Sembra che i coleotteri adooorino\nstare sui tronchi d'albero.\nCome vorrei che tu me ne portassi\nuno!",
      "EUnl": "Hertkevers lijken graag op\nwillekeurige boomstammen te zitten.\nIk hoop echt dat je er eentje voor mij\nkunt vangen.",
      "EUru": "Жук-олень любит ползать по стволу\nдерева.\nОчень надеюсь, что ты поймаешь\nмне такого.",
      "JPja": "クワガタって\nよく木の幹に　とまっていますよね\n種類は　なんでもいいので\nよろしくお願いします、",
      "KRko": "사슴벌레는\n나무줄기에 자주 앉아 있어요!\n어떤 종류든 괜찮으니까\n잘 부탁드려요, !",
      "TWzh": "鍬形蟲的話……\n我經常看到牠停在樹幹上呢。\n無論什麼種類都可以，\n就麻煩你抓來給我囉，。",
      "USen": "Stag beetles seem to like sitting\naround on random tree trunks.\nI really hope you can catch me one.",
      "USes": "Te pedí que me atraparas algún tipo\nde escarabajo ciervo.\nA esos escarabajos les gusta\nposarse en los troncos de los árboles.",
      "USfr": "J'ai souvent vu des lucanes sur\nle tronc des arbres.\nJ'espère vraiment que tu en\ntrouveras un pour moi."
    }
  },
  {
    "label": "103",
    "attribute": "0x0000000000000000",
    "locale": {
      "CNzh": "蝉经常停在树干上\n发出蝉鸣声呢。\n不管什么种类都可以，\n就麻烦你抓一只了。。",
      "EUde": "Zikaden sitzen beim Singen gern an\nBäumen. Bitte bringe mir irgendeinen\nVertreter dieser Familie.",
      "EUen": "Cicadas like to sing on tree trunks.\nI hope you can catch one for me!",
      "EUes": "¿No recuerdas qué te pedí? Quería\nque cazaras una cigarra para mí.\nA las cigarras les encanta posarse\nen los troncos y cantar.",
      "EUfr": "Les cigales aiment se poser sur des\ntroncs d'arbres pour chanter.\nTu penses toujours pouvoir en\nattraper une pour moi ?",
      "EUit": "Alle cicale piace stare sedute\nsui tronchi d'albero, lo sapevi?\nSpero che me ne porterai una!",
      "EUnl": "Cicades zitten graag op\nboomstammen te zingen.\nIk hoop dat je er eentje kunt vangen\nvoor mij!",
      "EUru": "Цикады любят сидеть на дереве\nи стрекотать.\nНадеюсь, ты поймаешь мне одну.",
      "JPja": "セミって、よく木の幹にとまって\n鳴いていますよね\n種類は　なんでもいいので\nよろしくお願いします、",
      "KRko": "매미는 주로 나무에 붙어서\n맴맴 울고는 해요!\n어떤 종류든 한 마리만\n부탁드릴게요, !",
      "TWzh": "蟬的話……\n我經常看到牠停在樹幹上，並發出叫聲呢。\n無論什麼種類都可以，\n就麻煩你抓來給我囉，。",
      "USen": "Cicadas like to sing on tree trunks.\nI hope you can catch one for me!",
      "USes": "¿No recuerdas qué te pedí? Quería\nque atraparas una cigarra para mí.\nA las cigarras les encanta posarse\nen los troncos y cantar.",
      "USfr": "Les cigales aiment se poser sur\ndes troncs d'arbres pour chanter.\nTu penses toujours pouvoir en\nattraper une pour moi?"
    }
  },
  {
    "label": "105",
    "attribute": "0x0000000000000000",
    "locale": {
      "CNzh": "我经常看见蝴蝶\n在花丛中飞舞呢。\n不管什么种类都可以，\n就麻烦你抓一只了。。",
      "EUde": "Schmetterlinge fliegen am liebsten\num Blumen herum. Bitte bringe mir\nirgendeinen Vertreter dieser Familie.",
      "EUen": "Butterflies are attracted to certain\nkinds of flowers, (catchphrase).\nI really hope you can net one for me.",
      "EUes": "Alguien tiene que ejercitar\nla memoria, ¿eh? Te pedí que\nme cazaras una mariposa.\nSuelen estar cerca de las flores,\npero les gustan algunas más que\notras.",
      "EUfr": "Les papillons virevoltent autour de\ncertaines fleurs, .\nÀ ton filet, et bonne chasse.",
      "EUit": "Le farfalle sono particolarmente\nattratte da certi tipi di fiori.\nCome sarei feliiice se ne catturassi\nuna per me!",
      "EUnl": "Vlinders zijn dol op bepaalde\nsoorten bloemen, (catchphrase).\nIk hoop echt dat je er eentje voor\nmij kunt vangen.",
      "EUru": "Бабочек привлекают только\nопределенные виды цветов.\n(catchphrase).\nНадеюсь, ты сумеешь поймать мне\nбабочку.",
      "JPja": "チョウチョは　よく花の近くを\n飛んでるのを　見かけますね\n種類は　なんでもいいので\nよろしくお願いします、",
      "KRko": "나비는 꽃 근처에서\n날아다니는 걸 자주 봤답니다!\n종류는 뭐든 좋으니까\n꼭 부탁드려요! !",
      "TWzh": "蝴蝶的話……\n我經常看到牠在花朵附近飛來飛去呢。\n無論什麼種類都可以，\n就麻煩你抓來給我囉，。",
      "USen": "Butterflies are attracted to certain\nkinds of flowers, (catchphrase).\nI really hope you can net one for me.",
      "USes": "Las mariposas suelen estar cerca\nde las flores, pero les gustan algunas\nmás que otras.\nOjalá puedas encontrar una para mí.",
      "USfr": "Les papillons virevoltent autour de\ncertaines fleurs, .\nÀ ton filet, et bonne chasse."
    }
  },
  {
    "label": "106",
    "attribute": "0x0000000000000000",
    "locale": {
      "CNzh": "我倒是经常看见\n蜻蜓在那附近飞呢……\n不管什么种类都可以，\n就麻烦你抓一只了。。",
      "EUde": "Libellen sieht man oft einfach so\nherumfliegen. Bitte bringe mir\nirgendeinen Vertreter dieser Familie.",
      "EUen": "Dragonflies just sort of fly around\nall over the place, (catchphrase).\nI hope you manage to catch me one.",
      "EUes": "Las libélulas son fáciles de ver\nporque están por todas partes.\nMe haría mucha ilusión que\nme trajeras una.",
      "EUfr": "(expression), tu trouveras des\nlibellules à peu près... n'importe où.\nJe te fais confiance pour m'en\nrapporter une.",
      "EUit": "Le libellule svolazzano qua e là.\nSono tipette curiose, n'est-ce pas?\nSpero tanto che ne catturerai una\nper me, (catchphrase)!",
      "EUnl": "(catchphrase), je ziet hier vaak libellen vliegen.\nIk hoop dat je er eentje voor me\nkunt vangen.",
      "EUru": "(catchphrase). Стрекозы везде\nлетают.\nТебе же не сложно будет поймать\nодну для меня?",
      "JPja": "トンボは　その辺りを\nよく　飛んでるんですけどね・・・\n種類は　なんでもいいので\nよろしくお願いします、",
      "KRko": "잠자리는 장소랑 상관없이\n날아다니는 것 같아요...\n어떤 종류든 다 좋으니까\n부탁드려요! !",
      "TWzh": "蜻蜓的話……\n我經常看到牠在這附近飛來飛去呢……\n無論什麼種類都可以，\n就麻煩你抓來給我囉，。",
      "USen": "Dragonflies just sort of fly around\nall over the place, (catchphrase).\nI hope you manage to catch me one.",
      "USes": "Las libélulas son fáciles de ver\nporque están por todas partes.\nMe encantaría que me trajeras una.",
      "USfr": "(expression), tu trouveras des\nlibellules à peu près... n'importe où.\nJe te fais confiance pour m'en\nrapporter une."
    }
  },
  {
    "label": "107",
    "attribute": "0x0000000000000000",
    "locale": {
      "CNzh": "仔细观察花朵的话，\n说不定能发现虫子停留在上面呢。\n不管什么种类都可以，\n就麻烦你抓一只了。。",
      "EUde": "Auf Blumen sitzen häufig Insekten.\nBitte bringe mir irgendeines davon.",
      "EUen": "Watch for a bug of any kind sitting\non a flower, and try to catch it.\nI'd love it if you could bring me one.",
      "EUes": "Quiero cualquier bicho que veas\nposado en una flor.\n¡Espero que consigas cazar uno!",
      "EUfr": "Si tu vois un insecte posé sur une\nfleur, tu as certainement trouvé ce\nque je te demande.\nDans ce cas, attrape-le et viens me\nle montrer, d'accord ?",
      "EUit": "Cerca un insettino qualsiasi\ncomodamente posato su un\nfiore e prova a prenderlo.\nSarei così felice se poi tu potessi\nportarmelo...",
      "EUnl": "Zoek naar een insect dat op een\nbloem zit en probeer het te vangen.\nIk zou het erg fijn vinden als je me\ner eentje kunt brengen.",
      "EUru": "Знаешь насекомых, которые любят\nсидеть на цветах?\nПоймай мне, пожалуйста, такое.",
      "JPja": "花を　よく見ると\nムシが　とまってるかもしれませんね\n種類は　なんでもいいので\nよろしくお願いします、",
      "KRko": "꽃을 자세히 들여다보면\n곤충이 앉아 있을지도 몰라요!\n어떤 종류든 괜찮으니까\n잘 부탁드려요! !",
      "TWzh": "如果仔細地觀察花朵，\n說不定就會發現有昆蟲停在上面喔。\n無論什麼種類都可以，\n就麻煩你抓來給我囉，。",
      "USen": "Watch for a bug of any kind sitting\non a flower, and try to catch it.\nI'd love it if you could bring me one.",
      "USes": "Me gustaría cualquier insecto que\nveas posado en una flor.\n¡Espero que consigas atrapar uno!",
      "USfr": "Si tu vois un insecte posé sur une\nfleur, tu as certainement trouvé ce\nque je te demande.\nDans ce cas, attrape-le et viens me\nle montrer, d'accord?"
    }
  },
  {
    "label": "108",
    "attribute": "0x0000000000000000",
    "locale": {
      "CNzh": "树墩上\n有时候会停着虫子对吧。\n不管什么种类都可以，\n就麻烦你抓一只了。。",
      "EUde": "Auf Baumstümpfen findet man\nhäufig Insekten. Bitte bringe mir\nirgendeines davon.",
      "EUen": "Some bugs like to sit on tree stumps.\nI'd love it if you could catch me one.",
      "EUes": "Quiero que me traigas cualquier\nbicho que veas posado en un tocón.\n¡Me harías muy feliz si lo haces!",
      "EUfr": "Je connais des insectes qui aiment\nse balader sur des souches d'arbres.\nCe serait super, si tu pouvais m'en\ntrouver un.",
      "EUit": "Alcuni insetti amano posarsi sui\nceppi d'albero a prendere il sole.\nSarebbe così bello se tu potessi\nacchiapparne uno per me!",
      "EUnl": "Sommige insecten zitten graag op\nboomstronken.\nIk zou het geweldig vinden als je er\neentje voor me kon vangen.",
      "EUru": "Некоторые насекомые\nс удовольствием сидят на пнях.\nТы не мог бы поймать\nмне такое?",
      "JPja": "切り株の上に　ときどきムシが\nとまってることが　ありますよね\n種類は　なんでもいいので\nよろしくお願いします、",
      "KRko": "그루터기 위에 가끔씩\n곤충이 앉아 있고는 해요～\n종류는 뭐든 괜찮으니까\n부탁드릴게요! !",
      "TWzh": "時常會有昆蟲\n停在樹樁上面呢。\n無論什麼種類都可以，\n就麻煩你抓來給我囉，。",
      "USen": "Some bugs like to sit on tree stumps.\nI'd love it if you could catch me one.",
      "USes": "Quiero que me traigas cualquier\ninsecto que veas posado en un tocón.\n¡Me harías muy feliz si lo haces!",
      "USfr": "Je connais des insectes qui aiment\nse balader sur des souches d'arbres.\nCe serait super, si tu pouvais m'en\ntrouver un."
    }
  },
  {
    "label": "111",
    "attribute": "0x0000000000000000",
    "locale": {
      "CNzh": "只要是生活在河里的鱼，哪种都可以。\n在池塘里游动的鱼也没关系。\n就拜托你了。。",
      "EUde": "Jeder Fisch aus einem Fluss oder\nTeich ist ein Süßwasserfisch.\nIrgend so einen hätte ich gerne!",
      "EUen": "Really, any freshwater fish you can\ncatch for me would be appreciated.",
      "EUes": "Solo quería alguna cosina de agua\ndulce que me puedas pescar. Lo\nprimero que encuentres me valdrá.",
      "EUfr": "Je veux juste un poisson d'eau\ndouce, rien de plus compliqué.",
      "EUit": "Qualsiasi pesce d'acqua dolce\nmi va bene, davvero. Non sono\ncosì esigente.",
      "EUnl": "Echt waar, ik ben blij met elk\nzoetwaterdiertje dat je voor me kunt\nvangen.",
      "EUru": "Я буду рада любой речной рыбе.",
      "JPja": "川のサカナなら　なんでもいいですし、\n池で泳いでるサカナでも　いいので\nお願いしますね、",
      "KRko": "강에 사는 물고기면 뭐든 괜찮고\n연못에 있는 물고기도 괜찮으니까\n한 마리만 부탁드려요! !",
      "TWzh": "只要是河川裡的魚，我都可以接受。\n就算是池子裡游的魚也行，\n就麻煩你釣來給我囉，。",
      "USen": "Really, any freshwater fish you can\ncatch for me would be appreciated.",
      "USes": "Solo quería lo que fuera de agua\ndulce que me pudieras pescar.\nLo primero que encuentres está bien.",
      "USfr": "Je veux juste un poisson d'eau\ndouce, rien de plus compliqué."
    }
  },
  {
    "label": "112",
    "attribute": "0x0000000000000000",
    "locale": {
      "CNzh": "只要是生活在海里的鱼，哪种都可以。\n就拜托你了！。",
      "EUde": "Jeder Fisch aus dem Meer ist ein\nSalzwasserfisch. Irgend so einen\nhätte ich gerne!",
      "EUen": "Any ocean fish works for me.\nHope you can catch me one!",
      "EUes": "Me vale cualquier pececín de agua\nsalada que pesques, o incluso si\nes un cangrejín o algo, también...",
      "EUfr": "Lance ta ligne dans la mer et vois si\ntu peux pêcher un poisson pour moi,\nd'accord ?",
      "EUit": "Qualsiasi pesce di mare mi va bene.\nSpero che me ne porterai uno!",
      "EUnl": "Ik ben blij met elk zoutwaterdiertje.\nIk hoop dat je er eentje voor me kunt\nvangen!",
      "EUru": "Мне подойдет любая морская\nрыба. Я очень надеюсь, что ты\nсможешь поймать мне такую.",
      "JPja": "海のサカナなら　なんでもいいので\nよろしく　お願いしますね！　",
      "KRko": "바닷물고기라면 어떤 거든 괜찮으니까\n부탁드릴게요! !",
      "TWzh": "只要是海裡的魚，我都可以接受。\n就麻煩你釣來給我囉！。",
      "USen": "Any ocean fish works for me.\nHope you can catch me one!",
      "USes": "Cualquier pececín que pesques en\nagua salada, o incluso si es un\ncangrejín o lo que sea...",
      "USfr": "Lance ta ligne dans la mer et vois si\ntu peux pêcher un poisson pour moi,\nd'accord?"
    }
  },
  {
    "label": "201",
    "attribute": "0x0000000000000000",
    "locale": {
      "CNzh": "你愿意替我\n抓对吗！\n我想它们应该会停在树干上，\n请你悄～悄地靠近，\n小心不要把它们吓跑了哦。。",
      "EUde": "  wolltest du für mich fangen!\nSie sitzen oft an Bäumen. Schleiche\ndich ganz sachte an, damit sie nicht\nwegfliegen, (Floskel).",
      "EUen": "I was hoping you could catch \n for me.\nThey like sitting on tree trunks.",
      "EUes": "Esperaba que pudieras cazar\n para mí.\nSe suelen posar en los troncos de\nlos árboles.",
      "EUfr": "Si par chance, tu pouvais attraper , ce serait chouette.\nJe crois qu'on en trouve sur les\ntroncs d'arbres.",
      "EUit": "Speravo che potessi portarmi\n...\nAdooorano posarsi sui tronchi\nd'albero!",
      "EUnl": "Ik hoopte dat je voor mij  kon vinden.\nZe zitten graag op boomstammen.",
      "EUru": "Я хотела, чтобы ты мне поймал\n.\nОни обычно на деревьях водятся.",
      "JPja": "を\nつかまえて　くださるんですよね！\n木の幹に　とまっていると思うので\n逃げられないように\nそ～っと　近づいてくださいね、",
      "KRko": "을\n찾고 계시는군요!\n나무줄기에 붙어 있을 테니까\n도망치지 않도록\n살～금살금 다가가세요, !",
      "TWzh": "你願意幫我\n抓對吧！\n我想牠應該會停在樹幹上，\n所以請你悄～悄地接近，\n這樣才不會把牠嚇跑喔，。",
      "USen": "I was hoping you could catch \n for me.\nThey like sitting on tree trunks.",
      "USes": "Esperaba que pudieras atrapar\n para mí.\nSe suelen posar en los troncos de\nlos árboles.",
      "USfr": "Si par chance, tu pouvais attraper , ce serait gentil.\nJe crois qu'on en trouve sur les\ntroncs d'arbres."
    }
  },
  {
    "label": "202",
    "attribute": "0x0000000000000000",
    "locale": {
      "CNzh": "你愿意替我\n抓对吗！\n有时候在草地上走着走着，\n它们会突然跳出来，\n请小心一点哦。。",
      "EUde": "  wolltest du für mich fangen!\nWenn du durchs Gras läufst, sollte\nirgendwann  hochspringen.\nSei bereit, (Floskel)!",
      "EUen": "You offered to catch me \n...\nYou'll spot them jumping around\nwhen you're walking through grass.",
      "EUes": "Me harías un gran favor si cazaras  para mí.\nSeguro que si andas por la hierba\nalta, te acaba saltando alguno.",
      "EUfr": "Tu as dit que tu attraperais ...\nSi tu vas te promener dans l'herbe,\ntu devrais en trouver.",
      "EUit": "Avevi detto che mi avresti portato\n...\nSe cammini nell'erba alta, vedrai di\ncerto saltellare qualche esemplare.",
      "EUnl": "Je zei dat je voor mij  ging vangen...\nZe springen vaak rond in het gras.",
      "EUru": "Ты пообещал поймать мне\n...\nИх видно, когда гуляешь по траве,\nони все время прыгают.",
      "JPja": "を\nつかまえて　くださるんですよね！\n草地を歩いていたら\nいきなり　とび出てくることがあるので\n気をつけてくださいね、",
      "KRko": "을\n잡고 계시는군요!\n풀밭을 걸어가다 보면\n갑자기 튀어나올 때가 있으니까\n잘 보세요! !",
      "TWzh": "你願意幫我\n抓對吧！\n只要走在草地上，\n牠就會在你意想不到的時候跳出來了，\n所以你可要多注意喔，。",
      "USen": "You offered to catch me \n...\nYou'll spot them jumping around\nwhen you're walking through grass.",
      "USes": "Me harías un gran favor si atraparas\n para mí.\nSeguro que si te vas por el césped,\nencontrarás alguno saltando.",
      "USfr": "Tu as dit que tu attraperais ...\nSi tu vas te promener dans l'herbe,\ntu devrais en trouver."
    }
  },
  {
    "label": "203",
    "attribute": "0x0000000000000000",
    "locale": {
      "CNzh": "你愿意替我\n抓对吗！\n我想它们\n应该会在路边慢慢飞舞。\n要是能找到它们就太幸运了。。",
      "EUde": "  wolltest du für mich fangen!\nSie flattern hier und dort herum,\nvor allem bei Blumen, (Floskel).",
      "EUen": "I hoped you could net me \n...\nYou can find them fluttering around\nhere and there, usually near flowers.",
      "EUes": "Te ofreciste a atrapar  para mí...\nSon fáciles de encontrar, ya que\nnormalmente revolotean cerca\nde alguna flor.",
      "EUfr": "J'aimerais tant que tu attrapes\n...\n volettent un peu partout, mais\npas trop loin des fleurs, d'habitude.",
      "EUit": "Spero che mi porterai presto\n...\nPuoi trovarne dappertutto, ma so\nche adooorano svolazzare nei pressi\ndi fiori freschi e profumati!",
      "EUnl": "Ik hoopte dat je voor mij  kon vangen...\nZe fladderen vaak rond, meestal in\nde buurt van bloemen.",
      "EUru": "Я думала, что ты мне поймаешь\n...\nОни везде летают, особенно рядом\nс цветами.",
      "JPja": "を\nつかまえて　くださるんですよね！\nその辺りを　ひらひら飛んでると\n思うんですけど、\n出会えたら　ラッキーですよね、",
      "KRko": "을\n찾고 계시는 거죠?\n장소를 가리지 않고 날아다니니까\n운이 좋으면 만날 거예요! !",
      "TWzh": "你願意幫我\n抓對吧！\n我想牠應該就在那附近\n輕飄飄地飛舞，如果碰巧遇到，\n那你一定很幸運呢，。",
      "USen": "I hoped you could net me \n...\nYou can find them fluttering around\nhere and there, usually near flowers.",
      "USes": "Ibas a atrapar  para mí...\nSon fáciles de encontrar, ya que\nnormalmente revolotean cerca\nde alguna flor.",
      "USfr": "J'aimerais tant que tu attrapes\n...\n volettent un peu partout, mais\npas trop loin des fleurs, d'habitude."
    }
  },
  {
    "label": "204",
    "attribute": "0x0000000000000000",
    "locale": {
      "CNzh": "你愿意替我\n抓对吗！\n我想它应该在附近飞来飞去，\n不过它飞行的速度非常快，\n请你加油哦！。",
      "EUde": "  wolltest du für mich fangen!\nSie fliegen hier und dort herum.\nLeider so schnell, dass man sie\nkaum erwischt, (Floskel)...",
      "EUen": "I was hoping you could net \n for me.\nI see them whizzing here and there,\nbut they're fast, and hard to catch.",
      "EUes": "Tengo la esperanza de que puedas cazar  para mí.\nSuelen volar de aquí para allá, pero\nson rápidas y difíciles de atrapar.",
      "EUfr": ", c'est tout ce que je te demande.\nJ'en vois régulièrement dans les\nenvirons, mais dès que je sors mon\nfilet,  filent comme le vent.",
      "EUit": "Speravo che mi avresti portato\n.\nSe ne vedono spesso in giro,\nma sono così veloci e difficili\nda prendere.",
      "EUnl": "Ik hoopte dat je voor mij  kon vangen.\nZe snorren vaak langs, maar ze zijn\nbest snel en lastig te vangen.",
      "EUru": "Поймаешь мне\n?\nЯ их постоянно вижу, но они такие\nбыстрые! Их не так просто\nпоймать.",
      "JPja": "を\nつかまえて　くださるんですよね\nその辺りを　飛んでるとは思うんですが\n飛ぶスピードが　速いので\nがんばってください、",
      "KRko": "을\n찾고 계시는군요!\n아무 곳에서나 날아다닐 텐데\n속도가 엄청 빠르니까\n조심하세요, !",
      "TWzh": "你願意幫我\n抓對吧！\n我想牠應該就在那附近飛來飛去，\n但是牠飛的速度非常快，\n請你加油喔，。",
      "USen": "I was hoping you could net \n for me.\nI see them whizzing here and there,\nbut they're fast, and hard to catch.",
      "USes": "Ojalá puedas atrapar  para mí.\nSuelen volar de aquí para allá, pero\nson rápids y difíciles de atrapar.",
      "USfr": ", c'est tout ce que je te demande.\nJ'en vois régulièrement dans les\nenvirons, mais dès que je sors mon\nfilet,  filent comme le vent."
    }
  },
  {
    "label": "205",
    "attribute": "0x0000000000000000",
    "locale": {
      "CNzh": "你愿意替我\n抓对吗！\n它如果躲在花丛中就很难找到了，\n请你仔细观察哦。。",
      "EUde": "  wolltest du für mich fangen!\nSie verstecken sich gern auf Blumen.\nHalte die Augen offen, (Floskel)!",
      "EUen": "You offered to try to catch me \n...\nThey're hard to spot when they're\nsitting on flowers, so look carefully.",
      "EUes": "Me dijiste que ibas a cazar\n para mí...\nSon difíciles de ver cuando se posan\nen las flores, así que fíjate bien.",
      "EUfr": "Je me demandais si ton offre tenait\ntoujours. Tu devais attraper ...\nL'autre jour, il y en avait  sur\nune fleur. J'ai failli ne pas  voir...",
      "EUit": "Avevi promesso di portarmi\n...\nQuesti insetti non sono facili da\nindividuare quando sono posati\nsui fiori, quindi controlla bene!",
      "EUnl": "Je hebt aangeboden om voor mij  te vangen...\nAls ze op bloemen zitten, zijn ze niet\ngoed zichtbaar. Je zult dus goed\nmoeten kijken.",
      "EUru": "Ты предложил поймать для меня\n...\nОни любят на цветах сидеть, но их\nсложно разглядеть, смотри\nвнимательно.",
      "JPja": "を\nつかまえて　くださるんですよね！\n花に　まぎれ込むと　見つけにくいので、\nよ～く　見てくださいね、",
      "KRko": "을\n찾느라 고생이 많으세요!\n꽃 위에 앉으면 찾기가 어려우니까\n자세～히 보셔야 해요, !",
      "TWzh": "你願意幫我\n抓對吧！\n如果牠躲在花裡的話會很難找，\n所以請你要仔～細地觀察喔，。",
      "USen": "You offered to try to catch me \n...\nThey're hard to spot when they're\nsitting on flowers, so look carefully.",
      "USes": "Me dijiste que ibas a atrapar\n para mí...\nSon difíciles de ver cuando se posan\nen las flores, así que fíjate bien.",
      "USfr": "Je me demandais si ton offre tenait\ntoujours. Tu devais attraper ...\nL'autre jour, il y en avait  sur\nune fleur. J'ai failli ne pas  voir..."
    }
  },
  {
    "label": "206",
    "attribute": "0x0000000000000000",
    "locale": {
      "CNzh": "你愿意替我\n抓对吗！\n要是能正好看见\n它们停在树墩上就好了。。",
      "EUde": "  wolltest du für mich fangen!\nSie sitzen oft auf Baumstümpfen,\n(Floskel).",
      "EUen": "You said you would try catch \n for me...\nWatch for them on tree stumps.",
      "EUes": "Dijiste que me harías el favor de\natrapar  para mí.\nBusca bien cerca de tocones\nde árbol, les gusta ponerse ahí.",
      "EUfr": "Tu m'as dit que tu attraperais  pour moi...\nIl paraît qu'il y en a sur les souches.",
      "EUit": "Avevi promesso di portarmi\n...\nTi consiglio di tenere d'occhio\ni ceppi d'albero!",
      "EUnl": "Je zei dat je voor mij  ging vangen...\nZe zitten vaak op boomstronken.",
      "EUru": "Ты обещал поймать для меня\n...\nОни любят на пнях сидеть.",
      "JPja": "を\nつかまえて　くださるんですよね！\n切り株の上に　とまっているところに\n出会えると　いいんですけど、",
      "KRko": "을\n찾는 중이시군요!\n그루터기 위에 앉아 있을 때\n발견하면 참 좋겠어요! !",
      "TWzh": "你願意幫我\n抓對吧！\n希望能碰巧遇到\n牠停在樹樁上的時候，。",
      "USen": "You said you would try catch \n for me...\nWatch for them on tree stumps.",
      "USes": "Dijiste que me harías el favor de\natrapar  para mí.\nBusca bien cerca de tocones\nde árbol, les gusta ponerse ahí.",
      "USfr": "Tu m'as dit que tu attraperais  pour moi...\nIl paraît qu'il y en a sur les souches."
    }
  },
  {
    "label": "207",
    "attribute": "0x0000000000000000",
    "locale": {
      "CNzh": "你愿意替我\n抓对吗！\n听说有人在沙滩发现了它们，\n你要不要去看看？。",
      "EUde": "  wolltest du für mich fangen!\nIch hab gehört, letztens hat jemand\nein Exemplar am Strand gesehen,\n(Floskel).",
      "EUen": "I hope you're able to catch \n for me.\nI overheard someone say they'd\nseen one on the beach recently...",
      "EUes": "Espero que logres capturar\n...\nHe oído que han visto a un\nen la playa no hace mucho.",
      "EUfr": " que tu devais me rapporter, ça tient toujours ?\nJ'ai entendu dire qu'on en trouve\nsur les plages...",
      "EUit": "Spero che riuscirai a portarmi\n.\nA quanto pare, la spiaggia è il loro\nambiente ideale...",
      "EUnl": "Ik hoop zo dat je voor mij  kunt vangen.\nIk hoorde iemand zeggen dat er\nlaatst eentje op het strand was...",
      "EUru": "Надеюсь, у тебя получится поймать\n\nдля меня.\nГоворят, их недавно на пляже\nвидели...",
      "JPja": "を\nつかまえて　くださるんですよね！\n砂浜で見たという　目撃情報があるので、\n行ってみては　いかがでしょう、",
      "KRko": "을\n찾고 계시는 거 맞죠?\n모래사장에서 봤다는 목격담이 있으니까\n한번 가보시는 게 어때요? ?",
      "TWzh": "你願意幫我\n抓對吧！\n據說有人曾經在沙灘上看過牠，\n要不要過去看看呢？。",
      "USen": "I hope you're able to catch \n for me.\nI overheard someone say they'd\nseen one on the beach recently...",
      "USes": "Espero que logres atrapar\n...\nEscuché que vieron un\npor la playa no hace mucho.",
      "USfr": " que tu devais me rapporter, ça tient toujours?\nJ'ai entendu dire qu'on en trouve\nsur les plages..."
    }
  },
  {
    "label": "211",
    "attribute": "0x0000000000000000",
    "locale": {
      "CNzh": "你愿意替我\n钓对吗！\n我想它们应该生活在河里，\n希望你能找到它们。。",
      "EUde": "  wolltest du für mich fangen!\nIrgendwo im Fluss müsste eigentlich\n zu finden sein, (Floskel).",
      "EUen": "You offered to catch me \n...\nWatch for any shadows swimming\nupriver, and cast your line in!",
      "EUes": "Te ofreciste a pescar  para mí, ¿recuerdas?\nFíjate en las sombras que se mueven\nrío arriba y lánzales el anzuelo.",
      "EUfr": "Tu devais pêcher  pour moi...\nJ'en ai déjà vu dans des rivières.",
      "EUit": "Avevi promesso di portarmi\n...\nCerca di individuare le ombre che\nrisalgono la corrente nel fiume e\ngetta l'amo!",
      "EUnl": "Je hebt aangeboden om \n te vangen...\nZoek schaduwen die stroomopwaarts\ngaan en werp je lijn uit!",
      "EUru": "Ты предлагал поймать для меня\n...\nКак только увидишь темное пятно,\nплывущее вверх по реке —\nзакидывай удочку!",
      "JPja": "を\n釣ってきて　くださるんですよね！\n川には　いるはずなので\n出会えるといいんですけど、",
      "KRko": "은\n아직 잡지 못하셨나 봐요!\n강에서 낚시하면\n잡을 수 있을 거예요, !",
      "TWzh": "你願意幫我\n釣對吧！\n我想牠應該是在河裡生活，\n希望你能遇到牠，。",
      "USen": "You offered to catch me \n...\nWatch for any shadows swimming\nupriver, and cast your line in!",
      "USes": "Te ofreciste a pescar  para mí, ¿recuerdas?\nFíjate en las sombras que se mueven\nrío arriba y lánzales el anzuelo.",
      "USfr": "Tu devais pêcher  pour moi...\nJ'en ai déjà vu dans des rivières."
    }
  },
  {
    "label": "212",
    "attribute": "0x0000000000000000",
    "locale": {
      "CNzh": "你愿意替我\n钓对吗！\n我想它们应该生活在池塘里，\n希望你能找到它们。。",
      "EUde": "  wolltest du für mich fangen!\nIrgendwo im Teich müsste eigentlich\n zu finden sein, (Floskel).",
      "EUen": "Thanks for trying to catch me \n!\nI think I saw one in a nearby pond...",
      "EUes": "Gracias por intentar cazar\n para mí.\nCreo que he visto un nadando\nen un estanque cercano.",
      "EUfr": "Merci encore pour ton aide !\n aime vivre dans les lacs.",
      "EUit": "Merci di aver accettato di portarmi\n!\nCredo di averne vist  in\nun laghetto qui vicino...",
      "EUnl": "Bedankt dat je voor mij probeert \n te vangen!\nVolgens mij zag ik er eentje in een\nvijver hier in de buurt...",
      "EUru": "Спасибо, что согласился поймать\n\nдля меня!\nПо-моему, в нашем пруду\nони водятся...",
      "JPja": "を\n釣ってきて　くださるんですよね！\n池に　いるはずなので\n出会えるといいんですけど、",
      "KRko": "을\n잡고 계시나요?\n연못에는 분명히 있을 테니까\n잡기를 바랄게요, !",
      "TWzh": "你願意幫我\n釣對吧！\n我想牠應該是在池塘裡生活，\n希望你能遇到牠，。",
      "USen": "Thanks for trying to catch me \n!\nI think I saw one in a nearby pond...",
      "USes": "Gracias por intentar atrapar\n para mí.\nCreo que he visto un nadando\nen un estanque cercano.",
      "USfr": "Merci encore pour ton aide!\n aime vivre dans les lacs."
    }
  },
  {
    "label": "213",
    "attribute": "0x0000000000000000",
    "locale": {
      "CNzh": "你愿意替我\n钓对吗！\n我想它们应该生活在河水流入海中的地方……\n也就是入海口附近……\n希望你能找到它们。。",
      "EUde": "  wolltest du für mich fangen!\nSie halten sich wohl besonders\ngern dort auf, wo der Fluss ins\nMeer mündet, (Floskel).",
      "EUen": "I'm happy you offered to catch \n for me!\nI've heard they're usually swimming\nwhere the ocean meets fresh water...",
      "EUes": "Espero que consigas pescar\n para mí.\nPor lo que sé, acostumbran a nadar\ndonde el río y el mar se unen.",
      "EUfr": "Tu vas vraiment pêcher  pour moi ?\nSi ça peut t'aider, il y en aurait dans\nles estuaires...",
      "EUit": "Sono così feliiice che tu ti sia\ngentilmente offerto di portarmi\n!\nHo sentito dire che se ne trovano\ndove il mare e l'acqua dolce si\nuniscono...",
      "EUnl": "Ik ben blij dat je hebt aangeboden om  voor me te vangen!\nIk heb gehoord dat ze meestal\nzwemmen waar een rivier of meer in\nde oceaan uitmondt...",
      "EUru": "Я так рада, что ты мне поймаешь\n!\nЯ слышала, они водятся там, где\nрека впадает в океан...",
      "JPja": "を\n釣ってきて　くださるんですよね！\n川が海に　流れ込む辺り・・・\n河口にいるはずなんです・・・\n出会えるといいんですけど、",
      "KRko": "을\n잡고 계시나 봐요!\n강이 바다로 흘러가는 곳...\n하구에 분명히 있을 거예요...\n잡으면 좋겠네요, !",
      "TWzh": "你願意幫我\n釣對吧！\n我想牠應該是在河川的出海口……\n也就是河口附近生活……\n希望你能遇到牠，。",
      "USen": "I'm happy you offered to catch \n for me!\nI've heard they're usually swimming\nwhere the ocean meets fresh water...",
      "USes": "Espero que consigas pescar\n para mí.\nPor lo que sé, acostumbran a nadar\ndonde el río y el mar se unen.",
      "USfr": "Tu vas vraiment pêcher  pour moi?\nSi ça peut t'aider, il y en aurait dans\nles estuaires..."
    }
  },
  {
    "label": "214",
    "attribute": "0x0000000000000000",
    "locale": {
      "CNzh": "你愿意替我\n钓对吗！\n我想它们应该生活在海里，\n希望你能找到它们。。",
      "EUde": "  wolltest du für mich fangen!\nIrgendwo im Meer müsste eigentlich\n zu finden sein, (Floskel).",
      "EUen": "I was hoping you'd catch me \n...\nI hear they'll swim right in close to\nshore sometimes, just off the beach!",
      "EUes": "Tengo la confianza de que podrás\npescar  para mí.\nHe leído que suelen nadar cerca\nde la playa.",
      "EUfr": "J'espère que tu vas réussir à pêcher\n...\nLa dernière fois, j'en ai vu nager\nprès de la plage.",
      "EUit": "Speravo che potessi portarmi\n...\nHo sentito che nuotano spesso\nvicino alla riva, non lontano dalla\nspiaggia!",
      "EUnl": "Ik hoop dat je voor mij \n vangt...\nIk heb gehoord dat ze vaak in de\nbuurt van de kust zwemmen, vlak\nnaast het strand!",
      "EUru": "Я надеялась, что ты мне поймаешь\n...\nОни обычно у побережья плавают.",
      "JPja": "を\n釣ってきて　くださるんですよね！\n海に　いるはずなので\n出会えるといいんですけど、",
      "KRko": "은\n아직 잡지 못하셨나 봐요?\n바다에서 낚시하면\n잡을 수 있을 거예요, !",
      "TWzh": "你願意幫我\n釣對吧！\n我想牠應該是在海裡生活，\n希望你能遇到牠啊，。",
      "USen": "I was hoping you'd catch me \n...\nI hear they'll swim right in close to\nshore sometimes, just off the beach!",
      "USes": "Espero que puedas pescar \n para mí.\nHe leído que suelen nadar cerca\nde la playa.",
      "USfr": "J'espère que tu vas réussir à pêcher\n...\nLa dernière fois, j'en ai vu nager\nprès de la plage."
    }
  }
]