﻿[
  {
    "label": "001",
    "attribute": "0x0000000000000000",
    "locale": {
      "CNzh": "小丑鱼的花纹真的是\n超～级可爱又好漂亮呀～\n能不能把它整合成新潮流呢？。",
      "EUde": "Die Muster auf dem Anemonenfisch\nsind so voll mega und cool und\nstylish und DER WAHNSINN!\nIch will ein Outfit, das genauso\naussieht, (Floskel)!",
      "EUen": "The patterns on clown fish are SO\nadorbs. And chic. And fab! Maybe I\ncould work that look into my outfit?",
      "EUes": "Las rayas del pez payaso son de\nlo más estupén, ¿no crees?\n¿Podría hacer un vestido con\nese estampado?",
      "EUfr": "T'as vu un peu les motifs sur\nle poisson-clown ?! En vrai, je suis\ntrop fan !\nJe devrais peut-être m'en inspirer,\npour mon costume de scène...",
      "EUit": "Il motivo sul corpo del pesce\npagliaccio è da paura, mi piace\nuna cifra!\nForse dovrei crearmi un look\nsimile...",
      "EUnl": "Het patroon van die clownvis is\necht zo superonwijsbizarschattig!\nHoe stop ik dat in een outfit?",
      "EUru": "Узор этой рыбы-клоуна такой\nкрутой, и стильный, и милый!\nМожет, применить такой в наряде?",
      "JPja": "クマノミって、ちょーオシャレだよね～\nあの　カワイイもよう、ファッションに\n取り入れられないかな？　",
      "KRko": "흰동가리 말야, 진짜 예쁘지 않아?\n저 귀여운 무늬를 패션에\n활용할 수는 없으려나? ?",
      "TWzh": "是說小丑魚感覺超～時髦的對吧～\n那個可愛的模樣，\n不知道能不能加進時尚設計裡呢？。",
      "USen": "The patterns on clown fish are SO\nadorbs. And chic. And fab! Maybe I\ncould work that look into my outfit?",
      "USes": "Las rayas del pez payaso son de\nlo más lindas, ¿no crees?\nDebería encargar un vestido con\nese patrón.",
      "USfr": "T'as vu un peu les motifs sur\nle poisson-clown?! En vrai, je suis\ntrop une fan!\nJe devrais peut-être m'en inspirer,\npour mon costume de scène..."
    }
  },
  {
    "label": "002",
    "attribute": "0x0000000000000000",
    "locale": {
      "CNzh": "虽然1条凤尾鱼单独看起来又小又可爱，\n但是聚在一起就好有魄力呀～\n像不像前往演唱会场的观众们？。",
      "EUde": "Die sind so voll klein und echt süß,\noder? Aber ganz viele davon sind\nRICHTIG gruselig. Wie Bäume...",
      "EUen": "These guys are small and cute on\ntheir own...but they're kind of freaky\nin a big group. Kind of like trees...",
      "EUes": "Estos pececitos así sueltos son muy\nmonos, pero luego se juntan muchos\ny dan como miedo.",
      "EUfr": "Tout seuls, je les trouve trop choupi !\nPar contre, quand y en a beaucoup,\nje peux pas m'empêcher de flipper.\nÇa me fait pareil avec les insectes...",
      "EUit": "Queste acciughine sono così carine!\nSe prese individualmente. In gruppo,\nmi inquietano un po'...",
      "EUnl": "Eén van deze visjes is best schattig?\nMaar een groep ervan is best wel\neng. Net als bomen...",
      "EUru": "Они такие маленькие и миленькие,\nкогда по одному! Но жуткие,\nкогда их много. Как деревья...",
      "JPja": "アンチョビって　1匹だと　カワイイけど、\nまとまってると　ハクリョクあるよねー\nライブ会場に向かう人達みたいな？　",
      "KRko": "멸치는 한 마리만 보면 귀여운데\n모여 있으면 박력이 넘쳐!\n꼭 공연장에 모인 사람들처럼, !",
      "TWzh": "雖然鳳尾魚單一隻看起來都小小的很可愛，\n但只要聚在一起，場面就很有魄力呢～\n就像要去現場演唱會的人群一樣？。",
      "USen": "These guys are small and cute on\ntheir own...but they're kind of freaky\nin a big group. Kind of like trees...",
      "USes": "Estos pececitos son superadorables,\npero cuando se juntan muchos dan\nun poquito de miedo...",
      "USfr": "Tout seuls, je les trouve trop choupi!\nPar contre, quand y en a beaucoup,\nje peux pas m'empêcher de capoter.\nÇa me fait pareil avec les insectes..."
    }
  },
  {
    "label": "003",
    "attribute": "0x0000000000000000",
    "locale": {
      "CNzh": "海天使那天使般的模样好棒哦～\n它吃东西的姿态\n一定也是超～级可爱的吧～。",
      "EUde": "See-Engel sind so süüüß, ich DREH\nDURCH! Die könnten nicht mal\nunsüß aussehen, wenn sie wollten!",
      "EUen": "The sea butterfly is SO beautiful\nswimming around. They're probably\neven pretty when they're eating!",
      "EUes": "Ay, por favor, qué rara y graciosa\ny cuqui es la mariposa marina...",
      "EUfr": "La clione est vraiment adorable. Mais\nil paraît qu'elle ferait qu'une bouchée\nd' comme moi !",
      "EUit": "L'adorabile cavolinia è troooppo\ncarina! Allucinante! Chissà come\nfa a sembrare così dolce e innocua...",
      "EUnl": "De zeevlinder is echt zo schattig, ik\nsterf zowat? Die zijn vast zelfs nog\nschattig als ze eten!",
      "EUru": "Морской ангел такой миленький,\nно вроде бы опасный. Уверена,\nон миленький, даже когда ест!",
      "JPja": "クリオネの天使っぽさは　ヤバイよね～\nきっとゴハンを　食べるすがたも\nちょーかわいいんだろうな～、",
      "KRko": "클리오네는 정말 천사 같고 예쁘지～\n틀림없이 밥 먹는 모습도\n깜찍할 거야～ !",
      "TWzh": "海天使這天使般的模樣，真是超棒的說～\n我想牠吃東西的樣子，\n應該也是超～可愛的吧～。",
      "USen": "The sea butterfly is SO beautiful\nswimming around. They're probably\neven pretty when they're eating!",
      "USes": "Qué curiosa es la mariposa marina...\nAunque es bastaaante adorable.",
      "USfr": "Le papillon de mer est vraiment adorable. \nMais il paraît qu'il ferait qu'une \nbouchée d' \ncomme moi!"
    }
  },
  {
    "label": "004",
    "attribute": "0x0000000000000000",
    "locale": {
      "CNzh": "这些锦鲤看起来\n给人一种成熟的感觉，\n有点羡慕它们呀～！。",
      "EUde": "Koi-Karpfen sehen immer so voll\nlässig aus, findest du nicht?\nBin irgendwie total neidisch.",
      "EUen": "Koi have this aura of, you know,\n\"not giving a care.\" We can learn\na lot from nature.",
      "EUes": "La carpa koi es como muy elegante,\n¿no? Parece que vaya de gala.",
      "EUfr": "La carpe koï a toujours l'air de se la\npéter, genre « j'me fiche de tout ».\nSans rire... je l'envie un peu.",
      "EUit": "Le koi hanno quest'aria superiore,\ncome se non gliene importasse nulla\ndi nulla. Cioè... le invidio tanto!",
      "EUnl": "Koikarpers hebben echt, zeg maar,\neen zorgeloos aura? Ik moet\nbekennen... dat ik best jaloers ben.",
      "EUru": "Карп кои выглядит так, как будто\nему всегда все равно. Не буду\nврать... Я немного завидую.",
      "JPja": "ニシキゴイって、なんだか\nフンイキが　オトナっぽくて\nちょっと　あこがれちゃうな～！　",
      "KRko": "비단잉어는 왠지 모르게\n어른스러운 분위기가 풍겨서\n조금 부러워～! !",
      "TWzh": "我總覺得錦鯉啊，\n看起來有種成熟的氣質，\n讓我有點羨慕呢～！。",
      "USen": "Koi have this aura of, you know,\n\"not giving a care.\" We can learn\na lot from nature.",
      "USes": "La carpa koi es como muy elegante,\n¿no? Parece que está de gala.",
      "USfr": "La carpe koï a toujours l'air d'être\nzen, genre « j'me fiche de tout ».\nSans rire... je l'envie un peu."
    }
  },
  {
    "label": "005",
    "attribute": "0x0000000000000000",
    "locale": {
      "CNzh": "一看到这种孔雀鱼，\n就好想穿上花边超多又轻飘飘的裙子\n跳一支舞呀～。",
      "EUde": "Wenn ich Guppys seh, will ich total\ndas Glitzer-Outfit anziehn und\nTANZEN!",
      "EUen": "This guppy makes me want to do a\nfish opera. I'd wear a frilly dress and\ndance under shimmering lights.",
      "EUes": "Qué cuqui es el gupi. Hasta el\nnombre que tiene es cuqui...\n¡Gupi!",
      "EUfr": "Quand je regarde le guppy, j'ai envie\nde mettre une robe à volants et de\ndanser pendant des heures !",
      "EUit": "Guardare i guppy mi fa venir voglia\ndi mettermi un vestito pieno di pizzi\ne merletti e di ballare a perdifiato!",
      "EUnl": "Als ik naar die guppy kijk, dan wil ik\neen glitterjurkje aantrekken en gaan\ndansen!",
      "EUru": "Смотрю на гуппи и сразу хочется\nнадеть платье с оборками\nи танцевать!",
      "JPja": "グッピーを見てると、\nフリフリで　ヒラヒラの　ドレスを着て\nダンスしたくなっちゃうなー、",
      "KRko": "구피를 보면\n하늘하늘하고 살랑거리는\n드레스를 입고 춤추고 싶어져, !",
      "TWzh": "只要看著孔雀魚，\n連我都想穿上有荷葉邊又輕飄飄的洋裝，\n跟牠一起跳舞了呢～。",
      "USen": "This guppy makes me want to do a\nfish opera. I'd wear a frilly dress and\ndance under shimmering lights.",
      "USes": "El gupi tiene un estilo único. ¡Me\ndan ganas de ponerme un vestido\ncon volantes y bailar!",
      "USfr": "Quand je regarde le guppy, j'ai envie\nde mettre une robe à volants et de\ndanser pendant des heures!"
    }
  },
  {
    "label": "006",
    "attribute": "0x0000000000000000",
    "locale": {
      "CNzh": "光是有这么一条斗鱼，\n就感觉整个空间华丽了不少哦～！。",
      "EUde": "Ein Kampffisch ist IMMER stylish.\nAber zwei gleichzeitig sehen aus wie\nFashion-Rivalen!",
      "EUen": "Betta are SO vogue. I always feel\nunderdressed when I'm in the\nsame room as one.",
      "EUes": "¿Has visto qué pedazo de estola de\nserie tiene el pez betta? Yo también\nquiero ser así de natural y elegante.",
      "EUfr": "Un combattant fait déjà son petit\neffet, dans un aquarium. Mais deux...\non se croirait sur un ring de boxe !",
      "EUit": "Basta una betta per rendere qualsiasi\nambiente super stiloso. Ma mai\nmetterne due insieme...",
      "EUnl": "Een Siamese kempvis maakt dit een\nsuuupermodieuze plek. Met twee is\nhet een modeduel!",
      "EUru": "Всего один сиамский петушок\nсделает твой домик моднее. А два\nтаких точно начнут драться!",
      "JPja": "ベタが一匹　いるだけで、\n空間が　オシャレになるよね～！　",
      "KRko": "베타가 한 마리만 있어도\n분위기가 확 좋아지는 것 같아～! !",
      "TWzh": "光是一隻鬥魚，就讓整個空間\n看起來都變時髦了耶～！。",
      "USen": "Betta are SO vogue. I always feel\nunderdressed when I'm in the\nsame room as one.",
      "USes": "¿Te fijaste en las aletas de ese pez\nbetta? Son superbonitas y coloridas.\n¡Como mi atuendo de concierto ideal!",
      "USfr": "Un combattant fait déjà son petit\neffet, dans un aquarium. Mais deux...\non se croirait sur un ring de boxe!"
    }
  },
  {
    "label": "007",
    "attribute": "0x0000000000000000",
    "locale": {
      "CNzh": "拟刺尾鲷的这一抹蓝色\n真的是好漂亮呀！\n黑色和黄色的搭配也很巧妙哦～。",
      "EUde": "Die Farbe von einem Paletten-\nDoktorfisch ist immer strahlend\nund echt hübsch! So wie ich!",
      "EUen": "The surgeonfish's blue is so bright\nand pretty! And the black and\nyellow? It's so chic I could scream!\nBut I won't, because Blathers doesn't\nlike it when we do that.",
      "EUes": "El azul del pez cirujano es brillante\ny hermoso... ¡como yo!",
      "EUfr": "Le bleu de la robe du poisson\nchirurgien est flashy et classe à la\nfois ! Un peu comme moi, en fait !",
      "EUit": "Il blu del pesce chirurgo è così\nintenso e scintillante! \nBeh, sì... cioè, proprio come me!",
      "EUnl": "Het blauw van de doktersvis is echt\nzo superlevendig en mooi en zo! Net\nals ik!",
      "EUru": "Флаговый хирург такой яркий\nи миленький! Прямо как я!",
      "JPja": "ナンヨウハギの　青色って\n本当に　あざやかでキレイだよね！\n黒と黄色のバランスも　ゼツミョウ～、",
      "KRko": "블루탱의 푸른 빛깔...\n정말 선명하고 예쁘지 않아?\n검정과 노랑의 조화도 멋져～ !",
      "TWzh": "擬刺尾鯛身上的藍色，\n真的好鮮艷，好美唷！\n黑與黃的平衡色彩也好棒～",
      "USen": "The surgeonfish's blue is so bright\nand pretty! And the black and\nyellow? It's so chic I could scream!\nBut I won't, because Blathers doesn't\nlike it when we do that.",
      "USes": "El azul del pez cirujano es brillante\ny hermoso... ¡como yo!",
      "USfr": "Le bleu de la robe du poisson-\nchirurgien est intense et cool à la\nfois! Un peu comme moi, en fait!"
    }
  },
  {
    "label": "008",
    "attribute": "0x0000000000000000",
    "locale": {
      "CNzh": "这种远东哲罗鱼据说会吃掉\n任何见到的东西哦……\n那也怪不得会长这么大啦～！。",
      "EUde": "Huchen fressen ungefähr alles!\nAlsooo... Ich hätte da zu Hause noch\nein paar Sachen, die unbedingt\nverschwinden müssen...",
      "EUen": "Stringfish eat just about everything!\nNo wonder they're so huge.",
      "EUes": "¡Ese pez taimén se come todo\nlo que pilla! Me recuerda a cierto\nvecino que conocemos...",
      "EUfr": "Le dai yu mange tout et n'importe\nquoi ! Hmmm... J'ai deux, trois trucs,\nchez moi, qui doivent disparaître...",
      "EUit": "Il taimen mangia di tutto! Ora che ci\npenso... Nel frigo ho un po' di cose\ndi cui dovrei liberarmi...",
      "EUnl": "Donauzalmen eten dus zo'n beetje\nalles! En laat ik nou thuis nog wat \ndingen hebben waar ik van af wil...",
      "EUru": "Таймень ест все подряд! Хм...\nА у меня дома есть продукты,\nот которых мне нужно избавиться...",
      "JPja": "イトウって　なんでもかんでも\n食べちゃうんだってね・・・\nそりゃ大きくもなるよねー、",
      "KRko": "일본연어는 뭐든 가리지 않고\n다 먹어치운대...\n덩치가 큰 것도 이해가 돼! !",
      "TWzh": "是說遠東哲羅魚這種魚，\n還真是什麼都吃耶……\n難怪可以長得這麼大～！。",
      "USen": "Stringfish eat just about everything!\nNo wonder they're so huge.",
      "USes": "¡Ese pez taimén se come todo\nlo que encuentra! Me recuerda a\ncierto vecino que conocemos...",
      "USfr": "Le dai yu mange tout et n'importe\nquoi! Hmm... J'ai deux, trois trucs,\nchez moi, qui doivent disparaître..."
    }
  },
  {
    "label": "009",
    "attribute": "0x0000000000000000",
    "locale": {
      "CNzh": "巨骨舌鱼头上这些闪闪发光的皱纹\n看起来就像铠甲一样，真的好帅呀！\n还有许多图案，怎么都看不厌哦～。",
      "EUde": "Diese Rillen auf dem Arapaima sehen\naus wie Kratzer auf einer Rüstung!\nWär vielleicht eine Idee für ein\nMusikvideo! Aber in Rüstung kann\nman schlecht tanzen, oder?",
      "EUen": "The scales on the arapaima look like\narmor. I should wear armor onstage.\nNot a lot of pop stars do that.",
      "EUes": "Las escamas de ese pirarucú parecen\nuna armadura, ¿a que sí?\nAnda que no molaría llevar algo\nasí para ir en plan princesa guerrera\na hacer la compra o algo así.",
      "EUfr": "Les rides de l'arapaïma font comme\ns'il portait une armure ! C'est fou, je\nme lasse pas de tous ces effets !",
      "EUit": "Le squame striate del pirarucù\nsembrano un'armatura! Anch'io\nvoglio un'armatura, da principessa!",
      "EUnl": "Die rimpels van de arapaima zijn net\neen harnas! Als ik zoiets had, was\nik een onwijs gave glimprinses!",
      "EUru": "Рельеф арапаимы похож на броню!\nНосила бы я броню, она была бы\nсупермилой!",
      "JPja": "ピラルクの頭のぎらぎらしたシワ、\nヨロイみたいで　イケてるよね！\nいろんなもようがあって　あきないよ～、",
      "KRko": "피라루쿠 머리의 번쩍번쩍한 주름은\n꼭 갑옷 같아서 멋지지 않아?\n아무리 봐도 질리지 않는다니까～ !",
      "TWzh": "巨骨舌魚頭上閃亮亮的皺褶，\n看起來就像鎧甲一樣，超有型的說！\n而且還有各種花紋，都看不膩呢～。",
      "USen": "The scales on the arapaima look like\narmor. I should wear armor onstage.\nNot a lot of pop stars do that.",
      "USes": "Las escamas de ese pirarucú parecen\nuna armadura, ¿no crees?\nMe requetencantaría llevar algo\nasí para una sesión de fotos.",
      "USfr": "Les rides de l'arapaïma font comme\ns'il portait une armure! C'est fou, je\nme lasse pas de tous ces effets!"
    }
  },
  {
    "label": "010",
    "attribute": "0x0000000000000000",
    "locale": {
      "CNzh": "这种苏眉鱼呀，\n真的很有意思哦～\n看上去感觉又好玩又很养眼！。",
      "EUde": "Napoleonfische sehn voll ulkig\naus! Ich LIEBE sie! Das sind echt\ndie besten! Sieh sie dir nur an!",
      "EUen": "Napoleonfish are so goofy! I love\nthem! They're the best! I mean...\njust look at them!",
      "EUes": "¡Qué cara tiene ese pez napoleón!\nSe le ve que tiene un carácter muy\npachorro y, yo, superfán.",
      "EUfr": "Le napoléon a une tête trop drôle !\nSérieux, je le kiffe ! Pour moi, c'est\nle best. Poisson. Ever.",
      "EUit": "Il pesce napoleone è così goffo!\nMi piace una cifra!\nÈ troppo il migliore! Guardalo!",
      "EUnl": "Napoleonvissen zijn echt zo onwijs\nmaf! Ik vind ze gaaf! Ze zijn super!\nIk bedoel, kijk zelf maar!",
      "EUru": "Рыба-наполеон такая забавная!\nОбожаю их! Ты только посмотри!\nОни же самые лучшие!",
      "JPja": "ナポレオンフィッシュって\nミョーに　あいきょうがあるよね～\nオモシロいやし系ってカンジ！　",
      "KRko": "나폴레옹피시는 묘한 매력이 있어～\n독특하게 생겼는데 사람을 편하게 만드는\n뭔가가 있는 것 같아! !",
      "TWzh": "是說蘇眉魚這種魚啊，\n不知道為什麼就是很討人喜歡呢～\n有種逗趣可愛的感覺，很療癒呢！。",
      "USen": "Napoleonfish are so goofy! I love\nthem! They're the best! I mean...\njust look at them!",
      "USes": "¡Qué cara tiene ese pez napoleón!\nSoy superfán de ese carácter tan\nrelajado que tienen.",
      "USfr": "Le napoléon a une tête trop drôle!\nSérieux, j'adore! Pour moi, c'est\nle best. Poisson. Ever."
    }
  },
  {
    "label": "011",
    "attribute": "0x0000000000000000",
    "locale": {
      "CNzh": "翻车鱼竟然能以这种体型\n游得这么轻巧，真了不起呀～\n如果换成我，肯定会一头撞到墙上。",
      "EUde": "Ich kapier ehrlich nicht, wie\nMondfische so aussehn und\ntrotzdem schwimmen können.\nIch würd mir immer den Kopf\nanschlagen...",
      "EUen": "I don't get how ocean sunfish swim\nwith that shape. I'd end up smacking\nmy head on the wall...",
      "EUes": "No te creas que entiendo por qué\nse le llama «pez luna». ¿La luna\nde dónde tiene esta forma?",
      "EUfr": "Je comprends pas comment la lune\nde mer fait pour nager, avec cette\nforme. Moi, je me cognerais partout !",
      "EUit": "Non capisco come il pesce luna\nriesca a nuotare con quel corpo.\nCioè, io sbatterei sempre ovunque...",
      "EUnl": "Ik snap dus echt niet hoe zo'n\nklompvis kan zwemmen met die vorm.\nIk zou tegen van alles op botsen...",
      "EUru": "Я не понимаю, как луна-рыба может\nплавать несмотря на свою форму. Я\nбы постоянно головой стукалась...",
      "JPja": "マンボウ、こんな体型で\n上手に泳げるのすごいよね～\nアタイなら　カベに頭ぶつけそう、",
      "KRko": "개복치는 저런 몸으로\n수영을 잘하는 게 참 신기해～\n나라면 벽에 부딪힐 텐데... ...",
      "TWzh": "翻車魚用這種體型\n居然還能游得這麼好，真厲害呢～\n是我的話，頭應該會撞到牆吧……。",
      "USen": "I don't get how ocean sunfish swim\nwith that shape. I'd end up smacking\nmy head on the wall...",
      "USes": "Aún no entiendo como el pez luna\npuede nadar con esa forma que\ntiene...\n¡Yo me daría contra la pared todo\nel tiempo!",
      "USfr": "Je comprends pas comment le poisson-lune fait pour nager.\nMoi, je me cognerais partout!"
    }
  },
  {
    "label": "012",
    "attribute": "0x0000000000000000",
    "locale": {
      "CNzh": "鲸鲨的水珠图案真的是\n又漂亮又可爱呀～\n怪不得它身边有这么多小粉丝了～。",
      "EUde": "Die Punkte auf einem Walhai sind\nvoll adrett! „Adrett“ sagt meine\nOma, wenn sie „cool“ meint!\nYEAH! Geschichtsunterricht!!!",
      "EUen": "The polka dots on the whale shark\nare SO hip! \"Hip\" is what folks used\nto say before they said \"le bonkers\"!\nBOOM! History lesson!",
      "EUes": "Esos lunares que lleva el tiburón ballena son superestilosos. No sabía\nque seguían la moda.",
      "EUfr": "Le requin-baleine est couvert de\npois. Ma mère trouverait ça... bath !\n... ... C'était la minute années 70 !",
      "EUit": "I puntini sul corpo dello squalo\nbalena sono troppo \"giusti\"!\n\"Giusto\" era un aggettivo che\nmia nonna usava una cifra.\nTa-da! Che lezione di storia!",
      "EUnl": "Die stippen op die walvishaai zijn zo\nhip! \"Hip\" is wat mijn oma altijd zei\nover coole dingen!\nBoem! Dat was toch maar even mooi\neen geschiedenislesje!",
      "EUru": "Этот узор на китовой акуле\nбесподобен! «Бесподобен» — так\nбабуля называет все крутое!\nУрок истории! Не за что!",
      "JPja": "ジンベエザメの　水玉もようって\nオシャレでカワイイよね～\nとりまきのファンが付くのも　わかるわ、",
      "KRko": "고래상어의 물방울무늬는\n멋지고 귀여워～\n좋아하는 사람이 많은 게 이해돼! !",
      "TWzh": "鯨鯊身上的圓點斑紋，\n看起來真是既時髦又可愛對吧～\n我終於知道牠怎麼吸引粉絲了，。",
      "USen": "The polka dots on the whale shark\nare SO hip! \"Hip\" is what folks used\nto say before they said \"le bonkers\"!\nBOOM! History lesson!",
      "USes": "Esos lunares que lleva el tiburón ballena son superestilosos. No sabía\nque seguían la moda.",
      "USfr": "Le requin-baleine est couvert de\npois. Ma mère trouverait ça... drôle!\n... ... C'était la minute années 70!"
    }
  },
  {
    "label": "013",
    "attribute": "0x0000000000000000",
    "locale": {
      "CNzh": "骨舌鱼这种优雅的感觉，\n真的非同一般呀……！\n每一片鱼鳞都像一块宝石呢！。",
      "EUde": "Ich krieg voll nicht klar, wie klasse\ndieser Arowana ist. Der sieht aus wie\nein langes, biegsames Glitzer-Juwel!",
      "EUen": "I can't EVEN handle how le beaut\nthe arowana is...gah! They're just\none long, floppy, sparkly, gem!",
      "EUes": "Los arowanas son superchulis,\n¿verdad? Parecen así como largas\njoyas brillantes.\nPor no decir lo que mola ese nombre\nartístico tan musical.",
      "EUfr": "L'arowana me fait vraiment trop\ncraquer... Aaah ! Tu as vu ce p'tit\ngars si long, si profilé, si brillant ?!",
      "EUit": "L'arowana è... un gioiellino!\nUna flessuosa e scintillante\npietra preziosa!",
      "EUnl": "Ik kan er echt níét bij hoe mooi die\narowana is... Wauw! Net een lang,\nzwierend, glimmend juweel of zo!",
      "EUru": "Аравана такая... стильная! В голове\nне укладывается! Не рыба, а гибкое\nблестящее сокровище!",
      "JPja": "アロワナの　ゴージャス感、\nちょーハンパないよね・・・！\nウロコ　ひとつひとつが宝石みたーい！　",
      "KRko": "아로와나의 이 우아한 분위기는\n따라올 물고기가 없다니까...!\n비늘 하나하나가 마치 보석 같아! !",
      "TWzh": "骨舌魚那種奢華感，\n還真不是蓋的～對吧……！\n身上的每片鱗片都像寶石一樣呢！。",
      "USen": "I can't EVEN handle how le beaut\nthe arowana is...gah! They're just\none long, floppy, sparkly, gem!",
      "USes": "Me sorprende lo bonito que\npuede llegar a ser el arowana, (catchphrase).\nEs como una joya alargada\ny brillante en medio del océano.",
      "USfr": "L'arowana me fait vraiment trop\ncraquer... Aaah! Tu as vu ce p'tit\ngars si long, si profilé, si brillant?!"
    }
  },
  {
    "label": "014",
    "attribute": "0x0000000000000000",
    "locale": {
      "CNzh": "矛尾鱼的鳍看起来\n就好像一只手臂一样……\n让人感受到进化的魅力呢～！。",
      "EUde": "Die Flossen an 'nem Quastenflosser\nsehn ein ganz bisschen wie Arme\naus... Komische, fischige Arme...",
      "EUen": "The fins on coelacanth kind of look\nlike arms... Creepy...fish arms...",
      "EUes": "Eso que tiene el celacanto ¿son\naletas o patas? Es un pez... ¿o es\nun ser un poquito de pesadilla?",
      "EUfr": "Les nageoires du cœlacanthe...\nOn dirait des bras ! Tu parles\nd'une bestiole flippante...",
      "EUit": "Le pinne del celacanto\nsembrano quasi delle braccia...\npesciosamente inquietanti...",
      "EUnl": "De vinnen van de coelacant lijken\neen beetje op armen... Van die enge\nvissenarmpjes of zo...",
      "EUru": "Плавники латимерии немного\nпохожи на руки... Жуткие\nрыбьи руки...",
      "JPja": "シーラカンスのヒレって\nなんだか　うでみたいだな・・・\n進化のロマンを　感じるよ～！　",
      "KRko": "실러캔스의 지느러미는 팔 같아서...\n마치 진화의 과정을\n보는 것 같아～! !",
      "TWzh": "總覺得矛尾魚的魚鰭，\n看起來好像手臂喔……\n讓人感覺到生物進化的魅力唷～！。",
      "USen": "The fins on coelacanth kind of look\nlike arms... Creepy...fish arms...",
      "USes": "Las aletas del celacanto parecen\nbrazos, ¿no? Me dan como miedito, no sé...",
      "USfr": "Les nageoires du cœlacanthe...\nOn dirait des bras! Tu parles\nd'une bestiole spéciale..."
    }
  },
  {
    "label": "015",
    "attribute": "0x0000000000000000",
    "locale": {
      "CNzh": "要是能钓上这么一条花羔红点鲑，\n就能和大家炫耀一番啦！。",
      "EUde": "Wenn ich 'nen Saibling wie den\nda fangen würde, wär das der Star\nbei meinem nächsten Konzert!",
      "EUen": "If I caught a char like this, I'd totes\nflex on the whole island!",
      "EUes": "Si yo pescara una trucha como esa,\nla pondría encima de mi casa para\npresumir ante toda la isla.",
      "EUfr": "Si j'attrapais un omble comme\ncelui-là, tu peux être sûr que toute\nl'île en entendrait parler, lol !",
      "EUit": "Se pescassi un salmerino alpino\ncome questo, me ne vanterei con\nogni singolo abitante dell'isola!",
      "EUnl": "Als ik zo'n bronforel ving, dan werd\ndie de ster van mijn volgende\noptreden!",
      "EUru": "Если бы я поймала такого гольца,\nто всему бы острову рассказала!",
      "JPja": "こんな　オオイワナ釣ったら、\nみんなに　ジマンできちゃうね！　",
      "KRko": "이런 열목어를 잡으면 모두에게\n자랑하고 싶을 것 같아! !",
      "TWzh": "如果能釣到這樣的花羔紅點鮭，\n就能跟島上的大家炫耀了！。",
      "USen": "If I caught a char like this, I'd totes\nflex on the whole island!",
      "USes": "Si pudiera pescar una trucha como\nesa, tendría comida para varios días.",
      "USfr": "Si j'attrapais un omble comme\ncelui-là, tu peux être sûr que toute\nl'île en entendrait parler, lol!"
    }
  },
  {
    "label": "016",
    "attribute": "0x0000000000000000",
    "locale": {
      "CNzh": "看到食人鱼进食的场面，\n就连我都感觉到\n自己的生命有危险……。",
      "EUde": "Piranhas beim Fressen zusehen ist,\nhmm, hypnotisch? Schaurig?\nSchaurinotisch?",
      "EUen": "Watching piranha tear into a meal\nis, um, hypnotic? Horrifying?\nHypnotorrifying?",
      "EUes": "La piraña como que me fascina\ny me horroriza a partes iguales.\nPor eso no puedo dejar de mirarla.",
      "EUfr": "Quand je regarde un piranha\ndéchiqueter sa nourriture, je suis\nhypnotisée... de terreur !",
      "EUit": "Guardare un pesce piranha attaccare\nuna preda è, cioè... terrificante?\nIpnotico? Ipnorrificante?",
      "EUnl": "Hoe piranha's zich op hun eten\nstorten is, zeg maar, hypnotisch?\nGruwelijk? Hypnowelijk?",
      "EUru": "Наблюдать, как пиранья разрывает\nсвою еду... очень интересно, но\nодновременно страшно.",
      "JPja": "ピラニアの　食事シーン見てると、\nさすがのアタイも\n身のキケンを感じるわ・・・、",
      "KRko": "피라니아가 밥 먹는 모습을 보면\n나까지 오싹해져... ...",
      "TWzh": "看著食人魚吃東西的樣子，\n就連我都會感覺到\n自己有生命危險呢……。",
      "USen": "Watching piranha tear into a meal\nis, um, hypnotic? Horrifying?\nHypnotorrifying?",
      "USes": "La piraña me produce entre miedo\ny fascinación... Por eso no puedo\ndejar de mirarla.",
      "USfr": "Quand je regarde un piranha\ndéchiqueter sa nourriture, je suis\nhypnotisée... de terreur!"
    }
  },
  {
    "label": "017",
    "attribute": "0x0000000000000000",
    "locale": {
      "CNzh": "听说鲨鱼不管掉多少次牙都会再长出来呢！\n真好呀～好羡慕啊～\n不过，我也没什么掉牙的机会吧。。",
      "EUde": "Ich hab gehört, dass Haien ihre\nZähne nachwachsen! Bin voll\nneidisch!\n...Aber warum eigentlich?\nHai-Zähne will ich NIE haben!",
      "EUen": "I heard that the great white shark\ncan regrow its teeth over and over\nand over again! I'm so JELLY!\nWait. Why am I jealous?",
      "EUes": "O sea, los tiburones tienen miles\nde dientes y siempre les sale un\ndiente nuevo si se les cae alguno.\n¡Pero si luego no mastican!\nNo sé, me parece un desperdicio.",
      "EUfr": "Tu savais que les dents du requin\nrepoussent... à l'infini ?! Ça doit lui\néviter d'aller chez le dentiste !",
      "EUit": "Ho sentito che allo squalo bianco\nricrescono i denti quando li perde!\nAllucinante! Cioè, ma il suo dentista\ncosà dirà?",
      "EUnl": "Ik heb gehoord dat een haai nieuwe\ntanden kan laten groeien! Ik ben\njaloers!\nWacht. Waarom ben ik daar jaloers\nop?",
      "EUru": "Я слышала, что у акул снова\nвырастают выпавшие зубы!\nКак я завидую! Стоп, а зачем?",
      "JPja": "サメの歯って、何回でも生えてくるんだって！\nいいな～、うらやましいな～\nま、いうほど　ぬけないけどね、",
      "KRko": "상어의 이빨은 몇 번이고 다시 자라난대!\n좋겠다～ 진짜 부러워～\n내 이빨도 상어 같으면 좋겠다! !",
      "TWzh": "聽說鯊魚的牙齒會一直再生耶！\n真好～好羨慕唷～\n不過我也不會掉牙齒就是，。",
      "USen": "I heard that the great white shark\ncan regrow its teeth over and over\nand over again! I'm so JELLY!\nWait. Why am I jealous?",
      "USes": "Me dijeron que al tiburón, cuando\npierde un diente, ¡le puede volver\na crecer!\n¡Lo que daría mi abuela por tener\nesa habilidad!",
      "USfr": "Tu savais que les dents du requin\nrepoussent... à l'infini?! Ça doit lui\néviter d'aller chez le dentiste!"
    }
  },
  {
    "label": "018",
    "attribute": "0x0000000000000000",
    "locale": {
      "CNzh": "鬼头刀那像鬃毛一样的背鳍，\n还有身体上的渐变色，\n有一种时尚达人的感觉呢～。",
      "EUde": "Goldmakrelen haben total den\nschönen Namen. Voll Glitzer, und so!\nVielleicht sollte ich meinen Namen\nändern... Gold-(Einwohnername),\nYEAH!",
      "EUen": "Mahi-mahi have a great name.\nI should change my name\nto be like that!\nI could go be (resident name)-\n(resident name), and when folks\nsay my name, I'll say, \"What-what?\"",
      "EUes": "Con ese color fosforito, la lampuga\nes el centro de las miradas allá\ndonde vaya. Como a mí me gusta.",
      "EUfr": "Nan, mais t'as vu la dorsale du\ncoryphène ? Pis ses couleurs ?!\nMême sur les podiums des défilés,\non trouve pas plus stylé !",
      "EUit": "Cioè, ma hai visto i colori del dorso\ndella lampuga? Allucinante!\nÈ troppo sconvolgente! Nemmeno\nsulle passerelle di moda si vedono\ncolori così pieni di stile.",
      "EUnl": "Goudmakrelen hebben een gave\nnaam! Ik zou ook zo'n gave naam\nmoeten hebben!\nIets van \"⁠Gouden (resident name)⁠\"\nof zo? Hihi, net of ik een prijs ben\ndie iemand kan winnen.",
      "EUru": "Корифена — такое крутое имя!\nМожет, мне поменять свое имя?\nКорифена-(resident name)! Точно!",
      "JPja": "シイラって、タテガミみたいな　せびれと\n体の　グラデーションカラーが\nオシャレ上級者感あるよね～、",
      "KRko": "만새기는 갈기 같은 등지느러미와\n몸의 색감이\n너무 세련됐어～ !",
      "TWzh": "是說鬼頭刀身上像鬃毛一樣的背鰭，\n還有身體上的漸層色，\n看起來超有時尚達人的感覺呢～！。",
      "USen": "Mahi-mahi have a great name.\nI should change my name\nto be like that!\nI could go be (resident name)-\n(resident name), and when folks\nsay my name, I'll say, \"What-what?\"",
      "USes": "Me gusta el color fosforescente de\nla lampuga. Seguro que sigue\nel estilo de los ochenta.",
      "USfr": "Nan, mais t'as vu la dorsale du\nmahi-mahi? Pis ses couleurs?!\nMême sur les podiums des défilés,\non trouve pas plus stylé!"
    }
  },
  {
    "label": "019",
    "attribute": "0x0000000000000000",
    "locale": {
      "CNzh": "我感觉从刚才开始\n皇带鱼好像就一直在盯着我，是不是把我\n当成海底的公主啦～？。",
      "EUde": "Dieser Riemenfisch starrt mich\nschon so lange an... Will der was\nvon mir?!\nHey, vielleicht glaubt der, ich bin\neine Meerjungfrau, und so!",
      "EUen": "That oarfish has been staring at me\nso long I'm getting the creeps!\nMaybe he thinks I'm a mermaid?!",
      "EUes": "Ese pez remo lleva un buen rato\nmirándome y no sé por qué.\n¿Qué querrá decirme?",
      "EUfr": "Ce poisson-ruban me lâche pas des\nyeux ! Tu crois qu'il me prend pour\nune sirène ?",
      "EUit": "Quel pesce remo mi fissa da una\nvita! Mi sta facendo venire i brividi.\nForse pensa che sia una sirena?!",
      "EUnl": "Die riemvis staart me al zo lang aan\ndat ik er de kriebels van krijg! Hij\npast echt niet bij mijn outfit, hoor!",
      "EUru": "Этот сельдяной король как-то\nстранно на меня смотрит! Может,\nон думает, что я русалка?!",
      "JPja": "さっきから　リュウグウノツカイに\n見られてる気がするんだけど、アタイのこと\nおとひめさまだと　思ってるのかなー？　",
      "KRko": "아까부터 산갈치가\n계속 날 쳐다보는 것 같은데\n내가 그렇게 매력적인가? ?",
      "TWzh": "是說我從剛才就覺得自己\n好像被皇帶魚盯著看呢，\n是不是把我當成龍宮的公主啦～？。",
      "USen": "That oarfish has been staring at me\nso long I'm getting the creeps!\nMaybe he thinks I'm a mermaid?!",
      "USes": "Ese pez remo lleva un buen rato\nmirándome y me está empezando\na dar mala espina, (catchphrase).\n¿Acaso pensará que soy una sirena?",
      "USfr": "Ce poisson-ruban me lâche pas des\nyeux! Tu crois qu'il me prend pour\nune sirène?"
    }
  },
  {
    "label": "020",
    "attribute": "0x0000000000000000",
    "locale": {
      "CNzh": "你看鲟鱼的鼻尖\n是这样尖尖的，\n感觉有些可爱呢～！。",
      "EUde": "Ist dir eigentlich mal aufgefallen,\ndass die Näschen von Stören immer\nnach oben zeigen?\nDas ist sooo niedlich, da könnte ich\nglatt loskreischen!",
      "EUen": "I love how sturgeons' noses are all\npointy-uppy! It's SO adorbs!",
      "EUes": "Los esturiones tienen como un\nhociquito así levantado y me muero\nde lo monos que son, por favor.",
      "EUfr": "Le nez de l'esturgeon me fait trop\ncraquer ! Tout mimi ! Tout pointu !\nJ'adooore !",
      "EUit": "Gli storioni hanno dei nasi troppo\ncarini, con quella punta!",
      "EUnl": "Het neusje van een steur wijst echt\nschattig naar boven! Echt het neusje\nvan de zalm qua snoezigheid, hihi!",
      "EUru": "У этого осетра такой милый носик!\nПросто шик и блеск!",
      "JPja": "チョウザメって、\n鼻の先っちょが　ツンっとしてて\nちょっと　カワイイよね～！　",
      "KRko": "철갑상어는\n코 끝부분이 뾰족해서\n너무 귀엽지 않아～? ?",
      "TWzh": "是說鱘魚啊，\n鼻子看起來尖尖的，\n感覺有點可愛對吧～！。",
      "USen": "I love how sturgeons' noses are all\npointy-uppy! It's SO adorbs!",
      "USes": "Los esturiones tienen como un\nhociquito así levantado y me muero\nde lo lindísimos que son, ¡no puedo!",
      "USfr": "Le nez de l'esturgeon me fait trop\ncraquer! Tout mimi! Tout pointu!\nJ'adooore!"
    }
  },
  {
    "label": "021",
    "attribute": "0x0000000000000000",
    "locale": {
      "CNzh": "雀鳝的嘴巴真的像鳄鱼一样……\n又细又长，还很尖锐，\n被戳到一下一定很疼！。",
      "EUde": "Knochenhechte erinnern mich mit\nihren Mäulern und den vielen fiesen\nZähnen irgendwie an Krokodile...\nBei so einer Kauleiste wird jede\nnoch so lahme Tierdoku zum\nreinsten Horrorfilm!",
      "EUen": "Gar have mouths that are all\nalligator-y...and creepy...and...\nI'm going to stop looking now...",
      "EUes": "¿Sabes qué da más mal rollo que\nun pez con boca de caimán? Nada.",
      "EUfr": "Le gar a une de ces bouches... on\ndirait celle d'un alligator... Ça me fait\nun peu flipper... T'as vu ces dents ?",
      "EUit": "Il luccio ha la bocca che somiglia a\nquella di un alligatore. Da paura... in\ntutti i sensi! Hai visto, ?",
      "EUnl": "Kaaimansnoeken hebben ook echt\nzo'n krokodillenbek... Best eng,\nhoor... Ik kijk maar even niet meer...",
      "EUru": "У панцирной щуки такой жуткий...\nстрашный... и просто ужасающий\nрот! О-о-ой, я лучше отвернусь...",
      "JPja": "ガーって、ワニみたいな　口だよね・・・\n細長くて　とんがってるから\nつつかれてもイタそー！　",
      "KRko": "가아의 입은 악어처럼 생겼네...\n가늘고 뾰족해서\n찔리면 진짜 아프겠다～ !",
      "TWzh": "是說雀鱔啊，有個跟鱷魚一樣的嘴巴呢……\n又細又長又尖尖的，\n感覺被戳到一定很痛～！。",
      "USen": "Gar have mouths that are all\nalligator-y...and creepy...and...\nI'm going to stop looking now...",
      "USes": "¿Sabes quién tiene más malas vibras\nque un pez con boca de caimán?\nNadie.",
      "USfr": "Le gar a une de ces bouches... on\ndirait celle d'un alligator... Ça me fait\nun peu peur... T'as vu ces dents?"
    }
  },
  {
    "label": "022",
    "attribute": "0x0000000000000000",
    "locale": {
      "CNzh": "双髻鲨似乎是\n大家一起集体行动的，\n那它不会撞上自己前面的同伴吗？。",
      "EUde": "Kennste den schon? Kommen zwei\nHammerhaie in einen Baumarkt und\nwollen drei Nägel kaufen...\nFragt der Verkäufer: „Darf's noch\netwas Meer sein?“ WAS? Also ICH\nhab mich über den richtig beömmelt!",
      "EUen": "A group of hammerhead sharks is\ncalled a \"percussion.\" That's not\ntrue, but it sounds good.",
      "EUes": "¿Sabes cómo se llama un banco\nde peces martillo? Un taller.\nYa sabes que el humor no es lo mío.",
      "EUfr": "Un groupe de requins marteaux, ça\ns'appelle une « percussion ». C'est\nbon, je blague. Mais ça serait drôle !",
      "EUit": "Un gruppo di pesci martello si\nchiama \"percussione\". Ma no! Sto\ninventando! Però suona bene, no?",
      "EUnl": "Een groep hamerhaaien noemen ze\neen 'moker'. Dat verzin ik maar,\nhoor. Maar het heeft wel impact.",
      "EUru": "На других островах рыбу-молот\nназывают перкуссией. Конечно, это\nнеправда. Но зато как звучало бы!",
      "JPja": "シュモクザメって\n集団で　行動してるらしいけど、\n前のコと　ぶつかったりしないのかな？　",
      "KRko": "귀상어는 무리 지어 다닌다던데\n앞에 있는 애랑 부딪히거나\n그러진 않으려나? ?",
      "TWzh": "雖然雙髻鯊\n好像都是集體行動的，\n但這樣不會撞到前面的同伴嗎？。",
      "USen": "A group of hammerhead sharks is\ncalled a \"percussion.\" That's not\ntrue, but it sounds good.",
      "USes": "¿Sabes cómo se llama un banco\nde peces martillo? Un taller.\nYa sabes que el humor no es lo mío...",
      "USfr": "Un groupe de requins-marteaux, ça\ns'appelle une « percussion ». C'est\nbon, je blague. Mais ça serait drôle!"
    }
  },
  {
    "label": "101",
    "attribute": "0x0000000000000000",
    "locale": {
      "CNzh": "那条鱼原来是\n送来的吗？\n哇～！好厉害呀～！！\n多亏了你，我才有机会这么近距离观察它！\n果然在书上看到的\n和实物看起来就是不太一样呢！。",
      "EUde": "DU hast diesen Fisch gespendet?!\nWAAAS?! Ist ja irre!",
      "EUen": "You're who donated that fish?\nWhaaaaat?! That's awesome!",
      "EUes": "Espera, ¿fuiste tú quien donó este\npez, ?\nQué fuerte... ¡Eres lo más!",
      "EUfr": "C'est toi qui as donné ce poisson ?\nOuah ! Chapeau bas, môôôsieur !",
      "EUit": "Dici sul serio? Hai donato tu questa\ncreatura? Cioè, da paura! Fa anche\nrima, sconvolgente!",
      "EUnl": "Heb jij deze geschonken? Supergaaf!",
      "EUru": "Так это ты принес сюда эту чудо-\nрыбу? Ого! Молодец, так держать!",
      "JPja": "あの　サカナって\nが持ってきたの？\nわ～！　すっごいじゃん～！！\nおかげで　じっくり観察できたよー\nやっぱ　本で見るのと\nナマで見るのとは　ちがうねー！　",
      "KRko": "저 물고기은\n이 기증한 거야?\n우와～! 대단하다～!!\n덕분에 자세히 구경할 수 있었어\n역시 책으로 보는 거랑\n실제로 보는 건 달라! !",
      "TWzh": "原來那條魚，\n是捐給博物館的嗎？\n哇～！好厲害喔～！！\n託你的福，我才能好好觀察牠呢～\n果然親眼看到的感覺，\n跟在書上看到的就是不一樣～！。",
      "USen": "You're who donated that fish?\nWhaaaaat?! That's awesome!",
      "USes": "Espera, ¡aquí dice que\nfuiste tú quien donó este\npez, (nickname)!\nVaya... ¡Eres la onda!",
      "USfr": "C'est toi qui as donné ce poisson?\nOuah! Chapeau bas, môôôsieur!"
    }
  }
]