﻿[
  {
    "label": "001",
    "attribute": "0x0000000000000000",
    "locale": {
      "CNzh": "呀？！\n咦，？！\n你都把我吓得叫出声来了！\n你是被黄蜂蜇了吗？\n呜哇……看着就很疼～。",
      "EUde": "HURZENGASP!\n(Spitzname)?! Ich hab mir vor Schreck ein neues Wort ausgedacht!\nKlingt gut, oder?\nReagierst du allergisch auf dein\nneues Beauty-Peeling oder hast\ndu dich mit Wespen angelegt?\nSieht auf jeden Fall schmerzhaft aus.\nIch hoffe, das bleibt nicht so,\n(Floskel).",
      "EUen": "FLASKLURB?!\n(nickname)?! I was so\nsurprised by your face,\nI made up a word!\nDid you get stepped on? Or bit\nby a fish? Did you fall off your\nroof? Or get stung by a wasp?\nYeesh... That looks painful...\nHurry up and get better, OK?",
      "EUes": "¡¿Uaayalarmlaj?!\n¡¿(nickname)?! ¿Pero qué susto me has dado, que me has hecho gritar algo raro y todo?\n¿Te han pisado? ¿Te ha mordido\nun pez? ¿Te has caído de un tejado?\n¿Te han picado las avispas?\nJopé, tiene pinta de doler. Pues\nrecupérate pronto, ¿vale?",
      "EUfr": "L'ENFLURE !\n... (surnom) ?!\nNan, je parle pas de toi...\n'fin, si, mais plutôt de ta tête !\nOn t'a marché dessus ? Un poisson\nt'a mordu ? T'es tombé du toit ?\nUne guêpe t'a piqué ?\nOuille, ouille, ouille... Ça doit faire\nmal... Remets-toi vite, OK ?",
      "EUit": "ALLUCINORROR!\nMa... (nickname)?! Per lo stupore ho creato una nuova parola!\nTi è passato sopra un camion? Ti ha\nazzannato un pesce? Sei caduto dal\ntetto? O ti hanno punto le vespe?\nOooh... Che storia! Spero starai\nmeglio presto.",
      "EUnl": "FLIEKFETSJ?!\n(nickname)?! Ik was zo verrast dat ik zomaar een nieuw woord verzon! (Best knap, hè?)\nStond er iemand op je? Of ben je\ndoor een vis gebeten? Van je dak\ngevallen? Door een wesp gestoken?\nOef... Dat ziet er pijnlijk uit... Wel\nsnel beter worden, hoor!",
      "EUru": "Ужаплюсики!\n(nickname)!!! Я с перепугу\nновое слово выдумала! (Круто, правда?)\nНа тебя кто-то наступил? Или рыба\nукусила? А может, ты с крыши\nсвалился? Оса ужалила?\nАй... Больно, наверное... Надеюсь,\nчто скоро заживет!",
      "JPja": "ギャッ？！\nちょ、？！\nビックリして　ヘンな声出ちゃったじゃん！\nハチにさされたんだよね？\nうわ～・・・　いたそう～、",
      "KRko": "끼야악!!\n앗, 이야?!\n놀라서 이상한 목소리가 튀어나왔잖아!\n벌에 쏘였구나?\n으으... 너무 아프겠다～ ～",
      "TWzh": "呀！？\n等等，！？\n你害我嚇了一跳，都發出怪聲音了啦！\n你的臉是被黃蜂叮了吧？\n嗚哇……看起來好痛喔～。",
      "USen": "FLASKLURB?!\n(nickname)?! I was so\nsurprised by your face,\nI made up a word!\nDid you get stepped on? Or bit\nby a fish? Did you fall off your\nroof? Or get stung by a wasp?\nYeesh... That looks painful...\nHurry up and get better, OK?",
      "USes": "¡¿Upaepayayay?!\n¡¿(nickname)?! Me asustaste tanto que hasta grité algo raro.\n¿Te pisaron? ¿Te mordió un pez?\n¿Te caíste de tu tejado?\n¿O te picó una avispa?\nDa igual, te ha de doler muchísimo.\n¡Espero que te recuperes pronto!",
      "USfr": "L'ENFLURE!\n... (surnom)?!\nNan, je parle pas de toi...\nEnfin, si, mais plutôt de ta tête!\nOn t'a marché dessus? Un poisson\nt'a mordu? T'es tombé du toit?\nUne guêpe t'a piqué?\nOuille, ouille, ouille... Ça doit faire\nmal... Remets-toi vite, OK?"
    }
  },
  {
    "label": "002",
    "attribute": "0x0000000000000000",
    "locale": {
      "CNzh": "嗯？，\n你是在练习变装的化妆吗？\n看上去和真的一样呀！\n……咦？！\n原来你这是被黄蜂给蜇的呀！\n还是快点吃些药治好它吧？。",
      "EUde": "Wow! Als welches Monster gehst\nDU denn, (Spitzname)?\nSieht ja superrealistisch aus!\nWie? Das war eine Wespe?!\nOh nein! Du Armer!\nDu solltest schnell etwas Medizin\noder so draufschmieren.",
      "EUen": "Wow! Is that movie makeup? You\nlook like a monster! It's so cool!\nWhat?! You were stung by a wasp?!\nOhmigosh! You poor thing! I'm so\nsorry I called you a monster!\nGet some medicine on that sting\nsuper quick, OK?",
      "EUes": "¡Hala, (nickname)! ¿Vas a salir en una peli? Qué logrado el maquillaje de monstruo, ¿no?\n¡Ah! ¡¿Que es de verdad?!\n¿Que te han picado las avispas?\nJo, qué fatal.\nPilla un poco de medicina en cuanto\npuedas, para que cure pronto.",
      "EUfr": "LOL ! C'est carnaval ?! (surnom), qu'est-ce que tu fais avec cette tête ?\nTu sais que tu me files les\nchocottes ?! Quoi ? C'est\nune guêpe qui t'a piqué ?\nAïe, aïe, aïe !\nMon pauvre, ça doit trop faire mal !\nFaut vite que tu trouves un remède !",
      "EUit": "Wow, (nickname)! Ti sei truccato da mostro? Che paura!!!\nCooosa?! È stata una vespa?!\nAllucinante! Poverino! Prendi\nsubito la medicina, OK?",
      "EUnl": "Wauw! (nickname), speel je in een monsterfilm met die make-up? Supereng, hoor!\nWat?! Je bent door een wesp\ngestoken?! Sjeempie! Arme stakker!\nDaar moet je wel snel een medicijn\nop smeren, goed?",
      "EUru": "Ух ты! (nickname), что это\nс тобой? Ты будешь сниматься\nв ужастиках? Жутковато!\nЧто?! Тебя ужалила оса?!\nС ума сойти! Бедняжка!\nПомажь лекарством поскорее!",
      "JPja": "んっ？　\n仮装メイクの練習でも　してるのー？\nすっごい　リアルなんだけどー！\n・・・えっ？！\nそれ　ハチにさされちゃったんだ！\n早く　おくすり飲んで治しなよー？　",
      "KRko": "응? 이야?\n혹시 분장 연습 중이야?\n진짜 리얼하다!\n...응?!\n벌에 쏘인 거였구나!\n얼른 약 먹지그래! !",
      "TWzh": "嗯？，\n你是在練習特效化妝嗎～？\n看起來超逼真的耶～！\n……咦！？\n原來你是被黃蜂螫到了喔！\n那還是趕快吃藥治療比較好唷～！。",
      "USen": "Wow! Is that movie makeup? You\nlook like a monster! It's so cool!\nWhat?! You were stung by a wasp?!\nOhmigosh! You poor thing! I'm so\nsorry I called you a monster!\nGet some medicine on that sting\nsuper quick, OK?",
      "USes": "¡Vaya, (nickname)! ¿Vas a participar en una peli? Lo digo por el maquillaje de monstruo.\n¡Ah! ¡¿Que es de verdad?!\n¿Te picó una avispa?\nAy, qué fatal...\nBusca un poco de medicamento\nen cuanto puedas, para que\ncure pronto.",
      "USfr": "LOL! C'est le carnaval?! (surnom), qu'est-ce que tu fais avec cette tête?\nTu sais que tu me fais un peu\npeur là?! Quoi? C'est\nune guêpe qui t'a piqué?\nAïe, aïe, aïe!\nMon pauvre, ça doit trop faire mal!\nFaut vite que tu trouves un remède!"
    }
  },
  {
    "label": "005",
    "attribute": "0x0000000000000000",
    "locale": {
      "CNzh": "等一下！！\n你的脸怎么变成这副模样了～！\n看来是被黄蜂蜇了吧！\n虽然过一段时间也会好，\n但我觉得你还是早点吃药，\n处理一下会更好哦！。",
      "EUde": "Oh nein, (Spitzname)!\nWas ist denn mit deinem Gesicht\npassiert? War das eine Wespe?!\nIrgendwann geht das sicher auch\nvon allein weg, aber besser wär's,\ndu schaust dich nach Medizin um!",
      "EUen": "Ohmigosh! (nickname)! Your\nface is, um, a fashion disaster?\nDid a wasp sting you?!\nIt'll heal on its own, but you should\nget some medicine so it heals faster!",
      "EUes": "¡Ay, qué fuerte! (nickname), tienes la cara hecha un desastre muy fatal.\n¿Te han picado las avispas? Eso se\nte cura solo, pero, si te pones un\npoco de medicina, tardará menos.",
      "EUfr": "Pauvre (surnom) ! T'as vu ta tête ?! C'est une guêpe qui t'a fait ça ?!\nT'inquiète, ça devrait partir tout\nseul. Mais si tu peux pas attendre,\ntrouve-toi un remède !",
      "EUit": "Allucinante! Che ti è successo, (nickname)? La tua faccia è un disastro!\nTi ha forse punto una vespa?!\nGuarirai presto, ma se prendi\nuna medicina sarà tutto più rapido!",
      "EUnl": "Sjeempie! (nickname)! Je gezicht lijkt wel een modemisser? Ben je gestoken door een wesp?\nHet geneest wel uit zichzelf, hoor,\nmaar met een medicijn gaat het\nsneller!",
      "EUru": "Обалдеть! (nickname)! Ты\nсам на себя не похож! Тебя что,\nоса ужалила?!\nВсе, конечно, и так заживет, но\nя бы все же поискала лекарство!",
      "JPja": "ちょっと　\n顔がヤバイことに　なってんじゃん～！\nハチにさされたんでしょー、それ！\nほっといても治るけど\nなるべく早く　おくすり飲んで、\nケアした方が　いいと思うよ、",
      "KRko": "헉, 아!\n얼굴이 난리가 났잖아～!\n그거 벌에 쏘여서 그런 거지?\n시간이 지나면 낫긴 하겠지만\n웬만하면 빨리 약 먹고\n진정시키는 게 어때? ?",
      "TWzh": "等一下，！\n你的臉整個變超慘的耶～！\n看你那個樣子！是被黃蜂叮了吧～\n雖然放著不管也會好啦，\n但還是盡早吃藥，\n快點治好比較好唷，。",
      "USen": "Ohmigosh! (nickname)! Your\nface is, um, a fashion disaster?\nDid a wasp sting you?!\nIt'll heal on its own, but you should\nget some medicine so it heals faster!",
      "USes": "¡Ay, qué fuerte! (nickname),\ntu cara es un completo desastre.\n¿Te picó una avispa?\nEso se cura solo, pero si te pones\nun poco de medicamento se te quitará mucho antes.",
      "USfr": "Pauvre (surnom)! T'as vu ta tête?! C'est une guêpe qui t'a fait ça?!\nT'inquiète, ça devrait partir tout\nseul. Mais si tu peux pas attendre,\ntrouve-toi un remède!"
    }
  },
  {
    "label": "006",
    "attribute": "0x0000000000000000",
    "locale": {
      "CNzh": "不是吧～！\n，\n你是被黄蜂蜇了吗？\n看到你这个样子，\n我觉得自己的脸都疼起来了～\n……好啦，快用用这个吧！\n这药能马上治好你的！\n嘿嘿，老实说，我有时候也会碰到这种事情，\n所以会把它带在身上哦～",
      "EUde": "Huch! Sag bloß, du hast dich von\neiner Wespe stechen lassen?! Das\ntut ja schon beim Hinsehen weh.\n...Ich hab genau das Richtige für\ndich! Mit dieser Medizin geht das\nrubbeldiekatz weg!\nUnd frag jetzt bitte nicht, warum ich\ndie immer dabeihabe. Ich... mag halt\nkeine Wespenstiche!",
      "EUen": "What the daaaaaaaang?! Did a wasp\nsting you, (nickname)?\nThat's the worst thing!\nHere, you need this medicine.\nI always keep some on me.\nSmear that medicine on your le face\nand you'll be feeling good super\nquick, !",
      "EUes": "¡Ahí va, (nickname)! ¿Y esa cara? No me digas que te han picado las avispas... ¡Es lo peooor!\nYo siempre intento llevar encima un\npoco de medicina por si las moscas,\no por si las avispas, mejor dicho.\nEs que las avispas como que me\nadoran, porque soy bella como\nuna flor.\nY porque me rebozo entre las flores\na veces para oler bien. En fin, ponte\nun poco en la cara y listo.",
      "EUfr": "Oh. Oh ! OH ?!\nT'as croisé une guêpe de trop près,\n(surnom) ?\nC'est vraiment pas de bol !\nTiens, prends ce remède. J'en ai\ntoujours sur moi, au cas où.\nJ'aime bien me frotter la figure avec\ndes fleurs, pour sentir bon.\nMais du coup, les guêpes croient\naussi que je suis une fleur, et je me\nfais piquer.\nTout ça pour dire, avale ce remède\net tu retrouveras une tête normale\nen moins de deux !",
      "EUit": "Che è successo, (nickname)?\nTi ha punto una vespa?\nSei ridotto male, sai? Tieni, prendi\nquesta medicina, ne porto sempre\nun po' con me.\nPerché? Ah, cioè, faccio impacchi\nai fiori per avere una pelle da star\ne l'odore attrae le vespe...\nComunque, prendila e vedrai che\nstarai subito meglio.",
      "EUnl": "Zooooooooooooooooo?! Heb je je laten steken door een wesp, (nickname)?\nWat hartstikke naar voor je! Hier, dit\nmedicijn ga je nodig hebben. Ik heb\ner altijd een van bij me.\nWant ik vind jam lekker als ik aan\nhet picknicken ben, maar helaas\nvinden wespen dat ook.\nGoed, wrijf dat even lekker uit\nop je snoetje, dan zie je er supersnel\nweer normaal uit!",
      "EUru": "Ого! (nickname)!\nТебя ужалила оса?\nКакой ужас!\nВозьми это лекарство, оно тебе\nпоможет. Я всегда ношу его\nс собой.\nПросто я так люблю натираться\nцветами с ног до головы, чтобы\nвкусно пахнуть.\nА глупые осы думают, что\nя десерт, вот и жалят меня.\nПросто намажься этим лекарством,\nи все тут же пройдет!",
      "JPja": "やだ～！\n、\nハチに　さされちゃったのー？\nそんな顔見てたら、こっちまで\nいたくなってきちゃう～\n・・・ほらっ　コレ使いなよ！\nすぐ治る　おくすりだよ！\nエヘヘ、ぶっちゃけアタイも\n時々やらかしちゃうから　持ってたの～",
      "KRko": "으악～!\n아!\n벌에 쏘였어?\n네 얼굴을 보니까\n나까지 아픈 느낌이야～\n...자, 이거 써!\n금방 낫는 약이야!\n에헤헤, 실은 나도 가끔 쏘여서\n갖고 나왔거든～",
      "TWzh": "天啊～！\n，\n你被黃蜂叮了嗎～？\n看你的臉這樣，\n感覺連我都跟著痛起來了～\n……來，這個給你用！\n是可以快速治好傷口的藥喔！\n嘻嘻，老實說我有時候也會\n不小心被叮到，所以才會有這個藥～",
      "USen": "What the daaaaaaaang?! Did a wasp\nsting you, (nickname)?\nThat's the worst thing!\nHere, you need this medicine.\nI always keep some on me.\nSmear that medicine on your le face\nand you'll be feeling good super\nquick, !",
      "USes": "¡Ayyy, (nickname)! ¿Y esa cara? No me digas que te picó una avispa... ¡Es lo peooor!\nYo siempre intento llevar un poco de\nmedicamento por si las moscas,\no por si las avispas, mejor dicho.\nComo huelo tan bien, me da miedo\nque me ataquen, pero ya sabes:\npara presumir, hay que sufrir.\nEn fin, ponte un poco en la cara y\nverás que se te cura superrápido.",
      "USfr": "Oh. Oh! OH?!\nT'as vu une guêpe de trop près,\n(surnom)?\nC'est vraiment pas de chance!\nTiens, prends ce remède. J'en ai\ntoujours sur moi, au cas où.\nJ'aime bien me frotter la figure avec\ndes fleurs, pour sentir bon.\nMais du coup, les guêpes croient\naussi que je suis une fleur, et je me\nfais piquer.\nTout ça pour dire, avale ce remède\net tu retrouveras une tête normale\nen moins de deux!"
    }
  },
  {
    "label": "007",
    "attribute": "0x0000000000000000",
    "locale": {
      "CNzh": "可得赶快把脸治好，\n早点让我们重新看到\n你那精神百倍的面孔才行呀！。",
      "EUde": "Keine Angst! In ein paar Tagen\nkannst du sicher wieder lächeln,\nohne dass es wehtut, (Floskel).",
      "EUen": "(nickname)! Hurry up and\nget better, !",
      "EUes": "¡Mucho ánimo y cuídate!",
      "EUfr": "Allez, perds pas de temps, (surnom) ! Reprends ton aspect normal,  !",
      "EUit": "Abbi cura di te, (nickname)!",
      "EUnl": "! Word maar snel beter, (nickname)! ",
      "EUru": "! Поправляйся\nпоскорее, (nickname)!",
      "JPja": "さっさと治しちゃって、いつもの\n元気な　の顔\n見せてよね！　",
      "KRko": "얼른 나아서 평소 같은\n활기찬  얼굴을\n보여줘! !",
      "TWzh": "你要趕快好起來，\n讓我看到你\n平常有精神的臉唷！。",
      "USen": "(nickname)! Hurry up and\nget better, !",
      "USes": "¡Mucho ánimo y cuídate!",
      "USfr": "Allez, perds pas de temps, (surnom)! Reprends ton aspect normal, !"
    }
  },
  {
    "label": "011",
    "attribute": "0x0000000000000000",
    "locale": {
      "CNzh": "呀？！\n咦，？！\n你都把我吓得叫出声来了！\n你是被黄蜂蜇了吗？\n呜哇……看着就很疼～。",
      "EUde": "HURZENGASP!\n(Spitzname)?! Ich hab mir vor Schreck ein neues Wort ausgedacht!\nKlingt gut, oder?\nReagierst du allergisch auf dein\nneues Beauty-Peeling oder hast\ndu dich mit Wespen angelegt?\nSieht auf jeden Fall schmerzhaft aus.\nIch hoffe, das bleibt nicht so,\n(Floskel).",
      "EUen": "FLASKLURB?!\n(nickname)?! I was so\nsurprised by your face,\nI made up a word!\nDid you get stepped on? Or bit\nby a fish? Did you fall off your\nroof? Or get stung by a wasp?\nYeesh... That looks painful...\nHurry up and get better, OK?",
      "EUes": "¡¿Uaayalarmlaj?!\n¡¿(nickname)?! ¿Pero qué susto me has dado, que me has hecho gritar algo raro y todo?\n¿Te han pisado? ¿Te ha mordido\nun pez? ¿Te has caído de un tejado?\n¿Te han picado las avispas?\nJopé, tiene pinta de doler. Pues\nrecupérate pronto, ¿vale?",
      "EUfr": "SPAVRESSA ?!\n(surnom) ?! Tu m'as tellement fait flipper que j'en ai inventé un mot ! (Il est pas mal, hein ?)\nOn t'a marché dessus ? Un poisson t'a mordu ? Tu es tombée de ton toit ? Une guêpe t'a piquée ?\nOuille... Ça a l'air de faire mal...\nJ'espère que ça va passer hyper\nvite !",
      "EUit": "ALLUCINORROR!\nMa... (nickname)?! Per lo stupore ho creato una nuova parola!\nTi è passato sopra un camion? Ti ha\nazzannato un pesce? Sei caduto dal\ntetto? O ti hanno punto le vespe?\nOooh... Che storia! Spero starai\nmeglio presto.",
      "EUnl": "FLIEKFETSJ?!\n(nickname)?! Ik was zo verrast dat ik zomaar een nieuw woord verzon! (Best knap, hè?)\nStond er iemand op je? Of ben je\ndoor een vis gebeten? Van je dak\ngevallen? Door een wesp gestoken?\nOef... Dat ziet er pijnlijk uit... Wel\nsnel beter worden, hoor!",
      "EUru": "Ужаплюсики!\n(nickname)!!! Я с перепугу\nновое слово выдумала! (Круто, правда?)\nНа тебя кто-то наступил? Или рыба\nукусила? А может, ты с крыши\nсвалился? Оса ужалила?\nАй... Больно, наверное... Надеюсь,\nчто скоро заживет!",
      "JPja": "ギャッ？！\nちょ、？！\nビックリして　ヘンな声出ちゃったじゃん！\nハチにさされたんだよね？\nうわ～・・・　いたそう～、",
      "KRko": "끼야악!!\n앗, 이야?!\n놀라서 이상한 목소리가 튀어나왔잖아!\n벌에 쏘였구나?\n으으... 너무 아프겠다～ ～",
      "TWzh": "呀！？\n等等，！？\n你害我嚇了一跳，都發出怪聲音了啦！\n你的臉是被黃蜂叮了吧？\n嗚哇……看起來好痛喔～。",
      "USen": "FLASKLURB?!\n(nickname)?! I was so\nsurprised by your face,\nI made up a word!\nDid you get stepped on? Or bit\nby a fish? Did you fall off your\nroof? Or get stung by a wasp?\nYeesh... That looks painful...\nHurry up and get better, OK?",
      "USes": "¡¿Upaepayayay?!\n¡¿(nickname)?! Me asustaste tanto que hasta grité algo raro.\n¿Te pisaron? ¿Te mordió un pez?\n¿Te caíste de tu tejado?\n¿O te picó una avispa?\nDa igual, te ha de doler muchísimo.\n¡Espero que te recuperes pronto!",
      "USfr": "SPAVRESSA?!\n(surnom)?! Tu m'as tellement fait peur que j'en ai inventé un mot! Il est pas mal, hein?\nOn t'a marché dessus? Un poisson t'a mordu? Tu es tombée de ton toit? Une guêpe t'a piquée?\nOuille... Ça a l'air de faire mal...\nJ'espère que ça va passer\nhyper vite!"
    }
  },
  {
    "label": "012",
    "attribute": "0x0000000000000000",
    "locale": {
      "CNzh": "……对啦！\n我就把我珍藏的药的手册\n教给你吧！",
      "EUde": "...Ich hab's! Ich verrate dir ein\nGeheimrezept von meiner Ma für\nMedizin gegen Wespenstiche!",
      "EUen": "Hey! I know! I'll teach you my super\nspecial medicine recipe!",
      "EUes": "¡Ah, pero si tengo una idea que te\npuede venir estupén! A ver, que me\nsé una fórmula de medicina ideala.",
      "EUfr": "Hé, je sais ! Je vais te dire comment\nfabriquer mon super remède méga\nspécial !",
      "EUit": "Aspetta, ho un'idea! Ti insegnerò a\ncreare la mia medicina superspeciale!",
      "EUnl": "Hé! Ik weet iets! Ik zal je leren hoe\nje mijn superspeciale medicijn kunt\nmaken!",
      "EUru": "Знаешь что? Я тебя научу, как\nсмешивать лекарство по моему\nособому рецепту!",
      "JPja": "・・・そうだ！\nアタイのとっておきの\nおくすりのレシピを　教えてあげる！",
      "KRko": "...그래!\n내 비장의 약 레시피를 가르쳐줄게!",
      "TWzh": "……對了！\n那就讓我來教你，\n我珍藏的藥的方程式吧！",
      "USen": "Hey! I know! I'll teach you my super\nspecial medicine recipe!",
      "USes": "¡Ah, pero si tengo una idea que te\npuede venir de maravilla! Me sé\nuna receta de medicamento ideal.",
      "USfr": "Hé, je sais! Je vais te dire comment\nfabriquer mon super remède\nméga spécial!"
    }
  },
  {
    "label": "013",
    "attribute": "0x0000000000000000",
    "locale": {
      "CNzh": "只要用蜂巢和杂草\n就能简便地制作出来，\n你快点做一些治好伤比较好哦！",
      "EUde": "Das ist supi-einfach! Du brauchst nur\nein Wespennest und Unkraut! Das\nhilft dir sicher im Handumdrehen!",
      "EUen": "Get a wasp nest. Any one is OK—\nit doesn't need a trendy label...\nB-T-dubs? This is the only time I'll\never tell you a label isn't important,\n'K? I've got an image to keep.\nAnyhoo, then you need some weeds.\nMush the wasp nest and the weeds\ntogether and...BOOM! Medicine!\nYou should go make some le pronto\nand get all better!",
      "EUes": "Mira, buscas un trocín de avispero,\nno tiene ni que ser de marca\nni de diseño ni nada...\nLe pones así como unos hierbajos,\nte buscas un banco de bricolaje y lo\nmezclas todo muy bien mezcladito...\n¡Y ya tienes tu medicina estupén\ncon el sello de calidad de la moi!\nTe digo yo que, en cuanto te la\ntomes, dejarás de sentirte superfatal\npero así como de repente, ¿vale?",
      "EUfr": "Trouve-toi un nid de guêpes.\nN'importe lequel fera l'affaire,\nt'inquiète...\nTu auras aussi besoin de quelques\nmauvaises herbes. Mélange le tout,\net... BOUM ! Remède !\nMaintenant, magne-toi de te mettre\nau travail, histoire de reprendre\nrapidement forme humaine, lol !",
      "EUit": "Per prima cosa, ti serve un vespaio...\nVa bene uno qualunque, non deve\nessere per forza una marca top.\nPoi prendi delle erbacce, mischi\ntutto insieme e BUM! Medicina!\nVai a prepararne subito un po',\ncosì ti sentirai meglio!",
      "EUnl": "Neem een wespennest. Het maakt\nniet uit wat voor een...\nDan heb je wat onkruid nodig, en als je dat allemaal bij elkaar stopt, krijg je... BOEM! Een medicijn!\nAls ik jou was, zou ik er maar gauw\neen maken, zodat je je snel weer\nonwijs te gek voelt!",
      "EUru": "Возьми-ка осиное гнездо...\nПростое сгодится, самое\nнегламурное... Пустое, конечно!\nПотом добавь пару сорняков,\nхорошенько перемешай и... Шик!\nЛекарство готово! \nПоторопись и намажься им\nхорошенько, а то такие укусы\nдаже косметикой не скроешь!",
      "JPja": "ハチのすと　ざっそうだけで\nちょーカンタンに　作れちゃうから、\nはやく作って　治したほうがいいと思うよ！",
      "KRko": "벌집이랑 잡초만 있으면\n눈 감고도 만들 수 있으니까\n얼른 만들어서 먹어!",
      "TWzh": "製作材料只需要蜂巢和雜草，\n所以很簡單就能做出來的，\n你還是趕快做一些來治療自己吧！",
      "USen": "Get a wasp nest. Any one is OK—\nit doesn't need a trendy label...\nB-T-dubs? This is the only time I'll\never tell you a label isn't important,\n'K? I've got an image to keep.\nAnyhoo, then you need some weeds.\nMush the wasp nest and the weeds\ntogether and...BOOM! Medicine!\nYou should go make some le pronto\nand get all better!",
      "USes": "Mira, primero buscas un avispero,\nno tiene ni que ser de marca\nni de diseño ni nada...\nLe pones un poquito de maleza,\nbuscas una mesa de taller y lo\nmezclas todo muy bien mezcladito...\n¡Y ya tienes tu medicamento con el\nsello de calidad de una superestrella!\nTe digo yo que, en cuanto te lo\ntomes, dejarás de sentirte superfatal\npero así como de repente, ¿eh?",
      "USfr": "Trouve-toi un nid de guêpes.\nN'importe lequel fera l'affaire,\nt'inquiète...\nTu auras aussi besoin de quelques\nmauvaises herbes. Mélange le tout,\net... BOUM! Remède!\nMaintenant, grouille-toi à te mettre\nau travail, histoire de reprendre\nrapidement forme humaine, lol!"
    }
  }
]