﻿[
  {
    "label": "001",
    "attribute": "0x0000000000000000",
    "locale": {
      "CNzh": "！\n我有些在意\n身体不太好这件事……\n，\n你要是有时间的话，\n也去探探病吧～。",
      "EUde": "Ich hab gehört, dass es  voll schlecht geht, (Floskel)...\nAlso, (Spitzname), wenn du ein Minütchen übrig hast, sag  doch einfach mal Hallo!",
      "EUen": "I heard  is feeling\nsuper grody...\n(nickname), if you've got\ntime, maybe go say hi to him!",
      "EUes": "Oye, he oído que \nestá como superenferm.\n¿Por qué no vas a ver cómo está?\nIría yo, pero es que tengo millones\nde cosas que hacer, ya sabes.",
      "EUfr": "Il paraît que  va pas super fort ? Je crois qu'il est malade...\n(surnom), si tu as cinq minutes, tu pourrais peut-être passer prendre de ses nouvelles ?",
      "EUit": "Ho sentito che \nsta troppo male...\nSe hai tempo, (nickname), \nmagari puoi andare a trovarlo e\nsalutarlo da parte mia!",
      "EUnl": "Hé, ik hoorde dat  zich echt superwalgelijk voelt...\n(nickname), als je tijd hebt, kun je misschien even langsgaan bij hem!",
      "EUru": "Я слышала, \nплохо себя чувствует...\n(nickname), если у тебя\nесть свободная минутка, может,\nзайдешь его проведать?",
      "JPja": "！\nアタイね、が\n体調悪いらしいのが　気になってるんだ・・・\nも、\nもし　時間があったら\nお見まいに　行ってあげなよ～、",
      "KRko": "아, !\n나 말이야, 이\n아프대서 너무 걱정되는 거 있지...\n도\n시간 되면\n병문안을 가보는 게 어때? ?",
      "TWzh": "！\n的身體好像不太舒服，\n所以我有點在意……\n，\n你要是有時間的話，\n也去探望他一下吧～。",
      "USen": "I heard  is feeling\nsuper grody...\n(nickname), if you've got\ntime, maybe go say hi to him!",
      "USes": "Oye, escuché que \nestá como superenferm.\n¿Por qué no vas a ver cómo está?\nYo no puedo... tengo millones\nde cosas que hacer, ya sabes.",
      "USfr": "Il paraît que ⁠ va pas super fort? Je crois qu'il est malade...\n(surnom), si tu as cinq minutes, tu pourrais peut-être passer prendre de ses nouvelles?"
    }
  },
  {
    "label": "002",
    "attribute": "0x0000000000000000",
    "locale": {
      "CNzh": "哎呀，你听我说！\n说感觉今天身体不太舒服，\n所以决定待在家里过了～\n一个人不会出什么问题吧……\n有一点点担心呀～。",
      "EUde": "Hast du von  gehört?  geht's total mies, und  chillt heute zu Hause.\nAber ich mach mir total die Sorgen...\nKannst du nicht mal bei \nreinschauen, (Floskel)?",
      "EUen": " is totes\nfeeling le grody and is\nstaying home all day.\nI wonder if it's OK for him to be all\nalone at home... Hey, could you go\ncheck on him?",
      "EUes": "¿Te has enterado de lo de\n? Está como\nmuy fatal, (catchphrase).\n¿Podrías ir a verl a su casa para\nque no esté sol? Y de paso dale\nánimo y eso.",
      "EUfr": "T'as su pour  ? Il est méga pas en forme et sort plus de chez lui. \nJ'espère qu'il va bientôt se\nremettre... mais je m'inquiète un peu. Tu pourrais passer le voir ?",
      "EUit": "Allora, \nnon si sente bene, quindi se ne\nstarà a casa tutto il giorno.\nForse è meglio se non sta da solo\na casa... Senti, ti spiace andare a\nvedere come se la passa?",
      "EUnl": "Hé hoi. Nou, ? Hij voelt zich echt superwalgelijk en blijft de hele dag thuis. \nIk vraag me af of het wel een goed\nidee is dat hij alleen thuis is... Hé, kun jij kijken hoe het met hem gaat?",
      "EUru": "Знаешь,  болеет\nу себя дома.\nМожет, его не стоит оставлять\nодного... Слушай, почему бы тебе\nне пойти и не проведать его?",
      "JPja": "ねぇ、聞いて！　、\n今日は　身体がダルいから\n部屋で過ごすって　言ってたんだよー\nひとりで　ダイジョーブかなぁ・・・\nちょっと　気になっちゃうよね～、",
      "KRko": "그러고 보니  말인데...\n오늘은 몸이 무겁다면서\n집에서 쉬겠다고 하더라?\n혼자서 괜찮나 몰라...\n좀 걱정되네, ...",
      "TWzh": "欸欸，聽我說！\n說今天身體不太舒服，\n所以要在家裡休息耶～\n他一個人不要緊吧……\n我有點擔心呢～。",
      "USen": " is totes\nfeeling le grody and is\nstaying home all day.\nI wonder if it's OK for him to be all\nalone at home... Hey, could you go\ncheck on him?",
      "USes": "¿Ya te enteraste de lo de\n? Está como\nmuy fatal, (catchphrase).\n¿Podrías ir a verl a su casa para\nque no esté sol? Y de paso dale\nánimo y eso.",
      "USfr": "T'as su pour ? Il est méga pas en forme et sort plus de chez lui.\nJ'espère qu'il va bientôt se\nremettre... mais je m'inquiète un peu. Tu pourrais passer le voir?"
    }
  },
  {
    "label": "003",
    "attribute": "0x0000000000000000",
    "locale": {
      "CNzh": "听我说听我说！总感觉\n今天好像精神不太集中，\n是不是得了感冒呀～？\n，\n要是你有时间的话，\n也去看看怎么回事吧～。",
      "EUde": "Heute hab ich  gesehen, und  sah echt übel aus.  muss krank sein oder so!\nSag mal, (Spitzname), kannst du  nicht kurz Hallo sagen?",
      "EUen": "I saw  looking\nall strange today. Do you\nthink he's sick?\n(nickname), maybe you\nshould go and check on him?",
      "EUes": "Antes he visto a  y tenía un aspecto hooorrible.\nSe ha ido a casa a descansar,\n¿por qué no vas a visitarl?\nSeguro que eso l anima.",
      "EUfr": "J'ai croisé , tout à l'heure. C'est pas la grande forme... Je crois qu'il couve un truc.\n(surnom), ça te dérangerait de lui rendre visite, pour voir s'il manque de rien ?",
      "EUit": "Ho visto che \naveva troppo un aspetto terribile\noggi. Pensi che sia malato?\nForse dovresti andare a vedere come\nse la cava, (nickname)?",
      "EUnl": "Toen ik  vandaag zag, zag hij er echt niet goed uit. \nZou hij misschien ziek zijn?\n(nickname), kun jij, zeg maar, even bij hem langsgaan om te zien hoe het gaat?",
      "EUru": "Мне показалось, что сегодня\nу  разбитый вид.\nЯ думаю, не заболел ли он.\n(nickname), может,\nпроведаешь его?",
      "JPja": "聞いて　聞いて！　、\n今日は　なんだか　ボーっとしてたの！\nカゼでも　引いたのかな～？\nも、\nもし　時間があったら\nちょっと様子を　見てあげて～、",
      "KRko": "내 말 좀 들어봐!  말인데\n오늘 좀 안색이 안 좋더라...\n감기라도 걸렸나～?\n도\n혹시 시간 되면\n괜찮은지 보러 가봐～ !",
      "TWzh": "聽我說聽我說！\n他今天好像一直在發呆耶。\n會不會是感冒了啊～？\n，\n你如果有時間的話，\n也去探望他一下吧～。",
      "USen": "I saw  looking\nall strange today. Do you\nthink he's sick?\n(nickname), maybe you\nshould go and check on him?",
      "USes": "Vi a  y tenía un aspecto hooorrible.\nSe fue a casa a descansar, ¿por qué\nno vas a hacerle una visita?\nSeguro que eso l anima.",
      "USfr": "J'ai croisé , tout à l'heure. C'est pas la grande forme... Je crois qu'il couve un truc.\n(surnom), ça te dérangerait de lui rendre visite, pour voir s'il manque de rien?"
    }
  }
]