﻿[
  {
    "label": "001",
    "attribute": "0x0000000000000000",
    "locale": {
      "CNzh": "啊，！\n你来啦～！\n太好了，我还想和你好好道别呢！\n真的很感谢你愿意给我意见！\n听了你那些话，我现在正在打包行李呢～\n虽然以后住的地方会有些远了，\n不过可千万不要忘记我哦～？。",
      "EUde": "Oh, hallöchen, (Spitzname)!\nSupi, da bist du ja! Ich wollte dir\nnämlich noch was sagen!\nDenn ich bin dir sooo megadankbar\nfür deinen Rat! Ich hab mich\nentschieden! Ich werd umziehn!\nDann wohnen wir voll weit von-\neinander entfernt! Aber ich denk\nimmer an dich, (Spitzname)!",
      "EUen": "Oh! Hey, (nickname).\nI'm glad you came to visit...\nI have something to say to you!\nThanks, like, sooo much for giving\nme advice. It helped me decide to\npack up!\nWe'll be super far apart... But I'll\nalways remember (nickname)\nand my très superstar friend.",
      "EUes": "¡Eh, (nickname)! Qué guay que vengas a verme, porque tengo un notición.\n¿Te acuerdas de lo que hablamos? Pues voy a seguir tu consejo\ny... ¡me mudo!\nQue no te dé pena que vayamos a\nestar separados: ya me verás\nen la tele. Así nunca me olvidarás.",
      "EUfr": "(surnom) !\nJe suis contente de te voir !\nIl fallait que je te dise un truc !\nMerci tout plein pour tes conseils.\nC'est grâce à toi si j'ai décidé de\nmettre les voiles.\nOn sera plus tout près l'un de\nl'autre, mais j'oublierai jamais mon\nsuper poteau (surnom) !",
      "EUit": "Oh, ehi, (nickname)! Sei venuto a trovarmi! Beh, volevo dirti una cosa!\nGrazie per avermi ascoltato e\nconsigliato. Mi hai aiutato a\ndecidere di andarmene!\nSaremo lontanissimi? Sì, una cifra!\nMa non mi dimenticherò mai del\nmio amico (nickname)!",
      "EUnl": "O, hai (nickname)! Jeeeej, je komt op bezoek! Ik wilde je toevallig ook nog wat zeggen!\nEcht superbedankt voor je advies\nvan eerder? Want nu weet ik zeker\ndat ik mijn spullies ga pakken!\nIk ben straks dan wel hartstikke ver weg, maar mijn superstervriend (nickname) vergeet ik nooit.",
      "EUru": "О, привет, (nickname)!\nУра, ты зашел!\nЯ хотела тебе кое-что сказать!\nВ общем, большое тебе спасибо\nза совет! Он так мне помог, правда!\nМы будем так далеко друг от\nдруга, но я всегда буду помнить\nтебя, (nickname)!",
      "JPja": "あっ　\n来てくれたんだー！\nよかった、ちゃんとお礼しときたかったの！\n相談に乗ってくれて、ありがとうねー！\nおかげさまで、今は　荷造りの真っ最中～\n住むとこは　遠くなっちゃうけど、\nアタイのコト　わすれないでね～？　",
      "KRko": "아, 이구나～!\n와줘서 고마워!\n가기 전에 제대로 인사를 하고 싶었어!\n내 고민을 들어줘서 정말 고마웠어!\n덕분에 지금은 짐 싸는 중이야～\n사는 곳은 멀어지겠지만\n그래도 날 잊으면 안 돼! !",
      "TWzh": "啊，！\n你來啦～！\n太好了，我正想好好跟你說謝謝呢！\n很謝謝你\n願意給我意見～！\n多虧了你，我現在正在整理行李唷～\n雖然以後住的地方距離變遠了，\n但你可不能忘了我喔～？。",
      "USen": "Oh! Hey, (nickname).\nI'm glad you came to visit...\nI have something to say to you!\nThanks, like, sooo much for giving\nme advice. It helped me decide to\npack up!\nWe'll be super far apart... But I'll\nalways remember (nickname)\nand my très superstar friend.",
      "USes": "¡Eh, (nickname)! Qué bueno que viniste a verme, porque tengo\nque decirte algo.\nEsa charla que tuvimos me ayudó\na tomar la decisión: ¡me mudo!\nAunque estemos separados, podrás\nverme en la tele cuando sea famosa.\n¡Así nunca me olvidarás!",
      "USfr": "(surnom)!\nJe suis contente de te voir!\nIl fallait que je te dise un truc!\nMerci tout plein pour tes conseils.\nC'est grâce à toi si j'ai décidé de\nmettre les voiles.\nOn sera plus tout près l'un de\nl'autre, mais j'oublierai jamais mon\nsuper poteau (surnom)!"
    }
  },
  {
    "label": "002",
    "attribute": "0x0000000000000000",
    "locale": {
      "CNzh": "哈罗～！\n谢谢你愿意给我建议！\n我马上就开始做搬家的准备了呢！\n只是我还有点担心，\n等我搬走以后，大家会不会因为\n缺少了(resident name)而感到失落呢……\n如果发生那种事情的话，\n就得拜托\n抚慰一下大家啦！交给你了哦～！。",
      "EUde": "Hey-hey, (Spitzname)! Ganz lieben Dank für deinen Rat! Ich hab beschlossen umzuziehn!\nOkay, etwas Sorgen mach ich mir\nschon, dass jetzt alle so voll den\n(Einwohnername)-Entzug kriegen...\nAber die haben ja noch dich,\nstimmt's, (Spitzname)?\nIhr macht das schon!",
      "EUen": "Heeey, (nickname)! Thanks\nfor all your advice! I've decided\nto move out, and...\nI'm, like, low-key worried that\neveryone's going to suffer from\n(resident name) deficiency...\nBut they've got you, don't they,\n(nickname)? You'll take\ngood care of everyone!",
      "EUes": "¡Oye, (nickname)! Voy a seguir tu consejo y a mudarme a\notra isla en plan aventura.\nMe daba como cosa pensar que\nahora todo el mundo querría irse\nde esta isla del disgusto...\n¡Pero te tienen a ti, ! O sea que los dejo en buenas manos.",
      "EUfr": "Tiens, tiens, (surnom) !\nMerci pour les conseils ! Ça m'a\naidée à décider de partir !\nJ'avais surtout peur que les\nhabitants d'ici soient rapidement\nen manque de (nom du résident)...\nMais je compte sur toi pour combler\ncet énorme vide, (surnom) !\nJe sais que tu en es capable !",
      "EUit": "Eeehi, (nickname)! Grazie per i consigli che mi hai dato! Ho deciso di andarmene.\nSono un po' preoccupata che l'isola soffra per mancanza acuta di (resident name)...\nMa, cioè, ci sei tu, giusto, (nickname)?! Andrà tutto bene, ne sono certa!",
      "EUnl": "Haaai (nickname)! Bedankt voor je advies van eerder! Ik ga dus verhuizen en zo!\nIk maak me wel zorgen dat jullie hier dan (resident name)-tekort gaan krijgen...\nMaar ze hebben jou toch nog, (nickname)? Dan komt het vast wel goed!",
      "EUru": "Привет, (nickname)!\nСпасибо за твои советы!\nЯ решила переехать!\nПравда, я немного переживаю,\nчто вам здесь будет не хватать\nгламура (resident name)...\nНо у вас же есть ты,\n(nickname)? Значит,\nвсе будет в порядке!",
      "JPja": "ヤッホー　！\n相談に乗ってくれて、サンキューね！\nさっそく　引っこしの準備してるんだ～\nただ　アタイがいなくなることで\n(resident name)ロスが　起きてしまわないか\nすっごく心配なんだよね・・・\nもしそうなったら、\nが　みんなを\nケアしてあげて！　まかせたよ～！　",
      "KRko": "안녕～ 아!\n내 얘기를 들어줘서 고마워!\n나, 이사 갈 준비를 하고 있어～\n그치만 내가 떠나면\n(resident name) 향수병이 퍼질까 봐\n그게 너무 걱정이야...\n만약에 그런 일이 생기면\n이 다른 애들을\n잘 챙겨줘! 부탁할게, !",
      "TWzh": "嗨嗨～！\n謝謝你願意跟我討論！\n我決定要搬家了喔～！\n只是我好擔心大家\n會不會因為(resident name)的離開\n而感到失落呢……\n如果真的變成那樣的話，\n，\n就拜託你安慰大家！交給你囉～！。",
      "USen": "Heeey, (nickname)! Thanks\nfor all your advice! I've decided\nto move out, and...\nI'm, like, low-key worried that\neveryone's going to suffer from\n(resident name) deficiency...\nBut they've got you, don't they,\n(nickname)? You'll take\ngood care of everyone!",
      "USes": "¡Oye, (nickname)! Voy a seguir tu consejo y a mudarme a otra isla así como de aventura.\nAunque todavía me da como cosa\npensar que todo el mundo estará\nsupertriste cuando me vaya...\n¡Pero te tienen a ti, !\nO sea que los dejo en buenas manos.",
      "USfr": "Tiens, tiens, (surnom)!\nMerci pour les conseils! Ça m'a\naidée à décider de partir!\nJ'avais surtout peur que les\nhabitants d'ici s'ennuient\nrapidement de ⁠(nom du résident)...\nMais je compte sur toi pour combler\ncet énorme vide, (surnom)!\nJe sais que tu en es capable!"
    }
  },
  {
    "label": "003",
    "attribute": "0x0000000000000000",
    "locale": {
      "CNzh": "等你好久了哦～！\n谢谢你愿意听我讲话～\n你也看到了，我决定要搬走啦～！\n平时毕竟也受了\n不少的照顾，最后能有机会\n向你道别，真的是太好了！\n虽然今后我们会在两个不同的地方\n继续生活下去，\n但千万要记得享受人生哦！。",
      "EUde": "DA bist du, (Spitzname)!\nDanke, dass wir noch mal reden\nkonnten. Und, rate mal, ich zieh um!\nIch verdank dir total viel, okay?\nDaher find ich's total klasse, dass\nwir uns noch mal treffen konnten.\nDu musst mir versprechen, dass die\nParty weitergeht, auch wenn ich\nnicht mehr hier wohne!",
      "EUen": "THERE you are, (nickname)!\nThanks for your advice. Kind\nof obvs, but I'm moving out!\nI owe you bunches, you know?\nI'm glad I got to see you one\nlast time to say bye!",
      "EUes": "Escucha, (nickname), que esto es muy fuerte: ¡me mudo!\nTampoco te he dado el sorpresón\nde tu vida, ¿verdad? Bueno, pues\neso. Que gracias por todo.\n¡Igual nos vemos pronto, de todas\nformas! Hasta entonces, sigue\nsiendo tan estupén.",
      "EUfr": "Te voilà, (surnom) !\nMerci ! Merci pour tes conseils !\nParce que du coup, je pars !\nEt tout ça, c'est grâce à toi !\nJ'étais pas fière à l'idée de changer\nd'horizon, mais tu m'as rassurée !\nPromets-moi juste une chose...\nMême si je ne suis plus là, maintiens\nle niveau de fun au max, OK ?",
      "EUit": "Oh, eccoti qua, (nickname)! Grazie per i tuoi consigli. Come avrai capito, ho deciso di andarmene!\nTi sono debitrice, lo sai? E sono\ntroppo contentissima di averti\npotuto rivedere per l'ultima volta.\nDevi promettermi che, anche se me\nne vado, tu continuerai a far festa,\nintesi?!",
      "EUnl": "Daar ben je, (nickname)! Bedankt voor je advies eerder. Ik ga dus duidelijk verhuizen!\nIk heb wel veel aan je te danken, zeg.\nIk ben dus echt superblij dat ik je\nnog een keer zie voor ik ga.\nBeloof me dat je ook zonder mij uit\nje bol blijft gaan!",
      "EUru": "А вот и ты, (nickname)!\nСпасибо за твой совет.\nОжидаемо, но я решила уехать!\nЯ теперь у тебя в долгу! Немного\nгрустно, что я вижу тебя сейчас\nв последний раз.\nНо пообещай, что даже после моего\nотъезда ты останешься звездой\nвсех вечеринок!",
      "JPja": "待ってたよ～　！\n相談に乗ってくれてありがと～\nこのとおり、引っこすことにしたんだー！\nには\nお世話になったし、ちゃんと\nお別れのあいさつ出来て　よかったよ！\nこれからアタイらは　ちがう世界で\n生きていくことになるけど、\nおたがい　エンジョイしてこーね！　",
      "KRko": "왔구나～ 아!\n내 고민을 들어줘서 고마워～\n보다시피 나, 이사 가기로 결심했어!\n한테는\n신세를 많이 졌는데 마지막 인사를\n하고 갈 수 있어서 다행이야!\n앞으로 우리가 사는 곳은 달라지겠지만\n각자의 위치에서 즐겁게 지내자! !",
      "TWzh": "我等你好久了～！\n謝謝你跟我討論～\n就像你看到的，我已經決定要搬家了～！\n，\n我也受了你不少照顧，\n最後能好好跟你道別，真是太好了！\n雖然今後我們兩個\n會生活在不一樣的地方，\n但一定都要盡情享受人生喔～！。",
      "USen": "THERE you are, (nickname)!\nThanks for your advice. Kind\nof obvs, but I'm moving out!\nI owe you bunches, you know?\nI'm glad I got to see you one\nlast time to say bye!",
      "USes": "¡Ah, (nickname)! Tengo algo superfuerte que contarte: ¡me mudo!\nO sea, seguro que ya te lo\nimaginabas después de que\nhablamos, ¿no?\n¡Pues mil gracias por todo!\nEspero que te vaya muy bien.\n¡Y que nos volvamos a ver pronto!",
      "USfr": "Te voilà, (surnom)!\nMerci! Merci pour tes conseils!\nParce que ça y est, je pars!\nEt tout ça, c'est grâce à toi!\nJ'étais pas sûre à l'idée de changer\nd'horizon, mais tu m'as rassurée!\nPromets-moi juste une chose...\nMême si je ne suis plus là, maintiens\nle niveau de fun au max, OK?"
    }
  },
  {
    "label": "004",
    "attribute": "0x0000000000000000",
    "locale": {
      "CNzh": "啊，！\n你能来真是太好了～\n我已经下了决心，要离开这座啦！\n有点先斩后奏，对不起哦～\n总是找不到机会和你当面说……\n所以就是这样，现在正在打包行李呢！\n谢谢你这些时间里和我做朋友！\n……\n我不会忘记你的！。",
      "EUde": "Hey, (Spitzname)!\nCoole Sache, dich zu treffen!\nIch hab beschlossen, wegzuziehen!\nIch wollte nicht einfach so abhaun,\nokay, aber ich wusste auch echt\nnicht, wie ich's dir sagen soll...\nAlso hey, ich pack dann mal meine\nSachen! Danke für alles, und so!\nIch denk an dich, (Spitzname)!",
      "EUen": "Hey, (nickname)!\nThank glitter bombs you're here!\nI've decided to move off this island.\nSorry to bolt, but I couldn't find the\nright time to tell you. So, anyhoo...\nI'm packing to move.\nThanks for kicking it with me!\nI'll never forget about you,\n(nickname)!",
      "EUes": "Bueno, parece que ahora te lo tendré\nque decir sí o sí... Allá va: voy a\nmudarme a otra isla.\nSé que será un drama y por eso no\nsabía cómo decírtelo. Al final he\nesperado hasta el último momento.\nEn fin, gracias por haber sido un\namigo tan chipichipi, (catchphrase).\n¡Nunca te olvidaré!",
      "EUfr": "Kikou (surnom) !\nPar toutes les bombes de paillettes,\ntu es venu ! Je vais quitter l'île !\nDésolée pour l'abrupticitude de la\nnews, j'ai pas réussi à te voir plus\ntôt... Ayé, je suis dans les cartons !\nC'était chouette de t'avoir comme\nvoisin ! Je t'oublierai jamais,\n(surnom) !",
      "EUit": "Ehi, (nickname)! Per tutto il glitter del mondo, sei qui! Ho deciso di andarmene dall'isola.\nScusa se te lo dico così, cioè,\nall'improvviso... ma non ho trovato\nil momento giusto per farlo.\nSì, sto impacchettando tutto! Sei\nstato un amico da paura! Non ti\ndimenticherò, (nickname)!",
      "EUnl": "Hai, (nickname)! Glitterzijdank zie ik je nog! Ik ga dus verhuizen en zo!\nJa, sorry dat ik je zomaar alleen laat,\nmaar ik kon dus echt geen goed\nmoment vinden om het te zeggen... \nMaar goed, daarom pak ik dus al mijn\nspullies in. Bedankt voor de pret! Ik\nvergeet je nooit, (nickname)!",
      "EUru": "Приветик, (nickname)!\nКак я рада, что ты здесь!\nЯ все-таки решила переехать!\nИзвини, что не успела тебе\nсообщить, но... В общем, я уже\nсобираю вещи!\nСпасибо тебе за все!\nЯ никогда-никогда тебя не забуду,\n(nickname)!",
      "JPja": "あ、！\n来てくれてよかった～\nアタイ、このを出ていくことにしたの！\n事後報告でゴメン～\nなかなか　言えるタイミングがなくて・・・\nてなワケで、今は荷造りの真っ最中！\n今まで　仲良くしてくれてサンキュー！\nのこと、\nわすれないからね！　",
      "KRko": "앗, 아!\n와줘서 고마워～\n나, 이 을 떠나기로 했어!\n늦게 말해서 미안～\n말할 타이밍이 없었어...\n아무튼 그래서 지금 짐 싸는 중이야!\n지금까지 잘 대해줘서 고마웠어!\n앞으로도 너를\n잊지 않을게! !",
      "TWzh": "啊，！\n你能來真是太好了～\n我決定要搬出這座島囉！\n真對不起～我都決定了才告訴你～\n因為一直找不到適合的時機跟你說……\n總之就是這樣，我現在正在整理行李！\n謝謝你一直當我的好朋友～\n我一定不會忘記\n的！。",
      "USen": "Hey, (nickname)!\nThank glitter bombs you're here!\nI've decided to move off this island.\nSorry to bolt, but I couldn't find the\nright time to tell you. So, anyhoo...\nI'm packing to move.\nThanks for kicking it with me!\nI'll never forget about you,\n(nickname)!",
      "USes": "Bueno, parece que ahora te lo tendré\nque decir sí o sí... Allá va: voy a\nmudarme a otra isla.\nSé que será un drama y por eso\nno sabía cómo decírtelo. Al final\nesperé hasta el último momento.\nEn fin, gracias por haber sido un\namigo tan superideal, (catchphrase).\n¡Nunca te olvidaré!",
      "USfr": "Kikou (surnom)!\nPar toutes les bombes de paillettes,\ntu es venu! Je vais quitter l'île!\nDésolée pour l'abrupticitude de la\nnouvelle, j'ai pas réussi à te voir plus\ntôt... Ayé, je suis dans les boîtes!\nC'était chouette de t'avoir comme\nvoisin! Je t'oublierai jamais,\n(surnom)!"
    }
  },
  {
    "label": "005",
    "attribute": "0x0000000000000000",
    "locale": {
      "CNzh": "啊，你是从别处来的吗？\n……咦？你是上的居民～？！\n这么一说，我们是第一次见面吧？\n我的名字是(resident name)！\n虽然今天刚和你见面，\n可惜我明天就要离开这座了……\n要和上的各位玩得开心哦！\n希望将来有一天，还能在别的地方\n再次见到你！。",
      "EUde": "Hey! Wolltest du mich besuchen?\nEcht jetzt? Du wohnst auch hier?!\nWir haben uns nie getroffen, oder?\nHey, nett dich kennenzulernen!\nIch bin (Einwohnername)! Okay,\neigentlich zieh ich heute hier weg...\nAlso...\nSchlechtes Timing?\nOkay, man sieht sich!",
      "EUen": "Hey! Are you visiting? Huh?!\nYou live here?! We've never\nmet before, right?\nWell, nice to meet you! My name's\n(resident name)! I know we just\nmet, but I'm moving away today...\nSo...awkward? But byyyyyyye!",
      "EUes": "Anda, ¿tú vives en esta isla?\nPues no te había visto como que\nnunca antes.\nMe llamo (resident name). Es una pena que no me hayas conocido\nantes. Es que me mudo hoy.\nMomento incómodo, ¿verdad?\nPues adiós ¡y que te vaya superguay!",
      "EUfr": "Tiens, un visiteur !\nQu'est-ce que j'ois ?! Tu habites sur\nl'île ?! Mais on s'est jamais croisés !\nBon ben en chantier, je m'appelle\nTeuse, lol ! Nan, je blague, je suis\n(nom du résident) !\nMais à propos de chantier, fais pas\ngaffe aux cartons, je suis en plein\ndéménagement...\nAlors...\nBonjour, et... au revoir !",
      "EUit": "Ehi, sei qui in visita? Eh?!\nAbiti qui?! Noi non ci conosciamo,\ngiusto?\nBeh, piacere! Io mi chiamo (resident name)! Ci siamo appena conosciuti e ti dico che me ne vado.\nTroppo strano, eh? Sì... Beh, allora...\nArrivederci!",
      "EUnl": "O, hai! Ben je hier op bezoek? Hè?! Je woont hier?! Ja maar, wij hebben\nelkaar nog nooit ontmoet, toch?!\nNaja, aangenaam en zo! Ik ben (resident name) en ik verhuis dus vandaag naar een ander eiland...\nDus, eh... Gênant? Naja, doeiii!",
      "EUru": "Привет! Путешествуешь?\nЧего?! Ты здесь живешь?!\nА мы раньше никогда не виделись!\nНу, рада познакомиться! Меня зовут\n(resident name)! Мы только познакомились, а я уже уезжаю...\nКак-то... неловко...\nЧто поделать! Пока!",
      "JPja": "あ、よそから来たひとー？\n・・・ええっ　このの住民～？！\nてゆうか、会うの初めてだよね？\nアタイは　(resident name)！\nせっかく会えたところなんだけど、\n今日　このを出ていくんだよ～・・・\nのみんなと　仲良くね！\nアンタとは、またいつかどこかで\n会えるといいな！　",
      "KRko": "앗, 다른 곳에서 온 사람이야?\n...뭐어? 이  주민이라고～?!\n근데 왜 처음 보는 얼굴이지?\n난 (resident name)이라고 해!\n만나서 반갑긴 한데\n오늘 이 을 떠날 거야...\n 친구들이랑 잘 지내!\n나중에 어디선가 다시\n만날 수 있었음 좋겠다! !",
      "TWzh": "啊，是從外地來的客人嗎～？\n……咦咦？你是這座島上的居民～！？\n是說我們是第一次見面吧？\n我叫(resident name)！\n雖然難得才認識了你，\n但我今天就要搬離這座島了……\n你要跟這座島上的大家好好相處喔！\n希望我們可以在未來的某一天、某個地方\n再次相遇！。",
      "USen": "Hey! Are you visiting? Huh?!\nYou live here?! We've never\nmet before, right?\nWell, nice to meet you! My name's\n(resident name)! I know we just\nmet, but I'm moving away today...\nSo...awkward? But byyyyyyye!",
      "USes": "¿Tú vives en esta isla?\nPorque creo que nunca\nte había visto por aquí.\nSoy (resident name). Qué mal que no nos hayamos conocido antes, justo hoy me mudo a otro lado.\nQué fatal, ¿no? En fin, hola,\nmucho gusto y adiosito.",
      "USfr": "Tiens, un visiteur!\nQu'est-ce que j'ois?! Tu habites sur\nl'île?! Mais on s'est jamais croisés!\nBon ben en chantier, je m'appelle\nTeuse, lol! Nan, je blague, je suis\n(nom du résident)!\nMais à propos de chantier, oublie les boîtes, je suis en plein\ndéménagement...\nAlors...\nBonjour, et... au revoir!"
    }
  },
  {
    "label": "006",
    "attribute": "0x0000010000000000",
    "locale": {
      "CNzh": "啊，！\n你来得正好呀！\n我刚决定要搬出这座了～\n所以你以后来，\n也没办法再见到我了……\n抱歉啦！\n因为我还没决定要搬到哪里，\n所以也没法告诉你新住址……\n能和你道别真的太好了～！。",
      "EUde": "(Spitzname)! Ich hab beschlossen umzuziehn. Ich wohn hier also bald gar nicht mehr, okay?\nIch hab TOTAL keine Ahnung, wohin\nich ziehe, also... werden die nächsten\nTage bestimmt voll spannend...",
      "EUen": "(nickname)! I decided to\nmove away. So I won't be\nhere next time you visit.\nI don't have ANY idea where I'm\nmoving, so my next few days\nshould be prrretty interesting...",
      "EUes": "Oye, (nickname), vienes en un momento estupén, porque así aprovecho y me despido.\n¡Es que me mudo hoy! O sea que,\nsi vuelves de visita, no estaré.\nYa, será un rollo sin mí...\nA todo esto no tengo ni idea\nde adónde ir. ¡Qué emocionante,\n!",
      "EUfr": "(surnom) ! La prochaine fois que tu viendras ici, tu m'y trouveras plus. Je mets les voiles !\nLe plus drôle, c'est que je sais pas\noù je vais aller. Les prochains jours\ndevraient être rock and roll !",
      "EUit": "Ehi, (nickname)! Ho deciso di andarmene. La prossima volta che vieni in visita, non mi troverai.\nNon ho la minima idea di dove\nandare a vivere. I prossimi giorni\nsi prospettano molto interessanti...",
      "EUnl": "(nickname)! Ik heb dus bedacht dat ik ga verhuizen, dus bij je volgende bezoek ben ik er niet.\nIk heb dus echt géén idee waar ik\nheen ga? Dus de komende paar\ndagen worden wel spannend...",
      "EUru": "(nickname)! Я решила\nпереехать. Так что в следующий раз\nменя здесь уже не будет.\nЯ вообще понятия не имею, куда\nя еду! Так что следующие дни\nбудут очень интересными...",
      "JPja": "あ、\nちょうど　いいところに来てくれたね！\nアタイ、このを　出ていくんだ～\nだから　これからはもう、\nに　遊びに来ても\nアタイには会えないの・・・ゴメンね！\n引っこし先は　まだ決めてないから\n住所とか　教えらんないんだけど、\nお別れだけでも言えて　よかったよ、",
      "KRko": "아, 아!\n마침 잘 왔어!\n나, 이 을 떠나기로 했어～\n그래서 이젠\n에 놀러와도\n날 만날 수는 없을 거야... 미안!\n아직 어디로 갈지 못 정해서\n주소는 알려줄 수 없지만\n작별 인사라도 해서 다행이다～! !",
      "TWzh": "啊，。\n你來得正好！\n其實，我就要搬離這座島了～\n所以從今以後，\n就算你再來玩，\n也看不到我了……真對不起！\n因為我還沒決定要搬去哪裡，\n也沒辦法跟你說地址之類的……\n但光是能親自道別，我就很開心了，。",
      "USen": "(nickname)! I decided to\nmove away. So I won't be\nhere next time you visit.\nI don't have ANY idea where I'm\nmoving, so my next few days\nshould be prrretty interesting...",
      "USes": "Oye, (nickname), vienes en un momento superideal, justo para despedirme de ti.\n¡Es que me mudo hoy! O sea que,\ncuando regreses, ya no estaré aquí.\nYa sé, nada será lo mismo sin mí...\nPor cierto, no tengo ni idea de adónde me mudaré. ¡Qué emocionante, !",
      "USfr": "(surnom)! La prochaine fois que tu viendras ici, tu m'y trouveras plus. Je mets les voiles!\nLe plus drôle, c'est que je sais pas\noù je vais aller. Les prochains jours\ndevraient être rock and roll!"
    }
  },
  {
    "label": "006_01",
    "attribute": "0x0000000000000000",
    "locale": {
      "CNzh": "啊，！\n你来得正好呀！\n我刚决定要搬出这座了～\n所以你以后来，\n也没办法再见到我了……\n抱歉啦！\n早知道你要来的话，\n我应该办一场\n离别演唱会的～。",
      "EUde": "(Spitzname)! Du kommst genau richtig! Ich sag dieser Insel hier Auf Wiedersehen, (Floskel)!\n verliert damit leider an Starpower, aber man muss auch mal an sich denken.\nEigentlich hätt ich mich hier mit voll\ndem großen Konzert verabschieden\nmüssen... Na ja, zu spät!",
      "EUen": "Oh, hey there, (nickname).\nNice timing! It's your last chance\nto say goodbye to me!\nThis sparkle rocket is blasting off\nfrom , headed for\nthe twin stars of fame and fortune!\nI don't have an exact landing spot in\nmind yet. But somewhere out there's\nan island that needs a pop star!\nWhen I find it, you'll know. You'll see\nthe spotlights in the sky and hear\nthe pyrotechnics!\nSee you around, (nickname)!\nFor real, though...I'm really glad I got\nto tell you bye, .",
      "EUes": "Oye, (nickname), vienes en un momento divino, porque así aprovecho y me despido.\n¡Es que me mudo hoy! Si vuelves a  de visita, no estaré. Ya, será un rollo sin mí...\nPero igual nuestros caminos vuelven\na cruzarse o algo, ¿no?\nA ver, me verás en la tele o en las\nrevis seguro, claro... Y yo a ti te\nllevaré siempre dentro, .",
      "EUfr": "Oh, coucou, (surnom). Super timing ! Si tu veux me dire au revoir, c'est maintenant !\nJe prends mes paillettes et mes\nlasers, et ciao , direction... je sais pas encore où !\nJe trouverai bien une île en manque\nde star internationale !\nQuand j'y serai, attends-toi à voir à\nl'horizon les lueurs du plus grand feu\nd'artifice jamais tiré !\nPrends soin de toi, (surnom) !\nJe suis contente de t'avoir revue une dernière fois avant mon départ, .",
      "EUit": "Oh, ciaaao, (nickname). Che tempismo! È la tua ultima occasione per dirmi addio!\nIl presente razzo glitterato sta lasciando  per un futuro di fama e fortuna!\nCioè, non sono bene dove atterrerò,\nma da qualche parte ci sarà un'isola\na cui serve una pop star!\nQuando la trovo, lo saprai. Perché\nvedrai le luci nel cielo e sentirai i\nfuochi d'artificio!\nCi si vede, (nickname)!\nSul serio, comunque... sono\ntroppo contenta di essere riuscita\na salutarti, .",
      "EUnl": "O, hé hoi, (nickname). Goeie timing! Dit is je laatste kans om afscheid van mij te nemen!\nDeze glitterraket verlaat , op zoek naar roem!\nIk weet nog niet waar ik heen zal\ngaan, maar er is vast wel een eiland\ndat een popster kan gebruiken!\nIk laat je weten zodra ik het heb\ngevonden. Kijk uit naar schijnwerpers\nen vuurwerk!\nTot ziens, (nickname)!\nEffe serieus en zo... Ik ben blij dat ik\nafscheid van jou heb kunnen nemen,\n.",
      "EUru": "О, приветик, (nickname).\nТы как раз вовремя! Еще успеваешь\nсо мной попрощаться. Лови момент!\nТвоя яркая звездочка отчаливает\nс острова \nв поисках славы и богатства!\nЯ еще не решила, куда перееду.\nНо где-то наверняка есть остров,\nкоторому нужна поп-звезда!\nКогда я его найду, ты сразу об этом\nузнаешь. По свету прожекторов\nв небе и грохоту фейерверков!\nЕще увидимся, (nickname)!\nА если серьезно... я правда очень\nрада, что смогла с тобой\nпопрощаться. !",
      "JPja": "あ、\nちょうど　いいところに来てくれたね！\nアタイ、このを　出ていくんだ～\nだから　これからはもう、\nに　遊びに来ても\nアタイには会えないの・・・　ゴメンね！\nが来るなら\n　卒業ライブを\nやったほうが　よかったかな～、",
      "KRko": "아, 아!\n마침 잘 왔어!\n나, 이 을 떠나기로 했어～\n그래서 앞으로는\n에 놀러와도\n날 만날 수는 없을 거야... 미안!\n이 오는 줄 알았더라면\n 이별 콘서트라도\n열 걸 그랬어～ ",
      "TWzh": "啊，。\n你來得正好！\n其實，我就要從這座島上搬走了～\n所以之後就算你再來玩，\n也見不到我了……真對不起！\n既然都來了，\n那我是不是要在上\n辦場告別演唱會比較好呢～？。",
      "USen": "Oh, hey there, (nickname).\nNice timing! It's your last chance\nto say goodbye to me!\nThis sparkle rocket is blasting off\nfrom , headed for\nthe twin stars of fame and fortune!\nI don't have an exact landing spot in\nmind yet. But somewhere out there's\nan island that needs a pop star!\nWhen I find it, you'll know. You'll see\nthe spotlights in the sky and hear\nthe pyrotechnics!\nSee you around, (nickname)!\nFor real, though...I'm really glad I got\nto tell you bye, .",
      "USes": "Oye, (nickname), vienes en un momento increíble, porque así aprovecho y me despido.\n¡Es que me mudo hoy! O sea, si hubieras venido después de que me\nfuera, ¡ya no me habrías encontrado!\nSí, sé que es una pérdida FATAL para\neste lugar... Pero tengo que irme a...\na... Oooy, no sé adónde iré. ¡Ni idea!\n¡Qué emocionante, (catchphrase)!",
      "USfr": "Oh, coucou, (surnom). Super timing! Si tu veux me dire au revoir, c'est maintenant!\nJe prends mes paillettes et mes\nlasers, et ciao , direction... je sais pas encore où!\nJe trouverai bien une île en manque\nde star internationale!\nQuand j'y serai, attends-toi à voir à\nl'horizon les lueurs du plus grand feu\nd'artifice jamais lancé!\nPrends soin de toi, (surnom)!\nJe suis contente de t'avoir revu une dernière fois avant mon départ, ."
    }
  },
  {
    "label": "006_a",
    "attribute": "0x0000000000000000",
    "locale": {
      "CNzh": "来我的上吧！",
      "EUde": "Zieh auf meine Insel!",
      "EUen": "Move to my island!",
      "EUes": "¡Vente a mi isla!",
      "EUfr": "Viens sur mon île !",
      "EUit": "Vieni nella mia isola!",
      "EUnl": "Kom naar mijn eiland!",
      "EUru": "Не хочешь на мой остров?",
      "JPja": "うちのに　おいでよ！",
      "KRko": "우리 으로 와!",
      "TWzh": "來我住的島上吧！",
      "USen": "Move to my island!",
      "USes": "¡Vente a mi isla!",
      "USfr": "Viens sur mon île!"
    }
  },
  {
    "label": "006_b",
    "attribute": "0x0000000000000000",
    "locale": {
      "CNzh": "你要加油哦",
      "EUde": "Du findest schon was!",
      "EUen": "Good luck!",
      "EUes": "¡Que tengas suerte!",
      "EUfr": "Bon vent !",
      "EUit": "Buona fortuna!",
      "EUnl": "Veel succes!",
      "EUru": "Удачи тебе!",
      "JPja": "がんばってね",
      "KRko": "응원할게",
      "TWzh": "你要加油喔",
      "USen": "Good luck!",
      "USes": "¡Que tengas suerte!",
      "USfr": "Bon vent!"
    }
  },
  {
    "label": "007",
    "attribute": "0x0000000000000000",
    "locale": {
      "CNzh": "嗯？我们是第一次见面吧！\n我的名字叫做(resident name)哦～\n请多指教……本来是应该这么说的啦！\n不过我这就要搬家了～\n明明才刚见到你，太可惜了！\n现在还必须马上决定\n接下来该去哪里，事情还挺多的～\n希望将来还能再和你见面吧～！。",
      "EUde": "Oh, hey! Nett, dich zu treffen!\nIch bin (Einwohnername)!\nIch würde total gern mit dir\nabhängen, aaaber... ich zieh um!\nBin schon so gut wie weg!\nTja, hm, das ist ja mal blöd.\nUnd ich hab auch noch gar nicht\nentschieden, wohin ich ziehe.\nIch schätze, das sollte ich besser mal\nrausfinden. Bis irgendwann mal!",
      "EUen": "Hi, I'm (resident name)!\nI'd say let's hang out, buuuut...\nI'm heading out! Moving away!\nI haven't decided where to move,\nthough, so I guess I should get\nback to figuring that out. Bye!",
      "EUes": "Ay, es un placer conocerte, . Yo soy (resident name).\nJo, me encantaría charlar y eso, pero\nes que me mudo y tengo mil cosas\nque hacer... como decidir adónde ir...\nPlanear las cosas en orden\nno es lo mío.",
      "EUfr": "Oh, une nouvelle tête ! Enchantée !\nJe m'appelle (nom du résident) !\nJe t'aurais bien proposé de faire la\nfête, mais... je suis sur le départ.\nÀ moi l'horizon inconnu et vierge !\nAlors ce sera pour une autre fois. Je\nsais pas encore où je vais me poser,\nalors si tu veux bien m'excuser...",
      "EUit": "Uh? Bella storia conoscerti! Io sono (resident name)!\nTi proporrei di far baldoria insieme,\nma... sto per levare le tende!\nMe ne vado ed è un gran peccato.\nAncora non ho deciso dove andare.\nDovrò pensarci un altro po'. Ci si\nvede!",
      "EUnl": "Wat? Hé, leuk je te ontmoeten en zo! Ik ben (resident name)!\nIk zou lekker met je gaan feesten,\nmaar... Ik vertrek binnenkort! Ik ga\nnaar een ander eiland verhuizen!\nDus ja, even geen feestjes, helaas. Ik\nweet ook nog niet waar ik heen ga\nverhuizen en zo.\nDat moet ik dus maar eens gaan\nuitzoeken. Doei!",
      "EUru": "Хм? О, рада познакомиться!\nМеня зовут (resident name)!\nЯ бы предложила потусить,\nно... Увы, я переезжаю!\nОбидно вышло, конечно.\nЯ пока не знаю, куда переезжать.\nТак что, наверное, продолжу\nдумать об этом. Пока!",
      "JPja": "ん？　はじめましてだよね！\nアタイは　(resident name)っていうんだ～\nヨロシク・・・って言いたいトコなんだけど\nアタイ　引っこしちゃうんだよね～\nせっかく会えたのに　ザンネン！\nこれから　どこにいくか\n決めなきゃならなくて、いそがしいんだ～\nまたどこかで　会えたらいいねー！　",
      "KRko": "응? 우리 처음 보는 사이지?\n나는 (resident name)이라고 해～\n친하게 지내자...고 하고 싶은데\n이사 가기로 했어～\n이렇게 만났는데 아쉽다!\n어디로 이사 갈지\n지금부터 정해야 돼서 정신이 없어～\n언젠가 다시 만났으면 좋겠다! !",
      "TWzh": "嗯？我們是初次見面對吧！\n我叫(resident name)唷～\n雖然我很想……跟你說聲請多指教，\n但其實我已經決定要搬走了～\n難得能見到你，好可惜喔！\n我還得決定今後要搬去哪裡，\n所以現在正忙呢～\n希望之後還能再見到你喔～！。",
      "USen": "Hi, I'm (resident name)!\nI'd say let's hang out, buuuut...\nI'm heading out! Moving away!\nI haven't decided where to move,\nthough, so I guess I should get\nback to figuring that out. Bye!",
      "USes": "¡Oh, hola! Es un placer conocerte,\nme llamo (resident name).\nTe invitaría a quedarte, ¡pero\nresulta que hoy me mudo!\nEn fin, te dejo que aún tengo que\ndecidir adónde iré a vivir.",
      "USfr": "Oh, une nouvelle tête! Enchantée!\nJe m'appelle (nom du résident)!\nJe t'aurais bien proposé de faire la\nfête, mais... je suis sur le départ.\nÀ moi l'horizon inconnu et vierge!\nAlors ce sera pour une autre fois. Je\nsais pas encore où je vais me poser,\nalors si tu veux bien m'excuser..."
    }
  },
  {
    "label": "007_01",
    "attribute": "0x0000000000000000",
    "locale": {
      "CNzh": "嗯？我们是第一次见吧！\n我叫(resident name)呀～\n虽然我是很想说请你多关照啦……\n不过如你所见，我要搬走啦～\n没让你见识到我炒热\n气氛的样子，真是好可惜哦！\n你就多多从大家口中了解一下\n这座的魅力吧，要尽情享受哦！\n希望今后能在其他地方相遇！。",
      "EUde": "Huch? Freut mich, dich kennenzu-\nlernen. Ich heiße (Einwohnername)!\nSchade, dass wir uns nicht früher\ngetroffen haben. Wir hätten echt\ndicke Freunde werden können!\nTja, nun werd ich  verlassen und meine Popkarriere auf einer anderen Insel fortsetzen!\nVielleicht läuft man sich ja dort mal\nüber den Weg! Würde mich echt volle\nKanne freuen, (Floskel)!",
      "EUen": "So, eh, it's nice to meet you. I'm\n(resident name).\nNormally I'd say all that \"let's get to\nknow each other\" stuff to you, but\nI'm actually about to move away.\nGuess I won't be lighting up\n with my star\npower anymore. Which is totes sad.\nBut, hey, I'm sure everyone here\nwould LOVE to teach you all about\nthis awesome island.\nAnd don't worry, (catchphrase), it'll\nstill be pretty awesome even when\nI'm not here. I mean, more or less.",
      "EUes": "Oy, encantadísima de conocerte,\n. Me presento: soy\n(resident name).\nJo, me encantaría charlar y eso, pero\nestoy a punto de mudarme y tengo\nmil cosas que hacer todavía...\nBueno, pero tú no te preocupes, que\na lo mejor un día de estos nos vemos\npor ahí.\n¡O a lo mejor me ves en la tele\ncuando dé el salto a la fama\ndefinitivo, guapi!",
      "EUfr": "Oh, une nouvelle tête ! Enchantée !\nJe m'appelle (nom du résident) !\nJe t'aurais bien proposé de faire la\nfête, mais... je suis sur le départ.\nEh ouais, je déménage.\nJe ne mettrai plus l'ambiance à , alors il va falloir apprendre à se passer de moi, lol !\nMais je me suis bien éclatée sur\ncette île ! J'espère que je reverrai\ntout le monde bientôt,  !",
      "EUit": "Oh, sono felice una cifra di fare\nla tua conoscenza, !\nMi presento: il mio nome è\n(resident name).\nVorrei troppo chiacchierare con te,\nperò sto per traslocare e ho, cioè,\nmilioni di cose ancora da fare...\nPerò non preoccuparti... Vedrai che\nci rivedremo in giro prima o poi.\nO al massimo mi vedrai in TV nel\nmio supermegaultraconcerto pop\nin mondovisione!",
      "EUnl": "Hè? O, aangenaam! Ik ben (resident name)! \nZoooo jammer dat we elkaar pas nu\nleren kennen. We hadden beste\nvrienden of zo kunnen worden!\nNaja, morgen verlaat ik . Ik heb nieuwe inspiratie voor mijn liedjes nodig!\nMisschien komen we elkaar nog eens\ntegen! Dat zou mij onwijs te gek\nlijken, (catchphrase)!",
      "EUru": "Рада встрече. Меня зовут\n(resident name).\nИзвини, настоящего знакомства\nне выйдет, потому что я собралась\nуезжать.\nДа, я не буду сверкать на острове\n. Это, конечно,\nпечально.\nНо знаешь, уверена, местные\nжители будут рады ввести тебя\nв курс дел.\nНе переживай! Здесь будет и без\nменя весело. Возможно.",
      "JPja": "ん？　はじめましてだよね！\nアタイは　(resident name)っていうんだ～\nヨロシクって　言いたいトコなんだけど・・・\nこのとおり、引っこしちゃうんだよね～\nをもりあげる\nアタイのすがたを　見せれなくて、ザンネン！\nま、みんなから　こののミリョクを\nいっぱい教えてもらって、楽しんでってよ！\nまたどこかで　会えたらいいねー、",
      "KRko": "응? 우리 처음 보는 사이지?\n나는 (resident name)이라고 해～\n친하게 지내자...고 말하고 싶은데...\n보다시피 이사를 가게 됐어～\n에서 활약하는\n내 모습도 못 보고, 너도 참 안됐다!\n아쉬운 대로 다른 애들한테\n이 의 매력도 소개받고 잘 놀다 가!\n다음에 어딘가에서 또 만나자, !",
      "TWzh": "嗯？我們是第一次見面吧！\n我叫(resident name)～\n雖然我很想說「請你多多關照……」\n不過如你所見，我就要搬走啦～\n沒能讓你看到我炒熱\n氣氛的樣子，真是可惜！\n你就從大家口中了解一下\n這座島的魅力吧，要過得開心喔！\n希望我們今後能在其他地方相遇！。",
      "USen": "So, eh, it's nice to meet you. I'm\n(resident name).\nNormally I'd say all that \"let's get to\nknow each other\" stuff to you, but\nI'm actually about to move away.\nGuess I won't be lighting up\n with my star\npower anymore. Which is totes sad.\nBut, hey, I'm sure everyone here\nwould LOVE to teach you all about\nthis awesome island.\nAnd don't worry, (catchphrase), it'll\nstill be pretty awesome even when\nI'm not here. I mean, more or less.",
      "USes": "Holi, encantadísima de conocerte,\n. Me presento: soy\n(resident name).\nMe gustaría hablar contigo y eso,\npero estoy a punto de mudarme y\ntengo mil cosas que hacer todavía...\nBueno, pero tú no te preocupes, que\na lo mejor un día de estos nos vemos\npor ahí.\n¡O quizá me ves en la tele cuando\ndé el salto a la fama definitivo, guapi!",
      "USfr": "Oh, une nouvelle tête! Enchantée!\nJe m'appelle (nom du résident)!\nJe t'aurais bien proposé de faire la\nfête, mais... je suis sur le départ.\nEh ouais, je déménage.\nJe ne mettrai plus l'ambiance à , alors il va falloir apprendre à se passer de moi, lol!\nMais je me suis bien amusée sur\ncette île! J'espère que je reverrai\ntout le monde bientôt, !"
    }
  },
  {
    "label": "007_02",
    "attribute": "0x0000000000000000",
    "locale": {
      "CNzh": "嗯？我们是第一次见吧！\n我叫(resident name)呀～\n虽然我是很想说请你多关照啦……\n不过如你所见，我要搬走啦～\n虽然我很喜欢在这座上的生活，\n不过因为种种原因，我打算回父母家了。\n没让你见识到我炒热\n气氛的样子，真是好可惜哦！\n希望今后能在其他地方相遇！。",
      "EUde": "Hey, du! Freut mich total, dich kennenzulernen! Ich bin (Einwohnername).\nIch würde ja vorschlagen, dass wir\nuns so richtig kennenlernen, aber...\nich bin gerade dabei, umzuziehen.\nIch find's hier auf  echt cool. Aber ich geh dann doch lieber zurück nach Hause.\nSchade irgendwie. Ich wollte den Bewohnern von  noch was beibringen. Und zwar...\n...wie man auf (Einwohnername)-Art feiert! Tja, hoffentlich sehen wir uns mal wieder, !",
      "EUen": "Hm? Oh, hello! Nice to meet you!\nI'm (resident name).\nI'd say let's start on the path to\nbeing besties, but I'm actually\ngetting ready to leave this place!\nI mean, it's totally fab here, but I'm\npreeetty sure things would fall apart\nwithout me back home, (catchphrase).\nIt's way too bad we don't have more\ntime, but that's the way it goes.\nHopefully we meet again sometime!",
      "EUes": "Oy, encantadísima de conocerte,\n. Me presento: soy (resident name)⁠.\nJo, me encantaría charlar y eso, pero\nestoy a punto de volver a casa y\ntengo mil cosas que hacer aún...\nEs una pena que no podamos vivir\naventuras superestupén los dos\njuntos en ...\n¡Pero a lo mejor me ves en la tele\ncuando dé el salto a la fama\ndefinitivo, guapi!",
      "EUfr": "Oh, une nouvelle tête ! Enchantée !\nJe m'appelle (nom du résident) !\nJe t'aurais bien proposé de faire la\nfête, mais... je suis sur le départ.\nEh ouais, je déménage.\nJe me plaisais bien sur cette île, mais\nil faut que je retourne chez mes\nparents, c'est une longue histoire...\nJe ne mettrai plus l'ambiance à , alors il va falloir apprendre à se passer de moi, lol !\nJ'espère qu'on se reverra un jour,\nautre part,  !",
      "EUit": "Oh, ciaaao! Sono (resident name)! Cioè, mi piacerebbe un sacco conoscerti meglio, ma...\nEcco, io in realtà sto per andarmene.\nÈ troppo bello qui, ma ho una cifra\ndi cose da sbrigare a casa mia,\ncapito, così ho deciso di tornarci.\nPurtroppo  dovrà fare a meno di una star come me. Ma che ci vuoi fare? Capita!\nMi raccomando, divertiti! E a presto,\n!",
      "EUnl": "Hé hoi! Leuk om je te ontmoeten! Ik\nben (resident name)!\nNormaal zou ik zeggen dat we vast\nsupergoeie vrienden worden, maar ik\nblijf niet lang meer op dit eiland!\nHet is hier onwijs te gek, maar ik\nweet dat ze niet zonder me kunnen\nop mijn oude eiland, (catchphrase).\nJammer dat ik niet kan laten zien hoe\npopulair ik hier ben, maar zo gaat dat\nnou eenmaal. Hopelijk tot snel!",
      "EUru": "Э? (resident name), очень приятно!\nЯ бы предложила нам потусить,\nно... я как раз уезжаю.\nМесто здесь шикарное, конечно,\nно но дома без меня все идет\nнаперекосяк. !\nЖаль, что мы не сможем зажигать\nна острове ! Но\nкто знает — может, еще увидимся!",
      "JPja": "ん？　はじめましてだよね！\nアタイは　(resident name)っていうんだ～\nヨロシクって　言いたいトコなんだけど・・・\nこのとおり、引っこすんだよね～\nこのでのくらし　気に入ってたんだけど、\nいろいろあって、実家に帰ることにしたの\nをもりあげる\nアタイのすがたを　見せれなくて、ザンネン！\nまたどこかで　会えたらいいねー、",
      "KRko": "응? 우리 처음 보는 사이지?\n나는 (resident name)이라고 해～\n친하게 지내자...고 말하고 싶은데...\n보다시피 이사를 가게 됐어～\n이 에서 사는 것도 즐거웠지만\n사정이 있어서 고향으로 돌아가기로 했어\n에서 활약하는\n내 모습도 못 보고, 너도 참 안됐다!\n다음에 어딘가에서 또 만나자, !",
      "TWzh": "嗯？我們是初次見面吧！\n我叫(resident name)～\n雖然我很想說聲請多指教……\n不過如你所見，我要搬走了～\n雖然我很中意這座島上的生活，\n不過我因為一些個人原因，決定要回老家了。\n很遺憾無法讓你見識到我炒熱\n氣氛的樣子！\n要是以後還有機會見面那就好了，。",
      "USen": "Hm? Oh, hello! Nice to meet you!\nI'm (resident name).\nI'd say let's start on the path to\nbeing besties, but I'm actually\ngetting ready to leave this place!\nI mean, it's totally fab here, but I'm\npreeetty sure things would fall apart\nwithout me back home, (catchphrase).\nIt's way too bad we don't have more\ntime, but that's the way it goes.\nHopefully we meet again sometime!",
      "USes": "Oy, encantadísima de conocerte,\n. Me presento: soy (resident name)⁠.\nMe encantaría charlar y eso, pero\nestoy a punto de volver a mi casa y\ntengo mil cosas que hacer aún...\nEs una pena que no podamos vivir\naventuras supergeniales los dos\njuntos en ...\n¡Pero a lo mejor me ves en la tele\ncuando dé el salto a la fama\ndefinitivo, guapi!",
      "USfr": "Oh, une nouvelle tête! Enchantée!\nJe m'appelle (nom du résident)!\nJe t'aurais bien proposé de faire la\nfête, mais... je suis sur le départ.\nEh ouais, je déménage.\nJe me plaisais bien sur cette île, mais\nil faut que je retourne chez mes\nparents, c'est une longue histoire...\nJe ne mettrai plus l'ambiance à , alors il va falloir apprendre à se passer de moi, lol!\nJ'espère qu'on se reverra un jour,\nautre part, !"
    }
  },
  {
    "label": "008",
    "attribute": "0x0000000000000000",
    "locale": {
      "CNzh": "谢谢你～！\n其实我还稍微有些憧憬呢～\n独自踏上没有终点的旅途！\n要是等到自己真的做了偶像，\n就再也享受不到这种自由了！\n我要去积累许许多多的经验啦～。",
      "EUde": "Danke, (Spitzname)!\nIch werd eine Weltreise machen\nund voll die Abenteuer erleben!\nJeder Star sollte mal um die Welt\nreisen! Abenteuer! Romantik! Und\nvoll schöne Outfits! Yay, Weltreise!!!",
      "EUen": "Thanks, (nickname)!\nI'm going to go wander the world\nand have some adventures!\nEverybody should travel, B-T-dubs.\nMeet folks, learn new stuff, eat\ngreat food you can't get at home!",
      "EUes": "Gracias, rey. Voy a viajar en plan\nespíritu libre sin rumbo. Conoceré\nnuevas gentes, viviré un gran amor...\nMe descubrirá un cazatalentos\nen un aeropuerto... Lo típico.\n¡Qué ganas, (catchphrase)!",
      "EUfr": "Merci, (surnom) !\nJe vais parcourir le vaste monde\net vivre des aventures incroyables !\nTout le monde devrait faire pareil !\nC'est pas en restant chez soi qu'il\nnous arrivera des trucs de dingue !",
      "EUit": "Grazie una cifra, (nickname)! Andrò in giro per il mondo in cerca di avventure!\nLe ragazze devono conoscere\nil mondo. Successo! Amore! Non si\ntrovano stando seduti sul divano!",
      "EUnl": "Dank je, (nickname)! Ik ga de wereld in en lekker avonturen beleven en zo!\nDat zou echt ieder meisje moeten\ndoen! Avontuur! Romantiek! Dat ga\nje echt niet op de bank vinden, hoor!",
      "EUru": "Спасибочки, (nickname)!\nИ на мир посмотрю,\nи себя покажу!\nКаждая девочка должна\nпутешествовать! Приключения!\nРомантика! Как же дома усидеть?",
      "JPja": "ありがとー　！\n実は、ちょっと夢だったんだ～\nあてのない　ひとり旅！\nこうゆう自由は\nアイドルになってからじゃ　ムリだもんね！\nいろんな　ケイケンしちゃうんだから～、",
      "KRko": "고마워, 아!\n사실 목적지 없는 여행은\n내심 꿈꿔왔던 거라서 설레!\n아이돌이 되면\n이런 자유도 마음껏 누릴 수 없잖아?\n그 전에 많이 경험해야지～ !",
      "TWzh": "謝謝你～！\n其實我有一個小小的夢想～\n就是一個人踏上旅行，沒有目的地的去流浪！\n畢竟當上了偶像以後，\n就沒辦法享受這種自由了呢！\n我還想去體驗更多不同的事物～。",
      "USen": "Thanks, (nickname)!\nI'm going to go wander the world\nand have some adventures!\nEverybody should travel, B-T-dubs.\nMeet folks, learn new stuff, eat\ngreat food you can't get at home!",
      "USes": "¡Muchas gracias! Voy a viajar\ny a darme a conocer en muchas\npartes del mundo.\nA lo mejor me ve algún cazatalentos\ny doy por fin el salto al estrellato.\n¡Qué emoción, (catchphrase)!",
      "USfr": "Merci, (surnom)!\nJe vais parcourir le vaste monde\net vivre des aventures incroyables!\nTout le monde devrait faire pareil!\nC'est pas en restant chez soi qu'il\nnous arrivera des trucs de spécial!"
    }
  },
  {
    "label": "101",
    "attribute": "0x0000000000000000",
    "locale": {
      "CNzh": "嘻嘻！光是想象一下\n那会是怎样的地方，\n就让我觉得非常兴奋了！\n好期待新生活！\n新朋友肯定也马上就能交到的啦～\n毕竟我的交际能力可是很强的！\n等我在那边安顿好之后，\n你也过来找我玩吧～\n我会好好欢迎你的！。",
      "EUde": "Hallo und hallöchen, (Spitzname)! Hör mal, ich zieh nach !\nUnd das wird so total klasse, okay?\nIch werd voll die vielen Freunde\nfinden, denn alle lieben mich.\nDu musst mich unbedingt mal\nbesuchen. Denn du bist bei mir\nwillkommen, egal wann, egal wo!",
      "EUen": "(nickname)! Check it out!\nI'm moving to beautiful\n!\nI'm SO excited for my new life.\nI'm going to make sooo many new\nfriends with my dazzling social skills!\nYou should totally come for a visit\nonce I'm settled in. You are SO\nwelcome anytime!",
      "EUes": "¡Oye, oye, oye, (nickname)! ¡Que me mudo a  que dicen que es estupén!\n¡Los cambios son taaaaan emocionantes! Voy a tener\nasí como mil nuevos amigos.\n¿Vendrás a verme cuando esté\ninstalada? ¿Sí? ¿Vale que sí?\n¡Dime que síiiii!",
      "EUfr": "(surnom) !\n(surnom) !\nDevine quoi !\nJe pars pour  !\nJe suis trop surexcitée !\nJe vais rencontrer plein de nouveaux\namis, grâce à mon charisme de ouf !\nLaisse-moi le temps d'arriver, mais\nt'as intérêt à venir me rendre visite !\nÇa me fera plaisir de te voir !",
      "EUit": "Ehilààà, (nickname)! Mi trasferisco nella stratosferica !\nCioè, sono troppo gasata! Voglio\nfarmi, tipo, un sacco di amici\nipermegaultra!\nDevi venire a trovarmi quando\nmi sono sistemata. A casa mia,\nsarai sempre il benvenuto!",
      "EUnl": "Hé hoi (nickname)! Kijk mij eens! Ik ga dus verhuizen naar het gave eiland !\nIk heb echt wel zin in mijn nieuwe\nleven?! Ik ben supersociaal, dus ik\nga hartstikke veel vrienden maken!\nKom eens langs als ik eenmaal\ngewend ben en zo. Je bent echt altijd\nwelkom!",
      "EUru": "О, приветики, (nickname)!\nСлушай! Я переезжаю на чудесный\nостров !\nТак шикарно начать новую жизнь!\nУ меня будет еще больше крутых\nновых друзей!\nКак только я обоснуюсь на новом\nместе, жду тебя в гости.\nЯ всегда рада тебя видеть!",
      "JPja": "えへへ！　アタイが引っこす\nが　どんなところか、\n想像して　テンション上げてるの！\n新生活が　ちょー楽しみ！\n友達も、すぐに作っちゃうよ～\nアタイのコミュ力は　ハンパないからね！\n引っこしして　落ち着いたら、\n　遊びにきてよ～\nカンゲイするからさ！　",
      "KRko": "에헤헤! 내가 이사 갈\n이 어떤 곳일지\n상상하면서 기대감을 키우는 중이야!\n새로운 생활이 너무 기대돼!\n가자마자 친구도 많이 사귈 거야～\n난 여기서도 알아주는 마당발이었는걸!\n이사 가고 새 환경에 좀 적응되면\n도 놀러와～\n언제든지 환영할게! !",
      "TWzh": "嘻嘻！光是想像我要搬去的\n會是怎麼樣的地方，\n就覺得心情超High的！\n我真的超～期待新生活的說！\n感覺一定很快就能交到新朋友～\n畢竟我可是很擅長交際的唷！\n等我的新家都安頓好了，\n，你一定要來玩喔～\n我會很歡迎你的！。",
      "USen": "(nickname)! Check it out!\nI'm moving to beautiful\n!\nI'm SO excited for my new life.\nI'm going to make sooo many new\nfriends with my dazzling social skills!\nYou should totally come for a visit\nonce I'm settled in. You are SO\nwelcome anytime!",
      "USes": "¡Eh, (nickname)! Voy a mudarme a la bonita isla de .\n¡Estoy superemocionada por el\ncambio! Quiero hacer un montón\nde nuevos amigos.\nDeberías venir a visitarme cuando\nesté instalada. ¡En mi casa siempre\nserás bienvenido!",
      "USfr": "(surnom)!\n(surnom)!\nDevine quoi!\nJe pars pour !\nJe suis trop surexcitée!\nJe vais rencontrer plein de nouveaux\namis, grâce à mon charisme!\nLaisse-moi le temps d'arriver, mais\nt'as intérêt à venir me rendre visite!\nÇa me fera plaisir de te voir!"
    }
  },
  {
    "label": "102",
    "attribute": "0x0000000000000000",
    "locale": {
      "CNzh": "这个世界比我们想象中的更小，\n相信我们还会在其他地方相遇的！\n在重逢之前，就暂且别离吧！\n我要在新天地里，\n寻找到全新的自己哦～！。",
      "EUde": "Wir sehn uns bestimmt mal wieder!\nDie Welt ist klein, oder? Es kann ja\nnicht unendlich viele Inseln geben!",
      "EUen": "I bet we'll see each other again!\nIt's a big world, but there's only\nso much of it, right?",
      "EUes": "Seguro que volveremos a vernos\nen alguna otra isla. ¡Que tampoco\nson infinitas!",
      "EUfr": "On se reverra, c'est sûr ! Le monde\nest petit et c'est pas comme s'il y\navait une infinité d'îles !",
      "EUit": "Vedrai che ci rivedremo troppo da\nqualche altra parte. Cioè, non è che\nci sono isole a perdita d'occhio qua!",
      "EUnl": "We zien elkaar echt wel weer! Zo\ngroot is de wereld niet, toch? Er zijn\necht niet oneindig veel eilanden!",
      "EUru": "Уверена, мы еще увидимся! Мир\nне такой уж и большой, да? Рано\nили поздно точно пересечемся!",
      "JPja": "意外と　世界はせまいし、\nいつかきっと会えるって信じてるよ！\nそれまでは　バイバイ！\n新しい場所で、\n新しい自分を　見つけるんだ～！　",
      "KRko": "세상은 의외로 좁으니까\n언젠가 또 만날 수 있을 거야!\n그때까진 잠시 헤어져 있자!\n새로운 환경에서\n새로운 나를 찾을 거야～! !",
      "TWzh": "其實世界意外地很小唷，\n我相信將來我們一定會再見面的！\n在那之前，先跟你說聲再見囉！\n我要去全新的地方，\n尋找全新的自己～！。",
      "USen": "I bet we'll see each other again!\nIt's a big world, but there's only\nso much of it, right?",
      "USes": "Seguro que volveremos a vernos\nen alguna parte. Tampoco es que\nhaya tantas islas por aquí.",
      "USfr": "On se reverra, c'est sûr! Le monde\nest petit et c'est pas comme s'il y\navait une infinité d'îles!"
    }
  },
  {
    "label": "103",
    "attribute": "0x0000000000000000",
    "locale": {
      "CNzh": "又能和\n住在同一座上，\n我真的超～级开心呀！\n和我当初住的时候相比，\n是不是又有了许多变化呢～\n每天都可以和你随意聊天啦！。",
      "EUde": "Ich find's so klasse, dass wir bald\nwieder auf der gleichen Insel wohnen\nwerden, (Spitzname)!\nHey, ob sich da alles total verändert\nhat? Vielleicht erkenn ich überhaupt\nnix mehr wieder...",
      "EUen": "I'm SO excited I get to live on le\nsame island as you again,\n(nickname)!\nI wonder what's changed since I lived\nthere? Will I recognize anything...\nWill I recognize ANYONE?!",
      "EUes": "¿En serio vamos a vivir en la misma\nisla... otra vez?\nAy, dime, ¿ha cambiado mucho?\n¿Se acuerdan todos de mí?",
      "EUfr": "Je réalise toujours pas qu'on va\nà nouveau habiter sur la même île,\n(surnom) !\nJe me demande ce qui a changé,\ndepuis mon dernier passage...\nSi ça se trouve, je reconnaîtrai rien !",
      "EUit": "Che storia tornare a vivere\ninsieme sulla stessa isola,\n(nickname)!\nCioè, chissà quante cose saranno\ncambiate dall'ultima volta... Gli altri\nsi ricorderanno di me?",
      "EUnl": "Ik vind het echt zo onwijs te gek dat\nwe weer op hetzelfde eiland zullen\nwonen, (nickname)!\nWat zou er allemaal veranderd zijn\nsinds ik er was? Hopelijk herken ik\nhet nog een beetje...",
      "EUru": "Я так рада, что мы с тобой снова\nживем на одном острове,\n(nickname)!\nИнтересно, многое ли изменилось\nс тех пор, как я уехала? \nСмогу ли я все узнать...",
      "JPja": "また　と\n同じで　くらせるなんて、\nちょーウレシイよ～！\nアタイが　住んでた時から\nいろいろ変わってるのかな～\n毎日　ご近所トークしちゃおーね！　",
      "KRko": "다시 이랑\n같은 에서 살게 돼서\n정말 기뻐～!\n내가 전에 살던 때랑\n많이 달라졌으려나～\n그동안 밀린 근황 토크부터 하자! !",
      "TWzh": "居然又可以跟\n住在同一座島上，\n我超～開心的說！\n從我以前住的時候到現在，\n應該已經改變很多了吧～\n之後我們每天都可以閒話家常囉～！。",
      "USen": "I'm SO excited I get to live on le\nsame island as you again,\n(nickname)!\nI wonder what's changed since I lived\nthere? Will I recognize anything...\nWill I recognize ANYONE?!",
      "USes": "¿En serio vamos a vivir en la misma\nisla... otra vez?\nAy, cuéntame, ¿ha cambiado mucho?\n¿Se acuerdan todos de mí?",
      "USfr": "Je réalise toujours pas qu'on va\nà nouveau habiter sur la même île,\n(surnom)!\nJe me demande ce qui a changé,\ndepuis mon dernier passage...\nSi ça se trouve, je reconnaîtrai rien!"
    }
  },
  {
    "label": "104",
    "attribute": "0x0000000000000000",
    "locale": {
      "CNzh": "下次再和见面，\n就是在（岛名）上了，对吧！\n去到那边以后，\n我可要让你好好介绍一下上的好地方，\n你要做好心理准备哦～？。",
      "EUde": "Hey (Spitzname), das nächste Mal sehen wir uns dann schon auf (Inselname)!\nUnd dann musst du mir ALLES\nzeigen, okay? Ich will ALLES sehen!",
      "EUen": "Next time I see you,\n(nickname)...\nit'll be at (island name)!\nI need the full tour, 'K?\nShow me concert venues, shops,\nrestaurants, beaches, places to\nlive... I want to see it all!",
      "EUes": "La próxima vez que nos veamos,\nserá en (island name), ¡mi nuevo hogaaar!\n¿Me enseñarás toooda la isla?\n¿Con todos sus rincones y cosas? ¡Va a ser superguay, !",
      "EUfr": "Notre prochaine rencontre, ça sera\nsur (nom de l'île) !\nJe compte sur toi pour me faire la\ntotale en matière de visite, c'est\npromis ? Tu sortiras le grand jeu ?",
      "EUit": "Allucinante! La prossima volta che ci vedremo, sarà  (island name), (nickname)!\nConto troppo su di te per fare un\ngiro da paura dell'isola, OK? Ci sarà\nda divertirsi, (catchphrase)!",
      "EUnl": "De volgende keer dat we elkaar zien, zit ik dus op (island name), (nickname)!\nMaar je moet me er wel alles laten\nzien, oké? Ik wil geen stukje van het\neiland missen!",
      "EUru": "Когда увидимся в следующий раз,\n(nickname), это будет на\nострове (island name)!\nЯ жду от тебя полную обзорную\nэкскурсию!\nКонцертные залы, магазины,\nрестораны, пляжи... Я хочу\nувидеть все!",
      "JPja": "次に　と\n会うときは　(island name)で、だね！\nあっちに行ったら　のコト\nいろいろ　レクチャーしてもらうから、\nカクゴしといてよね～？　",
      "KRko": "이랑 나는\n다음에 (섬/도 이름)에서\n만나게 되겠네!\n그쪽으로 이사 가면\n에 대해서 많이 물어볼 테니까\n각오 단단히 하고 있어! !",
      "TWzh": "，我們下次再見面\n就是在（島名）了，對吧！\n等到了那裡之後，\n我一定要讓你好好講解一下島上的事，\n你可要做好覺悟喔～。",
      "USen": "Next time I see you,\n(nickname)...\nit'll be at (island name)!\nI need the full tour, 'K?\nShow me concert venues, shops,\nrestaurants, beaches, places to\nlive... I want to see it all!",
      "USes": "La próxima vez que nos veamos,\nserá en (island name), ¡mi nuevo hogar!\nEspero que me enseñes toooda\nla isla, no quiero perderme ni\nuna esquina, ¿eh?\n¡Qué divertidooo, (catchphrase)!",
      "USfr": "Notre prochaine rencontre, ça sera\nsur (nom de l'île)!\nJe compte sur toi pour me faire la\ntotale en matière de visite, c'est\npromis? Tu sortiras le grand jeu?"
    }
  },
  {
    "label": "105",
    "attribute": "0x0000000000000000",
    "locale": {
      "CNzh": "我要搬去的那个地方……\n不知道你有没有听说过，\n叫做哦～！\n我要重新出发，好好加油啦！\n……如果你有机会去的话，要来找我玩哦！\n我随时都欢迎你的！。",
      "EUde": "Sag mal, kennst du diese Insel,\nauf die ich ziehe? Die heißt\n!\nDu musst mich da unbedingt mal\nbesuchen kommen. Wann immer\ndu willst!",
      "EUen": "I don't know if you've heard of this\nisland I'm moving to... It's called\n!\nYou should totes visit if you have the\nchance. For real! Anytime you want!",
      "EUes": "¿Has estado alguna vez en ? Es la isla a la que me mudo.\nOye, vendrás a verme, ¿verdad?\n¡Te haré un tour estupén, !",
      "EUfr": "Je déménage vers une nouvelle île.\n, elle s'appelle.\nÇa te dit quelque chose ?\nPasse me dire bonjour, à l'occase.\nJe trouverai bien cinq minutes pour\npapoter avec toi !",
      "EUit": "Cioè, non so se hai mai sentito parlare di ... Beh, è dove andrò a vivere adesso!\nVieni a trovarmi quando ti va, OK?\nTi farò fare un giro allucinante!",
      "EUnl": "Ik weet niet of je het eiland kent\nwaar ik heen ga verhuizen? Het heet\n!\nAls je tijd hebt, moet je écht eens\nlangskomen. Maakt niet uit wanneer,\nhoor!",
      "EUru": "Не знаю, знаком ли тебе остров,\nна который я переезжаю? \nОн называется !\nКогда сможешь, точно залетай\nв гости. В любое время!",
      "JPja": "アタイの引っこし先、\n知ってるかどうか　わかんないけど\nってトコなんだ～！\n心機一転、がんばってくるよ！\n・・・もし　来られるなら遊びにきてね、\nいつでも　カンゲイするから！　",
      "KRko": "내가 어디로 이사 가는지\n이미 알고 있을지도 모르겠지만\n이라는 곳이야～!\n새로운 마음으로 열심히 적응하려고 해!\n...혹시 기회가 되면 놀러와!\n언제든 반갑게 맞아줄게! !",
      "TWzh": "雖然不曉得你是不是已經\n知道我要搬去哪了，\n但總之，就是啦～！\n我會改變想法，好好加油的！\n……如果你能來的話，就來找我玩吧。\n我隨時都歡迎你喔！。",
      "USen": "I don't know if you've heard of this\nisland I'm moving to... It's called\n!\nYou should totes visit if you have the\nchance. For real! Anytime you want!",
      "USes": "¿Has estado alguna vez en la isla\n? Allí es donde voy a vivir ahora.\nVen a visitarme siempre que quieras,\n¿sí? ¡Te daré un tour privado!",
      "USfr": "Je déménage vers une nouvelle île.\n, elle s'appelle.\nÇa te dit quelque chose?\nPasse me dire bonjour, à l'occasion.\nJe trouverai bien cinq minutes pour\ndiscuter avec toi!"
    }
  },
  {
    "label": "106",
    "attribute": "0x0000000000000000",
    "locale": {
      "CNzh": "本来想趁着搬家的机会\n清理掉一些东西，这样走得也方便，\n可是突然发现全都舍不得丢……。",
      "EUde": "Vor dem Umzug sollte ich vielleicht\nein paar Sachen entsorgen.\nAber ich weiß nicht mehr, welche ich\nmir von meiner Ma ausgeliehen hab...",
      "EUen": "I should ditch a bunch of stuff to\nmake the move easier, but I'm always\nsure I'll NEED what I threw out...",
      "EUes": "El truco de las mudanzas es tirarlo\ntodo antes de irte para ir ligera\nde equipaje.",
      "EUfr": "Je voulais bazarder des trucs pour\nvoyager plus léger, mais je sais plus\nce que j'ai emprunté à ma mère...",
      "EUit": "Devo, cioè, buttare via troppa roba\nper rendere più facile il trasloco.\nIl problema è che non mi ricordo\nciò che è mio e ciò che mi hanno\nprestato, (catchphrase).",
      "EUnl": "Ik zou echt meer moeten weggooien,\nmaar ik weet niet meer wat ik nou\nvan mam heb geleend...",
      "EUru": "Надо выкинуть кое-какие вещи...\nЛегче будет переезжать, но я не\nпомню, что взяла у мамусика...",
      "JPja": "引っこしを機会に　モノを減らして\n身軽になりたいトコなんだけど、\nすてられないモノばっかなんだよね、",
      "KRko": "이사 가는 김에 물건도 줄이고\n가볍게 떠나고 싶은데\n버릴 게 없네, ...",
      "TWzh": "雖然我想趁著搬家\n丟一些東西來減輕負擔，\n但又有好多東西都捨不得丟掉呢，。",
      "USen": "I should ditch a bunch of stuff to\nmake the move easier, but I'm always\nsure I'll NEED what I threw out...",
      "USes": "Voy a tener que botar un montóóón\nde cosas para que la mudanza sea\nun poquitito más fácil...\nEl problema es que... Pues... ya no\nrecuerdo qué cosas son prestadas\ny cuales son mías...\nPero ¡no le vayas a contar eso\na nadie, porfi! ¡Lueguito me encargo\nde devolver lo prestado!",
      "USfr": "Je voulais donner des trucs pour\nvoyager plus léger, mais je sais plus\nce que j'ai emprunté à ma mère..."
    }
  },
  {
    "label": "107",
    "attribute": "0x0000000000000000",
    "locale": {
      "CNzh": "希望下一个也能是个好地方～\n会有什么样的缘分等待着我呢……\n啊～！梦想越来越大了～！。",
      "EUde": "Ich bin total gespannt, wie meine\nFreunde auf der neuen Insel wohl\ndrauf sind... TOTAL gespannt!",
      "EUen": "I wonder what kind of friends I'll\nmake on the new island...\nI'm SO excited!",
      "EUes": "¿Qué vecinos tendré en mi nueva\nisla? ¡Qué ganas tengo de que me\nconozcan todos!",
      "EUfr": "Je me demande quel genre d'amis je\nvais me faire sur ma nouvelle île...\nMais j'ai trop hâte !",
      "EUit": "Chissà che amici da paura mi farò\nsulla nuova isola... Sono troppo\nemozionata!",
      "EUnl": "Ik vraag me af wat voor vrienden ik\nga maken op het nieuwe eiland...\nAaaaaah, dit is echt zó spannend!",
      "EUru": "Так интересно, какие ребята\nживут на новом острове... Я уже\nпредвкушаю наши тусовки!",
      "JPja": "次も　ステキなだといいな～\nどんな出会いが　待ってるのかな～・・・\nあ～ん！　夢がふくらむよ～！　",
      "KRko": "다음에 살 도 멋진 곳이라면 좋겠다～\n거기선 어떤 만남이 기다리고 있을까...\n아～! 너무 설레～! !",
      "TWzh": "希望接下來要搬去的島也這麼棒～\n會有什麼樣的相遇在等著我呢……\n啊～！真是充滿了可能性～！。",
      "USen": "I wonder what kind of friends I'll\nmake on the new island...\nI'm SO excited!",
      "USes": "¿Qué clase de vecinos serán los de\nla nueva isla? ¡Qué ganas tengo\nde descubrirlo!",
      "USfr": "Je me demande quel genre d'amis je\nvais me faire sur ma nouvelle île...\nMais j'ai trop hâte!"
    }
  },
  {
    "label": "108",
    "attribute": "0x0000000000000000",
    "locale": {
      "CNzh": "心中满载着梦想与希望，\n我就要飞向全新的舞台了……\n是不是感觉非常浪漫呀～？！。",
      "EUde": "So machte ich mich auf die Suche\nnach fernen Ländern, Abenteuern\nund, vielleicht... der großen Liebe.\nYeah, voll geschauspielert! Das\nhab ich den ganzen Tag geübt! Ich\nbin total die mega Schauspielerin!",
      "EUen": "And so I set out in search of new\nlands, adventure, and maybe...love.",
      "EUes": "¿Habrá clases de interpretación\nen la nueva isla?\nPorque, si no eres actriz, cantante,\nbailarina de claqué y piloto de avión,\nvaya birria de estrella eres.",
      "EUfr": "Et c'est comme ça que j'ai mis les\nvoiles, à la recherche d'une nouvelle\nîle, d'aventure... et de l'amour !\nWouh ! T'as vu cette réplique ? Ça,\nc'est de l'interprétation ! J'ai répété\ntoute la journée pour en arriver là !",
      "EUit": "Sulla nuova isola mi metterò\na studiare recitazione di brutto!\nOgni cantante che si rispetti deve\nsaper recitare, ballare, rotolare e\npilotare un aereo.",
      "EUnl": "Ik ga op zoek naar nieuwe plekken,\navontuur, en misschien... de liefde.\nDat heet acteren! Ik deed net\nacteren en zo! Ik oefen al de hele\ndag op die zin, weet je!",
      "EUru": "Итак, я ухожу в новые земли за\nновыми приключениями, историями, может... даже любовью.\nАктерская игра!\nЯ это сейчас сыграла!\nЦелый день репетировала!",
      "JPja": "夢と希望を　だきしめて、\n新たな世界へ旅立つ　アタイ・・・\nなんか　ドラマチックだよねー？！　",
      "KRko": "꿈과 희망을 안고\n새로운 세상으로 떠나는 나...\n꼭 드라마 주인공 같지 않아? ?",
      "TWzh": "懷抱著夢想與希望，\n我踏上了前往新世界的旅途……\n感覺是不是很戲劇化呀～！？。",
      "USen": "And so I set out in search of new\nlands, adventure, and maybe...love.",
      "USes": "En la nueva isla me pondré en serio\na practicar interpretación.\nCualquier cantante que se precie\ndebe saber actuar, bailar, un poco\nde gimnasia y pilotar un avión.",
      "USfr": "Et c'est comme ça que j'ai mis les\nvoiles, à la recherche d'une nouvelle\nîle, d'aventure... et de l'amour!\nWouh! T'as vu cette réplique? Ça,\nc'est de l'interprétation! J'ai répété\ntoute la journée pour en arriver là!"
    }
  },
  {
    "label": "200",
    "attribute": "0x0000010000000000",
    "locale": {
      "CNzh": "虽然我很喜欢这座，\n但我毕竟有一个梦想，\n一定要成为超级偶像……！\n所以我觉得自己还需要看到更多的世界，\n还必须积累更多的经验……\n有没有合适的新住所呢～。",
      "EUde": "Ich find diese Insel voll schön, okay?\nAber ich will die Welt sehen! Und\nvoll die Sachen erleben, und so!\nAber... wohin geh ich zuerst?",
      "EUen": "I like, love this island. But I want to\nsee the world! So, like, where should\nI go?",
      "EUes": "Me gusta esta isla, pero mi club de fans no aumenta. Si no vienen a mí,\ntendré que ir yo a buscarlos, ¿no?\n¿Adónde podría ir?",
      "EUfr": "En vrai, je la kiffe, cette île.\nMais je veux voir le monde et vivre\ndes aventures incroyables !\nJe me demande par où je devrais\ncommencer mon fabuleux voyage...",
      "EUit": "Cioè, quest'isola mi piace una cifra,\nma sento che è arrivato il momento\ndi fare nuove esperienze...\nDove potrei andare?",
      "EUnl": "Ik hou dus écht van dit eiland? Maar\nik wil de wereld zien! En dingen\nervaren en zo!\nDus, eh, waar zal ik eens heen gaan?",
      "EUru": "Я обожаю этот остров! Но и на мир\nхочу посмотреть! И, может, даже\nузнать что-то суперновое!\nКак думаешь, куда отправиться?",
      "JPja": "こののコトは　大好きなんだけどさ、\nアタイには　スーパーアイドルになるってゆう\n夢があるから・・・！\nそのために　いろんな世界を見て\nケイケンを積まなきゃって　思ってるんだけど\nどこか　いい引っこし先ないかな～、",
      "KRko": "이 도 정말 좋지만\n나에겐 슈퍼 아이돌이 되겠다는\n꿈이 있어...!\n그러려면 다양한 세상을 보고\n경험을 쌓는 게 중요해!\n어디 괜찮은 곳 없을까, ?",
      "TWzh": "雖然我真的非常喜歡這座島，\n但是我希望自己以後\n能成為超級偶像……！\n所以我認為需要多去看看不同的世界，\n累積各式各樣的經驗……\n不知道有沒有什麼好地方能搬過去呢～。",
      "USen": "I like, love this island. But I want to\nsee the world! So, like, where should\nI go?",
      "USes": "Me gusta esta isla, pero siento que\nnecesito expandir mis horizontes...\n(y mi club de fans).\n¿Adónde podría ir?",
      "USfr": "En vrai, je l'aime, cette île.\nMais je veux voir le monde et vivre\ndes aventures incroyables!\nJe me demande par où je devrais\ncommencer mon fabuleux voyage..."
    }
  },
  {
    "label": "200_a",
    "attribute": "0x0000000000000000",
    "locale": {
      "CNzh": "来我的上吧，怎么样？",
      "EUde": "Meine Insel!",
      "EUen": "How about my island?",
      "EUes": "¡Vente a mi isla!",
      "EUfr": "Par mon île ?",
      "EUit": "Vieni nella mia isola!",
      "EUnl": "Kom naar mijn eiland?",
      "EUru": "На мой остров?",
      "JPja": "うちの、どう？",
      "KRko": "우리  어때?",
      "TWzh": "我住的島怎麼樣？",
      "USen": "How about my island?",
      "USes": "¡Vente a mi isla!",
      "USfr": "Par mon île?"
    }
  },
  {
    "label": "200_b",
    "attribute": "0x0000000000000000",
    "locale": {
      "CNzh": "你要加油哦！",
      "EUde": "Such dir was aus!",
      "EUen": "You'll figure it out!",
      "EUes": "¡Algo se te ocurrirá!",
      "EUfr": "Tu trouveras bien.",
      "EUit": "Troverai un posto!",
      "EUnl": "Je vindt wel een plek!",
      "EUru": "Ты придумаешь!",
      "JPja": "がんばってね！",
      "KRko": "힘내!",
      "TWzh": "你要加油喔！",
      "USen": "You'll figure it out!",
      "USes": "¡Algo se te ocurrirá!",
      "USfr": "Tu trouveras bien."
    }
  },
  {
    "label": "201",
    "attribute": "0x0000000000000000",
    "locale": {
      "CNzh": "咦～这也算不上新世界呀～\n…………！！\n不对，这算是反其道而行吗？！\n在那个上，大家都认识从前的我。\n而这一次，大家会看到全新的我……\n说不定还有机会发现自己的新一面～？！\n能在这里遇见，\n一定也是某种缘分吧！\n我这就打电话去服务处问一问！。",
      "EUde": "Ääähm... Hallo?! Da war ich doch\nschon mal. Ich meine, ich hab da\nGEWOHNT und...\nOder gerade deswegen?! Du willst\nmein neues Ich allen zeigen, die\nmein altes Ich gekannt haben...\nUnd dann sehen sie, dass ich jetzt\nder TOTALE WAHNSINN bin!\nMuss Schicksal sein, dass wir uns\nheute hier getroffen haben. Ich ruf\ngleich mal im Servicecenter an!",
      "EUen": "Ummm...duh? I've already been\nthere. I lived there, remem—\nOr is that your point?!\nShow the NEW me to everyone\nwho knew the OLD me... And let\nthem see how chic I am now!\nIt's obvs fate that I ran into you,\n(nickname)! I'll go call\nResident Services and ask!",
      "EUes": "¿A tu isla? Pero si ya he vivido...\n¡Aaah! ¡Me echas de menos!\nQué cuqui eres, ...\nSoy incapaz de rechazar la petición\nde un fan como tú. ¡Acepto!\nY yo también te he echado un poquititín de menos.\nAhora mismo llamo a la oficina de\ngestión vecinal para preguntar.",
      "EUfr": "Hmmm... Attends, je connais cet\nendroit, non ? J'y suis déjà allée\net... C'est ça, ton idée ?!\nQue la nouvelle moi rencontre les\ngens qui connaissaient l'ancienne...\nEt qu'ils voient l'évolution de ouf !\nC'est une sacrée coïncidence, de te\nrecroiser, (surnom) ! Et pile maintenant ! OK, j'appelle pour voir !",
      "EUit": "Uhm... davvero? Sono già stata là.\nCi vivevo là, ricord... Ah, mi stai\ninvitando a tornarci?!\nCioè, mostrare la mia nuova me\na tutti quelli che conoscevano\nla mia vecchia me...\nE far vedere a tutti quanto sono\nallucinante adesso!\nÈ troppo destino che ci siamo\nincontrati, (nickname)! Chiamo subito il centro servizi!",
      "EUnl": "Ehhh... Oké? Daar ben ik al geweest?\nIk heb er gewoond, weet je n- Of is\ndat wat je bedoelt?!\nIk kan aan iedereen van vroeger de nieuwe (resident name) laten zien. Dan zien ze hoe super ik nu ben!\nDat ik je hier tegenkom is letterlijk\nmijn lot, (nickname)! Ik ga zo\nde servicebalie bellen en vraag het!",
      "EUru": "Э... что? Я же уже там была.\nМы жили на одном острове, так?\nА, вот ты о чем!\nПоказать новую себя тем, кто знал\nстарую меня... И пусть все знают,\nкакая новая я шикарная!\nЭто явно судьба, что ты это сказал,\n(nickname)! Сейчас же\nпозвоню в бюро услуг и все узнаю!",
      "JPja": "え～、新しい世界じゃないじゃん～\n・・・・・・！！\n逆に、ってパターン？！\n昔のアタイを知ってるで\n今のアタイを見てもらう・・・\n新しい何かを得られる　チャンスかもー？！\nと\n会えたのも　なんか運命を感じるし、\n案内所に電話して　聞いてみるー！　",
      "KRko": "뭐야～ 거긴 새로운 세상이 아니잖아～\n......!!\n아니, 반대인가?!\n예전의 내 모습을 아는  사람들에게\n지금의 나를 보여주면...\n새로운 발견이 있을지도 몰라!\n하고 만난 것도\n왠지 운명 같은데\n안내소에 전화해서 물어볼게! !",
      "TWzh": "咦～那就不是到新世界啦～\n…………！！\n難道這是逆向操作！？\n讓以前就認識我的大家\n看看現在的我有什麼不一樣……\n搞不好能讓我有些新的體會唷～！？\n能和相遇，\n一定也是命運的安排，\n我現在就打電話去服務處問問～！。",
      "USen": "Ummm...duh? I've already been\nthere. I lived there, remem—\nOr is that your point?!\nShow the NEW me to everyone\nwho knew the OLD me... And let\nthem see how chic I am now!\nIt's obvs fate that I ran into you,\n(nickname)! I'll go call\nResident Services and ask!",
      "USes": "¿A tu isla? Pero ya viví allí antes,\n¿recuerdas? ¡Ayyy! ¿De eso se\ntrata?\nMe extrañas, ¿verdad? Claro,\nes que soy una vecina adorable\ny ultradivertida.\nAdemás, soy incapaz de rechazar\nla petición de un fan como tú.\n¡Acepto!\n¡Ahora mismo llamo a la oficina de gestión vecinal para preguntar!",
      "USfr": "Hmm... Attends, je connais cet\nendroit, non? J'y suis déjà allée\net... C'est ça, ton idée?!\nQue la nouvelle moi rencontre les\ngens qui connaissaient l'ancienne...\nEt qu'ils voient l'évolution de fou!\nC'est une belle coïncidence, de te\nrecroiser, (surnom)! Et pile maintenant! OK, j'appelle pour voir!"
    }
  },
  {
    "label": "202",
    "attribute": "0x0000000000000000",
    "locale": {
      "CNzh": "咦，真的吗？\n的……\n嗯，好像还不错！\n住的，\n肯定会是个非常欢乐的地方！\n我先去问问你那边的服务处，\n看看还有没有可以住的地方！。",
      "EUde": "Echt? Die Insel von (Spitzname), also...\nJa, okay!\nIch meine, wenn DU da bist, ist\nimmer was los, (Floskel)!\nOkay! Ich frag dann mal bei deinem\nServicecenter, ob die noch Platz für\nmich haben!",
      "EUen": "Hmm...(nickname)'s island...\nYeah. OK! I mean, if YOU'RE there,\nlife will def be très GREAT!\nAlright! I'll check with your Resident Services and see if they have room\nfor me!",
      "EUes": "Ah, pues mira... Podría ser\nsuperdivertido, ¿no?\n¡Ay, sí, que voy! Voy a llamar a la\noficina de gestión vecinal para ver\nsi hay sitio y ya te cuento.\n¡Juntooooos de nueeeevoooo!",
      "EUfr": "L'île de (surnom)... Ouais, c'est une idée ! Pourquoi pas ! Et pis si tu es là, la teuf est garantie !\nAllez, je contacte le bureau des\nrésidents, on verra s'ils ont\nde la place pour moi !",
      "EUit": "Eh? L'isola di (nickname)... Beh, OK! Sì, cioè... Se ci sei tu, non vedo perché non dovrei venire!\nAggiudicato! Chiederò al tuo centro\nservizi se c'è un posticino per me!",
      "EUnl": "O? Het eiland van (nickname)... Ja, hoor! Als jij er bent, moet het wel goed zijn!\nTe gek! Ik ga de servicebalie bellen\nom te vragen of er plek voor me is!",
      "EUru": "Да? На твой остров...\nДа, хорошо! То есть, если ты там,\nзначит, там точно будет весело!\nСупер! Тогда надо будет узнать\nв вашем бюро услуг, есть ли\nу вас для меня местечко!",
      "JPja": "えっ　マジで？\nのかぁ・・・\nうん、いいかも！\nが住んでるなら\nぜったい楽しいに　決まってるもんねー！\n住める場所があるか　そっちの案内所に\n問い合わせてみるよ！　",
      "KRko": "어, 진심이야?\n네 이라...\n응, 괜찮을 것 같아!\n이 사는 이라면\n틀림없이 즐거운 곳이겠지!\n그럼 입주할 수 있는지\n그쪽 안내소에 한번 물어볼게! !",
      "TWzh": "咦？真的嗎？\n住的島啊……\n嗯，好像也不錯！\n感覺住的島，\n一定是個快樂的好地方～！\n我就去那座島上的服務處問一下，\n看看有沒有地方住吧！。",
      "USen": "Hmm...(nickname)'s island...\nYeah. OK! I mean, if YOU'RE there,\nlife will def be très GREAT!\nAlright! I'll check with your Resident Services and see if they have room\nfor me!",
      "USes": "A tu isla, ¿eh? ¡Pues podría ser\nsuperdivertido, (catchphrase)!\nDe acuerdo, ¡iré! Llamaré a la\noficina de gestión vecinal para\nver si hay espacio y te cuento.\n¡Imagínate lo bien que la vamos\na pasar! ¡Será lo mejor de lo mejor!",
      "USfr": "L'île de ⁠(surnom)... Ouais, c'est une idée! Pourquoi pas! Et pis si tu es là, la fête est garantie!\nAllez, je contacte le bureau des\nrésidents, on verra s'ils ont\nde la place pour moi!"
    }
  },
  {
    "label": "203",
    "attribute": "0x0000000000000000",
    "locale": {
      "CNzh": "谢谢你的鼓励～！\n其实我觉得这个决定还挺艰难的，\n不过，办法总是会有的吧！\n好～！我要积累各种各样的经验，\n将来要成为能够独当一面的\n(resident name)！。",
      "EUde": "Aber hallo! Denkst du, ich bin zu\nspontan? EGAL! Ist lustig, nicht zu\nwissen, was als Nächstes passiert!",
      "EUen": "Thanks. I'm def kind of rushing into\nthings... But WHATEVS! Sometimes\nit's fun to make it up as you go!",
      "EUes": "¡Pues sí, ! No sería yo si hiciera algo planeando y con calma. Soy una espontánea.",
      "EUfr": "Ouais, je pense aussi ! Je fais pas les\nchoses dans l'ordre, et alors ? C'est\nfun, de faire un peu n'imp, parfois !",
      "EUit": "Grazie! Pensi che sia precipitosa?\nBah, non importa! È divertente non\navere idea di quello che faccio!",
      "EUnl": "Dank je wel! Ik doe alles weer eens\nsupertjesnel? Maar boeien! Het is\nleuk om maar gewoon wat te doen!",
      "EUru": "Спасибо! Я сейчас тороплю\nсобытия, но все равно! Решать\nвопросы быстро бывает так весело!",
      "JPja": "エールありがと～！\nけっこー　ムチャしてる感あるけど、\nまっ　なんとかなるでしょ！\nよーし、いろんなケイケンしまくって、\nビッグな　(resident name)に\n成長しちゃうんだから！　",
      "KRko": "응원해줘서 고마워～!\n조금 무모한 모험 같기도 하지만\n뭐, 어떻게든 되겠지!\n좋았어!\n많은 경험을 쌓아서\n멋지게 성장할 거야! !",
      "TWzh": "謝謝你幫我加油～！\n雖然我也覺得自己這樣挺亂來的，\n不過，總會有辦法的啦！\n好～！我要去體驗更多新奇的事物，\n成為了不起的\n大人物(resident name)！。",
      "USen": "Thanks. I'm def kind of rushing into\nthings... But WHATEVS! Sometimes\nit's fun to make it up as you go!",
      "USes": "¡Pues sí, ! Yo no soy de\nplanear mucho las cosas con calma.\nSoy una espontánea.",
      "USfr": "Ouais, je pense aussi! Je fais pas les\nchoses dans l'ordre, et alors? C'est\nl'fun, de faire un peu n'imp, parfois!"
    }
  },
  {
    "label": "204",
    "attribute": "0x0000000000000000",
    "locale": {
      "CNzh": "久等啦～！\n我已经向（岛名）的服务处\n问到情况了……\n结果他们对我说呀，很欢迎我搬过去！\n等我搬到（岛名）之后，\n我们好好聊个痛快吧！\n情况就是这样，现在我得马上改一下包裹的\n邮寄地址，得发到（岛名）去\n才行啦～！。",
      "EUde": "Hey-hey! Okay. Ich hab also mal\nmit dem Servicecenter auf\n(Inselname) geredet...\nUnd die haben gesagt, ich kann\nherziehen! Mach dich bereit,\n(Inselname)!\nDenn hier kommt (Einwohnername)!",
      "EUen": "Hi. So. I just had a chat with the\nResident Services folks on\n(island name)...\nAnd they said I could move there!\nWatch out, (island name)!\nHere comes (resident name)!",
      "EUes": "¡Eh, eh! ¿Te acuerdas de que iba a\nllamar a la oficina de gestión vecinal\nde tu isla?\n¡Pues lo he hecho! ¡Y dicen que\npuedo mudarme cuando quiera!\n¡Yujuuuuuu!\nPrepárate, (island name), que llega la moi.",
      "EUfr": "Hé ! Écoute un peu ça !!! J'ai réussi\nà contacter le bureau des résidents\nde (nom de l'île), et...\n... je peux emménager sur l'ile !\nPrépare-toi, (nom de l'île) !\nC'est (nom du résident) que v'là !",
      "EUit": "Eeehi! Allora, ho appena finito di parlare con il centro servizi di (island name)...\nE hanno detto che posso trasferirmi! Attenzione, (island name), arriva la pop star (resident name)!",
      "EUnl": "Hé, hoi!!! Dus. Ik heb even gebeld met de servicebalie van (island name)...\nEn ik kan ernaartoe verhuizen! Pas maar op, (island name)! Hier komt (resident name)!",
      "EUru": "Привет!!! Короче, я поговорила\nс бюро услуг острова\n(island name)...\nМне сказали, что место найдется!\nБерегись, (island name)!\n(resident name) уже в пути!",
      "JPja": "おまたせー！\n(island name)の　案内所に\n聞いてみたんだけどさ・・・\nぜひ　来てください、ってさ！\n(island name)に　引っこしたら\nいっぱい　おしゃべりしよーね！\nてなわけで、さっそく\n荷物の送り先を　(island name)に\n変えなきゃだよ～！　",
      "KRko": "많이 기다렸지～!\n(섬/도 이름) 안내소에\n물어봤는데...\n얼마든지 환영한대!\n(섬/도 이름)에 이사 오면\n얘기 많이 나누자!\n그럼 얼른\n짐을 (섬/도 이름)으로\n부쳐야겠다～! !",
      "TWzh": "讓你久等了～！\n我已經去問過\n（島名）的服務處……\n結果對方請我務必搬過去呢！\n等我搬到（島名）之後，\n再一起聊很多事吧～！\n總之就是這樣，\n我得趕快去把行李改寄到\n（島名）才行～！。",
      "USen": "Hi. So. I just had a chat with the\nResident Services folks on\n(island name)...\nAnd they said I could move there!\nWatch out, (island name)!\nHere comes (resident name)!",
      "USes": "¡Eh, holita! ¿Recuerdas que iba\na llamar a la oficina de gestión vecinal de tu isla?\n¡Pues ya está hecho! ¡Y dicen que\npuedo mudarme allí cuando quiera!\n¡Yujuuuuuu!\nPrepárate, (island name), que llego YO.",
      "USfr": "Hé! Écoute un peu ça!!! J'ai réussi\nà contacter le bureau des résidents\nde ⁠(nom de l'île), et...\n... je peux emménager sur l'île!\nPrépare-toi, (nom de l'île)!\nC'est (nom du résident) que v'là!"
    }
  },
  {
    "label": "208",
    "attribute": "0x0000000000000000",
    "locale": {
      "CNzh": "久等啦～！\n我已经向（岛名）的服务处\n问到情况了……\n结果他们说的上\n已经住满了人，\n现在没办法容纳新住户了～\n嗯……真可惜！\n这一次我还是果断放弃吧！。",
      "EUde": "Hey, (Spitzname)! Okay, ich hab also mal mit dem Servicecenter auf (Inselname) geredet...\nUnd deine Insel ist TOTAL voll.\nDie haben über mich gelacht, als\nich gefragt hab, ob noch Platz ist!\nUnd, nein, ist nicht. Tja... Echt\nmal blöd! Aber vielleicht klappt's\nja beim nächsten Mal!",
      "EUen": "Hey, (nickname)!\nSo I hit (island name)'s\nResident Services up for a chat...\nAnd your island is WAY full.\nThe person on the phone laughed\nwhen I asked if there was room!\nMaybe we should try some\nother time.",
      "EUes": "¡Ah, (nickname)! Ya he hablado con la oficina de gestión vecinal de tu isla.\nSe rieron en mi cara cuando les\npregunté si había sitio para mí...\nY eso que les dije que soy famosa.\nOye, ¿y si echas a alguien para que\npueda ir yo? Jo, no me tengas en\ncuenta esta pequeña maldad...",
      "EUfr": "Ah, te voilà, (surnom) !\nFigure-toi que j'ai discuté avec les\nautorités de (nom de l'île)...\nTon île est pleine à craquer. On s'est\nmême fichu de moi, quand j'ai voulu\nsavoir s'il restait des places dispo !\nDonc c'est mort pour cette fois...\nC'est relou mais c'est comme ça !\nAllez, je retenterai une autre fois !",
      "EUit": "Eeehi, (nickname)! Allora, ho fatto due chiacchiere con il centro servizi di (island name)...\nE la tua isola è superpiena.\nLa tipa al telefono ha riso quando\nle ho chiesto se c'era posto!\nE cioè, non riescono ad accogliere\nneanche una stella come me! Beh,\nproveremo un'altra volta!",
      "EUnl": "Hai, (nickname)! Ik heb dus even gebabbeld met de servicebalie van (island name)...\nEn jouw eiland is echt supervol. Die\ndame aan de telefoon lachte gewoon\ntoen ik vroeg of er ruimte was!\nEn er is dus geen ruimte voor me!\nDus... dat was balen! Naja,\nmisschien een ander keertje of zo.",
      "EUru": "Привет, (nickname)!\nЯ позвонила в бюро услуг острова\n(island name)...\nТвой остров просто забит!\nКогда я спросила, есть ли еще\nместо, в трубку рассмеялись!\nТак что ничего не вышло!\nНу... обидно, конечно! Может,\nповезет в другой раз?",
      "JPja": "　おまたせ！\n(island name)の　案内所に\n聞いてみたんだけどね・・・\n今、のは\nすでに　住民がいっぱいだから\n受け入れることが　できないんだって～\nうーん・・・ザンネン！\n今回は、いさぎよく　あきらめる！　",
      "KRko": "아! 많이 기다렸지～!\n(섬/도 이름) 안내소에\n물어보고 왔는데...\n지금 네 은\n이미 사람이 너무 많이 살아서\n주민을 더 받을 수가 없대～\n으음... 아쉽다!\n이번엔 깔끔하게 포기해야겠어! !",
      "TWzh": "，讓你久等了！\n雖然我去問過\n（島名）的服務處……\n但是因為住的島上，\n現在已經有很多居民了，\n所以沒辦法讓我搬過去～\n嗯……真可惜！\n這次我還是果斷放棄吧！。",
      "USen": "Hey, (nickname)!\nSo I hit (island name)'s\nResident Services up for a chat...\nAnd your island is WAY full.\nThe person on the phone laughed\nwhen I asked if there was room!\nMaybe we should try some\nother time.",
      "USes": "¡Ah, (nickname)! Ya hablé con la oficina de gestión vecinal de tu isla.\n¡Parece que está a reventar! \nYa no cabe nadie más, ni siquiera\nuna superestrella como yo.\nPero no te preocupes, lo único\nque tienes que hacer es echar\na alguien para que pueda ir yo.\n¡Es broma, es broma! No le digas\na nadie que yo dije eso, ¿eh?",
      "USfr": "Ah, te voilà, (surnom)!\nFigure-toi que j'ai discuté avec les\nautorités de ⁠(nom de l'île)...\nTon île est pleine à craquer. On s'est\nmême fichu de moi, quand j'ai voulu\nsavoir s'il restait des places dispo!\nDonc c'est mort pour cette fois...\nC'est dommage mais c'est ça!\nAllez, je retenterai une autre fois!"
    }
  },
  {
    "label": "209",
    "attribute": "0x0000000000000000",
    "locale": {
      "CNzh": "久等啦～！\n我已经向（岛名）的服务处\n问到情况了……\n对方说，就算允许我搬到\n的上去，\n也已经没有地方建造新房子了……\n要是连个自己的家都没有，\n那确实是无法想象呀……\n这次只好放弃了～。",
      "EUde": "Heeey! Danke fürs Warten. Ich hab\nalso mal mit dem Servicecenter auf\n(Inselname) geredet...\nDeine Insel ist total ausgebucht!\nDa gibt's keinen Platz mehr für\nneue Häuser. VOLL BLÖD!\nTja, ich zieh doch nicht um, wenn ich\nda kein Haus bauen kann... Vielleicht\nnächstes Mal dann!",
      "EUen": "Hey. Thanks for waiting.\nSo I asked (island name)'s\nResident Services...\nYour island's overbooked! It doesn't\nhave any room for new houses. Well,\nnot much point in moving there.\nEspecially if I can't build my own\nplace... Maybe some other time.",
      "EUes": "Bueno, acabo de llamar a la oficina\nde gestión vecinal y es muy fuerte\nlo que pasa, (catchphrase).\nEn tu isla ya no hay más espacio\npara construir casas, ¡estáis a tope!\nY la moi tiene un nivel de vida que\nmantener. No puedo dormir al raso.\nHabrá que esperar.",
      "EUfr": "Oh, tu m'attendais ? C'est sympa.\nBon, j'ai appelé les autorités\ncompétentes, à (nom de l'île)...\nTon île est pleine de chez pleine !\nY a plus de place pour construire\nde nouvelles maisons. Tant pis !\nDu coup, je vois pas trop l'intérêt d'y\ndéménager, si je peux pas avoir ma\nmaison... Une autre fois peut-être !",
      "EUit": "Eeehi! Grazie di avermi aspettata.\nAllora, ho chiesto al centro servizi\ndi (island name)...\nLa tua isola scoppia di gente! Non\nc'è neanche un microspazio per\ndelle case nuove. Che barba!\nBeh, non ha senso trasferirmi\nse non posso costruirmi casa...\nSarà per un'altra volta!",
      "EUnl": "Haaaai! Bedankt voor het wachten.\nIk heb dus de servicebalie van (island name) gebeld...\nJe eiland kan geen extra boekingen\nmeer aan! Er is echt geen plek meer\nvoor nieuwe huizen. Echt balen!\nAls ik niet een plekje voor mezelf kan\nhebben, heeft verhuizen weinig nut...\nEen andere keer dan!",
      "EUru": "Привет! Спасибо, что подождал.\nЯ спросила в бюро услуг острова\n(island name)...\nНа твоем острове уже нет места!\nВообще негде строить новые дома!\nЭх, не повезло!\nНет смысла переезжать, если я не\nсмогу построить там себе домик...\nМожет, в другой раз!",
      "JPja": "おまたせー！\n(island name)の　案内所に\n聞いてみたんだけどー・・・\n今、のは\nたとえ　引っこしてきても\n家を建てられる場所が　ないんだって・・・\n自分の家が　建てられないんじゃ、\nどうしようも　ないよね・・・\n今回は　あきらめるね～、",
      "KRko": "많이 기다렸지～!\n(섬/도 이름) 안내소에\n물어보고 왔는데...\n지금 네 은\n이사를 가도\n집을 지을 공간이 없대...\n집을 짓지 못하면\n생활할 수가 없으니까...\n이번엔 포기할래～ !",
      "TWzh": "讓你久等了～！\n雖然我去問過\n（島名）的服務處……\n但是對方說，就算我現在搬去\n住的島，\n也沒有地方可以蓋新房子了……\n如果不能蓋自己的家，\n那搬過去也沒意義對吧……\n所以這次我就先放棄了～。",
      "USen": "Hey. Thanks for waiting.\nSo I asked (island name)'s\nResident Services...\nYour island's overbooked! It doesn't\nhave any room for new houses. Well,\nnot much point in moving there.\nEspecially if I can't build my own\nplace... Maybe some other time.",
      "USes": "Bueno, acabo de llamar a la\noficina de gestión vecinal y esto\nes lo que pasa, (catchphrase).\nEn tu isla ya no hay más espacio\npara construir casas, ¡están al\nmáximo!\nY yo tengo un nivel de vida que\nmantener. No puedo dormir en\ncualquier lado. Tendré que esperar.",
      "USfr": "Oh, tu m'attendais? C'est sympa.\nBon, j'ai appelé les autorités\ncompétentes, à (nom de l'île)...\nTon île est pleine de chez pleine!\nY'a plus de place pour construire\nde nouvelles maisons. Tant pis!\nDu coup, je vois pas trop l'intérêt d'y\ndéménager, si je peux pas avoir ma\nmaison... Une autre fois peut-être!"
    }
  },
  {
    "label": "213",
    "attribute": "0x0000000000000000",
    "locale": {
      "CNzh": "居民已经多得\n必须停止移居了，\n这个会有多热闹呀～\n虽然没法搬过去住了，\n不过将来我会以偶像的身份\n过去办演唱会的！\n有这么多的客人，\n气氛一定会非常火热的！\n你就好好期待吧！。",
      "EUde": "Deine Insel muss ja superbeliebt\nsein, wenn kein Platz mehr für neue\nBewohner ist!\nKeine Sorge. Ich kann da zwar nicht\nwohnen, aber wenn ich Popstar bin,\ngeb ich voll das mega Konzert!\nMit so vielen Leute auf deiner Insel\nist das bestimmt sofort ausverkauft!\nBis dann, (Floskel)!",
      "EUen": "Your island must be crazy popular\nto be completely out of room for\nnew residents!\nDon't worry. I may not be able to live\nthere, but I'll totes swing by on my\nworld tour and say hi to you!\nWith that many folks on your island,\nmy shows will be PACKED! See you\nthen, !",
      "EUes": "No sabía que tu isla tuviera ya\ntantísimos habitantes. ¡Tiene que\nser requeteguay!\nMe parece regulinchi no poder\nvivir allí, ¿eh? ¡Pero iré a visitarte\no algo!",
      "EUfr": "Ton île doit sacrément valoir le coup,\npour pas pouvoir accueillir de\nnouveaux résidents !\nT'en fais pas. Je vais pas pouvoir y\nhabiter, mais je passerai par chez toi\nquand je ferai ma tournée mondiale !\nQuand je vois le nombre de résidents\nsur ton île, je suis sûre d'y faire salle\ncomble ! Vivement,  !",
      "EUit": "Cioè, non sapevo che la tua isola\navesse tutti questi abitanti... Deve\nessere un posto da paura!\nÈ un peccato che non possa viverci\nanch'io, ma verrò a trovarti, tipo,\nsuperpresto, !\nCioè, quando il mio tour mondiale\ntoccherà la tua isola, ci sarà\nil tutto esaurito!",
      "EUnl": "Wat een cool eiland moet dat zijn als\ner totaal geen ruimte meer is voor\nnieuwe bewoners!\nMaakt niet uit, hoor. Al woon ik er\nniet, ik kom je zeker opzoeken als ik\ner op tournee ben en zo!\nMet zoveel bewoners op je eiland\ndurf ik te wedden dat mijn concert\nsupersnel uitverkocht zal zijn!\nIk heb er dus nu al zin in, !",
      "EUru": "Твой остров наверняка суперкрут,\nесли на нем совсем нет места\nдля новых жителей!\nНичего страшного, может, я и не\nбуду там жить, но точно приеду на\nгастроли со своим концертом!\nРаз уж вас там так много, билеты\nразойдутся за считанные минуты!\nТак что ждите! !",
      "JPja": "受け入れを止めなきゃ　いけないくらい\n住民が多いだなんて、\nすごく　人気のなんだねー\n引っこしは　できなかったけど、\nしょうらいアイドルとして\nコンサートしに　来てあげるっ！\nお客さんが　たくさんいるから\nぜったい　大もりあがりになるよー！\n楽しみにしててねっ、",
      "KRko": "입주를 막을 정도로 주민이 많다니\n엄청 인기 많은 인가 봐!\n이사는 못 가게 됐지만\n나중에 아이돌이 되면\n콘서트하러 갈게!\n관객이 많을 테니까\n틀림없이 신나는 콘서트가 될 거야!\n그때까지 기다려줘, !",
      "TWzh": "沒想到那裡的居民居然多到\n要停止接受移居申請的程度，\n看來真的是座很受歡迎的島呢～\n雖然沒辦法搬過去住，\n但我身為未來的偶像，\n決定以後就去那裡開演唱會了！\n畢竟有那麼多觀眾，\n演唱會一定也會High到不行～！\n你就好好期待吧，。",
      "USen": "Your island must be crazy popular\nto be completely out of room for\nnew residents!\nDon't worry. I may not be able to live\nthere, but I'll totes swing by on my\nworld tour and say hi to you!\nWith that many folks on your island,\nmy shows will be PACKED! See you\nthen, !",
      "USes": "No sabía que tu isla tuviera ya\ntantos habitantes, ¡debe ser\nun lugar requetegenial!\nEs triste que no pueda vivir allí\ncontigo, pero seguro que iré a\nvisitarte algún día.",
      "USfr": "Ton île doit vraiment valoir le coup,\npour pas pouvoir accueillir de\nnouveaux résidents!\nT'en fais pas. Je vais pas pouvoir y\nhabiter, mais je passerai par chez toi\nquand je ferai ma tournée mondiale!\nQuand je vois le nombre de résidents\nsur ton île, je suis sûre d'y faire salle\ncomble! Vivement, !"
    }
  },
  {
    "label": "214",
    "attribute": "0x0000000000000000",
    "locale": {
      "CNzh": "居然已经没有空置土地了，\n（岛名）可真是个\n人气十足的呀！\n没能搬过去真的有些可惜了～\n不过，还是谢谢你这样邀请我！。",
      "EUde": "(Inselname) muss voll der\nInsel-Star sein, wenn da kein Platz\nmehr zum Bauen ist!\nSchon blöd, dass alles voll ist, aber\ncool, dass du auf der beliebtesten\nInsel überhaupt wohnst!",
      "EUen": "(island name) must be TRÈS\npopular if there's no more\nroom to build.\nI'm kind of sad I couldn't move there\ntoo, but how great is it that you live\non a super trendy island?",
      "EUes": "¿Cómo no me he enterado antes\nde que (island name) era la isla super de moda?\nQué rabia, oye... ¡Menos mal que\nestás tú allí y podré ir a visitarte!",
      "EUfr": "Quand je vois la demande pour aller\nsur (nom de l'île), je me dis que\nça doit être vachement bien !\nC'est un peu nul que je puisse pas y\nhabiter, mais c'est classe que toi, tu\ny vives !",
      "EUit": "Cioè, ma come mai non mi hai detto che (island name) era l'isola più gettonata del momento?\nA saperlo prima, mi sarei potuta\nprendere uno spazietto per costruire\nla mia casa da paura...\nÈ una pizza, ma pazienza. Almeno\nci sei tu e potrò venire a trovarti!",
      "EUnl": "(island name) moet wel onwijs megapopulair zijn als er geen ruimte meer is om wat dan ook te bouwen!\nIk vind het wel supersneu voor\nmezelf dat ik er niet kan wonen,\nmaar wat stoer dat jij er woont?",
      "EUru": "(island name) — суперкрутой\nостров, если там даже построить\nдомик негде!\nНемного грустно, что я не смогу там\nжить, но как же круто, что ты\nживешь в таком популярном месте!",
      "JPja": "土地の　よゆうが　ないなんて、\n(island name)って\nすごく　人気のなんだね！\n引っこしできなくて　ちょっぴりザンネン～\nでも、さそってくれてサンキュー！　",
      "KRko": "남는 땅이 없다니\n(섬/도 이름)은\n정말 인기 많은 인가 봐!\n이사 가고 싶었는데 아쉬워～\n그래도 오라고 해줘서 고마워! !",
      "TWzh": "竟然已經沒有空的土地了，\n（島名），\n真的是很受歡迎的島呢！\n我也覺得沒辦法搬過去有點可惜～\n不過，還是很謝謝你邀請我～！。",
      "USen": "(island name) must be TRÈS\npopular if there's no more\nroom to build.\nI'm kind of sad I couldn't move there\ntoo, but how great is it that you live\non a super trendy island?",
      "USes": "¿Cómo es posible que no me haya\nenterado de que (island name) está super de moda?\nQué fatal... ¡Lo bueno es que tú\nestás allí y podré ir a visitarte!",
      "USfr": "Quand je vois la demande pour aller\nà (nom de l'île), je me dis que\nça doit être vraiment trop bien!\nC'est un peu nul que je puisse pas y\nhabiter, mais c'est cool que toi, tu\ny vives!"
    }
  },
  {
    "label": "300",
    "attribute": "0x0000010000000000",
    "locale": {
      "CNzh": "啊，不过……保险起见，\n还是再和服务处问一次比较好吧？\n我还是没有办法彻底放弃\n和住在同一座上的\n想法呀……。",
      "EUde": "Aber vielleicht sollte ich das\nServicecenter auf (Inselname)\nnoch mal anrufen, um sicherzugehn.",
      "EUen": "Think I should call Resident Services\non (island name) again?",
      "EUes": "¿A lo mejor es cuestión de insistir?\n¿Llamo a la oficina de gestión vecinal\nde (island name) otra vez?",
      "EUfr": "Tu crois que je devrais encore\nessayer de joindre le bureau des\nrésidents de (nom de l'île) ?",
      "EUit": "E se, cioè, per sicurezza provassi a richiamare il centro servizi di (island name)?",
      "EUnl": "Zal ik de servicebalie van (island name) toch nog één keertje bellen?",
      "EUru": "Как думаешь, может, стоит еще раз\nпозвонить в бюро услуг острова\n(island name)? Ну а вдруг?",
      "JPja": "あっ、でも・・・　念のために　もう一回\n案内所に　聞いてみてもいいー？\nやっぱ、と\nいっしょのに　住みたいって気持ちが\nあきらめきれなくって・・・、",
      "KRko": "아, 근데... 혹시 모르니까 한 번 더\n안내소에 물어보고 와도 될까?\n이랑\n같은 에 살고 싶어서\n쉽게 포기가 안 되네, !",
      "TWzh": "啊，可是……保險起見，\n我能不能再去服務處問一次呀～？\n我果然還是不想放棄\n跟\n住在同座島的想法呢……。",
      "USen": "Think I should call Resident Services\non (island name) again?",
      "USes": "¿A lo mejor es cuestión de insistir?\n¿Llamo a la oficina de gestión vecinal\nde (island name) otra vez?",
      "USfr": "Tu crois que je devrais encore\nessayer de joindre le bureau des\nrésidents de ⁠(nom de l'île)?"
    }
  },
  {
    "label": "300_a",
    "attribute": "0x0000000000000000",
    "locale": {
      "CNzh": "去问问看吧！",
      "EUde": "Ja, mach das!",
      "EUen": "Yeah, go for it!",
      "EUes": "¡Sí, insiste!",
      "EUfr": "Ouais, tente le coup !",
      "EUit": "Sì, dai!",
      "EUnl": "Ja, doe maar!",
      "EUru": "Да, попробуй!",
      "JPja": "聞いてみて！",
      "KRko": "한번 물어봐!",
      "TWzh": "去問問看吧！",
      "USen": "Yeah, go for it!",
      "USes": "¡Sí, insiste!",
      "USfr": "Ouais, vas-y essaie!"
    }
  },
  {
    "label": "300_b",
    "attribute": "0x0000000000000000",
    "locale": {
      "CNzh": "我觉得不行。",
      "EUde": "Weiß nich'...",
      "EUen": "I dunno...",
      "EUes": "No sé yo...",
      "EUfr": "Je sais pas trop...",
      "EUit": "Non so...",
      "EUnl": "Ik weet het niet, hoor...",
      "EUru": "Не знаю...",
      "JPja": "ムリだと思うよ",
      "KRko": "아마 힘들걸",
      "TWzh": "我想應該沒辦法。",
      "USen": "I dunno...",
      "USes": "No sé...",
      "USfr": "Je sais pas trop..."
    }
  },
  {
    "label": "301",
    "attribute": "0x0000000000000000",
    "locale": {
      "CNzh": "也是呢～？\n人家都已经说了不行啦，\n我应该干脆一点死心才是。。",
      "EUde": "Gah. Hast recht. Da wird wohl nix\ndraus. Ist zwar ätzend, aber so is'\ndas Leben manchmal, (Floskel)!",
      "EUen": "Ugh. You're right. It's probably not\ngoing to happen. Ah well, that's just\nhow life is sometimes, (catchphrase)!",
      "EUes": "Ya. Si dicen que no, es que no.\nHay que saber aceptarlo, .",
      "EUfr": "Snif... Tu as sans doute raison, c'est\nmort, cette histoire. Tant pis, mais la\nvie continue,  !",
      "EUit": "Umpf. Hai ragione. Non succederà\ne basta. Ah beh, così va la vita di\nuna pop star a volte, (catchphrase)!",
      "EUnl": "Je hebt, zeg maar, wel een punt,\ndenk ik. Het zit er vast niet in. Naja,\nzo is het leven soms, (catchphrase)!",
      "EUru": "Эх. Ты прав. Это все равно ничего\nне даст. Ну и ладно, не смертельно,\nжизнь продолжается! (catchphrase)!",
      "JPja": "だよね～？\nもう　ムリって言われてるんだから\nいさぎよく　あきらめなきゃね、",
      "KRko": "그렇겠지～?\n한 번 안 된다고 들었으니까\n깨끗하게 포기하는 게 맞겠지, !",
      "TWzh": "也是啦～\n都已經被拒絕了，\n我應該要果斷放棄才對……。",
      "USen": "Ugh. You're right. It's probably not\ngoing to happen. Ah well, that's just\nhow life is sometimes, (catchphrase)!",
      "USes": "Ya. Si dicen que no, es que no.\nHay que saber aceptarlo, .",
      "USfr": "Snif... Tu as sans doute raison, c'est\nmort, cette histoire. Tant pis, mais la\nvie continue, !"
    }
  }
]