﻿[
  {
    "label": "001",
    "attribute": "0x0000000000000000",
    "locale": {
      "CNzh": "噫呀～！！\n哇啊啊、不好意思，\n你不要过来～！。",
      "EUde": "Hilfeeeee! Nein!!!\nBleib weg von mir, (Floskel)!",
      "EUen": "EEEEEEK!!! Sorry...but, um,\nSTAY AWAY?!",
      "EUes": "¡¡¡AAAAAH!!! ¡Nooo! ¡Aviiispaaas!\n¡Corre, corre, corre, cooorreee!",
      "EUfr": "AAAAAH !!!\nDésolée, mais... approche pas !",
      "EUit": "AAAAAAAAH!!! Vespeee!\nScusa, ma cioè, è meglio che\nte ne vai, !",
      "EUnl": "Iiiiiieeeeeek!!! Sorry, maar eh,\nga wég?!?!?!",
      "EUru": "Ой-ой-ой!!! Извини, но...\nне приближайся ко мне!",
      "JPja": "キャァァ！！\nわわわ、悪いんだけど\nアタイに近づかないでー！　",
      "KRko": "꺄아아악!!\n미, 미, 미안한데\n나한테 오지 마! !",
      "TWzh": "呀啊啊啊！！\n抱抱抱、抱歉，\n請不要靠近我～！。",
      "USen": "EEEEEEK!!! Sorry...but, um,\nSTAY AWAY?!",
      "USes": "¡¡¡AAAAAH!!! ¡Nooo! ¡Aviiispaaas!\n¡Corre, corre, corre, cooorreee!",
      "USfr": "AAAAAH!!!\nDésolée, mais... approche pas!"
    }
  },
  {
    "label": "002",
    "attribute": "0x0000000000000000",
    "locale": {
      "CNzh": "哇、什么情况！\n你现在别和我说话了，\n还是赶快逃跑吧！。",
      "EUde": "Was machst du denn, (Floskel)?!\nSprich nicht mit mir, sondern\nLAUF UM DEIN LEBEN!",
      "EUen": "OHMIGOSH! NOOOOOOO! Don't stop\nto talk to me! Hurry! RUN AWAY!",
      "EUes": "¡¡Nooo!! ¡Vete! ¡No me hables!\n¡Llévatelas de aquí!",
      "EUfr": "RESTE PAS LÀ ! NOOOOOOON !!!\nT'arrête pas pour me parler !\nCOUUURS !",
      "EUit": "ALLUCINANTE! NOOOOOOO!\nNon fermarti a parlare con me!\nPussa via, tu e il tuo sciame di vespe!",
      "EUnl": "Getsie! Neeeeeeeeee!!! Blijf nou niet\nmet mij praten en ren weg! Snel!",
      "EUru": "Обалдеть!!! Не-е-е-е-ет!!!\nНе останавливайся! Потом\nпоговорим! Убегай поскорей!",
      "JPja": "ちょっと　ヤダー！\nアタイなんかに　話しかけてないで\n早く　にげなよーっ！　",
      "KRko": "으앙 싫어～!\n나한테 말 걸 시간에\n얼른 도망치라구～! !",
      "TWzh": "等等，討厭啦～！\n別顧著跟我說話了，\n快點逃命啊～！。",
      "USen": "OHMIGOSH! NOOOOOOO! Don't stop\nto talk to me! Hurry! RUN AWAY!",
      "USes": "¡¡Nooo!! ¡Vete! ¡No me hables!\n¡Llévatelas de aquí!",
      "USfr": "RESTE PAS LÀ! NOOOOOOON!!!\nT'arrête pas pour me parler!\nCOUUURS!"
    }
  },
  {
    "label": "003",
    "attribute": "0x0000000000000000",
    "locale": {
      "CNzh": "呀～！！\n你、你要是找我的话，\n先把你和\n黄蜂的私事解决吧～！。",
      "EUde": "AAAAAAH!!!\nWenn du mit mir sprechen willst,\nwerd erst mal diese Wespen los,\n(Floskel)!",
      "EUen": "AAAHHHH!!!\nWhy are you stopping to talk to me?!\nYou need to run away!",
      "EUes": "¡Aaaaaah!\n¡Pero no te me acerques con esas\navispas! ¡Aléjate de mí y de mi cara,\n(catchphrase)!",
      "EUfr": "AAAHHHH !!!\nT'arrête pas ! Me parle pas !\nSinon la guêpe va t'avoir !",
      "EUit": "AAAAAAH!!!\nPerché ti fermi ora a parlare con\nme? Torna quando non ti inseguono\nle vespe!",
      "EUnl": "AAAAAAA!!!\nWaarom blijf je hier nou met mij\nkletsen?! Je moet echt wegrennen\nvoor die wespen!",
      "EUru": "А-а-а-а-а-а-а!!!\nСейчас не время со мной говорить!\nТебе от осы убегать нужно!",
      "JPja": "キャーッ！！\nア、アタイに　用があるなら\nまずは　ハチとの用事を\nすませてからにして～！　",
      "KRko": "꺄악～!!\n나, 나한테 할 말 있으면\n일단 벌부터\n해결하고 와～! !",
      "TWzh": "呀──！！\n你、你有事找我的話，\n先解決和黃蜂之間的恩怨，\n再來找我啦～！。",
      "USen": "AAAHHHH!!!\nWhy are you stopping to talk to me?!\nYou need to run away!",
      "USes": "¡Aaaaaah!\n¡No te me acerques con esas\navispas! ¡Aléjate de mí y de mi carita,\n(catchphrase)!",
      "USfr": "AAAHHHH!!!\nT'arrête pas! Me parle pas!\nSinon la guêpe va t'avoir!"
    }
  },
  {
    "label": "004",
    "attribute": "0x0000000000000000",
    "locale": {
      "CNzh": "噫呀～！！\n哇啊啊、不好意思，\n你不要过来～！。",
      "EUde": "Hilfeeeee! Nein!!!\nBleib weg von mir, (Floskel)!",
      "EUen": "EEEEEEK!!! Sorry...but, um,\nSTAY AWAY?!",
      "EUes": "¡Oye! ¡Que te está siguiendo\nun escorpión, loco!\n¡¡¡Aléjate de míiiii!!!",
      "EUfr": "AAAAAH !!!\nDésolée, mais... approche pas !",
      "EUit": "AAAAAAAAH!!!\nCioè, scusa ma, uhm, stammi\nalla larga, !",
      "EUnl": "Iiiiiieeeeeek!!! Sorry, maar eh,\nga wég?!?!?!",
      "EUru": "Ой-ой-ой!!! Извини, но...\nне приближайся ко мне!",
      "JPja": "キャァァ！！\nわわわ、悪いんだけど\nアタイに近づかないでー！　",
      "KRko": "꺄아아악!!\n미, 미, 미안한데\n나한테 오지 마! !",
      "TWzh": "呀啊啊啊！！\n抱抱抱、抱歉，\n請不要靠近我～！。",
      "USen": "EEEEEEK!!! Sorry...but, um,\nSTAY AWAY?!",
      "USes": "¡Oye! ¿No ves que te está siguiendo\nun escorpión? ¡Ponte a correeer!",
      "USfr": "AAAAAH!!!\nDésolée, mais... approche pas!"
    }
  },
  {
    "label": "005",
    "attribute": "0x0000000000000000",
    "locale": {
      "CNzh": "哇、什么情况！\n你现在别和我说话了，\n还是赶快逃跑吧！。",
      "EUde": "Was machst du denn, (Floskel)?!\nSprich nicht mit mir, sondern\nLAUF UM DEIN LEBEN!",
      "EUen": "OHMIGOSH! NOOOOOOO! Don't stop\nto talk to me! Hurry! RUN AWAY!",
      "EUes": "¡¡¡Ay, mi madre!!!\n¡Ni te acerques! ¡Fus! ¡Fus!",
      "EUfr": "RESTE PAS LÀ ! NOOOOOOON !!!\nT'arrête pas pour me parler !\nCOUUURS !",
      "EUit": "ALLUCINANTE! NOOOOOOO!\nNon fermarti a parlare con me!\nSbrigati a sparire da qua!",
      "EUnl": "Getsie! Neeeeeeeeee!!! Blijf nou niet\nmet mij praten en ren weg! Snel!",
      "EUru": "Обалдеть!!! Не-е-е-е-ет!!!\nНе останавливайся! Потом\nпоговорим! Убегай поскорей!",
      "JPja": "ちょっと　ヤダー！\nアタイなんかに　話しかけてないで\n早く　にげなよーっ！　",
      "KRko": "으앙 싫어～!\n나한테 말 걸 시간에\n얼른 도망치라구～! !",
      "TWzh": "等等，討厭啦～！\n別顧著跟我說話了，\n快點逃命啊～！。",
      "USen": "OHMIGOSH! NOOOOOOO! Don't stop\nto talk to me! Hurry! RUN AWAY!",
      "USes": "¡Ay, mi madre! ¡¿Eso que tienes\ndetrás no es un escorpión?!\n¡Ni te me acerques! ¡Veeete!",
      "USfr": "RESTE PAS LÀ! NOOOOOOON!!!\nT'arrête pas pour me parler!\nCOUUURS!"
    }
  },
  {
    "label": "006",
    "attribute": "0x0000000000000000",
    "locale": {
      "CNzh": "呀～！！\n你、你要是找我的话，\n先把你和\n蝎子的私事解决吧～！。",
      "EUde": "AAAAAAH!!!\nWenn du mit mir sprechen willst,\nwerd erst mal diesen Skorpion los,\n(Floskel)!",
      "EUen": "AAAHHHH!!!\nIf you need something from me,\ntell me AFTER you're done with\nthe scorpion!",
      "EUes": "¡AAAARGH!\n¡No me hables hasta que no te\nhayas librado de ese escorpión!",
      "EUfr": "AAAHHHH !!!\nSi tu as besoin de moi, reviens\nquand tu auras plus ce scorpion\naux trousses !",
      "EUit": "AAAAAAH!!!\nSe vuoi qualcosa da me, dimmelo\ndopo esserti liberato di quello\nscorpione! Sennò, ciaaao!",
      "EUnl": "AAAAAAAH!!!\nAls je iets van me wilt, dan hoor ik\ndat dus, zeg maar, liever als je klaar\nbent met die schorpioen!",
      "EUru": "А-а-а-а-а-а-а!!!\nТебе что-то нужно? Сначала\nсо скорпионом разберись!",
      "JPja": "キャーッ！！\nア、アタイに　用があるなら\nまずは　サソリとの用事を\nすませてからにして～！　",
      "KRko": "꺄악～!!\n나, 나한테 볼일 있으면\n일단 전갈부터 좀\n어떻게 해봐～! !",
      "TWzh": "呀──！！\n你、你有事找我的話，\n先解決和蠍子之間的恩怨，\n再來找我啦～！。",
      "USen": "AAAHHHH!!!\nIf you need something from me,\ntell me AFTER you're done with\nthe scorpion!",
      "USes": "¡Nooooooo!\n¡Largo! ¡Vete! ¡Aléjate de mííí!\n¡Llévate a ese escorpión bien lejos!",
      "USfr": "AAAHHHH!!!\nSi tu as besoin de moi, reviens\nquand tu auras plus ce scorpion\nà tes trousses!"
    }
  },
  {
    "label": "007",
    "attribute": "0x0000000000000000",
    "locale": {
      "CNzh": "噫呀～！！\n哇啊啊、不好意思，\n你不要过来～！。",
      "EUde": "Hilfeeeee! Nein!!!\nBleib weg von mir, (Floskel)!",
      "EUen": "EEEEEEK!!! Sorry...but, um,\nSTAY AWAY?!",
      "EUes": "Mira yo te quiero mucho, pero...\n¡No te me acerques!",
      "EUfr": "AAAAAH !!!\nDésolée, mais... Approche pas !",
      "EUit": "AAAAAAAAH!!!\nScusa, ma... stammi lontano!",
      "EUnl": "Iiiiiieeeeeek!!! Sorry, maar eh,\nga wég?!?!?!",
      "EUru": "Ой-ой-ой!!! Извини, но...\nне приближайся ко мне!",
      "JPja": "キャァァ！！\nわわわ、悪いんだけど\nアタイに近づかないでー！　",
      "KRko": "꺄아아악!!\n미, 미, 미안한데\n나한테 오지 마! !",
      "TWzh": "呀啊啊啊！！\n抱抱抱、抱歉，\n請不要靠近我～！。",
      "USen": "EEEEEEK!!! Sorry...but, um,\nSTAY AWAY?!",
      "USes": "(nickname)... Mantén la calma, pero tienes una tarántula justo detrás de ti...\nEhh... ¡Nada de calma! ¡Corre!",
      "USfr": "AAAAAH!!!\nDésolée, mais... Approche pas!"
    }
  },
  {
    "label": "008",
    "attribute": "0x0000000000000000",
    "locale": {
      "CNzh": "哇、什么情况！\n你现在别和我说话了，\n还是赶快逃跑吧！。",
      "EUde": "Was machst du denn, (Floskel)?!\nSprich nicht mit mir, sondern\nLAUF UM DEIN LEBEN!",
      "EUen": "OHMIGOSH! WHAT ARE YOU DOING?\nDon't stop! RUN AWAY!",
      "EUes": "Oh. Te persigue una tarántula.\nBien. ¿Debería correr? Me hallo paralizada por el terror.\nNo te acerques. Por favor.",
      "EUfr": "RESTE PAS LÀ ! NOOOOOOON !!!\nT'arrête pas pour me parler !\nCOUUURS !",
      "EUit": "NOOOOOOO, MA SEI ALLUCINANTE!\nNon fermarti qua a chiacchierare! Ma\nche vuoi mettere nei guai anche me?!",
      "EUnl": "Getsie! Neeeeeeeeee!!! Blijf nou niet\nmet mij praten en ren weg! Snel!",
      "EUru": "Обалдеть!!! Не-е-е-е-ет!!!\nНе останавливайся! Потом\nпоговорим! Убегай поскорей!",
      "JPja": "ちょっと　ヤダー！\nアタイなんかに　話しかけてないで\n早く　にげなよーっ！　",
      "KRko": "으앙 싫어～!\n나한테 말 걸 시간에\n얼른 도망치라구～! !",
      "TWzh": "等等，討厭啦～！\n別顧著跟我說話了，\n快點逃命啊～！。",
      "USen": "OHMIGOSH! WHAT ARE YOU DOING?\nDon't stop! RUN AWAY!",
      "USes": "Eso que viene detrás de ti...\n¡¿es una tarántula?!\nPero ¡¿qué haces?! ¡No te pares a hablarmeee! ¡Cooorreee!",
      "USfr": "RESTE PAS LÀ! NOOOOOOON!!!\nT'arrête pas pour me parler!\nCOUUURS!"
    }
  },
  {
    "label": "009",
    "attribute": "0x0000000000000000",
    "locale": {
      "CNzh": "呀～！！\n你、你要是找我的话，\n先把你和\n狼蛛的私事解决吧～！。",
      "EUde": "AAAAAAH!!!\nWenn du mit mir sprechen willst,\nwerd erst mal diese Monsterspinne\nlos, (Floskel)!",
      "EUen": "AAAHHHH!!!\nIf you need something from me,\ntell me after you're done with\nthe tarantula!",
      "EUes": "¡¡¡¡Aaaaaah!!!!\n¡Una tarántula, qué repelús,\npor favooor! ¡Como se me acerque,\nme da algo!",
      "EUfr": "AAAHHHH !!!\nSi tu as besoin de moi, reviens\nquand tu auras plus cette tarentule\naux trousses !",
      "EUit": "AAAAAAH!!!\nSe vuoi qualcosa da me, dimmelo\ndopo esserti liberato di quella\ntarantola!",
      "EUnl": "AAAAAAAH!!!\nAls je iets van me wilt, dan hoor ik\ndat dus, zeg maar, liever als je klaar\nbent met die vogelspin!",
      "EUru": "А-а-а-а-а-а-а!!!\nТебе что-то нужно? Сначала с тем\nпауком-птицеедом разберись!",
      "JPja": "キャーッ！！\nア、アタイに　用があるなら\nまずは　タランチュラとの用事を\nすませてからにして～！　",
      "KRko": "꺄악～!!\n나, 나한테 볼일 있으면\n타란툴라부터 좀\n어떻게 해봐～! !",
      "TWzh": "呀──！！\n你、你有事找我的話，\n先解決和狼蛛之間的恩怨，\n再來找我啦～！。",
      "USen": "AAAHHHH!!!\nIf you need something from me,\ntell me after you're done with\nthe tarantula!",
      "USes": "¡¡¡¡Aaaaaah!!!!\n¡Odio las tarántulas! ¡No dejes que\nse me acerque o me va a dar algo!",
      "USfr": "AAAHHHH!!!\nSi tu as besoin de moi, reviens\nquand tu auras plus cette tarentule\nà tes trousses!"
    }
  }
]