﻿[
  {
    "label": "001",
    "attribute": "0x0000000000000000",
    "locale": {
      "CNzh": "",
      "EUde": "",
      "EUen": "",
      "EUes": "",
      "EUfr": "",
      "EUit": "",
      "EUnl": "",
      "EUru": "",
      "JPja": "",
      "KRko": "",
      "TWzh": "",
      "USen": "",
      "USes": "",
      "USfr": ""
    }
  },
  {
    "label": "001_01",
    "attribute": "0x0000000000000000",
    "locale": {
      "CNzh": "在被称为古生代的约3亿年间，\n诞生了种类繁多的生物，\n其中的大部分已经灭绝。\n没错，就像转瞬即逝的梦境……\n远古的时代\n真是充满了浪漫呀……。",
      "EUde": "Wusstest du, dass so gut wie jede\nArt von Leben im Paläozän heute\nausgestorben ist?\n300 Millionen Jahre Geschichte –\nund alles, was uns bleibt, sind ein\npaar Knochen.\nDas schreit geradezu nach einer\nUmsetzung für die dramatische\nBühne...",
      "EUen": "Did you know that just about every\nform of life that lived during the\nPaleozoic era is extinct?\nThat's 300 million years of history,\nand all we have left are a few bones.\nThat's why I always say \"carpe diem,\"\nyou know? It's Italian for \"relax and\nhave a milkshake.\"",
      "EUes": "Ninguno de los seres que vivieron\nhace 300 millones de años sigue\nexistiendo hoy en día.\nLos únicos vestigios que nos quedan\nde ellos son unos cuantos huesos.\nPor eso siempre digo «carpe diem»,\nque significa «aprovecha los 299,99\nmillones de años que te quedan».",
      "EUfr": "Savais-tu que toutes les formes de\nvie ayant évolué au Paléozoïque\nétaient éteintes ?\nC'était il y a 300 millions d'années et\ndes brouettes, et il nous reste que\nquelques os qui se battent en duel.\nC'est pour ça que je dis souvent\n« carpe diem », ce qui veut dire\n« te prends pas la tête » en latin.",
      "EUit": "Lo sapevi che tutte le forme di vita\nvissute nel Paleozoico sono ormai\nestinte?\nParliamo di 300 milioni di anni fa\ne tutto quello che ci rimane è un\nmucchietto d'ossa.\nEcco perché il mio motto preferito\nè \"trote diem\"! No, aspetta... Forse\nera \"branzini diem\"...",
      "EUnl": "Weet je dat bijna elke diersoort die\nleefde tijdens het Paleozoïcum\nuitgestorven is?\nDriehonderd miljoen jaar\ngeschiedenis, en het enige wat we\nnog hebben zijn een aantal botten.\nWat een episch drama is dat\neigenlijk, hé? Het schreeuwt om een\nverfilming.",
      "EUru": "Ты знаешь, что практически все\nсущества палеозойской\nэры уже вымерли?\nЭта эра продлилась 300 миллионов\nлет, а все, что у нас осталось, —\nэто груда костей.\nВот почему говорят: «Наслаждайся\nжизнью, некогда беспокоиться\nо ценах на репу». Так и говорят.",
      "JPja": "古生代といわれる　約3億年の間\nいろんな生き物が誕生し、　\nそのほとんどが　絶滅していったんだ\nそう、うたかたの夢のように・・・\n太古の時代って\nロマンに　あふれてるよね・・・、",
      "KRko": "고생대라고 불리는 약 3억 년 동안\n여러 생물이 탄생했고\n그 대부분이 멸종했지\n그래, 덧없는 꿈처럼...\n태고 시대는\n낭만으로 가득 차 있어, ...",
      "TWzh": "在被稱為古生代的三億年期間，\n有各式各樣的生物誕生，\n但大部分都滅絕了。\n沒錯，就像稍縱即逝的夢境一樣……\n遠古時代，\n充滿了浪漫情懷呢……。",
      "USen": "Did you know that just about every\nform of life that lived during the\nPaleozoic era is extinct?\nThat's 300 million years of history,\nand all we have left are a few bones.\nThat's why I always say \"carpe diem,\"\nyou know? It's Italian for \"relax and\nhave a milkshake.\"",
      "USes": "Ninguno de los seres que vivieron\nhace 300 millones de años sigue\nexistiendo hoy en día.\nLos únicos vestigios que nos quedan\nde ellos son unos cuantos huesos.\nPor eso siempre digo \"carpe diem\",\nque significa \"aprovecha los 299,99\nmillones de años que te quedan\".",
      "USfr": "Savais-tu que toutes les formes de\nvie ayant évolué au Paléozoïque\nétaient éteintes?\nC'était il y a 300 millions d'années et\ndes brouettes, et il nous reste que\nquelques os qui se battent en duel.\nC'est pour ça que ma devise, c'est\n« carpe diem », ça veut dire\n« te prends pas la tête » en latin."
    }
  },
  {
    "label": "001_02",
    "attribute": "0x0000000000000000",
    "locale": {
      "CNzh": "啊～远古的生物们\n改变了外貌，\n来到了现代……\n我也渐渐被卷入了\n没有尽头的时间洪流。。",
      "EUde": "Kannst du dir das vorstellen? Diese\nUrzeit-Kreaturen waren quasi unser\naller Vorfahren...\nUnd es stimmt! Mütterlicherseits\nliegt mir etwas Velociraptor im Blut.",
      "EUen": "Can you believe that all of these\nwild ancient creatures basically\nevolved into what we are today?\nIt's true! I have a little bit of\nvelociraptor on my mother's side\nof the family.",
      "EUes": "¿Nunca te has parado a pensar\nque nosotros somos fruto de la\nevolución de estos seres del pasado?\n¡Lo digo en serio! Mi madre siempre\npresume de tener algo de herencia\nde velocirraptor en su familia.",
      "EUfr": "Quand on pense que ces énormes\nbestioles sauvages sont nos\nancêtres...\nMais oui, c'est vrai ! On a des aïeux\nvélociraptors du côté de ma mère.",
      "EUit": "E se ti dicessi che queste creature\nselvagge sono i nostri antenati, ci\ncrederesti?\nÈ verdad, te lo assicuro!\nPrendi me, per esempio: ho degli avi\nvelociraptor da parte di madre...",
      "EUnl": "Ongelofelijk dat deze wilde dieren uit\nde prehistorie zijn geëvolueerd tot\nonze hedendaagse dieren.\nDat is echt zo! Ik heb een klein\nbeetje velociraptor in mijn familie\nvan mijn moeders kant.",
      "EUru": "Сложно поверить, что все живущие\nсейчас на Земле виды произошли\nот этих древних существ...\nПравда-правда! Вот у меня по\nмаминой линии все немного\nна динозавров смахивают.",
      "JPja": "あぁ、太古の生き物が\nこうして　姿を変えて\n現代に　やってくるなんて・・・\nボクも　巻き込まれていくんだね\n終わりのない　時間の流れに、",
      "KRko": "아아, 태곳적 생물이\n이렇게 달라진 모습으로\n현대에 남아 있다니...\n나도 결국...\n끝없는 시간의 흐름에\n몸을 맡기게 되겠지, ...",
      "TWzh": "啊啊，\n遠古生物就是這樣演化，\n生存至今啊……\n我也會被捲入\n永無止境的時間洪流當中吧，。",
      "USen": "Can you believe that all of these\nwild ancient creatures basically\nevolved into what we are today?\nIt's true! I have a little bit of\nvelociraptor on my mother's side\nof the family.",
      "USes": "¿Nunca te pusiste a pensar\nque nosotros somos fruto de la\nevolución de estos seres del pasado?\n¡Lo digo en serio! Mi madre siempre\ndice que hay algo de herencia\nde velocirraptor en su familia.",
      "USfr": "Quand on pense que ces énormes\nbestioles sauvages sont nos\nancêtres...\nMais oui, c'est vrai! On a des aïeux\nvélociraptors du côté de ma mère."
    }
  },
  {
    "label": "001_03",
    "attribute": "0x0000000000000000",
    "locale": {
      "CNzh": "这里的远古存在们，\n是耗费了数亿年的光阴\n来见你的哦。。\n这么一想，我可真幸运！\n因为随时都可以见到你……",
      "EUde": "Diese alten Knochen haben\nMillionen von Jahren überdauert, um\ndich zu sehen, (Spitzname).\nWährend ich dafür nur einige\nSchritte tun musste. Klarer Vorteil\nfür mich!",
      "EUen": "These ancient bones survived\nmillions of years just to see\nyou, (nickname).\nAll I had to do was walk a few feet.\nAdvantage, (resident name)!",
      "EUes": "Estos huesos han tenido que esperar\nmillones de años para encontrarse\ncontigo, (nickname).\nY yo fíjate lo poco que he tardado.\nNo me digas que no soy un genio\nde la anticipación, (catchphrase).",
      "EUfr": "Ces vieux os ont attendu des années\nuniquement pour voir ta tête,\n(surnom).\nAlors que moi, j'ai juste eu\nà me balader au pifomètre.\n(nom du résident) 1, fossiles 0 !",
      "EUit": "Queste antiche ossa hanno dovuto\nattendere milioni di anni per vederti,\n(nickname).\nA me invece è bastato fare due passi e venire qui. (resident name) 1, fossili 0!",
      "EUnl": "Deze eeuwenoude botten hebben\nmiljoenen jaren op jou gewacht,\n(nickname).\nEn wij hoeven maar een paar\nstappen te zetten om ze te zien.\nGelukkig zijn wij levende legendes!",
      "EUru": "Подумать только, этим существам\nпришлось ждать миллионы лет,\nчтобы познакомиться с тобой.\nА мне не пришлось для этого\nделать вообще ничего.",
      "JPja": "ここにいる　太古の者たちは\n何億年もの　時をかけて\nキミに　会いに来たんだよ、\nそう考えると　ボクはラッキーだ！\nすぐに　キミと　会えるんだから・・・",
      "KRko": "여기에 있는 태곳적 존재들은\n수억 년이나 되는 시간을 넘어\n그대를 만나러 온 거야, ～\n그러고 보면 난 운이 좋은걸!\n곧장 그대와 만날 수 있었으니...",
      "TWzh": "在這裡的遠古生物，\n都是走過了數億年的時間\n來見你的呢，。\n這麼看來，我還真Lucky！\n畢竟我馬上就見到你啦……",
      "USen": "These ancient bones survived\nmillions of years just to see\nyou, (nickname).\nAll I had to do was walk a few feet.\nAdvantage, (resident name)!",
      "USes": "Estos huesos han tenido que esperar\nmillones de años para encontrarse\ncontigo, (nickname).\nY yo fíjate lo poco que tardé.\nNo me digas que no soy un genio\nde la anticipación, (catchphrase).",
      "USfr": "Ces vieux os ont attendu des millions\nd'années uniquement pour voir ta\ntête, (surnom).\nAlors que moi, je passais juste\nlà par hasard.\n(nom du résident) : 1, fossiles : 0!"
    }
  },
  {
    "label": "002",
    "attribute": "0x0000000000000000",
    "locale": {
      "CNzh": "",
      "EUde": "",
      "EUen": "",
      "EUes": "",
      "EUfr": "",
      "EUit": "",
      "EUnl": "",
      "EUru": "",
      "JPja": "",
      "KRko": "",
      "TWzh": "",
      "USen": "",
      "USes": "",
      "USfr": ""
    }
  },
  {
    "label": "002_01",
    "attribute": "0x0000000000000000",
    "locale": {
      "CNzh": "恐龙在6500万年前\n就已经灭绝了……\n我总是想象它们幸存下来的情景。\n是高大强壮的能够活下来，\n还是头脑机敏的能够活下来呢……\n呵呵呵，真是浪漫无边呢。。",
      "EUde": "Die letzten Dinosaurier starben vor\n65 Millionen Jahren aus. Aber wenn\nsie das nicht getan hätten?\nWäre mein favorisierter Barista dann\nein Brontosaurier? Möglich!",
      "EUen": "The very last dinosaurs went extinct\nabout 65 million years ago. But what\nif they hadn't?\nWould my favorite barista be a\nbrontosaurus? Probably!",
      "EUes": "Hace 65 millones de años que se\nextinguieron los últimos dinosaurios.\n¿Te imaginas que aún existieran?\nIgual tendría hasta brontosaurios\ny diplodocus entre los seguidores\nde mi blog. ¡Seguro!",
      "EUfr": "Les derniers dinosaures se sont\néteints il y a environ 65 millions\nd'années. À la louche, hein !\nImagine s'ils étaient toujours là...\nEst-ce que j'aurais des potes\ndiplodocus ? Sans doute !",
      "EUit": "Gli ultimi dinosauri si sono estinti\ncirca 65 milioni di años fa. Ma se\ninvece non fosse successo?\nMagari al corso di romanticismo\nfai da te avrei dei brontosauri\ncome compagni...",
      "EUnl": "De allerlaatste dinosaurussen\nstierven 65 miljoen jaar geleden uit.\nMaar wat als dat niet zo was?\nZou mijn favoriete barista nu\ndan een brontosaurus zijn?\nWaarschijnlijk wel!",
      "EUru": "Последние динозавры вымерли\nоколо 65 миллионов лет назад.\nА если бы они не вымерли?\nТогда моим стоматологом мог бы\nбыть бронтозавр? Однако!",
      "JPja": "恐竜は　6500万年前くらいに\n絶滅してしまったんだけど・・・\n生き残っていたらって　よく考えるんだ\n大きくて強い者が　生き残るのか\nそれとも　かしこい者が　生き残るのか・・・\nフフフ、ロマンが止まらないね、",
      "KRko": "공룡은 6500만 년 전에\n멸종했지만...\n살아 있었다면 어땠을까?\n크고 강한 공룡이 살아남을까?\n아니면 똑똑한 공룡이 살아남을까...?\n후후후! 상상의 나래가 펼쳐지네! !",
      "TWzh": "雖然恐龍在6500萬年前左右\n就已經絕種了……\n但我常常在想像，如果他們還活著會怎樣。\n是巨大又強悍的生物能夠存活，\n還是能夠運用智慧的生物會存活呢……\n呵呵呵，真的很浪漫呢，。",
      "USen": "The very last dinosaurs went extinct\nabout 65 million years ago. But what\nif they hadn't?\nWould my favorite barista be a\nbrontosaurus? Probably!",
      "USes": "Hace 65 millones de años que se\nextinguieron los últimos dinosaurios.\n¿Te imaginas si aún existieran?\nQuizás hasta tendría brontosaurios\ny diplodocus entre los seguidores\nde mi blog. ¡Seguro!",
      "USfr": "Les derniers dinosaures se sont\néteints il y a environ 65 millions\nd'années. À quelques siècles près!\nImagine s'ils étaient toujours là...\nEst-ce que j'aurais des amis\ndiplodocus? Sans doute!"
    }
  },
  {
    "label": "002_02",
    "attribute": "0x0000000000000000",
    "locale": {
      "CNzh": "要将(resident name)这一存在\n传达给未来，\n化石这方法或许也不错呢。\n考虑到出土的那一瞬间，\n我必须要先研究一下\n优雅美观的姿势才行……。",
      "EUde": "Gut leben und ein schönes Fossil\nhinterlassen, sagt man das nicht so?\nAm Ende meiner Tage werde ich\nmich in Pose werfen, um den zu\nüberraschen, der mich ausgräbt.\nUngefähr... SO!",
      "EUen": "Live well and leave a beautiful fossil,\nisn't that how the saying goes?\nI plan to strike an incredible pose\nin my last moments to surprise the\nperson who digs me up. Like...THIS!",
      "EUes": "Esto de fosilizarse es como si una\nfoto tuya quedase para la posteridad\ny la admiraran en un museo.\nIgual no me importaría fosilizarme\nyo mismo algún día... ¿Crees que\nme favorecería esta pose?",
      "EUfr": "Vivre jeune, courir vite et faire\nun beau fossile. C'est bien ça\nqu'on dit ?\nQuand ma dernière heure de gloire\nsera venue, je compte prendre une\npose invraisemblable.\nComme ça, l'archéologue qui\ntombera sur moi va avoir la\nsurprise de sa vie !\nImagine : tu joues de la cuillère sous\nle cagnard comme d'habitude et\nsoudain, tu me vois faire... ÇA !",
      "EUit": "Vivi sereno e lascia un fossile\nguapo... Non è forse così che si\ndice?\nQuando accadrà, voglio assumere\nuna posa da paura e lasciare senza\nfiato chi avrà l'onore di scoprirmi.\nPiù o meno... Così!",
      "EUnl": "Leef goed en laat een prachtig\nfossiel achter, zeggen ze dat niet zo?\nIk ga een geweldige pose aannemen\nin mijn laatste maanden om degene\ndie me opgraaft te verrassen.\nZoiets als... dit!",
      "EUru": "Жил красиво — окаменел красиво.\nРазве так не говорят?\nЛично я подготовлю шикарную\nпозу для последних моментов\nмоей жизни. \nТогда меня раскопают в лучшем\nвиде... Например вот так!",
      "JPja": "(resident name)という存在を\n未来に　伝えるには、\nかせきという手段も　悪くないかもね\n掘り出された時のために\n美しく見える　ポーズを\n研究しておかないと・・・、",
      "KRko": "(resident name)의 존재를\n미래에 전하기에는\n화석이라는 방법도 나쁘지 않을 것 같군\n발견되었을 때를 대비해서\n멋진 포즈를\n연구해둬야겠어, ...",
      "TWzh": "如果將(resident name)這個存在\n以化石這樣的方式流傳到未來，\n好像也不錯呢。\n我得好好研究一下，\n被挖掘出來的時候\n該擺出什麼樣的姿勢比較帥……。",
      "USen": "Live well and leave a beautiful fossil,\nisn't that how the saying goes?\nI plan to strike an incredible pose\nin my last moments to surprise the\nperson who digs me up. Like...THIS!",
      "USes": "Esto de fosilizarse es como si una\nfoto tuya quedase para la posteridad\ny la admiraran en un museo.\nCreo que no me molestaría\nfosilizarme algún día... ¿Crees que\nme favorecería esta pose?",
      "USfr": "Vivre jeune, courir vite et faire\nun beau fossile. C'est bien ça\nqu'on dit?\nQuand ma dernière heure de gloire\nsera venue, je compte prendre une\npose invraisemblable.\nComme ça, l'archéologue qui\ntombera sur moi va avoir la\nsurprise de sa vie!\nImagine : tu joues de la cuillère sous\nle cagnard comme d'habitude et\nsoudain, tu me vois faire... ÇA!"
    }
  },
  {
    "label": "002_03",
    "attribute": "0x0000000000000000",
    "locale": {
      "CNzh": "嘘！\n你听不到恐龙们的呼吸吗？\n听……\n呼……呼……\n啊，还觉得音色很优美呢，\n原来是我的喘气声呀，哈哈！",
      "EUde": "Oh! Kannst du die Geister der\nDinosaurier atmen hören?\nHuuuh... Huuuuuuh...\nAh. Das ist nur mein eigener Atem.\nFalscher Alarm!",
      "EUen": "Whoa! Can you hear the ghosts\nof the dinosaurs breathing?\nHufffff...huffff...\nWait. That's just me breathing.\nFalse alarm, everyone!",
      "EUes": "¡Presta atención! ¿Oyes eso? ¡Uno\nde estos fósiles está respirando!\n(Uuufff... fiuuuuuu...)\nAh, no, espera. Era yo mismo,\nque tengo la nariz algo atascada.\n¡No he dicho nada!",
      "EUfr": "Aaah ! T'entends la respiration\ndes fantômes de dinosaures ?\nHufffff... huffff... Attends...\nNon, c'est ma respiration, en fait.\nFausse alerte, messieurs-dames !",
      "EUit": "Uau! Riesci a sentire il respiro\ndei fantasmi dei dinosauri?\nPuff... Anff...\nAspetta... Questo è il mio respiro.\nFalso allarme, chiedo scusa!",
      "EUnl": "Wauw! Hoor je de geesten van de\ndinosaurussen hier ademen?\nPffff... pffff...\nWacht. Dat is mijn eigen adem. Sorry\niedereen, vals alarm!",
      "EUru": "Ух ты! Слышишь, как дышат\nпризраки динозавров?\nФ-ф-ф-ф...ф-ф-ф-ф...\nХотя погоди-ка... Это же мое\nсобственное дыхание.\nОшибочка вышла!",
      "JPja": "しーっ！\n恐竜たちの　息吹が聞こえないかい？\nほら・・・\nすぴー・・・　すぴー・・・\nあっ、甘美な音色だと　思ったら\nボクの息づかいだったよ、ハッハー！",
      "KRko": "쉿!\n공룡들의 숨소리가 들리지 않나?\n자, 들어보라구...\n새액... 새액...\n앗, 신비로운 소리인 줄 알았더니\n내 숨소리였잖아, 하핫～!",
      "TWzh": "噓──！\n你有沒有聽到恐龍們的呼吸聲？\n你聽……\n咻呼……咻呼……\n啊，我還在想這聲音怎麼這麼甜美，\n原來是我自己的呼吸聲啊，哈哈～！",
      "USen": "Whoa! Can you hear the ghosts\nof the dinosaurs breathing?\nHufffff...huffff...\nWait. That's just me breathing.\nFalse alarm, everyone!",
      "USes": "¡Presta atención! ¿Oyes eso? ¡Uno\nde estos fósiles está respirando!\n(Uuufff... fiuuuuuu...).\nAh, no, espera. Soy yo, que tengo\nla nariz un poco tapada.\n¡Falsa alarma!",
      "USfr": "Aaah! T'entends la respiration\ndes fantômes de dinosaures?\nHufffff... huffff... Attends...\nNon, c'est ma respiration, en fait.\nFausse alerte, messieurs-dames!"
    }
  },
  {
    "label": "003",
    "attribute": "0x0000000000000000",
    "locale": {
      "CNzh": "",
      "EUde": "",
      "EUen": "",
      "EUes": "",
      "EUfr": "",
      "EUit": "",
      "EUnl": "",
      "EUru": "",
      "JPja": "",
      "KRko": "",
      "TWzh": "",
      "USen": "",
      "USes": "",
      "USfr": ""
    }
  },
  {
    "label": "003_01",
    "attribute": "0x0000000000000000",
    "locale": {
      "CNzh": "啊～啊，真叫人嫉妒呀～\n能这样美丽地展示在众人面前的化石，\n是多么叫我羡慕呀。。",
      "EUde": "Hmm, diese Fossilien können der\nWelt ständig ihre Schokolandenseite\npräsentieren. Ja, ich bin neidisch!",
      "EUen": "Ugh, these fossils get to show off\ntheir best side for all of eternity.\nI'm jealous!",
      "EUes": "Qué suerte tienen estos fósiles...\nMíralos aquí, luciendo palmito para\ntoda la eternidad.\n¡No puedo negar que me dan mucha\nenvidia!",
      "EUfr": "Argh, ces maudits fossiles montrent\nleur meilleur profil pour l'éternité.\nJe suis vert de jalousie.",
      "EUit": "Sorbole, questi fossili possono\nmostrare il loro profilo migliore\nper l'eternità. Che invidia!",
      "EUnl": "Joh, deze fossielen kunnen zich\neeuwig van hun beste kant laten\nzien. Ik ben vet jaloers!",
      "EUru": "Эти существа закаменели во всей\nкрасе и будут блистать тут веками.\nКак же я им завидую!",
      "JPja": "あぁ～、シットしちゃうなぁ～\nこんな風に美しく　展示してもらえるなんて\nかせきが　うらやましいよ、",
      "KRko": "으음～ 질투 나는걸～\n이렇게 아름답게 전시되다니\n화석이 부럽다구, ～",
      "TWzh": "啊啊～真讓人忌妒～\n能像如此美麗地展現在眾人面前，\n我好羨慕化石喔，。",
      "USen": "Ugh, these fossils get to show off\ntheir best side for all of eternity.\nI'm jealous!",
      "USes": "Qué suerte tienen estos fósiles...\nMíralos aquí, luciendo todo su\nesplendor para toda la eternidad.\n¡No puedo negar que me dan mucha\nenvidia!",
      "USfr": "Argh, ces fichus fossiles montrent\nleur meilleur profil pour l'éternité.\nJe suis vert de jalousie."
    }
  },
  {
    "label": "003_02",
    "attribute": "0x0000000000000000",
    "locale": {
      "CNzh": "呵呵呵，再过100万年，\n我的骨头也会像这样\n展示在他人面前吗？\n如果是那样……\n我必须要好好\n补充钙质才行呢。。",
      "EUde": "Ich frage mich, ob in einer Million\nJahre auch mein Skelett in einem\nMuseum ausgestellt ist...\nIch sollte wohl ausreichend Kalzium\nzu mir nehmen, damit meine Knochen\ndie Besuchermassen locken!",
      "EUen": "I wonder if my skeleton will be on\ndisplay like this in a million years\nor so...\nGuess I'd better keep up a good\ncalcium routine if I want these\nbones to really sparkle!",
      "EUes": "Me pregunto si mis huesos también\nse mantendrán en tan buen estado\ndentro de millones de años...\n¡Más me vale empezar cuanto antes\nuna dieta rica en calcio!",
      "EUfr": "Mon squelette sera-t-il exposé ainsi\ndans un million d'années et des\npoussières...\nJe ferais bien d'ingurgiter assez\nde calcium, histoire de faire briller\nmes os comme il faut !",
      "EUit": "Chissà se tra qualche milione di años\nanche il mio scheletro verrà esposto\nin questo modo...\nSarà meglio che assuma calcio in\nquantità industriali se voglio che\nle ossa risplendano alla grande!",
      "EUnl": "Ik vraag me af of mijn skelet ook\ntentoon zal worden gesteld over\neen miljoen jaar of zo...\nIk kan maar beter zorgen dat ik\ngenoeg calcium binnenkrijg zodat\nmijn botten sprankelen!",
      "EUru": "Надеюсь, мой скелет тоже будет\nкрасоваться в музеях\nмиллионами лет...\nМне следует употреблять побольше\nпрепаратов кальция, чтобы мои\nкости сверкали как жемчуг!",
      "JPja": "フフフ、100万年くらい経ったら\nボクの骨も　こんなふうに\n誰かに　見られているのかな？\nだとしたら・・・\nちゃんと　カルシウムを\nとらないと　いけないね、",
      "KRko": "후후후, 100만 년이 지나면\n내 뼈도 이런 식으로\n누군가가 보게 되려나?\n그렇다면...\n칼슘 섭취에\n만전을 기해야겠군, ～",
      "TWzh": "呵呵呵，再過個100萬年的話，\n我的骨頭也能像這樣\n被某個人欣賞嗎？\n既然這樣……\n現在就得好好地\n補充鈣質才行呢，。",
      "USen": "I wonder if my skeleton will be on\ndisplay like this in a million years\nor so...\nGuess I'd better keep up a good\ncalcium routine if I want these\nbones to really sparkle!",
      "USes": "Me pregunto si mis huesos también\nse mantendrán en tan buen estado\ndentro de millones de años...\n¡Debería empezar cuanto antes\nuna dieta rica en calcio!",
      "USfr": "Mon squelette sera-t-il exposé ainsi\ndans un million d'années et des\npoussières...\nJe ferais bien d'ingurgiter assez\nde calcium, histoire de faire briller\nmes os comme il faut!"
    }
  },
  {
    "label": "003_03",
    "attribute": "0x0000000000000000",
    "locale": {
      "CNzh": "没有一丝累赘的极限之美……\n那或许就是吸引众人的\n化石的魅力所在吧。\n呵呵呵，如果我在这里\n展示赤裸而又真实的美，\n有没有可能迷住你呢？。",
      "EUde": "Wie diese Kreaturen wohl in ihren\nbesten Tagen ausgesehen haben...\nWaren sie die Gewinner von\nDino-Schönheitswettbewerben?",
      "EUen": "I wonder what these creatures\nlooked like in their full glory.\nWere they the dinosaur equivalent\nof beauty pageant winners?",
      "EUes": "Cómo me gustaría haber conocido\nestos animales en todo su esplendor,\ncuando aún vivían.\n¿Serían los que más destacaban en\nsu época, como yo actualmente?",
      "EUfr": "Je me demande à quoi ressemblaient\nces bestioles dans la force de l'âge.\nTu crois que, dans leur jeunesse,\nces fossiles ont gagné des concours\nde beauté de dinosaures ?",
      "EUit": "Mi pregunto che aspetto avessero\nqueste creature nel pieno del loro\nvigore.\nMagari c'era già la moda di indossare\npantaloni attillati. Ah, no... Quella\nl'ho inventata io!",
      "EUnl": "Ik vraag me af me weleens af hoe\ndeze wezens er in het echt hebben\nuitgezien.\nMisschien waren ze bij dinosauriërs\nwel het equivalent van deelnemers\naan schoonheidswedstrijden...",
      "EUru": "Хотелось бы мне посмотреть\nна этих красавцев при жизни.\nВполне возможно, они выглядели\nтак же восхитительно, как я.",
      "JPja": "ムダを省いた　極限の美・・・\nそれが　みんなを　ひきつける\nかせきの魅力　なのかもしれないね\nフフフ、ボクが　ここに　\nありのままの姿で　展示されたら\nキミを　魅了するのかな？　",
      "KRko": "절제된 극한의 아름다움...\n그게 바로 모두를 끌어당기는\n화석의 매력일지도 모르겠군\n후후후, 내가 여기에\n본연의 모습으로 전시된다면\n그대를 매료시킬 수 있을까? ?",
      "TWzh": "毫無一絲多餘的極致之美……\n也許那就是吸引大家前來欣賞的\n化石的魅力呢。\n呵呵呵，如果我也以一絲不掛的姿態\n被展示在這裡，\n能夠使你為我著迷嗎？。",
      "USen": "I wonder what these creatures\nlooked like in their full glory.\nWere they the dinosaur equivalent\nof beauty pageant winners?",
      "USes": "Cómo me gustaría haber conocido\nestos animales en todo su esplendor,\ncuando aún vivían.\n¿Serían los que más se destacaban\nen su época, como yo ahora?",
      "USfr": "Je me demande à quoi ressemblaient\nces bestioles dans la force de l'âge.\nTu crois que, dans leur jeunesse,\nces fossiles ont gagné des concours\nde beauté de dinosaures?"
    }
  },
  {
    "label": "100",
    "attribute": "0x0000000000000000",
    "locale": {
      "CNzh": "",
      "EUde": "",
      "EUen": "",
      "EUes": "",
      "EUfr": "",
      "EUit": "",
      "EUnl": "",
      "EUru": "",
      "JPja": "",
      "KRko": "",
      "TWzh": "",
      "USen": "",
      "USes": "",
      "USfr": ""
    }
  },
  {
    "label": "100_01",
    "attribute": "0x0000000000000000",
    "locale": {
      "CNzh": "名为化石的太古浪漫，\n同样也吸引了你啊。\n呵呵呵，我也沉迷其中……。",
      "EUde": "Ah! Wie ich sehe, handelt es sich\nbei dir um einen Connaisseur des\nPrähistorischen.\nSchütteln wir uns darauf die Hände –\nund tun wir dabei so, als schüttelten\nsich zwei Skelette die Hände!",
      "EUen": "Aha! I see you're a fellow\nconnoisseur of the prehistoric.\nLet's bump fists and imagine that\nit's two skeletons fist-bumping!",
      "EUes": "¡Vaya! ¿Tú también eres aficionado\na toda esta corriente «vintage» de\nlos huesos prehistóricos?\n¡Choca esos metacarpos!",
      "EUfr": "Ha ha ! Je vois que j'ai affaire\nà un fin connaisseur de la\npréhistoire.\nComme quoi, les grands squelettes\nse rencontrent.",
      "EUit": "Ah, noto che anche tu sei un fine\nestimatore della preistoria como\nmi...\nD'altronde io ho studiato molto\nsull'argomento. A casa ho un sacco\ndi scheletri nell'armadio...",
      "EUnl": "Aha! Ik zie dat je een mede-\nconnaisseur van de oudheid bent.\nGeef me een boks en beeld je in dat\nwe twee skeletten zijn die elkaar een\nboks geven!",
      "EUru": "Итак... Кажется, ты тоже большой\nценитель доисторических\nсуществ.\nЧто ж, приятно иметь дело\nс единомышленником!",
      "JPja": "キミも　かせきという　太古のロマンに\n魅せられた　ひとりなんだね\nフフフ、ボクもさ・・・、",
      "KRko": "그대도 화석이라는\n태고의 매력에 빠진 한 사람이로군\n후후후, 나도 마찬가지라구, ",
      "TWzh": "你也是被名為化石的遠古浪漫\n所吸引的其中一人嗎？\n呵呵呵，我也一樣……。",
      "USen": "Aha! I see you're a fellow\nconnoisseur of the prehistoric.\nLet's bump fists and imagine that\nit's two skeletons fist-bumping!",
      "USes": "¡Vaya! ¿Tú también eres aficionado\na toda esta corriente \"vintage\" de\nlos huesos prehistóricos?\n¡Choca esos metacarpos!",
      "USfr": "Ah ha! Je vois que j'ai affaire\nà un fin connaisseur de la\npréhistoire.\nComme quoi, les grands squelettes\nse rencontrent."
    }
  },
  {
    "label": "100_02",
    "attribute": "0x0000000000000000",
    "locale": {
      "CNzh": "总感觉有点寂寞呢～\n等你离开之后，\n这里就只余下化石了吧？\n希望这房间能多留存一会儿\n你所带来的温暖……。",
      "EUde": "Es muss hier ziemlich einsam und\nschaurig sein, wenn niemand da ist...\nAndererseits würde sich dann auch\nniemand außer diesen alten Knochen\ngruseln. Und die gruselt nichts!",
      "EUen": "I bet it gets pretty lonely and creepy\nin here when no one's around...\nThen again, no one would be here\nto witness it except these old bones.\nSo...creep on, skeletons!",
      "EUes": "Seguro que este lugar da un poco\nde miedito cuando no hay visitantes\ny está oscuro y solitario...\nPero, aunque hubiera fantasmas,\n¿a quién iban a asustar? ¿A unos\nesqueletos?...",
      "EUfr": "L'ambiance ne doit pas être joyeuse\nici quand il n'y a personne...\nCeci dit, s'il n'y a personne, il n'y a\npersonne pour souffrir de l'ambiance.\nLes squelettes devront s'y faire !",
      "EUit": "Scommetto che c'è da aver paura\nqui dentro quando ormai non c'è\npiù ninguno...\nPerò se non c'è più ninguno, non\nc'è nemmeno qualcuno che possa\naver paura, no?\nBueno, problema risolto!",
      "EUnl": "Het moet echt eenzaam en eng zijn\nhier wanneer er niemand in de buurt\nis...\nDie oude botten zijn de perfecte\nsetting voor een horrorfilm.\nIk wil niet bot zijn... maar jullie zijn\ngriezelig!",
      "EUru": "Представляю, как тут уныло\nи пустынно, когда уходят\nпосетители...\nНо окаменелым костям, пожалуй,\nэто безразлично. Скелеты не\nлюбят поболтать, как я...",
      "JPja": "なんだか　寂しいな～\nキミが　帰ってしまったら、\nここは　かせきだけに　なってしまうだろ？\nもう少しだけ　この部屋を温めてほしい\nキミの　ぬくもりで・・・、",
      "KRko": "왠지 쓸쓸한걸～\n그대가 돌아가버리면\n여기엔 화석들만 남게 되는 거잖아?\n조금 더 이곳에 머물러주지 않겠어?\n나를 위해서라도, ...",
      "TWzh": "總覺得好寂寞啊～\n要是你回家了，\n這裡不就只剩化石了嗎？\n希望你能再溫暖一下這空間，\n用你的體溫……。",
      "USen": "I bet it gets pretty lonely and creepy\nin here when no one's around...\nThen again, no one would be here\nto witness it except these old bones.\nSo...creep on, skeletons!",
      "USes": "Seguro que este lugar da un poco\nde miedito cuando no hay visitantes\ny está oscuro y solitario...\nPero, aunque hubiera fantasmas,\n¿a quién van a asustar? ¿A unos\nesqueletos?...",
      "USfr": "L'ambiance doit pas être joyeuse\nici quand il n'y a personne...\nCeci dit, si y'a personne, y'a\npersonne pour souffrir de l'ambiance.\nLes squelettes devront s'y faire!"
    }
  },
  {
    "label": "100_03",
    "attribute": "0x0000000000000000",
    "locale": {
      "CNzh": "嗨，，\n你有没有\n特别喜欢的化石？。\n如果真的存在，\n我可能会对那块化石\n产生一点小小的嫉妒呢～",
      "EUde": "Interessiert dich eins dieser alten\nSkelette ganz besonders,\n(Spitzname)?\nWieso? Ich frag doch nur, ob dir\nSkelette gefallen. Eine völlig normale\nFrage, die ständig aufkommt!",
      "EUen": "Any of these old skeletons catch\nyour eye, (nickname)?\nWhat do you mean, what for? I'm\njust asking if you like the skeletons,\nOK? It's a normal question!",
      "EUes": "¿Hay algún esqueleto aquí que te\nllame especialmente la atención,\n(nickname)?\n¿Cómo que en qué sentido?\n¿Cómo puedes preguntar eso?\n¡Por su valor «vintage», obviamente!",
      "EUfr": "Est-ce qu'un de ces vieux\nsquelettes t'a tapé dans l'œil,\n(surnom) ?\nMe regarde pas comme ça !\nJ'ai encore le droit de te demander\nsi t'aimes les squelettes, non ?",
      "EUit": "Sei rimasto colpito da uno di\nquesti scheletri in particolare,\n(nickname)?\nNo me miras così! Avrò ancora\nil diritto di chiederti se ti piacciono\ngli scheletri, no?",
      "EUnl": "Is er een specifiek skelet dat je\nbevalt, (nickname)?\nHoe bedoel je waarom? Ik vraag\nalleen of je van skeletten houdt,\noké? Dat is een heel normale vraag!",
      "EUru": "Тебе приглянулся какой-нибудь\nскелет, (nickname)?\nКак это, ты не знаешь? И ты еще\nсчитаешь себя ценителем\nокаменелостей? Да уж!",
      "JPja": "ねぇ、\nお気に入りの　かせきとか\nあるのかい？　\nもし　あるんだったら、\nそのかせきに　ちょっぴり\nジェラシー　感じちゃうなぁ～",
      "KRko": "저기, 군\n마음에 드는 화석이 있나? ?\n혹시 있다면 그 화석에게...\n조금 질투해버릴 것 같네～",
      "TWzh": "，\n你有特別喜歡的\n化石嗎？。\n如果有的話，\n我會有點忌妒\n那個化石呢～",
      "USen": "Any of these old skeletons catch\nyour eye, (nickname)?\nWhat do you mean, what for? I'm\njust asking if you like the skeletons,\nOK? It's a normal question!",
      "USes": "¿Hay algún esqueleto aquí que te\nllame especialmente la atención,\n(nickname)?\n¿Cómo que en qué sentido?\n¿Cómo puedes preguntar eso?\n¡Por su valor \"vintage\", obviamente!",
      "USfr": "Est-ce qu'un de ces vieux\nsquelettes t'a tapé dans l'œil,\n(surnom)?\nMe regarde pas comme ça!\nJ'ai encore le droit de te demander\nsi t'aimes les squelettes, non?"
    }
  },
  {
    "label": "200",
    "attribute": "0x0000000000000000",
    "locale": {
      "CNzh": "",
      "EUde": "",
      "EUen": "",
      "EUes": "",
      "EUfr": "",
      "EUit": "",
      "EUnl": "",
      "EUru": "",
      "JPja": "",
      "KRko": "",
      "TWzh": "",
      "USen": "",
      "USes": "",
      "USfr": ""
    }
  },
  {
    "label": "200_01",
    "attribute": "0x0000000000000000",
    "locale": {
      "CNzh": "\n新开了一座博物馆，\n这可是千载难逢的好事呀～\n灯光相当有气氛……\n看来可以在这里稍微享受一下\n大人的时间呢。。",
      "EUde": "Ich bin echt froh, dass wir einen\nso coolen Aufbewahrungsort für\nausgebuddelte Knochen haben.\nIch steh ja auf alles, was ein\nbisschen retro ist. Außerdem\nkann man hier super chillen.",
      "EUen": "I'm glad we have a place to keep all\nof the vintage \nbones that are being dug up.\nSome of these things are TRÈS chic.\nThat's Jurassic for \"super retro.\"",
      "EUes": "Me gusta que  tenga un sitio donde almacenar los restos «vintage» que se hallan.\nAdemás, hasta han puesto\nla iluminación adecuada para\npreservarlos en condiciones.\n¡Se nota que alguien ha estado\nescuchando mi pódcast sobre\narqueología, !",
      "EUfr": "C'est bien qu'on ait un endroit pour\nconserver tous les vieux os déterrés\nà .\nJe vais en parler dans mon nouveau\nmagazine « Rétro à gogo ».",
      "EUit": "Sono contento che abbiamo un\nposto dove tenere tutte le ossa che\nsi trovano  .\nAlcune di queste cose sono muy\nchic. Che in giurassico significa\n\"vintage\".",
      "EUnl": "Ik ben blij dat we een plek hebben om de antieke botten van  uit te stallen.\nEr zitten een paar exemplaren tussen\ndie très chic zijn. Dat is oertaal voor\n\"superoud\".",
      "EUru": "Здорово, что есть где хранить\nдоисторические кости, найденные\nв недрах острова .\nСреди них иногда попадается такой\nэксклюзивный винтаж. Суперретро\nюрского периода.",
      "JPja": "に\n博物館がオープンして\nこんなに　嬉しいことはないな～\n照明の感じとか　ムードがあるし・・・\nここは　ちょっぴり　オトナな時間を\n楽しむことが　できそうだね、",
      "KRko": "나는 에\n박물관이 생겨서\n어찌나 기쁜지 몰라～\n조명도 분위기 있고...\n여기는 차분하게 시간을 보낼 수 있는\n좋은 장소가 되겠어! !",
      "TWzh": "再也沒有比上\n有博物館開幕更令人開心的事啦～\n畢竟光照亮度之類的很有氣氛啊……\n感覺可以在這邊\n稍微享受一下成熟大人的時光呢，。",
      "USen": "I'm glad we have a place to keep all\nof the vintage \nbones that are being dug up.\nSome of these things are TRÈS chic.\nThat's Jurassic for \"super retro.\"",
      "USes": "Me gusta que  tenga un lugar donde almacenar los restos \"vintage\" que se encuentren.\nAdemás, hasta pusieron la\niluminación adecuada para\npreservarlos en buenas condiciones.\n¡Se nota que alguien escuchó\nmi \"podcast\" sobre arqueología, !",
      "USfr": "C'est bien qu'on ait un endroit pour\nconserver tous les vieux os déterrés\nà .\nJe vais en parler dans mon nouveau\nmagazine « Rétro à gogo »."
    }
  },
  {
    "label": "200_02",
    "attribute": "0x0000000000000000",
    "locale": {
      "CNzh": "听说博物馆终于开业了，\n我就来了呀……\n这里简直就像飞跃了时空，\n穿越回到了太古世界呢。\n。",
      "EUde": "Ich bin hier, weil ich von der\nEröffnung des Museums\ngehört hatte, (Floskel).\nDiesen Bereich finde ich echt gut\ngemacht. Man hat fast das Gefühl, \ngleich könnte ein Dino auftauchen.",
      "EUen": "I just came by to look at some cool\nbones and maybe get inspired for my\nnext line of faux-bone jewelry, but...\nThis place is actually blowing my\nmind! It's like I've traveled back in\ntime to the dinosaur ages...",
      "EUes": "Venía en busca de inspiración para\ndiseñar una nueva línea de collares\nóseos, .\nPero al llegar aquí me ha dado\npor pensar en el devenir del tiempo,\nen quiénes somos, adónde vamos...\n¡Creo que es una señal para que\nescriba una entrada sobre filosofía\nen el blog!",
      "EUfr": "Je compte lancer une collection de\nbijoux en simili-os et suis venu\nglaner quelques idées...\nCet endroit est vraiment incroyable !\nJ'ai l'impression d'avoir fait\nun voyage dans le temps !",
      "EUit": "Sono passato a vedere un po' di\nossa e trarre ispirazione per la mia\nlinea di accessori in osso finto...\nQuesto posto è maravilloso! Mi\nsembra di essere tornato indietro\nnel tiempo all'epoca dei dinosauri...",
      "EUnl": "Ik kwam hier om inspiratie op te\ndoen voor een sieradenlijn met\nnamaakbotten, maar...\nIk had niet verwacht dat ik regelrecht\nde dinosaurustijd binnen zou\nwandelen...",
      "EUru": "Вообще-то, я сюда за вдохновением\nпришел. Хотел серию украшений из\nискусственной кости сделать. Но...\nЭто место неожиданно потрясло\nмое воображение! Я сам будто\nперенесся в эпоху динозавров...",
      "JPja": "ついに　博物館がオープンしたと聞いて\n足を　運んでみたけど・・・\nここは　まるで時空を飛び越えて\n太古の世界へ　タイムスリップして\n来たみたいだね～、",
      "KRko": "드디어 박물관이 정식 개관했다는\n소식을 듣고 온 건데...\n이곳은 마치 시공을 초월해서\n머나먼 태고의 세상으로 시간 여행을\n온 기분이 드는군, !",
      "TWzh": "我因為聽說博物館終於開幕，\n所以就過來看看了……\n這裡給人的感覺就像穿越了時空，\n回到遠古時代一樣呢！。",
      "USen": "I just came by to look at some cool\nbones and maybe get inspired for my\nnext line of faux-bone jewelry, but...\nThis place is actually blowing my\nmind! It's like I've traveled back in\ntime to the dinosaur ages...",
      "USes": "Venía en busca de inspiración para\ndiseñar una nueva línea de collares\nóseos, .\nPero al llegar aquí me puse a pensar\nen el devenir del tiempo, en quiénes somos, adónde vamos...\n¡Creo que es una señal para que\nescriba una entrada sobre filosofía\nen el blog!",
      "USfr": "Je compte lancer une collection de\nbijoux en simili-os et suis venu\nglaner quelques idées...\nCet endroit est vraiment incroyable!\nJ'ai l'impression d'avoir fait\nun voyage dans le temps!"
    }
  },
  {
    "label": "200_03",
    "attribute": "0x0000000000000000",
    "locale": {
      "CNzh": "博物馆开业对的发展\n做出了巨大贡献，\n这段历史一定会被后世讴歌吧。\n这样一来，\n就拥有两件瑰宝了。\n一件是博物馆……一件是(resident name)。",
      "EUde": "Ein Museum dieses Kalibers ist für\n vom kulturellen Aspekt her ganz wichtig!\nWarum ich Fossilien toll finde?\nIch mag doch nicht nur modernes\nZeug, sondern auch Klassiker!",
      "EUen": "You know, a museum of this\ncaliber is on my list of Top\nTen Island Must-Haves.\nDidn't think I'd be into fossils, huh?\nC'mon—they're, like, the definition\nof classic! Ha HA!",
      "EUes": "¿No te parece increíble tener acceso\na un museo en una isla recóndita,\n?\nAprécialo por lo que es: ¡estás en\nel epicentro cultural de !\nBueno, con permiso de las tertulias\nintelectuales que hago en mi casa\nlos jueves, claro.",
      "EUfr": "Le musée figure en bonne place sur\nla liste des 10 ATIR, les Attractions\nde Toute Île qui se Respecte.\nTu ne savais pas que j'étais féru de\nfossiles ? Mais bien sûr que si,\nle vintage c'est toujours à la mode !",
      "EUit": "Sai, un museo di questo calibro\nè sulla mia personale lista \"Dieci\nmust isolani imprescindibili\".\nNon pensavi che mi piacessero i\nfossili? Ma come? Non c'è niente di\npiù \"classico\" dei fossili! Ah ah ah!",
      "EUnl": "Weet je, een museum van dit niveau\nis een vereiste voor een ster van mijn\nkaliber.\nHad je niet verwacht dat ik interesse\nzou hebben in fossielen? Wel, ik ken\nuiteraard mijn klassiekers! HaHA!",
      "EUru": "Да, такой музей входит в мою\nличную необходимую для острова\nдесятку.\nНе думал, что меня интересуют\nокаменелости? Ты что?! Это же\nклассика по определению! Хо-хо!",
      "JPja": "博物館のオープンは、\nの発展に　貢献し\nその歴史は　後世に語り継がれるだろう\nこれで　は、\n二つの目玉を　手にした事になる\n博物館と・・・(resident name)という目玉を",
      "KRko": "박물관 오픈은\n의 발전에 공헌하고\n그 역사는 후세에 길이 남을 거야\n이제 은\n두 개의 보물을 갖게 됐어\n박물관과... (resident name)이라는 보물을!",
      "TWzh": "博物館的開幕將會\n為的發展做出貢獻，\n並且為後世所傳頌吧。\n這下子，上\n就有了兩個引人注目的地方了。\n一個是博物館……另一個是(resident name)。",
      "USen": "You know, a museum of this\ncaliber is on my list of Top\nTen Island Must-Haves.\nDidn't think I'd be into fossils, huh?\nC'mon—they're, like, the definition\nof classic! Ha HA!",
      "USes": "¿No te parece \"magnifique\" poder\nacceder a un museo estando en una\nisla recóndita, ?\nAprécialo por lo que es: ¡estás en\nel epicentro cultural de !\nBueno, además de las tertulias\nintelectuales que organizo yo en\nmi casa los jueves, claro.",
      "USfr": "Le musée est placé haut sur\nla liste des 10 ATIR, les Attractions\nde Toute Île qui se Respecte.\nTu savais pas que j'étais fan de\nfossiles? Mais bien sûr que si,\nle vintage c'est toujours à la mode!"
    }
  }
]