﻿[
  {
    "label": "001",
    "locale": {
      "CNzh": "嗨！(nickname)！",
      "EUde": "Tach, (Spitzname)!",
      "EUen": "Yo, (nickname)!",
      "EUes": "¡Ese (nickname)!",
      "EUfr": "Hé, (surnom) !",
      "EUit": "Ehi, (nickname)!",
      "EUnl": "Yo, (nickname)!",
      "EUru": "Приветствую, (nickname)!",
      "JPja": "ちーっす　(nickname)！",
      "KRko": "안녕, (nickname)!",
      "TWzh": "嘿～(nickname)！",
      "USen": "Yo, (nickname)!",
      "USes": "¡Ese (nickname)!",
      "USfr": "Hé, (surnom)!"
    }
  },
  {
    "label": "002",
    "locale": {
      "CNzh": "写给(nickname)♪",
      "EUde": "Was geht, (Spitzname),",
      "EUen": "Been a hot minute, (nickname)!",
      "EUes": "¡Estoy que lo tiro, (nickname)!",
      "EUfr": "Re-yo, (surnom),",
      "EUit": "Ciaaaooo, (nickname)!",
      "EUnl": "Hoestieee, (nickname),",
      "EUru": "Давно не видно, (nickname)!",
      "JPja": "(nickname)へ♪",
      "KRko": "(nickname)에게♪",
      "TWzh": "給(nickname)♪",
      "USen": "Been a hot minute, (nickname)!",
      "USes": "¡Qué hay, (nickname)!",
      "USfr": "Re-yo, (surnom),"
    }
  },
  {
    "label": "101",
    "locale": {
      "CNzh": "多亏了你，我才能在理想的位置\n支起帐篷。谢谢你啊！\n送你一份DIY手册作为谢礼。\n你要是对DIY还不了解，\n那就去请狸克教教你吧。\n那么，今后就请你多关照啦！",
      "EUde": "Voll knorke, wie du mir mit dem Zelt\ngeholfen hast. Du rockst! Dafür\nkriegste jetzt 'ne fette Bastelanlei-\ntung von mir. Ach ja, falls du nich'\nweißt, wozu die gut sein soll, geh\neinfach mal Tom Nook nerven.",
      "EUen": "Way to help a gal get her tent set\nup! That was seriously a rock-star\nmove. I got you a sweet DIY recipe\nas a sort of thank-you gift. Oh! And\nif you don't know about DIY stuff\nyet, go bug Tom Nook ASAP.",
      "EUes": "Oye, me flipa que me hayas echado\nun cable para montar la tienda. ¡Si\nes que eres la caña! Para darte las\ngracias, te mando un proyectillo\nmolón. Si necesitas ayuda, habla\ncon Tom Nook, ¿vale, colega?",
      "EUfr": "Le coin que t'as déniché pour\nma tente est au poil, t'as l'œil !\nV'là un plan de bricolage pour\nte r'mercier. Si tu sais pas quoi\nen faire, va embêter Tom Nook,\nil te dira comment ça marche.",
      "EUit": "I ringraziamenti non sono il mio\nforte, ma te li devo per avermi\naiutato con la tenda. Ecco perché\nti mando uno schema fai da te.\nSe non sai come usarlo, rivolgiti\na Tom Nook il prima possibile.",
      "EUnl": "Tof van je dat je me zo goed hebt\ngeholpen met mijn tent, joh! Als\neen soort bedankje heb ik een\ndoe-het-zelfplan voor je. En als dat\nnog allemaal nieuw voor je is, moet\nje Tom Nook maar even lastigvallen.",
      "EUru": "Помочь другу с выбором места\nдля палатки — это классно! Хочу\nподарить тебе одну инструкцию\n«Сделай сам». Если ты не в курсе,\nчто это такое, сходи к Тому Нуку.",
      "JPja": "いいトコに　テントをはれたのは、\nアンタのおかげさ。ありがとね！\nおれいに　DIYのレシピをプレゼントだ。\nDIYのコトを　まだきいてないなら\nたぬきちさんに　おしえてもらうんだよ。\nそんじゃ、これからもよろしく！",
      "KRko": "딱 좋은 자리에 텐트를 펼친 건\n다 니 덕분이야. 고마워!\n선물로 DIY 레시피를 보내줄게.\nDIY가 뭔지 아직 모르면\n너굴씨한테 가서 배워.\n그럼 앞으로도 잘 부탁해!",
      "TWzh": "都是多虧了你，\n我才能在這麼好的地點搭帳篷，謝啦！\n我想送你DIY方程式當作回禮。\n如果你還不了解DIY是什麼，\n可以去找狸克，他會解釋給你聽。\n那就這樣啦，今後也請多多關照！",
      "USen": "Way to help a gal get her tent set\nup! That was seriously a rock-star\nmove. I got you a sweet DIY recipe\nas a sort of thank-you gift. Oh! And\nif you don't know about DIY stuff\nyet, go bug Tom Nook ASAP.",
      "USes": "Estuvo de lujo que me hayas\nayudado a instalar mi tienda de\ncampaña. ¡Tú sí eres buen compi!\nAquí te mando un proyecto como\nagradecimiento. Ve a hablar con\nTom Nook si necesitas ayuda.",
      "USfr": "Le coin que t'as déniché pour\nma tente est au poil, t'as l'œil!\nV'là un plan de bricolage pour\nte r'mercier. Si tu sais pas quoi\nen faire, va embêter Tom Nook,\nil te dira comment ça marche."
    }
  },
  {
    "label": "102",
    "locale": {
      "CNzh": "你没能带回去的招待新人的东西，\n我帮你寄过去啦！\n把它装饰在岛上，\n用它来迎接\n今后搬来这座岛的\n每一位新伙伴！",
      "EUde": "Weißte noch, wie ich meinte, du\nkriegst was Feines per Post von\nmir? Tja, hier isses. Bin schon ge-\nspannt wie 'n Flitzebogen, wie du's\neinsetzt. Sorgen wir dafür, dass\n voll fetzig wird!",
      "EUen": "Remember when I said I was gonna\nmail you something? Well, here's\nthat something! I can't wait to\nsee what you're gonna do with\nit. 's gonna look\nso, so awesome!",
      "EUes": "Estoy convencidísima de que,\ncon un poquillo que decoremos\nla isla, conseguiremos vivir en\nun sitio incluso más flipante.\n¡A ver dónde pones esta movida\nque te mando! Me puede la intriga.",
      "EUfr": "Je t'ai dit que j't'enverrais un truc,\nça t'parle encore ? Bon, ben le v'là\nmon truc ! C'est pour le lifting\nde .",
      "EUit": "Ricordi quando ti avevo promesso\ndi spedirti qualcosa? Beh, ecco il\nqualcosa! Non vedo l'ora di sapere\ncosa ci farai. Sono sicura che tutti\ngli abitanti di  ne\nsaranno estasiati!",
      "EUnl": "Weet je nog dat ik had gezegd\ndat ik je iets zou sturen? Nou, het\nwachten is voorbij! Ik ben heel erg\nbenieuwd om te zien wat je ermee\ngaat doen.  gaat\ner zo tof uitzien, geloof me!",
      "EUru": "Помнишь, я сказала, что пошлю\nтебе кое-что? Время пришло!\nХочу увидеть, как ты украсишь\nостров ! Толпы\nнарода сбегутся сюда как пчелы\nна мед!",
      "JPja": "わたしそびれた、おもてなしグッズを\nおくるからね！\nこれを　しまにかざって、\nこれから　どんどん　やってくる\nあたらしい　なかまたちを\nカンゲイしようよ！",
      "KRko": "미처 못 준 선물을 보낸다!\n이걸 섬에 장식해서\n앞으로 점점 더 늘어날\n우리의 수많은 이웃들을\n반겨주자고!",
      "TWzh": "之前我忘了把款待用的東西拿給你，\n現在我寄來給你囉！\n接下來島上會不斷有新同伴過來，\n把它裝飾在島上，\n用來歡迎新來的同伴們吧！",
      "USen": "Remember when I said I was gonna\nmail you something? Well, here's\nthat something! I can't wait to\nsee what you're gonna do with\nit. 's gonna look\nso, so awesome!",
      "USes": "Estoy convencidísima de que, si\ndecoramos más la isla, podremos\nvivir en un lugar aún más chévere.\n¡A ver dónde pones esto que te\nmando! Qué emoción, tú.",
      "USfr": "Je t'ai dit que j't'enverrais un truc,\nça t'parle encore? Bon, ben le v'là\nmon truc! C'est pour donner un\nsuper look à ."
    }
  },
  {
    "label": "201",
    "locale": {
      "CNzh": "你的好伙伴——(resident name)",
      "EUde": "Nachbarliche Grüße, (Einwohnername)",
      "EUen": "Neighborly neighbor, (resident name)",
      "EUes": "¡Vecinos a tope! (resident name)",
      "EUfr": "Ta super voisine, (nom du résident)",
      "EUit": "La nuova vicina, (resident name)",
      "EUnl": "Je nieuwe buuf, (resident name)",
      "EUru": "Твоя чудесная соседка (resident name)",
      "JPja": "アンタのナカマ　(resident name)より",
      "KRko": "너의 친구 (resident name)이",
      "TWzh": "你的好同伴(resident name)　筆",
      "USen": "Neighborly neighbor, (resident name)",
      "USes": "Tu vecina favorita, (resident name)",
      "USfr": "Ta super voisine, (nom du résident)"
    }
  },
  {
    "label": "202",
    "locale": {
      "CNzh": "(resident name)",
      "EUde": "Reingehauen! (Einwohnername)",
      "EUen": "Seeya! –(resident name)",
      "EUes": "¡Deléitame! (resident name)",
      "EUfr": "Ta sœur dans l'âme, (nom du résident)",
      "EUit": "Alla prossima, (resident name)",
      "EUnl": "Later! (resident name)",
      "EUru": "Свидимся! (resident name).",
      "JPja": "(resident name)",
      "KRko": "(resident name)",
      "TWzh": "(resident name)",
      "USen": "Seeya! –(resident name)",
      "USes": "¡Sorpréndeme! (resident name)",
      "USfr": "Ta sœur dans l'âme, (nom du résident)"
    }
  }
]