﻿[
  {
    "label": "002",
    "attribute": "0x0000000000000000",
    "locale": {
      "CNzh": "这座上的土地，\n终于被卖出去了呢。。\n呵呵呵，不知会是个什么样的女孩，\n搬到我们的上来呢？\n呀，倒也并不一定是女孩子吧。",
      "EUde": "Wusstest du, dass ein Grundstück\nfreigegeben wurde, weil jemand\nnach  zieht?\nIch bin ja so gespannt darauf, meine\nSchlagfertigkeit an einer gänzlich\nneuen Herausforderung zu üben.",
      "EUen": "Did you hear that the big boss\nopened up some land for someone\nnew to move to ?\nI'm so excited to try out all my\nmaterial on a new person who\nhasn't heard it 50 times before.",
      "EUes": "¿Te has enterado de que han\nreservado un espacio para alguien\nque se viene a ?\n¡Qué emoción! ¡Alguien a quien\naún no le he contado 50 veces\nmis cosas!",
      "EUfr": "Tu savais que le grand manitou avait\nlibéré un lopin pour que quelqu'un\nvienne vivre à  ?\nJ'ai hâte de faire mon numéro à un\nnouveau venu qui ne l'a pas déjà\nentendu 50 fois.",
      "EUit": "Hai sentito? Il grande capo ha\nmesso in vendita un terreno per\nattirare nuovi abitanti sull'isola!\nNon vedo l'ora di mostrare i miei\nnumeri a qualcuno che non li abbia\ngià sentiti almeno 50 volte!",
      "EUnl": "Weet je al dat de grote baas grond\nbeschikbaar heeft gemaakt voor een\nnieuwe -bewoner?\nEindelijk, een uitbreiding van mijn\npubliek! Dat is een ware verademing\nvoor mij als artiest.",
      "EUru": "Ты знаешь, что у нас здесь на\nострове \nосвободился участок земли?\nОтлично, буду на новых соседях\nпробовать свои шутки, а то все\nостальные их уже сто раз слышали.",
      "JPja": "ついに　このの土地が\n売却されたようだね、\nフフフ、どんな娘が\nボクらのに　引越してくるのかな？\nって、女の子と　決まったわけじゃないか",
      "KRko": "드디어 이 의 토지가\n팔린 모양이더군, ...\n후후후, 어떤 뉴 페이스가\n우리 의 새 멤버가 되려나?\n벌써부터 기대되는군!",
      "TWzh": "這座島上的土地\n終於開始出售了呢，。\n呵呵，不知道搬來我們島上的\n會是什麼樣的女孩子呢？\n啊，也不一定是女孩子吧。",
      "USen": "Did you hear that the big boss\nopened up some land for someone\nnew to move to ?\nI'm so excited to try out all my\nmaterial on a new person who\nhasn't heard it 50 times before.",
      "USes": "¿Te enteraste de que reservaron\nun terreno para alguien que viene a ?\n¡Qué emoción! ¡Alguien que todavía\nno ha escuchado nada sobre mi\nfascinante vida!",
      "USfr": "Tu savais que le grand manitou avait\nlibéré un lopin pour que quelqu'un\nvienne vivre à ?\nJ'ai hâte de faire mon numéro à\nun nouveau venu qui l'a pas déjà\nentendu 50 fois."
    }
  },
  {
    "label": "003",
    "attribute": "0x0000000000000000",
    "locale": {
      "CNzh": "",
      "EUde": "",
      "EUen": "",
      "EUes": "",
      "EUfr": "",
      "EUit": "",
      "EUnl": "",
      "EUru": "",
      "JPja": "",
      "KRko": "",
      "TWzh": "",
      "USen": "",
      "USes": "",
      "USfr": ""
    }
  },
  {
    "label": "003_01",
    "attribute": "0x0000000000000000",
    "locale": {
      "CNzh": "中\n还有没找到买家的土地吧？\n哎呀～不知会有什么样的女孩来定居呢～\n啊，也不一定是女孩子呢。\n我太性急啦，哈哈！",
      "EUde": "Hast du schon gehört, dass ein\nStück Land zum Verkauf steht?\nWenn's nach mir ginge, käme da ein\nAtelier mit Performance-Space und\n vom Fass hin.\nVielleicht ist es zu unser aller\nBestem, dass es nicht nach mir\ngeht, (Floskel).",
      "EUen": "Did you hear that there's a bit of\nland for sale right now?\nIf it were mine, I'd open a new studio\nspace, slash improv dance club, slash\nartisanal  brewing hut.\nI guess it's for the best that I don't\nmake these decisions.",
      "EUes": "¿Has oído algo de que han puesto\na la venta un solar?\nSi pudiera comprarlo, pondría una\ncafetería biblioteca para hacer\nencuentros de lectura contracultural.\nTodo acompañado  mejor\n de la isla.\nNo sé por qué sospecho que no me\nconvendría abrir un establecimiento\nasí...",
      "EUfr": "T'es au courant qu'il y a un lopin\nde terre en vente actuellement ?\nS'il était à moi, j'ouvrirais un studio\nd'impro de danse  avec  maison à volonté.\nHélas, il faudra faire sans !\nJ'ai d'autres projets pour mes\nchères clochettes adorées...",
      "EUit": "Hai sentito che hanno appena messo\nin vendita dei nuovi terreni?\nSe fossero miei, aprirei un nuovo\nstudio d'arte, una disco per bailar e\nun bar che fa solo .\nImmagino que el destino non vuole\nche segua quella strada.",
      "EUnl": "Heb je al gehoord dat er een stuk\ngrond te koop staat?\nAls het aan mij lag, kwam daar een\nartistieke vrijplaats plus een barretje\nmet  .\nMaar niemand vraagt mij ooit wat,\ndus er zal wel weer iets saais komen.",
      "EUru": "Ты знаешь, что у нас участок земли\nпродается?\nЯ бы там открыл студию контактной\nимпровизации, а заодно продавал\nбы .\nНаверное, даже к лучшему, что\nкто-то другой купит этот участок.",
      "JPja": "まだ　には\n買い手が　ついていない土地があるだろ？\nいや～、どんな娘がくるか　楽しみだね～\nあ、女の子って　決まったわけじゃないか\n気が早すぎたね、ハッハー！",
      "KRko": "아직 에는\n판매 중인 토지가 있지?\n캬～ 어떤 여성이 오게 될지 기대되는데～\n아, 여성이 온다는 보장은 없나?\n나도 모르게 마음이 앞섰네, 우훗～!",
      "TWzh": "在，\n還有沒被買下的土地對吧？\n哎呀～不知道會是什麼樣的女孩子搬來呢～\n啊，也不一定是女孩子吧。\n我太心急了呢，哈哈～！",
      "USen": "Did you hear that there's a bit of\nland for sale right now?\nIf it were mine, I'd open a new studio\nspace, slash improv dance club, slash\nartisanal  brewing hut.\nI guess it's for the best that I don't\nmake these decisions.",
      "USes": "¿Oíste eso de que pusieron a la venta un terreno?\nSi pudiera comprarlo, pondría una\ncafetería biblioteca para hacer\nencuentros de lectura contracultural.\nTodo acompañado  mejor\n de la isla.\nNo sé por qué sospecho que no me\nconvendría abrir un establecimiento\nasí...",
      "USfr": "T'es au courant qu'il y a un lopin\nde terre en vente actuellement?\nS'il était à moi, j'ouvrirais un studio\nd'impro de danse  avec  maison à volonté.\nMais va falloir faire sans!\nJ'ai d'autres projets pour mes\nchères clochettes adorées..."
    }
  },
  {
    "label": "003_02",
    "attribute": "0x0000000000000000",
    "locale": {
      "CNzh": "话说回来，的土地\n好像已经卖出去了，\n不知新搬来的会是怎样的人呀？\n呵呵呵，\n这次的新人究竟会给这座\n带来什么样的新变化呢？。",
      "EUde": "Schon gehört, dass jemand Neues\nnach  ziehen soll?\n(Floskel)...\nNein, ich bin nicht enttäuscht!\nIch übe nur, wie man zu jemandem\nzum ersten Mal „(Floskel)“ sagt.",
      "EUen": "You heard that we've got someone\nnew moving to ,\nright? (catchphrase)...\nI'm not disappointed! I was just\npracticing how I'd say (catchphrase)\nto them for the first time.",
      "EUes": "Sabes que alguien se nos muda\na  próximamente, ¿no?\n(catchphrase)... ¡No, no estoy decepcionado!\nSolo estaba practicando para\ncuando le diga «(catchphrase)» por primera vez.",
      "EUfr": "T'es au courant que quelqu'un va\ndébarquer à , n'est-ce pas ?\nPas une minute à perdre ! Il faut que\nje peaufine mon « (expression) » avant son arrivée !",
      "EUit": "Hai sentito dire che c'è gente nuova che viene  , no? Aaah... (catchphrase)...\nChissà chi sono! Sto già facendo\npratica per dire loro per la primera\nvolta \"(catchphrase)\".",
      "EUnl": "Jij hebt zeker ook al wel gehoord dat\nwe een nieuwe bewoner krijgen op\n? (catchphrase)...\nNee, ik heb er niks tegen! Ik oefen\nalleen hoe ik mijn unieke personage\nhet best neerzet met \"(catchphrase)\".",
      "EUru": "Ты знаешь, что к нам на остров\n кто-то новый\nпереезжает? (catchphrase)...\nНет, я не расстроен этим. Я просто\nтренируюсь, как я в первый раз\nскажу им «(catchphrase)».",
      "JPja": "ところで　の土地が\n売却されていたけどさ、\n一体　どんなヒトが　来るんだろうね？\nフフフ、今度のルーキーは\nこのに　一体　どんな風を\n吹き込んでくれるのかな？　",
      "KRko": "그러고 보니 의\n토지를 매각하는 모양인데\n어떤 사람이 들어오려나?\n우후훗, 이번에 올 뉴 페이스는\n과연 이 에 어떤 바람을\n불러일으킬지 기대되는군, !",
      "TWzh": "話說回來，\n的土地正在出售，\n到底會是什麼樣的人搬來呢？\n呵呵，這次的Rookie\n會為這座島帶來\n什麼樣的新氣象呢？。",
      "USen": "You heard that we've got someone\nnew moving to ,\nright? (catchphrase)...\nI'm not disappointed! I was just\npracticing how I'd say (catchphrase)\nto them for the first time.",
      "USes": "Sabes que alguien se estará mudando a  muy pronto, ¿no?\n(catchphrase)... ¡No, no estoy decepcionado!\nSolo estaba practicando para\ncuando le diga \"(catchphrase)\" por primera vez.",
      "USfr": "T'es au courant que quelqu'un va\ndébarquer à , n'est-ce pas?\nPas une minute à perdre! Il faut que\nje peaufine mon « (expression) » avant son arrivée!"
    }
  },
  {
    "label": "003_03",
    "attribute": "0x0000000000000000",
    "locale": {
      "CNzh": "说起来，新土地\n好像已经在对外销售了吧。\n不知下次会来个什么样的人呀。。\n无论是男孩还是女孩，\n崭新的邂逅总是令人心潮澎湃呢。\n呵呵呵，会是个什么样的女孩呢……",
      "EUde": "Also, es steht ein Grundstück zum\nVerkauf und das bedeutet, wir\nbekommen Zuwachs...\nPah! Ich habe schon auf\n gewohnt,\nbevor es cool war.\nHa-HA! Ich bin nicht wirklich sauer.\nDen Satz hatte ich nur immer schon\nmal sagen wollen.",
      "EUen": "Well, there's some new property\nup for sale and that means we're\ngetting a new island resident...\nBah! I lived on \nbefore it was cool.\nHa HA! I'm actually excited to meet\nsomeone new, but I've always\nwanted to say that.",
      "EUes": "Hay un solar a la venta, lo que\nsignifica que dentro de poco\ntendremos nuevo vecino.\nEsto se está gentrificando a pasos\nagigantados...\nEn fin, siempre podré decir que viví\nen  cuando aún\nnadie conocía la isla.\n¡Je, je! En realidad me gusta que\nse amplíe el vecindario, pero tenía ganas de decir «gentrificar».",
      "EUfr": "Un nouveau terrain est à vendre, ce\nqui signifie qu'une nouvelle tête ne\nva pas tarder à apparaître...\nMoi, je vivais à \navant que ce soit à la mode ! Je suis\nun précurseur du déménagement !\nC'est comme ça : il y a ceux qui font\nun carton, et ceux qui les emballent\navec un train de retard.\nEnfin, je suis content d'accueillir\nun nouvel habitant à qui expliquer\nmon avant-gardisme ébouriffant.",
      "EUit": "Muy bien! Ci sono dei nuovi\nterreni in vendita, quindi significa\nche avremo nuovi abitanti sull'isola...\nGli dirò che ho vissuto a lungo  , ancor prima che diventasse un posto \"in\".\nAh ah! Sono sempre così agitato\nquando devo incontrare gente nuova\nche en fin mi dimentico di dirlo!",
      "EUnl": "Er staat bouwgrond te koop, dus we\nkrijgen er een nieuwe eilander bij...\nPoeh! Ik woonde al op  voordat de massa het ontdekte.\nHaHA! Eigenlijk kijk ik uit naar onze\nnieuwe buur, maar zoiets wilde ik\naltijd al een keer zeggen.",
      "EUru": "У нас здесь продается участок,\nа это значит, что у нас будут новые\nсоседи по острову...\nАх, какая удача, что я успел пожить\nна острове  еще\nдо того, как он стал популярным.\nХо-хо! Нет, я не против новых\nсоседей, просто мне нравится так\nговорить.",
      "JPja": "そういえば、新しい土地が\n売りに　出されていたよね\n次は　どんなヒトが来るのかな？　\n男子であれ　女子であれ\n新しい出会いというのは　ワクワクするね\nフフフ、どんな娘が来るのかな・・・",
      "KRko": "그러고 보니 또\n토지가 매물로 나와 있던데\n다음엔 어떤 사람이 오려나, ?\n남자든 여자든\n새로운 만남은 언제나 기대되지\n우후훗, 이상형이 왔으면 좋겠군...",
      "TWzh": "話說回來，\n新土地正在出售呢。\n下次會是什麼樣的人搬來呢？。\n不管是男生還是女生，\n新的際遇都會讓人期待不已呢。\n呵呵，會是什麼樣的女孩子呢……",
      "USen": "Well, there's some new property\nup for sale and that means we're\ngetting a new island resident...\nBah! I lived on \nbefore it was cool.\nHa HA! I'm actually excited to meet\nsomeone new, but I've always\nwanted to say that.",
      "USes": "Hay un terrenito a la venta, lo que\nsignifica que dentro de poco\ntendremos un nuevo vecino.\nEsto se está gentrificando a pasos\nagigantados...\nEn fin, siempre podré decir que viví\nen  cuando aún nadie conocía la isla.\n¡Je, je! En realidad me gusta que\nse amplíe el vecindario, pero tenía ganas de decir \"gentrificar\".",
      "USfr": "Un nouveau terrain est à vendre, ce\nqui signifie qu'une nouvelle tête ne\nva pas tarder à apparaître...\nMoi, je vivais à \navant que ce soit à la mode! Je suis\nun précurseur du déménagement!\nC'est comme ça : y'a ceux qui font\nun carton, et ceux qui les emballent\navec un train de retard.\nEnfin, je suis content d'accueillir\nun nouvel habitant impressionné\npar mon avant-gardisme ébouriffant."
    }
  },
  {
    "label": "005",
    "attribute": "0x0000000000000000",
    "locale": {
      "CNzh": "",
      "EUde": "",
      "EUen": "",
      "EUes": "",
      "EUfr": "",
      "EUit": "",
      "EUnl": "",
      "EUru": "",
      "JPja": "",
      "KRko": "",
      "TWzh": "",
      "USen": "",
      "USes": "",
      "USfr": ""
    }
  },
  {
    "label": "005_01",
    "attribute": "0x0000000000000000",
    "locale": {
      "CNzh": "，你看到了吗？\n这座上的那片空地\n已经有买家了！。\n是个叫的人\n要搬进来……\n不知是个什么样的人呀～",
      "EUde": "Auf dem leeren Grundstück zieht also\n  ein...\nWas wäre ein gutes Willkommens-\ngeschenk?  oder ?",
      "EUen": "So I guess someone named\n is gonna be\nmoving into that open spot...\nWhat do you think I should make for\na welcoming gift? \nor ?",
      "EUes": "Por lo visto, en la parcela vacía\nse va a instalar  tal .\n¿Cuál te parece mejor regalo de\nbienvenida? ¿ o ?",
      "EUfr": "Si j'ai bien compris, quelqu'un qui\ns'appelle  va emménager sur le terrain dispo ?\nQuel cadeau de bienvenue te semble\nle mieux ?  ou  ?",
      "EUit": "E così,   si trasferirà su quel terreno disponibile...\nChe dono puedo far per essere gentile?  o ?",
      "EUnl": "Ze zeggen dat er ene  naar dat lege stuk land verhuist...\nWaarmee zal ik onze nieuwe buur verwelkomen?  of ?",
      "EUru": "На тот свободный участок земли\nпереезжает некто ...\nЧто можно подарить на новоселье?\n или ?",
      "JPja": "、見たかい？\nこのの　あのオープンスペースに\n買い手が　ついたんだよ！　\nってヒトが\n引越してくるようだけど・・・\n一体、どんなコなんだろうね～",
      "KRko": "군, 그대도 봤나?\n매물로 나와 있던 이 의 오픈 스페이스를\n누군가가 구입한 모양이야, !\n이라는 사람이\n그 집터에 이사 온다고 하는데...\n어떤 사람이려나～",
      "TWzh": "，你看到了嗎？\n那塊空地找到買家囉！。\n這次要搬來的人\n好像叫做……\n究竟會是什麼樣的人呢～？",
      "USen": "So I guess someone named\n is gonna be\nmoving into that open spot...\nWhat do you think I should make for\na welcoming gift? \nor ?",
      "USes": "Por lo visto, en el terreno vacío\nse va a instalar .\n¿Qué es mejor regalo de bienvenida?\n¿ o ?",
      "USfr": "Si j'ai bien compris, un certain\n va emménager sur le terrain dispo?\nQuel cadeau de bienvenue te semble\nle mieux?  ou ?"
    }
  },
  {
    "label": "005_02",
    "attribute": "0x0000000000000000",
    "locale": {
      "CNzh": "那片空地，\n好像已经有买家了！\n业主的名字叫。\n会是个什么样的人呢……？\n但愿能相处融洽呀……。",
      "EUde": "Es soll schon jemand das leere Stück\nLand hier auf  gekauft haben, (Floskel).\nDenkst du, der Neuzugang neigt\neher   oder  ?\nAch, warum nicht beides, hab ich\nnicht recht?",
      "EUen": "I heard that someone already\nclaimed that open spot here on\n, (catchphrase).\nDo you think they'll be more into\n or ?\nWhy not both, right?",
      "EUes": "Me han dicho que alguien tiene ya\nreservado el solar libre que había\nen , (catchphrase).\n¿Crees que le gustará , o preferirá más bien ?\nQuizá le gusten las dos cosas por\nigual, ¿no?",
      "EUfr": "Il paraît que quelqu'un s'est déjà\njeté sur le terrain en vente à\n, (expression).\nTu crois que ce sera le genre\n ou plutôt à  ? Ou les deux ?",
      "EUit": "Mi hanno detto che questo terreno disponibile   è già stato venduto, (catchphrase).\nChissà se ai nuovi abitanti gusta mas la musica  o ?",
      "EUnl": "Ik hoor dat dat lege stuk land op  al door iemand is geclaimd, (catchphrase).\nDenk je dat de nieuwe bewoner meer van  of van  houdt? Of van allebei?",
      "EUru": "Я слышал, что купили свободный\nучасток здесь на острове . !\nПонравится ли новым соседям\n? Или\nслушать ? Интересно!",
      "JPja": "オープンスペースだった　あの土地、\n買い手が　付いたみたいだね！\nオーナーは　だって\nどんなヒトだろう・・・？\n仲良くなれると　いいな～・・・、",
      "KRko": "오픈 스페이스였던 그 토지에\n구매자가 나타난 모양이야!\n이라는 사람이라더군\n어떤 사람이려나...\n친해지면 좋겠는걸～ !",
      "TWzh": "那塊空地好像找到買家囉！\n聽說是叫做。\n會是什麼樣的人呢……？\n希望可以和他成為好朋友……。",
      "USen": "I heard that someone already\nclaimed that open spot here on\n, (catchphrase).\nDo you think they'll be more into\n or ?\nWhy not both, right?",
      "USes": "Me dijeron que alguien ya tiene\nreservado el terreno libre que había\nen , (catchphrase).\n¿Crees que le gustará , o preferirá más bien ?\nQuizás le gusten las dos cosas por\nigual, ¿no?",
      "USfr": "Il paraît que quelqu'un s'est déjà\njeté sur le terrain en vente\nà , (expression).\nTu crois que ce sera plutôt le genre\nà écouter  ou à ? Ou les deux?"
    }
  },
  {
    "label": "005_03",
    "attribute": "0x0000000000000000",
    "locale": {
      "CNzh": "说起那块空地，\n好像已经出现买家了哦。。\n业主的名字好像是叫，\n不知是个怎样的女孩呢～？\n呵呵呵，倒也并不一定是女孩子啦。",
      "EUde": "Weißt du noch, dass ein Grundstück\nzum Verkauf stand, (Floskel)?\nTja, jemand hat's gekauft!\nIch glaube, der Name ist\n. Bin schon\ngespannt drauf, wer das ist!",
      "EUen": "Remember how there was an open\nspot, (catchphrase)? Well, I guess\nsomeone bought it!\nYeah, I guess their name is\n or something.\nCan't wait to meet him!",
      "EUes": "¿Recuerdas que había un solar\nen venta, (catchphrase)? Bueno,\n¡parece que ya lo han comprado!\nCreo que ahora le pertenece a ... Sí, me parece que se llamaba así.\n¡Qué ganas tengo de que nos\nconozcamos!",
      "EUfr": "Tu savais qu'il y avait un terrain à\nvendre ? Eh bien on peut en parler\nau passé, il est vendu !\nQuelqu'un qui répond au nom\nde  a allongé les clochettes, apparemment.\nJ'ai hâte de lui parler de mon\néblouissante carrière d'acteur\nà succès !",
      "EUit": "Ti ricordi che c'era un terreno disponibile, ? Bueno, l'hanno già comprato!\nSì, l'ha preso , almeno mi pare che si chiami così. Non vedo l'ora di sapere che tipo è.",
      "EUnl": "Weet je nog dat er een stuk grond te koop stond, (catchphrase)? Nou, iemand heeft het nu dus gekocht!\nDe koper heet , geloof ik. Ik kan niet wachten om mijn nieuwe fan te ontmoeten!",
      "EUru": "Помнишь, здесь участок\nпродавался? !\nТак вот, его уже купили!\nНекто по имени  или\nкак-то так. Обожаю знакомиться\nс новыми соседями!",
      "JPja": "空き地だった　あの土地の件だけど、\n買い手が　現れたみたいだよ、\n名前は　って\nいうみたいだけど　どんな娘かな～？\nフフフ、女の子って　決まったわけじゃないか",
      "KRko": "비어 있던 그 토지 말인데\n산다는 사람이 나온 모양이야, !\n이름은 이라던데\n어떤 사람이려나～?\n궁금해서 잠도 못 잘 지경이야",
      "TWzh": "之前那塊空地，\n好像找到買家了喔，。\n買家的名字好像是，\n會是什麼樣的女孩子呢～？\n呵呵，對方也不一定是女孩子就是了。",
      "USen": "Remember how there was an open\nspot, (catchphrase)? Well, I guess\nsomeone bought it!\nYeah, I guess their name is\n or something.\nCan't wait to meet him!",
      "USes": "¿Recuerdas que había un terrenito\nen venta, (catchphrase)? Bueno,\n¡parece que ya lo compraron!\nCreo que ahora le pertenece a ... Sí, me parece que se llamaba así.\n¡Qué ganas de que nos conozcamos!",
      "USfr": "Tu savais qu'il y avait un terrain à\nvendre? Eh bien on peut en parler\nau passé, il est vendu!\nQuelqu'un qui répond au nom\nde ⁠ a allongé les clochettes, apparemment.\nJ'ai hâte de lui parler de mon\néblouissante carrière d'acteur\nà succès!"
    }
  },
  {
    "label": "008",
    "attribute": "0x0000000000000000",
    "locale": {
      "CNzh": "",
      "EUde": "",
      "EUen": "",
      "EUes": "",
      "EUfr": "",
      "EUit": "",
      "EUnl": "",
      "EUru": "",
      "JPja": "",
      "KRko": "",
      "TWzh": "",
      "USen": "",
      "USes": "",
      "USfr": ""
    }
  },
  {
    "label": "008_01",
    "attribute": "0x8503000000000000",
    "locale": {
      "CNzh": "说起来，\n的生日，\n好像就快到了呢～",
      "EUde": "Oh, nebenbei... Partyalarm!\n hat bald\nGeburtstag!",
      "EUen": "Oh, by the way... Party alert!\n's birthday is\ncoming up pretty soon.",
      "EUes": "¡Ah!... ¡Atención, fiesta a la vista!\nDentro de poco será el cumpleaños\nde .",
      "EUfr": "Attention... Fiesta à l'horizon !\nL'anniversaire de  va bientôt avoir lieu.",
      "EUit": "Oh, a proposito... Fiesta que arriba! Fra poco è il compleanno di .",
      "EUnl": "O, trouwens... Pak je confettiknaller er maar vast bij!  is binnenkort jarig.",
      "EUru": "О, кстати... Всем приготовиться!\nСкоро у  день\nрождения.",
      "JPja": "そういえば、\nのバースデーが\nもうすぐ　近づいているね～",
      "KRko": "그러고 보니\n군의 버스데이가\n얼마 안 남았더군～",
      "TWzh": "話說回來，\n的Birthday\n就快要到了呢～",
      "USen": "Oh, by the way... Party alert!\n's birthday is\ncoming up pretty soon.",
      "USes": "¡Ah!... ¡Atención, fiesta a la vista!\nDentro de poco será el cumpleaños\nde .",
      "USfr": "Attention... Fiesta à l'horizon!\nLa fête de ⁠ va bientôt avoir lieu."
    }
  },
  {
    "label": "008_02",
    "attribute": "0x8503000000000000",
    "locale": {
      "CNzh": "我记得应该快到了吧～\n的生日。",
      "EUde": "Sag mal... Hat \nnicht schon ziemlich bald\nGeburtstag?",
      "EUen": "Hey, now that I think about it...\nIsn't 's birthday\ncoming up?",
      "EUes": "Oye, ahora que lo pienso...\nDentro de nada cumple años\n, ¿no?",
      "EUfr": "Tiens, j'y pensais... C'est bientôt\nl'anniversaire de , non ?",
      "EUit": "Ehi, mi è venuto in mente che...\nfra poco dobbiamo festeggiare il\ncompleanno di !",
      "EUnl": "Hé, ik bedenk me ineens iets... Is  niet binnenkort jarig?",
      "EUru": "Слушай, я тут подумал...\nУ  же скоро день\nрождения, так?",
      "JPja": "確か　もうすぐだったよね～、\nのバースデー",
      "KRko": "그러고 보니 곧\n군의 버스데이로군!",
      "TWzh": "我記得的Birthday\n好像快到囉～",
      "USen": "Hey, now that I think about it...\nIsn't 's birthday\ncoming up?",
      "USes": "Oye, ahora que lo pienso...\nDentro de poco cumple años\n, ¿no?",
      "USfr": "Tiens, j'y pensais... C'est bientôt\nla fête de ⁠, non?"
    }
  },
  {
    "label": "008_03",
    "attribute": "0x8503000000000000",
    "locale": {
      "CNzh": "说起……\n应该就快到生日了吧？",
      "EUde": "Mir ist da gerade etwas eingefallen.\nHat  nicht\nGeburtstag? Ziemlich bald schon?",
      "EUen": "I just had a thought. Isn't\n's birthday,\nlike, really soon?",
      "EUes": "Acabo de darme cuenta de que ¡ya\nno falta nada para el cumpleaños\nde !",
      "EUfr": "Oh, j'ai failli oublier !\nC'est bientôt l'anniversaire\nde  !",
      "EUit": "Stavo giusto pensando...\nFra poco non è il compleanno\ndi ?",
      "EUnl": "Er schiet me net wat te binnen. ! Is die niet binnen nu en heel snel jarig?",
      "EUru": "Только что вспомнил!\nУ  же скоро\nдень рождения, так?",
      "JPja": "の件だけどさ・・・\nもうすぐ　バースデーだよね？",
      "KRko": "군 말인데...\n곧 생일이지?",
      "TWzh": "是關於的事……\n他的Birthday快到了吧？",
      "USen": "I just had a thought. Isn't\n's birthday,\nlike, really soon?",
      "USes": "Acabo de darme cuenta de que ¡ya\nno falta nada para el cumpleaños\nde !",
      "USfr": "Oh, j'ai failli oublier!\nC'est bientôt la fête\nde ⁠!"
    }
  },
  {
    "label": "009",
    "attribute": "0x0000000000000000",
    "locale": {
      "CNzh": "",
      "EUde": "",
      "EUen": "",
      "EUes": "",
      "EUfr": "",
      "EUit": "",
      "EUnl": "",
      "EUru": "",
      "JPja": "",
      "KRko": "",
      "TWzh": "",
      "USen": "",
      "USes": "",
      "USfr": ""
    }
  },
  {
    "label": "009_01",
    "attribute": "0x0A00000000000000",
    "locale": {
      "CNzh": "说起来，\n的生日，\n好像就快到了呢～",
      "EUde": "Oh, nebenbei... Partyalarm!\n hat bald\nGeburtstag!",
      "EUen": "Oh, by the way... Party alert!\n's birthday is\ncoming up pretty soon.",
      "EUes": "¡Ah!... ¡Atención, fiesta a la vista!\nDentro de poco será el cumpleaños\nde .",
      "EUfr": "Attention... Fiesta à l'horizon !\nL'anniversaire de  va bientôt avoir lieu.",
      "EUit": "Oh, a proposito... Fiesta que arriba! Fra poco è il compleanno di .",
      "EUnl": "O, trouwens... Pak je confettiknaller er maar vast bij!  is binnenkort jarig.",
      "EUru": "О, кстати... Всем приготовиться!\nСкоро у  день\nрождения.",
      "JPja": "そういえば、\nのバースデーが\nもうすぐ　近づいているね～",
      "KRko": "그러고 보니\n군의 버스데이가\n얼마 안 남았더군～",
      "TWzh": "話說回來，\n的Birthday\n就快要到了呢～",
      "USen": "Oh, by the way... Party alert!\n's birthday is\ncoming up pretty soon.",
      "USes": "¡Ah!... ¡Atención, fiesta a la vista!\nDentro de poco será el cumpleaños\nde .",
      "USfr": "Attention... Fiesta à l'horizon!\nLa fête de ⁠ va bientôt avoir lieu."
    }
  },
  {
    "label": "009_02",
    "attribute": "0x0A00000000000000",
    "locale": {
      "CNzh": "我记得应该快到了吧～\n的生日。",
      "EUde": "Sag mal... Hat \nnicht schon ziemlich bald\nGeburtstag?",
      "EUen": "Hey, now that I think about it...\nIsn't 's birthday\ncoming up?",
      "EUes": "Oye, ahora que lo pienso...\nDentro de nada cumple años\n, ¿no?",
      "EUfr": "Tiens, j'y pensais... C'est bientôt\nl'anniversaire de , non ?",
      "EUit": "Ehi, mi è venuto in mente che...\nfra poco dobbiamo festeggiare il\ncompleanno di !",
      "EUnl": "Hé, ik bedenk me ineens iets... Is  niet binnenkort jarig?",
      "EUru": "Слушай, я тут подумал...\nУ  же скоро день\nрождения, так?",
      "JPja": "確か　もうすぐだったよね～、\nのバースデー",
      "KRko": "그러고 보니 곧\n군의 버스데이로군!",
      "TWzh": "我記得的Birthday\n好像快到囉～",
      "USen": "Hey, now that I think about it...\nIsn't 's birthday\ncoming up?",
      "USes": "Oye, ahora que lo pienso...\nDentro de poco cumple años\n, ¿no?",
      "USfr": "Tiens, j'y pensais... C'est bientôt\nla fête de ⁠, non?"
    }
  },
  {
    "label": "009_03",
    "attribute": "0x0A00000000000000",
    "locale": {
      "CNzh": "说起……\n应该就快到生日了吧？",
      "EUde": "Mir ist da gerade etwas eingefallen.\nHat  nicht\nGeburtstag? Ziemlich bald schon?",
      "EUen": "I just had a thought. Isn't\n's birthday,\nlike, really soon?",
      "EUes": "Acabo de darme cuenta de que ¡ya\nno falta nada para el cumpleaños\nde !",
      "EUfr": "Oh, j'ai failli oublier !\nC'est bientôt l'anniversaire\nde  !",
      "EUit": "Stavo giusto pensando...\nFra poco non è il compleanno\ndi ?",
      "EUnl": "Er schiet me net wat te binnen. ! Is die niet binnen nu en heel snel jarig?",
      "EUru": "Только что вспомнил!\nУ  же скоро\nдень рождения, так?",
      "JPja": "の件だけどさ・・・\nもうすぐ　バースデーだよね？",
      "KRko": "군 말인데...\n곧 생일이지?",
      "TWzh": "是關於的事……\n他的Birthday快到了吧？",
      "USen": "I just had a thought. Isn't\n's birthday,\nlike, really soon?",
      "USes": "Acabo de darme cuenta de que ¡ya\nno falta nada para el cumpleaños\nde !",
      "USfr": "Oh, j'ai failli oublier!\nC'est bientôt la fête\nde ⁠!"
    }
  },
  {
    "label": "010",
    "attribute": "0x0000000000000000",
    "locale": {
      "CNzh": "下个月的日！\n是非常重要的纪念日，\n你也要放在心上哦。。",
      "EUde": "Ja, und ich bin mir ziemlich sicher,\ndass es der  nächsten Monat ist.\nDas weiß ich, weil ich mich schon\njetzt auf die Party freue,\n(Floskel)!",
      "EUen": "Yeah, I'm pretty sure it's the  of\nnext month. I know because it'll be a\ntotally sweet party, (catchphrase)!",
      "EUes": "Sí, estoy seguro de que\nes el día  del mes que viene.\n¡Lo sé porque habrá una gran\nfiesta, (catchphrase)!",
      "EUfr": "Oui, c'est le  du mois prochain.\nRetiens bien cette date, on va se\nbidonner tous ensemble !",
      "EUit": "Sì, sono certo che è il giorno  del\nmese prossimo. Lo so perché ci sarà\nuna fiesta maravillosa, (catchphrase)!",
      "EUnl": "Volgens mij is het op de e van de\nkomende maand. Dat feest wordt\necht de bom, (catchphrase)!",
      "EUru": "Да,  числа следующего месяца.\nОх, и вечеринку закатим...\n(catchphrase)!",
      "JPja": "来月の　日！\n大事な　アニバーサリーだから\nキミも　覚えといた方がいいよ、",
      "KRko": "다음 달 일!\n아주 중요한 기념일이니까\n그대도 잊지 말라구, !",
      "TWzh": "下個月的號，\n可是重要的Anniversary！\n所以你最好也牢牢記在心裡喔，。",
      "USen": "Yeah, I'm pretty sure it's the  of\nnext month. I know because it'll be a\ntotally sweet party, (catchphrase)!",
      "USes": "Sí, estoy seguro de que\nes el día  del mes que viene.\n¡Lo sé porque habrá una gran\nfiesta, (catchphrase)!",
      "USfr": "Oui, c'est le  du mois prochain.\nRetiens bien cette date, on va se\nfaire un party malade tous ensemble!"
    }
  },
  {
    "label": "012",
    "attribute": "0x0000000000000000",
    "locale": {
      "CNzh": "",
      "EUde": "",
      "EUen": "",
      "EUes": "",
      "EUfr": "",
      "EUit": "",
      "EUnl": "",
      "EUru": "",
      "JPja": "",
      "KRko": "",
      "TWzh": "",
      "USen": "",
      "USes": "",
      "USfr": ""
    }
  },
  {
    "label": "012_01",
    "attribute": "0x0000000000000000",
    "locale": {
      "CNzh": "的事，你听说了吗？\n据说准备离开这座，\n明天就要整理行李了……\n我从不曾想过，\n竟然会迎来离别他的这一天……\n真叫人不舍啊。。",
      "EUde": "Sag mal, hast du das von  gehört? Ja,  verlässt .\nMorgen packt , das wäre die letzte\nChance, sich zu verabschieden...\nIch hoffe, dass der Grund dafür nicht\nist, dass ich zu oft (Floskel) gesagt habe...",
      "EUen": "Hey, did you hear the news about\n? Yeah, I guess\nhe's leaving .\nDay after tomorrow, I think.\nI hope it wasn't because I said\n\"(catchphrase)\" too many times...",
      "EUes": "Oye, ¿te has enterado de lo\nde ?\nParece que se va de  pasado mañana.\nEspero que no sea porque le digo\n«(catchphrase)» con demasiada\nfrecuencia...",
      "EUfr": "Tu savais pour  ?\nIl quitte l'île après-demain !\nBye bye,  !\nJ'espère que c'est pas parce\nqu'il en a assez de mes\n« (expression) »...",
      "EUit": "Hai sentito le ultime notizie su ? Dicono che stia per lasciare .\nDopodomani, a quanto pare...\nMi auguro che non sia perché dico\ntroppo spesso \"(catchphrase)\"...",
      "EUnl": "Yo, heb jij het nieuws over  al gehoord?\nHij vertrekt dus van . Overmorgen vroeg, geloof ik.\nIk weet echt niet waarom... Aan mij kan het niet hebben gelegen, (catchphrase)!",
      "EUru": "Ты знаешь, что \nпослезавтра уезжает с острова\n?\nНадеюсь, не из-за того, что ему\nнадоело слушать, как я без конца\nговорю «(catchphrase)»...",
      "JPja": "のこと、聞いた？\nこのから　引越すらしいんだけど、\n明日、荷物を　まとめるんだって・・・\nカレが　いなくなる日が来るなんて\n想像もしてなかったよ・・・\n寂しくなるなぁ、",
      "KRko": "군 얘기 들었나?\n이 섬에서 이사 가기 위해서\n내일, 짐 정리를 한다더군...\n군과 이별하는 날이 올 줄은\n상상도 하지 못했는데...\n한동안 쓸쓸하겠어, ...",
      "TWzh": "你聽說的事了嗎？\n聽說他要離開這座島了，\n明天就要整理行李了……\n我從沒想過他會離開這裡……\n好捨不得啊，。",
      "USen": "Hey, did you hear the news about\n? Yeah, I guess\nhe's leaving .\nDay after tomorrow, I think.\nI hope it wasn't because I said\n\"(catchphrase)\" too many times...",
      "USes": "Oye, ¿te enteraste de lo de ?\nParece que se va de  pasado mañana.\nEspero que no sea porque le digo\n\"(catchphrase)\" demasiado seguido...",
      "USfr": "Tu savais pour ?\nIl quitte l'île après-demain!\nBye bye, !\nJ'espère que c'est pas parce\nqu'il en a assez de mes\n« (expression) »..."
    }
  },
  {
    "label": "012_02",
    "attribute": "0x0000000000000000",
    "locale": {
      "CNzh": "\n准备要搬走了……\n好像明天就要做准备了。\n如果你心中留有遗憾，\n还是面对面去讲清楚吧。\n在这最后的时刻，\n他一定也很想和你聊聊的！。",
      "EUde": "Morgen ist der große Tag, weißt du.\nDer Tag, an dem   Sachen packt.\nNoch ist etwas Zeit, und er weiß es\nsicher zu schätzen, wenn du kurz\nhereinschaust, (Floskel).",
      "EUen": "Tomorrow's the big day, you\nknow. The day \nis packing up to leave.\nEven if you're sad about it,\nI'm sure he'd appreciate a\nvisit before he leaves.",
      "EUes": "Mañana es el día... Sí, ya sabes,\nel día en que  empieza a hacer las maletas.\nAunque estemos tristes, sé que\nle hará ilusión que le hagamos\nuna visita antes de que se vaya.",
      "EUfr": "Demain, c'est le grand jour. Celui où\n fait ses cartons et se prépare à mettre les voiles.\nMême si ça te fait mal au cœur, tu\ndevrais quand même lui rendre une\npetite visite pour lui dire au revoir.",
      "EUit": "Domani è il grande giorno, lo sai. Il giorno in cui  farà i bagagli per poi lasciare l'isola.\nAnche se sei triste, sono sicuro che\nsarà muy feliz se passerai a salutarlo\nprima che parta.",
      "EUnl": "Morgen is de grote dag. De dag dat  zijn spullen inpakt voor zijn verhuizing.\nOok al ben je verdrietig, misschien\nmoet je toch nog even bij hem\nlangsgaan voordat hij gaat.",
      "EUru": "Завтра важный день. \nсобирает вещи перед отъездом.\nГрустно, конечно, но ты зайди\nпопрощаться, он наверняка\nобрадуется.",
      "JPja": "、\n引越しちゃうんだってね・・・\n明日から　準備に取り掛かるみたいだよ\nもし　心残りがあるなら、\nちゃんと　顔を見て　話した方がいい\nきっと　カレも　最後に\nキミと　話したがってるはずさ！　",
      "KRko": "군이\n이사 간다고 하더군...\n내일은 짐 정리를 한다는 모양이야\n못다 한 이야기가 있다면\n얼굴을 보고 하는 게 좋을 거야\n군도 마지막으로\n그대와 이야기하고 싶을 거라구, !",
      "TWzh": "聽說要搬走了……\n好像明天就要開始準備搬家了。\n如果你有話想跟他說，\n還是要當面說比較好喔。\n我想他在離開前\n一定也會想跟你聊聊的！。",
      "USen": "Tomorrow's the big day, you\nknow. The day \nis packing up to leave.\nEven if you're sad about it,\nI'm sure he'd appreciate a\nvisit before he leaves.",
      "USes": "Mañana es el día... Sí, ya sabes,\nel día en que  empieza a hacer las maletas.\nAunque estemos tristes, sé que\nle encantará que le hagamos\nuna visita antes de que se vaya.",
      "USfr": "Demain, c'est le grand jour. Le jour\noù  fait ses boîtes\net se prépare à mettre les voiles.\nMême si ça te fait mal au cœur, tu\ndevrais quand même lui rendre une\npetite visite pour lui dire au revoir."
    }
  },
  {
    "label": "012_03",
    "attribute": "0x0000000000000000",
    "locale": {
      "CNzh": "好像明天要忙着\n准备搬家的行李呢……\n没想到竟然会离开，\n事情太过突然，我也是吃了一惊。\n但至少要送出最棒的祝福呀。",
      "EUde": "Hach,  packt morgen alles ein, um wegzuziehen. Aber da kann man wohl nichts tun.\nAußer... wir planen eine so tolle\nAbschiedsfeier, dass er auf\n bleiben MUSS!\nIch fange gleich an. Wir brauchen\nauf jeden Fall \nund ...",
      "EUen": "Welp,  is packing\nup tomorrow in preparation for his\nmove out of .\nNothing we can do about that.\nUnless...we plan such an amazing\nsend-off that  has\nno choice but to stay!\nI'll get started on \n and you bring\nall the  we can drink!",
      "EUes": "Pues nada,  empezará a empaquetarlo todo mañana. Tenemos que aceptarlo.\nA menos... que ¡le demos una\nsorpresa tal que decida quedarse\nen !\nYa he comenzado a prepararle\n con un montón de  para acompañar.",
      "EUfr": "Eh ouais,  fait ses valises demain en prévision de son départ définitif. Sauf si...\n... sauf si on met au point un plan au\ncordeau tellement bien ficelé qu'il\nsera obligé de rester !\nJe m'occupe  et , c'est parti !",
      "EUit": "Eh, sì...  domani impacchetterà tutto in vista della sua partenza da .\nNon si può fare nada, a meno che...\nNon organizziamo una festa de adios\ncosì bella que  convince a restare!\nIo inizierò a preparare  e  in abbondanza!",
      "EUnl": "Dus  pakt morgen zijn spullen in om te verhuizen. Tja, niks aan te doen.\nTenzij... we zo'n briljant afscheid\norganiseren dat hij wel op\n moet blijven!\nIk regel vast  en .",
      "EUru": "Ну что ж, завтра \nсобирает вещи перед отъездом.\nИ ничего с этим не поделаешь.\nХотя... можно закатить такие\nпроводы, что он решит остаться\nна острове !\nТак, я приготовлю\n\nи .",
      "JPja": "、明日は\n引越しの準備で　忙しいみたい・・・\nから　出て行くなんて\n急なことだったから　ボクも驚いてるよ\nせめて　最高の門出にしてあげないとね",
      "KRko": "군이 내일은\n이사 준비로 바쁠 거라더군, ...\n을 떠난다니\n갑작스러워서 나도 몹시 놀랐어\n그래도 마지막까지 잘 챙겨줘야지",
      "TWzh": "\n明天要準備搬家，應該會很忙吧……\n搬離這件事，\n實在太過突然，我也嚇了一跳。\n我想至少要好好送他一程才行。",
      "USen": "Welp,  is packing\nup tomorrow in preparation for his\nmove out of .\nNothing we can do about that.\nUnless...we plan such an amazing\nsend-off that  has\nno choice but to stay!\nI'll get started on \n and you bring\nall the  we can drink!",
      "USes": "Así es,  empezará a empacar todo mañana. Tenemos que aceptarlo.\nA menos... que ¡le demos una\nsorpresa tal que decida quedarse\nen !\nYa empecé a preparar\n con un montón\nde  para acompañar.",
      "USfr": "Eh ouais,  fait ses\nvalises demain en prévision de son\ndépart. Y'a rien à faire. À moins...\n... qu'on mette au point un plan\ntellement bien ficelé qu'il\nsera obligé de rester!\nJe m'occupe  et , c'est parti!"
    }
  },
  {
    "label": "201",
    "attribute": "0x0000000000000000",
    "locale": {
      "CNzh": "现在这座的露营地里\n似乎有贵客来访。。\n崭新的相遇能够丰富人生。\n或许这一次相遇\n能够改变你的未来……",
      "EUde": "Alle schwärmen ja gerade von\nunserem neuen Gast auf dem\nCampingplatz.\nUnter normalen Umständen wäre ich\ndarauf neidisch, aber etwas frischer\nWind tut der Insel ja auch mal gut.\nAch, was erzähle ich da?\nDie Umstände sind ganz normal,\nund ich vergehe fast vor Eifersucht!",
      "EUen": "There's some buzz going around\nabout the guest at the island's\ncampsite of late.\nUnder normal circumstances, I'd be\njealous, but it's nice to shake things\nup a little bit around here.\nWho am I kidding? Circumstances are\ncompletely normal and it's killing me!",
      "EUes": "¿Te has enterado de quién está de\nvisita en la zona de acampada?\nEl vecindario no habla de otra cosa.\nNo te mentiré: en circunstancias\nnormales me moriría de la envidia,\npero me alegra todo este «hype».\nAl final servirá para atraer más\nturismo a la isla... y luego será\ncuestión de aprovechar el tirón.\nHazme caso: ¡el festival de música\ncontracultural de  está muy cerca de hacerse realidad!",
      "EUfr": "Tout le monde ne parle que de la\nnouvelle tête qui a surgi au camping,\nrécemment. C'est le VIP du moment.\nEn temps normal, je serais rongé de\njalousie, submergé de sueurs froides\net pris de piétinement compulsif.\n... Oh, à qui je vais faire avaler ça ?\nNous sommes en temps parfaitement\nnormal et je me liquéfie d'envie !",
      "EUit": "Hola. Si fa un gran parlare dell'ospite\nche si trova nell'area per campeggio.\nIn un altro momento sarei stato\ngeloso, ma capisco che ogni tanto\nci faccia bene respirare aria di novità.\nBah, ma chi voglio prendere in giro?\nCome tutti i latin lover, sono geloso\ndella mia bella... isla!",
      "EUnl": "Er wordt heel wat gepraat over onze\ngast op de kampeerplek.\nNormaal zou ik jaloers zijn, maar het\nis ook weleens fijn om niet het\nmiddelpunt van álle aandacht te zijn.",
      "EUru": "По острову ходят слухи про\nнедавнего гостя в кемпинге.\nВ обычном случае я позавидовал\nбы, что не про меня, но я вообще\nрад, что здесь что-то происходит.\nДа, самый обычный самообман.\nЭто как раз и есть обычный случай!\nЯ весь в расстройстве!",
      "JPja": "今、このの　キャンプサイトに\nゲストが来てるらしいね、\n新しい出会いは　人生を豊かにさせるものさ\nひょっとしたら　この出会いが\nキミの未来を　変える事になるかもよ・・・",
      "KRko": "지금 우리  캠핑장에\n게스트가 와 있다더군, \n새로운 만남은 인생을 풍요롭게 만들지!\n어쩌면 이 만남을 계기로\n그대의 미래가 바뀔지도 몰라...",
      "TWzh": "似乎有訪客來到這座島上的\n露營地呢，。\n新的邂逅，能夠使人生變得更加充實。\n也許這次的邂逅，將會改變你的未來\n也說不定喔……",
      "USen": "There's some buzz going around\nabout the guest at the island's\ncampsite of late.\nUnder normal circumstances, I'd be\njealous, but it's nice to shake things\nup a little bit around here.\nWho am I kidding? Circumstances are\ncompletely normal and it's killing me!",
      "USes": "¿Te enteraste de quién está de\nvisita en la zona de campamento?\nEl vecindario no habla de otra cosa.\nNo te mentiré: en circunstancias\nnormales me moriría de envidia, pero\nya no presto atención a esas cosas.\nAl final servirá para atraer más\nturismo a la isla... y eso ayudará\na desarrollar la cultura local.\nLo presiento: ¡el festival de música\ncontracultural de  está muy cerca de hacerse realidad!",
      "USfr": "Tout le monde ne parle que de la\nnouvelle tête qui a surgi au camping\nrécemment. C'est le VIP du moment.\nEn temps normal, j'serais rongé de\njalousie, submergé de sueurs froides\net pris de piétinement compulsif.\n... Oh, à qui j'vais faire avaler ça?\nOn est en temps parfaitement\nnormal et je me liquéfie d'envie!"
    }
  },
  {
    "label": "901",
    "attribute": "0x0000000000000000",
    "locale": {
      "CNzh": "这个月的日！\n有一年一度的重大活动，\n你也要放在心上哦。。",
      "EUde": "Ja, schon am  dieses Monats.\nDas habe ich mir schon seit\nEwigkeiten im Kalender vorgemerkt.",
      "EUen": "Yeah, it's on the  of this month!\nIt's been on my calendar for ages.",
      "EUes": "Sí, ¡es el día  de este mes!\nHace años que lo tengo apuntado\nen mi calendario.",
      "EUfr": "Oui, c'est le  !\nJe l'ai noté dans mon calendrier\nil y a des mois !",
      "EUit": "Sì, è il giorno  di questo mese!\nÈ scritto sulla mia agenda da secoli.",
      "EUnl": "O ja, op de e van deze maand! Dat\nheb ik al tijden geleden op de\nkalender zien staan.",
      "EUru": "Да,  числа этого месяца!\nУ меня все в ежедневнике\nзаписано.",
      "JPja": "今月の　日！\n一年に一度の　ビッグイベントだから\nキミも　覚えといた方がいいよ、",
      "KRko": "이번 달 일!\n일 년에 한 번뿐인 빅 이벤트니까\n그대도 잊지 말라구, !",
      "TWzh": "這個月的號，\n可是一年一度的Big event！\n所以你最好也牢牢記在心裡喔，。",
      "USen": "Yeah, it's on the  of this month!\nIt's been on my calendar for ages.",
      "USes": "Sí, ¡es el día  de este mes!\nHace años que lo tengo apuntado\nen mi calendario.",
      "USfr": "Oui, c'est le !\nJe l'ai noté dans mon calendrier\nil y a des mois!"
    }
  }
]