﻿[
  {
    "label": "001",
    "attribute": "0x0000000000000000",
    "locale": {
      "CNzh": "",
      "EUde": "",
      "EUen": "",
      "EUes": "",
      "EUfr": "",
      "EUit": "",
      "EUnl": "",
      "EUru": "",
      "JPja": "",
      "KRko": "",
      "TWzh": "",
      "USen": "",
      "USes": "",
      "USfr": ""
    }
  },
  {
    "label": "001_01",
    "attribute": "0x0000000000000000",
    "locale": {
      "CNzh": "啊……你手上的那个\n是呢。\n。",
      "EUde": "Leide ich unter Halluzinationen,\noder hast du da wirklich \n?!",
      "EUen": "Yo, am I seeing things or are\nyou carrying around an actual\n?",
      "EUes": "¿Estoy viendo visiones o eso\nque llevas ahí es \n?",
      "EUfr": "Dis donc, j'ai des hallus, ou tu te\npromènes un peu partout avec\n ?",
      "EUit": "Sueño o son desto? È  e\npropri \nquell che hai lì con te?",
      "EUnl": "Krijg nou wat,  dat echt ?",
      "EUru": "Мне кажется или у тебя с собой\nи вправду настоящий\n?",
      "JPja": "あっ、キミ・・・\n\n持ってるんだね、",
      "KRko": "앗, 그대...\n을\n가지고 있나 보군, !",
      "TWzh": "啊，我說你呀……\n你身上有\n對不對？。",
      "USen": "Yo, am I seeing things or are\nyou carrying around an actual\n?",
      "USes": "¿Estoy viendo visiones o eso\nque llevas ahí es  \n?",
      "USfr": "Dis donc, j'ai des hallus, ou tu te\npromènes un peu partout avec\n?"
    }
  },
  {
    "label": "001_02",
    "attribute": "0x0000000000000000",
    "locale": {
      "CNzh": "哦呀？你手上的那个，\n是吗？",
      "EUde": "Unglaublich! Du bist der Erste,\nden ich mit  echten\n sehe!",
      "EUen": "Whoa! You're the first person I've\nseen walking around with a real\n!",
      "EUes": "¡Arrea! ¡Eres el primero que en lugar\nde una réplica virtual tiene \n real!",
      "EUfr": " ! J'ai jamais vu personne se trimballer avec ça, c'est une première !",
      "EUit": "Sorbole! \n!\nCredevo fosse una leggenda...\nDa paura, amico mio!",
      "EUnl": "Wauw! Jij bent echt de eerste persoon ooit die ik met  zie!",
      "EUru": "Вот это да! Ты первый, у кого я\nувидел !",
      "JPja": "おや？　キミが持ってるの\nかい？",
      "KRko": "어라? 그대가 가지고 있는 그거\n 아닌가?",
      "TWzh": "嗯？你帶著的那個\n是嗎？",
      "USen": "Whoa! You're the first person I've\nseen walking around with a real\n!",
      "USes": "¡Vaya! ¡Eres el primero que en lugar\nde una réplica virtual tiene \n real!",
      "USfr": "! J'ai jamais vu personne se balader avec ça, c'est une première!"
    }
  },
  {
    "label": "001_03",
    "attribute": "0x0000000000000000",
    "locale": {
      "CNzh": "咦？\n那是吗？\n你手边的那个……。",
      "EUde": "Oh... Nun sag schon. Wo hast\ndu nur \n her?",
      "EUen": "OK, OK... You gotta tell me. Where\nin the world did you get that\nsweet ?",
      "EUes": "Alto, amiguito. Perdona la pregunta,\npero ¿dónde has conseguido esa\njoya de ?",
      "EUfr": "Bon allez... Pas de chichis entre\nnous. Où t'as réussi à dégoter\n ?",
      "EUit": "OK, bueno... Vuota il sacco! Donde\nhai trovato quell'esemplare da paura\ndi ?",
      "EUnl": "Wacht eens... Vertel op.  dat echt ? Waar heb je  vandaan, joh?",
      "EUru": "Ладно... Признавайся. Где ты нашел\n?\nЗамечательная находка!",
      "JPja": "あれー？　\nかい？\nキミの手元に　あるやつ・・・、",
      "KRko": "으응?\n?\n그대가 가지고 있는 그것 말이야, !",
      "TWzh": "咦～？\n那個是嗎？\n就是你帶著的那個……。",
      "USen": "OK, OK... You gotta tell me. Where\nin the world did you get that\nsweet ?",
      "USes": "Vaya, amiguito. Perdona la pregunta,\npero ¿dónde has conseguido esa\njoya de ?",
      "USfr": "Bon allez... Pas de chichis entre\nnous. Où t'as réussi à dégoter\n?"
    }
  },
  {
    "label": "002",
    "attribute": "0x0000020000000000",
    "locale": {
      "CNzh": "如果你不介意，\n我想用买下来，\n怎么样？。",
      "EUde": "Nun, wie soll ich sagen... Wärst du\nan einem Verkauf interessiert?\nIch würde dir  geben!",
      "EUen": "So, like...do you wanna sell it?\nI'd give you  for it!",
      "EUes": "No puedo evitar proponerte...\n¿Me  vendes? ¡Estoy dispuesto\na pagarte  por !",
      "EUfr": "Mettons... que j'aimerais te l'acheter.\n, t'en dis quoi ?",
      "EUit": "Bueno... Ti andrebbe di vendermi\nquel gioiellino per diciamo...\n?",
      "EUnl": "Wil je...  misschien aan mij\nverkopen? Ik geef je er \nvoor!",
      "EUru": "Слушай... а ты не хочешь мне его\nпродать? Плачу !",
      "JPja": "キミさえ　よかったら\nで　引き取るけど、\nどうかな？　",
      "KRko": "혹시 그대만 괜찮다면\n에 사고 싶은데\n어때? ?",
      "TWzh": "如果你願意的話，\n我想用買下，\n怎麼樣？。",
      "USen": "So, like...do you wanna sell it?\nI'd give you  for it!",
      "USes": "No puedo evitar proponerte...\n¿Me  vendes? ¡Estoy dispuesto\na pagarte !",
      "USfr": "Mettons... que j'aimerais te l'acheter.\n, t'en dis quoi?"
    }
  },
  {
    "label": "002_a",
    "attribute": "0x0000000000000000",
    "locale": {
      "CNzh": "好啊\n可以啊",
      "EUde": "Ja, in Ordnung!\nAbgemacht!",
      "EUen": "Sure, why not?\nYou've got a deal!",
      "EUes": "Me gusta la idea\n¡Trato hecho!",
      "EUfr": "J'en dis que ça m'dit !\nMarché conclu !",
      "EUit": "Certo, perché no?\nAffare fatto!",
      "EUnl": "Ja, hoor. Klinkt goed.\nDoen we.",
      "EUru": "Конечно, почему нет.\nДоговорились!",
      "JPja": "いいよー\n別にいいよ",
      "KRko": "좋아～\n그래도 되고…",
      "TWzh": "可以啊～\n我無所謂喔",
      "USen": "Sure, why not?\nYou've got a deal!",
      "USes": "Me gusta la idea\n¡Trato hecho!",
      "USfr": "J'en dis que ça m'dit!\nMarché conclu!"
    }
  },
  {
    "label": "002_b",
    "attribute": "0x0000000000000000",
    "locale": {
      "CNzh": "抱歉\n这个有点……",
      "EUde": "Ich behalt's lieber...\nTut mir leid.",
      "EUen": "No, thanks.\nSorry, not interested.",
      "EUes": "Gracias, pero no\nNo está en venta",
      "EUfr": "Non merci.\nÇa ne m'intéresse pas.",
      "EUit": "No, mi dispiace.\nNon credo...",
      "EUnl": "Nee, bedankt.\nSorry, geen interesse.",
      "EUru": "Нет, извини.\nНе получится.",
      "JPja": "ごめんね\nそれはちょっと・・・",
      "KRko": "미안\n그건 좀…",
      "TWzh": "抱歉啦\n不太方便耶……",
      "USen": "No, thanks.\nSorry, not interested.",
      "USes": "Gracias, pero no\nNo está en venta",
      "USfr": "Non merci.\nÇa ne m'intéresse pas."
    }
  },
  {
    "label": "003",
    "attribute": "0x0000000000000000",
    "locale": {
      "CNzh": "OK！\n那我们就算是\n达成协议了……",
      "EUde": "Wundervoll! Dann lass uns zum\nGeschäftlichen kommen...",
      "EUen": "Buenissimo! Alright, let's talk\nbrass tacks.",
      "EUes": "¡Bravissimo!  Me alegra que nos\nentendamos.",
      "EUfr": "Super ! Je suis toujours ravi de faire \naffaire avec toi.",
      "EUit": "Buenissimo! Andiamo al sodo, allora.",
      "EUnl": "Helemaal top! Hand erop.",
      "EUru": "Колоссально! Давай тогда оформим\nсделку.",
      "JPja": "オーケー！\nじゃあ、お互いの合意の元\nということで・・・",
      "KRko": "오～케이～!\n그러면 서로 합의한 거야!",
      "TWzh": "OK──！\n既然我們雙方\n都同意了……",
      "USen": "Buenissimo! Alright, let's talk\nbrass tacks.",
      "USes": "¡\"Bravissimo\"! Me alegra que nos\nentendamos.",
      "USfr": "Super! Je suis toujours ravi de faire \naffaire avec toi."
    }
  },
  {
    "label": "004",
    "attribute": "0x0000000000000000",
    "locale": {
      "CNzh": "没关系的啦，\n我也没打算强求嘛。。",
      "EUde": "Ach, mach dir keine Sorgen.\nIch werde dir schon nicht vors\nSchienbein treten!",
      "EUen": "Ah, that's cool. I won't twist\nyour arm!",
      "EUes": "Vale, no pasa nada. Tampoco es un\nejemplar tan exclusivo...",
      "EUfr": "Bon, tant pis. Je vais faire de\nmon mieux pour ne pas t'en vouloir.",
      "EUit": "Oh, no problemo. Fai finta che non\nti abbia chiesto nulla.",
      "EUnl": "Ah, cool. Ik hou erover op dan.",
      "EUru": "Ну, нет так нет.\nНе хочу на тебя давить!",
      "JPja": "別に　構わないよ\n無理強いするつもりは　ないからね、",
      "KRko": "괜찮아!\n강요하려는 건 아니니까, !",
      "TWzh": "沒關係啦，\n我也沒有想強迫你的意思，。",
      "USen": "Ah, that's cool. I won't twist\nyour arm!",
      "USes": "Bueno, no pasa nada. Tampoco es un\nejemplar tan exclusivo...",
      "USfr": "Bon, tant pis. Je vais faire de\nmon mieux pour pas t'en vouloir."
    }
  },
  {
    "label": "005",
    "attribute": "0x0000000000000000",
    "locale": {
      "CNzh": "",
      "EUde": "",
      "EUen": "",
      "EUes": "",
      "EUfr": "",
      "EUit": "",
      "EUnl": "",
      "EUru": "",
      "JPja": "",
      "KRko": "",
      "TWzh": "",
      "USen": "",
      "USes": "",
      "USfr": ""
    }
  },
  {
    "label": "005_01",
    "attribute": "0x0000000000000000",
    "locale": {
      "CNzh": "关于的事，\n我想要了解更多一些呢。。",
      "EUde": "Oh, und nun erzähl mir alles über\ndiese erhabene Kreatur.\nWo hast du sie entdeckt?\nWas frisst sie?\nWas ist ihr Sternzeichen?",
      "EUen": "Now tell me all about this bad boy.\nWhere'd you get it? What does it like\nto eat? What's its sign?",
      "EUes": "Cuéntamelo todo sobre tan singular\nejemplar. ¿De dónde proviene?\n¿Qué come? ¿De qué horóscopo es?",
      "EUfr": "Dis-moi tout. Où t'as dégoté ce\nspécimen ? Je dois  nourrir avec\nquoi, au juste ?\nEt surtout, quel est son signe\nastrologique ?",
      "EUit": "Ora devi dirmi tutto di questa\nmeraviglia. Donde l'hai trovata? Cosa\nle piace mangiare? Di che segno è?",
      "EUnl": "Kijk die jongen eens. Waar heb je die\nvandaan? Wat eet hij? Wat is zijn\nsterrenbeeld?",
      "EUru": "Рассказывай, где поймал\nэтого проказника! Чем он\nпитается? В чем его сила?",
      "JPja": "のこと、\nもっと知りたいと　思ってたんだ、",
      "KRko": "에 대해서\n좀 더 알고 싶었거든, !",
      "TWzh": "關於，\n我從以前就想多了解一點，。",
      "USen": "Now tell me all about this bad boy.\nWhere'd you get it? What does it like\nto eat? What's its sign?",
      "USes": "Cuéntame todo sobre tan singular\nejemplar. ¿De dónde proviene?\n¿Qué come? ¿De qué horóscopo es?",
      "USfr": "Dis-moi tout. Où t'as dégoté ce\nspécimen? Je dois  nourrir avec\nquoi, au juste?\nEt surtout, quel est son signe\nastrologique?"
    }
  },
  {
    "label": "005_02",
    "attribute": "0x0000000000000000",
    "locale": {
      "CNzh": "我想和\n做好朋友呢。。",
      "EUde": "Du liebe Güte, ich wollte immer schon   haben!",
      "EUen": "Ugh, I've always wanted \n!",
      "EUes": "¡Qué  tan maravillos! ¡Daría la mitad de mi colección de pajaritas por un así!",
      "EUfr": "J'ai toujours rêvé d'avoir\n !",
      "EUit": "Da paura! Ho sempre desiderato\n!\nMagari verrò pure intervistato da\nqualcuno!",
      "EUnl": "Ik heb altijd al  willen hebben!",
      "EUru": "Ах, я всегда хотел завести себе\n!",
      "JPja": "と\n友達になりたいんだ、",
      "KRko": "이랑\n친구가 되고 싶었거든, !",
      "TWzh": "我好想和\n做個朋友啊，。",
      "USen": "Ugh, I've always wanted \n!",
      "USes": "¡Qué  tan maravillos! ¡Daría la mitad de mi colección de vasos retro por un así!",
      "USfr": "J'ai toujours rêvé d'avoir\n!"
    }
  },
  {
    "label": "005_03",
    "attribute": "0x0000000000000000",
    "locale": {
      "CNzh": "我想要\n和\n更亲近一点……。",
      "EUde": "Ich möchte mich ganz in   hineinversetzen...\nWenn ich   wäre, wie würde sich das anfühlen?",
      "EUen": "Now, I want to get inside the head\nof this ...\nIf I were \n, what\nwould it be like?",
      "EUes": "Ahora mi objetivo será fusionarme\nen cuerpo y mente con est \n...\n¿Cuáles serían mis metas en la vida y\nmis inquietudes culturales si yo fuera\n?",
      "EUfr": "Maintenant, j'ai qu'une envie,\nc'est de savoir ce qu' pense...\nBah, suffit de se mettre en\nsituation... Je ferais quoi, si j'étais\n ?",
      "EUit": "Chissà cosa starà passando\nper la testolina di quest\n...\nMagari ha voglia di una bella\nzuppa di lenticchie e more, come\nme adesso!",
      "EUnl": "Ik wil echt in de huid kruipen van  ...\nAls ik  was, hoe zou ik me dan voelen?",
      "EUru": "Хочу понять, чем живет этот\n...\nЕсли бы я жил в теле\n,\nкаким бы я был?",
      "JPja": "と\nもう少し　親交を深めたいと\n思ってさ・・・、",
      "KRko": "이랑\n좀 더 친분을\n쌓고 싶어서 말이야, ...",
      "TWzh": "我是想要\n跟\n變得親近點啦……。",
      "USen": "Now, I want to get inside the head\nof this ...\nIf I were \n, what\nwould it be like?",
      "USes": "Ahora mi objetivo será fusionarme\nen cuerpo y mente con est \n...\n¿Cuáles serían mis metas en la vida y\nmis inquietudes culturales si yo fuera\n?",
      "USfr": "Maintenant, j'ai qu'une envie,\nc'est de savoir ce qu' pense...\nBah, suffit de se mettre en\nsituation... Je ferais quoi, si j'étais\n?"
    }
  },
  {
    "label": "102",
    "attribute": "0x0000020000000000",
    "locale": {
      "CNzh": "我出……\n你愿意卖给我吗？。",
      "EUde": "Also... Ich MUSS  einfach haben.\nVerkaufst du  für ?\nDas ist mein gesamtes Erspartes!",
      "EUen": "So the thing is...I've got to have that.\nWill you sell it to me for ?\nIt's, like, all my savings.",
      "EUes": "Seré franco contigo:  necesito\npara mí. ¿Me  venderías por\n de las de curso legal?",
      "EUfr": "Je veux pas te mettre la pression...\nMais il me  faut absolument.\n, qu'est-ce que\nt'en dis ? C'est un peu toutes\nmes économies...",
      "EUit": "Senti, devo averlo a todos i costi\nquell'esemplare. Me lo venderesti\nper ? È tutto ciò che ho!",
      "EUnl": "Weet je wat het is... Ik kan de\nverleiding niet weerstaan. Kan ik je\ner  voor geven?\nDat is echt al mijn spaargeld.",
      "EUru": "Дело в том, что... мне это очень\nнужно. Как насчет ?\nЭто примерно все, что у меня есть.",
      "JPja": "出すから・・・\n売ってくれないか？　",
      "KRko": "을 줄 테니까...\n내게 팔지 않겠어? ?",
      "TWzh": "我出……\n可以賣給我嗎？。",
      "USen": "So the thing is...I've got to have that.\nWill you sell it to me for ?\nIt's, like, all my savings.",
      "USes": "Seré franco:  necesito\npara mí. ¿Me  venderías por\n?",
      "USfr": "Je veux pas te mettre la pression...\nMais il me  faut absolument.\n, qu'est-ce que\nt'en dis? C'est un peu toutes\nmes économies..."
    }
  },
  {
    "label": "102_a",
    "attribute": "0x0000000000000000",
    "locale": {
      "CNzh": "好啊\n可以啊",
      "EUde": "Verkauft!\nIn Ordnung.",
      "EUen": "Sold!\nYou've got a deal.",
      "EUes": "¡Para ti!\n¡Hay trato!",
      "EUfr": "OK !\nMarché conclu !",
      "EUit": "D'accordo.\nCi sto!",
      "EUnl": "Verkocht!\nAfgesproken.",
      "EUru": "Продано!\nПо рукам!",
      "JPja": "いいよー\n別にいいよ",
      "KRko": "좋아\n그러든지",
      "TWzh": "可以啊～\n我無所謂喔",
      "USen": "Sold!\nYou've got a deal.",
      "USes": "¡Desde ya!\n¡Trato hecho!",
      "USfr": "OK!\nMarché conclu!"
    }
  },
  {
    "label": "102_b",
    "attribute": "0x0000000000000000",
    "locale": {
      "CNzh": "抱歉\n这个有点……",
      "EUde": "Dieses Mal nicht...\nNein, tut mir leid...",
      "EUen": "Sorry, not this time.\nNah, sorry.",
      "EUes": "Quizá otro día\nLo siento, pero no",
      "EUfr": "Non, je peux pas.\nNon, désolé.",
      "EUit": "Non questa volta.\nNo, mi dispiace.",
      "EUnl": "Sorry, nu niet.\nNee, sorry.",
      "EUru": "Извини.\nВ другой раз.",
      "JPja": "ごめんね\nそれはちょっと・・・",
      "KRko": "미안\n그건 좀…",
      "TWzh": "抱歉啦\n不太方便耶……",
      "USen": "Sorry, not this time.\nNah, sorry.",
      "USes": "Quizás otro día\nLo siento, pero no",
      "USfr": "Non, je peux pas.\nNon, désolé."
    }
  },
  {
    "label": "103",
    "attribute": "0x0000000000000000",
    "locale": {
      "CNzh": "太好啦！\n我们之间是双赢的关系呢！",
      "EUde": "Ausgezeichnet, (Floskel)!\nEine wahrhaftige Win-win-Situation!",
      "EUen": "Yes! This is a win-win, (catchphrase)!",
      "EUes": "¡Genial! Con esta transacción,\n¡sincronizamos nuestros perfiles!",
      "EUfr": "Super ! On est tous les deux\ngagnants dans cette affaire,\n(expression) !",
      "EUit": "Eccezionale! Aspetta che lo sappiano\ni miei fan, (catchphrase)!",
      "EUnl": "Ja! Dit is duidelijk een\nwin-winsituatie, (catchphrase)!",
      "EUru": "Ура! От этой сделки выигрывают\nвсе! (catchphrase)!",
      "JPja": "やった！\nウィン・ウィンの関係だね！",
      "KRko": "야호!\n서로 윈윈한 거네!",
      "TWzh": "太好了！\n這麼一來我們就是雙贏的關係啦！",
      "USen": "Yes! This is a win-win, (catchphrase)!",
      "USes": "¡Genial! Con esta transacción,\n¡sincronizamos nuestros perfiles!",
      "USfr": "Super! On est tous les deux\ngagnants dans cette affaire,\n(expression)!"
    }
  },
  {
    "label": "104",
    "attribute": "0x0000000000000000",
    "locale": {
      "CNzh": "是吗……真遗憾啊。。",
      "EUde": "Ach, schade...\nWo bekomme ich nur  her...?",
      "EUen": "Oh man... Now how am I going to\nget myself one of those?",
      "EUes": "Qué calamidad... ¿Cuándo lograré\nhacerme con una de esas bellezas?",
      "EUfr": "Pff... Mais il faut que je fasse quoi\npour en avoir  ?",
      "EUit": "Sorbole! E adesso dove posso\ntrovare un altro gioiellino come\nquello?",
      "EUnl": "Tjonge... Hoe kan ik zelf zoiets\nvinden?",
      "EUru": "Ох...  Ну где же мне такого\nнайти?",
      "JPja": "そうかい・・・　残念だよ、",
      "KRko": "그렇군... 유감인걸, ...",
      "TWzh": "這樣啊……真是遺憾，。",
      "USen": "Oh man... Now how am I going to\nget myself one of those?",
      "USes": "Qué calamidad... ¿Cuándo podré\nconseguir una de esas bellezas?",
      "USfr": "Pff... Mais il faut que je fasse quoi\npour en avoir ?"
    }
  },
  {
    "label": "105",
    "attribute": "0x0000000000000000",
    "locale": {
      "CNzh": "",
      "EUde": "",
      "EUen": "",
      "EUes": "",
      "EUfr": "",
      "EUit": "",
      "EUnl": "",
      "EUru": "",
      "JPja": "",
      "KRko": "",
      "TWzh": "",
      "USen": "",
      "USes": "",
      "USfr": ""
    }
  },
  {
    "label": "105_01",
    "attribute": "0x0000000000000000",
    "locale": {
      "CNzh": "其实，和的\n共同生活一直都是我的梦想。。\n我会把它当作你的化身，\n好好珍惜的，。",
      "EUde": "Ich wollte schon SO lange \n als Haustier haben...\nKeine Sorge. Ich werde mich liebevoll\num  kümmern. Ich behandle \nwie eine Miniatur-Version von dir!",
      "EUen": "I've wanted a real pet\n for SO\nlong now...\nAnd don't worry, I'll take great care\nof it. I'll treat it like a tiny version\nof you. Ha HA!",
      "EUes": "Llevo tanto tiempo queriendo ...\nNo creo que nadie tenga  como\nmascota en casa. ¡ mimaré al\nmáximo y a la vez marcaré tendencia!",
      "EUfr": "J'ai toujours voulu adopter\n...\nAlors t'en fais pas, je vais hyper\nbien m'en occuper. Un peu comme\nsi c'était toi... Hé hé !",
      "EUit": "È da un'eternità che volevo\nmettere le mie zampine su\n...\nNon avere paura, ne avrò mucha\ncura. Farò finta che sia una mini\nversione di te, (catchphrase)!",
      "EUnl": "Ik wil al zo lang  als huisdier...\nEn maak je geen zorgen, ik zorg er\ngoed voor. Ik doe net alsof het een\nkleinere versie van jou is. HaHA!",
      "EUru": "Я так давно хотел себе\n...\nНе беспокойся, я о нем позабочусь.\nБуду относиться к нему так же, как\nк миниверсии тебя. Хо-хо!",
      "JPja": "実は、と\n一緒に　暮らしたかったんだ、\nキミの　生まれ変わりだと思って\n大切にするよ、",
      "KRko": "실은 이랑\n전부터 함께 살고 싶었어, !\n그대의 환생이라고 생각하고\n잘 보살필게, 군!",
      "TWzh": "老實說，我想和\n一起生活，。\n我會將牠當成是你的轉世，\n好好照顧牠的，。",
      "USen": "I've wanted a real pet\n for SO\nlong now...\nAnd don't worry, I'll take great care\nof it. I'll treat it like a tiny version\nof you. Ha HA!",
      "USes": "Llevo tanto tiempo queriendo ...\nNo creo que nadie tenga  como\nmascota en casa. ¡ mimaré al\nmáximo y a la vez marcaré tendencia!",
      "USfr": "J'ai toujours voulu adopter\n...\nAlors t'en fais pas, je vais hyper\nbien m'en occuper. Un peu comme\nsi c'était toi... Hé hé!"
    }
  },
  {
    "label": "105_02",
    "attribute": "0x0000000000000000",
    "locale": {
      "CNzh": "我一直想要\n和\n生活在同一个屋檐下。。\n我会把它当作是你，好好珍惜的，\n。",
      "EUde": "Endlich! \n.\nGlaube mir,  wird \n meines bescheidenen\nHeims sein!",
      "EUen": "Finally! My own pet\n to take\ncare of.\nThis thing is gonna be the new\nqueen of my household, trust me.",
      "EUes": "¡Al fin! Creí que nunca tendría mi\n propi,\npero el día ha llegado.\nEsta belleza eclipsará a todas\nlas demás piezas de coleccionista\nque guardo en mi casa.",
      "EUfr": "D'la balle, je peux enfin m'occuper\nd' !\nJe vais  traiter comme \n !",
      "EUit": "Da paura! Finalmente ho\n\ntod mi.\nL tratterò alla grande, tranquillo.\nCi vedremo insieme tutte le mie serie\npreferite, come \"Muscoli galanti\"!",
      "EUnl": "Eindelijk! Mijn eigen  waar ik voor kan zorgen.\nEen ware aanwinst voor mijn\nhuishouden.",
      "EUru": "Наконец-то! У меня есть свой\n! Будет\nтеперь моим личным менеджером.",
      "JPja": "と\n同じ屋根の下で　暮らそうかと\n考えていたんだ、\nキミだと思って　大切にするよ、\n",
      "KRko": "이랑\n룸메이트를 하고 싶었어, !\n그대라고 생각하고 아낄게!\n군!",
      "TWzh": "我正想和\n一起住在\n同一個屋簷下呢，。\n我會將牠當成你，好好照顧牠的，\n。",
      "USen": "Finally! My own pet\n to take\ncare of.\nThis thing is gonna be the new\nqueen of my household, trust me.",
      "USes": "¡Al fin! Creí que nunca tendría mi\n propi,\npero el día ha llegado.\nEsta belleza eclipsará a todas\nlas demás piezas de colección\nque guardo en mi casa.",
      "USfr": "Amazing, je peux enfin m'occuper\nd'!\nJe vais  traiter comme \n!"
    }
  },
  {
    "label": "105_03",
    "attribute": "0x0000000000000000",
    "locale": {
      "CNzh": "我只告诉你哦……我一直想要\n和\n一起住呢。。\n它的名字……\n就叫(player name)吧？",
      "EUde": "Ich wollte mein Heim schon immer\neinmal mit   teilen.\nIch sollte  (Spitzname) nennen. Oder wäre das unpassend? Ach, was soll's, (Floskel)!",
      "EUen": "I've always wanted \n as a\nroommate, heh.\nI think I'm gonna name it\n(nickname). Or would that\nbe weird? Eh, I don't care!",
      "EUes": "Siempre he querido tener \n como compañer de piso.\nIgual l llamo «(nickname)» en tu honor. ¿O eso te molestaría? ¡Yo que tú me sentiría orgulloso!",
      "EUfr": "J'ai toujours rêvé d'habiter avec\n !\nJe peux l'appeler (surnom),  ou c'est trop bizarre ? Bah, je fais c'que j'veux, de toute façon !",
      "EUit": "Ho sempre voluto avere\n\ncome compagn di stanza.\nDevo dar un nome. Penso che\nl chiamerò... (nickname)!\nDa paura, non credi anche tu?",
      "EUnl": "Ik heb altijd al  als huisgenoot willen hebben.\nWat vind je van (nickname) als naam? Of is dat raar? Ik doe het gewoon!",
      "EUru": "Я всегда хотел, чтобы со мной жил\n.\nНазову-ка я его (nickname).\nИли это слишком? А вообще, какая\nразница!",
      "JPja": "ここだけの話・・・\nと\nルームシェアしようと思ってたんだ、\n名前は・・・\n(player name)にしようかな？",
      "KRko": "우리끼리 이야기지만...\n이랑\n같이 살고 싶었거든, !\n이름은...\n(player name)이라고 할까?",
      "TWzh": "我只告訴你喔……\n其實我是想和\n當室友啦，。\n名字就叫……\n(player name)，怎麼樣？",
      "USen": "I've always wanted \n as a\nroommate, heh.\nI think I'm gonna name it\n(nickname). Or would that\nbe weird? Eh, I don't care!",
      "USes": "Siempre quise tener \n como compañer de casa.\nQuizás l llame \"(nickname)\" en tu honor. ¿O eso te molestaría? ¡Yo que tú me sentiría orgulloso!",
      "USfr": "J'ai toujours rêvé d'habiter avec\n!\nJe peux l'appeler (surnom), ou c'est trop weird? Bah, je fais c'que j'veux, de toute façon!"
    }
  }
]