﻿[
  {
    "label": "001",
    "attribute": "0x0000000000000000",
    "locale": {
      "CNzh": "你对园艺有兴趣吗？\n我很在意然然\n出售的那种灌木～\n听说那灌木会开出\n只在特定时期绽放的花……\n没错，就像无法回头的恋情一般。",
      "EUde": "Gärtnern war nie meine Leidenschaft\n– oh, die Schnecken! – aber Gerds\nBüsche sehen interessant aus.\nDas Besondere ist, dass ihre Blüten\nnur zu bestimmten Zeiten blühen.\nDas ist praktisch wie ein Flashmob\nin der Pflanzenwelt.",
      "EUen": "Gardening's never been my hobby of\nchoice—I have a history with slugs—\nbut I'm intrigued by Leif's shrubs.\nThe selling point is they grow flowers\nthat only bloom at certain times.\nThey're like the pop-up events of\nplant life.",
      "EUes": "La verdad es que la jardinería nunca\nme ha atraído especialmente. Tengo\nun trauma con las babosas que...\nEl caso es que el otro día se me\nocurrió una idea brillante: ¡hacer\nun pódcast sobre arbustos!\nRollo sonidos de la naturaleza,\n¿sabes? Les planto el micro al lado\ny lo dejo grabando toda la noche...\nEstoy deseando ver qué sale de\nahí. ¿Tú no, ?\n¡No se hable más! A comprarle\nunos cuantos a Gandulio se\nha dicho.",
      "EUfr": "Le jardinage, c'est pas mon truc. Je\nte passe les détails, mais moi et les\nlimaces, on s'entend pas des masses.\nPar contre, j'avoue que les pousses\nde Racine ont le don d'attiser ma\ncuriosité...\nTu savais que chacune fleurissait à\nun moment précis ? C'est un peu le\nrôle de sa vie, pour une plante.",
      "EUit": "Il giardinaggio non è mai stato il mio\npassatempo preferito. Sai, non ci si\npuò guardare allo specchio spesso...\nPerò i cespugli di Florindo stanno\nattirando la mia curiosità.\nA quanto pare, questi cespugli hanno\nflores che sbocciano solo in momenti\ndell'anno specifici.\nSono imprevedibili... come me.",
      "EUnl": "Tuinieren is niet mijn ding. Ik zal\nje de details besparen, maar het\nis vanwege een slakkentrauma.\nToch kan ik niet ontkennen dat ik\nnieuwsgierig ben naar de struiken\nvan Leif...\nSchijnbaar bloeien ze enkel op\nbepaalde momenten van het jaar.\nDat klinkt ontzettend exclusief!\nMisschien is dat tuinieren toch wel\niets voor mij!",
      "EUru": "Садоводством я никогда особо не\nувлекался. Слизняков не люблю. Но\nтовары Лейфа меня заинтриговали.\nЕго коммерческий план состоит\nв том, что его растения цветут\nтолько в определенное время.\nЭксклюзивные события в жизни\nрастений.",
      "JPja": "キミは　ガーデニングには　興味ある？\nボクは　レイジクンが扱ってる\n低木のことが　気になるんだよね～\nそれは　決まった時期にしか咲かない\n花が　咲くらしいよ・・・　そう、まるで\n後戻りはできない　恋のように",
      "KRko": "그대는 가드닝에 흥미가 있나?\n나는 늘봉군이 팔고 있는\n낮은 나무가 조금 궁금하더라구～\n그 나무에는 정해진 시기에만 피는\n꽃이 있다고 하더군... 그래, 마치\n돌이킬 수 없는 사랑처럼 말이지",
      "TWzh": "你對園藝有興趣嗎？\n我很喜歡然然他販售的灌木呢～\n聽說灌木只會在固定的時期開花喔……\n沒錯，簡直就像無法回頭的戀愛一樣。",
      "USen": "Gardening's never been my hobby of\nchoice—I have a history with slugs—\nbut I'm intrigued by Leif's shrubs.\nThe selling point is they grow flowers\nthat only bloom at certain times.\nThey're like the pop-up events of\nplant life.",
      "USes": "La verdad es que la jardinería nunca\nme atrajo especialmente. Tengo\nun trauma con las babosas que...\nLa cuestión es que el otro día se me\nocurrió una idea millonaria: ¡hacer\nun pódcast sobre arbustos!\nCon sonidos de la naturaleza,\n¿sabes? Pongo el micrófono al lado\ny lo dejo grabando toda la noche...\nNo veo la hora de ver qué sale de\nahí. ¿Tú no, ?\n¡No se hable más! A comprarle\nunos cuantos a Gandulio se\nha dicho.",
      "USfr": "Le jardinage, c'est pas mon truc. \nJ'te passe les détails, mais moi et les\nlimaces, on s'entend pas des masses.\nPar contre, j'avoue que les pousses\nde Racine ont le don d'attiser ma\ncuriosité...\nTu savais que chacune fleurissait à\nun moment précis? C'est un peu le\nrôle de sa vie, pour une plante."
    }
  },
  {
    "label": "002",
    "attribute": "0x0000000000000000",
    "locale": {
      "CNzh": "你在然然那里购买过花的种子吗？\n想要改变的风格的话，\n请务必去看看他的商品。\n他出售的都是罕见的种子，\n开花之时，一定能看到\n新奇的景色。。",
      "EUde": "Hast du schon ein paar Samen bei\nGerd gekauft? Einige davon sind\ntotal selten, (Floskel).\nEin paar von denen würden das\nImage von  mal\nso richtig aufpolieren.",
      "EUen": "Have you bought any seeds from\nLeif yet? He's got a few that are\nparticularly rare, (catchphrase).\nPoppin' a few of those in the\nground would really freshen up\n's image.",
      "EUes": "¿Ya le has comprado semillas a\nGandulio? Tiene algunas que no\nse ven muy a menudo.\nBueno, supongo que depende de\nlo metido que estés en el mundillo.\n¡Yo ya las he visto todas!\nHace poco me compré una serie\ndocumental sobre plantas y estoy\nmuy a tope con el tema.\n¡Qué pena que solo me queden\n73 capítulos para terminarla!",
      "EUfr": "Tu as déjà acheté des graines à\nRacine ? Il en a quelques-unes plutôt\nrares dans sa besace, (expression).\nPlantons-les par ici et on propulsera  à l'avant-garde du paysagisme insulaire !",
      "EUit": "Hai già comprato semi da Florindo?\nNe ha alcuni davvero muy particolari,\n.\nSpargerne un pochito sul terreno\npotrebbe riempire di nuovi colori\nla nostra .",
      "EUnl": "Heb je al een paar zaadjes bij Leif\ngekocht? Hij heeft een aantal\nzeldzame exemplaren, (catchphrase).\nEr daar een paar van planten, zal\nwonderen doen voor het imago van\n.",
      "EUru": "Ты покупаешь семена у Лейфа?\nУ него есть несколько элитных\nсортов. (catchphrase)!\nЕсли здесь посадить такие\nрастения, можно здорово освежить\nимидж острова .",
      "JPja": "レイジクンの所で　花のタネは買ってみた？\nをイメチェンするなら\nぜひ　チェックしてごらん\nカレの所で扱っているのは　珍しい種だから\n花が咲けば　きっと\n新鮮な景色に　出会えるはずさ、",
      "KRko": "늘봉군에게서 꽃씨를 산 적이 있나?\n의 분위기를\n바꾸고 싶다면 꼭 체크해봐\n그가 팔고 있는 건 귀한 종류니까\n꽃이 다 피면 분명\n새로운 경치를 만날 수 있을 거야, !",
      "TWzh": "你有在然然那購買過花卉種子嗎？\n如果你想改變\n給人的印象，請務必買來試試看。\n他所販售的種子都很稀有，種出來的花，\n應該能讓你看見新的景色，。",
      "USen": "Have you bought any seeds from\nLeif yet? He's got a few that are\nparticularly rare, (catchphrase).\nPoppin' a few of those in the\nground would really freshen up\n's image.",
      "USes": "¿Ya le compraste semillas a\nGandulio? Tiene algunas que no\nse ven muy a menudo.\nBueno, supongo que depende de\nlo mucho que sepas del tema...\nYo, una inmensa cantidad...\nHace poco me compré una serie\ndocumental sobre plantas y ya\ncasi que la termino.\nMe faltan unos 73 capítulos\nsolamente...",
      "USfr": "T'as déjà acheté des graines à\nRacine? Il en a quelques-unes plutôt\nrares dans son sac, (expression).\nPlantons-les par ici et on propulsera\n à l'avant-garde du paysagisme insulaire!"
    }
  },
  {
    "label": "003",
    "attribute": "0x0000000000000000",
    "locale": {
      "CNzh": "，你知道吗？\n如果每天都为花浇水，\n偶尔就会开出颜色罕见的花朵。\n这或许是花儿们\n想要对你诉说的话语。\n比如说……“我爱你”。",
      "EUde": "Schon das Neueste aus der\ngrünen Gartenwelt gehört,\n(Spitzname)?\nWenn du die Blumen jeden Tag gießt,\nkann dabei eine Blüte einer seltenen\nFarbe entstehen!\nWie ein Dankeschön von Mutter Erde,\naber natürlich viel cooler.",
      "EUen": "Want the latest scoop from the\ngardening world, (nickname)?\nIf you water flowers every day,\nyou just may be rewarded with a\nrare-colored blossom!\nIt's like the earth's giving you a\nhomemade thank-you gift,\nbut, you know, classier.",
      "EUes": "Mira, te voy a contar un truco sobre\njardinería, cortesía de la casa.\nToma nota: si riegas las flores a\ndiario, quizá acabes viendo alguna\nde un color muy poco común.\nNo hace falta que me des las gracias.\nMe gusta velar por la transmisión del\nsaber y la cultura, .",
      "EUfr": "(surnom), voici la dernière trouvaille des stars du jardinage et des VIP de la patte verte réunis...\nSi tu arroses tes fleurs tous les\njours, il est possible d'obtenir des\nfleurs de couleurs rares !\nC'est comme si la nature t'offrait un\ncadeau en édition ultra-limitée !",
      "EUit": "Vuoi sapere le ultime novità\ndal mondo del giardinaggio,\n(nickname)?\nSe annaffi i fiori todos los dias,\npotresti vederli sbocciare con\ncolori rari!\nÈ come se la terra ti premiasse\ncon un regalo ricco di classe ed\neleganza... Insomma, come me.",
      "EUnl": "Heb je het laatste nieuws uit de\nwondere wereld van groene vingers\ngehoord, (nickname)?\nAls je je bloemen dagelijks water\ngeeft, kun je weleens een bloem\nmet een zeldzame kleur krijgen.\nAls ware het een bedankje van\nMoeder Natuur, maar dan in een\ngelimiteerde uitvoering.",
      "EUru": "(nickname), хочешь\nуслышать сенсацию из мира\nсадоводства?\nЕсли поливать цветы каждый день,\nоднажды может распуститься бутон\nочень экзотического цвета!\nЭто как подарок природы в знак\nблагодарности, только еще\nэксклюзивнее.",
      "JPja": "、知ってる？\n花は　毎日、水やりしてあげると\nたまに　珍しい色の花を　咲かせるんだよ\nこれって　カノジョたちから\nメッセージを　送ろうとしているのかもね\n「愛してます」・・・とかさ",
      "KRko": "군, 그거 알아?\n꽃에 매일 물을 주면\n가끔씩 희귀한 색의 꽃이 핀다구\n이거 어쩌면 꽃들이 우리에게\n메시지를 보내고 있는 게 아닐까?\n'사랑합니다'...하고 말이야!",
      "TWzh": "，你知道嗎？\n只要每天幫花澆水，偶爾會綻放出\n有著稀有顏色的花喔。\n這或許是花兒們打算向我們傳達訊息呢。\n像是「我愛你」之類的……",
      "USen": "Want the latest scoop from the\ngardening world, (nickname)?\nIf you water flowers every day,\nyou just may be rewarded with a\nrare-colored blossom!\nIt's like the earth's giving you a\nhomemade thank-you gift,\nbut, you know, classier.",
      "USes": "Mira, te voy a contar un truco sobre\njardinería, cortesía de la casa.\nToma nota: si riegas las flores todos\nlos días, quizás veas alguna\nde un color muy poco común.\nNo hace falta que me des las gracias.\nMe gusta velar por la transmisión del\nsaber y la cultura, .",
      "USfr": "(surnom), voici la dernière \ntrouvaille des stars du jardinage et \ndes VIPs de la patte verte réunis...\nSi t'arroses tes fleurs tous les\njours, il est possible d'obtenir des\nfleurs de couleurs rares!\nC'est comme si la nature t'offrait un\ncadeau en édition ultra-limitée!"
    }
  },
  {
    "label": "004",
    "attribute": "0x0000000000000000",
    "locale": {
      "CNzh": "现在是地球日的活动期间，\n你有为保护自然\n而用心过吗？\n若要热爱某人，需先热爱自然。\n因为我们都是受自然环境的恩惠\n才存活下来的。。",
      "EUde": "Frohen Tag der Natur! Ich hoffe, du\nfeierst auch angemessen. Blumen\npflanzen, Müll trennen...\nHoffen, Mutter Natur persönlich zu begegnen und von ihr ein mega-\nwertvolles Autogramm zu bekommen.\nDu weißt schon, das Übliche halt.",
      "EUen": "Happy Nature Day! I hope you're\ncelebrating appropriately. Planting\nflowers, recycling cans...\nSecretly hoping you'll meet Mother\nNature herself and score a once-in\na-lifetime autograph.\nYou know, the usual.",
      "EUes": "¡Feliz Día de la Naturaleza! ¿Lo estás\ncelebrando como corresponde?\nYa sabes: plantando flores y demás,\nreciclando, recogiendo basura que\nencuentres por ahí...\nY ¿quién sabe? ¡Quizá esperando a\nque aparezca la mismísima Madre\nNaturaleza para pedirle un autógrafo!",
      "EUfr": "Joyeux jour de la nature ! J'espère\nque tu fêtes ça comme il se doit. En\nsemant, en recyclant...\nEt bien sûr, en espérant rencontrer\nmère Nature elle-même pour obtenir\nl'autographe le plus chic de l'univers.",
      "EUit": "Buona Giornata della natura! Espero\nche festeggerai a dovere, piantando\nflores, riciclando lattine...\nSono certo che Madre Natura te ne\nsarà muy grata.",
      "EUnl": "Fijne Natuurdag! Ik hoop dat je de\ngelegenheid eer aandoet. Bloemen\nplanten, blikjes recyclen...\n...stiekem hopen Moeder Aarde te\nontmoeten en een handtekening te\nscoren.\nJe weet wel, de gebruikelijke dingen.",
      "EUru": "С Днем природы! Надеюсь, ты\nзаботишься о природе. Сажаешь\nцветы, собираешь пустые банки...\nВтайне надеешься получить особые\nпривилегии от матушки-природы.\nСкидки на эксклюзивные показы...\nВ общем, все как обычно.",
      "JPja": "今、アースデーのキャンペーン中だけど、\nキミは　自然のために\n心掛けていることは　あるかい？\n誰かを愛するなら　まずは自然からだよ\nだって　ボクらは　この環境の中で\n生かされているんだからさ、",
      "KRko": "지금, 지구의 날 이벤트 중인데\n그대는 자연을 위해서\n뭔가 하고 있는 일이 있어?\n누군가를 사랑하는 것도 우선은 자연부터야\n왜냐면 우리는 이 환경 속에서\n살아가고 있으니까 말이지, !",
      "TWzh": "現在是地球日的活動期間，\n你是否有為大自然，盡自己的一份心力呢？\n如果想要愛人的話，就先愛上大自然吧。\n因為我們都接受著大自然的恩惠啊，。",
      "USen": "Happy Nature Day! I hope you're\ncelebrating appropriately. Planting\nflowers, recycling cans...\nSecretly hoping you'll meet Mother\nNature herself and score a once-in\na-lifetime autograph.\nYou know, the usual.",
      "USes": "¡Feliz Día de la Naturaleza! ¿Lo estás\ncelebrando como corresponde?\nYa sabes: plantando flores,\nreciclando, recogiendo la basura que\nencuentres por ahí...\nY ¿quién sabe? ¡Quizás esperando a\nque aparezca la mismísima Madre\nNaturaleza para pedirle un autógrafo!",
      "USfr": "Joyeux jour de la nature! J'espère\nque tu fêtes ça comme il se doit. En\nsemant, en recyclant...\nEt bien sûr, en espérant rencontrer\nmère Nature elle-même pour obtenir\nl'autographe le plus chic de l'univers."
    }
  },
  {
    "label": "005",
    "attribute": "0x0000000000000000",
    "locale": {
      "CNzh": "今天是地球日，\n不如在平时烂熟于心的道路上驻足，\n眺望一下景色吧。\n精神绽放的花儿，深深扎根的杂草，\n你应该能注意到那些以往容易看漏的存在。\n每一处都是生命，都有自己的职责。",
      "EUde": "Sonst stehe ich ja gern im Mittel-\npunkt, aber am Tag der Natur geht\nes nun mal um die Natur.\nLassen wir den Bäumen unsere\nWertschätzung angedeihen, die uns\nmit Nahrung und Schatten versorgen.\nDen prächtigen Blumen, die unsere\nAugen erfreuen.\nUnd auch den sturen Unkräutern, die\nwir einfach nicht loswerden können.",
      "EUen": "Normally I like to be at the center of\nattention, but on Nature Day, nature\nis the true star of the show.\nTake a minute to appreciate the\ntrees that provide food and shade...\nthe beautiful flowers that brighten\nour days...and even those persistent\nweeds we just can't stop.",
      "EUes": "Por un día no soy el centro\nde atención de la isla, sino que\nel protagonismo se lo lleva otro.\n¡El Día de la Naturaleza, claro!\nHoy la naturaleza es el centro de\natención de todo el mundo.\nQue conste que para mí también\nlo es el resto del año. ¡No soy de\ndejarme llevar por modas efímeras!",
      "EUfr": "En temps normal, c'est sur moi que\nsont braqués les projecteurs, mais\npour le jour de la nature...\nJe cède ma place aux arbres dont\nl'ombre nous rafraîchit et dont les\nfruits nous procurent le goûter...\n... Aux fleurs radieuses qui illuminent\nnos journées... et aux mauvaises\nherbes qui s'incrustent.",
      "EUit": "Sono muy feliz di stare al centro\ndell'attenzione, ma nella Giornata\ndella natura la star è un'altra!\nÈ l'occasione per contemplare\nla natura, con i suoi alberi che\noffrono cibo e ombra...\nPer non parlare degli splendidi fiori\nche illuminano le nostre giornate\ne le erbacce che infestano todos.",
      "EUnl": "Normaal sta ik in het middelpunt van\nde belangstelling, maar Natuurdag\ndraait om de natuur.\nLaten we daarom een momentino\nnemen om de bomen te bedanken\ndie voor fruit en schaduw zorgen...\n...de prachtige bloemen die ons leven\nopfleuren... en zelfs dat hardnekkige\nonkruid dat maar niet uit te roeien is.",
      "EUru": "Обычно я в центре внимания. Но в\nДень природы гвоздь программы —\nэто наша матушка-природа.\nВот полюбуйся на эти деревья. Они\nдают не только фрукты, но\nи прохладу в жаркий день...\nА эти прекрасные цветы, которые\nнас так радуют... и даже противные\nсорняки, которые лезут и лезут!",
      "JPja": "今日は　アースデーだし、\n普段　歩き慣れている道でも\n足を止めて　景色を眺めてみるといいよ\n健気に咲く花や　力強く根を張る雑草とか\n見落としがちな存在に　気づくはずさ\nどれも　命があって　役割があるんだよ",
      "KRko": "오늘은 지구의 날이니까\n항상 지나다니던 익숙한 길이라도\n한번 발을 멈추고 경치를 둘러보면 어떨까?\n씩씩하게 핀 꽃, 꿋꿋하게 뿌리내린 잡초같이\n놓치기 쉬운 존재를 발견하게 될 거야\n모두 생명이 있고 역할이 있는 거지, !",
      "TWzh": "今天是地球日，你也試著在平時走慣的路上\n停下腳步，然後眺望附近的景色吧。\n你會發現那些平時不起眼的存在，\n例如盛開的花朵以及充滿生命力的雜草，\n都有著生命且扮演著各自的角色喔。",
      "USen": "Normally I like to be at the center of\nattention, but on Nature Day, nature\nis the true star of the show.\nTake a minute to appreciate the\ntrees that provide food and shade...\nthe beautiful flowers that brighten\nour days...and even those persistent\nweeds we just can't stop.",
      "USes": "Por un día no soy el centro\nde atención de la isla, sino que\nel protagonismo se lo lleva otro.\n¡El Día de la Naturaleza, claro!\nHoy la naturaleza es el centro de\natención de todo el mundo.\nQue conste que para mí también\nlo es el resto del año. ¡No soy de\ndejarme llevar por modas efímeras!",
      "USfr": "En temps normal, c'est sur moi que\nsont tournés les projecteurs, mais\npour le jour de la nature...\nJe cède ma place aux arbres dont\nl'ombre nous rafraîchit et dont les\nfruits nous procurent une collation...\n... Aux fleurs radieuses qui illuminent\nnos journées... et aux mauvaises\nherbes qui s'incrustent."
    }
  }
]