﻿[
  {
    "label": "001",
    "attribute": "0x0000000000000000",
    "locale": {
      "CNzh": "",
      "EUde": "",
      "EUen": "",
      "EUes": "",
      "EUfr": "",
      "EUit": "",
      "EUnl": "",
      "EUru": "",
      "JPja": "",
      "KRko": "",
      "TWzh": "",
      "USen": "",
      "USes": "",
      "USfr": ""
    }
  },
  {
    "label": "001_01",
    "attribute": "0x0000000000000000",
    "locale": {
      "CNzh": "刚才又有一颗星星划过去了！\n我不想错失看到流星的机会，\n所以总忍不住要抬头仰望天空呢～。",
      "EUde": "Das muss ein Meteorschauer sein.\nIch sehe so viele Sternschnuppen!",
      "EUen": "Must be a meteor shower going on.\nI keep seeing shooting stars!",
      "EUes": "No te pierdas la lluvia de meteoritos,\nflor. ¡Yo ya he visto un montón\nde estrellas fugaces!",
      "EUfr": "Il y a tant d'étoiles filantes, ce soir !\nLa Terre doit traverser un champ\nd'astéroïdes.",
      "EUit": "Oh, ecco un'altra stella cadente,\nce ne sono tantissimissimissime!\nÈ una meraviglia, n'est-ce pas?",
      "EUnl": "Wat een meteorenregen! Ik zie de\nene vallende ster na de andere!",
      "EUru": "Наверное, сегодня звездопад.\nУже несколько падающих звезд\nвидела.",
      "JPja": "さっきまた　星が流れたんです！\nもっともっと　見たいから\nつい　上を向いちゃうんですよ～、",
      "KRko": "방금 또 별이 지나갔어요!\n더 많이 보고 싶어서\n자꾸자꾸 위를 올려다보게 돼요～ !",
      "TWzh": "剛剛又有星星劃過天空了！\n我還想看更多更多星星，\n所以忍不住一直往上看呢～。",
      "USen": "Must be a meteor shower going on.\nI keep seeing shooting stars!",
      "USes": "No te pierdas la lluvia de meteoritos,\nflor. ¡Yo ya vi un montón de estrellas\nfugaces!",
      "USfr": "Il y a tant d'étoiles filantes, ce soir!\nLa Terre doit traverser un champ\nd'astéroïdes."
    }
  },
  {
    "label": "001_02",
    "attribute": "0x0000000000000000",
    "locale": {
      "CNzh": "流星的目的地\n究竟是什么地方呀……。",
      "EUde": "Ich werde mir bei jeder\nSternschnuppe, die ich heute\nsehe, etwas wünschen...",
      "EUen": "I'm gonna make a wish on every\nshooting star I see tonight...",
      "EUes": "Voy a pedir un deseo por cada\nestrella fugaz que vea esta noche.\nNo serán todos para mí, claro.",
      "EUfr": "Ce soir, à chaque fois que je verrai\nune étoile filante, je ferai un vœu...",
      "EUit": "Esprimerò un desiderio per ogni\nsingola stella cadente che vedo\nstanotte...",
      "EUnl": "Bij elke vallende ster die ik vanavond\nzie, ga ik een wens doen...",
      "EUru": "Буду сегодня загадывать желание\nс каждой падающей звездой...",
      "JPja": "流れ星って　いったい　どこに\n行くんでしょうね・・・　",
      "KRko": "별똥별은 대체\n어디에서 오는 걸까요...? ?",
      "TWzh": "真不知道流星……\n到底是要去哪裡呢……。",
      "USen": "I'm gonna make a wish on every\nshooting star I see tonight...",
      "USes": "Voy a pedir un deseo por cada\nestrella fugaz que vea esta noche.\nNo serán todos para mí, claro.",
      "USfr": "Ce soir, à chaque fois que je verrai\nune étoile filante, je ferai un vœu..."
    }
  },
  {
    "label": "001_03",
    "attribute": "0x0000000000000000",
    "locale": {
      "CNzh": "今晚出来散步是正确的选择～\n流星划过夜空的光景\n真是太浪漫了……。",
      "EUde": "Ich bin ja so froh, dass ich noch\nspazieren gegangen bin. Der Himmel\nist voller Sternschnuppen!",
      "EUen": "I'm so glad I decided to take a walk.\nThe sky is full of shooting stars!",
      "EUes": "Qué alegría me he llevado al salir\na pasear y mirar el cielo: ¡cuántas\nestrellas fugaces!",
      "EUfr": "J'ai été bien inspirée de vouloir aller\nme balader, ce soir. Le ciel est plein\nd'étoiles filantes !",
      "EUit": "Ho fatto vraiment bene a uscire per\nuna passeggiatina. Il cielo è pieno\ndi stelle cadenti!",
      "EUnl": "Wat een goeie beslissing om nog\neen wandelingetje te gaan maken.\nMoet je al die vallende sterren zien!",
      "EUru": "Хорошо, что я вышла погулять.\nВ небе столько падающих\nзвезд!",
      "JPja": "お散歩しにきてよかった～\n星が流れて\nすごく　ロマンチック・・・！　",
      "KRko": "산책하러 나오길 잘했네요～\n별들이 쏟아져서 \n정말 로맨틱해요...! !",
      "TWzh": "有來散步真是太好了～\n星星劃過天空，真是浪漫呢……！。",
      "USen": "I'm so glad I decided to take a walk.\nThe sky is full of shooting stars!",
      "USes": "Qué alegría me dio salir a pasear\ny mirar el cielo... ¡lleno de estrellas\nfugaces!",
      "USfr": "J'ai été bien inspirée de vouloir aller\nme balader, ce soir. Le ciel est plein\nd'étoiles filantes!"
    }
  },
  {
    "label": "002",
    "attribute": "0x0000000000000000",
    "locale": {
      "CNzh": "",
      "EUde": "",
      "EUen": "",
      "EUes": "",
      "EUfr": "",
      "EUit": "",
      "EUnl": "",
      "EUru": "",
      "JPja": "",
      "KRko": "",
      "TWzh": "",
      "USen": "",
      "USes": "",
      "USfr": ""
    }
  },
  {
    "label": "002_01",
    "attribute": "0x0000000000000000",
    "locale": {
      "CNzh": "眺望着高挂空中的彩虹，不知不觉中\n自己脸上也挂起了笑容呢～。",
      "EUde": "Regenbogen bringen mich immer\nzum Lächeln, (Floskel)!",
      "EUen": "Rainbows always make me smile.",
      "EUes": "Ver un arcoíris siempre me hace\nsonreír. No puedo evitarlo.",
      "EUfr": "Il n'y a rien de tel qu'un arc-en-ciel\npour me redonner le sourire,\n.",
      "EUit": "Quando vedo un arcobaleno, non \nriesco a fare a meno di sorridere.",
      "EUnl": "Van regenbogen word ik altijd blij.",
      "EUru": "При виде радуги мне всегда так\nрадостно.",
      "JPja": "虹を見ると　不思議と\n笑顔になっちゃうんですよね～、",
      "KRko": "무지개를 보면 신기하게\n절로 미소가 나와요～ ～",
      "TWzh": "一看到彩虹，\n就讓人莫名展露出笑容呢～。",
      "USen": "Rainbows always make me smile.",
      "USes": "Ver un arcoíris siempre me hace\nsonreír. Es algo que no puedo evitar.",
      "USfr": "Il n'y a rien de tel qu'un arc-en-ciel\npour me redonner le sourire,\n."
    }
  },
  {
    "label": "002_02",
    "attribute": "0x0000000000000000",
    "locale": {
      "CNzh": "无论是清晰可见的、还是若隐若现的彩虹，\n都各有各的好呢～。",
      "EUde": "Blasse Regenbogen, strahlende\nRegenbogen... Ich mag sie einfach\nalle!\nFür mich gibt es keine langweiligen\nRegenbogen.",
      "EUen": "Faint rainbows, bright rainbows...\nThey're all great! I guess I'm just\na fan of rainbows in general.",
      "EUes": "No todos los arcoíris son iguales:\nalgunos son más vívidos, otros más\nclaros... ¡pero todos son hermosos!",
      "EUfr": "Les petits, les gros, les à peine\nvisibles... J'adore vraiment TOUS\nles arcs-en-ciel !",
      "EUit": "Non tutti gli arcobaleni sono uguali:\nalcuni sono più vividi, altri meno...\nMa io li adoooro tutti!",
      "EUnl": "Of ze nu wazig of scherp zijn... alle\nregenbogen zijn prachtig! Ik ben\ngewoon een regenboogfan.",
      "EUru": "Радуга бывает яркая, а иногда —\nбледная... Мне нравится любая\nрадуга.",
      "JPja": "くっきりとした虹も　薄くなった虹も\nどっちも　いいもんですよね～、",
      "KRko": "또렷한 무지개도, 옅은 무지개도\n전 모두 좋아요～ !",
      "TWzh": "無論是清楚的彩虹，還是變淡了的彩虹，\n看起來都很棒對吧～。",
      "USen": "Faint rainbows, bright rainbows...\nThey're all great! I guess I'm just\na fan of rainbows in general.",
      "USes": "No todos los arcoíris son iguales:\nalgunos son brillantes, otros más\ntenues... ¡pero todos son hermosos!",
      "USfr": "Les petits, les gros, les à peine\nvisibles... J'adore vraiment TOUS\nles arcs-en-ciel!"
    }
  },
  {
    "label": "002_03",
    "attribute": "0x0000000000000000",
    "locale": {
      "CNzh": "彩虹的彼端究竟是什么样子的呀……\n真令人好奇～。",
      "EUde": "Was findet man wohl am Ende eines\nRegenbogens? Das würde ich zu\ngern wissen, (Floskel)...",
      "EUen": "What's at the end of that rainbow?\n(catchphrase), I'd love to know...",
      "EUes": "¿Qué habrá al final del arcoíris?\nYo espero que haya muchos\npasteles.",
      "EUfr": "À ton avis, qu'est-ce qu'il y a, au\npied d'un arc-en-ciel ?\n(expression), j'aimerais le savoir...",
      "EUit": "Secondo te cosa ci sarà alla fine\ndi quell'arcobaleno? Sono davvero\ncuriosissimissima, (catchphrase)...",
      "EUnl": "Wat zou er aan het eind van die regenboog te vinden zijn? (catchphrase), ik ben zo benieuwd...",
      "EUru": "А где начинается радуга? Очень\nинтересно узнать... (catchphrase).",
      "JPja": "虹の根元って　どうなってるのかしら・・・\n気になっちゃいます～、",
      "KRko": "무지개의 끝은 어떻게 되어 있을까요...?\n정말 궁금해요, ～",
      "TWzh": "彩虹的盡頭……是什麼模樣呢……\n好想知道喔～。",
      "USen": "What's at the end of that rainbow?\n(catchphrase), I'd love to know...",
      "USes": "¿Qué habrá al final del arcoíris?\nYo espero que haya un tarro lleno\nde galletitas.",
      "USfr": "À ton avis, qu'est-ce qu'il y a, au\npied d'un arc-en-ciel?\n(expression), j'aimerais le savoir..."
    }
  },
  {
    "label": "003",
    "attribute": "0x0000000000000000",
    "locale": {
      "CNzh": "",
      "EUde": "",
      "EUen": "",
      "EUes": "",
      "EUfr": "",
      "EUit": "",
      "EUnl": "",
      "EUru": "",
      "JPja": "",
      "KRko": "",
      "TWzh": "",
      "USen": "",
      "USes": "",
      "USfr": ""
    }
  },
  {
    "label": "003_01",
    "attribute": "0x0000000000000000",
    "locale": {
      "CNzh": "竟然能够看到双重彩虹，\n实在是\n太幸运了！。",
      "EUde": "Wir haben so viel Glück, dass es\neinen doppelten Regenbogen zu\nsehen gibt!",
      "EUen": "We must be super lucky to be\nhere seeing a double rainbow!",
      "EUes": "Somos muy afortunados de poder\npresenciar un arcoíris doble.\n¡Disfrutemos el momento!",
      "EUfr": "Un double arc-en-ciel ! C'est une\nsacrée chance d'en voir un !",
      "EUit": "Siamo fortunatissimissimi di poter\nvedere un arcobaleno doppio. Non\naccade così spesso!",
      "EUnl": "Je moet wel dubbel zoveel geluk\nhebben als je twee regenbogen\ntegelijk ziet!",
      "EUru": "Как нам повезло увидеть сразу\nдве радуги одновременно!",
      "JPja": "ダブルレインボーなんて、\n見ることができて\nすごくラッキーです！　",
      "KRko": "쌍무지개를 볼 수 있다니\n오늘은 정말 운이 좋은 날이에요! !",
      "TWzh": "是雙彩虹耶！\n竟然能親眼看到，真是太幸運了！。",
      "USen": "We must be super lucky to be\nhere seeing a double rainbow!",
      "USes": "Somos muy afortunados de poder\npresenciar un arcoíris doble.\n¡Disfrutemos el momento!",
      "USfr": "Un double arc-en-ciel! C'est une\nsacrée chance d'en voir un!"
    }
  },
  {
    "label": "003_02",
    "attribute": "0x0000000000000000",
    "locale": {
      "CNzh": "虽然这道彩虹总会消失，\n但只要把它拍下来，\n就随时都可以拿出来欣赏了呢。。",
      "EUde": "Sieh dir nur den doppelten\nRegenbogen an... Ich wünschte,\nich hätte meine Mal-Utensilien dabei.",
      "EUen": "Just look at that double rainbow...\nIf only I'd brought my paints with me.",
      "EUes": "¿Has visto qué arcoíris doble?\nLástima que no haya traído\nel caballete y las pinturas.",
      "EUfr": "Tu as vu ce double arc-en-ciel ?\nAh, si seulement j'avais mon matériel\nde peinture...",
      "EUit": "Guarda quell'arcobaleno doppio!\nSe solo avessi qui con me i miei\npennelli...",
      "EUnl": "Moet je die dubbele regenboog zien!\nHad ik nu mijn schilderspulletjes\nmaar bij me...",
      "EUru": "Две радуги — как красиво... Жаль,\nя с собой мольберт не взяла.",
      "JPja": "この虹は　いつか消えちゃいますけど\n写真に撮れば　いつまでも\n見ることができるんでしょうね、",
      "KRko": "이 무지개는 언젠가 사라지겠지만\n사진으로 남기면 언제나\n볼 수 있겠죠...? ?",
      "TWzh": "這道彩虹雖然過不久就會消失，\n但只要拍成照片，\n就隨時都能欣賞了呢……。",
      "USen": "Just look at that double rainbow...\nIf only I'd brought my paints with me.",
      "USes": "¿Ya viste el arcoíris doble?\nLástima que no traje conmigo\nmi cuaderno de dibujo.",
      "USfr": "Tu as vu ce double arc-en-ciel?\nAh, si seulement j'avais mon matériel\nde peinture..."
    }
  },
  {
    "label": "003_03",
    "attribute": "0x0000000000000000",
    "locale": {
      "CNzh": "同时出现了两道彩虹……\n这正是双重彩虹呢！\n今天的日记就决定写这件事了。。",
      "EUde": "Sieh nur... Gleich zwei Regenbogen!\nDas sollte ich in meinem Tagebuch\nvermerken!",
      "EUen": "Look... Two rainbows at once!\nI can't wait to write about this\ndouble rainbow in my journal!",
      "EUes": "¡Un arcoíris doble! Doble de colores,\ndoble de hermosura.",
      "EUfr": "Regarde... Deux arcs-en-ciel pour le\nprix d'un ! J'ai hâte de noter cet\névénement dans mon journal !",
      "EUit": "Guarda... Due arcobaleni in uno!\nQuesto arcobaleno doppio avrà una\nmenzione speciale nel mio diario.",
      "EUnl": "Kijk... Twee regenbogen tegelijk! Ik\nkan niet wachten om dit in mijn\ndagboek te schrijven!",
      "EUru": "Смотри... Сразу две радуги! Надо\nбудет про это в дневнике\nнаписать.",
      "JPja": "虹が　ふたつ・・・\nまさに　ダブルレインボー！\n今日の日記は　これで決まりですね、",
      "KRko": "무지개가 둘씩이나...\n말 그대로 쌍무지개로군요～\n오늘 일기는 이걸 써야겠어요, !",
      "TWzh": "彩虹有兩道……\n簡直就是雙彩虹！\n今天的日記就決定寫這件事囉，。",
      "USen": "Look... Two rainbows at once!\nI can't wait to write about this\ndouble rainbow in my journal!",
      "USes": "¡Un arcoíris doble! Doble de colores,\ndoble de hermosura.",
      "USfr": "Regarde... Deux arcs-en-ciel pour le\nprix d'un! J'ai hâte de noter cet\névénement dans mon journal!"
    }
  },
  {
    "label": "004",
    "attribute": "0x0000000000000000",
    "locale": {
      "CNzh": "",
      "EUde": "",
      "EUen": "",
      "EUes": "",
      "EUfr": "",
      "EUit": "",
      "EUnl": "",
      "EUru": "",
      "JPja": "",
      "KRko": "",
      "TWzh": "",
      "USen": "",
      "USes": "",
      "USfr": ""
    }
  },
  {
    "label": "004_01",
    "attribute": "0x0000000000000000",
    "locale": {
      "CNzh": "宛如高挂在冬日夜空中的薄纱……\n真想一直\n眺望着这极光呢！。",
      "EUde": "Wie ein bunter Schleier am\nNachthimmel... Das Polarlicht\nkönnte ich ewig lang betrachten.",
      "EUen": "Like a veil across the night sky...\nI could look at that aurora forever.",
      "EUes": "Podría observar la aurora\neternamente... Es como un velo\nque cubre el firmamento.",
      "EUfr": "On dirait un voile dans le ciel étoilé...\nJe pourrais passer la nuit entière à\nregarder une aurore .",
      "EUit": "Sembra un velo che avvolge il cielo...\nPotrei ammirare  per\nore...",
      "EUnl": "Net of er een sluier aan de hemel is\nopgehangen! Ah, het ...\nIk kan er wel naar blijven kijken.",
      "EUru": "Как будто вуаль в ночном небе...\nЦелую вечность любовалась бы.",
      "JPja": "まるで　冬の夜のベール・・・\nオーロラって　ずっと見てても\nあきないです、",
      "KRko": "말 그대로 겨울 밤의 베일...\n오로라는 아무리 보고 또 봐도\n눈을 뗄 수가 없어요～ !",
      "TWzh": "簡直就像冬夜的空中帷幕……\n這道極光……讓人真想一直看下去呢，。",
      "USen": "Like a veil across the night sky...\nI could look at that aurora forever.",
      "USes": "Podría observar la aurora\neternamente... Es como un velo\nque cubre el firmamento.",
      "USfr": "On dirait un voile dans le ciel étoilé...\nJe pourrais passer la nuit entière à\nregarder une aurore ."
    }
  },
  {
    "label": "004_02",
    "attribute": "0x0000000000000000",
    "locale": {
      "CNzh": "点缀冬日夜空的自然艺术……\n这幅光景实在太美丽了，\n令我深受感动！。",
      "EUde": "Das ist wie ein Kunstwerk, direkt\nan den Himmel gemalt... Fast zu\nschön, um real zu sein!",
      "EUen": "It's like art, painted across the sky...\nAlmost too beautiful to be real!",
      "EUes": "Es como si alguien hubiese pintado\nuna obra de arte en el cielo.\nQué bonita es la aurora...",
      "EUfr": "On dirait qu'un artiste a peint le\nciel... C'est presque trop beau pour\nêtre vrai !",
      "EUit": "Sembra un'opera d'arte dipinta\nnel cielo... Quasi troppo adorabile\nper essere vera!",
      "EUnl": "Het is net een schilderij in de lucht...\nBijna te mooi om waar te zijn!",
      "EUru": "Как картина, нарисованная в небе...\nНеземная красота!",
      "JPja": "冬の夜空をいろどる　自然の芸術・・・\nあまりにもキレイで\n感動しちゃいます！　",
      "KRko": "겨울 밤하늘을 수놓는 자연의 예술...\n너무 아름다워서 감동했어요! !",
      "TWzh": "妝點冬天夜空的自然藝術……\n實在太漂亮了，\n讓我好感動！。",
      "USen": "It's like art, painted across the sky...\nAlmost too beautiful to be real!",
      "USes": "Es como si alguien hubiese pintado\nuna obra de arte en el cielo.\nQué bonita es la aurora...",
      "USfr": "On dirait qu'un artiste a peint le\nciel... C'est presque trop beau pour\nêtre vrai!"
    }
  },
  {
    "label": "004_03",
    "attribute": "0x0000000000000000",
    "locale": {
      "CNzh": "虽然外面非常寒冷，但只要望着这极光，\n就感觉内心\n涌起了一股暖流呢～。",
      "EUde": "Draußen ist es kalt, doch wenn ich\ndas Polarlicht sehe, wärmt es mich\nvon innen.",
      "EUen": "It's cold outside, but looking at the\naurora warms me up on the inside.",
      "EUes": "Tendría que volver a casa, pero\nno puedo dejar de observar\nla belleza de la aurora.",
      "EUfr": "Il fait plutôt frais, mais regarder les\naurores , ça apporte un peu\nde chaleur.",
      "EUit": "Qui fuori fa freddo, ma ammirare\n mi scalda il cuore.",
      "EUnl": "Buiten is het koud, maar als ik het\n zie, word ik helemaal\nwarm vanbinnen.",
      "EUru": "На улице холодно, но полярное\nсияние греет мне душу.",
      "JPja": "外は寒いけど　オーロラを見ていると\n心が　温かくなるんですよね～、",
      "KRko": "밖은 무척 춥지만 오로라를 보고 있으니까\n마음이 따뜻해져요～ !",
      "TWzh": "外面雖然很冷，但只要看著極光，\n就覺得內心莫名溫暖起來呢～。",
      "USen": "It's cold outside, but looking at the\naurora warms me up on the inside.",
      "USes": "Debería volver ya a casa, pero\nno puedo parar de observar\nla belleza de la aurora.",
      "USfr": "Il fait plutôt frais, mais regarder les\naurores , ça apporte un peu\nde chaleur."
    }
  },
  {
    "label": "005",
    "attribute": "0x0000000000000000",
    "locale": {
      "CNzh": "",
      "EUde": "",
      "EUen": "",
      "EUes": "",
      "EUfr": "",
      "EUit": "",
      "EUnl": "",
      "EUru": "",
      "JPja": "",
      "KRko": "",
      "TWzh": "",
      "USen": "",
      "USes": "",
      "USfr": ""
    }
  },
  {
    "label": "005_01",
    "attribute": "0x0000000000000000",
    "locale": {
      "CNzh": "哇～是飞机云！\n那道轨迹是不是通往了\n我不曾踏足的岛屿呀？。",
      "EUde": "Sieh dir nur die Kondensstreifen an!\nOb man ihnen wohl an einen fernen,\nexotischen Ort folgen könnte?",
      "EUen": "Look at those vapor trails!\nI wonder if we could follow them\nto some faraway, exotic place?",
      "EUes": "¿Adónde nos llevaría ese rastro\nde humo si lo siguiéramos? Quizá\na un lugar lejano y exótico.",
      "EUfr": "Tu as vu les traînées de\ncondensation ? Je me demande à\nquelle île lointaine elles mènent.",
      "EUit": "Hai visto quella scia lasciata da\nun aereo? Chissà dov'è diretto...\nForse verso un luogo esotico!",
      "EUnl": "Moet je die vliegtuigsporen zien!\nZouden we ze kunnen volgen naar\neen of ander exotisch oord?",
      "EUru": "Смотри, след от самолета в небе!\nНаверное, он ведет в какую-то\nдалекую незнакомую страну...",
      "JPja": "わぁ～、飛行機雲！\nわたしの知らない島に\n行くのかしら？　",
      "KRko": "와아～ 비행운이에요!\n저 구름을 남긴 비행기는\n제가 모르는 섬으로 간 걸까요? ?",
      "TWzh": "哇啊～是飛機雲！\n它是不是要飛往我不知道的島呢？。",
      "USen": "Look at those vapor trails!\nI wonder if we could follow them\nto some faraway, exotic place?",
      "USes": "¿Adónde nos llevaría ese rastro\nde humo si lo siguiéramos? Quizá\na un lugar lejano y exótico.",
      "USfr": "Tu as vu les traînées de\ncondensation? Je me demande à\nquelle île lointaine elles mènent."
    }
  },
  {
    "label": "005_02",
    "attribute": "0x0000000000000000",
    "locale": {
      "CNzh": "请看！是飞机云哦！\n蔚蓝的天空中划过一道洁白的云彩……\n看着真令人神清气爽～。",
      "EUde": "Ein Flugzeug hat für uns\nKondensstreifen über den ganzen\nHimmel gemalt.",
      "EUen": "Some plane painted vapor trails all\nacross the sky as it passed over us.",
      "EUes": "Ha pasado un avión por aquí no\nhace mucho. ¿Adónde iría?",
      "EUfr": "Tu as vu ? Un avion a peint des\ntraînées de condensation dans le\nciel, en passant.",
      "EUit": "Un aereo ha lasciato una scia bianca\nnel cielo sopra di noi. Che meraviglia,\nn'est-ce pas?",
      "EUnl": "Een of ander vliegtuig heeft in het\nvoorbijgaan een vliegtuigspoor in\nde lucht geschilderd.",
      "EUru": "Самолет пролетел и разрисовал\nвсе небо белыми полосами.",
      "JPja": "見てください！　飛行機雲ですよ！\n青い空に　一筋の白い雲・・・\nすがすがしい　気持ちになりますね、",
      "KRko": "저기 보세요! 비행운이에요!\n파란 하늘에 한 줄기 하얀 구름...\n왠지 기분도 시원시원해져요～ !",
      "TWzh": "你看！是飛機雲喔！\n藍天中一道白色的雲……\n讓人覺得心情好舒暢喔～。",
      "USen": "Some plane painted vapor trails all\nacross the sky as it passed over us.",
      "USes": "Acaba de pasar un avión por aquí.\n¿Adónde irá?",
      "USfr": "Tu as vu? Un avion a peint des\ntraînées de condensation dans le\nciel, en passant."
    }
  },
  {
    "label": "005_03",
    "attribute": "0x0000000000000000",
    "locale": {
      "CNzh": "划过蓝天的飞机云……\n感觉能够以此为题\n写出一首很棒的诗歌呢！。",
      "EUde": "Ein Flugzeug, das weiße\nKondensstreifen an den blauen\nHimmel malt...\nDas inspiriert mich zu einem Gedicht.",
      "EUen": "An airplane trailing white, as it soars\nacross blue skies... Yeah, I think I'm\ninspired to write a poem about that.",
      "EUes": "Me resulta poético el rastro que\ndeja un avión al cruzar el cielo: es\ncomo si fuese un gran lienzo azul.",
      "EUfr": "Une traînée blanche déposée là-haut,\npar un étrange et métallique oiseau...\nChouette, je sens que je tiens un\ndébut de poème.",
      "EUit": "Una scia color del latte in un cielo\nturchino... Oh, mi è venuta voglia di\nscrivere una poesia su questo tema!",
      "EUnl": "Een eindeloos blauwe hemelrit, met\nin het kielzog een spoor van wit... Ik\nvoel een gedicht opkomen.",
      "EUru": "Белый след от самолета, голубые\nнебеса... Прямо стихи захотелось\nнаписать.",
      "JPja": "青い空を　かけていく飛行機雲・・・\n素敵なポエムが　できそう！　",
      "KRko": "파란 하늘에 걸쳐진 비행운...\n왠지 오늘은 멋진 시를\n쓸 수 있을 것 같아요! !",
      "TWzh": "劃過藍天的飛機雲……\n總覺得好像可以為它做首很棒的詩！。",
      "USen": "An airplane trailing white, as it soars\nacross blue skies... Yeah, I think I'm\ninspired to write a poem about that.",
      "USes": "Me resulta poético el rastro que\ndeja un avión al cruzar el cielo: es\ncomo si fuese un gran lienzo azul.",
      "USfr": "Une traînée blanche déposée là-haut,\npar un étrange et métallique oiseau...\nSuper, je sens que je tiens un\ndébut de poème."
    }
  },
  {
    "label": "006",
    "attribute": "0x0000000000000000",
    "locale": {
      "CNzh": "",
      "EUde": "",
      "EUen": "",
      "EUes": "",
      "EUfr": "",
      "EUit": "",
      "EUnl": "",
      "EUru": "",
      "JPja": "",
      "KRko": "",
      "TWzh": "",
      "USen": "",
      "USes": "",
      "USfr": ""
    }
  },
  {
    "label": "006_01",
    "attribute": "0x0000000000000000",
    "locale": {
      "CNzh": "满月的光景果然名不虚传～\n快看！\n月亮真是太漂亮了！。",
      "EUde": "Sieh dir nur den Vollmond an!\nEr scheint so hell und klar,\n(Floskel).",
      "EUen": "(catchphrase), look at that full moon!\nIt's so bright and clear up there.",
      "EUes": "¡Mira qué luna llena tan espléndida!\nParece un foco en el cielo\nde lo luminosa que es.",
      "EUfr": "Quelle magnifique pleine lune ! Tout\nest un peu magique, à la lumière\nd'un clair de lune, .",
      "EUit": "Oh, guarda che luna piena sublime!\nIl cielo è così nitido, (catchphrase)!",
      "EUnl": "(catchphrase), moet je die volle maan zien! Wat schijnt hij mooi helder.",
      "EUru": "(catchphrase)! Посмотри на луну!\nОна такая яркая и чистая!",
      "JPja": "さすが　満月ですね～\n見てください！\n月が　すごくキレイですよ！　",
      "KRko": "역시 보름달이네요～\n저기 보세요!\n달이 정말 예쁘답니다! !",
      "TWzh": "真不愧是滿月呢～\n你看！\n月亮真的好漂亮喔！。",
      "USen": "(catchphrase), look at that full moon!\nIt's so bright and clear up there.",
      "USes": "¡Mira qué luna llena tan espléndida!\nParece un foco en el cielo\nde lo luminosa que es.",
      "USfr": "Quelle magnifique pleine lune! Tout\nest un peu magique, à la lumière\nd'un clair de lune, ."
    }
  },
  {
    "label": "006_02",
    "attribute": "0x0000000000000000",
    "locale": {
      "CNzh": "像这样沐浴着月光，\n就感觉整个人都神清气爽呢。\n真是不可思议。。",
      "EUde": "Im silbrigen Mondlicht wirkt die\nganze Insel völlig anders. Richtig\nmagisch!",
      "EUen": "The island looks so different in all\nthis silvery moonlight. It's magical!",
      "EUes": "La isla se ve distinta cuando\nes bañada por la luz plateada\nde la luna llena.",
      "EUfr": "L'île semble différente, baignée\ndans la lumière argentée de la lune,\n !",
      "EUit": "La nostra isola sembra diversa\nnella luce argentea della luna.\nDavvero magica, n'est-ce pas?",
      "EUnl": "In het zilveren maanlicht ziet het\neiland er zo anders uit. Echt\nmagisch!",
      "EUru": "В серебристом свете луны остров\nкажется совсем другим.\nВолшебство, да и только!",
      "JPja": "こうして　月光浴をしていると\nなんだか　気持ちが　スッキリするんです\n不思議ですね、",
      "KRko": "이렇게 달빛을 받고 있으면\n왠지 마음도 개운해지니까\n참 신기하죠? ?",
      "TWzh": "像這樣沐浴在月光下，\n就覺得心情都輕鬆了起來！\n真是不可思議呢，。",
      "USen": "The island looks so different in all\nthis silvery moonlight. It's magical!",
      "USes": "La isla se ve distinta cuando\nes bañada por la luz plateada\nde la luna llena.",
      "USfr": "L'île semble différente, baignée dans\nla lumière argentée de la lune,\n!"
    }
  },
  {
    "label": "006_03",
    "attribute": "0x0000000000000000",
    "locale": {
      "CNzh": "月亮太美了，我都忍不住看入迷了呢。\n那圆润柔和的月光……\n让人感觉心灵都得到了洗涤。。",
      "EUde": "Ich hatte ganz vergessen, wie schön\nder Vollmond ist – bis jetzt, da er\nwieder scheint, (Floskel)!",
      "EUen": "Every month, I forget how pretty\nthe full moon is until it comes\nback again to shine on us.",
      "EUes": "Dicen que la luz de la luna llena\nes muy poderosa. Nos da energía\ny limpia el aura.",
      "EUfr": "J'oublie souvent à quel point le\nspectacle de la pleine lune est\nunique en son genre, .",
      "EUit": "Spesso mi dimentico quanto sia bella\nla luce della luna. Poi la rivedo... e mi\nstupisce ogni volta!",
      "EUnl": "Ik vergeet altijd hoe mooi de volle\nmaan is, tot ik hem weer zie schijnen.",
      "EUru": "Полная луна каждый раз поражает\nменя своей красотой.",
      "JPja": "月が美しくって　ついつい見入っちゃいます\nま～るくて　やわらかい光・・・\n心が　洗われますね、",
      "KRko": "달이 아름다워서 무심코 계속 쳐다보네요!\n둥～그렇고 부드러운 빛...\n마음이 씻겨 나가는 것 같아요, !",
      "TWzh": "月亮好美，讓我忍不住看得入迷了。\n它那圓又溫潤的光芒……\n讓心靈都受到洗滌了呢，。",
      "USen": "Every month, I forget how pretty\nthe full moon is until it comes\nback again to shine on us.",
      "USes": "Dicen que la luz de la luna llena\nes muy poderosa. Nos da energía\ny limpia el aura.",
      "USfr": "J'oublie souvent à quel point le\nspectacle de la pleine lune est\nunique en son genre, ."
    }
  }
]