﻿[
  {
    "label": "100",
    "attribute": "0x0000000000000000",
    "locale": {
      "CNzh": "\n吃了我做的点心之后，\n非常地开心哦！\n听到别人说“很好吃！”，\n会让我觉得特别有动力呢！。",
      "EUde": " hat sich unheim-\nlich über meine Süßigkeiten gefreut!\nWenn ich so was höre, koche ich\ngleich noch viel lieber!",
      "EUen": "I got the best compliment a chef can\nget from ...\nHe ate everything I made for him!",
      "EUes": " se ha comido\ntodas las galletas que he hecho.\nMe encanta cocinar para \nporque se nota que disfruta\ncomiendo.",
      "EUfr": " m'a dit qu'il avait adoré les gâteaux que je lui ai faits !\nC'est le genre de compliments qu'on\nne se lasse jamais d'entendre.",
      "EUit": " mi ha detto di aver adooorato i dolcetti che avevo preparato per !\nChe bello quando mi dicono che\nsono brava a cucinare!",
      "EUnl": " heeft al mijn zelfgemaakte lekkers opgesmuld!\nHet was fijn om hem zo te zien genieten.",
      "EUru": " с удовольствием\nсъел все печенье, которое\nя испекла.\nМне было очень приятно слышать,\nкак он хвалит мою выпечку.",
      "JPja": "が\nわたしが作った　お菓子を食べて\nすっごく　喜んでくれたんです！\n「おいしい！」って　言ってもらえると\n作りがいが　ありますね！　",
      "KRko": "님이\n제가 구운 과자를 드시고\n엄～청 기뻐하셨어요!\n맛있다고도 말씀해주셔서\n만든 보람을 느꼈답니다! !",
      "TWzh": "\n吃了我做的點心，\n結果他非常喜歡喔！\n只要能聽到有人說句「好吃！」的話，\n這些努力就值得了呢！。",
      "USen": "I got the best compliment a chef can\nget from ...\nHe ate everything I made for him!",
      "USes": " se comió todas\nlas galletas que hice.\nMe encanta cocinar para \nporque se nota que le gusta\nmucho comer.",
      "USfr": " m'a dit qu'il avait adoré les gâteaux que je lui ai faits!\nC'est le genre de compliments qu'on\nne se lasse jamais d'entendre."
    }
  },
  {
    "label": "101",
    "attribute": "0x0000000000000000",
    "locale": {
      "CNzh": "\n夸奖了我今天\n衣服的搭配哦！\n我本来就很喜欢这套衣服，\n现在更加爱不释手了！。",
      "EUde": " hat meine Klei-\nderwahl gelobt! Die Sachen werde\nich in Zukunft noch öfter tragen!",
      "EUen": "I was proud of this outfit even before\n raved about it!",
      "EUes": " me ha dicho\nque le gusta la ropa que llevo hoy.\nEs de mis prendas preferidas, pero\nahora lo será incluso con más razón.",
      "EUfr": " m'a dit que j'ai la classe aujourd'hui !\nC'est ma tenue préférée. Si je\nm'écoutais, je m'habillerais\ncomme ça tous les jours.",
      "EUit": "Oggi  mi ha fatto i complimenti per come ero vestita!\nGià era una delle mie mise preferite,\nadesso la adoooro!",
      "EUnl": " bewonderde net mijn outfit! Die was al een favoriet, maar nu draag ik hem nog liever!",
      "EUru": "Сегодня  похвалил\nмой наряд!\nТеперь я эту одежду буду носить\nеще чаще.",
      "JPja": "が\n今日のコーディネートを\nほめてくれたんです！\nもともと　お気に入りの服なんですけど\nもっと好きに　なっちゃいました！　",
      "KRko": "님이\n오늘 제 코디를 칭찬해주셨어요!\n원래 좋아하던 옷인데\n더 좋아졌지 뭐예요! !",
      "TWzh": "話說\n可是稱讚了\n我今天的穿搭喔！\n這本來就是我很喜歡的衣服，\n不過現在我又更喜歡了！。",
      "USen": "I was proud of this outfit even before\n raved about it!",
      "USes": " me dijo que\nle gusta la ropa que llevo hoy.\nEs de mis prendas preferidas, pero\nahora lo será con mayor razón.",
      "USfr": " m'a dit que j'ai l'air jolie aujourd'hui!\nC'est ma tenue préférée. Si je\nm'écoutais, je m'habillerais\ncomme ça tous les jours."
    }
  },
  {
    "label": "102",
    "attribute": "0x0000000000000000",
    "locale": {
      "CNzh": "我刚才还在\n和\n谈论除草的乐趣呢！\n看着房子的四周还有那些空地\n慢慢变得整洁起来，\n感觉非常舒心呢。。",
      "EUde": "Ich habe eben \ndavon erzählt, wie viel Spaß mir\ndas Unkrautjäten macht!\nDen ganzen Garten von Unkraut\nbefreit zu haben ist einfach\nunglaublich befriedigend!",
      "EUen": "I was just telling \nabout the joy I get\nfrom weeding!\nLooking around myself after I've\npulled up every weed in sight is\njust... Well, it's just so satisfying!",
      "EUes": "He tenido una conversación\nmaravillosa sobre arrancar hierbajos\ncon .\nA mí me encanta lo limpia que queda\nuna zona después de quitarle todas\nlas malas hierbas...\n¡Es tan gratificante!",
      "EUfr": "J'ai discuté désherbage avec , je lui ai raconté toute la joie que ça me procure.\nArracher toutes les mauvaises\nherbes jusqu'à la dernière me\ndéfoule à un point...",
      "EUit": "Stavo dicendo   che gioia mi dà togliere le erbacce!\nÈ così gratificante ammirare un'area\ncompletamente libera dalle piante\ninfestanti!",
      "EUnl": "Ik vertelde net  hoeveel ik hou van onkruid wieden!\nOm naar een stuk land te kijken dat\nik onkruidvrij heb gemaakt is zo'n\nfijn gevoel!",
      "EUru": "Я только что рассказывала\n, что я очень люблю\nполоть сорняки.\nКогда я смотрю вокруг себя и не\nвижу ни одного сорняка, у меня\nсердце от радости поет!",
      "JPja": "さっきまで　と\n草むしりの楽しさについて\n語り合ってたんです！\n家の周りとか　空き地が\nどんどんキレイに　なっていくのは\n見ていて　気持ちがいいんですよね、",
      "KRko": "방금 전까지 님과\n잡초 뽑는 즐거움에 대해서\n이야기를 나눴어요!\n집 주변이나 빈 땅이\n점점 깨끗해지면\n보는 사람도 기분 좋잖아요! !",
      "TWzh": "剛剛我都在\n跟\n討論除草的樂趣呢！\n像是在自己家周圍，\n如果看到有空地慢慢變乾淨，\n就會讓人覺得心情很好呢，。",
      "USen": "I was just telling \nabout the joy I get\nfrom weeding!\nLooking around myself after I've\npulled up every weed in sight is\njust... Well, it's just so satisfying!",
      "USes": "Tuve una conversación maravillosa\nsobre arrancar maleza con .\nA mí me encanta lo limpia que queda\nuna zona después de quitarle todas\nlas malas hierbas...\n¡Es tan gratificante!",
      "USfr": "J'ai discuté désherbage avec , je lui ai raconté toute la joie que ça me procure.\nArracher toutes les mauvaises\nherbes jusqu'à la dernière me\ndéfoule à un point..."
    }
  },
  {
    "label": "200",
    "attribute": "0x0000000000000000",
    "locale": {
      "CNzh": "我现在感觉好像\n和彼此心意相通了。\n我们今后一定能够成为\n更～加要好的朋友！。",
      "EUde": "Ich hab das Gefühl, wir beide liegen\ngenau auf einer Wellenlänge.\nWir sind wie füreinander gemacht!",
      "EUen": "Right now, I just feel like we really\nunderstand each other. And that's\nonly going to get better with time!",
      "EUes": "Ahora mismo siento que tú y yo\nnos entendemos a la perfección.\nPuede que seamos almas gemelas.",
      "EUfr": "Tu sais, j'ai l'impression qu'on se\ncomprend vraiment toi et moi.\nComme si on était des âmes sœurs...",
      "EUit": "In questo momento mi sembra che\nci capiamo alla perfezione. La nostra\naffinità non può che aumentare!",
      "EUnl": "Weet je, ik heb het gevoel dat we\nelkaar nu echt beter begrijpen. En\nzo blijft onze vriendschap groeien!",
      "EUru": "У меня такое ощущение, что мы\nдействительно понимаем друг\nдруга.\nИ это взаимопонимание будет\nтолько расти с каждым днем.",
      "JPja": "今、と\nわかり合えたような、そんな気がします\nわたしたち、これから　もっともっと\n仲良くなれると　思うんです！　",
      "KRko": "지금 님과\n마음이 통했다는 느낌을 받았어요!\n우린 앞으로 더 많이\n친해질 것 같아요! !",
      "TWzh": "，我覺得我現在\n好像和你心靈相通了呢。\n我想我們以後\n一定會變得更加要好喔！。",
      "USen": "Right now, I just feel like we really\nunderstand each other. And that's\nonly going to get better with time!",
      "USes": "Ahora mismo siento que tú y yo\nnos entendemos a la perfección.\nPuede que seamos almas gemelas.",
      "USfr": "Tu sais, j'ai l'impression qu'on se\ncomprend vraiment, toi et moi.\nComme si on était des âmes sœurs..."
    }
  },
  {
    "label": "201",
    "attribute": "0x0000000000000000",
    "locale": {
      "CNzh": "感觉就像是和\n彼此心意相通了一样，\n我现在非常开心！\n我一定不会\n忘记今天发生的事情的！。",
      "EUde": "Dass wir beide uns so gut verstehen\nmacht mich wirklich glücklich,\n(Spitzname)!\nDiese Harmonie zwischen uns...\nSo etwas habe ich selten erlebt!",
      "EUen": "I'm so happy right now because\nI feel like you and I are on the\nsame page, (nickname)!\nI don't think I've ever felt as \nunderstood as feel l right now!",
      "EUes": "Estoy muy contenta de ver que\nnos entendemos tan bien, bichín.\nCreo que no he compartido una\nconexión tan fuerte con nadie más.",
      "EUfr": "Je suis si contente de te connaître,\n(surnom) ! On est vraiment sur la même longueur d'ondes.\nJe ne m'étais jamais sentie aussi\nbien avec quelqu'un !",
      "EUit": "Sono così feliiice adesso! Noi due\nabbiamo una grandissimissima\nsintonia, (nickname)!\nNon credo di essermi mai sentita\ntanto compresa come adesso!",
      "EUnl": "Ik ben zo blij dat we er allebei hetzelfde over denken, (nickname)!\nIk denk niet dat iemand me ooit zo\ngoed heeft begrepen!",
      "EUru": "(nickname), я так счастлива,\nчто мы с тобой на одной волне!\nТы меня понимаешь как никто\nдругой!",
      "JPja": "と\nわかり合えたような気がして、\n今　とってもうれしいんです！\nわたし、今日のことは\n忘れられそうに　ありません！　",
      "KRko": "님과\n서로를 이해하게 된 것 같아서\n정말 기쁘답니다!\n저요, 오늘 일은\n절대 잊지 못할 거예요! !",
      "TWzh": "，\n我覺得自己好像和你心靈相通了，\n現在真的好開心喔！\n我絕對不會忘記\n今天這種感覺的！。",
      "USen": "I'm so happy right now because\nI feel like you and I are on the\nsame page, (nickname)!\nI don't think I've ever felt as \nunderstood as feel l right now!",
      "USes": "Estoy muy contenta de ver que\nnos entendemos tan bien, calabacita.\nCreo que no había compartido una\nconexión tan fuerte con nadie más.",
      "USfr": "Je suis si contente de te connaître,\n(surnom)! On est vraiment sur la même longueur d'onde.\nJe ne m'étais jamais sentie aussi\nbien avec quelqu'un!"
    }
  },
  {
    "label": "202",
    "attribute": "0x0000000000000000",
    "locale": {
      "CNzh": "多亏了，\n我感觉发现了自己新的一面。\n这都要归功于你呢，\n，谢谢你！。",
      "EUde": "Du hast mir geholfen, eine ganz neue\nSeite an mir kennenzulernen!\nDafür werde ich dir immer dankbar\nsein, (Spitzname)!",
      "EUen": "You've helped me discover a new \nside of myself, (nickname)!\nI'll always be grateful to you for that.",
      "EUes": "Tú me has ayudado a descubrir\nuna parte de mí que desconocía,\n(nickname).\nSiempre te estaré agradecida\npor ayudarme a crecer.",
      "EUfr": "Tu sais que tu m'as permis de\ndécouvrir un aspect de moi-même\ndont j'ignorais tout ?\nJe ne te remercierai jamais assez\npour ça, (surnom).",
      "EUit": "Mi hai aiutata a scoprire un nuovo\nlato del mio carattere. Te ne sarò\neternamente grata.",
      "EUnl": "Met jouw hulp heb ik een nieuwe kant van mezelf ontdekt, (nickname)!\nDaar zal ik je altijd dankbaar voor\nzijn.",
      "EUru": "(nickname), ты помог мне\nоткрыть в себе новую сторону.\nЗа это я буду всегда тебе\nблагодарна.",
      "JPja": "のおかげで\n新しい自分に　出会えた気がします\nこれはもう、\nに\n感謝ですね！　",
      "KRko": "님 덕분에\n새로운 저를 알게 된 기분이에요!\n이건 정말이지,\n님에게\n감사드릴 수밖에 없네요! !",
      "TWzh": "多虧有，\n我覺得我發現了嶄新的自己！\n，\n這都要感謝你呢！。",
      "USen": "You've helped me discover a new \nside of myself, (nickname)!\nI'll always be grateful to you for that.",
      "USes": "Me ayudaste a descubrir una parte\nde mí que desconocía, (nickname).\nSiempre te estaré agradecida\npor ayudarme a crecer.",
      "USfr": "Tu sais que tu m'as permis de\ndécouvrir un aspect de moi-même\ndont j'ignorais tout?\nJe ne te remercierai jamais assez\npour ça, (surnom)."
    }
  }
]