﻿[
  {
    "label": "001",
    "attribute": "0x0000000000000000",
    "locale": {
      "CNzh": "要是被一群恐爪龙围住的话，\n该怎么办呀……\n看那尖锐的利爪！呜……",
      "EUde": "Man stelle sich nur einmal vor, von\neinem Deinonychus wie diesem\nangegriffen zu werden...\nDiese scharfen Klauen machen mir\nAngst!",
      "EUen": "Imagine being attacked by\na Deinonychus like this...\nThose sharp claws are scary!",
      "EUes": "Qué miedo que te persiguiera\nun deinonico de estos...\n¡Esas zarpas están muy afiladas!",
      "EUfr": "J'aimerais pas faire un face-à-face\navec un déinonychus... Tu as vu ses\ngriffes ?",
      "EUit": "Immagina di venire attaccato da\nun deinonico come questo... Che\npaura quegli artigli così affilati!",
      "EUnl": "Stel je voor dat je wordt aangevallen\ndoor een deinonychus... Wat een\nangstaanjagende scherpe klauwen!",
      "EUru": "Представляешь, как страшно, если\nтакой дейноних за тобой гонится...\nКакие у него острые когти!",
      "JPja": "ディノニクスが　集団で　囲んできたら\nどうしましょう・・・\nするどい　かぎヅメが！　うぅ・・・",
      "KRko": "데이노니쿠스가 무리 지어서 접근하면\n어떻게 하죠...?\n날카로운 발톱에! 으윽...",
      "TWzh": "如果被一大批恐爪龍包圍住\n該怎麼辦呀……\n它尖銳的鉤爪……！嗚嗚……",
      "USen": "Imagine being attacked by\na Deinonychus like this...\nThose sharp claws are scary!",
      "USes": "Qué miedo que te persiguiera\nun deinonico de estos...\n¡Esas garras se ven muy afiladas!",
      "USfr": "J'aimerais pas faire un face-à-face\navec un deinonychus... Tu as vu ses\ngriffes?"
    }
  },
  {
    "label": "002",
    "attribute": "0x0000000000000000",
    "locale": {
      "CNzh": "大角鹿群聚在一起的时候，\n它们的犄角不会互相撞在一起吗？\n真令人好奇啊～。",
      "EUde": "Ob dieser Riesenhirsch wohl mit\ndem Geweih in den Bäumen hängen\nblieb, wenn er durch den Wald lief?",
      "EUen": "I wonder if this Megaloceros would\nget its antlers snagged on trees if\nit tried to run through the woods?",
      "EUes": "Qué cuernos tan majestuosos tenía\neste megaloceros...\n¿Se le engancharían en los árboles\nal pasear por el bosque? Pobrecito.",
      "EUfr": "Ça doit être un cauchemar d'avoir\ndes bois aussi gros. Enfin, quand on\na pas le choix...",
      "EUit": "Le corna di questo megalocero sono\nmaestose! Chissà se nella vita di tutti\ni giorni gli davano problemi...",
      "EUnl": "Zou dit reuzenhert weleens met\nzijn gewei in een boom vast zijn\nkomen te zitten?",
      "EUru": "Интересно, когда этот гигантский\nолень бежит по лесу, у него рога\nза ветки не цепляются?",
      "JPja": "メガロケロスは　群れになった時に\nツノが　ぶつかり合わないのかしら？\n気になるなぁ～、",
      "KRko": "메갈로케로스는 여럿이 모이면\n뿔이 서로 부딪혀서 불편하지 않을까요?\n조금 궁금하네요～ ～",
      "TWzh": "大角鹿群聚在一起的時候，\n頭上的角難道都不會互相撞到嗎？\n真讓人在意啊～。",
      "USen": "I wonder if this Megaloceros would\nget its antlers snagged on trees if\nit tried to run through the woods?",
      "USes": "Qué cuernos tan majestuosos tenía\neste megaloceros...\n¿Se le engancharían en los árboles\nal pasear por el bosque? Pobrecito.",
      "USfr": "Ça doit être un cauchemar d'avoir\ndes bois aussi gros. Enfin, quand on\nn'a pas le choix..."
    }
  },
  {
    "label": "003",
    "attribute": "0x0000000000000000",
    "locale": {
      "CNzh": "这种生物要是飞到头顶上，\n肯定会把天空都遮住了……\n不过说不定可以用来躲雨呢！。",
      "EUde": "Ich bin so froh, dass von denen\nheutzutage keine mehr herumfliegen.",
      "EUen": "I'm glad we don't have any of these\nflying around overhead these days.",
      "EUes": "Me alegro de que ya no tengamos\nestos bichos volando por encima\nde nuestras cabezas.",
      "EUfr": "Imagine, si tu apercevais un oiseau\ncomme lui au-dessus de ta tête ?!",
      "EUit": "Sono sollevata all'idea che al giorno\nd'oggi animaletti così non volino più\nsopra le nostre testoline!",
      "EUnl": "Ik ben blij dat deze tegenwoordig\nniet meer rondvliegen.",
      "EUru": "Хорошо, что сейчас такое не летает\nу нас над головой.",
      "JPja": "こんなのが　飛んできたら\n空が　かくれちゃいますね・・・\nでも　雨よけになるかも！　",
      "KRko": "이런 공룡이 날아오면\n하늘이 전부 덮이겠죠...?\n그래도 비는 피할 수 있겠어요! !",
      "TWzh": "要是有這麼大的生物飛過來，\n天空都要被遮住了……\n不過，也許可以用來躲雨呢！。",
      "USen": "I'm glad we don't have any of these\nflying around overhead these days.",
      "USes": "Me alegro de que ya no tengamos\nestos insectos volando por encima\nde nuestras cabezas...",
      "USfr": "Imagine si tu apercevais un oiseau\ncomme lui au-dessus de ta tête..."
    }
  },
  {
    "label": "004",
    "attribute": "0x0000000000000000",
    "locale": {
      "CNzh": "想象了一下\n被暴龙追赶的场景……\n呜，肯定无法顺利逃脱。。",
      "EUde": "Ganz ehrlich... Einem T-Rex könnte\nich wohl nicht davonlaufen, wenn er\nmich verfolgen würde, nicht wahr?",
      "EUen": "Be honest... I wouldn't be able\nto outrun a T. Rex if it started\nchasing after me, would I?",
      "EUes": "¿Podría escapar de un tiranosaurio\nsi me persiguiera? ¡Menos mal que\nya no puedo comprobarlo!",
      "EUfr": "Soyons francs... Le tyrannosaure est\npas le genre d'animal qu'on a envie\nd'avoir pour voisin !",
      "EUit": "Dimmi la verità... Saresti in grado\ndi seminare un tirannosauro, se ti\nrincorresse? Io no, !",
      "EUnl": "Zeg eens eerlijk... Heb ik een schijn\nvan kans tegen een tyrannosaurus\nrex als hij achter me aankomt?",
      "EUru": "Если честно... я бы не смогла\nубежать от тираннозавра, если\nбы он за мной погнался.",
      "JPja": "Tレックスに　追いかけられたら・・・\nうぅ、うまく逃げられる\n想像ができません、",
      "KRko": "만약 티렉스에게 쫓긴다면...\n으으, 도저히 도망칠\n자신이 없어요! !",
      "TWzh": "如果我被暴龍追著跑的話……\n嗚嗚，實在無法想像\n自己能平安逃脫！。",
      "USen": "Be honest... I wouldn't be able\nto outrun a T. Rex if it started\nchasing after me, would I?",
      "USes": "¿Podría escapar de un tiranosaurio\nsi me persiguiera? ¡Menos mal que\nya no puedo comprobarlo!",
      "USfr": "Soyons francs... Le tyrannosaure est\npas le genre d'animal qu'on a envie\nd'avoir pour voisin!"
    }
  },
  {
    "label": "005",
    "attribute": "0x0000000000000000",
    "locale": {
      "CNzh": "如果剑龙还活着的话……\n我真想摸摸它背上的骨板，\n试试是什么感觉呢。。",
      "EUde": "Man weiß nicht genau, warum sie\ndiese Platten auf dem Rücken hatten.\nVielleicht, um gut auszusehen.\nMir gefällt der Gedanke von einem\nDinosaurier, dem so viel an seinem\nAussehen gelegen ist!",
      "EUen": "They don't really know why it had\nthose plates on its back, but I like\nthe idea that they were for show.\nI think it's funny to think\nthat there might have been\na show-off dinosaur!",
      "EUes": "¿Ves las placas que tiene en\nla espalda ese estegosaurio? Pues\naún no se sabe para qué servían.\nA mí me gusta creer que fueron\nlos primeros punkis de la historia.",
      "EUfr": "Personne ne sait à quoi servaient\nles plaques sur le dos du stégosaure,\nmais j'ai ma théorie.\nJe pense qu'à une époque, c'était\ntout simplement la mode.",
      "EUit": "Vedi tutte quelle piastre sul dorso\ndello stegosauro? Bien, nessuno\nsa a cosa servissero.\nA me piace pensare che fossero\ni primi dinosauri punk della storia.",
      "EUnl": "Niemand weet waarom hij die platen\nop zijn rug had, maar ik hoop dat ze\nvoor de show waren.\nIk vind het een leuk idee dat deze\ndinosaurus een beetje een uitslover\nwas!",
      "EUru": "Неизвестно, зачем им эти пластины,\nно мне нравится теория, что они\nпросто для красоты.\nСмешно думать, что существовал\nдинозавр-модник.",
      "JPja": "ステゴサウルスが　生きていたら・・・\n背中の板を　ムニムニ触って\n感触を　確かめたいなぁ、",
      "KRko": "스테고사우루스가 살아 있다면...\n등에 난 골판을 조물조물 만지면서\n감촉을 확인하고 싶어요! !",
      "TWzh": "要是劍龍還活著的話……\n真想捏捏那背上的骨板，\n確認一下觸感呢！。",
      "USen": "They don't really know why it had\nthose plates on its back, but I like\nthe idea that they were for show.\nI think it's funny to think\nthat there might have been\na show-off dinosaur!",
      "USes": "¿Ves las placas que tiene en la\nespalda ese estegosaurio? Pues aún\nno se sabe para qué servían.\n¡Yo creo que fueron los primeros\npunks de la historia!",
      "USfr": "Personne ne sait à quoi servaient\nles plaques sur le dos du stégosaure,\nmais j'ai ma théorie.\nJe pense qu'à une époque, c'était\ntout simplement la mode."
    }
  },
  {
    "label": "006",
    "attribute": "0x0000000000000000",
    "locale": {
      "CNzh": "腕龙的体型如此巨大，\n食量一定也很惊人吧～\n这座上的食物\n恐怕无法维持它的生活呢……。",
      "EUde": "Dieser Brachiosaurus war ja riesig!\nEr muss richtig viel Nahrung\ngebraucht haben!\nBei dem Gedanken, ihn füttern zu\nmüssen, schaudert es mich direkt.",
      "EUen": "The Brachiosaurus was huge! It must\nhave had to eat tons of food! I don't\nthink I'd want to have to feed one.",
      "EUes": "¡Ese braquiosaurio es enorme!\nDebía de comer toneladas de\nhojas...\nTener a uno de mascota sería\nla ruina.",
      "EUfr": "Ce brachiosaure me donne le\nvertige ! Je me demande s'il avait\nconscience de sa taille...",
      "EUit": "Il brachiosauro era enorme! Doveva\nmangiare tantissimissimissimo...\nAverne uno come animale da\ncompagnia sarebbe una rovina!",
      "EUnl": "De brachiosaurus was enorm! Wat zal\ndie veel gegeten hebben! Blij dat ik\nhem niet hoef te voeren.",
      "EUru": "Брахиозавр такой огромный!\nНаверное, он постоянно ел!\nТакого не прокормишь.",
      "JPja": "ブラキオサウルスは　大きいから\n食べる量も　すごかったんでしょうね～\nこのの大きさじゃ\n生活できないかも・・・、",
      "KRko": "브라키오사우루스는 몸이 거대하니까\n먹는 양도 어마어마했겠어요～\n이 만한 크기에서는\n살 수 없었을 것 같아요, !",
      "TWzh": "腕龍的體型很大，\n想必食量一定也很驚人吧～\n以這座島的大小來說，\n食物可能不夠它吃呢……。",
      "USen": "The Brachiosaurus was huge! It must\nhave had to eat tons of food! I don't\nthink I'd want to have to feed one.",
      "USes": "¡Ese braquiosaurio es enorme!\nDebía de comer toneladas de\nhojas...\nTener a uno de mascota sería\nla ruina...",
      "USfr": "Ce brachiosaure me donne le\nvertige! Je me demande s'il avait\nconscience de sa taille..."
    }
  },
  {
    "label": "007",
    "attribute": "0x0000000000000000",
    "locale": {
      "CNzh": "如果长毛象现在还活着的话，\n会不会让我摸摸它的毛呀？。",
      "EUde": "Wenn es noch Mammuts gäbe,\nmeinst du, sie hätten etwas dagegen,\nwenn wir ihr Fell streicheln wollten?",
      "EUen": "If Mammoths were still around, do\nyou think they'd mind if we wanted\nto find out what their fur felt like?",
      "EUes": "Siempre me ha fascinado el pelo\nque tenían los mamuts.\n¡Seguro que era de lo más suave!",
      "EUfr": "Tu crois que les mammouths avaient\nle poil doux ? Je suppose qu'on ne\nle saura jamais...",
      "EUit": "Un mammut... Il loro pelo mi ha\nsempre affascinata tantissimissimo.\nDoveva essere très morbido!",
      "EUnl": "Als we nu nog mammoeten hadden,\nzouden we dan hun pels mogen\naaien, denk je?",
      "EUru": "Если бы мамонты еще жили\nв наше время, они давали\nбы себя погладить?",
      "JPja": "マンモスが　今も生きていたら\nモフモフさせてくれるかしら？　",
      "KRko": "매머드가 지금 살아 있다면\n푹신한 털을 만져보고 싶어요, !",
      "TWzh": "如果長毛象現在還活著的話，\n會不會讓我摸摸身上的毛呀？。",
      "USen": "If Mammoths were still around, do\nyou think they'd mind if we wanted\nto find out what their fur felt like?",
      "USes": "Siempre me ha fascinado el pelo\nque tenían los mamuts.\n¡Seguro que era de lo más suave!",
      "USfr": "Tu crois que les mammouths avaient\nle poil doux? Je suppose qu'on ne\nle saura jamais..."
    }
  },
  {
    "label": "008",
    "attribute": "0x0000000000000000",
    "locale": {
      "CNzh": "奇虾游泳的时候\n到底是什么样子的呀？\n我非常感兴趣。。",
      "EUde": "Die Ozeane müssen ein seltsamer\nOrt gewesen sein, als Kreaturen wie\ndiese darin geschwommen sind.",
      "EUen": "The oceans must have been so\nstrange when creatures like this\nwere still around to swim in them.",
      "EUes": "El anomalocaris fue uno de los\ngrandes depredadores del mar.\nDebía de ser difícil darse un baño\nen esa época.",
      "EUfr": "Dire qu'à une époque, on pouvait\ncroiser ces petites bêtes dans la\nmer...",
      "EUit": "L'anomalocaride era uno dei grandi\npredatori del mare.\nDoveva essere très difficile farsi un\nbagno a quell'epoca.",
      "EUnl": "Wat moeten de zeeën er vreemd\nuitgezien hebben met al die wezens\ndie erin rondzwommen.",
      "EUru": "Наверное, искупаться в океане\nбыло непросто, когда там\nтакое плавало.",
      "JPja": "アノマロカリスは\nどんな風に　泳いでたのかしら？\nすごく　興味あるなぁ、",
      "KRko": "아노말로카리스는\n어떤 식으로 헤엄쳤을까요?\n정말 궁금해요! !",
      "TWzh": "奇蝦游泳的時候會是什麼樣子呢？\n我真的很好奇耶！。",
      "USen": "The oceans must have been so\nstrange when creatures like this\nwere still around to swim in them.",
      "USes": "El anomalocaris fue uno de los\ngrandes depredadores del mar.\nSi yo hubiera vivido en esas épocas,\nhabría evitado ir a la playa...",
      "USfr": "Dire qu'à une époque, on pouvait\ncroiser ces petites bêtes dans la\nmer..."
    }
  },
  {
    "label": "009",
    "attribute": "0x0000000000000000",
    "locale": {
      "CNzh": "虽然我听说\n新翼鱼的鱼鳍非常强壮……\n但只看骨头实在是难以想象呢。。",
      "EUde": "Ich habe gelesen, dass die Flossen\neines Eusthenopteron fast stark\ngenug waren, um darauf zu laufen.",
      "EUen": "I've read that the eusthenopteron\nhad fins that were almost sturdy\nenough to walk with up on land.",
      "EUes": "Esto es un eustenopteron. He leído\nque tenía unas aletas tan fuertes que\nhasta podía andar con ellas.",
      "EUfr": "Les nageoires de l'eusthénoptéron\nétaient très robustes, à ce qu'on dit.",
      "EUit": "Questo è un eustenottero. Ho letto\nche aveva pinne tanto dure e forti\nda poterle usare per camminare.",
      "EUnl": "Ik las ergens dat de eusthenopteron\nzulke sterke vinnen had dat hij er\nbijna mee kon lopen.",
      "EUru": "Я читала, что у этих рыб были такие\nтвердые плавники, что на них\nможно было ходить.",
      "JPja": "ユーステノプテロンの　ヒレは\nたくましかったと　きいてるけど・・・\n骨だけだと　想像が難しいなぁ、",
      "KRko": "에우스테놉테론의 지느러미는\n억세다는 이야기를 들었는데요...\n뼈만 보고는 상상이 안 되네요, !",
      "TWzh": "聽說新翼魚的魚鰭\n非常強壯……\n但只看骨頭的話，還真難想像呢，。",
      "USen": "I've read that the eusthenopteron\nhad fins that were almost sturdy\nenough to walk with up on land.",
      "USes": "Esto es un eustenopteron. Leí que\ntenía unas aletas tan fuertes que\nhasta podía caminar con ellas.",
      "USfr": "Les nageoires de l'eusthénoptéron\nétaient très robustes, à ce qu'on dit."
    }
  },
  {
    "label": "010",
    "attribute": "0x0000000000000000",
    "locale": {
      "CNzh": "光是头部就如此巨大了，\n应该一口\n就能把我吞下去吧……。",
      "EUde": "Man denkt, dass dies eine der ersten\nFischarten mit einem Kiefer war.\nDamit konnten sie einen noch\nbesser fressen! Ganz schön\ngruselig...",
      "EUen": "They think this was one of the first\nkinds of fish that had jaws.\nAll the better to EAT you with!\nPretty scary...",
      "EUes": "Se cree que este pez monstruoso\nfue uno de los primeros en poseer\nmandíbula...\nCuánto me alegro de no haber\nnacido en esta época.",
      "EUfr": "On dit que c'est le premier poisson à\navoir eu une mâchoire... C'est pour\nmieux te manger,  !",
      "EUit": "Si pensa che questo sia stato uno\ndei primi pesci dotati di mandibola...\nQuanto sono heureuse di non essere\nnata a quell'epoca.",
      "EUnl": "Dit was een van de eerste vissen\nmet kaken, zeggen ze. Daar konden\nze je beter mee ópeten! Eng hoor...",
      "EUru": "Считается, что этот вид рыб — один\nиз первых, имевших челюсти. Не\nхотела бы я оказаться рядом!\nСтрашно...",
      "JPja": "頭だけで　こんなに大きいんだから\nわたしなんて\nひと飲みですよね・・・、",
      "KRko": "머리만 해도 이렇게나 크니까\n저 같은 건 한입에\n꿀꺽일 것 같아요... ...",
      "TWzh": "牠光是頭部就這麼龐大了，\n應該一口就能把我吃掉吧……。",
      "USen": "They think this was one of the first\nkinds of fish that had jaws.\nAll the better to EAT you with!\nPretty scary...",
      "USes": "Se cree que este pez monstruoso\nfue uno de los primeros en poseer\nmandíbulas...\nCuánto me alegro de no haber\nnacido en esa época.",
      "USfr": "On dit que c'est le premier poisson à\navoir eu une mâchoire... C'est pour\nmieux te manger, !"
    }
  },
  {
    "label": "011",
    "attribute": "0x0000000000000000",
    "locale": {
      "CNzh": "风神翼龙体型\n如此巨大，\n真的飞得起来吗……。",
      "EUde": "Wie konnte sich etwas so\nRiesiges wie ein Quetzalcoatlus\njemals in der Luft halten?",
      "EUen": "How could something as big as this\nQuetzalcoatlus ever stay in the air?",
      "EUes": "¿Cómo es posible que un dinosaurio\ntan enorme como el quetzalcoatlus\npudiera volar?",
      "EUfr": "Comment un animal de la taille du\nquetzalcoatlus pouvait voler ?\nC'est fou, ça...",
      "EUit": "Ma come avrà fatto a librarsi in\naria qualcosa di immenso come\nil quetzalcoatlus, ?",
      "EUnl": "Hoe kon iets wat zo groot is als deze\nquetzalcoatlus ooit in de lucht\nblijven?",
      "EUru": "Как такая большая штуковина, как\nкетцалькоатль, держалась\nв воздухе и не падала?",
      "JPja": "ケツァルコアトルスって\nこんなに大きくて\n飛べるんでしょうか・・・、",
      "KRko": "케찰코아틀루스는\n이렇게 큰데 어떻게 하늘을\n날았을까요? ?",
      "TWzh": "話說風神翼龍的體型這麼大，\n真的飛得起來嗎……。",
      "USen": "How could something as big as this\nQuetzalcoatlus ever stay in the air?",
      "USes": "¿Cómo es posible que un dinosaurio\ntan enorme como el quetzalcoatlus\npudiera volar?",
      "USfr": "Comment un animal de la taille du\nquetzalcoatlus pouvait voler?\nC'est fou, ça..."
    }
  },
  {
    "label": "012",
    "attribute": "0x0000000000000000",
    "locale": {
      "CNzh": "听说只要调查一下这东西，\n就能够判断是草食性还是肉食性动物哦……\n不过就算变成了化石，\n也需要相当的勇气呢。。",
      "EUde": "Fossilien wie dieses hier verraten\neiniges über die Nahrungsaufnahme\nin prähistorischen Zeiten.\nNur... wie kann man so etwas\nwie das hier eigentlich mit\nernster Miene untersuchen?",
      "EUen": "Fossils like this can probably reveal\na lot about prehistoric diets, but...\nIt's tough to imagine handling and\nstudying these with a straight face.",
      "EUes": "Analizando fósiles como este\nse puede saber qué comían los\ndinosaurios, .\nAunque no debe de ser un trabajo\nmuy gratificante.",
      "EUfr": "Les fossiles comme ceux-ci nous en\napprennent beaucoup sur le régime\nalimentaire des dinosaures, mais...\nJ'ai du mal à m'imaginer en train de\nl'étudier au microscope, sachant ce\nque c'est.",
      "EUit": "Fossili come questo potrebbero\nfornirci molte informazioni sulle\nloro arcaiche abitudini alimentari.\nPerò confesso che troverei\ndifficilissimissimo studiarli\nsenza ridacchiare tout le temps!",
      "EUnl": "Dit soort fossielen laten vast heel\nveel zien over wat prehistorische\ndieren aten, maar...\nDit kun je toch niet serieus\nbestuderen zonder in de lach te\nschieten!",
      "EUru": "Конечно, такие окаменелости много\nговорят о питании доисторических\nсуществ...\nНо не представляю, как можно на\nполном серьезе это изучать.",
      "JPja": "モノを調べれば　肉食か　草食か\nわかるらしいんですけど・・・\nかせきといえども\nちょっと勇気がいりますね、",
      "KRko": "이걸 조사하면 육식인지 초식인지\n알 수 있다는데...\n아무리 화석이지만\n조금은 용기가 필요하겠어요, ...",
      "TWzh": "聽說只要調查這個化石，\n就能知道所屬的恐龍是肉食還是草食的……\n雖然說是化石，\n還是需要一點欣賞的勇氣呢，。",
      "USen": "Fossils like this can probably reveal\na lot about prehistoric diets, but...\nIt's tough to imagine handling and\nstudying these with a straight face.",
      "USes": "Analizando fósiles como este\nse puede saber qué comían los\ndinosaurios, (catchphrase).\nSuena muy interesante... pero no\nsuena muy gratificante si lo piensas\nbien...",
      "USfr": "Les fossiles comme ceux-ci nous en\napprennent beaucoup sur le régime\nalimentaire des dinosaures, mais...\nJ'ai du mal à m'imaginer en train de\nl'étudier au microscope, sachant ce\nque c'est."
    }
  },
  {
    "label": "013",
    "attribute": "0x0000000000000000",
    "locale": {
      "CNzh": "原来侏罗兽\n和恐龙生活在同一个时代呀～\n没想到还有\n这么小的生物呢。。",
      "EUde": "Diese Juramaia sollen gleichzeitig\nmit den letzten der Dinosaurier\nauf der Erde gewesen sein.\nDie müssen aber wirklich\nflink gerannt sein, um nicht\nzertrampelt zu werden!",
      "EUen": "They think these juramaia were\naround at the same time as\nthe last of the dinosaurs...\nThey must've had to run fast\nto avoid being stepped on!",
      "EUes": "Se cree que las juramaias existieron\nal mismo tiempo que los últimos\ndinosaurios.\n¡Tenían que andarse con cuidado\npara que no las pisaran!",
      "EUfr": "Les scientifiques pensent que le\njuramaia a côtoyé les derniers\ndinosaures...\nIl devait être aussi rapide qu'agile,\npour ne pas se faire marcher\ndessus !",
      "EUit": "Gli studiosi ritengono che il juramaia\nsia vissuto contemporaneamente agli\nultimi dinosauri.\nDevono essere stati dei corridori\nvelocissimissimi! Così piccoli in\nun mondo di colossi...",
      "EUnl": "Deze juramaia schijnen rond dezelfde\ntijd geleefd te hebben als de laatste\ndinosaurussen...\nZe konden vast heel hard rennen om\nte voorkomen dat er zo'n dinosaurus\nop ze ging staan!",
      "EUru": "Считается, что юрамайя жила в то\nже время, когда и последние\nдинозавры...\nНаверное, им приходилось быстро\nбегать, чтобы на них динозавры не\nнаступали.",
      "JPja": "ジュラマイアって　恐竜と同じ時代に\n生きてたんですか～\nこんなに小っちゃい生き物も\nいたんですね、",
      "KRko": "쥐라마이아는 \n공룡과 같은 시대에 살았군요～\n그 시대에도 이렇게 작은 생물이\n살고 있었네요, !",
      "TWzh": "原來侏羅獸是和恐龍\n生活在同一個時代的生物呀～\n沒想到世界上也曾有過\n這麼小的生物，。",
      "USen": "They think these juramaia were\naround at the same time as\nthe last of the dinosaurs...\nThey must've had to run fast\nto avoid being stepped on!",
      "USes": "Se cree que las juramaias existieron\nal mismo tiempo que los últimos\ndinosaurios.\n¡Seguro tenían que andarse con\ncuidado para que no las aplastaran!",
      "USfr": "Les scientifiques pensent que le\njuramaia a côtoyé les derniers\ndinosaures...\nIl devait être aussi rapide qu'agile,\npour ne pas se faire marcher dessus!"
    }
  },
  {
    "label": "101",
    "attribute": "0x0000000000000000",
    "locale": {
      "CNzh": "，\n这个化石是你捐赠的对吗？！\n谢谢你。。",
      "EUde": "Dieses Fossil hast DU doch\ngespendet, nicht wahr?\nVielen, vielen Dank dafür!",
      "EUen": "This fossil was donated by you,\nright? Thanks so much for that!",
      "EUes": "Pero, ¿qué...? ¡Aquí pone que este\nfósil lo has donado tú! Pues te estoy\nmuy agradecida, flor.",
      "EUfr": "C'est toi qui as donné ce fossile,\nnon ? C'est trop gentil de penser\naux autres !",
      "EUit": "Sei stato tu a donare questo fossile,\nn'est-ce pas? Merci, merci, merci!",
      "EUnl": "Dit fossiel heb jij geschonken, toch?\nDank je wel hoor!",
      "EUru": "Это же ты передал музею эту\nокаменелость? Спасибо тебе\nза это!",
      "JPja": "このかせき、が\n寄贈されたんですよね？！\nありがとうございます、",
      "KRko": "이 화석은 님이\n기증하신 거죠?!\n감사합니다, !",
      "TWzh": "，這個化石……\n是你捐贈的對不對！？\n真的非常感謝你喔，。",
      "USen": "This fossil was donated by you,\nright? Thanks so much for that!",
      "USes": "Pero, ¿qué...? ¡Dice que este fósil\nfue una donación tuya! ¡Gracias!",
      "USfr": "C'est toi qui as donné ce fossile,\nnon? C'est trop gentil de penser\naux autres!"
    }
  },
  {
    "label": "201",
    "attribute": "0x0000000000000000",
    "locale": {
      "CNzh": "像这样渐渐发展出分支，\n最终演化为……\n很是有趣味呢。。",
      "EUde": "  hat einen\nlangen Weg der Evolution hinter\nsich. Faszinierend, (Floskel)!",
      "EUen": "I can trace my  ancestry all\nthe way back to this branch of the\ntree of life. So eerie, (catchphrase)...",
      "EUes": "He estado estudiando mi árbol\ngenealógico de ...\ny creo que mi linaje se remonta\nhasta aquí, (catchphrase)...",
      "EUfr": "Ça pourrait être un de mes\nancêtres ! Il y a comme un air\nde famille, (expression)...",
      "EUit": "Questo potrebbe essere uno dei\nmiei antenati. Ha proprio un'aria\nfamiliare, ...",
      "EUnl": "Dat fossiel kan gewoon een van mijn\nvoorouders zijn geweest. Best een\nvreemd idee, (catchphrase)...",
      "EUru": "Я же , а значит, это\nмои далекие предки. Даже мурашки\nпо коже забегали. (catchphrase)...",
      "JPja": "こうして　枝分かれして\nに　つながるんですね・・・\nすごく　興味深いです、",
      "KRko": "이렇게 갈라져서\n까지 이어지는 거군요...\n정말 놀라워요, !",
      "TWzh": "原來是這樣分支，\n再連到的啊……\n真的好有意思喔，。",
      "USen": "I can trace my  ancestry all\nthe way back to this branch of the\ntree of life. So eerie, (catchphrase)...",
      "USes": "He estado estudiando mi árbol\ngenealógico... y creo que mi linaje\nse remonta hasta aquí, (catchphrase).",
      "USfr": "Ça pourrait être un de mes\nancêtres! Il y a comme un air\nde famille, (expression)..."
    }
  }
]