﻿[
  {
    "label": "001",
    "attribute": "0x0000000000000000",
    "locale": {
      "CNzh": "！\n我听说正好有人\n今天有事要找你哦。\n好像还说因为你现在看起来很忙，\n所以准备之后再向你搭话……\n等你晚一点有空了，\n再单独过来一趟吧。。",
      "EUde": "Du hast sicher viel zu tun, aber\njemand würde gern etwas Zeit mit\ndir verbringen, wenn du Ruhe hast.\nMelde dich doch heute noch mal,\nwenn du allein bist, (Floskel).",
      "EUen": "I know you're busy, but someone's\nhoping to meet up with you today,\nwhen you're by yourself...\nTry to check back later today when\nyou're alone, (catchphrase).",
      "EUes": "Sé que ahora estás ocupado, pero\nhay alguien que le gustaría hablar\ncontigo a solas...\nPregunta por ahí cuando hayas\nterminado de jugar y estés solo,\n.",
      "EUfr": "Dis, il y a quelqu'un qui aimerait\nbeaucoup passer un peu de temps\navec toi aujourd'hui...\nEssaie de repasser plus tard.\nQuand tu seras seul, .",
      "EUit": "So che hai da fare, ma qualcuno\nvorrebbe trascorrere un po' di\ntempo con te...\nRipassa plus tardi, quando sei da\nsolo, .",
      "EUnl": "Ik weet dat je het druk hebt, maar\niemand hoopt vandaag wat tijd met je\ndoor te brengen, als het uitkomt...\nIk raad je aan om later even terug te komen wanneer je alleen bent, (catchphrase).",
      "EUru": "Я знаю, что ты сейчас занят, но\nкое-кто хотел с тобой встретиться\nсегодня наедине...\nЗайди попозже, когда будешь один.\n(catchphrase)!",
      "JPja": "！\nあなたに　今日　用事があるっていうひとが\nいるみたいですよ\n今は　あなたが　お忙しそうなので\nあとで　声をかけるそうですけど・・・\nおひとりの時にでも　様子を見に来られたら\nいかがでしょうか、",
      "KRko": "님!\n오늘 님을\n꼭 만나고 싶은 사람이 있대요\n지금은 바쁘신 것 같으니\n나중에 따로 얘기하겠다는데...\n혼자 계실 때 한번 보러\n와주시면 좋을 것 같아요, !",
      "TWzh": "！\n聽說今天好像有人有事\n想要來找你喔。\n不過他看你好像還在忙，\n所以打算晚點再來……\n等到你獨自一人有空時，可以請你抽空\n去看看狀況嗎？。",
      "USen": "I know you're busy, but someone's\nhoping to meet up with you today,\nwhen you're by yourself...\nTry to check back later today when\nyou're alone, (catchphrase).",
      "USes": "Sé que ahora estás ocupado, pero\nhay alguien a quien le gustaría hablar\ncontigo a solas...\nNos vemos más tarde cuando te hayas desocupado y estés solo,\n¿sí, (catchphrase)?",
      "USfr": "Dis, il y a quelqu'un qui aimerait\nbeaucoup passer un peu de temps\navec toi aujourd'hui...\nEssaie de repasser plus tard.\nQuand tu seras seul, ."
    }
  },
  {
    "label": "002",
    "attribute": "0x0000000000000000",
    "locale": {
      "CNzh": "！\n也跟你\n在一起对吧？\n其实正好有人有事\n要找呢～\n因为今天\n是的……\n总之呢，希望你可以帮忙传个话，\n让之后\n再单独过来一趟。。",
      "EUde": "Weißt du, dass heute ein besonderer\nTag für  ist, (Floskel)?\nNun, ich weiß, dass  jemand\nsehr gern heute treffen würde,\nwenn  allein ist.\nKannst du darum  bitte ausrichten, dass  sich später noch mal hier melden soll?",
      "EUen": "You do know this is a special day for\n, (catchphrase)?\nWell, I know somebody around here\nis really hoping to catch up with\nthem today when they're alone...\nSo can you pass on that message to\n? To check back\nhere later on.",
      "EUes": "¿Sabes que hoy es un día especial\npara ?\nSé de alguien que le está preparando\nuna cosilla para cuando esté sol, .\n¿Le dirás a  que se pase luego a vernos, porfa?",
      "EUfr": "Tu sais que c'est une journée\nspéciale pour , aujourd'hui ?\nJe connais quelqu'un qui aimerait\nbien passer un peu de temps avec\n, en tête à tête, ...\nÀ l'occasion, tu pourrais lui dire\nde repasser par ici, quand  aura\nun moment ?",
      "EUit": "Tu sais che oggi è un giorno molto\nspeciale per , oui?\nBien, so per certo che qualcuno\nvorrebbe tanto stare con ,\nquando è da ...\nQuindi... potresti gentilmente\n di ripassare più tardi,\n?",
      "EUnl": "Wist je dat vandaag een speciale dag is voor , (catchphrase)?\nIk weet toevallig dat iemand hier\nhem graag wil spreken wanneer hij\neen momentje voor zichzelf heeft...\nKun jij  dus vragen of hij hier straks langskomt als hij alleen is?",
      "EUru": "Ты же знаешь, что сегодня\n отмечает день\nрождения? (catchphrase)!\nЯ знаю, что кое-кто хочет с ним\nпообщаться наедине...\nМожешь передать ему, чтобы он\nзашел попозже сегодня?",
      "JPja": "！\nも　今\nご一緒ですよね？\n実は　に\n用事があるっていうひとが　いるんですよ～\nだって今日は\nの・・・\nとにかく、に\nあとで　おひとりで　お越しくださいって\n伝えてくださると　うれしいです、",
      "KRko": "님!\n님도 지금\n같이 계시죠?\n사실 님께\n할 얘기가 있다는 사람이 있어서요～\n왜냐면 오늘은\n님의...\n아무튼 님께\n나중에 혼자서 와주시면 좋겠다고\n전해주세요! !",
      "TWzh": "！\n請問……\n現在跟你在一起對吧？\n其實今天好像有人\n想要找喔～\n畢竟今天是\n的……\n總之呢，如果可以的話\n麻煩替我轉告\n請他一個人來赴會喔，。",
      "USen": "You do know this is a special day for\n, (catchphrase)?\nWell, I know somebody around here\nis really hoping to catch up with\nthem today when they're alone...\nSo can you pass on that message to\n? To check back\nhere later on.",
      "USes": "¿Sabes que hoy es un día especial\npara ?\nSé de alguien que le está preparando\nalgo especial para cuando esté sol, (catchphrase).\n¿Le dices a  que pase a vernos, porfa?",
      "USfr": "Tu sais que c'est une journée\nspéciale pour , aujourd'hui?\nJe connais quelqu'un qui aimerait\nbien passer un peu de temps avec\n, en tête-à-tête, ...\nÀ l'occasion, tu pourrais lui dire\nde repasser par ici, quand  aura\nun moment?"
    }
  }
]