﻿[
  {
    "label": "001",
    "attribute": "0x0000000000000000",
    "locale": {
      "CNzh": "呵呵呵，莫非你是来取\n刚才没能交到你手上的\n烟花棒的吗？\n请你放宽心，\n我一下也没有碰留给你的那份，\n完完整整在这里呢！",
      "EUde": "Hi hi! Du kommst deine\nWunderkerze abholen, ja?\nKeine Sorge, ich habe gut für\ndich auf sie aufgepasst, (Spitzname).",
      "EUen": "Tee-hee! Back to pick up your\nsparkler, I see. Don't worry. I kept it\nsafe for you, (nickname).",
      "EUes": "Vienes a recoger tu bengala, ¿no?\nPues aquí la tienes, reservada solo\npara ti, (nickname).",
      "EUfr": "Tu es venu chercher ton cierge\nmagique ? Je l'ai gardé bien au\nchaud pour toi, (surnom).",
      "EUit": "Oh, quel plaisir! Sei tornato per\navere la tua stella filante, giusto?\nNessun problema. L'ho conservata\napposta per te, (nickname).",
      "EUnl": "Hihi! Jij komt vast je sterretje\nophalen, hè?\nMaak je geen zorgen, ik heb er goed\nvoor je op gepast, (nickname).",
      "EUru": "Хи-хи! Ты за своим бенгальским\nогнем? Не беспокойся. Он никуда\nне делся, (nickname).",
      "JPja": "うふふ、ひょっとして\nさっき　お渡しできなかった　てもちはなびを\n取りにきてくださったんですか？\n安心してください\nあなたの分は　使わずに\nちゃんと　残してありますから！",
      "KRko": "우후후, 혹시\n아까 못 받으신 스파클러를\n받으러 오신 건가요?\n걱정 마세요!\n님께 드릴 건\n쓰지 않고 남겨 두었거든요!",
      "TWzh": "呵呵呵，難道說你是特地來拿\n剛才沒能拿到的仙女棒嗎？\n請放心，\n你那一份沒被拿去玩，\n我有好好幫你留著喔！",
      "USen": "Tee-hee! Back to pick up your\nsparkler, I see. Don't worry. I kept it\nsafe for you, (nickname).",
      "USes": "Vienes a buscar tu bengala, ¿no?\nPues aquí la tienes, reservada solo\npara ti, (nickname).",
      "USfr": "Tu es venu chercher ta bougie\nmagique? Je l'ai gardée bien au\nchaud pour toi, (surnom)."
    }
  },
  {
    "label": "010",
    "attribute": "0x0000000000000000",
    "locale": {
      "CNzh": "能顺利交给你真是太好了！\n小小的烟花也很漂亮，\n请一定要玩玩看哦。。",
      "EUde": "Da bin ich aber froh, dass das so gut\ngeklappt hat.\nIch hoffe, du kannst dieses freudige\nEreignis so richtig genießen,\n(Floskel)!",
      "EUen": "I'm so glad this worked out. I hope\nyou have fun with your own little\nfireworks show!",
      "EUes": "Espero que disfrutes de tu\nespectáculo pirotécnico de\nbolsillo, .",
      "EUfr": "Je suis contente que tu sois revenu.\nTu vas pouvoir te faire ton petit feu\nd'artifice perso, (expression) !",
      "EUit": "Sono feliiice che si sia risolto tutto.\nSpero che ti divertirai con il tuo\npiccolo spettacolo pirotecnico!",
      "EUnl": "Fijn dat het toch is goed gekomen.\nNu kun je je eigen kleine vuurwerk-\nshow creëren, (catchphrase)!",
      "EUru": "Я рада, что все получилось.\nНаслаждайся своим собственным\nмаленьким фейерверком!",
      "JPja": "無事に渡せて　よかったです！\n小さい花火も　風情があって　素敵ですから\nぜひ　遊んでみてくださいね、",
      "KRko": "이번엔 주머니에 자리가 있으셔서 다행이에요!\n작은 불꽃도 운치가 있어서 저는 좋아한답니다\n부디 즐겨주셨으면 좋겠네요, !",
      "TWzh": "能夠順利交給你真是太好了！\n這煙火雖小，卻別有一番風情，\n請你務必玩玩看喔，。",
      "USen": "I'm so glad this worked out. I hope\nyou have fun with your own little\nfireworks show!",
      "USes": "Espero que disfrutes de tu\nespectáculo pirotécnico de\nbolsillo, .",
      "USfr": "Je suis contente que tu sois revenu.\nTu vas pouvoir te faire ton petit feu\nd'artifice à toi, (expression)!"
    }
  },
  {
    "label": "011",
    "attribute": "0x0000000000000000",
    "locale": {
      "CNzh": "……啊，你的随身物品还是很多呢。\n我真的很想早点把它交给你……\n对不起，请你在口袋有空位后，\n再来找我一次吧。。",
      "EUde": "Momentchen mal... Deine Tasche ist\nja immer noch voll! Da habe ich wohl\nwas missverstanden.\nDas tut mir leid. Ich würde dir ja\nwirklich gerne eine Wunderkerze\ngeben.\nDamit kann man so viel Spaß haben!\nKomm gerne wieder, wenn du etwas\nPlatz hast, ja?",
      "EUen": "Wait a second... Your pockets are still\nfull! I guess I misread the situation.\nThat's too bad. I'd really love to\ngive you a sparkler. They're just\ntoo much fun!\nIf you do make some room, be sure\nto come see me. OK?",
      "EUes": "Pero... ¡sigues con los bolsillos\nllenos! Así no puedes llevarte\nninguna bengala...\nCon lo bonitas que son... Tú ven\na verme cuando tengas un poco\nde espacio libre, ¿de acuerdo?",
      "EUfr": "Hm ? Mais tu as encore les poches\npleines ! Alors j'ai mal interprété\nta venue, (expression).\nTu veux ton cierge magique, oui ou\nnon ? Il va falloir y mettre un peu du\ntien... en faisant de la place, OK ?",
      "EUit": "Un momento... Le tue tasche sono\npiene! Devo essermi sbagliata.\nÈ un peccato perché vorrei tanto\ndarti la tua stella filante. Tu sais,\nsono così divertenti!\nBien, se dovessi fare spazio, torna\npure da me.",
      "EUnl": "Wacht even... Je zakken zijn nog\nsteeds vol! Had ik het toch mis.\nWat jammer. Ik had je graag je\nsterretje willen geven.\nWat is een vuurwerkshow zonder je\neigen sterretje? Als je zakken leger\nzijn, kom je maar weer bij me terug!",
      "EUru": "Погоди... Места в карманах все еще\nнет! Наверное, ты меня не понял.\nОчень жаль. Я с удовольствием\nдала бы тебе бенгальский огонь.\nС ними так весело!\nОсвободи место в карманах\nи возвращайся, ладно?",
      "JPja": "・・・あ、お荷物いっぱいみたいですね\n早めに　お渡ししたかったんですけど・・・\nすみませんが　ポケットに　余裕ができたら\nまた　声をかけてください、",
      "KRko": "...아, 주머니가 가득 차신 것 같아요\n빨리 드리고 싶은데...\n죄송하지만 주머니를 좀 비우고 나서\n다시 말을 걸어주시겠어요? ?",
      "TWzh": "啊……你的包包好像已經滿了呢。\n雖然我想早點交給你……\n不過很抱歉，還是等你的口袋有空位後，\n再來跟我說一聲吧，。",
      "USen": "Wait a second... Your pockets are still\nfull! I guess I misread the situation.\nThat's too bad. I'd really love to\ngive you a sparkler. They're just\ntoo much fun!\nIf you do make some room, be sure\nto come see me. OK?",
      "USes": "Pero... ¡sigues teniendo los bolsillos\nllenos! Así no puedes llevarte\nninguna bengala...\nCon lo bonitas que son... Ven\na verme cuando tengas un poco\nde espacio libre, ¿de acuerdo?",
      "USfr": "Hm? Mais tu as encore les poches\npleines! Alors j'ai mal interprété\nta venue, (expression).\nTu veux ta bougie magique, oui ou\nnon? Il va falloir y mettre un peu du\ntien... en faisant de la place, OK?"
    }
  },
  {
    "label": "020",
    "attribute": "0x0000000000000000",
    "locale": {
      "CNzh": "谢谢你愿意向我搭话。\n其实我有一件东西想要给你……\n因为今天有烟花大会，\n所以我想送你烟花棒。\n请你收下它。",
      "EUde": "Toll, dass wir uns zufällig treffen! Ich\nwollte dich schon suchen gehen, weil\nich dir etwas geben wollte...\nEine Wunderkerze! Vielleicht\nmöchtest du sie ja heute Nacht\nbeim Feuerwerk anzünden...",
      "EUen": "Your timing is impeccable! I was just\nabout to go looking for you. I have\nsomething I think you might want.\nIt's a sparkler! I thought it could be\nthe perfect accessory for tonight's\nbig fireworks show.",
      "EUes": "Estaba a punto de salir a buscarte,\n¡por poco no me pillas en casa!\nEs que tengo una cosita que darte...\n¡Es una bengala! Pensé que sería\nel accesorio perfecto para el\nespectáculo pirotécnico de hoy.",
      "EUfr": "Hé ! Tu tombes bien ! J'ai justement\nquelque chose pour toi. Je pense\nque ça va te plaire.\nC'est... un cierge magique ! Je me\nsuis dit que ce serait l'accessoire\nparfait pour le spectacle de ce soir.",
      "EUit": "Tempismo perfetto! Ho qui qualcosa\nche penso ti piacerà, .\nUna stella filante! Credo che sia\nl'accessorio ideale per lo spettacolo\npirotecnico di ce soir.",
      "EUnl": "Je timing is perfect! Ik wilde net naar\nje op zoek gaan. Ik heb iets voor je\ndat je vast wel kunt gebruiken.\nHet is een sterretje! Dat leek me nou\nhet perfecte accessoire voor de\nvuurwerkshow van vanavond.",
      "EUru": "Ты как раз вовремя! Я тебя ищу. Хочу предложить тебе кое-что.\nЭто бенгальский огонь! Я подумала,\nчто это будет отличный аксессуар\nдля сегодняшнего фейерверка.",
      "JPja": "声をかけてくださって　よかったです\n実は　お渡ししたいものが　ありまして・・・\n今日は　花火大会ですから　あなたに\nてもちはなびを　差し上げたかったんです\nどうぞ　お持ちください",
      "KRko": "말을 걸어주셔서 감사해요!\n사실은 오늘 드리고 싶은 게 있어서요...\n오늘 불꽃축제를 기념해서\n님께 스파클러를\n선물할게요! 부디 받아주세요～",
      "TWzh": "你願意來找我真是太好了，\n其實我有東西想要給你……\n因為今天有煙火大會，\n所以我準備了仙女棒要送給你喔！\n請你收下它吧。",
      "USen": "Your timing is impeccable! I was just\nabout to go looking for you. I have\nsomething I think you might want.\nIt's a sparkler! I thought it could be\nthe perfect accessory for tonight's\nbig fireworks show.",
      "USes": "Justo estaba por ir a buscarte,\nEs que tengo una cosita para ti...\n¡Es una bengala! Pensé que sería\nel complemento perfecto para el\nespectáculo pirotécnico de hoy.",
      "USfr": "Hé! Tu tombes bien! J'ai justement\nquelque chose pour toi. Je pense\nque ça va te plaire.\nC'est... une bougie magique! Je me\nsuis dit que ce serait l'accessoire\nparfait pour le spectacle de ce soir."
    }
  },
  {
    "label": "100",
    "attribute": "0x0000000000000000",
    "locale": {
      "CNzh": "啊，！\n请你等我一下，\n我这就站起来。。",
      "EUde": "Warte bitte mal kurz. Gleich hast du\nmeine volle Aufmerksamkeit.",
      "EUen": "Hold that thought. I want to give you\nmy undivided attention.",
      "EUes": "¡Un momento, (nickname)!\nEsto requiere que me concentre\ncon los cinco sentidos.",
      "EUfr": "Une seconde, (surnom) ! \nJe veux te donner toute mon\nattention.",
      "EUit": "Aspetta solo un attimo. Voglio\ndedicarti la mia più completa\nattenzione...",
      "EUnl": "Een klein momentje. Je verdient mijn\nvolle aandacht.",
      "EUru": "Погоди секундочку, я сейчас.\nНе хочу, чтобы меня что-то\nотвлекало от нашего разговора.",
      "JPja": "あ、！\nちょっと　待ってくださいね\n今　立ちますから、",
      "KRko": "아, 님!\n금방 일어날게요\n잠시만 기다려주세요, !",
      "TWzh": "啊，！\n請你稍等一下喔，\n我馬上起來，。",
      "USen": "Hold that thought. I want to give you\nmy undivided attention.",
      "USes": "¡Un momento, (nickname)!\nEsto requiere que me concentre\ncon los cinco sentidos.",
      "USfr": "Une seconde, (surnom)!\nJe veux te donner toute mon\nattention."
    }
  },
  {
    "label": "101",
    "attribute": "0x0000000000000000",
    "locale": {
      "CNzh": "啊，！\n你来得正是时候呢。\n请稍等一下。。",
      "EUde": "Ah, (Spitzname)! Du bist's!",
      "EUen": "Ah, (nickname)! It's you!",
      "EUes": "¡Eh, hola, (nickname)!",
      "EUfr": "Ouais ! (surnom) ! Une seconde...",
      "EUit": "Oh, sei tu, (nickname)!",
      "EUnl": "Hé, (nickname)! Jij bent het!",
      "EUru": "А, (nickname)! Вот и ты!",
      "JPja": "あ、！\nいいところに　いらっしゃいました\nちょっと　待ってくださいね、",
      "KRko": "아, 님!\n마침 잘 오셨어요\n잠시만 기다려주세요, !",
      "TWzh": "啊，！\n你來得正好，\n請稍等我一下喔，。",
      "USen": "Ah, (nickname)! It's you!",
      "USes": "¡Ah, hola, (nickname)!",
      "USfr": "Ouais! (surnom)! Une seconde..."
    }
  }
]