﻿[
  {
    "label": "001",
    "attribute": "0x00000C0100000000",
    "locale": {
      "CNzh": "嘿！又见面啦！\n(nickname)！\n找我有事？。",
      "EUde": "Hi! So sieht man sich wieder,\n(Spitzname)! Wolltest du was\nvon mir, (Floskel)?",
      "EUen": "Yo! We meet again, (catchphrase)!\nNeed something lifted?",
      "EUes": "¡Nos vemos de nuevo, (nickname)⁠! ¿Necesitas que te eche una pata con algo?",
      "EUfr": "Yo ! On se croise à nouveau,\n(surnom) ! Je peux faire\nquelque chose pour t'aider ?",
      "EUit": "Ehilà! Ci incontriamo di nuovo, (nickname)! Hai bisogno di me, ?",
      "EUnl": "Yo! Daar ben je weer, (catchphrase)! Had je me ergens voor nodig?",
      "EUru": "Йоу! Мы снова встретились!\n(catchphrase)! Тебе помочь что-то\nтяжелое перенести?",
      "JPja": "(nickname)！\nなんか用かー？　",
      "KRko": "오오! 또 만났네－\n(nickname)!\n나한테 무슨 볼일이라도 있냐－? ?",
      "TWzh": "嗨！又見到你啦，\n(nickname)！\n你有事要找我嗎～？。",
      "USen": "Yo! We meet again, (catchphrase)!\nNeed something lifted?",
      "USes": "¡Nos volvemos a ver,\n(nickname)! ¿Necesitas\nque te ayude con algo?",
      "USfr": "Yo! On se croise à nouveau,\n(surnom)! Je peux faire\nquelque chose pour t'aider?"
    }
  },
  {
    "label": "002",
    "attribute": "0x00000C0100000000",
    "locale": {
      "CNzh": "噢！又见面啦！\n要干什么我都陪你哦！。",
      "EUde": "Oh! Du schon wieder!\nCool, dass wir uns dauernd\nbegegnen, (Floskel)!",
      "EUen": "Oh! We meet again! It's cool,\n(catchphrase). Talking to you\nburns calories!",
      "EUes": "¡Anda! ¡Nos vemos otra vez!\nMe encantan estos encuentros,\nasí que, ¡cuando quieras!",
      "EUfr": "Oh, on se retrouve encore une fois !\nC'est chouette, ça fait toujours\nplaisir de te croiser, (expression).",
      "EUit": "Oh, ci incontriamo di nuovo! Che\npiacere, io non mi stanco mai della\ntua compagnia, .",
      "EUnl": "O! Je bent er weer! Helemaal cool, (catchphrase). Door met jou te praten verbrand ik calorieën!",
      "EUru": "О! Снова ты! Класс! Обожаю с тобой\nразговаривать — всегда много\nкалорий расходую. (catchphrase)!",
      "JPja": "おー！　オマエの話だったら\nいくらでも　付き合ってやるぞー！　",
      "KRko": "오－! 또 만났잖아－?!\n얼마든지 같이 얘기해줄게! !",
      "TWzh": "哦！我們又見面啦──！\n你要找我，我隨時奉陪喔──！。",
      "USen": "Oh! We meet again! It's cool,\n(catchphrase). Talking to you\nburns calories!",
      "USes": "¡Caramba! ¡Nos volvemos a ver! Me\nencantan estos encuentros, así que,\n¡cuando quieras!",
      "USfr": "Oh, on se retrouve encore une fois!\nC'est cool, ça fait toujours\nplaisir de te croiser, (expression)."
    }
  },
  {
    "label": "003",
    "attribute": "0x00000C0100000000",
    "locale": {
      "CNzh": "今天总是见面呢！\n你就这么想跟我聊天吗？。",
      "EUde": "Heute sehen wir uns ja ständig!\nDu stehst wohl auf gute\nTrainingsratschläge, (Floskel)!",
      "EUen": "We're running into each other a lot\ntoday, (catchphrase)! You must\nREALLY like talking to me.",
      "EUes": "¡Hoy nos estamos viendo mucho!\nDebe de chiflarte charlar conmigo...",
      "EUfr": "Dis donc, on n'arrête pas de se\nrencontrer, aujourd'hui ! Faut croire\nque t'aimes bien discuter avec moi.",
      "EUit": "Oggi continuiamo a incontrarci!\nParlare con me deve proprio piacerti\ntanto, ...",
      "EUnl": "We zien elkaar vaak vandaag, (catchphrase)! Je wilt vast meer weten over krachttraining!",
      "EUru": "Мы сегодня постоянно друг на\nдруга натыкаемся! (catchphrase)!\nТы хочешь о чем-то поговорить?",
      "JPja": "今日は　オマエと\nよく　しゃべってるなー！　",
      "KRko": "오늘은 자주 만나네－!\n그렇게 나랑 할 얘기가 많냐－? ?",
      "TWzh": "我們今天很常碰面耶！\n你這麼想要找我聊天啊～？。",
      "USen": "We're running into each other a lot\ntoday, (catchphrase)! You must\nREALLY like talking to me.",
      "USes": "¡Hoy nos estamos viendo mucho!\nSupongo que te encanta\nhablar conmigo...",
      "USfr": "Dis donc, on n'arrête pas de se\nrencontrer, aujourd'hui! Faut croire\nque t'aimes bien jaser avec moi."
    }
  }
]