﻿[
  {
    "label": "001",
    "attribute": "0x02000000",
    "locale": {
      "CNzh": "怎么了？\n不是还在工作吗？",
      "EUde": "Was gibt es denn? Bist du nicht\ngerade bei der Arbeit?",
      "EUen": "What's the matter? Aren't you in the\nmiddle of working?",
      "EUes": "¿Qué ocurre? ¿No tienes\nun encargo a medias?",
      "EUfr": "Un problème ? Tu veux interrompre\nles travaux ?",
      "EUit": "Che succede? Non stai lavorando?",
      "EUnl": "Wat is er aan de hand? Was je niet\nergens mee bezig?",
      "EUru": "Что случилось? Ты же вроде еще\nработаешь?",
      "JPja": "どうしたの？\nまだ　仕事の途中じゃなかった？",
      "KRko": "무슨 일이야?\n아직 일하던 도중 아니었어?",
      "TWzh": "怎麼了？\n不是還在工作嗎？",
      "USen": "What's the matter? Aren't you in the\nmiddle of working?",
      "USes": "¿Qué sucede? ¿No estás trabajando\nen un encargo?",
      "USfr": "Un problème? Tu veux interrompre\nles travaux?"
    }
  },
  {
    "label": "001_a",
    "attribute": "0x00000000",
    "locale": {
      "CNzh": "中止",
      "EUde": "Ich möchte aufhören.",
      "EUen": "I'm stopping.",
      "EUes": "Lo dejo por ahora",
      "EUfr": "Oui, j'arrête.",
      "EUit": "Smetto.",
      "EUnl": "Ik stop ermee.",
      "EUru": "Я закругляюсь.",
      "JPja": "中止します",
      "KRko": "그만둘래",
      "TWzh": "我要中止",
      "USen": "I'm stopping.",
      "USes": "Lo dejo por ahora",
      "USfr": "Oui, j'arrête."
    }
  },
  {
    "label": "001_b",
    "attribute": "0x00000000",
    "locale": {
      "CNzh": "没什么",
      "EUde": "Zurück an die Arbeit.",
      "EUen": "It's nothing.",
      "EUes": "Sí, ya sigo",
      "EUfr": "Hein ? Pas du tout !",
      "EUit": "Ora proseguo.",
      "EUnl": "Ik ga weer verder.",
      "EUru": "Я просто так.",
      "JPja": "なんでもないです",
      "KRko": "아무것도 아니야",
      "TWzh": "沒事",
      "USen": "It's nothing.",
      "USes": "Sí, voy a continuar",
      "USfr": "Hein? Pas du tout!"
    }
  },
  {
    "label": "002",
    "attribute": "0x00000000",
    "locale": {
      "CNzh": "哎呀，是这样啊。\n那就继续努力吧～！",
      "EUde": "Oh, sicher! Nur weiter so!",
      "EUen": "Oh, I got it. Then keep at it!",
      "EUes": "Muy bien. ¡Sigue con lo tuyo pues!",
      "EUfr": "Oh, au temps pour moi.",
      "EUit": "Oh, capisco. Allora continua pure!",
      "EUnl": "Oké, prima. Ga dan maar door met je\nwerk!",
      "EUru": "Ну что ж, тогда продолжай!",
      "JPja": "あら、そうなの\nじゃあ　がんばってね～！",
      "KRko": "어머, 그래?\n그럼 계속해서 힘내～!",
      "TWzh": "哎呀，這樣啊。\n那就繼續努力吧～！",
      "USen": "Oh, I got it. Then keep at it!",
      "USes": "Muy bien. ¡Sigue con lo tuyo!",
      "USfr": "Oh, au temps pour moi."
    }
  },
  {
    "label": "003",
    "attribute": "0x02000000",
    "locale": {
      "CNzh": "你在开玩笑吧？\n真的要中止吗？",
      "EUde": "Wirklich? Du hörst auf?",
      "EUen": "Really? You're quitting?",
      "EUes": "¿De veras? ¿Vas a dejar la tarea\na medias?",
      "EUfr": "Vraiment ? Tu abandonnes ?",
      "EUit": "Davvero? Abbandoni il progetto?",
      "EUnl": "Echt waar? Je stopt?",
      "EUru": "Точно? Хочешь прекратить работу?",
      "JPja": "ウソ？\n本当に　やめちゃうの？",
      "KRko": "정말?\n진짜로 그만둘 거야?",
      "TWzh": "不會吧？\n真的要中止嗎？",
      "USen": "Really? You're quitting?",
      "USes": "¿En serio? ¿Vas a dejar la tarea\na medias?",
      "USfr": "Vraiment? Tu abandonnes?"
    }
  },
  {
    "label": "003_a",
    "attribute": "0x00000000",
    "locale": {
      "CNzh": "中止",
      "EUde": "Vorläufig, ja.",
      "EUen": "For now.",
      "EUes": "Al menos por ahora...",
      "EUfr": "Oui, j'arrête les frais.",
      "EUit": "Per ora.",
      "EUnl": "Voorlopig wel, ja",
      "EUru": "Пока хватит.",
      "JPja": "中止します",
      "KRko": "응, 그만둘래",
      "TWzh": "我要中止",
      "USen": "For now.",
      "USes": "Por ahora...",
      "USfr": "Oui, j'arrête les frais."
    }
  },
  {
    "label": "003_b",
    "attribute": "0x00000000",
    "locale": {
      "CNzh": "还是要继续",
      "EUde": "Ich mach doch weiter.",
      "EUen": "No, I'll keep going.",
      "EUes": "Qué va, sigo con ella",
      "EUfr": "Euh... En fait, non.",
      "EUit": "No, continuo.",
      "EUnl": "Nee, ik ga door.",
      "EUru": "Нет, я продолжу.",
      "JPja": "やっぱりつづける",
      "KRko": "역시 계속할래",
      "TWzh": "還是要繼續",
      "USen": "No, I'll keep going.",
      "USes": "No, sigo trabajando",
      "USfr": "Euh... En fait, non."
    }
  },
  {
    "label": "004",
    "attribute": "0x00000000",
    "locale": {
      "CNzh": "明白了。\n我会向客人说明的。\n那就回去吧。",
      "EUde": "Kein Problem. Ich werde mit dem\nKunden sprechen. Gut, dann lass\nuns zurückkehren.",
      "EUen": "I got it. I'll explain everything to the\nclient. Alright, let's head back.",
      "EUes": "De acuerdo. No te preocupes;\nya se lo explico yo .\nRegresemos a la agencia.",
      "EUfr": "Soit. J'expliquerai la situation\n. Très bien, rentrons !",
      "EUit": "Capisco. Spiegherò tutto io al\ncliente. Forza, torniamo indietro.",
      "EUnl": "Begrepen. Ik leg de situatie wel uit\naan de klant. Kom, laten we terug\nnaar het kantoor gaan.",
      "EUru": "Ясно. Я сообщу клиенту.\nА нам пора обратно!",
      "JPja": "わかったわ\nお客様には　ワタシから　説明しておくわね\nじゃあ　帰りましょうか",
      "KRko": "알았어\n고객님께는 내가 설명드릴게\n그럼 돌아가자",
      "TWzh": "知道了。\n我會跟客人說明的，\n那我們回去吧。",
      "USen": "I got it. I'll explain everything to the\nclient. Alright, let's head back.",
      "USes": "De acuerdo. No te preocupes;\nyo se lo explico .\nRegresemos a la agencia.",
      "USfr": "Soit. J'expliquerai la situation\n. Très bien, rentrons!"
    }
  },
  {
    "label": "005",
    "attribute": "0x00000000",
    "locale": {
      "CNzh": "这样啊。\n那就继续加油吧～",
      "EUde": "Verstanden! Dann viel Spaß bei der\nArbeit!",
      "EUen": "I got it! Then please, continue!",
      "EUes": "¡Así me gusta! ¡Sigue con ello!",
      "EUfr": "Je me disais aussi. Je ne te retiens\npas plus longtemps !",
      "EUit": "D'accordo! Allora continua!",
      "EUnl": "Begrepen! Ga dan vooral je gang!",
      "EUru": "Отлично! Тогда продолжай,\nпожалуйста!",
      "JPja": "そうなのね\n引き続き、がんばってね～",
      "KRko": "그렇구나\n계속해서 힘내줘～",
      "TWzh": "這樣啊。\n那就繼續加油囉～",
      "USen": "I got it! Then please, continue!",
      "USes": "¡Así me gusta! ¡En marcha!",
      "USfr": "Je me disais aussi. Je ne te retiens\npas plus longtemps!"
    }
  },
  {
    "label": "006",
    "attribute": "0x00000000",
    "locale": {
      "CNzh": "回去的时候要先跟客人打声招呼哦。",
      "EUde": "Sag dem Kunden kurz Bescheid,\nwenn du zurückkehren möchtest, ja?",
      "EUen": "Just tell the client when you need\nto head back.",
      "EUes": "Si quieres marcharte, avisa antes\n, ¿de acuerdo?",
      "EUfr": "Va prévenir  quand tu\nvoudras rentrer.",
      "EUit": "Se hai bisogno di tornare, fallo\nsapere al cliente.",
      "EUnl": "Zeg het wel even tegen de klant\nwanneer je ervandoor gaat.",
      "EUru": "Если захочешь вернуться, не забудь\nпопрощаться с клиентом.",
      "JPja": "帰る時は、お客様にお声がけしてね",
      "KRko": "돌아갈 때는 고객님께 말씀드려줘",
      "TWzh": "回去之前要先跟客人說一聲喔。",
      "USen": "Just tell the client when you need\nto head back.",
      "USes": "Si quieres irte, avísale primero, ¿de acuerdo?",
      "USfr": "Va prévenir  quand tu\nvoudras rentrer."
    }
  },
  {
    "label": "007",
    "attribute": "0x00000000",
    "locale": {
      "CNzh": "那么，我们回去吧。",
      "EUde": "In Ordnung. Kehren wir zurück!",
      "EUen": "Alright, let's head back!",
      "EUes": "Muy bien; ¡regresemos entonces!",
      "EUfr": "Entendu, on rentre !",
      "EUit": "OK, torniamo indietro!",
      "EUnl": "Oké, laten we terug naar het kantoor\ngaan!",
      "EUru": "Тогда возвращаемся!",
      "JPja": "じゃ、帰りましょうか",
      "KRko": "그럼 돌아가자",
      "TWzh": "那麼，我們回去吧。",
      "USen": "Alright, let's head back!",
      "USes": "Muy bien, ¡regresemos entonces!",
      "USfr": "Entendu, on rentre!"
    }
  },
  {
    "label": "008",
    "attribute": "0x00000000",
    "locale": {
      "CNzh": "这样啊。\n那么，回去的时候要先跟我说一声哦。",
      "EUde": "Gut. Lass es mich einfach wissen,\nwenn du zurückkehren möchtest.",
      "EUen": "Alright. Then let me know when\nyou want to go back.",
      "EUes": "Oh, vaya... Bien, cuando quieras\nregresar a la agencia, no tienes\nmás que avisarme.",
      "EUfr": "Ça arrive. Préviens-moi quand tu\nvoudras rentrer !",
      "EUit": "Meglio così. Allora fammi sapere\nquando vuoi tornare.",
      "EUnl": "Prima. Laat het me maar weten\nwanneer je wilt gaan.",
      "EUru": "Понимаю. Тогда просто скажи,\nкогда захочешь вернуться обратно.",
      "JPja": "そっか\nじゃ、帰る時は　声かけてね",
      "KRko": "그래?\n그럼 돌아갈 때는 말해줘",
      "TWzh": "這樣啊。\n那麼，回去之前要先跟我說一聲喔。",
      "USen": "Alright. Then let me know when\nyou want to go back.",
      "USes": "Oh, vaya... Bien, cuando quieras\nregresar a la agencia, me avisas.",
      "USfr": "Ça arrive. Préviens-moi quand tu\nvoudras rentrer!"
    }
  },
  {
    "label": "022",
    "attribute": "0x00000000",
    "locale": {
      "CNzh": "拍摄的照片会上传到打造家哦！\n想要将上传的照片更换为新照片时，\n按键来登录就可以了。",
      "EUde": "Die von dir aufgenommenen Fotos\nlanden direkt im Netzwerk der\nschönen Häuser.\nWenn du Fotos wechseln möchtest,\nkannst du sie mit  auswählen.",
      "EUen": "The photos you take will be added to\nthe Happy Home Network! If you\nwant to switch the photos, use .",
      "EUes": "Las casas que fotografíes se añaden\na tu porfolio de diseño. Pulsa \nsi quieres cambiar la foto.",
      "EUfr": "Tes photos seront ajoutées au RJD !\nSi tu veux échanger des photos,\nutilise .",
      "EUit": "Le foto che scatti verranno aggiunte\nall'app Network delle Belle Case!\nSe vuoi cambiare le foto, usa .",
      "EUnl": "De foto's die je neemt, worden aan\nhet Netwerk voor Wonderlijke\nWoningen, het NWW, toegevoegd.\nAls je nieuwe foto's wilt posten,\nkun je ze met  uitkiezen.",
      "EUru": "Снимки в приложении «Курортный\nпортал» продемонстрируют всем\nтвой талант наглядно.\nЕсли захочешь опубликовать новые,\nзарегистрируй их при помощи\nкнопки .",
      "JPja": "撮った写真は　ツクッターに載るからね！\n載せる写真を　新しいのに変えたい場合は\nボタンから　登録すればいいの",
      "KRko": "찍은 사진은 해피홈 네트워크에 실릴 거야!\n실을 사진을 새로운 걸로 바꾸고 싶으면\n 버튼으로 등록하면 돼",
      "TWzh": "拍好的照片會上傳到打造家喔！\n如果想更新上傳的照片，\n只要按鍵來登錄就可以了。",
      "USen": "The photos you take will be added to\nthe Happy Home Network! If you\nwant to switch the photos, use .",
      "USes": "Las fotos que tomes se añadirán\nal Portal de Artes Decorativas.\nOprime  si quieres cambiar la foto.",
      "USfr": "Tes photos seront ajoutées au RJD!\nSi tu veux échanger des photos,\nutilise ."
    }
  },
  {
    "label": "102",
    "attribute": "0x00000000",
    "locale": {
      "CNzh": "好，到了！\n那么，加油工作吧～！",
      "EUde": "So, da wären wir! Ich wünsche dir\nviel Glück mit deiner Arbeit!",
      "EUen": "Alright, here we are! Good luck with\nyour work!",
      "EUes": "¡Aquí estamos ya! Mucho ánimo\ncon el trabajo.",
      "EUfr": "Nous y sommes ! À toi de jouer !",
      "EUit": "Bene, eccoci qui! Buona fortuna\ncon il tuo lavoro!",
      "EUnl": "Oké, daar zijn we dan! Veel succes\nermee!",
      "EUru": "Вот мы и на месте! Удачи!",
      "JPja": "よし、到着！\nじゃあ、作業がんばって～！",
      "KRko": "좋아, 도착!\n그럼 작업 힘내～!",
      "TWzh": "好，到了！\n那麼，你工作要加油喔～！",
      "USen": "Alright, here we are! Good luck with\nyour work!",
      "USes": "¡Aquí estamos ya! Mucha suerte\ncon el trabajo.",
      "USfr": "Nous y sommes! À toi de jouer!"
    }
  },
  {
    "label": "103",
    "attribute": "0x00000000",
    "locale": {
      "CNzh": "好啦～我们到达尼可的别墅了哦！",
      "EUde": "So! Das hier ist das Ferienhaus von\nniemand anderem als Bono!",
      "EUen": "Alright! We're at Niko's personal\nvacation home!",
      "EUes": "¡Aquí estamos! Este es el chalé\nde vacaciones de Miko.",
      "EUfr": "Nous y voilà. La maison de vacances\npersonnelle de Gratien.",
      "EUit": "Bene! Siamo alla casa vacanze\npersonale di Gilbertuccio!",
      "EUnl": "Oké! Dit is het vakantiehuis van Niko!",
      "EUru": "Мы прибыли на дачу Нико!",
      "JPja": "は～い、ニコちゃんの別荘に\n到着したわよ！",
      "KRko": "짠～ 방글이의 별장에\n도착했어!",
      "TWzh": "好的～我們來到尼可的別墅囉！",
      "USen": "Alright! We're at Niko's personal\nvacation home!",
      "USes": "¡Aquí estamos! Esta es la casa\nde vacaciones de Miko.",
      "USfr": "Nous y voilà. La maison de vacances\npersonnelle de Gratien."
    }
  },
  {
    "label": "201",
    "attribute": "0x02000000",
    "locale": {
      "CNzh": "怎么了？",
      "EUde": "Was gibt es denn?",
      "EUen": "What's the matter?",
      "EUes": "Dime, ¿qué ocurre?",
      "EUfr": "Oui, qu'est-ce que tu veux ?",
      "EUit": "Che succede?",
      "EUnl": "Wat is er?",
      "EUru": "В чем дело?",
      "JPja": "どうしたの？",
      "KRko": "무슨 일이야?",
      "TWzh": "怎麼了？",
      "USen": "What's the matter?",
      "USes": "Dime, ¿pasa algo?",
      "USfr": "Oui, qu'est-ce que tu veux?"
    }
  },
  {
    "label": "201_a",
    "attribute": "0x00000000",
    "locale": {
      "CNzh": "我想回去",
      "EUde": "Ich möchte zurück.",
      "EUen": "I want to go back.",
      "EUes": "¿Nos volvemos?",
      "EUfr": "On s'en va ?",
      "EUit": "Voglio tornare indietro.",
      "EUnl": "Ik wil teruggaan.",
      "EUru": "Хочу обратно.",
      "JPja": "帰りたい",
      "KRko": "돌아갈래",
      "TWzh": "我想回去",
      "USen": "I want to go back.",
      "USes": "Quiero regresar",
      "USfr": "On s'en va?"
    }
  },
  {
    "label": "201_b",
    "attribute": "0x00000000",
    "locale": {
      "CNzh": "没什么",
      "EUde": "Im Moment nichts.",
      "EUen": "It's nothing.",
      "EUes": "No, nada...",
      "EUfr": "J'ai oublié.",
      "EUit": "Niente.",
      "EUnl": "Niets, hoor.",
      "EUru": "Все в порядке.",
      "JPja": "なんでもないです",
      "KRko": "아무것도 아니야",
      "TWzh": "沒事",
      "USen": "It's nothing.",
      "USes": "No, nada...",
      "USfr": "J'ai oublié."
    }
  }
]