﻿[
  {
    "label": "002",
    "attribute": "0x00000000",
    "locale": {
      "CNzh": "真是谢谢你帮我打造别墅！\n这同时也是让我再次感受到\n(player name)实力的好机会！\n对了，为了表达我个人的感谢之情，\n我准备了礼物哦！\n不嫌弃的话，就请收下吧！",
      "EUde": "Mein Ferienhaus ist wirklich ein\nSchmuckkästchen, so viel kann\nich als Expertin sagen!\nDeshalb muss ich mich unbedingt\nmit einem kleinen Geschenk bei dir\nbedanken, (Spielername)!",
      "EUen": "It's been so nice to see you working\non my OWN vacation home this time.\nAnd you did such fantastic work!\nI just had to get you a little\nsomething extra. I hope that's OK...",
      "EUes": "Me ha encantado verte trabajar en\nmi propia casa de vacaciones. ¡Y vaya\ntrabajo genial que has hecho!\nAsí que no puedo evitar querer\nhacerte un regalo. Espero que no\nte importe...",
      "EUfr": "(nom du joueur), je voulais te remercier d'avoir conçu ma maison de vacances.\nOn dirait que l'élève a réussi à\nimpressionner le maître. Ou que tu as suivi tous mes conseils à la lettre !\nQuoi qu'il en soit, tu as bien mérité\nce petit cadeau de ma part.",
      "EUit": "È stato un piacere vederti lavorare\nsulla MIA casa vacanze questa volta.\nE hai fatto un lavoro straordinario!\nDovevo per forza prenderti qualcosa.\nSpero non sia inopportuno...",
      "EUnl": "Ik heb er erg van genoten om jou aan\nhet werk te zien. En dat aan mijn\nEIGEN vakantiehuis!\nVoor je tomeloze inzet heb je wel een\nextraatje verdiend. Ik hoop dat je het\nleuk vindt...",
      "EUru": "Так приятно, что над моей дачей\nв этот раз поработал кто-то другой.\nТы прекрасно справился!\nЯ просто не могла оставить такую\nуслугу без вознаграждения.\nНадеюсь, тебе понравится!",
      "JPja": "別荘を　つくってくれて、ありがとう！\n(player name)ちゃんの実力を\n改めて実感する、いい機会にもなったわ！\nでね、ワタシからの感謝のキモチとして、\nプレゼントを　用意してみたの！\nよかったら　受け取って！",
      "KRko": "별장을 만들어줘서 고마워!\n(player name)군의 실력을\n다시 한번 실감할 수 있는 좋은 기회였어!\n그래서 내가 개인적으로 고마운 마음을 담아서\n선물을 준비했어!\n이걸 받아줘!",
      "TWzh": "謝謝你幫我打造別墅！\n這同時也是讓我再次感受到\n(player name)實力的好機會！\n對了，為了表達我個人對你的感謝之情，\n我準備了禮物喔！\n可以的話，請收下吧！",
      "USen": "It's been so nice to see you working\non my OWN vacation home this time.\nAnd you did such fantastic work!\nI just had to get you a little\nsomething extra. I hope that's OK...",
      "USes": "Me encantó verte trabajar en mi\npropia casa de vacaciones. ¡Has\nhecho un trabajo estupendo!\nAsí que no puedo evitar querer\nhacerte un regalo. Espero que no\nte moleste...",
      "USfr": "(nom du joueur), je voulais te remercier d'avoir conçu ma maison de vacances.\nOn dirait que l'élève a réussi à\nimpressionner le maître. Ou que tu as suivi tous mes conseils à la lettre!\nQuoi qu'il en soit, tu as bien mérité\nce petit cadeau de ma part."
    }
  },
  {
    "label": "002_001",
    "attribute": "0x00000000",
    "locale": {
      "CNzh": "这是！\n在你帮我打造别墅所用的物品里，\n我选了一件自己喜欢的哦！",
      "EUde": "Ich hoffe, dass ich dir mit   auch eine Freude bereite!\nIst das nicht putzig? Nun haben wir\nbeide !",
      "EUen": "I got you your very own\n!\nIsn't it cute? That we both have\n!",
      "EUes": "Presta atención. Tengo para ti \n estupend.\n¿Te gusta? ¡Así los dos tendremos\n por cabeza!",
      "EUfr": ", tu vas en faire bon usage, j'en suis sûre !",
      "EUit": "Ti ho preso  personale !\nNon è delizios? Adesso ne abbiamo\nentrambi un!",
      "EUnl": "!\nSuperleuk, hè? Nu hebben we allebei\n!",
      "EUru": "У тебя теперь будет свой личный\n!\nМило, правда? Вернее, у нас\nобоих будет по !",
      "JPja": "それは　！\n別荘づくりに　使ってくれたものの中で、\nワタシのお気に入りを　選んだの！",
      "KRko": "이야!\n별장을 꾸밀 때 사용해줬던 것들 중에서\n내 마음에 쏙 든 걸 골라봤어!",
      "TWzh": "那是！\n在你幫我打造別墅時所使用的物品當中，\n我選了一件最喜歡的！",
      "USen": "I got you your very own\n!\nIsn't it cute? That we both have\n!",
      "USes": "Mira, tengo para ti  estupend.\n¿Te gusta? ¡Así los dos tendremos\n!",
      "USfr": ", tu vas en faire bon usage, j'en suis sûre!"
    }
  },
  {
    "label": "002_002",
    "attribute": "0x00000000",
    "locale": {
      "CNzh": "……啊，你的随身物品好像已经满了啊。\n难得有东西想要送给你，\n你能腾出空间来吗？",
      "EUde": "Deine Tasche ist ja voll! Schaff doch\nbitte etwas Platz und komm wieder.\nDu sollst ja nicht leer ausgehen!",
      "EUen": "Oh, but your pockets are full!\nI really want you to have this... Could\nyou make some room and find me?",
      "EUes": "Huy, pero tienes los bolsillos llenos.\nTengo muchas ganas de que te lleves\nmi regalo, así que ¿podrías vaciarlos\nun poco?",
      "EUfr": "Oh, tu ne peux rien porter de plus...\nVa poser quelques affaires et reviens me voir.",
      "EUit": "Oh, ma hai le tasche piene! Vorrei\nproprio che avessi questo regalo...\nPuoi fare spazio e tornare da me?",
      "EUnl": "O, je zakken zijn vol! Maar ik wil je dit zo graag geven... Kun je anders\nwat plek maken en terugkomen?",
      "EUru": "Ой, у тебя же карманы забиты!\nЯ очень хочу отдать тебе подарок...\nТы не мог бы освободить место?",
      "JPja": "あっ、荷物がいっぱいみたいね\nぜひとも　もらってほしいから、\n空きを　作ってきてくれる？",
      "KRko": "...앗, 주머니가 가득한 모양이구나\n모처럼 준비한 건 받아줬으면 하니까\n주머니에 자리를 좀 만들어 와줄래?",
      "TWzh": "……啊，你的包包好像滿了。\n難得有東西想送給你，\n你可以騰出空間來嗎？",
      "USen": "Oh, but your pockets are full!\nI really want you to have this... Could\nyou make some room and find me?",
      "USes": "Uy, pero tienes los bolsillos llenos.\nTengo muchas ganas de que te lleves\nmi regalo, así que ¿podrías vaciarlos\nun poco?",
      "USfr": "Oh, tu ne peux rien porter de plus...\nVa poser quelques affaires et reviens me voir."
    }
  },
  {
    "label": "002_003",
    "attribute": "0x00000000",
    "locale": {
      "CNzh": "呵呵呵，你腾出空间来了吗？\n那么，请收下吧！",
      "EUde": "Ah, sehr schön! Wie ich sehe, steht\neiner Geschenkübergabe nichts mehr\nim Wege. Hier, bitte sehr!",
      "EUen": "Are you ready to take your gift?\nI hope I haven't gotten your\nexpectations TOO high. Heehee!",
      "EUes": "¿Ya estás dispuesto a llevarte tu\nregalo? ¡Pues aquí tienes, y espero\nque no te defraude!",
      "EUfr": "Tiens, tu reviens chercher ton\ncadeau ? Et hop, voilà pour toi !",
      "EUit": "Sei pronto per il regalo, collega?\nSpero che le tue aspettative non\nsiano troppo alte. Eh eh eh!",
      "EUnl": "Ben je er klaar voor om je cadeau in\nontvangst te nemen? Hihihi! Hopelijk\nverwacht je er nu niet te veel van.",
      "EUru": "Теперь подарок поместится?\nНадеюсь, ты не ждешь чего-то\nнеобычайного. Хи-хи, держи!",
      "JPja": "空きを作ってきてくれた？\nそれじゃあ　受け取ってちょうだい！",
      "KRko": "우후후, 주머니에 자리는 만들었니?\n그럼 이걸 받아줘!",
      "TWzh": "呵呵呵，你騰出空間來了啊？\n那麼，請收下吧！",
      "USen": "Are you ready to take your gift?\nI hope I haven't gotten your\nexpectations TOO high. Heehee!",
      "USes": "¿Ya tienes lugar como para llevarte\nmi regalo? ¡Pues aquí tienes,\ny espero que te guste mucho!",
      "USfr": "Tiens, tu reviens chercher ton\ncadeau? Et hop, voilà pour toi!"
    }
  }
]