﻿[
  {
    "label": "001",
    "attribute": "0x0000000000000000",
    "locale": {
      "CNzh": "咦，？！\n你这是怎么了？\n要是你有什么不顺心的事情，\n就来找我聊吧！。",
      "EUde": "Was machst du denn? Fast wäre mir\nein Fingernagel abgebrochen...\nIch war doch erst bei der Maniküre!\nDu weißt schon, dass du mit mir\nüber alles quatschen kannst,\n(Floskel)?",
      "EUen": "Uh. (nickname)?! What in\nthe whole wide world is\nwrong with you?\nIf we've got probs, talk to me!",
      "EUes": "¡Ay! ¿(nickname)?\n¿Pero a qué viene esta hostilidad?\nSi te molesta algo, ¡dímelo!",
      "EUfr": "Oh. (surnom) ?!\nZyva, tu fais quoi, là ?\nTu m'cherches ? Allez, calme-toi,\non peut en parler, si tu veux !",
      "EUit": "Ehi, (nickname)!\nCioè, ma cosa caspita ti succede?\nSe hai un problema con me,\nparlamene e basta!",
      "EUnl": "Eh. (nickname)?! Wat is er mis met jou?\nAls er iets is, zeg het dan!",
      "EUru": "Ай! (nickname)?!\nЧто с тобой стряслось,\nради всего пушного?\nЕсли у нас c тобой какой-то разлад,\nтак и скажи!",
      "JPja": "ええっ、？！\nいったい　どうしたのー？\nなんかイヤなことが　あったんなら、\nアタイが相談に　のるからねー！　",
      "KRko": "앗, 아?!\n왜 그래?\n뭐 기분 나쁜 일 있었으면\n내가 들어줄게, !",
      "TWzh": "咦？！？\n你到底怎麼啦？\n如果遇到什麼不開心的事情，\n可以來找我商量唷～！。",
      "USen": "Uh. (nickname)?! What in\nthe whole wide world is\nwrong with you?\nIf we've got probs, talk to me!",
      "USes": "¡Ay! ¿(nickname)?\n¿Por qué me pegas con tanta\nfuria?\nNi que te hubiera puesto un\nmal comentario en alguna de\ntus publicaciones...",
      "USfr": "Oh. (surnom)?!\nMais, tu fais quoi, là?\nTu m'cherches? Allez, calme-toi,\non peut en parler, si tu veux!"
    }
  },
  {
    "label": "002",
    "attribute": "0x0000000000000000",
    "locale": {
      "CNzh": "哇，超痛的耶！\n，\n有话想说的话，直说就好了呀！\n为什么要一言不发就打人呢，\n真的太过分了！！。",
      "EUde": "Aua! Das tat ganz schön weh!\nWenn du mir was zu sagen hast,\ndann raus damit, (Spitzname)!\nOhne Warnung einfach so auf mich\ndraufzuhauen ist echt megauncool,\n(Floskel)!",
      "EUen": "Ugh. That HURT!\nWow, (nickname),\nwhat's your damage?",
      "EUes": "¡Aaay! ¡Que me ha dolido!\n¡Como me hayas estropeado\nla ropa, te vas a enterar, guapi!",
      "EUfr": "Aïeuuu. Ça fait mal ! En vrai, (surnom), c'est quoi, ton problème ?\nC'est bon, arrête !\nImagine si tout le monde faisait\npareil...",
      "EUit": "Ugh. Mi hai fatto male!\nCioè, (nickname), ma che ti prende?",
      "EUnl": "Hé. Dat deed pijn! Jeetje, (nickname), wat is jouw probleem?",
      "EUru": "Ай. Больно же!\n(nickname),\nчто с тобой не так?",
      "JPja": "わっ、ちょーイタいんだけど！\n、\n言いたいことあるなら　直接言ってよね\n話し合いの前に　たたくなんて\nひどいじゃん！！　",
      "KRko": "으앗, 진짜 아프거든?!\n 너,\n불만 있으면 말로 해!\n얘기도 해보기 전에\n때리는 건 아니지, !!",
      "TWzh": "哇！超～痛的說！\n，\n你有什麼話想說就直說嘛！\n什麼都不講就先打人\n很過分耶！！。",
      "USen": "Ugh. That HURT!\nWow, (nickname),\nwhat's your damage?",
      "USes": "¡Aaay! ¡Qué daño! Si me estropeas\nel atuendo que llevo hoy, me voy a\nsuperenojar, (catchphrase).",
      "USfr": "Aïeuuu. Ça fait mal! Pour vrai, (surnom), c'est quoi, ton problème?\nC'est bon, arrête!\nImagine si tout le monde\nfaisait pareil..."
    }
  },
  {
    "label": "003",
    "attribute": "0x0000000000000000",
    "locale": {
      "CNzh": "等、等一下啊！\n，\n你太过分了吧？！\n竟然对娇弱的女孩子\n这么粗暴……。",
      "EUde": "Aaah! Du hast mein Make-up ruiniert!\n(Spitzname), was hab ich dir\ndenn getan, (Floskel)?\nBuhuhu! Ein sooo süßes und bald\nsuperdupermegaberühmtes Mädel\nwie mich haut man doch nicht...",
      "EUen": "What in the what was THAT for,\n(nickname)?!\nHow DARE you do that to a talented,\nhyper smart, super cute, soon-to-be-\nultra-famous pop star like me?!",
      "EUes": "¿A qué ha venido eso, (nickname)? ¿Así tratas a una futura estrella como la moi?",
      "EUfr": "Kess't'as ? Tu cherches la misère,\n(surnom) ?!\nC'est comme ça que tu traites une\nstar du showbiz jeune, talentueuse\net qui a des rêves plein la tête ?",
      "EUit": "Ma perché accidenti l'hai fatto,\n(nickname)?!\nCome osi fare una cosa del genere\na una pop star troppo carina, troppo\ntalentuosa, troppo tutto come me?!",
      "EUnl": "Hé, waarom deed je dat, (nickname)?!\nHoe durf je dat te doen bij een\ngetalenteerde, superschattige,\nbijna beroemde superster als ik?!",
      "EUru": "Что за ерунда,\n(nickname)?!\nКак ты смеешь так вести себя\nс талантливой, милой и скоро\nсуперзнаменитой звездой...",
      "JPja": "ちょっと、もうっ！\n\n今のひどくない？！\nかよわい　女の子に\nそんなことするなんて・・・、",
      "KRko": "앗, 뭐야!\n 너,\n너무한 거 아냐?!\n가녀린 아이돌에게\n그런 짓을 하다니, ...",
      "TWzh": "等等，真是的！\n，\n你剛才太過分了吧！？\n竟然這樣對待\n柔弱的女孩子……。",
      "USen": "What in the what was THAT for,\n(nickname)?!\nHow DARE you do that to a talented,\nhyper smart, super cute, soon-to-be-\nultra-famous pop star like me?!",
      "USes": "¿A qué se debió eso, (nickname)?\nEso no se hace, ¡y menos a una\nchica tan linda y con tanto talento\ncomo yo!",
      "USfr": "Kess't'as? Tu cherches des\nproblèmes, (surnom)?!\nC'est comme ça que tu traites\nune jeune et talentueuse star\nqui a des rêves plein la tête?"
    }
  },
  {
    "label": "004",
    "attribute": "0x0000000000000000",
    "locale": {
      "CNzh": "等、等一下！\n！\n我知道我的确是超可爱的，\n但你实在没必要\n这样欺负我呀！。",
      "EUde": "Aber ansonsten geht's dir\ngut, (Floskel)?!\nNur, weil ich megasüß und beliebt\nbin, heißt das noch lange nicht,\ndass du mich ärgern darfst!",
      "EUen": "Hey! (nickname)! What the\nheck was that all about?!\nFair warning! I took three karate\nclasses when I was a kid, so I'm\nbasically a master of self-defense!",
      "EUes": "¡Ay! Pero ¿por qué me pegas?\n¡A ver si te voy a dar yo también\na ti, guapi! ¿Y entonces qué?",
      "EUfr": "Dis donc ! (surnom) !\nJe peux savoir ce que tu fais ?!\nJe te préviens ! J'ai pris des cours\nde karaté à l'école, tu risques de\nregretter d'avoir fait ça !",
      "EUit": "Ehi, (nickname)! Ma che\ncaspiterina fai?!\nTi avverto, ho fatto tre lezioni di\nkarate da piccola, quindi, cioè,\nl'autodifesa non ha segreti per me!",
      "EUnl": "Hé! (nickname)! Waar slaat dat nou op?!\nIk waarschuw je! Als kind heb ik wel\ndrie karatelessen genomen, dus ik\nben in principe levensgevaarlijk!",
      "EUru": "Эй! (nickname)!\nЧто это ты творишь?!\nПоследнее предупреждение!\nЯ в детстве ходила на карате,\nтак что я владею самозащитой!",
      "JPja": "ちょ、ちょっと、\n！\nアタイが　ちょーカワイイからって、\nそんな　いじわるしなくたって\nいいじゃんか！　",
      "KRko": "자, 잠깐\n!\n이렇게 귀여운 소녀에게\n못된 장난은 치지 말아줄래? ?",
      "TWzh": "等、等一下，\n！\n就算我真的長得超～可愛，\n也不用這樣欺負我吧！。",
      "USen": "Hey! (nickname)! What the\nheck was that all about?!\nFair warning! I took three karate\nclasses when I was a kid, so I'm\nbasically a master of self-defense!",
      "USes": "¡Ay, ay! ¿Por qué me pegas?\n¿Te da envidia que mi ropa sea\ntan superfabs?\n¡Pues solo tienes que pedírmela\ny te la prestaré encantada!\n(Si se me pasa el enojo...).",
      "USfr": "Dis donc! (surnom)!\nJe peux savoir ce que tu fais?!\nJe te préviens! J'ai pris des cours\nde karaté à l'école, tu risques de\nregretter d'avoir fait ça!"
    }
  },
  {
    "label": "005",
    "attribute": "0x0000000000000000",
    "locale": {
      "CNzh": "呜哇，怎么回事？！\n你怎么能这样乱挥乱打呢！\n伤到了其他人该怎么办呀！。",
      "EUde": "Hast du mich etwa gerade gehauen?\nIch hab ewig und drei Tage an der\nperfekten Frisur gefeilt, und jetzt\nist alles futsch, (Floskel)!",
      "EUen": "Ugh, what are you doing? Keep\nswinging that thing around and\nsomeone's going to get hurt!",
      "EUes": "¡Ah! ¡Tú sigue pegándole a la gente\ny como que te juro que alguien\nacabará llorando!",
      "EUfr": "Eh ! Tu fais quoi, là ? Arrête d'agiter\nce truc dans tous les sens, tu vas\nfinir par blesser quelqu'un !",
      "EUit": "Argh, ma cosa fai? Se continui\nad agitare quell'affare in giro,\nqualcuno si farà male!\nTu, per esempio, tontolone!",
      "EUnl": "Hè, wat doe je nou? Als je zo met\ndat ding blijft zwaaien, raakt er nog\niemand gewond!\nJij bijvoorbeeld... Kluns!",
      "EUru": "Ай, что ты делаешь? Не маши\nсачком, еще кому-нибудь глаз\nвыбьешь!\nУ тебя что... проблемы?",
      "JPja": "うわっ、なに？！\nそんなもの　ふり回さないでよね！\nケガしたら　どうするのさ！　",
      "KRko": "앗! 뭐야?!\n그런 거 휘두르고 다니지 마!\n다치면 어쩌려고 그래! !",
      "TWzh": "嗚哇！怎麼了！？\n你不要拿著那種東西亂揮啦！\n要是害別人受傷了怎麼辦！。",
      "USen": "Ugh, what are you doing? Keep\nswinging that thing around and\nsomeone's going to get hurt!",
      "USes": "¡Ay! ¿Qué haces con eso?\n¿Te parece divertido andarle\npegando a las celebridades o qué?",
      "USfr": "Eh! Tu fais quoi, là? Arrête d'agiter\nce truc dans tous les sens, tu vas\nfinir par blesser quelqu'un!"
    }
  },
  {
    "label": "006",
    "attribute": "0x0000000000000000",
    "locale": {
      "CNzh": "等等，！\n你为什么要做这种事？！\n多少也该考虑下其他人的心情吧～。",
      "EUde": "(Floskel)! Warum haust du mich,\n(Spitzname)?\nAuf welchem Planeten lebst du,\ndass du noch nicht mitbekommen\nhast, dass Hauen noch NIE in war?",
      "EUen": "Hey! (nickname), what did\nyou go and do that for,\nyou grody fish fossil?!",
      "EUes": "¡Eh! ¡(nickname)!\nQue me has hecho daño, pedazo\nde... ¡fósil polvoriento!",
      "EUfr": "(surnom) ! Je peux savoir\nce que tu fais ?!\nArrête un peu, tu veux ! Tu veux que\nje m'énerve, c'est ça ?!",
      "EUit": "Ahi... (nickname), per\nquale assurda ragione l'hai fatto,\ntesta di fossile rinsecchito?!",
      "EUnl": "Zeg! (nickname), waarom deed je dat, jij vies visfossiel!",
      "EUru": "Эй! (nickname),\nты зачем это делаешь?!\nВредина ископаемая!",
      "JPja": "ちょっと、！\nなんでそんなこと　するの？！\nやられた方の気持ちも　考えてよ～、",
      "KRko": "야, !\n왜 그러는 거야?!\n상대방 기분도 생각해야지, !",
      "TWzh": "等等，！\n為什麼要做這種事呢！？\n你也想想被打到的人的心情吧～。",
      "USen": "Hey! (nickname), what did\nyou go and do that for,\nyou grody fish fossil?!",
      "USes": "¡Eh! ¡(nickname)!\n¡Me haces dañooo!\nA veces no te entiendo...",
      "USfr": "(surnom)! Je peux savoir\nce que tu fais?!\nArrête un peu, tu veux! Tu veux que\nje m'énerve, c'est ça?!"
    }
  }
]