﻿[
  {
    "label": "001",
    "attribute": "0x0000000000000000",
    "locale": {
      "CNzh": "等、等一下～！\n我知道我摸起来手感很好，\n但你别那么用力推呀～。",
      "EUde": "Ich weiß ja, dass ich samtig zarte\nHaut habe. Ist aber noch lange kein\nGrund, mich so grob anzupacken!",
      "EUen": "Ohmigosh! HANG ON! I know you're\ntotes in a hurry, but that doesn't\nmean you can just push me around!",
      "EUes": "¡Eh, eh! ¡Basta ya! Vale que somos\namiguis, ¡pero no me empujes,\n(catchphrase)!",
      "EUfr": "Hé ! Fais gaffe ! P'têt que t'es en\nspeed ou je sais pas quoi, mais c'est\npas une raison pour me bousculer !",
      "EUit": "Allucinante! Ma che fai? Ho capito\nche vai di fretta, ma non vuol dire\nche mi puoi spingere così!",
      "EUnl": "Sjeempie! Serieus! Ik zie dat je echt\nsuperveel haast hebt, maar dat\nbetekent niet dat je me kunt duwen!",
      "EUru": "Обалдеть! Держи себя в руках!\nЕсли ты торопишься, это еще не\nзначит, что надо толкаться.",
      "JPja": "ちょっと　ちょっと～！\nさわり心地が　いいからって、\nそんなに　おさないでよね～、",
      "KRko": "뭐야, 정말～!\n아무리 내가 편해도 그렇지\n그렇게 밀면 안 되는 거잖아～ !",
      "TWzh": "等等，等一下啦～！\n就算我摸起來很舒服，\n你也不可以這樣一直推我啊～。",
      "USen": "Ohmigosh! HANG ON! I know you're\ntotes in a hurry, but that doesn't\nmean you can just push me around!",
      "USes": "¡Oye! ¡Ya basta! Entiendo que tengas\nprisa, pero eso no te da derecho a\nempujar a las famosas como yo.\nYa verás cuando tenga un\nguardaespaldas...",
      "USfr": "Hé ! Fais attention! P'têt que t'es\npressé ou je sais pas quoi, mais c'est\npas une raison pour me bousculer!"
    }
  },
  {
    "label": "002",
    "attribute": "0x0000000000000000",
    "locale": {
      "CNzh": "很、很疼的好不好！\n要是有事情找我的话，\n直接说出来不好吗……。",
      "EUde": "Au! Das tat voll weh! Wieso quatscht\ndu mich nicht einfach an, wenn du\nmeine Aufmerksamkeit willst?",
      "EUen": "Ouch! (nickname), if you\nneed something...just say it.\nWithout the pushing!",
      "EUes": "¡Pero bueno! ¿De qué vas?\nSi quieres algo, ¡dímelo!\nNo es necesario empujar.",
      "EUfr": "Aïeuuu ! Ça va pas la tête ? Est-ce\nque je pousse les gens, moi ?",
      "EUit": "Ahia! Cioè, capito? \"Ahia\"!\nSe ti serve qualcosa, voglio dire,\napri la bocca, invece di spingermi!",
      "EUnl": "Au! Ik bedoel, jeetje, weet je?\nAls er iets is? Zeg het gewoon,\nof zo? Zonder duwen?",
      "EUru": "Ай! Ты чего, больно же?\nТебе что-то надо? А сказать\nэто можешь? Не толкаясь?",
      "JPja": "イタい、イタいってば！\nアタイに　用があるなら、\nちゃんと口で　言ってよね～・・・、",
      "KRko": "아얏, 아프다구!\n나한테 볼일 있으면\n말로 해줄래? ?",
      "TWzh": "好痛！我就說這樣很痛了嘛！\n你如果有事找我的話，\n就好好用說的啦……。",
      "USen": "Ouch! (nickname), if you\nneed something...just say it.\nWithout the pushing!",
      "USes": "¡Pero bueno! ¿Qué te pasa?\nSi quieres algo, ¡dímelo!\nNo es necesario empujar.",
      "USfr": "Aïeuuu! Ça va pas la tête? Est-ce\nque je pousse les gens, moi?"
    }
  },
  {
    "label": "003",
    "attribute": "0x0000000000000000",
    "locale": {
      "CNzh": "等、等一下啦！\n我说！\n你怎么一直推我呀！\n你面对女孩子的时候，\n就不能采取更温和的\n交流方式吗？！。",
      "EUde": "Hey! Was soll das, (Floskel)?!\nBin ich etwa so leicht zu\nübersehen, (Spitzname)?\nIch hoffe, du findest es nicht etwa\nokay, Mädels rumzuschubsen!\nDas geht nämlich gar nicht!",
      "EUen": "Hey. HEY! (nickname)!\nWhy do you have to be shoving\nme around? KNOCK IT OFF!",
      "EUes": "¡EH! ¡¿Qué derecho tienes\nde ir empujando a la gente?!\n¡Fatal me parece! ¡FATAL!",
      "EUfr": "Hé... Hé oh ! (surnom) ! Je peux savoir pourquoi tu me pousses ?\nC'est pas bien de pousser les gens.\nOn te l'a jamais appris ? Surtout\nune super star interplanétaire !!!",
      "EUit": "Ehi. Ehi, (nickname)!\nPerché mi spintoni?\nPensi che sia bello essere così\nmaleducati con una signora?\nVedi di piantarla!",
      "EUnl": "Hé. Hé!!! (nickname)!!! Waarom duw je een charmante popster als ik? Stop ermee!",
      "EUru": "Эй. Эй!!! (nickname)!!!\nРазве можно девочек обижать?\nПрекрати сейчас же!",
      "JPja": "ちょっ、もうっ！\nってば！\nなんでおすのよっ！\n女の子相手に　そういう\n力任せの　コミュニケーションは\nやめてくれない？！　",
      "KRko": "아, 정말!\n 너!\n왜 밀치는 거야!\n그렇게 힘으로 밀어붙이는 건\n대화가 아니야! !",
      "TWzh": "等一下啦，討厭！\n你真是的，\n為什麼要推我啊！\n你可以不要像這樣靠蠻力\n跟女孩子交流嗎！？。",
      "USen": "Hey. HEY! (nickname)!\nWhy do you have to be shoving\nme around? KNOCK IT OFF!",
      "USes": "¡Ay! ¡OYEEE! ¡Esa no es manera\nde tratar a una chica tan fabulosa\ncomo yo! ¡No lo vuelvas a hacer!",
      "USfr": "Hé... Hé oh! (surnom)!\nJe peux savoir pourquoi tu me\npousses?\nC'est pas bien de pousser les gens.\nOn te l'a jamais appris? Surtout une\nsuperstar interplanétaire!!!"
    }
  },
  {
    "label": "004",
    "attribute": "0x0000000000000000",
    "locale": {
      "CNzh": "等等，！\n你这样一直推我也太过分了！\n我知道你想夺走我大众偶像的宝座，\n但你也不该使用\n这么直白的手段呀……。",
      "EUde": "He! (Spitzname)!\nDu hast mich geschubst!\nWillst du mir etwa meinen Platz\nim Rampenlicht streitig machen,\n(Floskel)?",
      "EUen": "(nickname)?! Stop being\nsuch a reverse-cool person!\nPushing me around is just\nso super MEAN!",
      "EUes": "Pero... ¡¿(nickname)?! ¿Por qué eres tan supermala conmigo? Si no te hecho nada, jo...",
      "EUfr": "Mais oh ! (surnom) ! Tu le\nfais exprès ?! Arrête de me pousser,\nc'est pas sympa !",
      "EUit": "Ehi, (nickname)! Smettila\ndi comportarti da cafone!\nSpintonarmi è una cosa troppo\ncattiva!",
      "EUnl": "(nickname)! Wat is dit voor een gepest?! Me zomaar duwen is echt supergemeen!",
      "EUru": "(nickname)! Прекрати\nтолкаться! Не надо вредничать!\nЗачем ты меня так обижаешь?",
      "JPja": "ちょっと、！\nむりやり　おすなんて　ヒドいじゃん！\nアイドルの　ざを\n力任せに　うばおうと　するなんて\nやめてよ～・・・、",
      "KRko": "야, !\n그렇게 막 밀면 어떡해!\n아이돌의 자리를\n힘으로 뺏으려고 하다니\n정말 못됐어～ !",
      "TWzh": "等等，！\n你這樣亂推人很過分耶！\n不要這樣用蠻力\n來搶走我的偶像寶座啦……。",
      "USen": "(nickname)?! Stop being\nsuch a reverse-cool person!\nPushing me around is just\nso super MEAN!",
      "USes": "Pero... ¡¿(nickname)?!\n¿Por qué eres tan supermala\nonda conmigo?\nSi yo no te hice nada...",
      "USfr": "Mais oh! (surnom)! Tu le\nfais exprès?! Arrête de me pousser,\nc'est pas gentil!"
    }
  },
  {
    "label": "005",
    "attribute": "0x0000000000000000",
    "locale": {
      "CNzh": "呜哇！！先等等～！\n别这么用力推我啊！。",
      "EUde": "Seltsame Art, deine Bewunderung\nauszudrücken. Wenn du ein Auto-\ngramm möchtest, sag's doch einfach!",
      "EUen": "Hey! HEY! Stop your shoving!\nWatch out! Geez, if you want\nan autograph, like...JUST ASK!",
      "EUes": "¡Oye! ¡Que si quieres un autógrafo,\nme lo pides como una persona\nnormal, (catchphrase)!",
      "EUfr": "Hm ?! Hé ! Ça va pas, la tête ?!\nDis donc, mignon, si tu veux un\nautographe, t'as qu'à demander !",
      "EUit": "Ehi! Oh! Piantala di spingere!\nOcchio! Cioè, se vuoi un autografo,\nperché non chiedi e basta?",
      "EUnl": "Hé! Hé!!! Stop met dat geduw! Kijk\nuit! Jeetje, als je een handtekening\nwilt, hoef je het maar te vragen!",
      "EUru": "Эй! Эй!!! Хватит толкаться!\nОсторожнее! Если автограф\nхочешь, можно просто спросить!",
      "JPja": "うわっ！！　ちょっと～！\nそんなに　おさないでよ！　",
      "KRko": "아앗!! 정말～!\n자꾸 그렇게 밀지 마! !",
      "TWzh": "嗚哇！！等一下～！\n你不要這樣一直推我啦！。",
      "USen": "Hey! HEY! Stop your shoving!\nWatch out! Geez, if you want\nan autograph, like...JUST ASK!",
      "USes": "¡Deja ya de empujaaar! Si quieres\nun autógrafo, dímelo y ya está, \n¡como una persona normal!",
      "USfr": "Hum?! Hé! Ça va pas, la tête?!\nDis donc, mignon, si tu veux un\nautographe, t'as qu'à demander!"
    }
  },
  {
    "label": "006",
    "attribute": "0x0000000000000000",
    "locale": {
      "CNzh": "等一下等一下～\n怎么突然开始玩挤人游戏了，\n而且还不告诉我？！。",
      "EUde": "He! Heee!\nSchubsen ist TOTAL uncool,\n(Floskel)!",
      "EUen": "Haaang on! You think it's cool to act\nlike that? Ohmigosh. So totally rude!",
      "EUes": "¿Pero tú crees que así eres como\nmás guay o algo? Pues no, guapi,\nlo único que eres es un abusón.",
      "EUfr": "Tu te crois où ?! Tu sais pas que ça\nse fait pas, de pousser les gens ?\nJ'hallucine...",
      "EUit": "Aspeeeetta! Pensi che vada bene\nfare così? Allucinante. Sei troppo\nmaleducato!",
      "EUnl": "Waaacht eens even! Vind je dat cool\nof zo? Sjeempie, dat is echt zo\nonbeleefd!",
      "EUru": "Осторожно! Ты думаешь,\nчто тебе все можно?\nОбалдеть! Какая наглость!",
      "JPja": "ちょっと　ちょっと～\n急に　おしくらまんじゅう　始めるなんて\n聞いてないよー？！　",
      "KRko": "뭐야 도대체!\n밀치기 게임이 하고 싶으면\n먼저 물어보는 게 예의 아니야? ?",
      "TWzh": "等等，等一下啦～\n怎麼突然就開始玩擠人游戲了？\n我都不知道啊～！？。",
      "USen": "Haaang on! You think it's cool to act\nlike that? Ohmigosh. So totally rude!",
      "USes": "¿Pero tú qué te crees? ¿Que actuar\nasí te hace más interesante?\nPues yo entiendo del tema, guapi,\ny déjame decirte que lo único que\nhaces es quedar hipermal.",
      "USfr": "Tu te crois où?! Tu sais pas que ça\nse fait pas, de pousser les gens?\nJ'hallucine..."
    }
  }
]