﻿[
  {
    "label": "101",
    "attribute": "0x0000000000001300",
    "locale": {
      "CNzh": "",
      "EUde": "",
      "EUen": "",
      "EUes": "",
      "EUfr": "",
      "EUit": "",
      "EUnl": "",
      "EUru": "",
      "JPja": "",
      "KRko": "",
      "TWzh": "",
      "USen": "",
      "USes": "",
      "USfr": ""
    }
  },
  {
    "label": "101_01",
    "attribute": "0x0000000000001300",
    "locale": {
      "CNzh": "哈喽！我是(resident name)。\n……你说什么？\n要为我建造别墅？！\n如果此话当真……\n那我当然愿意啦！\n我这就去找你，稍微等我一下。",
      "EUde": "Hallo, hallo, hallo! Hier spricht\n(Einwohnername). Was gibt's! Wie?\nEin Ferienhaus, speziell für mich?\nWer würde da Nein sagen?! Ich\nkomm gleich rübergedüst!",
      "EUen": "Hello, hello, hello! You've reached\n(resident name). Talk to me! Huh?\nYou want to make a vacation home\nspecifically for me? Who would say\nno to that?! I'll rush right over!",
      "EUes": "¡Hola, hola! Acabas de contactar con\n(resident name). ¡Cuéntame! ¿Eh?\n¿Quieres hacerme en exclusiva una\ncasa de vacaciones? ¡Nadie puede\nrechazar esa oferta! ¡Voy para allá!",
      "EUfr": "Bonjour, bonjour ! Ici (nom du résident). Qu'est-ce qu'il se passe ?\nHein ?  Tu veux construire une villa\nde vacances que pour moi ? Quoi\nde plus naturel...\nEnfin... C'est une offre qui ne se\nrefuse pas ! J'arrive tout de suite !",
      "EUit": "Hola, hola, hola! Qui parla (resident name). Dimmi! ... Eh?\nSe voglio una casa vacanze pensata\nper me? E me lo chiedi pure?! Fammi\ningellare i capelli e arrivo di volata!",
      "EUnl": "Hallo, hallo, hallo! Met (resident name). Praat met me! Hè?\nJe wilt speciaal voor mij een\nvakantiehuis maken? Hoe kan ik daar\nnee tegen zeggen?! Ik zie je zo!",
      "EUru": "Приветствую! Ты дозвонился до\n(resident name). Чем могу быть\nполезен? А?\nТы хочешь построить дачу\nспециально для меня? Как от такого\nможно отказаться?! Уже выезжаю!",
      "JPja": "ハロー！　こちら　(resident name)だよ\n・・・なんだって？\nボクだけの別荘を　作ってくれるの？！\nもし　その話が本当なら・・・\nぜひ　お願いしたいね\nそっちに行くから　少しだけ待ってて",
      "KRko": "헬로～! (resident name)이야\n...뭐?\n나만의 별장을 만들어주겠다구?!\n만약 그 얘기가 사실이라면...\n꼭 좀 부탁하고 싶군\n그쪽으로 갈 테니 잠시만 기다려줘",
      "TWzh": "Hello！我是(resident name)。\n你……你說什麼？\n你要蓋一棟屬於我的別墅嗎！？\n如果你說的是真的……\n那就拜託你了。\n我馬上過去你那裡，請稍等一下。",
      "USen": "Hello, hello, hello! You've reached\n(resident name). Talk to me! Huh?\nYou want to make a vacation home\nspecifically for me? Who would say\nno to that?! I'll rush right over!",
      "USes": "¡Hola, hola! Acabas de contactar a\n(resident name). ¡Cuéntame! ¿Eh?\n¿Quieres hacerme en exclusiva una\ncasa de vacaciones? ¡Nadie puede\nrechazar esa oferta! ¡Voy para allá!",
      "USfr": "Hola, hola! Ici (nom du résident). Qu'est-ce qui se passe?\nHein? Tu veux construire une\nmaison de vacances rien que\npour moi? Quoi d'plus naturel...\nEnfin... C'est une offre qui s'refuse\npas! J'arrive tout de suite!"
    }
  },
  {
    "label": "101_02",
    "attribute": "0x0000000000001300",
    "locale": {
      "CNzh": "喂，你好，我是(resident name)。\n……啊？你问我要不要在你那边\n建一栋属于我自己的别墅？\n这可真是求之不得呢！\n我这就去你那儿，\n请稍等！。",
      "EUde": "Hallo-ho! Hier ist (Einwohnername). Was gibt's? Aha. Mm-hmm. Ja?\nJA? Ach du liebe Zeit!\nKlar will ich ein Ferienhaus!\nDu musst nichts mehr sagen, ich bin\nüberzeugt! Ich komme sofort vorbei.",
      "EUen": "Bonjour! This is (resident name).\nWhat's up? Uh-huh. Mm-hmm. Yeah?\nYEAH? Oh my GOSH!\nOf course I want a vacation home!\nYou can stop talking, I'm already\nsold! I'll be right over.",
      "EUes": "¡«Hello»! Soy (resident name). ¿Qué hay? Sí, sí... Ya, claro... pero... ¡¿Lo dices en serio?!\n¡Por supuesto que quiero una casa\nde vacaciones! No me cuentes más.\nMe has convencido. ¡Voy a verte!",
      "EUfr": "Salut ! (nom du résident) à l'appareil ! Que puis-je faire pour toi ?\nHu-hum. Mm-hmm. Vraiment ?\nC'est pas un canular ?\nBien sûr que je veux une villa de\nvacances ! N'en dis pas plus,\nje suis partant ! J'arrive !",
      "EUit": "Ehilà! Parla (resident name). Come va? Uh-uh. Mmmh-mh. Ah... Cosa? Sorbole!\nCerto che la desidero una casa\nvacanze! Risparmiati il discorso,\nmi hai già convinto. Sto arrivando.",
      "EUnl": "Hallo! Met (resident name). Hoe is het? Hmmm. Mm-hmm. Ja? JA? O, dat meen je niet!\nNatuurlijk wil ik een vakantiehuis!\nStop maar met praten, ik ben om!\nIk zie je zo.",
      "EUru": "Бонжур! Говорит (resident name).\nЧто стряслось? Ага. Так. Да? Что?! Не может быть!\nКонечно, я хочу себе новую дачу!\nМожешь не продолжать, я уже\nна крючке! Скоро буду.",
      "JPja": "もしもし、(resident name)だよ\n・・・えっ？　キミのところで\n自分だけの別荘を　建てないかって？\nそれは　願ったり　かなったりだよ\n今すぐ　そっちに行くから　\nプリーズ　ウエイト！　",
      "KRko": "여보세요, (resident name)입니다\n...뭐? 그대의 사무소에서\n나만의 별장을 만들어보지 않겠냐구?\n그러면 나야 좋지\n지금 바로 그쪽으로 갈 테니까\n플리즈 웨이트! !",
      "TWzh": "喂，我是(resident name)。\n咦……？你問我要不要在你那邊\n蓋一棟屬於自己的別墅？\n那對我來說可是求之不得啊。\n我現在馬上去你那裡。\nPlease wait！。",
      "USen": "Bonjour! This is (resident name).\nWhat's up? Uh-huh. Mm-hmm. Yeah?\nYEAH? Oh my GOSH!\nOf course I want a vacation home!\nYou can stop talking, I'm already\nsold! I'll be right over.",
      "USes": "¡\"Hello\"! Soy (resident name). ¿Qué cuentas? Sí, sí... Ajá... claro...\npero... ¡¿Hablas en serio?!\n¡Por supuesto que quiero una casa\nde vacaciones! No me cuentes más.\nYa me convenciste. ¡Voy a verte!",
      "USfr": "Moshi moshi! (nom du résident) à l'appareil! Qu'est-ce que je peux faire pour toi?\nHu-hum. Mm-hmm. Vraiment?\nC'est pas un canular?\nBien sûr que j'veux une villa de\nvacances! N'en dis pas plus,\nj'suis partant! J'arrive!"
    }
  },
  {
    "label": "101_03",
    "attribute": "0x0000000000001300",
    "locale": {
      "CNzh": "你好，我是(resident name)。\n……什么？\n你要为我建造别墅吗？！\n这个提议可真是太让人高兴了～\n那等我到你那边再细谈。。",
      "EUde": "(Einwohnername) ist bereit für dich.\nLass hören. Hmm? Ein Ferienhaus?\nLass mich 'ne Sekunde nachdenken.\nJA. Hab nicht mal die volle Sekunde\ngebraucht, ha-HA! Ich bin gleich da!",
      "EUen": "You're go for (resident name).\nStart talkin'. Hmm? A vacation\nhome, you say?\nHang on, let me think about that for\na second. YES. Didn't even need the\nfull second, ha HA! I'll be right over!",
      "EUes": "Aquí (resident name). ¿De qué se trata? ¿Una casa de vacaciones, dices?\nDéjame pensarlo un segundo... Ya.\nMe han bastado solo cinco décimas.\n¡Je, je! Me acerco y lo hablamos.",
      "EUfr": "(nom du résident) à ton service.\nHmm ? Une villa de vacances ?\nAttends deux secondes que j'y\nréfléchisse. D'ACCORD ! Ça ne m'a\npas pris plus d'une seconde. Ha HA !\nJe saute dans mon jet privé et\nj'arrive !",
      "EUit": "Soy (resident name). Dimmi. Eh? Hai detto una casa vacanze?\nAspetta, fammici pensare un attimo.\nSì! A che serve pensarci, ah ah ah!\nMi pettino e arrivo subito!",
      "EUnl": "Je spreekt met de enige echte (resident name). Zeg het maar. Hmm? Een vakantiehuis, zeg je?\nDaar moet ik even over nadenken.\nJA. Ik had nog geen volle seconde\nnodig. HaHA! Ik zie je zo!",
      "EUru": "(resident name) у аппарата. Слушаю.\nХм-м? Построить дачу, говоришь?\nПозволь мне подумать! Пройдет\nвсего одна секун... да, я за! Даже\nсекунды не нужно! Уже в пути!",
      "JPja": "はい、こちら　(resident name)です\n・・・え？\nボクの別荘を　作ってくれるの？！\nこんなに嬉しい　お誘いはないよ～\nとりあえず　そっちで話そうか、",
      "KRko": "네, (resident name)입니다\n...응?\n내 별장을 그대가 만들어주겠다는 건가?!\n달콤한 꿀 같은 제안이군～\n일단 그쪽에서 얘기를 나눠볼까, ?",
      "TWzh": "你好，我是(resident name)。\n咦……？\n你要幫我蓋別墅嗎！？\n這是我聽過最令人開心的提議了～\n總之，我先去你那裡談談吧，。",
      "USen": "You're go for (resident name).\nStart talkin'. Hmm? A vacation\nhome, you say?\nHang on, let me think about that for\na second. YES. Didn't even need the\nfull second, ha HA! I'll be right over!",
      "USes": "Aquí (resident name). ¿De qué se trata? ¿Una casa de vacaciones, dices?\nDéjame pensarlo un segundo...\nListo. ¡La quiero! Me acerco y\nlo hablamos mejor.",
      "USfr": "(nom du résident) à ton service.\nHmm? Une villa de vacances?\nAttends deux secondes que j'y\nréfléchisse. D'ACCORD! Ça m'a pas\npris plus d'une seconde. Ha HA!\nJ'saute dans mon jet privé et\nj'arrive!"
    }
  },
  {
    "label": "101_04",
    "attribute": "0x0000000000001300",
    "locale": {
      "CNzh": "嗨，很高兴能见到你。\n找(resident name)我有什么事啊？\n……什么？我可以拥有自己的别墅？！\n这听起来很有意思……\n那就麻烦你了！。",
      "EUde": "Hallo! Bevor du irgendetwas sagst,\nes ist eine solche Ehre, mit mir zu\nreden. Gern geschehen. Was gibt's?\nOh? Ein Ferienhaus? Nur für mich?\nDas wäre jetzt MIR eine Ehre! Ich bin\nsofort zur Stelle!",
      "EUen": "Hello! And before you say anything,\nit is SUCH an honor to talk to me. So\nyou're welcome. Now, what's up?\nHuh? A vacation home? Just for me?\nNow I'M honored! I'll drop everything\nand rush right over!",
      "EUes": "¡Hola! Supongo que eres consciente\ndel privilegio de poder hablar con\nalguien de mi influencia. ¿Qué hay?\n¿Cómo? ¿Una casa de vacaciones?\n¿Para alguien tan modesto y humilde\ncomo yo? ¡Estoy ahí en un segundo!",
      "EUfr": "Bonjour !\nAvant que tu ne dises quoi que ce\nsoit... Je sais que c'est un IMMENSE\nhonneur de parler avec moi. \nAlors je t'en prie, ne soit pas\nintimidé. Je t'écoute.\nHein ? Une villa de vacances ?\nRien que pour moi ?\nMaintenant, tout l'honneur est pour\nmoi ! Attends-moi, je dis à mon\nchauffeur de démarrer et j'arrive !",
      "EUit": "Hola! Scommetto che stavi per dirmi\nche ci terresti a conoscermi e che\nè un onore per te...\nEh? Una casa vacanze? Toda mia?\nDirei che questo invece è un onore\npor mí! Allora arrivo subito!",
      "EUnl": "Hallo! En voor je nog iets zegt, het\nis ZO'N eer om te praten met mij.\nGraag gedaan. Wat is er?\nHè? Een vakantiehuis? Speciaal voor\nmij? Nu ben IK vereerd! Blijf waar je\nbent, ik kom er meteen aan!",
      "EUru": "Алло! Хотел тебе напомнить, что\nговорить со мной — это большая\nрадость. Не за что. В чем дело?\nА-а-а? Дача? Для меня одного?\nТеперь ты решил меня\nпорадовать? Все бросаю и еду!",
      "JPja": "やあ、お会いできて光栄だよ\nこの　(resident name)に　何かご用かな？\n・・・え、自分だけの別荘？！\nそれは　興味深いな・・・\nぜひ　お願いするよ！　",
      "KRko": "안녕, 만나서 영광이야\n이 (resident name)에게 무슨 볼일이지?\n...뭐라구? 나만의 별장?!\n그거 참 흥미로운걸...\n꼭 부탁할게! !",
      "TWzh": "嗨，我很榮幸能見到你，\n請問你找我(resident name)有什麼事呢？\n咦……我專屬的別墅！？\n這提議真讓人感興趣啊……\n那就拜託你了！。",
      "USen": "Hello! And before you say anything,\nit is SUCH an honor to talk to me. So\nyou're welcome. Now, what's up?\nHuh? A vacation home? Just for me?\nNow I'M honored! I'll drop everything\nand rush right over!",
      "USes": "¡Hola! Supongo que eres consciente\ndel privilegio de poder hablar con\nalguien de mi influencia. ¿Qué pasa?\n¿Cómo? ¿Una casa de vacaciones?\n¿Para alguien tan modesto y humilde\ncomo yo? ¡Estoy ahí en un segundo!",
      "USfr": "Bonjour!\nAvant que tu dises quoi que ce soit...\nJe sais qu'c'est un IMMENSE\nhonneur de parler avec moi. \nAlors j't'en prie, sois pas intimidé.\nJ't'écoute.\nHein? Une villa de vacances?\nRien que pour moi?\nMaintenant, tout l'honneur est pour\nmoi! Attends-moi, j'arrive!"
    }
  },
  {
    "label": "102",
    "attribute": "0x0000000000001300",
    "locale": {
      "CNzh": "哈喽，～\n很高兴你能联系我。\n对了，你找我有什么事吗？\n啊……要为我建造别墅？！\n原来是这么回事，听起来很有趣呢～\n我这就去找你了解详情。。",
      "EUde": "WER STÖRT? Ha-HA, kleiner Spaß!\nWas gibt's denn, (Spitzname)?\nOooh, ein Ferienhaus? Für moi?\nIch bin nicht abgeneigt! Augenblick,\nich komme gleich vorbei!",
      "EUen": "WHO IS THIS? Ha HA, just joking!\nWhat's up, (nickname)?\nOooh, a vacation home? Just for me?\nInterest—piqued! I'll be right over!",
      "EUes": "¿Quién me llama? ¡Je, je! Es broma.\n¿Qué hay, (nickname)?\nOh, ¿una casa? ¿Para pasar allí mis\nvacaciones? ¡Me interesa, como casi\ntodo lo nuevo! ¡Voy para allá!",
      "EUfr": "Cessez de m'appeler, je ne donnerai\nrien ! Ha HA ! Je plaisante !\nAlors (surnom), que me racontes-tu de beau ?\nOh, une villa de vacances ? Rien\nque pour moi ?\nJe n'en suis pas exactement à mon\ngalop d'essai, mais ça m'intéresse\nquand même ! J'arrive !",
      "EUit": "Si può sapere con chi sto parlando?\nAh ah ah, scherzavo. Che si dice,\n(nickname)?\nOooh, una casa vacanze? Para mí?\nPer una volta preferisco ascoltarti\nanziché parlare di me. Arrivo subito!",
      "EUnl": "WIE IS DIT? HaHA, grapje hoor!\nHoe is het, (nickname)?\nO, een vakantiehuis? Speciaal voor\nmij? Mijn interesse is gewekt! Ik kom\ner meteen aan!",
      "EUru": "Не узнаю, кто это?! Хо-хо, я так\nшучу! Как делишки, (nickname)?\nУх, дача? Для меня одного? Я не\nмогу отказаться! Уже выезжаю!",
      "JPja": "ハロー、\nキミから　連絡をくれるなんて　嬉しいよ\nところで　ボクに　何の用だい？\nえっ・・・ボクの別荘を？！\nなるほど、面白そうな話じゃないか～\n今から　そっちに行くよ、",
      "KRko": "헬로～ 군\n그대에게 연락을 받다니 기쁜걸?\n근데 나한테 무슨 볼일이지?\n아니... 내게 별장을?!\n그렇군, 무척 흥미로워～\n지금 그쪽으로 갈게, ",
      "TWzh": "Hello，，\n我很高興你像這樣聯絡我喔，\n請問找我有什麼事嗎？\n咦……要蓋我的別墅！？\n原來如此，這聽起來很有趣呢～\n那我現在就過去找你吧，。",
      "USen": "WHO IS THIS? Ha HA, just joking!\nWhat's up, (nickname)?\nOooh, a vacation home? Just for me?\nInterest—piqued! I'll be right over!",
      "USes": "¿Quién me llama? ¡Je, je! Es chiste.\n¿Qué cuentas, (nickname)?\nOh, ¿una casa? ¿Para pasar allí mis\nvacaciones? ¡Me interesa, como casi\ntodo lo nuevo! ¡Voy para allá!",
      "USfr": "Cessez de m'appeler, je n'donnerai\nrien! Ha HA! J'plaisante!\nAlors, (surnom), tu racontes quoi de beau?\nOh, une villa de vacances? Rien\nque pour moi?\nJ'en suis pas exactement à mon\ngalop d'essai, mais ça m'intéresse\nquand même! J'arrive!"
    }
  },
  {
    "label": "201",
    "attribute": "0x0000000000001300",
    "locale": {
      "CNzh": "",
      "EUde": "",
      "EUen": "",
      "EUes": "",
      "EUfr": "",
      "EUit": "",
      "EUnl": "",
      "EUru": "",
      "JPja": "",
      "KRko": "",
      "TWzh": "",
      "USen": "",
      "USes": "",
      "USfr": ""
    }
  },
  {
    "label": "201_01",
    "attribute": "0x0000000000001300",
    "locale": {
      "CNzh": "喂，你好～我是(resident name)。\n找我有什么事吗？\n……什么，你说合住？！\n我以前看过以“合住”为主题的电视剧，\n一直有些好奇实际上是什么样的呢……\n麻烦你跟我详细说说吧。。",
      "EUde": "Hallöchen! (Einwohnername) hier.\nWas liegt an? Oh! Ich soll mit\njemandem zusammenwohnen?\nIch hab schon überlegt, wie ich mein\nLeben mehr zu einer Sitcom machen\nkann... Und das passt doch perfekt!",
      "EUen": "Hello! (resident name) here.\nWhat's up? Oh! You want me to\nbe someone's roommate?\nI've been looking for ways to make\nmy life more like a sitcom...so that\nsounds perfect! Count me in!",
      "EUes": "¿Qué tal? Aquí (resident name). ¿Qué se te ofrece? ¿Eh? ¿Quieres que comparta casa con alguien?\nPodría ser como en ese programa de\nla tele... ¿Habría cámaras? Es igual,\n¡me gusta la idea! ¡Quiero saber más!",
      "EUfr": "Allô ! Ici (nom du résident). Quoi de neuf ? Oh ! Tu voudrais que je fasse de la colocation ?\nJe me demandais justement comment\nfaire de ma vie un sujet de série...\nTa proposition tombe donc à pic !\nJ'accepte !",
      "EUit": "Hola! Qui parla (resident name). Come va? Eh?! Quindi c'è qualcuno a cui serve un coinquilino?\nSarebbe come vivere dentro una\ndi quelle sitcom... con me sempre\nal centro dell'attenzione! Ci sto!",
      "EUnl": "Hallo! (resident name) hier. Hoe is het? O! Je wilt dat ik met iemand samen ga wonen?\nIk zoek naar manieren om mijn leven\nmeer als een soap te maken... dus\ndat klinkt perfect! We gaan ervoor!",
      "EUru": "Алло! Говорит (resident name). Чем\nобязан? Ох! Ты хочешь, чтобы\nя делил с кем-то свою дачу?\nМоя жизнь и так напоминает\nкомедию... Так почему бы не\nввести новый персонаж! Я за!",
      "JPja": "もしもし、(resident name)だよ\nボクに　何か　ご用かな？\n・・・えっ、ハウスシェアだって？！\n昔、そういう　TVドラマを見てから\nずっと　気になってたんだよね・・・\nぜひ詳しい話を　聞かせてよ、",
      "KRko": "여보세요, (resident name)이야\n내게 무슨 일이지?\n...응? 하우스 셰어?!\n예전에 TV에서 그런 드라마를 보고\n어떤 건지 무척 궁금했었는데...\n자세하게 얘기해주겠어? ?",
      "TWzh": "喂～我是(resident name)。\n請問找我有什麼事嗎？\n咦……你說同住！？\n以前我有看過以同住為主題的電視節目，\n所以一直對同住很感興趣呢……\n請你務必把詳情告訴我，。",
      "USen": "Hello! (resident name) here.\nWhat's up? Oh! You want me to\nbe someone's roommate?\nI've been looking for ways to make\nmy life more like a sitcom...so that\nsounds perfect! Count me in!",
      "USes": "¿Qué tal? Aquí (resident name). ¿Qué se te ofrece? ¿Eh? ¿Quieres que comparta casa con alguien?\nDebe ser como en ese programa\nde televisión... ¿Habría cámaras?\nDa igual, ¡me gusta la idea!",
      "USfr": "Allô! Ici, (nom du résident). Quoi d'neuf? Oh! Tu voudrais que j'fasse de la coloc?\nJ'me demandais justement comment\nfaire de ma vie un sujet de série...\nTa proposition tombe à pic!\nJ'accepte!"
    }
  },
  {
    "label": "201_02",
    "attribute": "0x0000000000001300",
    "locale": {
      "CNzh": "你好，我是(resident name)。\n今天有什么事吗？\n……哦～你说合住啊～\n可是，要合住也得先获得\n合住对象的同意吧……\n总之，我们还是当面谈吧。。",
      "EUde": "Hey, hey! (Einwohnername) hier.\nNa? Hm! Ich soll mir mit jemandem\nein Haus teilen?\nIch bin nicht dagegen... Kommt aber\ndrauf an, was mein Mitbewohner in\nspe sagt. Ich komm mal rüber.",
      "EUen": "Hey, hey! (resident name) here.\nWhat's up? Hmm! So you want me\nto share a house with someone?\nI'm not against the idea...but only if\nthe feeling is mutual! Let me head\non over to talk more.",
      "EUes": "¡Muy buenas! (resident name) a la escucha. ¿Qué me cuentas? ¿Que quieres que viva con alguien?\nMe parece buena idea... si a mi compi\ntambién se lo parece, claro. Voy a\nverte y me lo explicas mejor.",
      "EUfr": "Salut salut ! ici (nom du résident). Quoi de neuf ?\nHmm ! Tu voudrais que je partage\nune villa avec quelqu'un ?\nJe ne suis pas contre l'idée... mais\nje n'accepte que si ce n'est pas\navec un fan un peu trop collant !\nJe vais venir te voir pour en discuter.",
      "EUit": "Ehi! Hablas con (resident name). Dimmi, dimmi! Come?! Servirebbe un coinquilino e hai pensato a me?\nMmmh... Perché no... Ma voglio\nuna mensola solo per i miei gel.\nArrivo, così ne parliamo con calma.",
      "EUnl": "Hé, hé! (resident name) hier. Hoe is het? Hmm! Dus je vraagt of ik met iemand een huis wil delen?\nGeen slecht idee... maar alleen als\nwe er allebei zo over denken! Ik kom\nlangs, dan praten we verder.",
      "EUru": "Привет! (resident name) слушает.\nЧем могу быть полезен? Хм! Ты\nхочешь, чтобы я с кем-то жил?\nЯ не против, конечно... Но,\nпонимаешь, наши ауры должны\nсовпасть! Нам нужно это обсудить.",
      "JPja": "ハイ、(resident name)だよ\n今日は　どうしたんだい？\n・・・へぇ～、ハウスシェアか～\nこういうのって　双方の同意がないと\nなかなか　難しいと思うし・・・\nとにかく　会って話をしてみるよ、",
      "KRko": "하이, (resident name)이야\n오늘은 무슨 일로 연락했나?\n...흐음～ 하우스 셰어라～\n이런 건 서로의 동의가 없으면\n오래 이어지지 않을 테니까...\n일단 만나서 이야기해볼게, ",
      "TWzh": "你好，我是(resident name)。\n今天找我有什麼事嗎？\n哦……要同住啊～\n不過如果沒有雙方的同意，\n這應該很難執行吧……\n總之先讓我跟對方見面談談吧，。",
      "USen": "Hey, hey! (resident name) here.\nWhat's up? Hmm! So you want me\nto share a house with someone?\nI'm not against the idea...but only if\nthe feeling is mutual! Let me head\non over to talk more.",
      "USes": "¡Buenas! Habla (resident name). ¿Qué me cuentas? ¿Que quieres que viva con alguien?\nMe parece buena idea... si a mi\ncompañero de casa también, claro.\nVoy a verte y me lo explicas mejor.",
      "USfr": "Salut, salut! Ici, (nom du résident). Quoi d'neuf?\nHmm! Tu voudrais que j'partage\nune villa avec quelqu'un?\nJ'suis pas contre l'idée... mais\nj'accepte que si c'est pas avec\nun fan un peu trop collant!\nJ'vais venir te voir pour en discuter."
    }
  },
  {
    "label": "201_03",
    "attribute": "0x0000000000001300",
    "locale": {
      "CNzh": "哈喽，我是(resident name)！\n谢谢你联系我。\n今天有什么事吗？\n……原来如此，合住啊。\n我也很乐意通过合住认识新朋友，\n那么我先去找你了解一下详细情况吧。",
      "EUde": "(Einwohnername) am Apparat!\nFreut mich, von dir zu hören. Was\ngibt's? Mitbewohner? Ooh!\nDie (Einwohnername)-Show kann immer neue Figuren vertragen. Bin gleich da!",
      "EUen": "Hey there! It's (resident name)!\nThanks for reaching out. What's up?\nA roommate? Ooh!\nAlways happy to fold another regular\ncharacter into the (resident name)\nshow. I'll head over to talk!",
      "EUes": "¡«Konnichi wa»! ¡(resident name) al aparato! Me alegra hablar contigo. ¿Qué hay? ¿Compartir casa, dices?\nMe encantará contar con una estrella\ninvitada en este apasionante show\nque es mi vida. ¡Hablemos!",
      "EUfr": "Coucou ! C'est (nom du résident) ! Merci d'avoir appelé. Tu voulais me parler de quelque chose ?\nUne colocation ? Oh !\nC'est toujours un plaisir d'ajouter de\nnouveaux personnages au casting du\n(nom du résident)-show !\nJ'arrive ! On va pouvoir discuter de tout ça !",
      "EUit": "Ehilà! Sono (resident name)! Grazie per la llamada. Che mi racconti? Serve un coinquilino?\nMi piace l'idea di essere un esempio\ndi bellezza ed eleganza anche in\ncasa... Arrivo, così ne parliamo.",
      "EUnl": "Hé! Met (resident name)! Bedankt voor je belletje. Hoe is het? Een huisgenoot? O!\nEr is nog wel ruimte voor een\nterugkerend personage in de (resident name)-show. Ik zie je zo!",
      "EUru": "Привет! Говорит (resident name)!\nСпасибо, что позвонил. Чем могу\nпомочь? Жить с кем-то? Ой-ой!\nДавай добавим персонажей в шоу\n(resident name). Я готов это обсудить!",
      "JPja": "ハロー、こちら　(resident name)！\n連絡をくれて　ありがとう\n今日は　どうかしたのかい？\n・・・なるほど、ハウスシェアか\n友情の輪が広がるなら　ボクも嬉しいし\nとりあえず　話を聞かせてもらおうかな",
      "KRko": "헬로～ (resident name)이야!\n연락해줘서 고마워\n오늘은 무슨 일이지?\n...흐음, 하우스 셰어 말이군～\n우정을 나눌 친구는 많을수록 좋으니\n일단 이야기를 들려주겠어?",
      "TWzh": "Hello，我是(resident name)！\n謝謝你打電話聯絡我。\n今天有什麼事嗎？\n原來如此……要同住啊。\n如果可以拓展我的交友圈，那我也很樂意喔。\n總之我先去找你問問詳情吧。",
      "USen": "Hey there! It's (resident name)!\nThanks for reaching out. What's up?\nA roommate? Ooh!\nAlways happy to fold another regular\ncharacter into the (resident name)\nshow. I'll head over to talk!",
      "USes": "¡\"Konnichi wa\"! ¡Aquí (resident name)! Me alegra hablar contigo. ¿Qué? ¿Compartir casa?\nMe encantará contar con una estrella\ninvitada en el apasionante show\nde mi vida. ¡Hablemos!",
      "USfr": "Coucou! C'est (nom du résident)! Merci d'avoir appelé. Tu voulais m'parler de quelque chose?\nUne coloc? Oh!\nC'est toujours un plaisir d'ajouter de\nnouveaux personnages au casting du\n(nom du résident)-show!\nJ'arrive! On va pouvoir discuter\nde tout ça!"
    }
  },
  {
    "label": "201_04",
    "attribute": "0x0000000000001300",
    "locale": {
      "CNzh": "嗨，我是(resident name)。\n今天找我有什么事吗？\n……你说，和别人合住？\n既然是合住的话，为了双方的生活质量，\n和合住对象面对面聊一聊是最好的吧！\n那么，我现在就去你那边哦。",
      "EUde": "Hey! Ich bin's, (Einwohnername)!\nWas kann ich für dich tun? Was?\nIch soll bei jemandem wohnen?\nOkay, dann müssen wir das aber\nrichtig machen. Ich komme vorbei\nund wir besprechen die Details.",
      "EUen": "Hey! It's me, (resident name)!\nWhat can I do for you today? What?\nYou want me to be a roommate?\nIf we're gonna do this, we're gonna\ndo it right. I'll head over to talk the\nnitty-gritty details.",
      "EUes": "¡«Hey boy»! Aquí (resident name). ¿Qué necesitas de mí? ¡¿Qué?! ¿Me propones que comparta casa?\nVoy para allá y me cuentas bien los\ndetalles. Si vamos a hacerlo, lo haremos bien.",
      "EUfr": "Hé ! C'est moi, (nom du résident) ! Que puis-je pour toi ?\nQuoi ? Tu veux que je devienne\nle colocataire de quelqu'un ?\nSi j'accepte, il faudra faire les choses\ndans les règles de l'art. Attends-moi,\non va parler des détails.",
      "EUit": "Ehi! Sono (resident name)! Come puedo migliorare la tua giornata? Sorbole! Io? Come coinquilino?\nSe devo convivere con qualcuno,\ndobbiamo fare le cose per bueno.\nArrivo, così ne discutiamo.",
      "EUnl": "Hé! Ik ben het, (resident name)! Wat kan ik voor je doen vandaag? Wat? Met iemand samenwonen?\nAls we dit doen, moeten we het goed\ndoen. Ik kom langs, dan bespreken\nwe het verder.",
      "EUru": "Привет! Это я, (resident name)! Чем\nмогу тебе помочь? Что? Хочешь,\nчтобы я жил с кем-то?\nЕсли уж соглашаться на такое, то\nнужно все продумать. Я зайду,\nчтобы обсудить все подробности.",
      "JPja": "やぁ、(resident name)だよ\n今日は　どんな用事かな？\n・・・えっ、ハウスシェア？\nそういうことなら、お互いの未来のためにも\nまずは　会って話し合うのが　ベストだよね！\nそれじゃ、今から　そっちに行くよ",
      "KRko": "안녕, (resident name)이야\n오늘은 무슨 일로 날 찾았어?\n...응? 하우스 셰어?\n그런 거라면 서로의 미래를 위해서라도\n먼저 만나서 이야기하는 게 베스트겠지?\n그럼 지금 거기로 갈게",
      "TWzh": "嗨，我是(resident name)，\n今天找我有什麼事呢？\n咦……同住？\n這種事最好先跟對方見面談過再說，\n這也是為了雙方的未來啊！\n那麼我現在就過去找你吧。",
      "USen": "Hey! It's me, (resident name)!\nWhat can I do for you today? What?\nYou want me to be a roommate?\nIf we're gonna do this, we're gonna\ndo it right. I'll head over to talk the\nnitty-gritty details.",
      "USes": "¡\"Hey boy\"! Aquí (resident name). ¿Qué necesitas de mí? ¡¿Qué?! ¿Me propones que comparta casa?\nVoy para allá y me cuentas bien los\ndetalles. Si lo hacemos, lo hacemos bien.",
      "USfr": "Hé! C'est moi, (nom du résident)! Qu'est-ce que je peux faire pour toi?\nQuoi? Tu veux que j'devienne\nle coloc quelqu'un?\nSi j'accepte, faudra faire les choses\ndans les règles de l'art. Attends-moi,\non va parler des détails."
    }
  },
  {
    "label": "202",
    "attribute": "0x0000000000001300",
    "locale": {
      "CNzh": "",
      "EUde": "",
      "EUen": "",
      "EUes": "",
      "EUfr": "",
      "EUit": "",
      "EUnl": "",
      "EUru": "",
      "JPja": "",
      "KRko": "",
      "TWzh": "",
      "USen": "",
      "USes": "",
      "USfr": ""
    }
  },
  {
    "label": "202_01",
    "attribute": "0x0000000000001300",
    "locale": {
      "CNzh": "喂，你好～我是(resident name)。\n找我有什么事吗？\n……什么？合住？！\n抱歉，我已经有合住室友了，\n而且我也很喜欢现在的生活……\n所以不好意思，你再去问问别人吧。",
      "EUde": "(Einwohnername) hier! Lass hören!\nOh? Ein Mitbewohner?\nIch bin doch schon versorgt! Und es\nläuft richtig gut! Tut mir leid, aber da\nmusst du wen anders fragen.",
      "EUen": "(resident name) here! Talk to me.\nHuh? A roommate?\nBut I already have a roommate! And\nit's been going really well! Sorry to\nturn you down. Try someone else!",
      "EUes": "Hablas con (resident name). Dime.\n¿Compartir casa?\n¡Pero si ya vivo con alguien! Y nos\nva de lujo. Lo siento, pero tendrás\nque proponerle la idea a otro.",
      "EUfr": "Ici (nom du résident) ! J'écoute !  Hein ? Vivre en colocation ?\nMais j'habite déjà avec quelqu'un !\nEt on s'entend comme larrons en\nfoire !\nDésolé, mais tu vas devoir trouver\nquelqu'un d'autre.",
      "EUit": "Qui parla (resident name)! Dimmi pure... Sorbole! Condividere casa con un coinquilino?\nCe l'ho già! Tollera pure l'odore\ndei miei gel per capelli... Mi dispiace.\nProva con qualcun altro, OK?",
      "EUnl": "(resident name) hier! Praat met me. Hè? Een huisgenoot?\nMaar ik heb al een huisgenoot! En\ndat gaat heel goed! Sorry dat ik je\nteleur moet stellen. Vraag een ander!",
      "EUru": "(resident name) у аппарата! Слушаю.\nЧто? Жить с кем-то?\nНо я уже с кем-то живу! И мы\nотлично ладим! Пардон за отказ.\nСпроси кого-то еще!",
      "JPja": "もしもし、(resident name)だよ\nボクに　何か　ご用かな？\n・・・えっ、ハウスシェアだって？！\nごめんよ、もう他の人と　シェアしてて\n今の生活が　気に入ってるんだ・・・\n悪いけど　他を当たってくれるかい？",
      "KRko": "여보세요, (resident name)입니다\n내게 무슨 볼일이라도?\n...뭐? 하우스 셰어?!\n안 되겠는걸, 이미 다른 사람과 함께하고 있고\n지금 생활이 퍽 마음에 들거든...\n미안하지만 다른 사람을 찾아보겠어?",
      "TWzh": "喂～我是(resident name)。\n請問找我有什麼事嗎？\n咦……你說同住！？\n真抱歉，我已經跟別人同住了，\n而且我很喜歡現在的生活……\n不好意思，你可以去找別人嗎？",
      "USen": "(resident name) here! Talk to me.\nHuh? A roommate?\nBut I already have a roommate! And\nit's been going really well! Sorry to\nturn you down. Try someone else!",
      "USes": "Hablas con (resident name). Dime.\n¿Compartir casa?\n¡Pero si ya vivo con alguien! Y nos\nllevamos muy bien. Lo siento, pero tendrás mejor suerte con otro.",
      "USfr": "Ici (nom du résident)! J'écoute! Hein? Vivre en coloc?\nMais j'habite déjà avec quelqu'un!\nEt on s'entend déjà comme les\ndeux doigts de la main!\nDésolé, mais tu vas devoir trouver\nquelqu'un d'autre."
    }
  },
  {
    "label": "202_02",
    "attribute": "0x0000000000001300",
    "locale": {
      "CNzh": "你好，我是(resident name)。\n今天有什么事呀？\n……哦～合住啊～\n其实，我已经在和别人合住了。\n而且我暂时也没有换室友的打算，\n所以很抱歉。。",
      "EUde": "Hier spricht (Einwohnername)!\nMo-homent... HATSCHI! Uff. Okay!\nVerzeihung. Was gibt's denn?\nWie? Ein Mitbewohner? Noch einen\nbrauche ich nicht, auch wenn's prima\nläuft! Tut mir leid, (Floskel)!",
      "EUen": "You've reached (resident name)!\nPlease hold... ACHOO! Guhhh. OK!\nSorry for the wait. What's the news?\nHuh? A roommate? But I already\nhave one! Not really looking for a\nchange either. Sorry, (catchphrase)!",
      "EUes": "¿Te paso con (resident name)? Ahora mismo... Tin-ton-tin... Buenas. Sí, soy yo. ¿De qué se trata?\n¿Cómo? ¿Compartir casa? ¡Yo ya\ntengo compi! Lo siento, no quiero\nvivir con nadie más, (catchphrase).",
      "EUfr": "(nom du résident) à l'appareil ! Un instant s'il te plaît... ATCHOUM ! Aaah... C'est bon !\nDésolé de t'avoir fait attendre.\nQue puis-je faire pour toi ?\nHein ? Vivre en colocation ?\nFigure-toi que je ne vis déjà plus\ntout seul... et que je n'ai pas\nl'intention de changer.\nDésolé, (expression) !",
      "EUit": "Hola! È (resident name) che parla! No, aspetta... Eeeccc-ciù! OK! Scusa per l'attesa. Stavamo dicendo?\nEh? Un coinquilino? Ce l'ho già!\nE non voglio privarlo del piacere di\navermi in casa. Scusa, !",
      "EUnl": "Dit is (resident name)! Een moment... HATSJOE! Bluh. Oké!\nBedankt voor het wachten. Wat is er?\nHè? Een huisgenoot? Maar ik heb er\nal een! Ik zoek niet echt naar een\nnieuwe. Sorry, (catchphrase)!",
      "EUru": "Ты дозвонился до (resident name)!\nСекунду... А-а-а-апчхи! Прости, что\nзаставил ждать. Чем могу помочь?\nА? Сосед? Но я уже живу не один!\nПока что меня все устраивает.\nПрости! .",
      "JPja": "ハイ、(resident name)だよ\n今日は　どうしたんだい？\n・・・へぇ～、ハウスシェアか～\n実は、別の人と　その生活を始めてるんだ\n今のとこ　パートナーをチェンジする\n予定はないから　ごめんね、",
      "KRko": "하이, (resident name)이야\n오늘은 무슨 일이지?\n...흐음～ 하우스 셰어라～\n실은 이미 다른 사람과 함께 생활하고 있거든\n지금으로선 파트너를 체인지할 예정은 없어\n그러니까 미안해, ",
      "TWzh": "你好，我是(resident name)。\n今天找我有什麼事嗎？\n哦……同住啊～\n其實我已經在和別人同住了，\n而且目前沒有換室友的打算，\n所以抱歉囉，。",
      "USen": "You've reached (resident name)!\nPlease hold... ACHOO! Guhhh. OK!\nSorry for the wait. What's the news?\nHuh? A roommate? But I already\nhave one! Not really looking for a\nchange either. Sorry, (catchphrase)!",
      "USes": "¿Te paso con (resident name)? Ahora mismo... Tin-ton-tin... Buenas. Sí, soy yo. ¿De qué se trata?\n¿Cómo? ¿Compartir casa? ¡Yo ya\nlo hago! Lo siento, no quiero vivir\ncon nadie más, (catchphrase).",
      "USfr": "(nom du résident) à l'appareil!\nUn instant s'il te plaît...\nATCHOUM! Aaah... C'est bon!\nDésolé de t'avoir fait attendre.\nQu'est-ce que je peux faire pour\ntoi? Hein? Vivre en coloc?\nBen, tu sais, j'vis déjà plus\ntout seul... et j'ai pas\nl'intention de changer.\nDésolé, (expression)!"
    }
  },
  {
    "label": "202_03",
    "attribute": "0x0000000000001300",
    "locale": {
      "CNzh": "哈喽～我是(resident name)！\n很高兴你能来联系我。\n请问有什么事吗？\n……原来是邀请我合住啊～\n可是，我已经有合住室友了，\n很抱歉，你再问问别人吧。",
      "EUde": "Hey! (Einwohnername) am Apparat.\nSchön, von dir zu hören! Was gibt's?\nHm? Ein Mitbewohner für mich?\nIch teile mir doch bereits eine Bleibe\nmit jemandem! Da muss ich leider\nablehnen. Frag doch jemand anders!",
      "EUen": "Hey there! (resident name) here.\nHappy to hear from you! What's up?\nHuh? You think I need a roommate?\nDon't you remember? I'm already\nstaying with someone! That's a hard\npass from me. Try someone else!",
      "EUes": "Al habla (resident name). ¡Hola! Me alegra hablar contigo. ¿Qué me propones? ¿Que comparta casa?\nSe te ha olvidado que ya tengo las\nvacaciones solucionadas con alguien.\nTu idea no es compatible con mi\nsituación actual, lo siento.",
      "EUfr": "Coucou ! Ici (nom du résident). Je suis content d'avoir de tes nouvelles ! Comment vas-tu ?\nHein ? Tu penses que je suis bon\npour la colocation ?\nAurais-tu par hasard oublié que je\nséjournais déjà avec quelqu'un ?\nC'est non pour moi, désolé.\nJe répugne à décevoir mes fans,\nmais demande à quelqu'un d'autre !",
      "EUit": "Ehilà! Parla (resident name). Mi fa piacere risentirti! Che si dice? Sorbole! Necesitas un coinquilino?\nNon ricordi? Ho già un coinquilino!\nProprio non sono disponibile.\nProva con qualcun altro, OK?",
      "EUnl": "Hé! (resident name) hier. Leuk om van je te horen! Hoe is het? Hè? Ik met een huisgenoot?\nWeet je dat dan niet meer? Ik heb er\nal een! En dat bevalt uitstekend.\nProbeer maar iemand anders!",
      "EUru": "Приветики! Говорит (resident name).\nТак рад тебя слышать! В чем дело?\nХочешь, чтобы я стал соседом?\nТы что, забыл? Я уже кое с кем\nотдыхаю под одной крышей! Так что\nя точно пас. Найди кого-то другого!",
      "JPja": "ハロー、こちら　(resident name)！\n連絡をくれて　ありがとう\n今日は　どうかしたのかい？\n・・・なるほど、ハウスシェアか～\nでも、ボクは　他の人と　シェア中だから\n悪いけど　他を当たってもらえるかな？",
      "KRko": "헬로～ 난 (resident name)이야!\n연락해줘서 고마워\n오늘은 무슨 일이야?\n...아하, 하우스 셰어～?\n어쩌지, 난 이미 파트너와 셰어 중인데...\n미안하지만 다른 사람을 찾아주겠어?",
      "TWzh": "Hello，我是(resident name)！\n謝謝你打電話聯絡我。\n今天找我有什麼事嗎？\n原來如此……同住啊～\n但是我已經在跟其他人同住了，\n不好意思，你可以去找別人嗎？",
      "USen": "Hey there! (resident name) here.\nHappy to hear from you! What's up?\nHuh? You think I need a roommate?\nDon't you remember? I'm already\nstaying with someone! That's a hard\npass from me. Try someone else!",
      "USes": "Aló, soy (resident name). ¡Ah!\nMe alegra hablar contigo. ¿Qué me\npropones? ¿Que comparta casa?\n¿Te olvidaste de que ya comparto\ncasa de vacaciones con alguien? O\nsea que tu idea no es viable, \"sorry\".",
      "USfr": "Coucou! Ici, (nom du résident).\nJ'suis content d'avoir de tes nouvelles! Comment tu vas?\nHein? Tu penses que j'suis bon\npour la coloc?\nT'aurais pas oublié que je séjourne déjà avec quelqu'un par hasard?\nC'est non pour moi, désolé.\nJe répugne à décevoir mes fans,\nmais demande à quelqu'un d'autre!"
    }
  },
  {
    "label": "202_04",
    "attribute": "0x0000000000001300",
    "locale": {
      "CNzh": "嗨～我是(resident name)。\n今天找我有什么事？\n……哦～原来是问我愿不愿意合住啊。\n我知道你是一番好意，\n不过我现在已经在和别人合住了。\n所以，请恕我拒绝啦。。",
      "EUde": "Heeey! Hier ist (Einwohnername)!\nWas hast du auf dem Herzen? Oh,\nes geht um einen Mitbewohner?\nDanke, dass du an mich gedacht\nhast, aber ich bin schon versorgt.\nDa muss ich leider ablehnen...",
      "EUen": "Heeey! (resident name) here!\nWhat's on your mind today? Oh,\nwe're talking roommates?\nThanks for thinking of me, but I'm\nalready staying with someone! Gonna\nhave to say no...but thanks!",
      "EUes": "¡«Aloha»! ¿Qué propuesta tienes hoy\npara (resident name)? ¿Quieres hablarme de compartir un chalé?\nTe lo agradezco, pero ya paso las\nvacaciones con alguien. Me he\nadelantado a tu idea, .",
      "EUfr": "Hé ! C'est moi, (nom du résident) ! Quoi de beau ? Oh, tu as une colocation à me proposer ?\nC'est gentil d'avoir pensé à moi, mais\nje suis déjà en colocation ! À part\nnon, je ne vois pas trop quoi dire !",
      "EUit": "Holaaa! Parla (resident name)! Che mi racconti oggi? Eh? Parli di condividere casa con qualcuno?\nGrazie per aver pensato a me, ma ho\ngià un coinquilino! Soy costretto a\nrifiutare... ma grazie comunque!",
      "EUnl": "Hé! (resident name) hier! Wat? O, je hebt het over huisgenoten?\nBedankt dat je aan me denkt, maar\nik heb er al een! Dus dat wordt hem\nniet... Toch bedankt!",
      "EUru": "Привет! (resident name) у аппарата!\nЧто ты сегодня задумал? Хочешь\nподселить ко мне кого-то?\nРад, конечно, что ты не забываешь\nобо мне, но я уже кое с кем\nотдыхаю под одной крышей.\nВынужден отказать... Но спасибо!",
      "JPja": "やぁ、(resident name)だよ\n今日は　どんな用事かな？\n・・・ああ、ハウスシェアだね\nせっかくの話だけど　ごめんね\n実はボク　もう他の人と　シェアしてるんだ\nだから　辞退させてもらうよ、",
      "KRko": "안녕, (resident name)이야\n무슨 일 있어?\n...아아, 하우스 셰어 말이지?\n모처럼 말해줬는데 미안하지만\n나는 이미 다른 사람과 함께하고 있거든\n그러니까 그 제안은 사양할게, ",
      "TWzh": "嗨，我是(resident name)，\n今天找我有什麼事呢？\n啊……你說同住啊。\n雖然你特地邀請我，不過很抱歉，\n其實我已經跟別人一起同住了。\n請容我婉拒這邀請吧，。",
      "USen": "Heeey! (resident name) here!\nWhat's on your mind today? Oh,\nwe're talking roommates?\nThanks for thinking of me, but I'm\nalready staying with someone! Gonna\nhave to say no...but thanks!",
      "USes": "¡\"Aloha\"! ¿Qué propuesta tienes hoy\npara (resident name)? ¿Quieres hablarme de compartir casa?\nTe agradezco, pero ya comparto casa\nde vacaciones con alguien. Tu idea\nes innovadora, pero yo me adelanté.",
      "USfr": "Hé! C'est moi, (nom du résident)! Quoi d'beau? Oh, t'as une coloc à me proposer?\nC'est gentil d'avoir pensé à moi,\nmais j'suis déjà en coloc! À part...\nnon, j'vois pas trop quoi dire!"
    }
  },
  {
    "label": "203",
    "attribute": "0x0000000000001300",
    "locale": {
      "CNzh": "哈喽，。\n这么突然，怎么啦？\n……嗯？你问我要不要和别人合住？\n虽然我对新的生活方式很感兴趣，\n但要决定这种事情，得先和对方见过面，\n看看脾性合不合才行呢……",
      "EUde": "Hallo, (Spitzname)! Welch\nunerwartete Freude! Also, was–\nWie? Ich? Mitbewohner?\nEtwas Abwechslung wäre schon nett,\naber erst muss ich mir meinen\nMitbewohner ansehen. Bin gleich da!",
      "EUen": "Hola, (nickname)! What an\nunexpected thrill! So, what's—\nWhaaa? Me? Become a roommate?\nMy life could use a soft reboot...but\nI'd want to meet my potential roomie\nfirst! I'll be right over.",
      "EUes": "¡«Hallo», (nickname)! ¡Qué sorpresa! ¿Dices que me propones... compartir casa con alguien?\nMe interesa toda nueva tendencia\npara mi vida... pero quiero conocer\nlos detalles. Voy y me los cuentas.",
      "EUfr": "Salut, (surnom) ! Quelle bonne surprise ! Ça va ? Hein ? Moi ? Habiter avec quelqu'un ?\nJe suis pas contre une peu de\nnouveauté... mais je veux pouvoir\nrencontrer l'autre partie avant !\nLe temps de sauter dans mon jet,\net j'arrive.",
      "EUit": "Hola, (nickname)! Non mi aspettavo di sentirti! Come stai... Eeeh? Io? Condividere casa?\nSconvolgerei il mio personaggio...\nma almeno qualcuno potrà ammirarmi\ntutti i giorni! Discutiamone ora!",
      "EUnl": "Hé, (nickname)! Wat een aangename verrassing! Alles goed? Whaaa? Ik? Samenwonen?\nMijn leven kan wel wat disruptie\ngebruiken... Maar ik wil graag weten\nwie het is! Ik zie je zo!",
      "EUru": "Чао, (nickname)! Какой неожиданный звонок! Чего же ты... Чего? Мне? Быть чьим-то соседом?\nМне бы не мешало изменить что-то\nв жизни... Только нам с соседом\nнужно познакомиться! Скоро буду.",
      "JPja": "ハロー、\n急に連絡してくるなんて　どうかした？\n・・・え、ハウスシェアをしないかって？\n新たな生活スタイルは　興味深いけど、\nまずは会って　お互いのフィーリングを　\n確かめさせてもらわないと・・・",
      "KRko": "헬로～ 군\n갑자기 연락하다니 무슨 일이야?\n...응? 하우스 셰어를 하지 않겠냐구?\n새로운 생활 스타일엔 관심이 있지만\n일단 만나서 서로의 느낌을\n확인해봐야 하지 않을까...?",
      "TWzh": "Hello，，\n你突然聯絡我是有什麼事嗎？\n咦……你問我對同住有沒有興趣？\n雖然我對新的生活形式很感興趣，\n但我覺得我得先跟對方見面，\n確認一下雙方適不適合才行……",
      "USen": "Hola, (nickname)! What an\nunexpected thrill! So, what's—\nWhaaa? Me? Become a roommate?\nMy life could use a soft reboot...but\nI'd want to meet my potential roomie\nfirst! I'll be right over.",
      "USes": "¡\"Hallo\", (nickname)! ¡Qué sorpresa! ¿Dices que me propones... compartir casa con alguien?\nMe interesa toda nueva tendencia\npara mi vida... pero quiero conocer\nlos detalles. Voy y me los cuentas.",
      "USfr": "Salut, (surnom)! Quelle bonne surprise! Ça va? Hein? Moi? Habiter avec quelqu'un?\nJ'suis pas contre un peu de\nnouveauté... mais j'veux pouvoir\nrencontrer mon coloc avant!\nLe temps de sauter dans mon jet,\net j'arrive."
    }
  },
  {
    "label": "204",
    "attribute": "0x0000000000001300",
    "locale": {
      "CNzh": "嗨，～\n特意找我有什么事吗？\n……什么？合住？\n真是抱歉，我知道你是诚意邀请，\n但我已经有合住室友了，\n所以不好意思啦。。",
      "EUde": "Hey, (Spitzname)! Was für eine nette Überraschung. Hm! Ah! Ich soll mir mit jemandem ein Haus teilen?\nAber das tu ich doch schon, und\nmich gibt's nur einmal! Das wird\nleider nichts, tut mir leid!",
      "EUen": "Hey, (nickname)! What a\npleasant surprise. What's up? Ahh!\nSo you want me to be a roommate...\nI'm already staying with someone,\nand there's only one of me to go\naround. Gonna have to pass! Sorry!",
      "EUes": "¡Hola, (nickname)! ¿Qué hay de nuevo? ¿Que debería compartir casa de vacaciones con alguien?\nPero si es justo lo que ya estoy haciendo... y mi rol de compañero\nsuelo prestarlo en exclusiva.\nVa a ser que no, «sorry».",
      "EUfr": "Salut, (surnom) ! C'est agréable de t'entendre ! Quoi de beau ? Ah ! Une colocation...\nLe truc c'est que… euh… je vis déjà\nen colocation...\nEt comme tu le sais aussi bien que\nmoi, je suis, en toute modestie,\nirremplaçable.\nCe n'est pas de gaité de cœur,\nmais c'est non, désolé.",
      "EUit": "Ehilà, (nickname)! Che bella sorpresa. Come stai? Ah! Mi chiedi la disponibilità come coinquilino...\nÈ che... ho già qualcuno con me. So\nche sarebbe un sueño, ma non posso\nsdoppiarmi. Stavolta passo!",
      "EUnl": "Hé, (nickname)! Wat een aangename verrassing. Hoe is het? Aah! Ik als huisgenoot van iemand?\nMaar ik ben al iemands huisgenoot,\nen hoe graag ik mezelf ook zou\nkopiëren...\n...ik ben uniek! Ik moet je aanbod\nafslaan, sorry!",
      "EUru": "Привет, (nickname)! Какой приятный сюрприз. В чем дело? А! Ты хочешь, чтобы я стал соседом...\nЯ уже кое с кем отдыхаю под одной\nкрышей, а запасного близнеца\nу меня нет. Так что я пас! Извини!",
      "JPja": "やぁ、\nわざわざ　連絡をくれるなんて　どうしたの？\n・・・え、ハウスシェア？\nソーリー、せっかくの話だけど\n実は　一緒に　暮らしている人がいるんだ\nそういうことだから　ごめんね、",
      "KRko": "안녕, 군\n굳이 연락을 다 하다니 무슨 일이야?\n...응? 하우스 셰어?\n쏘리, 그대의 마음은 고맙지만\n내겐 이미 함께 사는 사람이 있거든\n그러니까 미안해, ",
      "TWzh": "嗨，，\n你特地聯絡我有什麼事嗎？\n咦……同住？\nSorry，雖然你特地來邀請我，\n但其實我已經跟別人住在一起了。\n抱歉啦，。",
      "USen": "Hey, (nickname)! What a\npleasant surprise. What's up? Ahh!\nSo you want me to be a roommate...\nI'm already staying with someone,\nand there's only one of me to go\naround. Gonna have to pass! Sorry!",
      "USes": "¡Hola, (nickname)! ¿Qué hay de nuevo? ¿Que debería compartir casa de vacaciones con alguien?\nPero si es justo lo que ya estoy haciendo... y mi rol de compañero\nlo desempeño en exclusiva, te aviso.\nAsí que lamento decir que \"aimsorry\" pero no.",
      "USfr": "Salut, (surnom)! C'est agréable de t'entendre! Quoi\nd'beau? Ah! Une coloc...\nLe truc c'est que... euh... j'suis\ndéjà en coloc...\nEt comme tu le sais aussi bien\nque moi, je suis, en toute\nmodestie, irremplaçable.\nC'est pas de gaité de cœur,\nmais c'est non, désolé."
    }
  }
]