﻿[
  {
    "label": "001",
    "attribute": "0x0000000000000000",
    "locale": {
      "CNzh": "天哪～！\n这里长出了看上去很美味的蘑菇～！\n……原来是我看错了，\n这是啊～\n放在户外就像真的一样呢～。",
      "EUde": "!\n sieht so echt aus! Ob ich mal\nabbeißen sollte, um sicherzugehn?",
      "EUen": "!\nIt looks so real! Maybe I oughta\nbite it... Just to be sure...",
      "EUes": "«¡Huy! ¡Mira, mira!\n¿Qué hace aquí una seta con tan\nbuena pinta como esta de aquí?»\nEso es lo que pensé la primera vez\nque vi este espectáculo...\nY al final resulta que era\n...\nComo está aquí fuera,  confundí\ncon una seta de verdad... ¡Menudo\nbocado estuve a punto de darle!",
      "EUfr": "T'as vu le champignon ? Il est\nénorme ! Et il a l'air délicieux !\nAh mais attends... On dirait plutôt...\n...\nHmm... Je vais peut-être quand\nmême mordre dedans pour en avoir\nle cœur net...",
      "EUit": "È ! Caspitina, sembra ver! Forse dovrei  per esserne sicuro...",
      "EUnl": "!  is net echt! Misschien bijt ik er toch even in... Voor de zekerheid...",
      "EUru": "Ух ты! !\nПрям как настоящий! Может, мне\nего укусить... и проверить...",
      "JPja": "すご～い！\nおいしそうな　キノコが　生えてる～！\n・・・と思ったら、じつは\nだなんて\nお外にあると　ホンモノみたいだねぇ、",
      "KRko": "와아～!\n먹음직스러운 버섯이다아～!\n...라고 생각했는데\n이었다니이～\n밖에 있으니깐 진짜 같다아～ !",
      "TWzh": "好厲害～！\n這裡長出了\n看起來很可口的蘑菇耶～\n……咦？\n竟然是，\n放在外面就像真的蘑菇耶～。",
      "USen": "!\nIt looks so real! Maybe I oughta\nbite it... Just to be sure...",
      "USes": "\"¡Guauuu! ¿Qué hace aquí un\nchampiñón tan bonito?\"\nEso es lo que pensé la primera vez\nque vi este espectáculo...\nY al final resulta que era\n...\nComo está aquí afuera, pensé que\nera de verdad... ¡Estuve a punto\nde darle una mordida!",
      "USfr": "T'as vu le champignon? Il est\nénorme! Et il a l'air délicieux!\nAh mais attends... On dirait plutôt...\n...\nHmm... Je vais peut-être quand\nmême mordre dedans pour en avoir\nle cœur net..."
    }
  },
  {
    "label": "002",
    "attribute": "0x0000000000000000",
    "locale": {
      "CNzh": "……\n竟然那么长时间都不会融化呢～\n这到底是为什么呢～？\n不过，既然不会化掉，\n那想要吃刨冰的时候，\n就可以随时用它来做了～。",
      "EUde": "Ich komme ganz oft hierher, um mir\n  anzusehn, aber  schmilzt niemals!\nIst das vielleicht... Zauberei?\nMir kannst du's ruhig sagen, (Spitzname)!",
      "EUen": "I come out here to stare at the\n. It never\never melts!\nIs it magic, (nickname)?\nYou can tell me.",
      "EUes": " ... por mucho que esté aquí, no se deshace nunca. ¿Por qué será?\nAunque pensándolo bien, si traigo\nsirope de fresa, ¡me hago con \nun polo de los que tiran para atrás!",
      "EUfr": "Ça fait déjà un moment que j'observe\n et  a toujours pas fondu.\nC'est dingue, non ?",
      "EUit": "Sono venuto qui ad ammirare  perché non si scioglie mai, !\nChissà com'è possibile? Sembra\nquasi un superpotere...",
      "EUnl": "   maar niet en ik sta er toch al even naar te staren! Hoe kan dat?\nHeeft het met magie te maken, (nickname)? Je kunt het mij best verklappen. Ik hou het geheim.",
      "EUru": "Я постоянно смотрю на этот\n, и он\nникогда не тает!\n(nickname), как думаешь,\nэто магия? Тебе я поверю.",
      "JPja": "・・・\nいつまで　たっても　とけないんだけど\nどうしてなんだろ～？\nでも、とけないってことは\nいつでも　スキなときに　かきごおりが\n食べられるってことだよねぇ～、",
      "KRko": "...\n아무리 오래 있어도 안 녹는다아～?\n왜 그런 거지이～?\n근데 안 녹으면\n먹고 싶을 때 언제든 빙수로\n만들어 먹을 수 있겠네에～ !",
      "TWzh": "……\n不管過多久都沒有融化耶，\n這是為什麼呢～？\n但是不會融化的話，\n那無論什麼時候\n都能吃到刨冰了耶～。",
      "USen": "I come out here to stare at the\n. It never\never melts!\nIs it magic, (nickname)?\nYou can tell me.",
      "USes": " ... ¡no se derrite nunca! ¿Por qué será?\nNo lo sé... ¡Pero lo que sí sé es que\nle vendría bien un delicioso jarabe\nde limón encima!",
      "USfr": "Ça fait déjà un moment que j'observe\n et  a toujours pas fondu.\nC'est étrange, non?"
    }
  },
  {
    "label": "003",
    "attribute": "0x0000000000000000",
    "locale": {
      "CNzh": "像\n这类和风的东西，都有“芥末”。\n这是电视里说的哦～\n我很讨厌芥末，\n因为它总是冲得我忍不住流泪～\n你说不是芥末，而是简穆……？。",
      "EUde": "Immer, wenn ich   sehe, bin ich total entspannt.\nIch fühl mich noch nicht mal\nhungrig.  macht einen einfach...\ntotal entspannt, (Floskel).",
      "EUen": "I have got nothing to say about\nthe .\nIt's...it's perfect.\nI'm not being silly. I'm just...real calm\nright now, (catchphrase). Real calm.",
      "EUes": "Cada vez que paso por aquí,\nveo   y tengo una extraña sensación.\nEs como si estuviese más relajado\nde la cuenta... ¡y eso para mí\nes muuucha calma!",
      "EUfr": "Tu ressens cette sérénité ? C'est\n... Laisse-toi envahir par la zénitude...\nLa zénitude... La zzzzzzz... Oups !\nC'est peut-être un peu trop calme\npar ici, en fait...",
      "EUit": "Mi mancano le parole...   semplicemente .\nMi fa sentire calmo e rilassato come\nnon mai...",
      "EUnl": "Ik weet niet wat ik moet zeggen over  . ...  perfect.\nIk kan er niet eens een flauw grapje\nover maken. Ik ben gewoon... Ik voel\nme heel kalm nu. Heel kalm.",
      "EUru": ".\nМне даже нечего сказать.\nОн... просто идеальный.\nМне даже никакие глупости не\nприходят в голову. Я сейчас...\nпросто очень, очень спокоен.",
      "JPja": "みたいな\nわふうのモノには　わさびがある　って、\nテレビで　言ってたよぉ～\nボク、ニガテなんだよねぇ\nツーンとして　ナミダが出ちゃうでしょ～\nえっ、わびさび？　",
      "KRko": " 같은\n가구는 고소함이 매력이라고\n저번에 TV에서 그러더라구우～\n근데 고소한 맛은 좋지만\n가구를 먹으면 없어질 텐데 어쩌지이～\n응? 고소함이 아니라 고상함...? ?",
      "TWzh": "電視裡的人說，\n像的\n日式家具裡會有「尖牙」喔～\n我不喜歡這種的～\n感覺會痛到哭出來～\n咦？不是尖牙，是簡雅？。",
      "USen": "I have got nothing to say about\nthe .\nIt's...it's perfect.\nI'm not being silly. I'm just...real calm\nright now, (catchphrase). Real calm.",
      "USes": "Cuando paso por aquí y veo \n me da una extraña sensación.\nComo que me relaja más de lo\nnormal... ¡y eso para mí es muuucha\nrelajación!",
      "USfr": "Tu ressens cette sérénité? C'est\n... Laisse-toi envahir par la zénitude...\nLa zénitude... La zzzzzzz... Oups!\nC'est peut-être un peu trop calme\npar ici, en fait..."
    }
  },
  {
    "label": "004",
    "attribute": "0x0000000000000000",
    "locale": {
      "CNzh": "\n好可爱啊～\n和我小的时候\n用玩具积木搭出来的那个\n有一点点像呢～。",
      "EUde": "  ist schon toll! Sieht aus wie das harte Zeug, aus dem Bäume sind!",
      "EUen": "The \nis real neat! Kinda looks like the\nstuff they make trees out of!",
      "EUes": "  me encanta.\n¡Se parece al juego que me regalaron\nde pequeño en un cumpleaños!\nTodavía lo uso.",
      "EUfr": " est trop mignon !\nJ'en avais fabriqué un presque\npareil avec mes cubes quand\nj'étais petit !",
      "EUit": " troppo forte!\nAnch'io ne avevo \npraticamente  con i miei\nblocchi, quando ero piccolo!",
      "EUnl": "   echt te gek! Het lijkt wel dat spul waar ze bomen van maken!",
      "EUru": ", класс!\nНапоминает такие штуки, из\nкоторых деревья делают.",
      "JPja": "って、\nとっても　カワイイねぇ～\nボクが　こどものとき\nおもちゃのつみきで　作ってたやつに\nちょっと　にてるかも～、",
      "KRko": ",\n진짜 귀엽다아～\n내가 어렸을 때\n장난감 블록으로 만든 거랑\n좀 비슷한거얼～? ～",
      "TWzh": "\n很可愛耶～\n跟我小時候用玩具積木做的\n有一點像喔～。",
      "USen": "The \nis real neat! Kinda looks like the\nstuff they make trees out of!",
      "USes": "  me encanta.\n¡Se parece mucho a un juguete\nque me regaló mi abuelita hace\nmuuuchos años!",
      "USfr": " est trop mignon!\nJ'en avais fabriqué un presque\npareil avec mes cubes quand\nj'étais petit!"
    }
  },
  {
    "label": "005",
    "attribute": "0x0000000000000000",
    "locale": {
      "CNzh": "，\n看起来很有年代感呢～\n它诞生的日期，\n一定比我出生的日期要早得多！\n我们一定要尊老哦～。",
      "EUde": "  da sieht richtig alt aus!\n ist bestimmt schon soooooo\nviel älter als ich! Das muss man\nrespektieren! So wie meine Oma.",
      "EUen": "The \nlooks real old!\nI bet it was made a loooong time ago,\nbefore I was born! Gotta respect the\nelderly, (catchphrase).",
      "EUes": "  de aquí parece bastante antigu...\nSeguro que  hicieron mucho antes\nde que yo naciera...\n¡Hay que respetar a las personas\ny a las cosas mayores!",
      "EUfr": " est vraiment très  !\n a dû être fabriqué bieeeen\nlongtemps avant que je naisse.\nAlors il faut lui montrer du respect.",
      "EUit": " dall'aspetto antico e rispettabile.\nMi ricorda tanto la mia dolce e saggia\nnonnina... Gli anziani ne sanno più di\ntutti, !",
      "EUnl": "   er echt heel oud uit!\n vast hééél lang geleden\ngemaakt, nog voordat ik er was! Die\noudjes verdienen respect, joh.",
      "EUru": ",\nкажется, старинный.\nНаверняка намно-о-ого старше\nменя! Старших надо уважать.",
      "JPja": "、\nとっても　古そうなモノだなぁ～\nきっと　ボクが生まれる　ずっと前に\n作られたんだろうねぇ\nおとしよりは　だいじにしなくちゃ、",
      "KRko": ",\n엄청 오래된 물건인가 봐아～\n아마 내가 태어나기도\n훠얼～씬 전에 만들어졌을 거야아～\n어른이니까 공경해야지～ ～!",
      "TWzh": "\n看起來很老舊耶～\n我想它一定是在\n我出生的很久很久以前做好的吧～\n要好好愛護它才行～。",
      "USen": "The \nlooks real old!\nI bet it was made a loooong time ago,\nbefore I was born! Gotta respect the\nelderly, (catchphrase).",
      "USes": "  de aquí se ve que es muy viej...\nSeguro que  hicieron mucho antes\nde que yo naciera...\n¡Hay que respetar a las personas\ny a las cosas mayores!",
      "USfr": " est vraiment très !\n a dû être fabriqué bieeeen\nlongtemps avant que je naisse.\nAlors il faut lui montrer du respect."
    }
  },
  {
    "label": "006",
    "attribute": "0x0000000000000000",
    "locale": {
      "CNzh": "这里摆着\n啊～\n难道说，这附近有学校～？！\n户外的学校，听起来很有意思呢～\n如果是这样的学校，我也能做到\n每天按时到校～！。",
      "EUde": "?\nDraußen in die Schule zu gehen,\nist bestimmt lustig.\nAber ob die Lehrer mich neben\nmeinem Kühlschrank sitzen lassen\nwürden?",
      "EUen": "?\nAn outdoor school\nsounds kinda fun.\nBut I'd probably get in trouble for\npassing notes with bugs.",
      "EUes": "Cuando me di de bruces con  , ¡pensé que habían abierto un cole aquí!\nAprender al aire libre tiene que molar\nun montón... ¡En ese plan hasta yo\nllegaría puntual!",
      "EUfr": " ?! On est à l'école ?! Mais j'ai pas fait mes devoirs !\nJe vais me faire gronder ! Je vais\npeut-être même avoir des heures de\ncolle ! Oh non !!!",
      "EUit": "? Beh, in effetti adoro l'idea di una scuola all'aria aperta!\nProbabilmente mi appisolerei anche\ndi meno durante le lezioni...",
      "EUnl": "? Een buitenschool lijkt me best leuk.\nMaar ik krijg vast straf, omdat ik dan\nga zitten spieken bij de beestjes.",
      "EUru": "? А что,\nшкола на улице — неплохая идея.\nНо меня бы наверняка в ней ругали\nза болтовню с жуками.",
      "JPja": "が\nおいてあるってことは、\nもしかして　このへんに　学校が？！\nお外の学校なんて、なんだか　楽しそう～\nそれなら、ボクでも　ちこくしないで\n行けそうだよぉ、",
      "KRko": "이\n밖에 있다니...\n혹시 이 근처에 학교가아～?!\n야외에 교실이 있다니 넘 재밌겠다아～\n그런 학교라면 나두 지각 안 하고\n다닐 수 있을 것 같아～ ～",
      "TWzh": "既然有\n……\n難道說……這附近有學校！？\n戶外的學校感覺很有趣耶～\n這樣的話，\n搞不好連我都不會遲到喔～。",
      "USen": "?\nAn outdoor school\nsounds kinda fun.\nBut I'd probably get in trouble for\npassing notes with bugs.",
      "USes": "Cuando me topé con  , ¡pensé que habían abierto una escuela aquí!\nDebe ser genial poder tomar clases\nal aire libre... ¡Hasta querría llegar\nsiempre a tiempo!",
      "USfr": "?! On est à l'école?! Mais j'ai pas fait mes devoirs!\nJe vais me faire chicaner! Je vais\npeut-être même avoir des heures de\nretenue! Oh non!!!"
    }
  },
  {
    "label": "007",
    "attribute": "0x0000000000000000",
    "locale": {
      "CNzh": "嘿～\n，\n是不是很有度假村的感觉～？\n如果在上布置很多这个，\n是不是大家就会把这里当成度假村，\n然后就会有很多游客来玩吧～。",
      "EUde": "  sieht aus wie aus einer Ferienanlage...\nWarte mal. Leben wir etwa in einer\nFerienanlage?\nSteht mein Haus in einer\nFerienanlage? Bin ich im Urlaub?\nIst das ALLES hier nur ein Traum?!",
      "EUen": "The \nlooks like it belongs in\nan island resort...\nHang on. This...is an island.\nDo we...do we live in a resort?\nIs my house part of a resort?\nAre you a resort employee?!\nIs ANY of this REAL?!",
      "EUes": "  de aquí quedaría mejor en una isla paradisíaca al lado de una pisci...\nUn momento... ¿No estamos ya\nen una isla paradisíaca?\n¿Vivimos aquí o en realidad estamos\nde vacaciones? ¿Habrá más gente\nque viva en islas?\n¡Jo, qué de dudas me asaltan\nde repente!",
      "EUfr": " ! Hé hé ! On se croirait dans un club de vacances ! Attends une seconde...\nEst-ce que cette île est un club de\nvacances ? Est-ce que ma maison\nest dans un club de vacances ?\nEst-ce que tu es un employé d'un\nclub de vacances ? EST-CE QUE\nMA VIE EST UN MENSONGE ?!",
      "EUit": " che c'è qui starebbe meglio su un'isola da sogno vicino a una pisci...\nUn momento... Noi siamo già su\nun'isola da sogno, no?\nCi abitiamo qui o in realtà siamo\nsolo in vacanza? Ci sarà gente che\nvive su altre isole?\nCaspitina, che dubbi incredibili\nmi vengono così, all'improvviso!",
      "EUnl": "   eruit alsof  uit een vakantieoord .\nWacht even. Wonen wij in zo'n oord?\nStaat mijn huis in een vakantieoord?\nBen jij een medewerker? Is dit\neigenlijk allemaal wel écht?!",
      "EUru": "?\nА я думал, такие вещи только на\nкурортах встречаются. Стоп.\nА может, это и есть курорт? И мой\nдом на курорте? А ты аниматор?\nЭто вообще наяву происходит?!",
      "JPja": "ねぇねぇ、\nって、\nリゾートっぽいと思わない～？\nが　こういうので　いっぱいだったら\nリゾート地と　まちがえた　おきゃくさんが\n来ちゃうかもしれないねぇ～、",
      "KRko": "있잖아～\n이\n있으니깐 꼭 리조트 같지이～?\n에 이런 걸 가득 장식하면\n여기가 리조트인 줄 알고\n손님이 많이 오지 않을까아～? ?",
      "TWzh": "我問你喔，你會不會覺得\n\n充滿度假的氣氛啊～？\n如果島上放滿這種家具，\n會不會有很多客人以為這裡是度假勝地，\n就跑過來玩呢～？。",
      "USen": "The \nlooks like it belongs in\nan island resort...\nHang on. This...is an island.\nDo we...do we live in a resort?\nIs my house part of a resort?\nAre you a resort employee?!\nIs ANY of this REAL?!",
      "USes": "  de aquí quedaría mejor en una isla paradisíaca al lado de una pisci...\nUn momento... ¿No estamos ya\nen una isla paradisíaca?\n¿Vivimos aquí o en realidad estamos\nde vacaciones? ¿Habrá más gente\nque viva en islas?\n¡Cuántas dudas tengo de repente!",
      "USfr": "! Hé hé! On se croirait dans un camp de vacances! Attends une seconde...\nEst-ce que cette île est un camp de\nvacances? Est-ce que ma maison\nest dans un camp de vacances?\nEst-ce que tu es un employé d'un\ncamp de vacances? EST-CE QUE\nMA VIE EST UN MENSONGE?!"
    }
  },
  {
    "label": "008",
    "attribute": "0x0000000000000000",
    "locale": {
      "CNzh": "，\n应该在办公室里很常见吧～\n难道说，有谁在这个地方办公吗～？\n在室外办公……\n这个人接待的客户是虫子们吗？\n嘻嘻～感觉应该很有趣吧～！。",
      "EUde": "  gehört eigentlich ins Büro! Ich weiß das, weil ich schon mal in einem war.\nUnd zwar bei meiner Oma! \nSie hat hinter einem Schreibtisch\ngesessen und telefoniert!\nUnd dann hat sie gesagt, ich soll\ndraußen spielen gehn. Und das hab\nich gemacht! Büros sind toll!",
      "EUen": "\nbelongs in an office, right?\nI've never seen an office.\nOh! Hang on! I saw Grandma's\noffice one time! She was in a chair,\nand there was a guy on a couch...\nAnd Grandma asked me to please\ngo outside to play. So I did!\nI tell ya...offices are neat!",
      "EUes": "  debería estar en una oficina, ¿no te parece?\nAunque, ahora que lo pienso,\nqué sé yo, si no he visto una\noficina en mi vida...",
      "EUfr": ", c'est le genre de choses qu'on trouve plutôt dans un bureau, non ?\nEst-ce qu'on est dans le bureau de\nquelqu'un ici, en plein air ?\nJe sais ! C'est sûrement le cabinet\nd'un avocat pour insectes !",
      "EUit": "Mai stato in un ufficio, ma sento che  così ci starebbe a meraviglia. No?\nOh, ma certo! Nonna sedeva spesso\nfuori sulla sedia a dondolo a fare dei\nlavoretti, come in un ufficio.\nLe facevo compagnia, anche se si\naddormentava subito... e io le stavo\naccanto a leggere fumetti.",
      "EUnl": "   toch in een kantoor thuis? Ik heb nooit een echt kantoor gezien.\nOf... wacht even! Ik ben eens in\noma's kantoor geweest! En er was\nook een man die op een bank lag...\nZou dat mijn opa zijn geweest? Dat\nmoet haast wel! Joh, kantoren zijn\nhartstikke gezellig!",
      "EUru": "? Такие\nвещи обычно где-то в офисе стоят.\nХотя я никогда не бывал в офисе.\nА! Я один раз к бабушке в кабинет\nзашел. Она сидела с блокнотом,\nа на кушетке кто-то лежал...\nБабушка мне сказала пойти во двор\nпогулять. И я пошел! В общем,\nофисы и кабинеты — это классно!",
      "JPja": "って、\nしごと場に　よく　おいてあるやつだよねぇ\nこのへんで　だれか　おしごとでもしてるの？\nお外での　おしごとってことは・・・\nおきゃくさんは　ムシさんたちかなぁ？\nうふふ、なんだか　楽しそう～！　",
      "KRko": ",\n회사 같은 데서 많이 쓰는 거지이～?\n이 근처에서 누가 일하나～?\n밖에서 일하는 걸 보면...\n곤충들이 손님인가 봐아～\n우후후, 재밌겠다아～ !",
      "TWzh": "\n常常出現在工作的地方吧？\n所以有人在這附近工作嗎～？\n如果是在外面工作的話……\n客人是蟲蟲嗎？\n呵呵，總覺得很有趣～！。",
      "USen": "\nbelongs in an office, right?\nI've never seen an office.\nOh! Hang on! I saw Grandma's\noffice one time! She was in a chair,\nand there was a guy on a couch...\nAnd Grandma asked me to please\ngo outside to play. So I did!\nI tell ya...offices are neat!",
      "USes": "  debería estar en una oficina, ¿no te parece?\nNo sé por qué dije eso, si yo\nnunca he visto una oficina...",
      "USfr": ", c'est le genre de choses qu'on trouve plutôt dans un bureau, non?\nEst-ce qu'on est dans le bureau de\nquelqu'un ici? En plein air?\nJe sais! C'est sûrement le cabinet\nd'un avocat pour insectes!"
    }
  },
  {
    "label": "009",
    "attribute": "0x0000000000000000",
    "locale": {
      "CNzh": "\n是用什么树做成的呢～\n是这座上的树？还是别的上的树？\n好吧～这问题只有去问制作的工匠\n才知道答案吧～。",
      "EUde": "Aus was für einem Baum \n wohl gemacht wurde?\nOb das wohl ein Baum von dieser\nInsel war?\n(Floskel), Bäume kann man nicht essen, also kenn ich mich damit nicht aus! Oder kann man doch?",
      "EUen": "What kinda tree was used for\nthe ?\nI wonder if it was a tree from this\nisland or someplace else?\n, maybe I'll ask the\nbugs if they know!",
      "EUes": "¿Qué tipo de árbol se habrá usado\npara construir  ?\n¿Sería de esta isla o llegaría de\nalgún lugar lejano y exótico?\nTantas preguntas y tan pocas\nrespuestas, ...",
      "EUfr": "Je me demande avec quels arbres\n a été fabriqué.\nTu crois que c'était des arbres de\ncette île, ou des arbres d'un autre\nendroit ?\nJe vais demander aux insectes,\n ! Ils s'y connaissent, en bois !",
      "EUit": ". Chissà che tipo di albero sarà stato usato per crearl...\nVerrà da quest'isola o da qualche\nluogo lontano ed esotico?\nSarebbe mitico poterlo chiedere\na chi l'ha realizzat, .",
      "EUnl": "Wat voor boom zou er voor   gebruikt zijn?\nEn zou het een boom van dit eiland\nzijn geweest of ergens anders\nvandaan?\n! Misschien kunnen de beestjes de smaak herkennen! Dan hoef ik niet zelf te proeven...",
      "EUru": "?\nИнтересно, из какого дерева он\nсделан?\nИз нашего местного или из какого-\nто другого?\n! Спрошу у жуков, они\nнаверняка знают!",
      "JPja": "は\nどんな木から　作られたんだろうねぇ～\nこのの木？　それとも　よそのの木かなぁ？\nな～んて、さすがに　作ったひとに聞かなくちゃ\nわかんないかぁ～、",
      "KRko": "은\n무슨 나무로 만들었을까아～?\n이  나무일까, 다른  나무일까?\n헤헤, 역시 만든 사람밖에\n모르겠지이～ ?",
      "TWzh": "\n是用什麼樹做的呢～？\n是這座島上的樹嗎？還是別座島上的呢？\n不過～不問做出來的人\n應該是沒辦法知道的吧～。",
      "USen": "What kinda tree was used for\nthe ?\nI wonder if it was a tree from this\nisland or someplace else?\n, maybe I'll ask the\nbugs if they know!",
      "USes": "¿Qué tipo de árbol habrán usado\npara construir  ?\n¿Sería de esta isla o llegaría de\nalgún lugar lejano y exótico?\n¡! Tantas preguntas\nsin respuestas...",
      "USfr": "Je me demande avec quels arbres\n a été fabriqué.\nTu crois que c'était des arbres de\ncette île, ou des arbres d'un\nautre endroit?\nJe vais demander aux insectes,\n! Ils s'y connaissent,\nen bois!"
    }
  },
  {
    "label": "010",
    "attribute": "0x0000000000000000",
    "locale": {
      "CNzh": "这个，\n不管放在哪里都很可爱呢～\n虽然不清楚是什么人摆在这里的，\n不过把它放在户外，\n应该是想让大家欣赏吧？。",
      "EUde": "Was macht   denn hier draußen?\nNiedliche Sachen an komischen\nOrten sind gruselig. Als wär mein\nBriefkasten plötzlich voller Bonbons!\nOder als käm plötzlich  aus dem Wasserhahn!",
      "EUen": "What's something cute like the\n doing\nhere outside?\nCute stuff in places it doesn't belong\nis kinda creepy! Like when I find\nsparkles on my house...\nOr a ripped dance outfit hanging\nfrom the roof, right above a weird\ncrater in one of my flower beds!",
      "EUes": "¿Qué estará haciendo aquí  tan coquet como est?\nNo sé de quién habrá sido la idea\nde colocar algo así aquí...\n¡Pero hay que reconocer que le da\nun toque cuqui al lugar!",
      "EUfr": "Qu'est-ce qu'un truc aussi mignon\nqu' fait dehors ?  va s'abîmer !\nSes couleurs vont passer, les\ninsectes vont  grignoter,  va\nêtre recouvert de mousse.\nSa mignonnitude risque d'en\nprendre un coup...",
      "EUit": "Che ci farà qui all'aria aperta  così ?\nNon so a chi possa essere venuta\nl'idea di lasciare qualcosa di simile\nqui...\nPerò bisogna ammettere che dà un\ntocco niente male a questo posto!",
      "EUnl": "Wat doet zoiets schattigs als   nou buiten?\nSnoezige dingen op vreemde\nplekken vind ik verdacht! Zoals die\nkeer dat er glitter op mijn huis zat...\nOf dat gescheurde danspakje aan\nhet dak precies boven die bizarre\nkrater in mijn bloembed!",
      "EUru": "? Такая\nмилота — и на улице?\nСтранно видеть симпатичные вещи\nв непривычном месте! Один раз\nя на крыше дома блестки нашел.\nА в цветнике внизу была яма.\nА прямо над ней карнавальный\nкостюм чей-то с крыши свисал.",
      "JPja": "って\nどこに　おいてあっても　カワイイよねぇ～\nだれが　おいたのか　わかんないけど\nお外に　おくくらいだし、\nみんなに　見せたかったのかなぁ？　",
      "KRko": "은\n어디다 갖다 놔도 참 예쁘다아～\n누가 가져온 건진 모르겠지만\n이렇게 밖에 둔 걸 보면 다른 사람들에게도\n꼭 보여주고 싶었나 봐아～ !",
      "TWzh": "\n不管放在哪裡都很可愛耶～\n雖然不知道是誰放的，\n但放在外面的話，\n應該是想讓大家看到吧？。",
      "USen": "What's something cute like the\n doing\nhere outside?\nCute stuff in places it doesn't belong\nis kinda creepy! Like when I find\nsparkles on my house...\nOr a ripped dance outfit hanging\nfrom the roof, right above a weird\ncrater in one of my flower beds!",
      "USes": "¿Qué estará haciendo  tan coquet como  por aquí?\nNo sé de quién habrá sido la idea\nde ponerl...\n¡Pero hace que todo se vea más\nbonito, (catchphrase)!",
      "USfr": "Qu'est-ce qu'un truc aussi mignon\nqu' fait dehors?  va s'abîmer!\nSes couleurs vont se faner, les\ninsectes vont  grignoter,  va\nêtre recouvert de mousse.\nSa mignonnitude risque d'en\nprendre un coup..."
    }
  },
  {
    "label": "011",
    "attribute": "0x0000000000000000",
    "locale": {
      "CNzh": "怪不得从刚才我就闻到了一股很香的味道，\n原来是\n啊～\n不仅可以用来吃，\n作为家具还既好看又能散发香味，\n水果真是好棒啊～。",
      "EUde": "Da kommt also der leckere\nGeruch her! Hier steht \n!\nFrüchte sind schon toll. Man kann sie\nessen UND Möbel draus machen\nUND lustige Gesichter draufmalen!",
      "EUen": "So that's where that yummy smell\nwas coming from! There's \n here!\nFruits! You can eat 'em, AND make\n'em into furniture, AND draw faces\non 'em, AND...call 'em Pete!",
      "EUes": "¡Así que esto es lo que olía tan bien!\n¡!\nLas frutas se pueden comer, hacer\nmuebles con ellas... ¡o pintarles\ncaritas y ponerles nombre!",
      "EUfr": "Ah ! Alors c'est de là que venait\ncette bonne odeur fruitée ! Il y a  !\nC'est trop bien les fruits ! On peut\nles manger, en faire des meubles,\nleur raconter des histoires...",
      "EUit": "Ecco da dove proveniva quel\nprofumino fantastico! Qui c'è\n!\nLa frutta è davvero versatile! Puoi\nannusarla, mangiarla, disegnarci\nsopra e persino farci dei mobili!",
      "EUnl": "Daarom rook het zo lekker! Dat komt van   hier!\nJe kunt van alles met fruit! Opeten,\nbijvoorbeeld. Of er meubels van\nmaken. Of het een gezicht geven.\nIk geef mijn fruit meestal een\nverbaasd gezicht, dan kan ik het\nallerlei spannende verhalen vertellen!",
      "EUru": "Так вот что так вкусно пахнет!\n!\nОх, фрукты! Их можно есть, мебель\nиз них делать, варенье варить,\nрисовать на них, имена им давать!",
      "JPja": "さっきから　いいニオイがすると思ってたら\nの\nニオイだったんだねぇ～\n食べるだけじゃなく　家具になっても\n見た目と　いいニオイで　楽しめるなんて\nフルーツって　スゴイよねぇ～、",
      "KRko": "아까부터 어디선가 좋은 냄새가 나더니\n에서\n나는 냄새였구나아～\n과일은 맛만 있는 게 아니라 가구가 돼서도\n생김새랑 좋은 냄새로 즐거움을 주니까\n정말 대단하지이～? !",
      "TWzh": "我從剛剛就一直聞到很香的味道，\n原來是的\n味道啊～\n不只可以吃，做成家具看起來很棒，\n味道也很香，\n水果真是厲害的東西～。",
      "USen": "So that's where that yummy smell\nwas coming from! There's \n here!\nFruits! You can eat 'em, AND make\n'em into furniture, AND draw faces\non 'em, AND...call 'em Pete!",
      "USes": "¡Así que esto es lo que olía tan bien!\n¡!\n¡Hay tanto que se puede hacer con \nlas frutas!\nComerlas, hacer muebles con ellas...\n¡o pintarles caritas y ponerles\nnombre!",
      "USfr": "Ah! Alors c'est de là que venait\ncette bonne odeur fruitée! Il y a !\nC'est trop bien les fruits! On peut\nles manger, en faire des meubles,\nleur raconter des histoires..."
    }
  },
  {
    "label": "012",
    "attribute": "0x0000000000000000",
    "locale": {
      "CNzh": "，\n是以前有一段时间\n非常流行的款式吧～\n看着这样的装饰，有一种穿越回了\n以前的的感觉～\n让人觉得很兴奋呢～。",
      "EUde": "  muss ganz doll alt sein. Oder ich bin auf einer Zeitreise!\nDann sollte ich mein Vergangenheits-\nIch finden und ihm sagen, dass\n total lecker ist!",
      "EUen": "This \nmust be real old.\nOr maybe we're time traveling?!\nI oughta find Past Me and tell him\nto chill out and enjoy every donut!",
      "EUes": "  de aquí seguro que era muy popular hace la tira de años.\n¡¿Habremos viajado en el tiempo?!\nSi me encuentro a mi yo del pasado,\nle diré que procure disfrutar más\nde los dónuts que se coma...",
      "EUfr": ", c'était à la mode il y a plusieurs années, non ?\n doit être assez vie... Où alors\non a voyagé dans le temps !\nJe dois retrouver mon moi du passé\npour l'empêcher de manger le vieux\nsandwich qui traîne au fond du frigo !",
      "EUit": "Se non sbaglio, questo tipo di  era molto popolare un tempo, vero?\n che c'è qui non sembra\n di un giorno. Stiamo\nviaggiando nel tempo, ?",
      "EUnl": "   ooit heel populair, toch?  hier  vast al waanzinnig oud.\nOf zijn we in de tijd teruggereisd?!\nIk ga tegen mijn jonge zelf zeggen\ndat hij van elk taartje moet genieten!",
      "EUru": "! Вот\nэто да! Мы как будто в прошлое\nперенеслись.\nЕсли бы я попал в прошлое, нашел\nбы там себя и сказал бы, что надо\nнаслаждаться каждым пончиком!",
      "JPja": "って\n今より　ちょっと　むかしに\n大人気だった　家具なんだよねぇ\nこういうのが　かざってあると\nむかしの　に来たみたいで\nなんだか　ワクワクしちゃうよぉ～、",
      "KRko": ",\n지금보다 쫌 옛날에\n인기 있었던 가구지이～?\n이런 가구가 있으니깐\n옛날 에 온 것 같아서\n왠지 두근두근한거얼～? !",
      "TWzh": "，\n以前有段時間是超級受歡迎的家具喔～\n看到這個放在這裡，\n好像回到以前的一樣，\n總覺得好興奮喔～。",
      "USen": "This \nmust be real old.\nOr maybe we're time traveling?!\nI oughta find Past Me and tell him\nto chill out and enjoy every donut!",
      "USes": "  de aquí seguro que era muy popular hace muchísimos años.\nO es muy antigu o pasa que... \n¡estamos viajando en el tiempo!\nSi me encuentro a mi yo del pasado,\nle tengo que decir que disfrute más\nde las papitas que coma...",
      "USfr": ", c'était à la mode il y a plusieurs années, non?\n doit être assez vie... Ou alors\non a voyagé dans le temps!\nJe dois retrouver mon moi du passé\npour l'empêcher de manger le vieux\nsandwich qui traîne au fond du frigo!"
    }
  },
  {
    "label": "013",
    "attribute": "0x0000000000000000",
    "locale": {
      "CNzh": "\n好可爱啊～\n我好喜欢～\n如果我家全是这个风格的家具的话，\n一定超级有趣吧～。",
      "EUde": "Boah,   ist ja richtig toll!\nDu, wusstest du schon? Ich hab\nmeine Doktorarbeit über Spielzeug-\nMöbel geschrieben. Ganz echt wahr!\n„Experimentelle Regressionstherapie:\nDie Rückeroberung der Kindheit und\nneue Wege der Wiederverwertung.“\nDa war ich ganz stolz drauf und hab\neine gute Note bekommen. Oma und\nOpa haben mich ganz doll gelobt!",
      "EUen": "That \nis so cool!\nI'm gonna blow your mind. Ready?\nI wrote my thesis on toy furniture.\nIt's true! It was called...\n\"Emotionalism in Toy Furniture:\nRecapturing Childhood with\nReclaimed Materials.\"\nI was real proud of it and got a good\ngrade! Then Grandma and Grandpa\nboth said I did a good job!",
      "EUes": " ...\n¡mola un montón!\nUna vez intenté hacer algo parecido\ncon mis juguetes...\n¡No veas lo que se enfadaron\nen casa al ver el estropicio...!",
      "EUfr": "C'est un superbe spécimen\nde  !\nEt crois-moi, je m'y connais !\nLes meubles jouet, c'était le thème\nde ma thèse. Je l'avais intitulée :\n« Transfert émotionnel et processus\ncognitifs sous-jacents de l'enfance\nà travers les meubles jouet »\nJ'ai eu une super bonne note !\nMon papy et ma mamie étaient trop\nfiers de moi !",
      "EUit": "Dico sul serio, quanto è mitic  così?\nSapevi che mi sono laureato con\nuna tesi su questa serie di mobili?\nPerché, dubitavi che avessi studiato?\n\"L'arredo giocoso nella storia del\nfumetto\". È diventato un classico\nnel suo genere. Non ci credi?",
      "EUnl": "   zóóó waanzinnig cool!\nZal ik je eens wat vertellen? Mijn\neindwerkstuk ging over speelgoed-\nmeubels. Echt! De titel was...\n\"Sentimentalisme in speelgoed-\nmeubilair: terug naar de kindertijd\nmet herwonnen materialen\".\nIk was er heel trots op en ik kreeg\neen goed cijfer en opa en oma\nvonden het ook heel knap!",
      "EUru": "!\nВот это круто!\nТы сейчас упадешь. У меня диплом\nпо игрушечной мебели. Серьезно!\nСказать название моей работы?\n«Эмоционализм в игрушечной\nмебели. Вторичная утилизация\nматериалов как возврат в детство».\nЯ хорошую оценку получил, так\nгордился! И бабушка с дедушкой\nпохвалили!",
      "JPja": "、\nすっごく　カワイイよねぇ～\nボク、大スキなんだ～！\nお家の中が　こんな家具ばっかりだったら\n楽しくって　しかたないだろうなぁ、",
      "KRko": ",\n되게 귀엽지이～?\n나, 귀여운 거 좋아해～\n우리 집에 귀여운 가구만 있었으면\n매일매일 즐거울 텐데에～ !",
      "TWzh": "\n超級可愛的，對吧～\n我很喜歡耶～\n如果我家裡放滿這種家具，\n一定會很有趣～。",
      "USen": "That \nis so cool!\nI'm gonna blow your mind. Ready?\nI wrote my thesis on toy furniture.\nIt's true! It was called...\n\"Emotionalism in Toy Furniture:\nRecapturing Childhood with\nReclaimed Materials.\"\nI was real proud of it and got a good\ngrade! Then Grandma and Grandpa\nboth said I did a good job!",
      "USes": " ...\n¡me encanta!\nUna vez intenté hacer algo parecido\ncon mis juguetes...\nMe regañaron por todo el desastre\nque hice...",
      "USfr": "C'est un superbe spécimen\nde ⁠!\nEt crois-moi, je m'y connais!\nLes meubles jouet, c'était le thème\nde ma thèse. Je l'avais intitulée :\n« Transfert émotionnel et processus\ncognitifs sous-jacents de l'enfance\nà travers les meubles jouet »\nJ'ai eu une super bonne note!\nMon papi et ma mamie étaient trop\nfiers de moi!"
    }
  },
  {
    "label": "014",
    "attribute": "0x0000000000000000",
    "locale": {
      "CNzh": "那边的，\n我好像之前见过……\n我想起来了～！\n和我在海边看到的贝壳很像呢～\n能想起来真是太好啦～！。",
      "EUde": " ...\nIch bin immer Muscheln sammeln ge-\ngangen, als ich noch ganz klein war.\nUnd dann hab ich Sandkuchen\ngebacken. Und gegessen! Und dann\nist mir ganz doll schlecht geworden!\nÄh, he he he. Jetzt bin ich schon\ngroß und weiß, dass Sandkuchen\nnicht aus Sand ist!",
      "EUen": "That ...\nReminds me of how folks say to\n\"come out of your shell\"...\nBut I don't have a shell, and if I did,\nI'd call it a \"me-bucket,\" because I'd\nbe using it to carry me!\nA huh huh huh. A big ol' bucket fulla\nme walkin' around, sloshin'... Yeah,\nI ain't getting outta that for nothin'!",
      "EUes": " ... me recuerda a cuando vas por la playa recogiendo conchas.\n¡Madre mía! La cantidad que hará\nfalta para fabricar  de ...",
      "EUfr": " me dit quelque chose, ... Hmm...\nAh, je sais !  a été fabriqué avec\nle coquillage sur lequel j'ai trébuché\nl'autre jour...\nEt ma glace est tombée sur le sable,\nalors que j'avais même pas\ncommencé à la manger...",
      "EUit": "Ogni volta che mi imbatto in  penso a com'è difficile vincere la timidezza...\nNon ci costruiamo tutti un guscio\nprotettivo, di tanto in tanto?\nL'importante è uscirne fuori\ncoraggiosamente il più spesso\npossibile, !",
      "EUnl": " ... Ze zeggen ook weleens tegen mij: \"Waarom kruip je niet uit je schulp?\"\nMaar ik heb toch geen schulp? Als ik\ner een had, was het mijn ik-emmer\nomdat ik er dan in zit!\nHihihi. Een hele grote emmer vol\nmet mij, die loopt rond te klotsen...\nEn mooi dat ik er niet uit kom!",
      "EUru": "...\nВспомнил, как мне советовали\n«покинуть свою раковину»...\nНо у меня-то раковины нет!\nА была бы, я бы скорее ведро взял.\nЧтобы себя в нем носить!\nУ-ху-ху! Классно было бы... Это\nже можно не только себя, но\nи вкусняшки в ведре носить!",
      "JPja": "、\n前にも　見たような気がするんだけど・・・\nそうかぁ！\nはまべで見た　貝がらのもように　にてるんだぁ\nうふふ、思い出せて　よかったぁ～！　",
      "KRko": ",\n어디선가 본 적이 있는 것 같은데에...\n맞다아!\n바닷가에서 본 조개껍데기랑 똑같아～\n그걸로 만들었나 보다아～ !",
      "TWzh": "總覺得我好像在哪看過\n……\n我想起來了！\n跟我在海邊發現的貝殼長得超級像～\n呵呵，有想起來真是太好了～！。",
      "USen": "That ...\nReminds me of how folks say to\n\"come out of your shell\"...\nBut I don't have a shell, and if I did,\nI'd call it a \"me-bucket,\" because I'd\nbe using it to carry me!\nA huh huh huh. A big ol' bucket fulla\nme walkin' around, sloshin'... Yeah,\nI ain't getting outta that for nothin'!",
      "USes": " ... me recuerda a cuando vas por la playa recogiendo conchas marinas.\n¡Ufff! Me cansé de solo pensar en la\ncantidad que hay que recoger para\nhacer  de ...",
      "USfr": " me dit quelque chose, ... Hmm...\nAh, je sais!  a été fabriqué avec\nle coquillage sur lequel j'ai trébuché\nl'autre jour...\nEt ma crème glacée est tombée\ndans le sable, alors que j'avais\nmême pas commencé à la manger..."
    }
  },
  {
    "label": "015",
    "attribute": "0x0000000000000000",
    "locale": {
      "CNzh": "这个\n是木与铁相结合的设计，感觉好酷啊～\n把它摆在户外作装饰，\n给人一种很成熟的大人的感觉～\n是我一直向往的呢～。",
      "EUde": "  ist schon toll. Aber ich bin noch zu klein für so was.\nWenn ich da Flecken drauf mache,\nschimpfen alle mit mir. Das wär\nblöd, in meinem eigenen Haus...",
      "EUen": "That  is\nso cool. It's too mature\nfor me, though.\nI'm afraid I'd spill something on it.\nThen somebody'd yell at me...I don't\nneed that in my own house.",
      "EUes": "  mola bastante, pero el estilo es demasiado maduro para mí...\nEn casa  mancharía cada dos\npor tres y tendría que enfadarme\nconmigo mismo todo el rato.",
      "EUfr": "Dis, c'est trop la classe !  ! C'est très... sophisticationné !\nUn peu trop pour moi, même... je\nrisquerais de renverser quelque\nchose dessus et de me faire gronder.",
      "EUit": " è un po' troppo  per i miei gusti. Però mi affascina lo stesso!\nNon so che farei se ci facessi cadere\nsopra per sbaglio del ketchup o della\ncioccolata, .",
      "EUnl": "   zo cool. Maar zo'n ding is mij iets te volwassen.\nZodra ik ernaar kijk, krijg ik al de\nneiging om er iets op morsen.",
      "EUru": "!\nВот это круто! Но такая красота не\nдля меня.\nЕще пролью что-нибудь, меня\nругать будут. Мне это надо?\nТем более в моем же доме.",
      "JPja": "って、\n木と　てつの　組み合わせが　カッコイイよねぇ\nコレを　お外にかざるなんて、\nなんだか　デキるオトナってカンジで\nボク　あこがれちゃうなぁ～、",
      "KRko": "은\n나무랑 철의 조화가 멋지지이～\n밖에 장식할 생각을 하다니\n왠지 엄청 센스 있는 어른 같아서\n본받고 싶어지는거얼～ ～",
      "TWzh": "\n用了木頭和鐵，很酷耶～\n把這個放在外面，\n會有種成熟大人的感覺。\n我好羨慕喔～。",
      "USen": "That  is\nso cool. It's too mature\nfor me, though.\nI'm afraid I'd spill something on it.\nThen somebody'd yell at me...I don't\nneed that in my own house.",
      "USes": "  se ve elegante, pero creo que no me conviene tener  así...\n mancharía de comida a cada rato,\ny me tendría que estar regañando a\nmí mismo todo el tiempo...",
      "USfr": "Dis, c'est trop la classe! ! C'est très... sophisticationné!\nUn peu trop pour moi, même... je\nrisquerais de renverser quelque\nchose dessus et de me faire chicaner."
    }
  },
  {
    "label": "017",
    "attribute": "0x0000000000000000",
    "locale": {
      "CNzh": "圆圆的，\n好可爱～\n我总是忍不住想去摸一摸它～\n不过，它这么圆，\n感觉好像被风一吹\n就会滚去别的地方了呢～。",
      "EUde": "!\n ist irgendwie sehr... na ja... rund.\nMeinst du,  rollt weg, wenn ich  anstupse? Äh, he he he!",
      "EUen": "!\nSo round. Like...waaaay round. And\nround things roll... Hey, we should\nbuild some ramps, (catchphrase)!",
      "EUes": "Cada vez que paso por aquí y veo\nest , se me antoja una tortilla, .",
      "EUfr": " !\nC'est rond. Très... rond. Tellement\nrond que la roulade menace. Un coup\nde vent et zou que je tourneboule !",
      "EUit": "!\nÈ così  che mi fa venire in\nmente una pizza, .",
      "EUnl": "!\nZo rond. Ik bedoel... echt helemaal\nrond. En ronde dingen rollen... Laten\nwe hellingen bouwen, (catchphrase)!",
      "EUru": "!\nКругленько. Ну... очень кругленько.\nНаверное, хорошо катается... Давай\nпостроим желоб! (catchphrase)!",
      "JPja": "って、\n丸っこくて　カワイイから\nつい　なでたく　なっちゃうんだぁ～\nだけど　こんなに丸いと、風でどこかに\nころがって　いっちゃいそうだねぇ、",
      "KRko": "은\n동글동글하니 귀여워서\n나도 모르게 쓰다듬고 싶어져어～\n근데 이렇게 둥글면\n바람결에 어딘가로\n굴러가버릴 것 같아～ ～",
      "TWzh": "因為\n圓圓的很可愛，\n所以我不自覺地就想要摸摸看呢～\n可是它這麼圓，\n搞不好會被風吹走，\n滾到別的地方去呢，。",
      "USen": "!\nSo round. Like...waaaay round. And\nround things roll... Hey, we should\nbuild some ramps, (catchphrase)!",
      "USes": "Cada vez que paso por aquí y veo\nest , se me antoja un tamal, .",
      "USfr": "!\nC'est rond. Très... rond. Tellement\nrond que la roulade menace. Un coup\nde vent, et zou que je tourneboule!"
    }
  },
  {
    "label": "018",
    "attribute": "0x0000000000000000",
    "locale": {
      "CNzh": "啊……\n嘻嘻，\n我妈妈也会做各种手工呢～\n亲手制作的东西\n都饱含着制作者的心意，\n让人觉得心里暖暖的～。",
      "EUde": "Huch! Ist das da etwa  \n?!\nWie toll! Von so Sachen Marke\nEigenbau wird mir immer ganz\nwarm ums Herz, (Floskel)!\nIch hatte mal \n,  ich als Türstopper eingesetzt hab.",
      "EUen": "Whoa... Is that really a\nreal ?\nAww, handmade things make me\nfeel warm and fuzzy. I once used a\nhandmade  as a pillow!",
      "EUes": "Anda, mira, .\nYo de pequeño dormía con  hech a mano.\nEra tan blandit y suave...\nOjalá aún l tuviera. ¡Menudas\nsiestas nos pegábamos juntos!",
      "EUfr": "Oh... C'est  vrai,  ?\nLes objets faits main, je trouve ça\ndouillet et réconfortant.\nJ'avais même  qui me servait d'oreiller !",
      "EUit": "Oh...  che vedo è proprio\n?\nLe cose fatte con le proprie zampe\nmi fanno sentire protetto, proprio\ncome le merendine nella dispensa.\nPensa che una volta mi sono\naddormentato come un cucciolino\nsu una confezione formato famiglia.",
      "EUnl": "Wauw...  ?\nFijn om zulke spulletjes te hebben. Ik heb zelf   ik als kussen gebruik!",
      "EUru": "Ух ты... это что, правда ?\nЛюблю все самодельное. Однажды\nя даже использовал самодельный\n вместо подушки!",
      "JPja": "かぁ～・・・\nうふふ、ボクのおかあさんも　けっこう\nなんでも　作れちゃうんだよぉ\n手作りのモノって、\n作ったヒトの　キモチがこもってるからか\nなんだか　あったかいよねぇ、",
      "KRko": "이네...\n우후훗, 우리 엄마도\n뭐든 척척 잘 만드는데에～\n손으로 만든 물건은\n만든 사람의 정성이 담겨서 그런지\n마음까지 따뜻해지는 것 같아～ ～",
      "TWzh": "嗎……\n呵呵，我媽媽的手藝真的很棒，\n什麼都難不倒她喔。\n手工製的物品中，包含著製作者的心意。\n總給人一種很溫暖的感覺呢～。",
      "USen": "Whoa... Is that really a\nreal ?\nAww, handmade things make me\nfeel warm and fuzzy. I once used a\nhandmade  as a pillow!",
      "USes": "Guauuu, .\nYo de pequeño dormía con  hech a mano.\nEra muy suave... Ojalá aún l tuviera,\nservía muy bien de almohada.",
      "USfr": "Oh... C'est  vrai, ?\nLes objets faits à la main, je trouve\nça douillet et réconfortant.\nJ'avais même  qui me servait d'oreiller!"
    }
  },
  {
    "label": "019",
    "attribute": "0x0000000000000000",
    "locale": {
      "CNzh": "看到这，\n让我感受到宇宙真是不可思议呢～\n太阳的强大力量、无人知晓的神秘星球，\n宇宙中还有好多好多未解之谜，\n想想都会令人兴奋呢～！。",
      "EUde": " ...\nWenn ich nur lang genug draufstarre,\nfühl ich mich, als wär ich im All...\nUnd dann stell ich mir die\nverschiedensten Planeten vor...\nHmm... Wie wohl ein Planet aussähe, der nur aus  besteht...?",
      "EUen": "I could really zone out if I stare\nat this \nfor too long...\nI just start thinking about space,\nand planets, and ...\nWhoa! Planet !",
      "EUes": "Qué chul es est ... ¡Anda que no molaría vivir en el espacio!\nCon lo grande que es, seguro que\nhay planetas de todo tipo.\n¡Como un planeta lleno de ! Yo me mudaría ahí de cabeza, .",
      "EUfr": "J'ai peur de rêver debout, si je\nregarde trop longtemps  chouette\n...\nÇa me fait penser à l'espace, aux\nplanètes, à ...\nYoupi ! Planète  !",
      "EUit": "Se continuo a fissare \n mi addormento di sicuro...\nComincio a pensare a spazio, pianeti, ... Ehi! Esisterà il pianeta ?",
      "EUnl": "Ik ga helemaal dagdromen van jouw\n...\nOver de ruimte en planeten en\n...\nWauw! Hebben ze al planeten\nontdekt die gemaakt zijn van\n?",
      "EUru": "!\nЕсли долго на него смотреть, такие\nинтересности видеться начинают...\nНапример, космос... далекие\nпланеты... ...\nОго! Планета !",
      "JPja": "を見てると\nうちゅうって　フシギだな～って思うんだぁ\nお日さまのパワーとか　だれも知らない星とか\nうちゅうには　まだまだ　ナゾがいっぱいで\nボク　ワクワクしちゃう～、",
      "KRko": "을 보면\n우주의 신비로움이 느껴져어～\n해님의 힘이나 아무도 모르는 행성처럼\n우주는 아직 수수께끼투성이잖아～?\n나, 너무 두근거리는 거 있지이～ ～",
      "TWzh": "看到，\n就會讓人感受到宇宙的奇妙呢。\n宇宙本身還充滿著許多未解的謎團，\n真是讓人興奮啊～。",
      "USen": "I could really zone out if I stare\nat this \nfor too long...\nI just start thinking about space,\nand planets, and ...\nWhoa! Planet !",
      "USes": "Me podría quedar dormido mirando\nest ...\nY soñaría que soy astronauta...\n¡Mi misión sería encontrar insectos\nespaciales para que sean mis amigos,\n(catchphrase)!",
      "USfr": "J'ai peur de rêver debout, si je\nregarde trop longtemps  chouette\n...\nÇa me fait penser à l'espace, aux\nplanètes, à ...\nYoupi! Planète !"
    }
  },
  {
    "label": "020",
    "attribute": "0x0000000000000000",
    "locale": {
      "CNzh": "，\n这是在婚礼上会用到的吧～\n也就是说……这里要举办婚礼了？！\n哇～好棒啊～！\n我想当在新娘身后\n帮忙提裙子的人～！。",
      "EUde": "?!\nWer hat  denn hier hingestellt?\nSteht etwa eine Hochzeit an?\nWie toll, da gibt's immer die\nbesten Büfetts, (Floskel)!",
      "EUen": "Wait...who left \n here?\nIs there a wedding? Are we gonna\nthrow rice? If the rice ends up in my\nmouth, can I eat it, (catchphrase)?",
      "EUes": "Oh, ¿qué hace \n aquí fuera? ¿Se va a casar alguien?\nNunca he entendido lo de lanzar\narroz crudo a los novios, ¡mejor\nlanzarlo cocinado y así te lo comes!\nAunque puestos a pedir, que lancen\npaellas con su marisquito y eso.",
      "EUfr": "Attends... Qui a bien pu laisser traîner  par ici ?\nQuelqu'un se marie ? On va lancer du\nriz ? Si le riz tombe dans ma bouche,\nje pourrai le manger, (expression) ?",
      "EUit": "Aspetta un attimo... e   chi l'ha ?\nQualcuno si sposa? Ci faranno tirare\nil riso? E se mi finisce in bocca, lo\nposso mangiare, ?",
      "EUnl": "Wacht... Wie heeft   hier neergezet?\nIs er een bruiloft? Gaan we rijst\ngooien? Alles wat in mijn mond komt, mag ik toch opeten, (catchphrase)?",
      "EUru": "Погоди... Кто здесь оставил\n?\nУ кого-то свадьба? А рис будут\nбросать? А можно я его буду есть?\n(catchphrase)?",
      "JPja": "って、\nけっこんしきで　つかったりするんだよねぇ\nってことは・・・　けっこんしきがある？！\nうわ～、ステキ～！\nボク、およめさんのドレスを\n後ろでもつヒト　やりた～い！　",
      "KRko": "은\n결혼식에서 자주 쓰이곤 하지이～\n근데... 혹시 누구 결혼해?!\n우와아～ 멋지다아～!\n나는 신부 뒤에서 드레스 들어주는\n일을 하고 싶어～! !",
      "TWzh": "\n是被使用在婚禮上的東西對吧？\n這麼說的話……有婚禮囉！？\n哇～真棒～！\n我想當新娘後面的花童！。",
      "USen": "Wait...who left \n here?\nIs there a wedding? Are we gonna\nthrow rice? If the rice ends up in my\nmouth, can I eat it, (catchphrase)?",
      "USes": "¿Quién habrá dejado \n aquí afuera? ¿Se va a casar alguien?\nYo no entiendo por qué avientan\narroz crudo a los novios, ¡mejor\nque lo avienten cocido!\nY si aventaran arroz con leche, mejor,\nsería la boda más deliciosa...\nPegajosita... pero deliciosa.",
      "USfr": "Attends... Qui a bien pu laisser traîner  par ici?\nQuelqu'un se marie? On va lancer du\nriz? Si le riz tombe dans ma bouche,\nje pourrai le manger, (expression)?"
    }
  },
  {
    "label": "021",
    "attribute": "0x0000000000000000",
    "locale": {
      "CNzh": "\n淡淡的粉色，看起来很柔和，\n非常可爱呢～\n海中的人鱼，\n是不是也用着\n这样的家具呢～？。",
      "EUde": "(Floskel), die Farbe von   ist echt schön!\nHast du  von einer echten Nixe\ngeschenkt bekommen? Och menno,\nso viel Glück hätte ich auch gern.\nIch hab auch schon mal nach Nixen\ngetaucht, aber außer Wasser ins Ohr\nhab ich leider nix bekommen...",
      "EUen": "(catchphrase), I love the soft pink on\nyour !\nWas that a gift from a mermaid?\nWait. Are mermaids real? Did you\nmeet one? Can they swim fast? Ahh!",
      "EUes": "Es bonito el rosa de  ...\n¡Un momento! ¿No dicen que\nlas sirenas no existen? Entonces,\n¿cómo puede estar esto aquí?\n¡Hemos sido engañados, !",
      "EUfr": "(expression),  et ses douces couleurs me fascinent !\nTu crois que les sirènes aiment aussi\navoir ce genre de choses, chez elles,\nau fond des mers,  ?",
      "EUit": "È davvero forte quel rosa tenue \n !\nPer caso te l'ha regalat una sirena,\n?\nUn momento... Ma esistono davvero\nle sirene? Ne hai incontrata una?\nNuotano come il vento? Aaaah!",
      "EUnl": "(catchphrase), ik ben dol op het zachtroze van je !\nHeb je  van een zeemeermin?\nWacht. Bestaan die echt? Heb je er\neen ontmoet? Zwom ze snel? Wauw!",
      "EUru": "(catchphrase)! Мне так нравится\nэтот нежный розовый цвет твоего\n!\nЭто тебе русалка подарила?\nПостой. Они что, существуют?!\nТы ее видел? С хвостом? Ух ты!",
      "JPja": "って、\nほんのりしたピンク色が　やさしくって\nすっごく　カワイイよねぇ～\nもしかしたら　海の中では、\n人魚さんも　こういうの\nつかってたりするのかなぁ～、",
      "KRko": "은\n은은하게 핑크빛이 돌아서\n정말 귀여워～\n혹시 바닷속 인어들도\n이런 걸 사용하고 있을까아, ～",
      "TWzh": "，\n帶著淡淡的粉紅色，很柔和，\n真的好可愛～\n難道說，美人魚在海裡\n也是用這種東西嗎～。",
      "USen": "(catchphrase), I love the soft pink on\nyour !\nWas that a gift from a mermaid?\nWait. Are mermaids real? Did you\nmeet one? Can they swim fast? Ahh!",
      "USes": "Es bonito el rosa de  ...\nUn momento... ¿No dicen que\nlas sirenas no existen? Entonces,\n¿cómo puede estar esto aquí?\n¡¿Alguien quiere jugar con nuestras\nmentes o qué?!",
      "USfr": "(expression),  et ses douces couleurs me fascinent!\nTu crois que les sirènes aiment aussi\navoir ce genre de choses, chez elles,\nau fond des mers, ?"
    }
  },
  {
    "label": "022",
    "attribute": "0x0000000000000000",
    "locale": {
      "CNzh": "\n是以星座为灵感\n设计出来的家具～\n天空中有许许多多的星星，\n不知道会不会也有\n的星座呢～？。",
      "EUde": "  hier basiert auf einem echten Sternbild, stimmt's?\nIch liiiebe Sterne! Und im Weltall\nfliegen jede Menge davon rum!\nIrgendwo gibt's bestimmt auch ein\nSternbild, das wie  aussieht. Mmmh...",
      "EUen": "So...this design is based on real\nstars, right? I'm talking about your\n.\nWhoa...there are so many stars... Do\nyou think any of 'em form the shape\nof ? Mmm...",
      "EUes": "¿El diseño de   está inspirado en las estrellas de verdad?\nHay tantísimas que deben de tener\nmuchísimas formas distintas...\n¿Habrá alguna con forma de ? ¿Y de (resident name)?",
      "EUfr": "Je crois bien que  qui est là est inspiré par de vraies étoiles...\nOuah... Il y a tant d'étoiles... À ton\navis, il existe aussi la constellation\n ? Mmm...",
      "EUit": "Così... questo design è basato su\ndelle vere stelle? Mi riferisco \n .\nUau, ce ne sono così tante... Pensi\nche esista una costellazione a forma\ndi ? Magari...",
      "EUnl": "Dus... het ontwerp is toch gebaseerd\nop een sterrenbeeld? Ik heb het over\nje .\nWauw... er zijn zoveel sterren... Zou\ner ook een sterrenbeeld zijn dat lijkt\nop ? Mmm...",
      "EUru": "Хм... дизайнер явно думал\nо звездах. Я имею в виду твой\n.\nУх ты... сколько звезд... Интересно,\nесть созвездие ? Ням...",
      "JPja": "って、\nせいざを　イメージして\n作られてる家具なんだよねぇ\n空には　お星さまが　いっぱいあるから\nもしかしたら、のせいざ\nなんてのも　あったりしないかなぁ、",
      "KRko": "은\n별자리를 모티브로 만들어진\n가구가 맞지이?\n하늘에는 별님이 많고 많으니까\n어쩌면  별자리 같은 것도\n있을지 몰라아, ",
      "TWzh": "\n是依星座的形象製作而成的家具喔。\n天上有這麼多星星，\n我在想，是不是也會有\n的星座呢，。",
      "USen": "So...this design is based on real\nstars, right? I'm talking about your\n.\nWhoa...there are so many stars... Do\nyou think any of 'em form the shape\nof ? Mmm...",
      "USes": "¿El diseño de   está inspirado en las estrellas de verdad?\n¿Crees que las estrellas tengan\nformas distintas? Seguro que sí...\n¿Habrá alguna estrella con forma\nde ? ¿Y de (resident name)⁠?",
      "USfr": "Je crois bien que  qui est là est inspiré par de vraies étoiles...\nOuah... Il y a tant d'étoiles... À ton\navis, il existe aussi la constellation\n? Mmm..."
    }
  },
  {
    "label": "023",
    "attribute": "0x0000000000000000",
    "locale": {
      "CNzh": "\n是海盗才有的东西吧……\n啊！难道这座上有海盗？！\n天哪，～！\n在我们回去之前，\n快去找到海盗要个签名吧～。",
      "EUde": "Komisch... Echt voll total komisch...\n, und das hier...\nGibt's auf dieser Insel dann etwa\nSeeräuber? Wer wohl einer ist?\nDu? Ich?! Oder alle zusammen!?\nIch hoffe, ich bin's nicht selbst. \nIch wollte nämlich schon immer ein\nPiratenautogramm, (Floskel).\nUnd mir selber was aufs Bauchi\nschreiben kann ich ja immer...",
      "EUen": "Surspicious... Very surspicious...\nThis isn't where you'd expect to find\n.\nDoes this mean there's a pirate on\nthe island? It could be you! It could\nbe me! It could be anyone!\nI really hope I'm not the pirate. I've\nalways wanted to ask one for their\nautograph, (catchphrase).\nAnd I already signed my favorite\n for myself last month.",
      "EUes": "Qué cosa tan rara... Este no es para\nnada el lugar donde esperaría ver\n.\n¿Habrá algún pirata por la isla?\n¡A ver si vas a ser tú!... ¡O yo!\nBueno, podría ser cualquiera...\nEspero no ser yo. No sé cómo\nharía para pedirme un autógrafo\na mí mismo... ¡(catchphrase)!",
      "EUfr": "Tiens, c'est bizarre... Je m'attendais pas à trouver  ici.\nIl y aurait donc un pirate sur l'île ?\nEt si c'était toi ? Et si c'était moi ?!\nÇa peut être n'importe qui !\nJ'espère que c'est pas moi. Je rêve\nd'en rencontrer un pour lui demander\nun autographe, .\nEt je me suis déjà dédicacé  plus\ndélicat  le mois dernier.",
      "EUit": "Incredibile... Davvero... Non mi\nsarei mai aspettato di trovare qui\n.\nVuol dire che sull'isola c'è un pirata?\nPotresti essere tu! O potrei essere\nio! Potrebbe essere chiunque!\nSpero di non essere io, ho sempre\nvoluto chiedere l'autografo a un\npirata, .\nE poi, il mio autografo l'ho già fatto su  il mese scorso!",
      "EUnl": "Verdacht... Heel verdacht... Hier\nverwacht je normaal gesproken geen\n.\nZou er een piraat op het eiland zijn?\nMisschien ben jij het wel! Of ik!\nHet kan iedereen zijn!\nIk hoop dat ik het niet ben. Op het\nwater worden mijn boterhammen\naltijd nat, (catchphrase).",
      "EUru": "Подозрительно... Даже очень...\nЯ не ожидал увидеть тут\n.\nНеужели на нашем острове есть\nпираты? Может, это ты? А может,\nдаже я? Да кто угодно!\nНадеюсь, я не пират. Хотя я всегда\nхотел автограф какого-нибудь\nпирата. .\nЯ даже в прошлом месяце сам\nподписал свой любимый\n.",
      "JPja": "って\nかいぞくが　もってるヤツだよねぇ・・・\nってことは、このに　かいぞくが？！\nたいへんだよ、！\n帰っちゃう前に　早く　見つけて\nサイン　もらわなくっちゃ～、",
      "KRko": "은\n해적들이 갖고 있는 건데...\n그럼 이 에 해적이 있는 건가?!\n아, 큰일 났어!\n해적이 돌아가기 전에 빨리 찾아내서\n사인을 받아야지이～ !",
      "TWzh": "\n是海盜的東西沒錯吧……\n這麼說的話，有海盜來這座島了！？\n不得了啦，！\n得在海盜回去前找到他，\n然後跟他要簽名才行～。",
      "USen": "Surspicious... Very surspicious...\nThis isn't where you'd expect to find\n.\nDoes this mean there's a pirate on\nthe island? It could be you! It could\nbe me! It could be anyone!\nI really hope I'm not the pirate. I've\nalways wanted to ask one for their\nautograph, (catchphrase).\nAnd I already signed my favorite\n for myself last month.",
      "USes": "Qué cosa tan rara... No me esperaba\nver  en este lugar.\n¿Habrá algún pirata en la isla?\n¡Mira si resulta que eres tú!... ¡O yo!\nBueno, podría ser cualquiera...\nEspero no ser yo. No sé cómo\nharía para pedirme un autógrafo\na mí mismo... ¡(catchphrase)!",
      "USfr": "Tiens, c'est bizarre... Je m'attendais pas à trouver  ici.\nIl y aurait donc un pirate sur l'île?\nEt si c'était toi? Et si c'était moi?!\nÇa peut être n'importe qui!\nJ'espère que c'est pas moi. Je rêve\nd'en rencontrer un pour lui demander\nun autographe, .\nEt je me suis déjà dédicacé  plus\ndélicat  le mois dernier."
    }
  },
  {
    "label": "024",
    "attribute": "0x0000000000000000",
    "locale": {
      "CNzh": "我正在想呢，怎么有一阵秋天的气息，\n原来是摆上了\n呀～\n我呀，一看到这样的物品\n就会联想到秋季的美食，\n然后就觉得肚子饿了～。",
      "EUde": "?\nIch hab mich schon gefragt, wo denn\ndieser interessante Duft herkommt!\nDer erinnert mich total an das viele\nleckere Essen, das es im Herbst gibt.\nOje, und schon knurrt mein Bauchi...",
      "EUen": "I wondered where that neat smell\nwas coming from! Must've been\n.\nEvery time I smell stuff like this, I\nthink of fall food, and my tummy\nrumbles. Sometimes it wakes me up.",
      "EUes": "Ya decía yo que olía muy bien...\n¡Alguien ha dejado aquí \n!\nUf, ya siento cómo me rugen\nlas tripas, ¡y eso que acabo\nde comer!",
      "EUfr": "D'où peut bien venir cette délicieuse\nodeur ? De ce chouette  ?\nElle me rappelle les délicieux plats\nd'automne, et mon bidon gargouille.\nDes fois, ça me réveille !",
      "EUit": "Mi stavo giusto chiedendo da dove\narriva quell'aromino! Deve venire da\n .\nOgni volta che sento odori da cibi\nautunnali, il mio stomaco brontola\nper la fame. A volume basso, spero!",
      "EUnl": "Ik vroeg me al af waar die fijne geur vandaan komt!  dus.\nElke keer als ik zoiets ruik, denk ik\naan herfsteten en rammelt mijn\nmaag. Soms word ik er wakker van.",
      "EUru": "А я-то думал, откуда так вкусно пахнет! А это, наверное, .\nКогда я чую такой запах, вспоминаю\nвсякие осенние вкусности, и живот\nурчит. А иногда даже просыпаюсь!",
      "JPja": "なんだか　秋のニオイがすると思ったら、\nが\nおいてあったのかぁ\nボク、こういうの見てると\n秋のおいしいモノを　思い出しちゃって\nおなかが　すいてくるんだよねぇ、",
      "KRko": "어디선가 가을 냄새가 난다 했더니\n이\n있었구나아～\n난 이런 걸 보면\n가을에 먹을 수 있는 맛있는 것들이 떠올라서\n막 배가 고파지지 뭐야아～ ～",
      "TWzh": "我還在想怎麼有股秋天的氣息，\n原來是這裡擺著\n啊。\n我只要一看到這類東西，\n就會想到秋天的美食，\n然後肚子就開始餓了，。",
      "USen": "I wondered where that neat smell\nwas coming from! Must've been\n.\nEvery time I smell stuff like this, I\nthink of fall food, and my tummy\nrumbles. Sometimes it wakes me up.",
      "USes": "Me parecía que olía muy bien...\n¡Alguien dejó aquí \n!\nMe hace pensar en todas las comidas\nde otoño que me gustan. Uf, ya siento cómo me ruge la pancita...",
      "USfr": "D'où peut bien venir cette délicieuse\nodeur? De ce chouette ?\nElle me rappelle les délicieux plats\nd'automne, et mon bedon gargouille.\nDes fois, ça me réveille!"
    }
  },
  {
    "label": "025",
    "attribute": "0x0000000000000000",
    "locale": {
      "CNzh": "，你快看～\n是哦～\n说到万圣节就不得不提南瓜鬼怪，\n不过，我可是一点都不怕的哦～\n因为我呀，最喜欢南瓜啦！。",
      "EUde": "Guck mal, da steht doch tatsächlich\n!\nVor Geistern hab ich dolle Angst,\naber Kürbisse find ich zum Glück\nnur lecker, (Floskel)!",
      "EUen": "Don't look now, but I think I see\n!\nHalloween means ghosts, right? But\nit also means pumpkins. And those\nare WAY yummier, .",
      "EUes": "Anda, alguien ha puesto aquí\n.\nSi es que es ver una calabaza y\nenseguida pienso en Halloween.\nQué fiesta tan divertida, ¿verdad?\nLo digo por las chuches, porque\nlos sustos a mí no me apasionan.",
      "EUfr": "Je veux pas te faire peur, mais je\ncrois avoir aperçu  !\nHalloween, ça veut dire qu'on risque\nde croiser des fantômes, pas vrai ?\nMais aussi sûrement des citrouilles.\nEt ça au moins, ça a le mérite\nd'être bon à manger, .",
      "EUit": "Non guardare ora, ma mi pare veramente di aver visto !\nHalloween vuol dire fantasmi, lo sai?\nMa anche e soprattutto... le meno\nspaventose zucche, !",
      "EUnl": "Kijk eens, volgens mij zie ik !\nHalloween betekent spoken, toch?\nMaar ook pompoenen. En die zijn\nvéél lekkerder, .",
      "EUru": "Ну надо же! По-моему, это !\nНа Хэллоуин ведь много призраков?\nА еще много тыкв. А тыквы гораздо\nвкуснее! !",
      "JPja": "、見て～\nほら、だよぉ\nハロウィンといえば　カボチャのオバケだけど\nボク、へっちゃらなんだぁ\nだって、カボチャ　大スキだもん！　",
      "KRko": "아, 봐봐아～\n이 있어～\n할로윈에는 호박 귀신이 나온다는데\n귀신이라도 하나도 안 무서워어～\n난 호박을 진짜진짜 좋아하거드은～ !",
      "TWzh": "，你看～\n是喔！\n雖然說到萬聖節就會想到南瓜鬼，\n但我可是一點也不怕喔！\n因為我最喜歡南瓜了！。",
      "USen": "Don't look now, but I think I see\n!\nHalloween means ghosts, right? But\nit also means pumpkins. And those\nare WAY yummier, .",
      "USes": "Vaya, alguien puso aquí\n.\nVeo una calabaza y enseguida pienso\nen Halloween. Qué fiesta tan divertida, ¿verdad?\nLo digo por los dulces, porque\nlos sustos a mí no me gustan nada.",
      "USfr": "Je veux pas te faire peur, mais je\ncrois avoir aperçu !\nHalloween, ça veut dire qu'on risque\nde croiser des fantômes, pas vrai?\nMais aussi sûrement des citrouilles.\nEt ça au moins, ça a le mérite\nd'être bon à manger, ."
    }
  },
  {
    "label": "026",
    "attribute": "0x0000000000000000",
    "locale": {
      "CNzh": "我说，，\n装饰在这里的这件物品\n是吧？\n谁要是能收到\n这样的圣诞礼物，\n一定会特别高兴的～。",
      "EUde": "Wenn ich hier vorbeilaufe und   sehe, denk ich sofort an den Spielzeugtag!\nUnd weil ich den Spielzeugtag total\ngern mag, lauf ich hier so oft wie's\ngeht vorbei, (Floskel).",
      "EUen": "Whenever I wanna think about Toy\nDay, all I gotta do is look over there\nat .\nI really like thinking about Toy Day,\nso I do that a lot, .",
      "EUes": "Si quiero acordarme del Día de los\nJuguetes, todo lo que tengo que\nhacer es una cosa...\n¡Mirar est !\nY, como ese es uno de los días del\naño que más me gustan, me paso\nlas horas muertas mirándol...",
      "EUfr": "Quand je veux repenser au jour des\ncadeaux, je n'ai qu'à regarder , là.\nEt comme j'adore me rappeler de ces\nbons moments, je viens souvent par\nici, .",
      "EUit": "Se voglio fantasticare sul Giorno\ndei giocattoli, mi basta guardare\n.\nMa in realtà non servirebbe\nnemmeno, perché penso al Giorno\ndei giocattoli praticamente sempre.",
      "EUnl": "Als ik zin heb om aan Speelgoeddag\nte denken, kijk ik gewoon naar \n.\nIk vind aan Speelgoeddag denken\nheeeel leuk, dus ik kijk er vaak naar,\n.",
      "EUru": "Этот \nвсегда навевает воспоминания\nо Дне игрушек.\nВоспоминания такие приятные, что\nя часто на него засматриваюсь.\n!",
      "JPja": "ねぇ、\nそこに　かざってあるのって、\nだよねぇ？\nクリスマスプレゼントなんかに\nこういうのを　もらったら、\nぜったい　大よろこびしちゃうよ～、",
      "KRko": "저기, 아\n지금 내 눈에 보이는 게\n 맞지이?\n크리스마스 선물 같은 걸로\n누가 나한테 준다면\n너무 기뻐서 춤출지도 몰라아, ～",
      "TWzh": "，我問你喔。\n裝飾在那邊的東西，\n是吧？\n要是聖誕禮物能收到這種東西，\n我一定會超開心的～。",
      "USen": "Whenever I wanna think about Toy\nDay, all I gotta do is look over there\nat .\nI really like thinking about Toy Day,\nso I do that a lot, .",
      "USes": "Si quiero acordarme del Día de los\nJuguetes, simplemente basta con\nhacer una cosa...\n¡Mirar est !\nY, como ese es uno de los días del\naño que más me gusta, paso hoooras\ny hoooras mirándol...",
      "USfr": "Quand je veux repenser au jour des\ncadeaux, je n'ai qu'à regarder , là.\nEt comme j'adore me rappeler de ces\nbons moments, je viens souvent par\nici, ."
    }
  },
  {
    "label": "027",
    "attribute": "0x0000000000000000",
    "locale": {
      "CNzh": "看着，\n你不会觉得肚子渐渐饿起来了吗？\n你看嘛，那个形状和那个颜色，\n看起来就很好吃对不对～\n唔，只有我是这么想的？。",
      "EUde": "Ich könnte mir stundenlang \n angucken und dabei Snacks futtern.\nAm liebsten würde ich hier direkt\nein eigenes, kleines Schlemmfest\nveranstalten, (Floskel).",
      "EUen": "Some days the only thing I wanna do\nis sit with a buncha snacks and stare\nat .\nTurkey Day is so snacktacular that\nI just like to...bask a little, y'know?\nYeah, basking is nice, .",
      "EUes": "A veces lo que de verdad mola\nes abastecerse de chuches y mirar\nest .\nEl Día del Pavo es uno de esos\nmomentos del año en el que lo que\nmás apetece es disfrutar de la vida.\nSí, disfrutar de la vida mola,\n.",
      "EUfr": "Il y a des jours où j'ai juste envie\nde grignoter en rêvassant à côté\nd'.\nLa fête du partage est si spéciale\nqu'en y repensant, je me perds dans\nmes souvenirs, .",
      "EUit": "Ci sono dei giorni in cui voglio solo\nsgranocchiare degli snack e ammirare\n.\nE il festival delle primizie è perfetto\nper farlo, con tutto quel buon cibo...",
      "EUnl": "Soms neem ik een grote voorraad\nsnoep mee en kom ik hier naar \n staren.\nDan koester ik me de hele dag in de\nsfeer van het Smakenfestijn... Mmm,\nkoesteren is lekker, .",
      "EUru": "Иногда мне хочется одного — есть\nвкусняшки и с любовью глядеть на\n.\nДень изобилия был таким\nнасыщенным! Как вспомню, так\nи тянет полежать и пожевать.",
      "JPja": "を見てると、\nおなかが　すいてくる気がしない？\nほら、あのへんの形とか　あのへんの色とか\nなんとなく　おいしそうに見えるでしょ～\nえっ、これって　ボクだけ？　",
      "KRko": "을 보면\n갑자기 배가 고파지지 않아?\n봐봐아, 생김새도 그렇고 색깔도 그렇고\n누가 봐도 맛있어 보이잖아～\n에엥? 설마 나만 그런 거야아, ?",
      "TWzh": "看著，\n你不覺得肚子會開始餓起來嗎？\n你看，那奇怪的形狀和顏色，\n看起來很好吃吧～\n咦，還是只有我這樣覺得啊？。",
      "USen": "Some days the only thing I wanna do\nis sit with a buncha snacks and stare\nat .\nTurkey Day is so snacktacular that\nI just like to...bask a little, y'know?\nYeah, basking is nice, .",
      "USes": "A veces me gusta pasar el día\ncomiendo nachos y mirando\nest .\nNo hay mejor forma de rememorar\nel Día del Pavo, .",
      "USfr": "Il y a des jours où j'ai juste envie\nde grignoter en rêvassant à côté\nd'.\nLa fête du partage est si spéciale\nqu'en y repensant, je me perds dans\nmes souvenirs, ."
    }
  },
  {
    "label": "029",
    "attribute": "0x0000000000000000",
    "locale": {
      "CNzh": "\n不仅外观可爱，而且光是装饰在这里，\n就会给人一种很热闹的感觉呢。\n仅仅是看着它，\n我的身体就开始蠢蠢欲动，\n变得想要跳起舞来～！。",
      "EUde": "Ich bin immer ganz doll glücklich\nund will tanzen, wenn ich \n seh.\nDann denk ich an Zuckerwatte in\nganz vielen Farben... mit Lichtern!\nUnd Musik. Das macht so viel Spaß!",
      "EUen": "I get the absolute happiest, danciest\nthoughts ever when I walk by \n.\nI imagine a donut with all different\nkinds of sprinkles...and lights...and\ncatchy music. It's so fun and happy!",
      "EUes": "¿Sabes qué? Cuando veo  me pongo muy feliz.\nMe vienen recuerdos de ricas cenas,\nluces de colores, regalitos y mucha\nalegría, .",
      "EUfr": "Quand je passe à côté d', j'ai une de ces envies de danser !\nÇa me fait penser à un clafoutis avec\nplusieurs couches... de la lumière...\net de la musique entraînante.",
      "EUit": "Mi assale subito il buon umore\nquando passeggio in zona\n!\nMi immagino dolciumi di ogni forma\ne colore, con musica che si diffonde\novunque...\nAh, che immagine divertente\ne gioiosa!",
      "EUnl": "Ik word zo vrolijk en zo danserig als ik langs  loop.\nIk stel me dan een softijsje voor met\nlekkere discodip... en discolichtjes...\nen discomuziek. Dat klinkt zo leuk!",
      "EUru": "Каждый раз, когда прохожу мимо\nэтого , прямо приплясываю от радости!\nСразу представляю себе пончики\nс обсыпкой... веселые огоньки...\nмузыку и танцы. Так празднично!",
      "JPja": "って\n見た目も　カワイイし、\nかざってあるだけで　にぎやかになるよねぇ\nボクなんか　もう見てるだけで、\n体が　うずうずしてきて\nおどりたく　なっちゃうんだぁ！　",
      "KRko": "은\n그냥 봤을 때도 좋았는데\n밖에다 놔두니깐 흥겨워지구 좋다아～\n지금 보고만 있는데도\n막 춤추고 싶어서\n몸이 근질거리는 거 있지이～! !",
      "TWzh": "\n不僅外觀可愛，光是裝飾在那裡\n就給人一種很熱鬧的感覺呢。\n我光是看著那東西，\n身體就蠢蠢欲動，\n變得好想跳舞啊！。",
      "USen": "I get the absolute happiest, danciest\nthoughts ever when I walk by \n.\nI imagine a donut with all different\nkinds of sprinkles...and lights...and\ncatchy music. It's so fun and happy!",
      "USes": "Cuando veo  me pongo muy feliz.\nMe vienen recuerdos de cenas ricas,\nluces de colores, regalitos y mucha\nalegría, .",
      "USfr": "Quand je passe à côté d', j'ai une de ces envies de danser!\nÇa me fait penser à un clafoutis avec\nplusieurs couches... de la lumière...\net de la musique entraînante."
    }
  },
  {
    "label": "030",
    "attribute": "0x0000000000000000",
    "locale": {
      "CNzh": "这，\n是从其它国家来的吧？\n感觉有一种很特别的气味……\n难道说，\n是这个国家的美食的香味～！\n希望有一天我能品尝到这种美食～。",
      "EUde": "Weißt du, was? Ich hab alles auf\ndieser Insel schon mal abgeleckt!\nSoll ich dir mal sagen, wie   schmeckt?\nWie Salz. Wie ganz viel Salz.\nMenno, Salz ist aber gar nicht\nso lecker, (Floskel)!",
      "EUen": "Guess what? I tasted everything on\nthe island. Wanna know how \n tastes?\nLike salt. Lots and lots of salt. Make\nit stop, make it stop! I don't wanna\ntaste salt anymore, !",
      "EUes": "¿Sabes qué? Le he pasado la lengua\na todos los objetos de la isla...\nNo pienses mal: es espíritu científico.\n¿Nunca te has preguntado\na qué sabe ?\nPues ya te lo digo yo: a sal. Mucha\nsal. Toneladas de sal. ¡Bastaaa! \n¡No más sal, por favor, !",
      "EUfr": "J'ai goûté tout ce que j'ai pu trouver\nsur l'île. Tu veux savoir quel goût a\n ?\nC'est salé. Très, très salé. J'en peux\nplus, j'en veux plus ! Enlevez ce goût\nsalé de ma bouche,  !",
      "EUit": "Sai una cosa? Ho dato una leccatina\na tutti gli oggetti dell'isola... Non\npensare male: è per la scienza.\nTi sei mai chiesto di che cosa sa\n?\nBeh, te lo dico io: di sale. Tanto\nsale. Tonnellate di sale. Bastaaa!\nNon voglio più sale, !",
      "EUnl": "Weet je? Ik heb alles op dit eiland geproefd. Echt waar!\nWil je weten je hoe  ?\nZout. Waanzinnig zout. Hou op, hou\nop! Ik blijf maar zout proeven! Om\ngek van te worden, !",
      "EUru": "А я лизнул на острове все, до чего\nдотянулся. Сказать, какой вкус\nу ?\nСоленый. Очень много соли. Хватит,\nнадоело! Хочу какой-нибудь другой\nвкус. !",
      "JPja": "って、\nこことは　ちがう国から　来たんだよねぇ？\nなんだか　フシギなニオイがする～・・・\nもしかしたら、そこの国の\nおいしいモノの　ニオイだったりして～！\nいつか　それ、食べてみたいなぁ、",
      "KRko": "은\n다른 나라에서 온 물건이지?\n신기한 냄새가 나아～\n어쩌면 그 나라의\n맛있는 음식 냄새가 아닐까아～?\n우후후, 나도 먹어보고 싶다아～ !",
      "TWzh": "\n是從別的國家來的吧？\n總覺得有種神奇的味道呢……\n這個該不會是\n那個國家的美食的味道～！\n真希望有一天能吃吃看，。",
      "USen": "Guess what? I tasted everything on\nthe island. Wanna know how \n tastes?\nLike salt. Lots and lots of salt. Make\nit stop, make it stop! I don't wanna\ntaste salt anymore, !",
      "USes": "¿Sabes qué? Le pasé la lengua a\ntodos los objetos de la isla...\nEs que tengo curiosidad...\n¿Nunca te preguntaste a qué sabe ?\nPues yo te cuento: a sal. Todo tiene\nun gusto salado asqueroso.\n¡Bastaaa! \n¡Ahora necesito seguir una dieta\nestricta de paleta, !",
      "USfr": "J'ai goûté tout ce que j'ai pu trouver\nsur l'île. Tu veux savoir quel goût a\n?\nC'est salé. Très, très salé. J'en peux\nplus, j'en veux plus! Enlevez ce goût\nsalé de ma bouche, !"
    }
  },
  {
    "label": "999",
    "attribute": "0x0000000000000000",
    "locale": {
      "CNzh": "",
      "EUde": "",
      "EUen": "",
      "EUes": "",
      "EUfr": "",
      "EUit": "",
      "EUnl": "",
      "EUru": "",
      "JPja": "",
      "KRko": "",
      "TWzh": "",
      "USen": "",
      "USes": "",
      "USfr": ""
    }
  },
  {
    "label": "999_01",
    "attribute": "0x0000000000000000",
    "locale": {
      "CNzh": "这，\n不知怎么的，让我很在意……\n对了！如果每天都看一看它，或许就能知道\n自己为什么在意了！从今天开始，\n我要把这里归入我的散步路线～！。",
      "EUde": "Hmmm... Ich bin mir nicht sicher, ob\ndas der richtige Ort für so etwas ist.\nAndererseits... Was wäre denn\nder richtige Ort für so ein Dings,\n(Floskel)?\nGibt es überhaupt einen? Und wer\nentscheidet das? Warte, ich hab's!\nVielleicht wird ein Ort erst zum\nrichtigen Ort, wenn man dort was\nhinstellt oder hinhängt!",
      "EUen": "Hmm. I'm not sure this is\nthe exact right spot for\n.\nBut...what IS the exact right spot?\nIs there one? Who even decides\nthat? Wait a sec!\nMaaaybe wherever you put a thing...\nTHAT'S the exact right spot for the\nthing, !\nI hope so, because that'd make\ndecorating way less stressful.",
      "EUes": "No sé a quién se le ocurrió plantar\n aquí, ¡pero es una idea divertida!\nYo no pierdo ni una oportunidad\nde venir a ver cómo sigue cada vez\nque salgo a dar una vuelta.",
      "EUfr": "Hmm, . Pas sûr que ce soit l'endroit idéal pour ce truc...\nMais quel serait l'endroit idéal pour\nle mettre, d'ailleurs ?\nEst-ce qu'il y en a vraiment un ?\nQui en déciderait ? Hé mais !\nQuand quelqu'un place quelque\nchose quelque part... c'est peut-être\nautomatiquement l'endroit idéal !\nÇa m'arrangerait en tout cas.\nÇa rendrait la déco beaucoup\nmoins stressante.",
      "EUit": "Mmmh... Non sono sicuro che\nquesto sia il posto giusto per\nquesto oggetto.\nMa... qual è il posto giusto per\nun oggetto del genere, dopotutto?\nCe ne sarà davvero uno? E chi le\nprende queste decisioni? Aspetta\nun attimo, lo so io!\nForse dovunque metti una cosa...\nquello è il posto perfetto per quella\ncosa, !\nAlmeno lo spero, così arredare casa\nsarebbe molto meno stressante.",
      "EUnl": "Hm. Misschien is dit niet de beste\nplek voor zoiets.\nMaar... wat ís de beste plek voor\n?\nBestaat er zo'n plek? En wie bepaalt\ndat? Wacht eens even...\nMisschien is de beste plek voor\niets... precies waar je het wilt\nplaatsen, !\nDat hoop ik maar, want dan heb ik\nminder tijd nodig voor mijn inrichting\nen heb ik meer tijd om te snoepen!",
      "EUru": "? Хм.\nЯ не уверен, что это место\nправильное.\nНо... какое место подходит для\nтаких штук?\nЕсть вообще правила для мест?\nКто это решает? Стоп!\nМожет, то место, куда ты ставишь\nчто-то... и есть правильное место\nдля этого чего-то. !\nНадеюсь, а то ведь как разобраться,\nкуда что ставить.",
      "JPja": "そこの　、\nなんだか　気になっちゃうんだよねぇ・・・\nそうだぁ！　毎日見てれば\n何が気になるのか　わかるかもしれないし、\n今日から、おさんぽコースに　入れよ～っと！",
      "KRko": "이\n왠지 신경 쓰이는데에...\n그래! 매일매일 쳐다보면 왜 신경 쓰이는지\n알 수 있을 것 같으니깐, 오늘부터 맨날\n여기로 산책해야지이～ !",
      "TWzh": "那邊的，\n令人相當在意呢……\n對了！要是每天都能看一眼的話，\n應該就能明白到底哪裡令人在意了。\n今天開始就把這納入散步路線吧！。",
      "USen": "Hmm. I'm not sure this is\nthe exact right spot for\n.\nBut...what IS the exact right spot?\nIs there one? Who even decides\nthat? Wait a sec!\nMaaaybe wherever you put a thing...\nTHAT'S the exact right spot for the\nthing, !\nI hope so, because that'd make\ndecorating way less stressful.",
      "USes": "Pues, me pregunto si este es el\nmejor lugar para poner .\nAunque... ¿cuál es el mejor lugar?\n¿Cómo se sabe? ¿Quién lo decide? \nOye, quizááá cuando uno pone algo\nen un lugar... ¡ESE es JUSTO el lugar\ndonde debía estar, !\nEspero que sea así, porque de esa\nforma decorar es más divertido.",
      "USfr": "Hmm, ... Pas sûr que ce soit l'endroit idéal pour ...\nMais quel serait l'endroit idéal pour ?\nEst-ce qu'il y en a vraiment un?\nQui en déciderait? Hé mais!\nQuand quelqu'un place quelque\nchose quelque part... c'est peut-être\nautomatiquement l'endroit idéal!\nÇa m'arrangerait en tout cas.\nÇa rendrait la déco beaucoup\nmoins stressante."
    }
  },
  {
    "label": "999_02",
    "attribute": "0x0000000000000000",
    "locale": {
      "CNzh": "\n出现在这里，还挺引人注目的～\n我要不要在这儿留个影呢～？。",
      "EUde": "Ist das nicht ein tolles Plätzchen für\n ?\nVielleicht sollte ich noch schnell\nein Foto davon machen, bevor ich\nda was draufklecker, (Floskel)!",
      "EUen": "That's a perfect spot for \n, huh?\nHmm... Maybe I should take a picture\nbefore I fall and smear jam all over\nthe place later. Busy, busy!",
      "EUes": "Me mola el sitio que han elegido\npara dejar est .\n(catchphrase), creo que voy a sacarle una foto para acordarme siempre de la pinta que tiene.\nAntes de que alguien l manche\npor accidente, ya sabes...",
      "EUfr": "Y a pas meilleur endroit pour mettre\n, je me trompe,  ?\nJe devrais prendre une photo avant\nde me cogner dedans ou de\nrenverser de la confiture dessus...",
      "EUit": "Sembra proprio il posto perfetto per , eh?\nDevo assolutamente fare una foto\nper immortalare questo eccezionale\nallestimento, !",
      "EUnl": "Die plek is perfect voor , of niet?\nHmm... Misschien moet ik een foto\nmaken voordat ik erover struikel of er\n op mors.",
      "EUru": "Классное место для моего\n, да?\nХм... Надо бы фото сделать, ведь\nпотом я точно споткнусь и все тут\nвареньем измажу. Я себя знаю!",
      "JPja": "が\nそこにあると、なんだか　ステキだねぇ\nきねんさつえい　しちゃおうかなぁ、",
      "KRko": "이\n있으니깐, 왠지 근사한 분위기가 되네에～\n기념사진이라도 찍을까아? !",
      "TWzh": "\n光是放在那，就給人一種很棒的感覺呢。\n來拍張紀念照好了，。",
      "USen": "That's a perfect spot for \n, huh?\nHmm... Maybe I should take a picture\nbefore I fall and smear jam all over\nthe place later. Busy, busy!",
      "USes": "Me encanta el lugar que eligieron\npara poner est .\n(catchphrase), creo que le voy a tomar una foto, así siempre me acuerdo de cómo era.\nPor si alguien l mancha por accidente, digo...",
      "USfr": "Y a pas meilleur endroit pour mettre\n, je me trompe, ?\nJe devrais prendre une photo avant\nde me cogner dedans ou de\nrenverser de la confiture dessus..."
    }
  },
  {
    "label": "999_03",
    "attribute": "0x0000000000000000",
    "locale": {
      "CNzh": "看着装饰在这里的\n，\n就会让人感觉到放松呢～\n嗯！我决定了！\n从现在开始，\n这里就是我的心选之地～！。",
      "EUde": "Immer, wenn ich   sehe, werde ich ganz doll entspannt.\nAber jetzt gerade nicht!\nJetzt will ich tanzen!\nSooo... Wunderbärchen, jetzt bin\nich wieder ganz doll entspannt,\n(Floskel).",
      "EUen": "It's neat how calm looking at \n gets me.\nExcept right now, I don't wanna be\ncalm! Right now, I wanna dance!\nAaaaaaand there! OK, now I wanna\nbe calm again, (catchphrase).",
      "EUes": "No veas cómo me relaja mirar\n.\nSolo que ahora lo que tengo...\n¡son ganas de bailar!\n¡Aaahhh! ¡Uuufff! Ya está, ya me he\ncansado. Ahora sí que toca relajarse, (catchphrase).",
      "EUfr": "C'est fou, il me suffit de regarder\n pour me calmer.\nLe problème, c'est que maintenant,\nje n'ai pas envie d'être calme. J'ai\nenvie de danser !\nEeeeeet... ça y est ! Bon, maintenant,\nj'ai envie d'être calme, .",
      "EUit": "Non puoi immaginare\nquanto mi rilassi guardare\n.\nSolo che adesso, quello che voglio...\nè ballare alla grande!\nAaaaaah! Ufff! OK, basta... sono già\nstanco. Ora sì che devo rilassarmi,\n.",
      "EUnl": "Het is zo gaaf hoe rustig ik word als ik naar  kijk.\nMeestal dan, maar nu niet! Nu wil ik\nniet kalm zijn! Ik wil dansen!\nEn klááár! Oké, nu wil ik wel weer\nrustig zijn, (catchphrase).",
      "EUru": "Когда я смотрю на , это так успокаивает. Здорово!\nТолько я не хочу быть спокойным\nсейчас! Сейчас я хочу танцевать!\nВо-о-от так! А теперь можно снова\nуспокоится. .",
      "JPja": "そこに　かざってある\nを見てると、\nなんとなく　おちつくんだよねぇ\nよし、き～めた！\n今から　このばしょは、\nボクの　お気に入りスポットだぁ！　",
      "KRko": "이\n장식되어 있는 걸 보면\n이상하게 마음이 편해져어～\n좋아, 이렇게 해야지!\n지금부터 여기는\n내가 찜한 자리야아～! !",
      "TWzh": "看著裝飾在那的\n，\n會讓人有種平靜的感覺呢。\n好，我決定了～！\n從今天開始，這裡就是\n我心愛的景點了！。",
      "USen": "It's neat how calm looking at \n gets me.\nExcept right now, I don't wanna be\ncalm! Right now, I wanna dance!\nAaaaaaand there! OK, now I wanna\nbe calm again, (catchphrase).",
      "USes": "Me relaja un montón mirar .\n¡Pero ahora también me dieron ganas\nde bailar!\n¡Aaahhh! ¡Uuufff! Ya está, ya me\ncansé. Ahora hay que echarse una\nsiesta, .",
      "USfr": "C'est fou, il me suffit de regarder\n pour me calmer.\nLe problème, c'est que maintenant,\nje n'ai pas envie d'être calme. J'ai\nenvie de danser!\nEeeeeet... ça y est! Bon, maintenant,\nj'ai envie d'être calme, ."
    }
  }
]