﻿[
  {
    "label": "001",
    "attribute": "0x0000030100000000",
    "locale": {
      "CNzh": "说起来～\n你今天吃过点心了吗～？。",
      "EUde": "(Floskel)! Heute schon ein\nNaschpäuschen eingelegt?",
      "EUen": ", have you had a\nsnack break today?",
      "EUes": "¿Has tomado ya hoy algún\ntentempié?",
      "EUfr": "Au fait, tu as déjà pris ton goûter,\naujourd'hui,  ?",
      "EUit": "Hai già fatto una pausa per\nla merenda oggi, ?",
      "EUnl": "Heb jij vandaag een tussendoortje\ngenomen, ?",
      "EUru": "! Ты сегодня уже\nперекусывал?",
      "JPja": "そういえば、今日のおやつは\nもう食べたぁ～？　",
      "KRko": "그러고 보니까아 오늘 간식은\n먹었어～? ?",
      "TWzh": "話說你已經吃掉\n今天的點心了嗎～？。",
      "USen": ", have you had a\nsnack break today?",
      "USes": "¡! ¿Ya tomaste algún\nrefrigerio?",
      "USfr": "Au fait, tu as déjà pris ta collation,\naujourd'hui, ?"
    }
  },
  {
    "label": "001_a",
    "attribute": "0x0200000000000000",
    "locale": {
      "CNzh": "吃过了",
      "EUde": "Klar doch!",
      "EUen": "Yup.",
      "EUes": "¡Sí!",
      "EUfr": "Oui.",
      "EUit": "Certo.",
      "EUnl": "Ja.",
      "EUru": "Да.",
      "JPja": "食べたよ",
      "KRko": "먹었어!",
      "TWzh": "吃了喔",
      "USen": "Yup.",
      "USes": "¡Sí!",
      "USfr": "Oui."
    }
  },
  {
    "label": "001_b",
    "attribute": "0x0300000000000000",
    "locale": {
      "CNzh": "还没有",
      "EUde": "Noch nicht.",
      "EUen": "Not yet.",
      "EUes": "Aún no...",
      "EUfr": "Pas encore.",
      "EUit": "Non ancora.",
      "EUnl": "Nog niet.",
      "EUru": "Пока нет.",
      "JPja": "まだだよ",
      "KRko": "아직이야",
      "TWzh": "還沒喔",
      "USen": "Not yet.",
      "USes": "Aún no...",
      "USfr": "Pas encore."
    }
  },
  {
    "label": "001_c",
    "attribute": "0x0400000000000000",
    "locale": {
      "CNzh": "准备要吃了",
      "EUde": "Wollte ich gerade.",
      "EUen": "I was just about to.",
      "EUes": "Estaba a punto...",
      "EUfr": "J'allais le faire.",
      "EUit": "Stavo per farla.",
      "EUnl": "Dat ging ik net doen.",
      "EUru": "Только собирался.",
      "JPja": "これから食べる",
      "KRko": "이제 먹을 거야",
      "TWzh": "我現在才要吃",
      "USen": "I was just about to.",
      "USes": "Justo lo iba a hacer...",
      "USfr": "J'allais le faire."
    }
  },
  {
    "label": "002",
    "attribute": "0x0000000000000000",
    "locale": {
      "CNzh": "真好～\n我今天还没有吃呢～\n想吃的食物的清单里面，\n还有20多个候选，\n到底选哪个好，太纠结了～！。",
      "EUde": "Ach Mann! Ich finde das ja total\ntraurig. Niemand sollte Snackpausen\neinlegen müssen!\nSnacken sollte immer und zu\njeder Zeit erlaubt sein, (Floskel)!",
      "EUen": "Aw, no! That's super sad. Nobody\nshould have a snack break! The\nsnacks oughta be nonstop!",
      "EUes": "¡Qué suerte! Yo aún no he tenido\ntiempo. He estado ocupado haciendo\nla lista de lo que me apetece...\nPor fin he conseguido reducirla a\nveinte opciones, pero quedarse solo\ncon una es lo que más va a costar.",
      "EUfr": "T'en as, de la chance ! Moi, j'ai pas\nencore pris le mien. Il faut d'abord\nque je décide ce que je vais manger.\nJ'ai déjà réduit la liste à\n20 possibilités, mais ça devient de\nplus en plus difficile de choisir...",
      "EUit": "Che fortunello! Io non ne ho ancora\navuto il tempo. Sono stato occupato\na fare la lista di ciò che mi piace.",
      "EUnl": "O! Dat is echt goed van je.\nIk vind dat het geen tussendoortje\nmoet heten, maar een altijdje! Of\nop zijn minst een regelmatigje!",
      "EUru": "Эх, жалко, что нельзя\nперекусывать целый день!",
      "JPja": "いいなぁ～\nボク、今日は　まだ食べてないんだよねぇ～\n食べたいものリストに\n20コぐらい　たまっちゃってて、\nどれにするか　まよってるんだぁ～、",
      "KRko": "좋겠다아～\n난 오늘 아직 안 먹었거든～\n먹고 싶은 메뉴 리스트가\n20개도 넘어서어～\n뭐부터 먹을지 모르겠어～ ～",
      "TWzh": "好好喔～\n我今天還沒有吃點心耶～\n我的食物清單上\n累積了大概20個我想吃的東西，\n我不知道該選哪個才好～。",
      "USen": "Aw, no! That's super sad. Nobody\nshould have a snack break! The\nsnacks oughta be nonstop!",
      "USes": "¡Qué suerte! Aunque no lo creas,\nyo todavía no lo hago.\nHe estado muy ocupado decidiendo\nqué tomar de refrigerio.\nHice una lista y voy eliminando las\nopciones, ¡pero eliminar opciones\ndeliciosas es lo peor del mundo!\nA este paso voy a terminar sin\ncomer nada...",
      "USfr": "T'en as, de la chance! Moi, j'ai pas\nencore pris la mienne. Il faut d'abord\nque je décide ce que je vais manger.\nJ'ai déjà réduit la liste à\n20 possibilités, mais ça devient de\nplus en plus difficile de choisir..."
    }
  },
  {
    "label": "003",
    "attribute": "0x0000000000000000",
    "locale": {
      "CNzh": "诶～？\n你还没有吃吗～？！\n我虽然总是丢三落四的，\n但是从来没有忘记过吃点心这件事呢～！\n我一直都为此感到自豪呢～。",
      "EUde": "Was? Aber warum denn nicht?\nDie Snackpause ist doch mindestens\ndie siebtwichtigste Mahlzeit des\nTages!",
      "EUen": "What?! Why not?! Snack time's\nfive of the most important meals\nin the day!",
      "EUes": "¿Qué? ¿Y cómo es eso?\nMira que a mí se me olvidan cosas,\n¡pero cuando se trata de comer,\nno paso una!",
      "EUfr": "Ah bon ? Mais pourquoi ?\nJe suis peut-être tête-en-l'air, mais\ns'il y a bien une chose que j'oublie\njamais, c'est de prendre mon goûter !",
      "EUit": "Cooome? Fai come me: sarò anche\nstralunato, ma se si tratta di cibo,\nnon perdo un'occasione. Eh eh eh!",
      "EUnl": "Wat? Waarom niet? Een\ntussendoortje is de op zeven na\nbelangrijkste maaltijd van de dag!",
      "EUru": "Как? Почему? Перекус у меня на\nседьмом месте по важности после\nдругих приемов пищи.",
      "JPja": "ええっ？\nまだ　食べてないのぉ～？！\nボク　わすれものは　よくするけど、\nおやつを　食べわすれたことは\n一回もないのが　ジマンなんだぁ～、",
      "KRko": "에엥～?\n아직 안 먹었어～?!\n나, 딴 건 자주 깜빡깜빡하는데에\n간식 먹는 걸 빼먹은 적은 한 번도 없거든!\n그게 내 자랑거리야아～ !",
      "TWzh": "咦咦？\n你還沒吃嗎～！？\n雖然我常常忘東忘西，\n但我可以很自豪地說……\n我一次也沒有忘記要吃點心喔～。",
      "USen": "What?! Why not?! Snack time's\nfive of the most important meals\nin the day!",
      "USes": "¡¿Pero por qué?!\nNo me digas que se te olvidó...\nEso es algo que a mí jamás me\npasaría. ¡Soy el más disciplinado\ncuando de comer se trata!",
      "USfr": "Ah bon? Mais pourquoi?\nJe suis peut-être tête en l'air, mais\ns'il y a bien une chose que j'oublie\njamais, c'est de prendre ma collation!"
    }
  },
  {
    "label": "004",
    "attribute": "0x0000000000000000",
    "locale": {
      "CNzh": "哇～！\n我好羡慕啊～！\n我昨天一个没忍住，\n把今天的点心\n也给一起吃完了～\n……这样的话～要不今天就把\n明天的份给吃了吧～？。",
      "EUde": "Oh Mann, ich liebe diesen Moment,\nkurz bevor man herzhaft in seinen\nersten Snack des Tages beißt...\nFür einen Moment steht die Welt still\nund einfach alles scheint möglich...",
      "EUen": "Ooh! I love that bit, just before ya\nbite your first snack of the day...\nWhen anything seems possible...",
      "EUes": "¡Vaya, qué emocionante!\nYo no tengo tanta paciencia;\nde hecho ya me comí ayer\nel tentempié de hoy.\nUn momento... ¿y si me como hoy\nlo que tengo para mañana?\n¡Soy un genio!",
      "EUfr": "Ooh, voilà qui est palpitant !\nMoi, je n'ai pas pu me retenir,\nj'ai déjà mangé mon goûter\nd'aujourd'hui... hier.\nMais une seconde... je pourrais\nmanger mon goûter de demain\naujourd'hui ! Je suis trop intelligent !",
      "EUit": "Oh, non è l'attimo più emozionante\ndella giornata? Quello che precede\nil primo morso, intendo...",
      "EUnl": "O, wat mooi! Ik ben dol op dat\nmoment, net voor het eerste\ntussendoortje van de dag...\nHet voelt dan of er nog van alles\nkan...",
      "EUru": "О, обожаю этот момент: кусаешь\nутром свою первую вкусняшку...\nи столько еще впереди...",
      "JPja": "わぁ～！\nうらやましいなぁ～！\nボク　ガマンできなくて\n今日の分のおかしまで\nきのうに　食べちゃったんだよねぇ～\n・・・こうなったら　明日の分を\n食べちゃおうかなぁ～？　",
      "KRko": "와아～!\n넘 부럽다아～!\n나, 참질 못하고\n오늘 거까지\n어제 다 먹어치웠거든～\n...그냥 아예 내일 거까지\n먹어버릴까아～? ?",
      "TWzh": "哇～！\n我好羨慕喔～！\n我昨天實在忍不住，\n就把今天的份也吃掉了～\n……既然這樣的話，\n那我把明天的份吃掉好了～。",
      "USen": "Ooh! I love that bit, just before ya\nbite your first snack of the day...\nWhen anything seems possible...",
      "USes": "¡Excelente!\nAunque no entiendo cómo pudiste\nesperar tanto, yo no podría...\nDe hecho, ayer me comí el refrigerio\nque me tocaba hoy... Y pretendo\ncomerme en un rato el de mañana.",
      "USfr": "Ooh, voilà qui est palpitant!\nMoi, je n'ai pas pu me retenir,\nj'ai déjà mangé ma collation\nd'aujourd'hui... hier.\nMais une seconde... je pourrais\nmanger celle de demain\naujourd'hui! Je suis trop intelligent!"
    }
  },
  {
    "label": "005",
    "attribute": "0x0000030100000000",
    "locale": {
      "CNzh": "～\n要是让你选，在三点的零食时间，\n你会吃哪一类～？。",
      "EUde": "Du, (Spitzname), sag mal...\nWelche Art von Snack ist denn dein\nabsoluter Spitzenfavorit?",
      "EUen": "(nickname)...when it's snack\ntime, which snack do you go for?",
      "EUes": "Oye, (nickname)... a la hora de la merienda, ¿qué es lo que más te apetece?",
      "EUfr": "Dis-moi, (surnom), qu'est-ce que tu préfères manger pour ton goûter ?",
      "EUit": "Senti, (nickname)... Quando\nè tempo di merenda, tu quale scegli?",
      "EUnl": "(nickname)... Wat zou jij normaal als tussendoortje nemen?",
      "EUru": "(nickname)...\nЕсли тебе пора перекусить, какую\nвкусняшку ты предпочтешь?",
      "JPja": "は、\n三時のおやつに食べるなら\nどっちがいい～？　",
      "KRko": "아!\n넌 오후에 간식을 먹는다며언\n뭐가 좋아～? ?",
      "TWzh": "，\n如果是三點吃的點心，\n你覺得選哪個比較好～？。",
      "USen": "(nickname)...when it's snack\ntime, which snack do you go for?",
      "USes": "Oye, (nickname)...\nCuando las tripitas te rugen para\nque les des un refrigerio, ¿qué es\nlo que más te piden?",
      "USfr": "Dis-moi, (surnom), qu'est-ce que tu préfères manger pour la collation?"
    }
  },
  {
    "label": "005_a",
    "attribute": "0x0600000000000000",
    "locale": {
      "CNzh": "蛋糕\n巧克力\n棉花糖",
      "EUde": "Kuchen.\nSchokolade.\nSchaumzucker.",
      "EUen": "Cake.\nChocolates.\nMarshmallows.",
      "EUes": "Tarta\nChocolate\nRosquillas",
      "EUfr": "Du gâteau.\nDu chocolat.\nDes bonbons.",
      "EUit": "Una fetta di torta.\nDel cioccolato.\nCaramelle gommose.",
      "EUnl": "Fruit.\nChocola.\nDrop.",
      "EUru": "Пирог.\nШоколад.\nЗефир.",
      "JPja": "ケーキ\nチョコレート\nマシュマロ",
      "KRko": "케이크\n초콜릿\n마시멜로",
      "TWzh": "蛋糕\n巧克力\n棉花糖",
      "USen": "Cake.\nChocolates.\nMarshmallows.",
      "USes": "¡Pastel!\n¡Chocolates!\n¡Churros!",
      "USfr": "Du gâteau.\nDu chocolat.\nDes bonbons."
    }
  },
  {
    "label": "005_b",
    "attribute": "0x0700000000000000",
    "locale": {
      "CNzh": "煎饼\n梅子干\n乌贼干",
      "EUde": "Salzkräcker.\nGewürzgürkchen.\nEingelegte Sardinen.",
      "EUen": "Jellied artichokes.\nWarm pickles.\nSpicy sardines.",
      "EUes": "Altramuces\nPepinillos en vinagre\nAnchoas",
      "EUfr": "Des chips.\nDes cornichons.\nDu fromage.",
      "EUit": "Dei salatini.\nDei sottaceti.\nSardine in scatola.",
      "EUnl": "Droge crackers.\nWarme augurken.\nOude kaas.",
      "EUru": "Обычные крекеры.\nСоленые огурцы.\nСардины в соусе.",
      "JPja": "おせんべい\nほしうめ\nスルメ",
      "KRko": "김과자\n육포\n말린 오징어",
      "TWzh": "仙貝\n話梅\n魷魚乾",
      "USen": "Jellied artichokes.\nWarm pickles.\nSpicy sardines.",
      "USes": "¡Sardinas!\n¡Atún enlatado!\n¡Rábanos con sal!",
      "USfr": "Des chips.\nDes cornichons.\nDu fromage."
    }
  },
  {
    "label": "005_c",
    "attribute": "0x0800000000000000",
    "locale": {
      "CNzh": "都要！",
      "EUde": "Bin mir nicht sicher...",
      "EUen": "I can't decide!",
      "EUes": "Pues no sé...",
      "EUfr": "Je peux pas choisir !",
      "EUit": "Non so decidermi.",
      "EUnl": "Ik kan niet kiezen!",
      "EUru": "Не могу выбрать!",
      "JPja": "どっちも！",
      "KRko": "다 먹을래!",
      "TWzh": "我都想吃！",
      "USen": "I can't decide!",
      "USes": "Jamás les entiendo...",
      "USfr": "Je peux pas choisir!"
    }
  },
  {
    "label": "006",
    "attribute": "0x0000000000000000",
    "locale": {
      "CNzh": "我也想\n选这类～\n果然，\n零食还是要吃甜的才对～！\n甜甜的零食\n是内心的养分呢～！。",
      "EUde": "Ich hab genau das Gleiche gedacht!\nKein Wunder, dass wir ewige Futter-\nfreunde sind! Äh, he he he!",
      "EUen": "I was thinking the same thing! That's\nwhy we're gonna be snack buddies\nforever and ever!",
      "EUes": "¡Eso es exactamente lo que había\nplaneado para mi próxima merienda!\nNo hay nada como algo dulce a la\nhora de merendar... ¡o a cualquier\nhora, en realidad!",
      "EUfr": "Moi aussi, c'est ce que je comptais\nmanger pour mon goûter !\nC'est bien connu, le goûter, ça doit\nêtre sucré, .\nUn peu de sucre, ça me met de\nbonne humeur pour le reste de\nla journée !",
      "EUit": "Ma dai! Oggi anch'io ho avuto la\nstessa idea! Ogni tanto un pizzico di\nzuccheri può aiutare, .",
      "EUnl": "Daar zat ik ook al aan te denken!\nDaarom zijn we dus voor altijd en\neeuwig snoepmaatjes!",
      "EUru": "И я собирался точно так же\nперекусить! Вот поэтому мы всегда\nбудем коллегами по вкусняшкам!",
      "JPja": "ボクも　そっちを\nえらぼうと　思ってたんだぁ～\nやっぱり　おかしは\nあまくなくっちゃねぇ～！\nあまい　おかしは\n心のえいようだよぉ～！　",
      "KRko": "나도 그쪽을\n고르려고 했어～\n역시 간식은\n단맛이 최고지이～!\n달콤한 걸 먹으면\n내 마음까지 달달해져어～! !",
      "TWzh": "其實我也跟你一樣\n想要選那一個喔～\n點心果然就是要\n甜甜的才對啊～！\n甜甜的點心\n是心靈的補給品喔～！。",
      "USen": "I was thinking the same thing! That's\nwhy we're gonna be snack buddies\nforever and ever!",
      "USes": "¡Eso es justamente lo que yo\ntenía pensado comer en mi\npróximo refrigerio!\nNada como algo dulce para mantener\na las tripitas alegres.",
      "USfr": "Moi aussi, c'est ce que je comptais\nmanger pour la collation!\nC'est bien connu, la collation, ça doit\nêtre sucré, .\nUn peu de sucre, ça me met de\nbonne humeur pour le reste de\nla journée!"
    }
  },
  {
    "label": "007",
    "attribute": "0x0000000000000000",
    "locale": {
      "CNzh": "你竟然选这类～\n你可真成熟啊～！\n不过～咸的零食，\n一直吃都不会吃腻呢～\n我也很喜欢的～。",
      "EUde": "An so was hatte ich ja noch gar\nnicht gedacht! Du hast mir völlig\nneue Snack-Perspektiven eröffnet!\nEcht schlau! Von herzhaftem Essen\nwird einem auch nicht so schnell\nübel wie von Naschkram!",
      "EUen": "I hadn't thought about that!\nYou've opened up a new world\nof snack ideas...\nIt's a gross world. And I wanna\nrescue you from it, but as long as\nyou're happy, I'm happy for ya.",
      "EUes": "¡Vaya, no se me había ocurrido!\n¡Me acabas de abrir los ojos a un\nnuevo mundo de posibilidades!\nNo parece mala idea; ¡dependiendo\nde la hora, lo salado entra mucho mejor que lo dulce!",
      "EUfr": "J'avais jamais pensé à ça ! C'est\ncomme si tout un monde de\npossibilités s'ouvrait à moi !\nEn tout cas, c'est une bonne idée.\nOn se lasse moins vite du salé que\ndu sucré, .",
      "EUit": "Non ci avrei mai pensato, ma è\nun'ideona! È come se mi cadessero\nle fette di salame dagli occhi.\nCon gli snack salati ci si può\nrimpinzare molto di più, prima\nche vengano a noia!",
      "EUnl": "Daar had ik nog helemaal niet aan\ngedacht! Daarmee open je een hele\nwereld aan snackmogelijkheden...\nHet is een vieze wereld en ik wil je\nervan redden, maar als jij gelukkig\nbent, ben ik het ook.",
      "EUru": "Какая неожиданная идея! Ты для\nменя открыл совершенно новый\nгоризонт в мире вкусностей...\nА этот мир большой и сложный. Но\nя тебя не буду из него вызволять,\nраз тебе в нем хорошо.",
      "JPja": "そっちを　えらぶなんて\nキミって　オトナだねぇ～！\nでも、しょっぱい　おかしって\nず～っと　食べてても　あきないから\nボクも　大スキだよぉ、",
      "KRko": "그쪽을 고르다니\n넌 참 취향이 어른스럽구나아～!\n그치만 짭짤한 간식은\n자꾸자꾸 먹어도 안 질리니까아\n나도 되게 좋아해～ ～",
      "TWzh": "沒想到你會選那一個，\n你真是成熟耶～！\n不過，鹹鹹的點心\n不管怎麼吃都吃不膩，\n我也很喜歡喔～。",
      "USen": "I hadn't thought about that!\nYou've opened up a new world\nof snack ideas...\nIt's a gross world. And I wanna\nrescue you from it, but as long as\nyou're happy, I'm happy for ya.",
      "USes": "¡Eso jamás se me habría ocurrido!\n¡Me acabas de abrir los ojos a un\nmundo nuevo de posibilidades!\nA veces lo salado se antoja más\nque lo dulce.",
      "USfr": "J'avais jamais pensé à ça! C'est\ncomme si tout un monde de\npossibilités s'ouvrait à moi!\nEn tout cas, c'est une bonne idée.\nOn se lasse moins vite du salé que\ndu sucré, ."
    }
  },
  {
    "label": "008",
    "attribute": "0x0000000000000000",
    "locale": {
      "CNzh": "嘻嘻～其实，\n我也是这样想的呢～！\n甜的零食，还有咸的零食……\n要是能一口甜的，一口咸的～\n那就太幸福了～！。",
      "EUde": "Geht mir genauso! Ich mag Süßes,\naber auch Salziges!\nUnd warum soll ich mich für eine\nSache entscheiden, wenn ich auch\nbeides haben kann?",
      "EUen": "Yeah...I've been there, .\nThat's why I don't choose!\nI just eat it all!",
      "EUes": "Sí... te entiendo perfectamente.\nEs muy difícil decidir si quieres algo\ndulce o algo salado para merendar.\n¡Por eso yo suelo mezclarlo todo!",
      "EUfr": "Hé hé, moi non plus !\nJ'aime trop les en-cas sucrés et salés\npour choisir l'un ou l'autre. Alors\nje mange les deux !",
      "EUit": "Eh, già... Anch'io mi trovo\nnella stessa barca.\nMi piacciono sia il dolce che il salato\ne non voglio fare torto a nessuno.\nPerciò mangio di tutto un po'!",
      "EUnl": "Ja... zo gaat het bij mij ook altijd.\nDaarom kies ik ook niet... en eet ik\ngewoon alles tegelijk! Moet je niet\ndoen, hoor! Dat is geen goed idee!",
      "EUru": "Понимаю... У меня такая же\nпроблема.\nПоэтому я не выбираю... просто ем\nвсе! Но я тебе не советую так\nделать!",
      "JPja": "うふふ、じつはボクも\n同じことを　考えてたよぉ～！\nあまいおかしと　しょっぱいおかし・・・\nかわりばんこに　食べられたら、\nとっても　しあわせだよねぇ～！　",
      "KRko": "우후훗, 사실은 나도\n똑같은 생각을 했어～!\n단맛이랑 짠맛을...\n번갈아 먹으면\n무지무지 행복하다구우～! !",
      "TWzh": "呵呵，其實我也在想\n同樣的事喔～！\n甜甜的點心和鹹鹹的點心……\n如果交換著吃的話，\n感覺會很幸福耶～！。",
      "USen": "Yeah...I've been there, .\nThat's why I don't choose!\nI just eat it all!",
      "USes": "Sí, te entiendo perfectamente.\nA veces es muy difícil decidir entre\nalgo dulce o salado. ¡Por eso yo\nlo mezclo todo!",
      "USfr": "Hé hé, moi non plus!\nJ'aime trop les trucs sucrés et salés\npour choisir l'un ou l'autre. Alors\nje mange les deux!"
    }
  },
  {
    "label": "009",
    "attribute": "0x0000100100000000",
    "locale": {
      "CNzh": "问一下，这里面，\n你最喜欢的是哪种零食？。",
      "EUde": "Huhu, (Spitzname). Gibt es eigentlich eine Süßigkeit, von der du nie genug bekommst, (Floskel)?",
      "EUen": "Hey, (nickname). Which one\nof these would you say is your\nfavorite snack, ?",
      "EUes": "Oye, (nickname), ¿cuál de estos es tu tentempié favorito?",
      "EUfr": "Dis, (surnom), laquelle de ces friandises est ta préférée,  ?",
      "EUit": "Ehi, (nickname). Con quale\ntra questi preferiresti fare merenda,\n?",
      "EUnl": "Hé, (nickname). Welke van deze dingen vind jij het lekkerst, ?",
      "EUru": "Слушай, (nickname).\nВыбери свою любимую вкусность!\n!",
      "JPja": "ねぇねぇ、この中で\nキミの　スキなおかしは　どれ～？　",
      "KRko": "저기 말이야, 이 중에서\n너가 좋아하는 간식은 뭐야아～? ?",
      "TWzh": "那個啊，這裡面的點心\n你喜歡哪一個～？。",
      "USen": "Hey, (nickname). Which one\nof these would you say is your\nfavorite snack, ?",
      "USes": "Oye, (nickname), ¿cuál de\nlos siguientes es tu refrigerio\nfavorito, ?",
      "USfr": "Dis, (surnom), laquelle de ces friandises est ta préférée, ?"
    }
  },
  {
    "label": "009_a",
    "attribute": "0x0A00000000000000",
    "locale": {
      "CNzh": "曲奇饼干",
      "EUde": "Kekse.",
      "EUen": "Cookies.",
      "EUes": "Galletas",
      "EUfr": "Les biscuits.",
      "EUit": "Biscotti.",
      "EUnl": "Koekjes.",
      "EUru": "Печенье.",
      "JPja": "クッキー",
      "KRko": "쿠키",
      "TWzh": "餅乾",
      "USen": "Cookies.",
      "USes": "¡Galletas!",
      "USfr": "Les biscuits."
    }
  },
  {
    "label": "009_b",
    "attribute": "0x0B00000000000000",
    "locale": {
      "CNzh": "巧克力",
      "EUde": "Schokolade.",
      "EUen": "Chocolate.",
      "EUes": "Chocolate",
      "EUfr": "Le chocolat.",
      "EUit": "Cioccolato.",
      "EUnl": "Chocolade.",
      "EUru": "Шоколад.",
      "JPja": "チョコレート",
      "KRko": "초콜릿",
      "TWzh": "巧克力",
      "USen": "Chocolate.",
      "USes": "¡Chocolate!",
      "USfr": "Le chocolat."
    }
  },
  {
    "label": "009_c",
    "attribute": "0x0C00000000000000",
    "locale": {
      "CNzh": "冰淇淋",
      "EUde": "Eiscreme.",
      "EUen": "Ice cream.",
      "EUes": "Helado",
      "EUfr": "La glace.",
      "EUit": "Gelato.",
      "EUnl": "IJs.",
      "EUru": "Мороженое.",
      "JPja": "アイス",
      "KRko": "아이스크림",
      "TWzh": "冰淇淋",
      "USen": "Ice cream.",
      "USes": "¡Helado!",
      "USfr": "La crème glacée."
    }
  },
  {
    "label": "009_d",
    "attribute": "0x0D00000000000000",
    "locale": {
      "CNzh": "蛋糕",
      "EUde": "Kuchen.",
      "EUen": "Cake.",
      "EUes": "Tarta",
      "EUfr": "Les gâteaux.",
      "EUit": "Torta.",
      "EUnl": "Taart.",
      "EUru": "Пирог.",
      "JPja": "ケーキ",
      "KRko": "케이크",
      "TWzh": "蛋糕",
      "USen": "Cake.",
      "USes": "¡Pastel!",
      "USfr": "Les gâteaux."
    }
  },
  {
    "label": "010",
    "attribute": "0x0000000000000000",
    "locale": {
      "CNzh": "我也最喜欢曲奇饼干了～！\n甜甜的、脆脆的～\n不管多少都能吃得下去呢～！\n我觉得我和你，\n可以成为更加亲密的朋友呢～！。",
      "EUde": "Oh, Kekse. Die mag ich auch total!\nBesonders die weichen, mit Füllung.\nDazu ein Glas Milch... Mmmh, lecker!\nWir zwei sollten echt einen Keksclub\ngründen! Wer beitreten will, muss in\nKeksen zahlen! Und wir teilen dann!",
      "EUen": "Oh, me too! I love cookies! I like 'em\nsoft and chewy. Oh! And with a glass\nof milk... Sooo yummy.\nYou and me oughta be\ncookie buddies!",
      "EUes": "¡A mí también me chiflan\nlas galletas! Sobre todo bien\nmojaditas en leche... ¡Ñam!\n¡Tengo que decirte que tienes unos\ngustos culinarios superchachis!",
      "EUfr": "Oui, moi aussi, j'adore les biscuits.\nCe que je préfère, c'est les tremper\ndans du lait avant de les déguster.\nMiam !\nToi et moi, on devrait être copains\nde biscuits !",
      "EUit": "Oh, anch'io. Adoro i biscotti. Mi\npiace inzupparli nel latte caldo\nper ammorbidirli. Gnam gnam!\nCredo che diventeremo amici\nper i biscotti, io e te!",
      "EUnl": "Ik ook! Ik ben dol op koekjes. Ik vind\nze het lekkerst als ze kruimelig zijn.\nHet is leuk om iemand te hebben met\nwie ik ideeën voor mijn koektrommel\nkan uitwisselen.",
      "EUru": "Ой, все как у меня. Я обожаю\nпеченье. Больше всего — нежное\nи тягучее со стаканом молока. Ням!\nДавай будем друзьями по печенью!",
      "JPja": "ボクも　クッキーが　大スキなんだぁ～！\nあまくって　サクサクで\nいくらでも　食べられちゃうよぉ～！\nボク、キミとは　もっともっと\nなかよくなれる　気がするよぉ～！　",
      "KRko": "나도 쿠키 되게 좋아해～!\n달콤하고 바삭바삭해서\n아무리 많아도 다 먹을 수 있지이～!\n왠지이 너랑은\n마음이 잘 통할 것 같애～!",
      "TWzh": "我也最喜歡餅乾了～！\n又甜又酥脆～\n不管吃多少都吃不膩耶～！\n我覺得我們的感情\n會變得更好更好耶～！。",
      "USen": "Oh, me too! I love cookies! I like 'em\nsoft and chewy. Oh! And with a glass\nof milk... Sooo yummy.\nYou and me oughta be\ncookie buddies!",
      "USes": "¡Mi refrigerio favorito también son\nlas galletas! Y más si las remojo\nen lechita bien fría.\nAhhh... Tenemos tanto en común.",
      "USfr": "Oui, moi aussi, j'adore les biscuits.\nCe que je préfère, c'est les tremper\ndans du lait avant de les déguster.\nMiam!\nToi et moi, on devrait être copains\nde biscuits!"
    }
  },
  {
    "label": "011",
    "attribute": "0x0000000000000000",
    "locale": {
      "CNzh": "我也最喜欢\n巧克力了～！\n在口中融化的甜味，\n还带有微微的苦涩，\n真是让人上瘾呢～！\n感觉我和你对于美食的喜好\n很合拍呢～！。",
      "EUde": "Schokolade ist auch mein absoluter\nSpitzenfavorit!\nMagst du lieber Vollmilch oder doch\neher Zartbitter? Ach, schnurzegal...\nSchokolade geht immer!\nWenn du mal eine Sorte hast, die du\nnicht magst, opfere ich mich gern für\ndich. Wozu sind Freunde denn da?",
      "EUen": "Chocolate is my favorite too!\nDo ya like your chocolate sweet\nor dark? Either way...there's no\nsuch thing as bad chocolate.\nI even like melted chocolate that's\nbeen in my pocket all day! I call it\nfinger goop!",
      "EUes": "¡A mí también me encanta\nel chocolate!\n¿Te gusta puro o con leche?\nAunque no se me ocurre de qué\nforma podría estar malo el chocolate.\n¡Es mi mejor amigo de cualquier\nforma! ¡Igual que tú, (nickname)!",
      "EUfr": "Moi aussi, j'adore le chocolat !\nTu es plutôt chocolat noir ou\nchocolat au lait ? De toute façon, le\nmauvais chocolat, ça n'existe pas !\nTu peux me donner celui que tu\naimes le moins, je me ferai un plaisir\nde le manger !",
      "EUit": "Anch'io stravedo per il cioccolato!\nE dimmi, fondente o al latte? Non\nche importi molto, è buono tutto!\nAd ogni modo, sarò lieto di mangiare\nciò che non ti va! Sento che questa è\nla nascita di una grande amicizia!",
      "EUnl": "Chocola is ook mijn favoriet!\nVind je het lekkerder als het zoet is?\nOf bitter? Het kan allebei... Slechte\nchocola bestaat niet!\nZelfs chocola die in mijn broekzak\ngesmolten is, vind ik lekker! Die\nnoem ik chocoladesmurrie!",
      "EUru": "Я тоже больше всего люблю\nшоколад!\nТебе больше нравится молочный\nили горький? Хотя... плохого\nшоколада не бывает.\nЯ даже растаявший в кармане\nшоколад люблю. Я его называю\n«замазка».",
      "JPja": "ボクも　チョコレートが\n大スキなんだぁ～！\nとろけるような　あまさの中に\nちょっぴりの　ニガさが\nクセになっちゃうよねぇ～！\nキミとは　食べものの　このみが\n合いそうな　気がするねぇ～！　",
      "KRko": "나도 초콜릿이 아주 좋아～!\n살살 녹는 달콤한 맛이랑\n그 속에 살짝 숨은 쌉싸름한 맛!\n맛있어서 자꾸자꾸 먹게 되지이～!\n너랑 나 입맛이\n비슷한가 봐아～! !",
      "TWzh": "我也最喜歡\n巧克力了～！\n在令人沉醉的甜蜜滋味裡，\n藏著一點點的苦味，\n真的會讓人吃上癮耶～！\n我覺得我們的口味\n還滿接近的喔～！。",
      "USen": "Chocolate is my favorite too!\nDo ya like your chocolate sweet\nor dark? Either way...there's no\nsuch thing as bad chocolate.\nI even like melted chocolate that's\nbeen in my pocket all day! I call it\nfinger goop!",
      "USes": "¡También es mi favorito!\n¿Prefieres solito o con nueces?\nA mí me da igual, así que, el que\nno te guste me lo puedes dar a mí.",
      "USfr": "Moi aussi, j'adore le chocolat!\nTu es plutôt chocolat noir ou\nchocolat au lait? De toute façon, le\nmauvais chocolat, ça n'existe pas!\nTu peux me donner celui que tu\naimes le moins, je me ferai un plaisir\nde le manger!"
    }
  },
  {
    "label": "012",
    "attribute": "0x0000000000000000",
    "locale": {
      "CNzh": "我也最喜欢冰淇淋了～！\n冰凉的甜味慢慢蔓延，\n嘴里都感觉绵绵的呢～\n我觉得～\n我们两个会很合拍呢～！。",
      "EUde": "Eiscreme? Mein Lieblingsnachtisch!\nDavon könnt ich glatt einen ganzen\nLastwagen verdrücken!\nDiese angenehme Kühle, wenn ein\nLöffel Erdbeereis im Mund schmilzt...\nSo fruchtig und frisch.\nWer Eiscreme gut findet, den find\nauch ich gut!",
      "EUen": "Ice cream is so good! It feels great\nin your mouth and it makes your\ntummy chilly!\nThe best flavor of ice cream is...\nall of them! They're all the best!\nDon't let anybody tell ya different!",
      "EUes": "Helado... Qué delicia...\nEstá dulce y fresquito.\n¡Cualquiera a quien le guste\nel helado es amigo mío!",
      "EUfr": "Oui, la glace, c'est trop bon !\nÇa fond dans la bouche et puis\ntu sens le froid descendre jusque\ndans ton bidon,  !\nLes amis de la glace sont mes amis !",
      "EUit": "Ma quanto è buono il gelato!\nSi scioglie in bocca e ti rinfresca\nla gola...\nChiunque ami il gelato è amico mio!",
      "EUnl": "IJs is écht lekker! Zoals het in je\nmond smelt en door je keel glijdt...\nIedereen die van ijs houdt, is een\nvriend van mij.",
      "EUru": "Мороженое — это сказка... Как оно\nтает во рту и холодит горло!\nДруг мороженого — мой друг!",
      "JPja": "ボクも　アイスが　大スキなんだぁ～！\nヒンヤリ　つめたいあまさが　広がって\n口の中が　ふわふわするよねぇ～\nボク、キミとは　とっても\n気が合いそうな　よかんがするよぉ！　",
      "KRko": "나도 아이스크림 엄청 좋아해～!\n시원하면서도 달콤한 맛이 입 안에\n싸악～ 퍼지고 부드럽게 녹아들지이～\n왠지이 너랑은 마음이 아주\n잘 맞을 듯한 예감이 들어～! !",
      "TWzh": "我也最喜歡冰淇淋了～！\n冰冰涼涼的甜味在舌頭上擴散開來，\n感覺就像吃掉一朵軟綿綿的雲～\n我覺得我們好像\n會很合得來喔～！。",
      "USen": "Ice cream is so good! It feels great\nin your mouth and it makes your\ntummy chilly!\nThe best flavor of ice cream is...\nall of them! They're all the best!\nDon't let anybody tell ya different!",
      "USes": "¡Helado! ¡Qué buena elección!\nEs tan dulce y fresco. Quien ama\nel helado, gana inmediatamente\nmi amistad.",
      "USfr": "Oui, la crème glacée, c'est trop bon!\nÇa fond dans la bouche et puis\ntu sens le froid descendre jusque\ndans ton bedon, !\nLes amis du cornet sont mes amis!"
    }
  },
  {
    "label": "013",
    "attribute": "0x0000000000000000",
    "locale": {
      "CNzh": "我也最喜欢蛋糕了～！\n绵绵的海绵蛋糕，涂上雪白的奶油，\n再配上一点点草莓～\n就好像美丽的公主殿下～！\n我还想和你，\n继续探讨一下\n关于蛋糕的魅力～！。",
      "EUde": "Stimmt. Es geht eben nichts über\nein großes Stück leckeren Kuchen.\nAm liebsten mag ich luftig-leichten\nBiskuitkuchen, mit blauer Glasur und\nknallbunten Streuseln.\nWenn du mal wieder über Kuchen\nreden oder Rezepte austauschen\nwillst, sag Bescheid! (Floskel)!",
      "EUen": "It's true. Ya can't beat cake.\nI love a fluffy sponge cake with blue\nfrosting and sprinkles and the words\n\"You Are A Cool Guy\" written on it.\n, anytime you wanna\ntalk about cake, just come find me!",
      "EUes": "Es verdad. No hay nada mejor\nque las tartas.\nMe gustan las que tienen la masa\nblandita, están rellenas de nata\ny tienen por encima crema y fresas.\nCuando te apetezca hablar\nsobre tartas, no lo dudes:\n¡yo soy tu animal!",
      "EUfr": "Tu as raison, rien ne vaut un bon\ngâteau.\nUn gâteau bien moelleux, recouvert\nde crème fouettée et décoré de fruits\nconfits, c'est comme un trésor sucré.\nSi jamais tu as encore envie de\ndiscuter gâteaux, n'hésite pas à\nvenir me voir,  !",
      "EUit": "È vero. Non c'è niente di meglio\ndi una bella torta.\nA me piacciono quelle di pan di\nSpagna ripiene di crema e coperte\ndi panna e fragole.\nQuando vuoi parlare di torte, ricorda\nche la mia porta è sempre aperta per\nte, !",
      "EUnl": "Je hebt gelijk. Er gaat niks boven\neen stuk taart.\nMijn favoriete taart heeft een\nkruimelige bodem met een dikke\nlaag fruit. Perfect voor het strand!\nJe mag altijd bij me aankomen met\nverhalen over goede taarten.\n!",
      "EUru": "Нет ничего лучше пирогов.\nМне нравится пышный бисквит\nс голубой глазурью и цветным\nдраже. И с надписью «Молодец!»\n! Если захочешь\nо пирогах поговорить, обращайся\nко мне в любое время.",
      "JPja": "ボクも　ケーキが　大スキなんだぁ～！\nふわふわのスポンジに　まっ白なクリーム、\nちょこんとのった　イチゴは\nまるで　おひめさま　みたいだよねぇ～！\nボク、キミと　もっと\nケーキのミリョクについて\n語り合いたいよぉ～！　",
      "KRko": "나도 케이크 엄청 좋아하는데에～!\n폭신폭신한 빵이랑 새하얀 크림,\n그 위에 살짝 얹은 딸기...\n꼭 동화 속 공주님 같지이～!\n나, 너랑 같이\n케이크의 매력에 대해서어\n더 많이 얘기하고 싶어～! !",
      "TWzh": "我也最喜歡蛋糕了～！\n軟綿綿的海綿蛋糕上塗著白色的奶油，\n還有站在蛋糕上的草莓\n看起來就像一位小公主耶～！\n我好想再多跟你聊聊\n蛋糕的魅力喔～！。",
      "USen": "It's true. Ya can't beat cake.\nI love a fluffy sponge cake with blue\nfrosting and sprinkles and the words\n\"You Are A Cool Guy\" written on it.\n, anytime you wanna\ntalk about cake, just come find me!",
      "USes": "¡No existe en el mundo nada más\ndelicioso que el pastel!\nMi favorito es el de crema batida\ncon relleno de duraznos.\nCuando quieras hablar sobre\npasteles y sus diferentes rellenos\ny coberturas, ven a hablar conmigo.",
      "USfr": "Tu as raison, rien ne vaut un\nbon gâteau.\nUn gâteau bien moelleux, recouvert\nde crème fouettée et décoré de fruits\nconfits, c'est comme un trésor sucré.\nSi jamais tu as encore envie de\ndiscuter gâteaux, n'hésite pas à\nvenir me voir, !"
    }
  },
  {
    "label": "014",
    "attribute": "0x0000100100000000",
    "locale": {
      "CNzh": "这是一个突击问题～！\n请从以下选项中选出，\n你认为最能代表“热”的颜色～。",
      "EUde": "(Floskel)! Lass uns ein Spiel\nspielen! Such dir eine Farbe aus und\nich sag dir, welches Essen du bist.",
      "EUen": ", let's play a game.\nPick a color, and I'll tell ya\nwhat food you're most like!",
      "EUes": "Perdona si te parece rara la\npregunta, pero... ¿qué color\nte gusta más?",
      "EUfr": ", si on faisait un petit jeu ? Dis-moi ta couleur préférée, et je te dirai quel aliment tu es.",
      "EUit": "Scusa la domanda bizzarra, ma...\nquale colore ti piace di più?",
      "EUnl": "! Laten we een spelletje doen. Jij kiest een kleur en dan vertel ik wat voor eten je bent!",
      "EUru": "! Давай играть. Ты\nназываешь цвет, а я тебе говорю,\nна что из еды ты похож.",
      "JPja": "とつぜんだけど、この中から\nいちばん　アツそうだと思う　色を\nえらんでみてぇ～、",
      "KRko": "갑작스럽지만, 이 중에서\n젤 뜨겁게 느껴지는 색을\n하나 골라봐아～! !",
      "TWzh": "雖然有點突然，\n請從這裡面選出一個\n你覺得看起來最熱的顏色吧～。",
      "USen": ", let's play a game.\nPick a color, and I'll tell ya\nwhat food you're most like!",
      "USes": "Tal vez esta pregunta te parezca\nrara, pero... ¿qué color prefieres?",
      "USfr": ", si on faisait un petit jeu? Dis-moi ta couleur préférée, et je te dirai quel aliment tu es."
    }
  },
  {
    "label": "014_a",
    "attribute": "0x0F00000000000000",
    "locale": {
      "CNzh": "红色",
      "EUde": "Rot.",
      "EUen": "Red.",
      "EUes": "El rojo",
      "EUfr": "Rouge.",
      "EUit": "Il rosso.",
      "EUnl": "Rood.",
      "EUru": "Красный.",
      "JPja": "あか",
      "KRko": "빨강",
      "TWzh": "紅色",
      "USen": "Red.",
      "USes": "El rojo",
      "USfr": "Rouge."
    }
  },
  {
    "label": "014_b",
    "attribute": "0x1000000000000000",
    "locale": {
      "CNzh": "橘色",
      "EUde": "Orange.",
      "EUen": "Orange.",
      "EUes": "El naranja",
      "EUfr": "Orange.",
      "EUit": "L'arancione.",
      "EUnl": "Oranje.",
      "EUru": "Оранжевый.",
      "JPja": "オレンジ",
      "KRko": "주황",
      "TWzh": "橘色",
      "USen": "Orange.",
      "USes": "El naranja",
      "USfr": "Orange."
    }
  },
  {
    "label": "014_c",
    "attribute": "0x1100000000000000",
    "locale": {
      "CNzh": "黄色",
      "EUde": "Gelb.",
      "EUen": "Yellow.",
      "EUes": "El amarillo",
      "EUfr": "Jaune.",
      "EUit": "Il giallo.",
      "EUnl": "Geel.",
      "EUru": "Желтый.",
      "JPja": "きいろ",
      "KRko": "노랑",
      "TWzh": "黃色",
      "USen": "Yellow.",
      "USes": "El amarillo",
      "USfr": "Jaune."
    }
  },
  {
    "label": "014_d",
    "attribute": "0x1200000000000000",
    "locale": {
      "CNzh": "金色",
      "EUde": "Gold.",
      "EUen": "Gold.",
      "EUes": "El dorado",
      "EUfr": "Doré.",
      "EUit": "L'oro.",
      "EUnl": "Goud.",
      "EUru": "Золотой.",
      "JPja": "きんいろ",
      "KRko": "금색",
      "TWzh": "金色",
      "USen": "Gold.",
      "USes": "El dorado",
      "USfr": "Doré."
    }
  },
  {
    "label": "015",
    "attribute": "0x0000000000000000",
    "locale": {
      "CNzh": "其实～这道题\n可以通过你选出的颜色分析你的性格哦～\n选择“红色”的人，\n通常充满干劲，满怀热情～\n是热血的人～\n要用食物来比喻的话～\n就像是墨西哥灯笼椒一样的人～！\n哇～开始不停冒汗了呢～！。",
      "EUde": "Du hast Rot gewählt, das heißt, du\nbist feurig wie eine Chilischote!\nEin Biss genügt, und schon rennen\nalle los, weil sie dringend ein Glas\nMilch brauchen! Äh, he he he!",
      "EUen": "Red! That means you're fiery like a\nhababa-ben-erioh pepper! One taste\nof you and everybody's jumpin'!",
      "EUes": "Puedo decirte un montón de cosas\nbasándome en el color que elijas.\nHas elegido el rojo, así que seguro\nque te sobra fuerza y energía.\nSi fueras una comida, serías...\n¡Una guindilla! Cinco minutos contigo, ¡y ya está todo el\nmundo revolucionado!",
      "EUfr": "La couleur que tu as choisie m'en\napprend beaucoup à ton sujet.\nTu as choisi le rouge, alors tu dois\nêtre plein d'énergie et passionné.\nTout le contraire de moi !\nSi je devais te comparer à de la\nnourriture, tu serais un piment. Une\nbouchée et on saute au plafond !",
      "EUit": "Posso capire molto di te in base\nal colore che scegli.\nE poiché hai scelto il rosso, deduco\nche sei energico e forte... Tutto il\ncontrario di me, insomma!\nSe fossi una spezia, saresti del pepe\ndi cayenna. Un pizzichino di te e tutti\nsalterebbero per aria...",
      "EUnl": "Rood! Dan ben je dus zo vurig als\neen rode peper! Van jou krijgt\niedereen het warm!",
      "EUru": "Красный! Если бы ты был едой,\nты был бы жгучим перцем. Чуть-\nчуть тебя, и все подпрыгивают!",
      "JPja": "じつは　何色をえらんだかで、\nキミの　せいかくが　わかっちゃうんだぁ～\n「あか」を　えらんだキミは、\nパワフルで　ジョウネツてきな\nねっけつタイプらしいよぉ～\n食べもので言ったら、\nハバネロ　だったりしてぇ～！\nわぁ～、アセがとまらない～！　",
      "KRko": "실은 무슨 색을 골랐는지로\n너의 성격을 알 수 있거드은～\n'빨강'을 골랐으면\n힘이 넘치고 열정적이면서\n화끈한 타입이라고 하네에～\n빨간색 하니까아, 먹을 거 중에\n매운 하바네로 고추 생각난다아～!\n아～ 생각만 해도 땀이 줄줄～! !",
      "TWzh": "其實看你選什麼顏色，\n就能知道你的個性囉～\n選了「紅色」的你，\n充滿活力與熱情，\n是很熱血的類型喔～\n如果用食物比喻的話，\n應該就是哈瓦那辣椒吧～！\n哇～感覺會熱到狂流汗耶～！。",
      "USen": "Red! That means you're fiery like a\nhababa-ben-erioh pepper! One taste\nof you and everybody's jumpin'!",
      "USes": "Tengo algo así como un superpoder\npara adivinar un montón de cosas\nsobre ti, según el color que elijas.\nComo elegiste el rojo, te puedo decir\nque tienes personalidad como de\nchile habanero, ¡llena de energía!",
      "USfr": "La couleur que tu as choisie m'en\napprend beaucoup à ton sujet.\nTu as choisi le rouge, alors tu dois\nêtre plein d'énergie et passionné.\nTout le contraire de moi!\nSi je devais te comparer à de la\nnourriture, tu serais un piment fort. Une bouchée et on saute au plafond!"
    }
  },
  {
    "label": "016",
    "attribute": "0x0000000000000000",
    "locale": {
      "CNzh": "其实～这道题\n可以通过你选出的颜色分析你的性格哦～\n选择“橙色”的人，\n温柔、开朗，\n还会有一点害怕寂寞～\n要用食物来比喻的话～\n就像是洋葱一样的人～！\n生吃的话会很辣呢～！。",
      "EUde": "Orange! Das heißt, du bist wie eine\nZwiebel... oder vielleicht auch eine\nPampelmuse?\nFrag mich aber nicht, was das heißt!\nIch hab dich jedenfalls gern!",
      "EUen": "Orange! That means you're like\nan onion...or maybe a radish?\nI dunno what it means, but I know\nI like ya, buddy!",
      "EUes": "¿Sabías que el color que elijas\ndice mucho sobre ti?\nSi has elegido el naranja, seguro\nque la gente se lo pasa muy bien\ncontigo...\nPero me apuesto la merienda a que\ntambién te sientes solo con mucha\nfacilidad, ¿no?\nSi fueras comida... serías una\ncebolla, que sirve muy bien de aliño,\npero a veces te hace llorar.",
      "EUfr": "Tu sais, la couleur que tu as choisie\nen dit beaucoup à ton sujet...\nTu as choisi l'orange, alors tu dois\nêtre agréable à vivre, mais tu peux\naussi te sentir seul parfois.\nSi tu étais un aliment, tu serais un\noignon ! Quand on le mange cru,\nça déménage,  !",
      "EUit": "Sai, il colore che scegli la dice lunga\nsu di te...\nChi ama l'arancione è un compagno\nallegro per ogni evenienza, ma si\nsente facilmente solo.\nSe fossi del cibo, mmmh... Ci sono:\nsaresti una cipolla. Può migliorare\nogni piatto, ma anche far piangere...",
      "EUnl": "Oranje! Dan ben je een soort ui...\nof misschien een worteltje?\nGeen idee wat dat betekent, maar ik\nvind je nog steeds aardig!",
      "EUru": "Оранжевый! Значит, ты похож на\nлук... или редиску.\nНе знаю, что это значит, но мне\nнравится.",
      "JPja": "じつは　何色をえらんだかで、\nキミの　せいかくが　わかっちゃうんだぁ～\n「オレンジ」を　えらんだキミは、\nやさしくて　明るいけど\nさみしがりやなところも　あるらしいよぉ～\n食べもので言ったら、\n玉ねぎ　だったりしてぇ～！\n生で食べると　からいもんねぇ～！　",
      "KRko": "실은 무슨 색을 골랐는지로\n너의 성격을 알 수 있거드은～\n'주황'을 골랐으면\n마음씨 착하고 밝은 성격이지마안\n외로움을 타는 구석도 있대～\n주황색 하니까아, 먹을 거 중에\n양파 생각난다아～!\n생으로 먹으면 무지 매운데에～! !",
      "TWzh": "其實看你選什麼顏色，\n就能知道你的個性囉～\n選了「橘色」的你，\n是個溫柔開朗的人，\n但有時候也會怕寂寞喔～\n如果用食物比喻的話，\n應該就是洋蔥吧～！\n生吃的話會很辣喔～！。",
      "USen": "Orange! That means you're like\nan onion...or maybe a radish?\nI dunno what it means, but I know\nI like ya, buddy!",
      "USes": "¿Sabías que el color que elijas\ndice mucho sobre ti?\nComo elegiste el naranja, te puedo\ndecir que tu fruta favorita es la\nnaranja.\nY si fueras una fruta, seguramente\nserías una naranja.\nY si fueras un alienígena, ¡serías\nde color naranja!\nImpresionante, ¿no crees?",
      "USfr": "Tu sais, la couleur que tu as choisie\nen dit beaucoup à ton sujet...\nTu as choisi l'orange, alors tu dois\nêtre agréable à vivre, mais tu peux\naussi te sentir seul parfois.\nSi tu étais un aliment, tu serais un\noignon! Quand on le mange cru,\nça déménage, !"
    }
  },
  {
    "label": "017",
    "attribute": "0x0000000000000000",
    "locale": {
      "CNzh": "其实～这道题\n可以通过你选出的颜色分析你的性格哦～\n选择“黄色”的人，\n开朗、天真无邪，\n通常都很受欢迎哦～\n要用食物来比喻的话～\n应该是像咖喱饭一样的人吧～\n嗯～多种香料，绝对受欢迎～！。",
      "EUde": "Gelb! Das heißt, du bist wie...\nZitroneneis! Eine der absolut\nbesten Eissorten überhaupt!",
      "EUen": "Yellow! That means you're like...\nlemon ice cream! That's some\nof the bestest ice cream ever!",
      "EUes": "¿Te digo lo que indica tu respuesta?\nHas elegido el amarillo, así que eres\nel alma de la fiesta. Todo el mundo\nquiere estar contigo...\nSi fueras comida, seguro que serías\nun limón: ¡das un toque de sabor\nen cualquier situación!",
      "EUfr": "Tu veux savoir ce que la couleur que\ntu as choisie signifie ?\nTu as choisi le jaune, alors tu es\nplein de vie et tout le monde veut\nêtre ton ami !\nSi tu étais un aliment, tu serais un\ncitron. Tu donnes du peps à tout le\nmonde autour de toi !",
      "EUit": "Vuoi sapere che significa il colore\nche hai scelto?\nL'amore per il giallo significa che sei\nl'anima della festa e tutti vogliono\nstare in tua compagnia...\nOvviamente, se fossi cibo, saresti\nun limone. Un concentrato di vitalità\ne freschezza!",
      "EUnl": "Geel! Dan ben je dus net... citroenijs!\nDat is de beste ijssmaak ooit!",
      "EUru": "Желтый! Если бы ты был едой, ты\nбыл бы лимонным мороженым!\nЭто одно из моих самых любимых!",
      "JPja": "じつは　何色をえらんだかで、\nキミの　せいかくが　わかっちゃうんだぁ～\n「きいろ」を　えらんだキミは、\n明るく　むじゃきで\n人気ものって　カンジらしいよぉ～\n食べもので言ったら、\nカレーライスかなぁ～？\nう～ん、スパイシ～！　",
      "KRko": "실은 무슨 색을 골랐는지로\n너의 성격을 알 수 있거드은～\n'노랑'을 골랐으면\n긍정적이고 순수해서\n사람들이 좋아하는 편이라네에～\n노랑색 하니까아, 먹을 거 중에\n카레라이스 생각나지 않아～?\n음～ 맛있는 향～! !",
      "TWzh": "其實看你選什麼顏色\n就能知道你的個性囉～\n選了「黃色」的你，\n個性天真活潑，\n感覺是個受歡迎的人喔～\n如果用食物比喻的話，\n應該是咖哩飯吧～？\n嗯～SPICY～！。",
      "USen": "Yellow! That means you're like...\nlemon ice cream! That's some\nof the bestest ice cream ever!",
      "USes": "¡Amarillo! Muy bien, ahora adivinaré\nun montón de cosas sobre ti, según\nel color que elegiste.\nTe quedarás con la boca abierta\nde lo mágico que es...\nPuedo adivinar que tu nombre\nes (player name), pero te gusta\nque te digan (nickname).\n¡Y te gusta el color amarillo!\nY ya, eso es todo.\nSorprendente, ¿no?",
      "USfr": "Tu veux savoir ce que la couleur que\ntu as choisie signifie?\nTu as choisi le jaune, alors tu es\nplein de vie et tout le monde veut\nêtre ton ami!\nSi tu étais un aliment, tu serais un\ncitron. Tu donnes du pep à tout le\nmonde autour de toi!"
    }
  },
  {
    "label": "018",
    "attribute": "0x0000000000000000",
    "locale": {
      "CNzh": "其实～这道题\n可以通过你选出的颜色分析你的性格哦～\n选择“金色”的人，\n通常很有个性、\n很受人喜爱～\n要用食物来比喻的话～\n就像是乌贼干一样的感觉的人～？\n嗯……独特但会让人上瘾的味道～。",
      "EUde": "Gold! Das heißt du bist wie...\nähm, was gibt's denn für leckeres,\ngoldfarbenes Essen, (Floskel)?\nHa! Ich weiß! Du wärst eine Durian!\nSo was von lecker! Und stinkig! Aber\nich mag ja jedes Essen, das riecht!",
      "EUen": "Gold! That means you're like a...um,\nwhat's a real yummy gold food? Something everybody loves?\nI know! Since you like gold, you'd be\na durian! So yummy! Smelly too, but\nI LOVE smells!",
      "EUes": "Vaya, eso dice mucho sobre ti...\nEl dorado indica que te gusta\ndestacar y ser el centro de atención.\nSi fueras comida... ¡fijo que serías\nun durián! ¡Esa fruta destaca hasta\npor el nombre!",
      "EUfr": "Oh, ça en dit long à ton sujet...\nSi tu as choisi le doré, ça veut dire\nque tu aimes te faire remarquer et\nêtre le centre d'attention.\nTu es un peu comme une olive.\nUne fois qu'on a appris à t'apprécier,\non ne peut plus se passer de toi.",
      "EUit": "Oh, la tua scelta mi dice tante cose\nsu di te...\nIn pratica, vuol dire che ti piace\nmetterti in evidenza ed essere\nal centro dell'attenzione.\nSe fossi cibo... scommetto che\nsaresti un durian.",
      "EUnl": "Goud! Dan ben je dus een... eh, wat\nis lekker gouden eten? Iets waar\niedereen van houdt?\nO, ik weet het al! Omdat je van goud\nhoudt, zou je een doerian zijn! Zo\nlekker! En met een stevige geur!\nMaar ik hou wel van stevige geuren!",
      "EUru": "Золотой! Значит, ты... Tак, какая\nесть еда золотого цвета? Которая\nвсем нравится?\nЗнаю! Раз тебе нравится золотой,\nты похож на дуриан. Он вкусный!\nПахнет сильно, но я люблю запахи.",
      "JPja": "じつは　何色をえらんだかで、\nキミの　せいかくが　わかっちゃうんだぁ～\n「きんいろ」を　えらんだキミは、\nコセイてきな　あいされキャラって\nカンジらしいよぉ～\n食べもので言ったら、\nスルメってカンジかなぁ～？\nう～ん・・・　クセになる味だねぇ、",
      "KRko": "실은 무슨 색을 골랐는지로\n너의 성격을 알 수 있거드은～\n'금색'을 골랐으면\n개성적이고 주변에서 사랑받는\n성격이라구 하네에～\n금색 하니까아, 먹을 것 중에\n말린 오징어 생각나지 않아～?\n음～... 중독적인 그 맛～! !",
      "TWzh": "其實看你選什麼顏色\n就能知道你的個性囉～\n選了「金色」的你，\n感覺很有個性，\n大家都很喜歡你喔～\n如果用食物比喻的話，\n應該就像魷魚乾的感覺吧～？\n嗯……是會讓人上癮的味道耶～。",
      "USen": "Gold! That means you're like a...um,\nwhat's a real yummy gold food? Something everybody loves?\nI know! Since you like gold, you'd be\na durian! So yummy! Smelly too, but\nI LOVE smells!",
      "USes": "Vaya, vaya...\nEso me dice muchísimo sobre ti...\nSí... que te gustan las cosas\nmuy deslumbrantes, como las\nlucecitas decorativas y los faros.\nSi fueras una fruta, serías una\nmanzana de plástico dorado como las\nque usa mi tía para decorar su mesa.",
      "USfr": "Oh, ça en dit long à ton sujet...\nSi tu as choisi le doré, ça veut dire\nque tu aimes te faire remarquer et\nêtre le centre d'attention.\nTu es un peu comme une olive.\nUne fois qu'on a appris à t'apprécier,\non ne peut plus se passer de toi."
    }
  },
  {
    "label": "019",
    "attribute": "0x0000030100000000",
    "locale": {
      "CNzh": "哈——欠～\n总感觉今天哈欠连天啊～\n你呢～？困吗～？。",
      "EUde": "Oh Mann... Ich bin heute nur am\nGähnen, echt schlimm.\nStimmt es, dass Gähnen ansteckend\nist? Hab ich dich jetzt etwa auch\nmüde gemacht?",
      "EUen": "Yikes...I can't stop yawning today.\nIs it true that yawns are catchy?\nDo you feel sleepy?",
      "EUes": "Jo... Llevo todo el día bostezando.\n¿Es verdad eso de que los bostezos\nson contagiosos? ¿Tú tienes sueño?",
      "EUfr": "Aaah... Aujourd'hui, j'arrête pas de\nbâiller. On dit que c'est contagieux.\nTu as sommeil, toi aussi ?",
      "EUit": "Caspitina... Oggi non riesco\na smettere di sbadigliare.\nMa sarà vero che gli sbadigli sono\ncontagiosi? Dimmi, forse adesso\nti senti assonnato?",
      "EUnl": "Poeh! Ik kan vandaag niet stoppen\nmet gapen. Is het waar dat gapen\naanstekelijk is? Voel jij je ook moe?",
      "EUru": "Ой... Я сегодня все время\nзеваю. Это правда, что зевота\nзаразительна? Ты спать хочешь?",
      "JPja": "ふぁぁ～、なんだか今日は\nあくびが　とまらなくてぇ～\nキミはどう？　ネムくない～？　",
      "KRko": "흐아암～ 왠지 오늘\n자꾸 하품이 나아～\n넌 어때? 졸리지 않아～? ?",
      "TWzh": "呼哈～總覺得～\n今天一直在打哈欠～\n你呢？你不覺得想睡嗎～？。",
      "USen": "Yikes...I can't stop yawning today.\nIs it true that yawns are catchy?\nDo you feel sleepy?",
      "USes": "Llevo todo el día bostezando...\n¿Será verdad que los bostezos se\ncontagian? ¿Tienes sueño?",
      "USfr": "Aaah... Aujourd'hui, j'arrête pas de\nbâiller. On dit que c'est contagieux.\nTu t'endors, toi aussi?"
    }
  },
  {
    "label": "019_a",
    "attribute": "0x1400000000000000",
    "locale": {
      "CNzh": "好像有点困",
      "EUde": "Ein bisschen...",
      "EUen": "Yeah, a little bit.",
      "EUes": "Sí, bastante...",
      "EUfr": "Oui, un peu.",
      "EUit": "Sì, un pochino.",
      "EUnl": "Ja, een beetje.",
      "EUru": "Да, немного.",
      "JPja": "ネムいかも",
      "KRko": "나도 왠지 졸려",
      "TWzh": "有點想睡",
      "USen": "Yeah, a little bit.",
      "USes": "Me caigo de sueño...",
      "USfr": "Oui, un peu."
    }
  },
  {
    "label": "019_b",
    "attribute": "0x1500000000000000",
    "locale": {
      "CNzh": "不困",
      "EUde": "Überhaupt nicht.",
      "EUen": "Not at all.",
      "EUes": "Ahora mismo, ninguno",
      "EUfr": "Pas du tout.",
      "EUit": "Niente affatto.",
      "EUnl": "Nee, helemaal niet.",
      "EUru": "Вовсе нет.",
      "JPja": "ネムたくないよ",
      "KRko": "하나도 안 졸려",
      "TWzh": "不會喔",
      "USen": "Not at all.",
      "USes": "No, ni un poquito...",
      "USfr": "Pas du tout."
    }
  },
  {
    "label": "019_c",
    "attribute": "0x1600000000000000",
    "locale": {
      "CNzh": "感觉睡不着",
      "EUde": "Ich schlafe nie!",
      "EUen": "I can't sleep.",
      "EUes": "Duermo regular...",
      "EUfr": "J'arrive pas à dormir.",
      "EUit": "Non riesco a dormire.",
      "EUnl": "Ik kan niet slapen.",
      "EUru": "Я не могу заснуть.",
      "JPja": "ネムれそうにない",
      "KRko": "자고 싶어도 잠이 안 와",
      "TWzh": "感覺睡不著",
      "USen": "I can't sleep.",
      "USes": "Nunca duermo...",
      "USfr": "J'arrive pas à dormir."
    }
  },
  {
    "label": "020",
    "attribute": "0x0000000000000000",
    "locale": {
      "CNzh": "和我一样呢～\n为什么会这么困呢～？\n难道～整座\n都被哪个人\n施了催眠术吗～？。",
      "EUde": "Das ist doch verrückt. Was ist\nheute bloß los mit uns beiden?\nWarte mal! Vielleicht geht's nicht\nnur uns so! Vielleicht liegt ja ein\nSchlaf-Fluch auf !",
      "EUen": "Yeah, me too. What's going on with\nus today?\nWait, maybe it isn't just us. Maybe\neveryone on  is\ncursed to nap!",
      "EUes": "Igual que yo. ¿Qué nos estará\npasando hoy?\n¡Espera! ¿Y si no somos solo\nnosotros dos?\n¡¿Y si toda \nestuviera bajo el influjo maligno\nde una siesta colectiva eterna?!\nPero qué tonterías que digo...\n¿Cómo va a ser maligna una siesta?",
      "EUfr": "Comme moi, alors. Qu'est-ce qui\nnous arrive aujourd'hui ?\nPeut-être que quelqu'un a jeté un\nsort de sommeil sur  !",
      "EUit": "Proprio come me. Ma che abbiamo\noggi?\nE se non fossimo solo noi due?\nSe la maledizione del sonno avesse\ncolpito tutti  ?!",
      "EUnl": "Ik ook! Wat zou er met ons aan de\nhand zijn vandaag?\nWacht, wat als anderen het ook\nhebben? Dan rust er misschien wel\neen vloek op !",
      "EUru": "Я тоже. Что это с нами сегодня?\nМожет, не только с нами? Может,\nвсе на острове \nзаколдованы и хотят спать?!",
      "JPja": "ボクと　いっしょだねぇ～\nどうしてこんなに　ネムいんだろぉ～\nもしかして　ぜんぶに\nだれかが　さいみんじゅつでも\nかけてるのかなぁ～？　",
      "KRko": "나랑 똑같네에～\n우리 왜 이렇게 졸린 걸까아～\n혹시... 에 누가\n잠드는 마법이라도 걸었나아～? ?",
      "TWzh": "跟我一樣耶～\n為什麼我們會這麼想睡呢～？\n該不會整座\n都中了某個人的催眠術吧～？。",
      "USen": "Yeah, me too. What's going on with\nus today?\nWait, maybe it isn't just us. Maybe\neveryone on  is\ncursed to nap!",
      "USes": "Yo también... ¿Qué nos estará\npasando hoy? Esto es muy\nsospechoso...\n¡Uyyy! ¿Y si no somos los únicos\na quienes les está pasando?\n¡¿Y si todo \nestuviera bajo un hechizo maligno\nde siesta eterna?!\n¡Bah! Qué tonterías digo, una siesta\njamás podría ser maligna.",
      "USfr": "Comme moi, alors. Qu'est-ce qui\nnous arrive aujourd'hui?\nPeut-être que quelqu'un a jeté un\nsort de sommeil sur !"
    }
  },
  {
    "label": "021",
    "attribute": "0x0000000000000000",
    "locale": {
      "CNzh": "诶～？！\n你不困，\n只有我一个人那么困……\n嗯……是不是有什么案件\n将要发生～！。",
      "EUde": "Kein Gähner? Nicht mal ein\nMini-Gähnerchen?\nDas ist echt nicht fair! Sobald\nich eingeschlafen bin, leg ich\nbeim Sandmann Beschwerde ein!",
      "EUen": "No yawns? Not even a little one?\nThat's not fair... As soon as I'm\nasleep, I'm going to complain to\nthe sandman.",
      "EUes": "¿No tienes sueño? ¿Ni un mísero\nbostezo te sale?\nJo... Parece que hoy todo el sopor\ndel mundo me ataca solo a mí...",
      "EUfr": "Ah bon ? Même pas un tout petit\nbâillement ?\nC'est pas du jeu... Dès que je me\nserai endormi, j'irai en toucher\ndeux mots au marchand de sable.",
      "EUit": "Zero sbadigli? Nemmeno uno piccino\npiccino?\nQui c'è qualcosa che non quadra...\nAlmeno spero che tu non soffra\nd'insonnia...",
      "EUnl": "Geen gaap? Zelfs niet een kleintje?\nDaar snap ik niks van... Misschien\nmoet ik er maar een nachtje over\nslapen.",
      "EUru": "Не зевается? Неужели нисколько?\nТак не честно. Вот только засну,\nвсем там нажалуюсь в сонном\nцарстве.",
      "JPja": "ええっ？！\nキミは　ネムたくないのに\nボクだけが　ネムいなんて・・・\nう～ん・・・　なんだか\nジケンのニオイが　するぞぉ～！　",
      "KRko": "에엥～?!\n넌 하나도 안 졸린데에\n나 혼자만 졸리다니이...\n으음～... 왠지\n사건의 냄새가 나는데에～! !",
      "TWzh": "咦咦！？\n你不覺得想睡，\n卻只有我覺得想睡……\n嗯……我總覺得\n聞到了案件的味道喔～！。",
      "USen": "No yawns? Not even a little one?\nThat's not fair... As soon as I'm\nasleep, I'm going to complain to\nthe sandman.",
      "USes": "¿No? ¿Ni un bostezo chiquitito?\nQué raro... A lo mejor mis bostezos\nestán defectuosos y no se contagian.\nTal vez deba concentrarme mejor...\nZzz... Zzz...\n¿Ya tienes sueño? ¿Ya?",
      "USfr": "Ah bon? Même pas un tout\npetit bâillement?\nC'est pas un jeu... Dès que je me\nserai endormi, j'irai en toucher\ndeux mots au marchand de sable."
    }
  },
  {
    "label": "022",
    "attribute": "0x0000000000000000",
    "locale": {
      "CNzh": "是吗～？\n我现在有绝对的信心，\n只要给我3秒我就能睡着～\n我从小就有一个绝技，\n就是无论在哪里都能睡得着～！。",
      "EUde": "Ehrlich? Also ich kann eigentlich\nimmer und überall schlafen.\nIch brauch dazu nicht mal ein Kissen.\nEinfach nur die Augen zumachen und\nschwups – schon bin ich weg... ... ...",
      "EUen": "Really? I never have trouble falling\nasleep whenever I want.\nI can do it anywhere!\nJust...watch... zzz...zzz...zzzz...\nPretty cool, huh?",
      "EUes": "¿Ah, sí? Vaya, lo siento...\nUnos tantos y otros tan poco.\nYo, si se trata de dormir, el único\nproblema que tengo es despertarme.\nMe quedo frito donde sea y cuando\nsea... ¡además, en tiempo récord!\nTres segundos y... Zzz...",
      "EUfr": "Ah bon ? Moi, je n'ai jamais aucun\nproblème à m'endormir.\nJe peux m'endormir en trois\nsecondes où et quand je veux.\nC'est mon pouvoir spécial !",
      "EUit": "Sul serio? Io, invece, mi addormento\npraticamente a comando.\nPosso crollare dovunque... Quando\nio o il mio corpo abbiamo deciso che\nè l'ora della nanna, si dorme subito.",
      "EUnl": "Echt? Ik val altijd meteen in slaap\nals ik wil.\nHet maakt niet uit waar ik ben... \nKijk... maar...",
      "EUru": "Да ты что? Со мной такого не\nбывает. Сплю когда захочу.\nМогу где угодно заснуть!\nВот... смотри... хр-р-р...",
      "JPja": "そうなのぉ～？\nボクは、今なら　3びょうで\nネムれるジシンが　あるよぉ～\nどんなトコロでも　ネムれちゃうのが\nムカシからの　とくぎなんだぁ～！　",
      "KRko": "그래～?\n난 지금 같으면 3초 만에\n잠들 자신 있다아～!\n어디서든 쿨쿨 잘 자는 게\n옛날부터 내 특기였거드은～! !",
      "TWzh": "真的嗎～？\n如果是現在的話，\n我有自信可以在三秒內睡著喔～\n不管在哪裡都睡得著，\n這是我從以前就會的特技喔～！。",
      "USen": "Really? I never have trouble falling\nasleep whenever I want.\nI can do it anywhere!\nJust...watch... zzz...zzz...zzzz...\nPretty cool, huh?",
      "USes": "¿En serio? Guau, yo creo que debes\nser alienígena o algo así...\nEl único problema que yo tengo\nal dormir es que luego no puedo\ndespertarme...",
      "USfr": "Ah bon? Moi, je n'ai jamais aucun\nproblème à m'endormir.\nJe peux m'endormir en trois\nsecondes où et quand je veux.\nC'est mon pouvoir spécial!"
    }
  }
]