﻿[
  {
    "label": "001",
    "attribute": "0x0000000000000000",
    "locale": {
      "CNzh": "我听说有人在海岸边晕倒了，\n赶紧过去看了看。\n结果只是吕游在那里睡着了而已。。",
      "EUde": "Ich hab gehört, dass jemand an den\nStrand gespült wurde, also bin ich\ndirekt hin, um nachzugucken!\nUnd dann war es nur Gulliver, der\ngerade seelenruhig vor sich hin\nschnarchte!",
      "EUen": "I heard somebody washed up on\nthe beach, so I ran there to go see!\nAnd it was just Gulliver, sleeping!",
      "EUes": "Oí que alguien había llegado\na la playa arrastrado por el agua,\n¡como en una novela de aventuras!\nY era Gulliver, cómo no...\nSus aventuras siempre acaban igual.",
      "EUfr": "J'ai entendu dire que quelqu'un\ns'était échoué sur la plage, alors je\nme suis précipité pour aller voir !\nMais en fait, c'était juste Gulliver qui\nfaisait la sieste !",
      "EUit": "Ho sentito che qualcuno era stato\nportato sulla spiaggia dalle onde,\ncome in un libro d'avventure!\nSono andato a vedere e alla fine era\nsolo Gulliver che stava dormendo lì.\nQuanto russava!",
      "EUnl": "Er zou iemand op het strand zijn\naangespoeld, dus ik ging eens kijken.\nMaar het was gewoon Gulliver!",
      "EUru": "Я узнал, что кого-то выбросило на\nберег и побежал посмотреть!\nА это Гулливер там спит!",
      "JPja": "かいがんで　だれかが　たおれてる\nって聞いたから、あわてて　行ってみたら\nジョニーさんが　ねてるだけだったよぉ、",
      "KRko": "바닷가에 누가 쓰러져 있다길래\n서둘러서 가봤는데 그냥 죠니가\n자던 거더라구우～ !",
      "TWzh": "我聽說海邊有人昏倒了，\n所以就急忙趕過去看看，\n發現原來只是呂遊在睡覺～。",
      "USen": "I heard somebody washed up on\nthe beach, so I ran there to go see!\nAnd it was just Gulliver, sleeping!",
      "USes": "Escuché el rumor de que alguien\nllegó a la playa arrastrado por el\nagua, ¡como si fuera un cuento!\n¡Y resultó ser Gulliver, para variar!\nSus aventuras siempre acaban igual.",
      "USfr": "J'ai entendu dire que quelqu'un\ns'était échoué sur la plage, alors je\nme suis précipité pour aller voir!\nMais en fait, c'était juste Gulliver qui\nfaisait la sieste!"
    }
  },
  {
    "label": "002",
    "attribute": "0x0000000000000000",
    "locale": {
      "CNzh": "今天K.K.会来广场哦～\n到了晚上还能点歌，\n该拜托他唱什么好呢，\n我得好好想想才行～。",
      "EUde": "K.K. gibt heute auf dem Festplatz\neine Show! Ich kann's kaum\nerwarten, (Floskel)!\nEr nimmt sogar Musikwünsche\nentgegen! Vielleicht spielt er ja\nfür mich mein Lieblingslied?\nIch hab alle seine Platten.\nEinige sogar ganz ohne Kratzer!",
      "EUen": "K.K.'s gonna be doing a show in\nthe plaza today!\nHe takes requests at night, so I gotta\nthink about what songs I wanna\nask for, .\nI'm so excited to see him! I have all\nhis records! Some of them aren't\neven scratched!",
      "EUes": "¡Totakeke da hoy un concierto en\nla plaza! ¡Y por la noche acepta peticiones!\nQué ganas tengo de verlo...\nTengo todos sus discos, ¿sabes?\n¡Algunos, con el plástico y todo!",
      "EUfr": "Kéké est sur la place aujourd'hui !\nEt ce soir, il chantera les chansons\nque le public lui demandera, .\nIl faut que je réfléchisse à quelles\nchansons je vais lui demander, il y en\na tellement que j'adore !",
      "EUit": "K.K. terrà uno spettacolo in piazza\noggi!\nDi notte accetta richieste e non vedo\nl'ora di snocciolargli la mia lista di\npezzi preferiti, !\nChe voglia ho di vederlo! Lo ascolto\nquando cucino, mangio, prima di\nmettermi a letto... insomma, sempre!",
      "EUnl": "K.K. geeft vandaag een optreden op\nhet plein!\n's Avonds speelt hij ook verzoekjes,\ndus ik loop nog na te denken over\nwat ik graag wil horen.\nIk heb er héél veel zin in! Ik heb al\nzijn albums. En op sommige daarvan\nzitten niet eens krassen!",
      "EUru": "Сегодня у нас на площади\nконцерт К. К.!\nПо вечерам он играет по заявкам\nпублики. Надо придумать, какую\nпесню я хочу! .\nЯ так рад! У меня все его диски\nесть! Некоторые даже не\nпоцарапанные!",
      "JPja": "今日は　広場に　とたけけさんが　来てるよ～\n夜は　リクエストにも　こたえてくれるから、\nなんの曲を　おねがいするか\n考えておかなくっちゃ～、",
      "KRko": "오늘은 광장에 K.K.가 와 있더라아～\n밤에는 신청곡도 받는다니까\n무슨 곡을 신청할지\n미리 생각해 놔야지이～ !",
      "TWzh": "K.K.今天到廣場來了耶～\n晚上可以點歌請他唱，\n我得先想好\n要拜託他唱什麼歌才行～。",
      "USen": "K.K.'s gonna be doing a show in\nthe plaza today!\nHe takes requests at night, so I gotta\nthink about what songs I wanna\nask for, .\nI'm so excited to see him! I have all\nhis records! Some of them aren't\neven scratched!",
      "USes": "¡Totakeke hoy dará un concierto en\nla plaza! ¡Y por la noche aceptará\npeticiones!\nQuiero verlo... Me gusta escuchar\nsus discos a la hora de comer y antes\nde dormir... ¡o sea, siempre!",
      "USfr": "Kéké est sur la place aujourd'hui!\nEt ce soir, il chantera les chansons\nque le public lui demandera, .\nIl faut que je réfléchisse à quelles\nchansons je vais lui demander, il y en\na tellement que j'adore!"
    }
  },
  {
    "label": "003",
    "attribute": "0x0000000000000000",
    "locale": {
      "CNzh": "刚才，\n我看到绵儿了呢～\n我要不要去找她评判一下\n我的时尚品位呢～。",
      "EUde": "Ich habe gerade Minna vorbeilaufen\nsehen! Ich hab mich aber nicht\ngetraut, sie zu grüßen...\nIch hatte nämlich Angst, rülpsen zu\nmüssen... Und ich hatte recht damit!\nIch hab SO laut gerülpst, dass ich\nmich sogar selbst erschrocken\nhabe! Äh, he he he...",
      "EUen": "I just saw Label walk by! I was too\nshy to say anything because I was\nafraid I might burp.\nI was right too! I burped so loud,\nI scared myself!",
      "EUes": "¡Acabo de cruzarme con Tili!\nLo que pasa es que me ha dado\ntanto corte que no le he dicho nada.\nCuando mi cara recupere su color\nhabitual, a lo mejor le pregunto\nqué le parece mi estilo...",
      "EUfr": "J'ai vu Tiquette passer tout à\nl'heure !\nJe voudrais bien lui demander\ndes conseils vestimentaires, mais\nj'ose pas...",
      "EUit": "Ho appena visto passare Beatrice!\nAvevo paura ad aprire bocca perché\nmi ero fatto un bello spuntino...\nQual è il problema, dici? Beh,\nil fatto è che avevo un... ruttino\nin rampa di lancio!\nFortuna che mi è scappato solo\nquando ho sospirato di sollievo,\ndopo che se n'era andata...",
      "EUnl": "Ik zag Label net voorbijkomen! Ik\ndurfde alleen niks te zeggen, want ik\nwas bang dat ik moest boeren.\nEn ik had nog gelijk ook! Ik liet zo'n\nharde boer dat ik er zelf van schrok!",
      "EUru": "Я только что видел Лэйбл! Но я не\nпоздоровался с ней, боялся\nикнуть.\nИ кстати, я не ошибся! Начал так\nикать, что даже сам испугался.",
      "JPja": "さっき、ことのさんが\n歩いてるのを　見かけたよぉ～\nボクの　コーディネートも\nチェックして　もらっちゃおうかなぁ、",
      "KRko": "아까 고숙이 누나가\n돌아다니는 걸 봤는데에～\n내 패션도 한번\n봐달라고 해볼까아～ ?",
      "TWzh": "剛才我看見綿兒走過去了～\n要不要讓她幫我看看\n我的配搭呢～。",
      "USen": "I just saw Label walk by! I was too\nshy to say anything because I was\nafraid I might burp.\nI was right too! I burped so loud,\nI scared myself!",
      "USes": "¡Acabo de toparme con Tili!\nNo sé por qué me dio tanta pena\ny no le pude decir nada.\nCuando mi cara recupere su color\nnormal, a lo mejor le pregunto\nqué le parece mi estilo...",
      "USfr": "J'ai vu Tiquette passer tout\nà l'heure!\nJe voudrais bien lui demander\ndes conseils vestimentaires, mais\nj'ose pas..."
    }
  },
  {
    "label": "004",
    "attribute": "0x0000000000000000",
    "locale": {
      "CNzh": "现在，骆岚就在\n哦～\n今天的商品会是什么呢～\n我一直都很期待的～。",
      "EUde": "Ich bin ganz aufgeregt, weil Aziza heute auf  zu Gast ist, (Floskel)!\nVielleicht hat sie ein paar gute Tipps,\nwie man halb gelutschte Bonbons\nvom Teppich abkriegt...",
      "EUen": "It's pretty exciting that Saharah is\nvisiting  right now!\nI'm gonna see what new stuff is in.\nI wanna arrange my house so my\nsnack energy flows real good.",
      "EUes": "¡Qué emoción que Alcatifa se pase\npor  hoy!\nQuiero redecorar mi casa de forma\nque los tarros de chuches luzcan\ntodavía más apetitosos.\n¡Voy a preguntarle a ver si me da\nalgunas ideas!",
      "EUfr": "C'est trop bien ! Sarah est en visite\nà  en ce moment,  !\nJe vais aller voir ce qu'elle a en\nstock.\nJe voudrais trouver un truc pour que\nl'énergie friandistique circule au\nmieux chez moi !",
      "EUit": "Non ci posso credere! Oggi Sahara è qui  .\nVoglio chiederle un paio di consigli\nsu come riarredare casa...\nE rendere l'ora della merenda\nun momento ancora più piacevole,\n(catchphrase)!",
      "EUnl": "Wat cool dat Saharah vandaag  bezoekt!\nIk wil mijn voorraadkast inrichten,\nzodat hij helemaal \"feng snoepie\" is.\nZou ze tips hebben, (catchphrase)?",
      "EUru": "Здорово, что Сахара сейчас\nна острове !\nГляну, что она привезла. Я хочу,\nчтобы у меня дома была нужная\nвкусняшечная энергия.",
      "JPja": "今、ローランさんが\nに　来てるんだよぉ～\n今日の　商品は　どんなのだろ～\nボク　いつも　楽しみにしてるんだぁ、",
      "KRko": "오늘은 사하라가\n에 오는 날이야아～\n오늘은 뭘 가져왔을까아～?\n항상 기대돼～! !",
      "TWzh": "今天駱嵐會來喔～\n今天的商品會有什麼呢～\n我每次都很期待喔～。",
      "USen": "It's pretty exciting that Saharah is\nvisiting  right now!\nI'm gonna see what new stuff is in.\nI wanna arrange my house so my\nsnack energy flows real good.",
      "USes": "¡Qué emoción que Alcatifa esté en  hoy!\nQuisiera conseguir algo que haga que mi comida se vea más deliciosa.\n¡Veré si tiene algunas ideas!",
      "USfr": "C'est trop bien! Sarah est en visite\nà  en ce moment, !\nJe vais aller voir ce qu'elle\na en stock.\nJe voudrais trouver un truc pour que\nl'énergie friandistique circule au\nmieux chez moi!"
    }
  },
  {
    "label": "006",
    "attribute": "0x0000000000000000",
    "locale": {
      "CNzh": "今天在服务处门口，\n有开K.K.的演唱会哦～\n你去听过了吗～？\n现在还能点歌呢，\n只要告诉他想要听的歌曲，\n应该就会唱给你听了。。",
      "EUde": "K.K. tritt gerade live vor dem\nServicecenter auf!\nIch hab gehört, er nimmt sogar\nMusikwünsche entgegen. Sprich\nihn doch einfach mal drauf an!\nSeine Stimme geht runter wie Öl...\nSie ist warm... tropft überallhin...\nin die Ohren des Publikums hinein.",
      "EUen": "K.K.'s performing live in front of\nResident Services today!\nHe's taking requests to sing songs,\nso you should ask him to sing any\nsongs you'd like to hear him sing!\nHis voice is like butter... Warm...and\ndripping everywhere...getting in your\nears and on your popcorn and stuff...",
      "EUes": "¡Totakeke da un concierto en vivo\ny en directo delante de la oficina\nde gestión! ¡Y acepta peticiones!\nSu voz es suave como queso fundido,\ncon la ventaja de que cuando acaricia\nmis orejas, no me las achicharra.",
      "EUfr": "Kéké donne un concert devant\nle bureau des résidents !\nEt en ce moment, tu peux lui\ndemander de chanter la chanson que\ntu veux !\nSa voix est comme du miel !\nElle est douce et onctueuse, elle te\ncoule dans les oreilles et elle te\ncolle à la tête pendant des heures !",
      "EUit": "Oggi K.K. suona dal vivo davanti\nal centro servizi!\nAccetterà richieste e non vedo l'ora\ndi snocciolargli la mia lista di suoi\npezzi preferiti, !\nCorrerò a vederlo! Ma forse crollerei\ndalla fatica e non arriverei mai...\nPerciò camminerò!",
      "EUnl": "K.K. treedt op dit moment buiten\nvoor de servicebalie op!\nHij speelt ook verzoekjes, dus je als\nje wilt dat hij iets speciaals zingt,\nkun je daar om vragen!\nZijn stem is net honing... Zoet,\nstroperig... en heel moeilijk uit je\noren te krijgen.",
      "EUru": "К. К. сейчас выступает напротив\nбюро услуг!\nОн принимает заявки, так что\nможешь попросить его спеть твою\nлюбимую песню!\nЕго голос, как мед... Густой,\nсладкий и липкий... Льется\nпрямо в уши.",
      "JPja": "今日は　案内所の前で、\nとたけけさんが　ライブやってるよぉ～\nキミは、もう　ききに行った～？\n今なら　リクエストにも　こたえてくれるし、\nききたい曲を　おねがいすれば\n歌ってくれるんじゃないかなぁ、",
      "KRko": "오늘은 안내소 앞에서\nK.K.가 라이브를 하고 있던데에～\n넌 가봤어～?\n지금 가면 신청곡도 받아준다니까\n듣고 싶은 곡이 있으면\n가서 한번 부탁해봐아～ !",
      "TWzh": "K.K.今天在服務處的前面\n開演唱會耶～\n你已經去聽過了嗎～？\n現在可以跟他點歌，\n只要跟他說你想聽什麼歌，\n他應該就會唱給你聽喔～。",
      "USen": "K.K.'s performing live in front of\nResident Services today!\nHe's taking requests to sing songs,\nso you should ask him to sing any\nsongs you'd like to hear him sing!\nHis voice is like butter... Warm...and\ndripping everywhere...getting in your\nears and on your popcorn and stuff...",
      "USes": "¡Totakeke está dando un concierto\nahora mismito en la oficina de\ngestión! ¡Y acepta peticiones!\nSu voz es suave como queso\nde nachos... Uy, nachos...",
      "USfr": "Kéké donne un concert devant\nle bureau des résidents!\nEt en ce moment, tu peux lui\ndemander de chanter la chanson\nque tu veux!\nSa voix est comme du miel!\nElle est douce et onctueuse, elle te\ncoule dans les oreilles et elle te\ncolle à la tête pendant des heures!"
    }
  },
  {
    "label": "007",
    "attribute": "0x0000000000000000",
    "locale": {
      "CNzh": "今天曹卖来了哦～\n刚摘下的新鲜蔬菜，\n真的超棒的～。",
      "EUde": "Es ist Sonntag! Das heißt, dass\nJorna hier bei uns ist!\nIhr frisches Gemüse ist so was von\nlecker! Ich muss immer direkt alles\nauffuttern, was ich bei ihr kaufe!",
      "EUen": "It's Sunday! That means\nDaisy Mae is here!\nHer fresh veggies are so yummy!\nI always eat everything I buy\nfrom her!",
      "EUes": "¡Es sábado y eso significa\nque Juliana está en la isla!\nMe encantan sus verduras.\n¡Para desayunar, merendar\no cuando sea!",
      "EUfr": "Aujourd'hui, c'est dimanche !\nÇa veut dire que Porcelette\nest sur l'île !\nLes légumes frais, c'est trop bon !\nJe mange toujours tout ce que je lui\nachète !",
      "EUit": "È domenica! Ciò significa che\nsull'isola è arrivata Brunella!\nLe sue verdure fresche sono così\ndeliziose! Grazie a lei, i miei spuntini\nstanno diventando super salutari!",
      "EUnl": "Het is zondag! Dat betekent dat\nDaisy Mae er is!\nHaar verse groenten zijn echt heel\nlekker! Alles wat ik van haar koop,\neet ik altijd supersnel op!",
      "EUru": "Сегодня воскресенье! А значит,\nДейзи-Мей сегодня на острове!\nУ нее такие вкусные овощи!\nЯ всегда доедаю все, что\nпокупаю у нее!",
      "JPja": "今日は　ウリちゃんが　来てるよぉ\nやっぱり　とれたての　やさいは\nサイコーだよねぇ、",
      "KRko": "오늘은 무파니이 왔어～\n역시 야채는 신선한 게\n제일이야아～ !",
      "TWzh": "今天曹賣來了喔。\n果然還是現採的蔬菜最好吃了～。",
      "USen": "It's Sunday! That means\nDaisy Mae is here!\nHer fresh veggies are so yummy!\nI always eat everything I buy\nfrom her!",
      "USes": "¡Es domingo y eso significa que \nJuliana está en la isla!\nMe encantan sus verduras.\n¡Para desayunar, merendar\no cuando sea!",
      "USfr": "Aujourd'hui, c'est dimanche!\nÇa veut dire que Porcelette\nest sur l'île!\nLes légumes frais, c'est trop bon!\nJe mange toujours tout ce que\nje lui achète!"
    }
  },
  {
    "label": "008",
    "attribute": "0x0000000000000000",
    "locale": {
      "CNzh": "，你看到了吗？\n在北边的沙滩旁停靠着一艘船只。\n是有人到这座岛上来玩吗～。",
      "EUde": "Hast du schon das coole Boot\ngesehen, das im Norden der Insel\nangelegt hat?\nWer uns da wohl besuchen kommt?\nBestimmt jemand total Wichtiges,\nsonst hätte er ja kein eigenes Boot!",
      "EUen": "Hey, did you see that cool boat\nparked up at the top of the island?\nIs someone visiting us?\nMust be someone pretty important\nif they have their own boat... Think\nthey'd let me toot the horn? TOOT!",
      "EUes": "Hay un barco muy guay amarrado\nal norte de la isla. ¿Ha venido\nalguien de visita?\nDebe de ser todo un aventurero\nsi tiene su propia embarcación.\nA mí me encantaría tener una...\n¿Crees que me lo prestará un rato\npara dar una vuelta, ?",
      "EUfr": "Hé, t'as remarqué qu'il y avait un\nbateau en haut de l'île ? On a de\nla visite, tu crois ?",
      "EUit": "Ehi, hai visto quella barca ancorata\na nord dell'isola? Qualcuno ci sta\nfacendo visita?\nDeve essere importante se ha la sua\nbarca personale... Pensi che mi farà\nsalire per suonare la sirena?",
      "EUnl": "Hoi! Heb je die coole boot gezien\naan de noordkant van het eiland?\nWie zou er op bezoek zijn?\nVast een hele belangrijke persoon als\ndie een eigen boot heeft... Ik hoop\ndat ik eens mag toeteren. TOETTOET!",
      "EUru": "Ты видел ту классную лодку\nв северной части острова? Не\nзнаешь, кто к нам приехал?\nНаверное, важная персона, раз\nу нее своя лодка... Думаешь, мне\nдадут погудеть в гудок? Би-би!",
      "JPja": "、気づいてる？\n北のはまべに　船がとまってるんだよぉ\nだれか　あそびに来てるのかなぁ～、",
      "KRko": "아, 그거 알아?\n지금 북쪽 해변가에 배가 와 있어!\n누가 놀러온 걸까아～",
      "TWzh": "，你注意到了嗎？\n有船在北部的海邊靠岸了喔。\n不知道是什麼人來造訪呢～。",
      "USen": "Hey, did you see that cool boat\nparked up at the top of the island?\nIs someone visiting us?\nMust be someone pretty important\nif they have their own boat... Think\nthey'd let me toot the horn? TOOT!",
      "USes": "Hay un barco estacionado al norte\nde la isla. ¿Hay alguien de visita?\nDebe ser alguien muy aventurero\nsi tiene su propio barco. Me gustaría\nmuchísimo tener uno...\n¿Crees que quiera prestármelo\nun ratito para salir a dar una vuelta,\n(catchphrase)?",
      "USfr": "Hé, t'as remarqué qu'il y avait un\nbateau en haut de l'île? On a de\nla visite, tu crois?"
    }
  },
  {
    "label": "009",
    "attribute": "0x0000000000000000",
    "locale": {
      "CNzh": "今天，我总感觉凉飕飕的～\n像是一直被人悄悄盯着一样……\n和感冒完全不同。。",
      "EUde": "Oh Mann, mir ist irgendwie total\nunheimlich. Oder sind das nur meine\nEingeweide, die da grummeln?\nNe ne, ich bin sicher, daran liegt's\nnicht. Irgendwas ist wirklich komisch.\nIch glaube, hier ist jemand auf der\nInsel... der hier nicht hingehört!\nIch riech da was! Und es riecht nicht\nwie etwas, das ich normalerweise\nrieche, wenn ich etwas rieche!",
      "EUen": "I dunno what's happening, but I feel\nkinda creeped out. Or maybe gassy...\nBut I think I'm kinda scared!\nI think there's someone on the island\nwho's not from this island!\nI'm smelling things! And they're\nnot the smells I usually smell when\nI smell stuff!",
      "EUes": "Hoy tengo una extraña sensación...\ny he llegado a la conclusión de que\nno es hambre.\nHay una presencia en la isla\nque no es de esta isla...\n¡Me huelo algo y no es !",
      "EUfr": "Je sais pas pourquoi, mais j'ai la\nchair de poule, et pourtant, j'ai pas\nfroid.\nJe crois qu'il y a quelqu'un qu'est\npas de l'île dans les parages !\nParce que si c'était quelqu'un de\nnotre île, je le reconnaîtrais à son\nodeur !",
      "EUit": "Oggi provo una strana sensazione,\nquasi inquietante... e sono giunto\nalla conclusione che non è fame.\nAvverto una presenza sull'isola\nche non è di quest'isola...\nQualcosa puzza di bruciato e non\nè un piatto di !",
      "EUnl": "Weet je, ik heb zo'n raar gevoel.\nMisschien is het winderigheid...\nMaar het voelt eerder als iets engs.\nIk denk eigenlijk dat er iemand op\ndit eiland is die niet van dit eiland\nkomt. Of zelfs niet van deze wereld.\nIk ruik het gewoon, joh. Ik ruik altijd\nwel van alles, maar dit is iets anders.",
      "EUru": "Ой, мне как-то не по себе. Может,\nчто-то съел... Хотя нет, это не то.\nКажется, что рядом кто-то есть...\nКто-то чужой!\nИ запах какой-то не наш, уж\nв чем-чем, а в этом я разбираюсь.",
      "JPja": "今日は　なんだか　ゾクゾクするんだぁ～\nだれかにずっと　見られてる気がして・・・\nカゼとは　ちがうと思うんだよねぇ、",
      "KRko": "오늘은 왠지 소름이 자주 돋아～\n감기는 아닌 것 같구 누가 날 계속\n쳐다보는 것 같은데에... ...",
      "TWzh": "我今天總是覺得背後冷颼颼的，\n就像是有人一直盯著我看……\n我覺得跟感冒不太一樣，。",
      "USen": "I dunno what's happening, but I feel\nkinda creeped out. Or maybe gassy...\nBut I think I'm kinda scared!\nI think there's someone on the island\nwho's not from this island!\nI'm smelling things! And they're\nnot the smells I usually smell when\nI smell stuff!",
      "USes": "Hoy amanecí con una extraña\nsensación... y no es hambre.\nHay una presencia en la isla\nque no es de esta isla...\n¡Me huele a que hay algo y no\nes !",
      "USfr": "Je sais pas pourquoi, mais j'ai la\nchair de poule, et pourtant,\nj'ai pas froid.\nJe crois qu'il y a quelqu'un qu'est\npas de l'île dans les parages!\nParce que si c'était quelqu'un de\nnotre île, je le reconnaîtrais\nà son odeur!"
    }
  },
  {
    "label": "011",
    "attribute": "0x0000000000000000",
    "locale": {
      "CNzh": "！\n你去看K.K.的\n生日专场演唱会了吗～？\n这是一年仅此一次的\n生日专属活动，\n不好好享受的话就太可惜了哦～。",
      "EUde": "(Spitzname)! Warst du schon bei K.K.s Geburtstagskonzert?\nEs findet nur einmal im Jahr statt!\nSchau es dir an, solange es noch\ngeht!",
      "EUen": "Didja already go see K.K.'s\nbirthday performance?\nIt only happens once a year!\nYou gotta watch it while ya can!",
      "EUes": "¿Qué haces ahí, (nickname)?\n¿No se está celebrando\nahora mismo tu concierto\nespecial de cumpleaños?\n¡No te lo pierdas! ¡Totakeke\nha venido a la isla expresamente\nen tu honor, !",
      "EUfr": "(surnom) ! Est-ce que tu es allé écouter Kéké chanter pour ton anniversaire ?\nÇa n'arrive qu'une fois par an qu'il\nchante spécialement pour toi, tu\ndevrais en profiter !",
      "EUit": "Ehilà, (nickname)! Sei già stato a vedere un concerto speciale di compleanno di K.K.?\nLo tiene solo una volta all'anno,\nquindi farai meglio a non perdertelo,\n!",
      "EUnl": "(nickname)! Heb je K.K.'s verjaardagsoptreden al gezien?\nDat geeft hij maar een keer per jaar,\nweet je. Ik zou maar gaan kijken nu\nje de kans hebt!",
      "EUru": "(nickname)! Ты уже ходил\nна праздничный концерт К. К.?\nСлушай, он бывает раз в год!\nСходи, пока есть возможность.",
      "JPja": "！\nとたけけさんの　バースデーライブは\nもう　見に行ったのぉ？\n一年に　一回しかない\nおたんじょう日のイベントなんだから\n楽しまなくっちゃ　もったいないよぉ、",
      "KRko": "아!\nK.K.의 생일 축하 라이브는\n벌써 보고 왔니이?\n1년에 딱 한 번뿐인 생일 이벤트니까아\n제대로 안 즐기면 손해라구우～ !",
      "TWzh": "！\n你已經去過\nK.K.的生日演唱會了嗎？\n這可是一年一度的生日活動，\n不好好享受一下就太吃虧了～。",
      "USen": "Didja already go see K.K.'s\nbirthday performance?\nIt only happens once a year!\nYou gotta watch it while ya can!",
      "USes": "¿Qué haces ahí, (nickname)?\n¿No se está celebrando\nahora mismo tu concierto\nespecial de cumpleaños?\n¡No te lo pierdas! ¡Totakeke\nha venido a la isla expresamente\nen tu honor, !",
      "USfr": "(surnom)! Est-ce que tu es allé écouter Kéké chanter pour ta fête?\nÇa n'arrive qu'une fois par an qu'il\nchante spécialement pour toi, tu\ndevrais en profiter!"
    }
  },
  {
    "label": "013",
    "attribute": "0x0000000000000000",
    "locale": {
      "CNzh": "，你知道吗～？\n为了办生日专场演唱会，\nK.K.现在就在广场上哦～\n好像说只有过生日的人\n才可以听专门准备的歌曲～\n这种特别的感觉真好啊～。",
      "EUde": "Hast du's schon mitbekommen,\n(Spitzname)?\nK.K. ist auf dem Festplatz und gibt\nein Geburtstagskonzert!",
      "EUen": "K.K. is in the plaza doing a\nbirthday show!",
      "EUes": "¿Has visto, (nickname)?\n¡Totakeke está en la plaza dando un\nconcierto especial de cumpleaños!",
      "EUfr": "Tu as vu ça, (surnom) ?\nKéké est en train de donner un\nconcert d'anniversaire sur la place !",
      "EUit": "Hai visto, (nickname)? K.K. è in piazza, sta suonando un concerto per qualcuno che compie gli anni!",
      "EUnl": "Heb je het al gezien, (nickname)? K.K. is op het plein voor een verjaardagsoptreden!",
      "EUru": "Ты видел, (nickname)?\nК. К. сейчас дает праздничный\nконцерт в честь дня рождения!",
      "JPja": "、気づいてたぁ？\nバースデーライブをするために\n広場に　とたけけさんが　来てるんだよぉ～\nトクベツな歌が　きけるのは\nおたんじょう日のコだけ　なんだってぇ～\nトクベツって　なんか　いいよねぇ～、",
      "KRko": "아, 혹시 알아챘니이?\n생일 축하 라이브를 하러\nK.K.가 광장에 와있다구우～\n생일을 맞은 아이는\n특별한 노래를 들을수 있대～\n특별한 노래라니 왠지 멋져어～ !",
      "TWzh": "，你有注意到嗎？\nK.K.在廣場舉辦生日演唱會喔～\n聽說特別的歌\n只有生日的人才可以聽喔～\n感覺「特別的」就是不一樣～。",
      "USen": "K.K. is in the plaza doing a\nbirthday show!",
      "USes": "¿Ya viste, (nickname)?\n¡Totakeke está en la plaza dando un\nconcierto especial de cumpleaños!",
      "USfr": "Tu as vu ça, (surnom)?\nKéké est en train de donner un\nconcert de fête sur la place!"
    }
  },
  {
    "label": "014",
    "attribute": "0x0000000000000000",
    "locale": {
      "CNzh": "我刚才看到绢儿了～\n不知道她今天带来了\n什么样的衣服呢～？。",
      "EUde": "Ich habe gerade Tina gesehen!\nIch frage mich, was für Klamotten\nsie diesmal dabei hat!\nIch hab ein Outfit bei ihr gekauft und\nmeine Oma meinte, ich seh darin\ntotal „schmissig“ aus!",
      "EUen": "I just saw Mabel! I wonder what\nkinda clothes she brought this time?\nI bought an outfit from her\nand Grandma said it made\nme look dashing!",
      "EUes": "¡Acabo de cruzarme con Pili!\n¿Qué trapitos habrá traído\nesta vez?\nLos últimos que le compré\nme quedaban chachi, ¿sabes?",
      "EUfr": "Je viens d'apercevoir Layette !\nJe me demande quel genre de\nvêtements elle a apporté aujourd'hui.\nJe lui ai acheté une tenue l'autre\njour, et ma mamie m'a dit que j'étais\nbeau comme un camion !",
      "EUit": "Sai chi ho appena visto? Agostina!\nChe genere di articoli di vestiario\navrà portato? Li voglio tutti!\nOra colleziono anche vestiti perché\nmia nonna mi ha visto con un suo\ncapo e ha detto che sono bellissimo!",
      "EUnl": "Ik zag Mabel net! Ik vraag me af wat\nvoor kleren ze deze keer mee heeft?\nIk heb eens een outfit van haar\ngekocht, en mijn oma zei dat ik er\nheel knap in uitzag!",
      "EUru": "Я только что видел Мэйбл!\nИнтересно, что она из\nодежды привезла?\nЯ у нее купил одну майку, и моя\nбабушка сказала, что я в ней\nэффектно выгляжу.",
      "JPja": "さっき　きぬよちゃんを　見かけたよぉ～\n今日は　どんなふくを\nもって来てくれたんだろ～？　",
      "KRko": "아까 고순이를 봤어～\n오늘은 어떤 옷을\n가져왔을까아～? ?",
      "TWzh": "剛才我看見絹兒了～\n不知道她今天\n帶了什麼樣的衣服來呢～？。",
      "USen": "I just saw Mabel! I wonder what\nkinda clothes she brought this time?\nI bought an outfit from her\nand Grandma said it made\nme look dashing!",
      "USes": "¡Acabo de ver a Pili! ¿Qué trapitos\nhabrá traído esta vez?\nLos últimos que le compré\nme quedaban bien, ¿sabes?",
      "USfr": "Je viens d'apercevoir Layette! Je me\ndemande quel genre de vêtements\nelle a apportés aujourd'hui.\nJe lui ai acheté une tenue l'autre\njour, et ma mamie m'a dit que j'étais\nbeau comme un camion!"
    }
  },
  {
    "label": "015",
    "attribute": "0x0000000000000000",
    "locale": {
      "CNzh": "今天俞司廷\n来我们了呢～\n只要带鱼给他，\n他就会非常高兴哦～！\n连带着，我也会很高兴呢～。",
      "EUde": "Lomeus ist heute zu Besuch!\nEr ist immer total aus dem Häuschen,\nwenn ich ihm meine Fische bringe!\nAls ob er nicht wüsste, dass es im\nFluss Gratisfische zu holen gibt,\n(Floskel)!",
      "EUen": "C.J. is visiting today!\nHe gets so excited when I bring him\nmy fishies, he pays me for them!\nIt's like he doesn't know they're\nfree if you walk over to the river!",
      "EUes": "¡CJ está hoy de visita!\nLe encanta que le lleves peces,\n¡y te recompensa por ellos!\n¡A ver si no sabe que los puedes\npescar gratis en el agua!",
      "EUfr": "Pollux est venu nous\nrendre visite, aujourd'hui !\nIl est tellement content quand je lui\napporte des poissons qu'il me paie\npour me remercier !\nOn dirait qu'il sait pas qu'il pourrait\nen avoir gratuitement à la rivière !",
      "EUit": "Castorino è in visita all'isola oggi!\nSi agita tantissimo quando gli porto\ndei pesci, non so perché. Ma li paga!\nCome se non sapesse che può\npescarli gratis anche da solo,\n...",
      "EUnl": "C.J. is vandaag op het eiland. Hij\nvindt visjes zo cool dat hij er klingels\nvoor geeft!\nHij weet zeker niet dat je ze gratis uit\nde rivier kunt halen!",
      "EUru": "Си-Джей сегодня приезжает!\nОн так радуется, когда я ему рыбку\nприношу, даже платит мне!\nПохоже, он не знает, что в реке ее\nможно бесплатно наловить!",
      "JPja": "今日は　ジャスティンくんが\nに　来てるんだよぉ～\nあのコに　おサカナをもっていくと\nすっごく　よろこんでくれるから\nボクまで　うれしくなっちゃうんだぁ、",
      "KRko": "오늘은 저스틴이\n에 와 있대～\n걔한테 물고기를 가져가면\n엄～청 좋아하니까\n나까지 기분이 좋아져어～ !",
      "TWzh": "今天俞司廷來島上了喔～\n只要把魚兒帶過去，\n他就會超高興的，\n連我也會跟著高興起來呢～。",
      "USen": "C.J. is visiting today!\nHe gets so excited when I bring him\nmy fishies, he pays me for them!\nIt's like he doesn't know they're\nfree if you walk over to the river!",
      "USes": "¡CJ está hoy de visita!\nLe encanta que le lleves peces,\n¡y te recompensa por ellos!\n¡Que no se entere de que se pueden\npescar gratis en el agua!",
      "USfr": "Pollux est venu nous\nrendre visite, aujourd'hui!\nIl est tellement content quand je lui\napporte des poissons qu'il me paie\npour me remercier!\nOn dirait qu'il sait pas qu'il pourrait\nen avoir gratuitement à la rivière!"
    }
  },
  {
    "label": "016",
    "attribute": "0x0000000000000000",
    "locale": {
      "CNzh": "今天龙克斯\n来我们了呢～\n你别看他外表那样，\n其实是一个很温柔的人哦～。",
      "EUde": "Carlson ist heute zu Besuch.\nAm Anfang hatte ich etwas Angst\nvor ihm...\nAber dann hab ich gemerkt, dass\ner richtig nett ist, (Floskel)!",
      "EUen": "Flick is visiting today.\nI promised the bugs in my house\nthat I wouldn't sell them to him.\nYa don't sell your friends.\nThat's suuuuper uncool.",
      "EUes": "¡Kamilo está hoy en la isla!\nSeguro que le encantan los bichos\nque tenemos por aquí.\nA mí me gustaría venderle alguno\ny sacarme unas bayas, pero es que\nlos cazo, nos hacemos amigos y ya...",
      "EUfr": "Djason est en visite sur l'île,\naujourd'hui.\nMais je lui vendrai jamais les insectes\nqui vivent chez moi. Vendre ses amis,\nça se fait pas ! Non, monsieur !",
      "EUit": "Oggi Ivano è sull'isola. È un\ngrandissimo compratore\ndi insetti!\nE anche se non sembra a prima\nvista, sotto sotto è un pezzo di\npane. Mmmh... Paaane...",
      "EUnl": "Flick is er vandaag. Ik heb de\nbeestjes thuis beloofd dat ik ze\nniet aan hem zal verkopen.\nJa, want vrienden verkoop je niet,\nweet je. Dat zou onaardig zijn!",
      "EUru": "Флик сегодня здесь.\nЯ обещал моим жукам, что\nя их ему не продам.\nДрузей не продают. Это вообще\nне круто.",
      "JPja": "今日は　レックスくんが\nに　来てるんだぁ～\nあのコ　見かけによらず\nホントは　やさしいんだよねぇ～、",
      "KRko": "오늘은 레온이\n에 와 있어～\n걔 엄청 다정한 아이야아～\n겉모습만 보고 판단하면\n안 된다구우～ !",
      "TWzh": "今天龍克斯來島上了喔～\n不要看他那樣，\n其實他可是很溫柔的～。",
      "USen": "Flick is visiting today.\nI promised the bugs in my house\nthat I wouldn't sell them to him.\nYa don't sell your friends.\nThat's suuuuper uncool.",
      "USes": "¡Kamilo está hoy en la isla!\nSeguro que le encantan los insectos\nque tenemos por aquí.\nYo quisiera llevarle alguno para ganar\nunas bayas, pero es que los atrapo, nos hacemos amigos y ya...",
      "USfr": "Djason est en visite sur l'île,\naujourd'hui.\nMais je lui vendrai jamais les insectes\nqui vivent chez moi. Vendre ses\namis, ça se fait pas! Non, monsieur!"
    }
  },
  {
    "label": "017",
    "attribute": "0x0000000000000000",
    "locale": {
      "CNzh": "薛革好像现在在广场哦～\n不知道今天会有些什么商品呢？\n待会儿去看看吧～！。",
      "EUde": "Schubert ist auf dem Festplatz! Was\ner wohl Cooles für uns im Gepäck\nhat? Das muss ich mir mal ansehen!",
      "EUen": "Kicks is here visiting! I wonder what\ncool stuff he's got today? I'm gonna\ngo look later, !",
      "EUes": "¡Betunio está aquí de visita!\n¿Qué cosas molonas tendrá?\nLuego voy a ver, (catchphrase)...",
      "EUfr": "Blaise est sur l'île en ce moment !\nIl faudra que j'aille voir ce qu'il a de\ncool à proposer, aujourd'hui !",
      "EUit": "Sciuscià è qui  ! Avrà sicuramente portato con sé qualcosa di fortissimo.\nPiù tardi vado a dare un'occhiata, !",
      "EUnl": "Kicks is op het eiland! Wat voor coole\ndingen zou hij vandaag hebben? Ik\nga straks eens kijken, !",
      "EUru": "К нам приехал Кикс! Интересно,\nчто он привез? Пойду загляну\nк нему попозже. !",
      "JPja": "今、広場に　シャンクさんが　来てるみたい～\n今日は　どんなステキなモノが　あるのかなぁ\nあとで　チェックしに行こ～っと！　",
      "KRko": "지금 광장에 패트릭 아저씨가 와 있어～\n오늘은 얼마나 멋진 신발이 있을까아?\n이따 구경하러 가야지이～! !",
      "TWzh": "薛革現在好像在廣場耶～\n不知道今天會有什麼好東西呢～？\n等一下去看看好了～！。",
      "USen": "Kicks is here visiting! I wonder what\ncool stuff he's got today? I'm gonna\ngo look later, !",
      "USes": "¡Betunio está aquí de visita!\n¿Qué cosas geniales tendrá?\n¡Debo descubrirlo, (catchphrase)!",
      "USfr": "Blaise est sur l'île en ce moment!\nIl faudra que j'aille voir ce qu'il a de\ncool à proposer, aujourd'hui!"
    }
  },
  {
    "label": "018",
    "attribute": "0x0000000000000000",
    "locale": {
      "CNzh": "刚才我看到傅珂了～\n她好像特别喜欢\n这座的星空呢～。",
      "EUde": "Eben hab ich Eufemia gesehen! Sie\nliebt es, von unserer Insel aus die\nSterne anzugucken, (Floskel).",
      "EUen": "I saw Celeste! She's here! She likes\nthe stars almost as much as I like\n, .",
      "EUes": "¡He visto a Estela! ¡Está por aquí!\nA ella le gustan las estrellas casi\ntanto como a mí ...",
      "EUfr": "J'ai vu Céleste ! Elle est sur l'île !\nElle aime les étoiles presque autant\nque j'aime .",
      "EUit": "Ho appena visto Celeste! \nAma le stelle tanto quanto io amo\n!",
      "EUnl": "Celeste is hier! Ze houdt bijna net zoveel van sterren als ik van , .",
      "EUru": "Я тут Селесту встретил! Ей нравятся\nзвезды... Так же, как мне нравится\n. .",
      "JPja": "さっき　フーコさんを　見かけたんだぁ～\nあのコ、このの　お星さまが\nとっても　お気に入りみたいだねぇ、",
      "KRko": "아까 부옥이를 봤어～\n걔는 이 에서 보는 별님을\n정말정말 좋아하나 봐아～ !",
      "TWzh": "剛才我看到了傅珂喔～\n她好像很喜歡\n從這座島上看到的星星耶～。",
      "USen": "I saw Celeste! She's here! She likes\nthe stars almost as much as I like\n, .",
      "USes": "¡Vi a Estela! ¡Está de visita!\nA ella le gustan las estrellas casi\ntanto como me gustan los churros...",
      "USfr": "J'ai vu Céleste! Elle est sur l'île!\nElle aime les étoiles presque autant\nque j'aime ."
    }
  },
  {
    "label": "019",
    "attribute": "0x0000000000000000",
    "locale": {
      "CNzh": "我刚才散步的时候，\n听到有什么东西在弹跳，\n发出哒哒的响声……\n但始终没弄明白\n声音的来源……\n到底会是什么呢～？。",
      "EUde": "Eben hab ich beim Rumspazieren so\nkomische Hüpfgeräusche gehört.\nBoing, (Floskel), boing...\nAber als ich geguckt habe, war der\nVerursacher auch schon weggehüpft.\nWer kann das gewesen sein???",
      "EUen": "I was hanging out with folks over at\nResident Services when everyone\nheard a funny hoppity noise.\nSo I said I'd be right back and went\nto investigate aaaaaaaall by myself!\nIt was kinda dark and it was\nsuper-duper quiet out there\n'cause nobody was around...\nBut then I heard the noise again...\nRIGHT BEHIND ME!\nThat's when I started running back to\nResident Services, but then I tripped!\nAnd that's why my foot hurts. So\nwhat's new with you, (catchphrase)?",
      "EUes": "Estaba anoche en la plaza con\nalgunos vecinos cuando se escuchó\nun ruido... ¡como de saltitos!\nEntonces me vine arriba cual héroe\nde cómic y dije que iba yo\na investigar qué era.\nEstaba todo tan oscuro y silencioso\nque me empezó a dar mal rollo\ny decidí volver.\nPero, justo cuando me di la vuelta,\nvolví a oír el ruido... ¡detrás de mí!\nDel susto salí pitando hacia la plaza,\npero tropecé y me hice daño en la\npata.\nY esa es mi emocionante historia.\n¿Qué te ha parecido? ¿A que daría\npara una peli?",
      "EUfr": "Je me baladais du côté du bureau\ndes résidents avec les copains-\ncopines, et on a entendu un bruit...\nUn « boing boing » très intrigant...\nDu coup, je sors ma loupe des\ngrands jours pour mener l'enquête...\n... je suis là, à scruter chaque\nrecoin d'herbe dans l'obscurité\net le silence...\nQuand BOING ! Ça recommence\nJUSTE DERRIÈRE MOI !\nÉvidemment, je me mets à cavaler\nsans demander mon reste et paf,\nje me retrouve le nez par terre !\nEt c'est comme ça que je me suis\nfait mal à la patte. Et toi, quoi de neuf, (expression) ?",
      "EUit": "Ero al centro servizi con alcuni amici,\nquando abbiamo sentito un allegro\nrumore di salti.\nIncuriosito, mi sono allontanato per\ndare un'occhiata...\nEra buio e non volava una mosca\nperché non c'era anima viva. Ma poi\nho sentito di nuovo quel rumore...\nPROPRIO DIETRO DI ME!\nA quel punto, mi sono precipitato\ndi nuovo al centro servizi, ma sono\ninciampato e sono piombato a terra!\nEd ecco perché mi fa male la zampa.\nTu invece che mi racconti di bello,\n?",
      "EUnl": "Ik was aan het babbelen bij de\nservicebalie toen iedereen ineens\neen soort, eh... huppelgeluid hoorde.\nDus toen ben ik helemaal in m'n up\nop onderzoek uitgegaan!\nHet was al best donker en superstil,\nomdat er niemand was...\nToen hoorde ik het geluid weer...\nPAL ACHTER ME!\nIk begon terug te rennen naar het\nplein, maar toen struikelde ik!\nEn daarom doet mijn voet zeer. Maar\nhoe gaat het met jou, (catchphrase)?",
      "EUru": "Я рассказывал всем про вкусняшки\nу бюро услуг, но вдруг раздался\nстранный «прыгающий» звук.\nЯ сказал, что скоро вернусь...\nи отважно пошел расследовать!\nБыло довольно темно и очень тихо,\nпотому что никого рядом не было...\nИ тут я снова услышал этот звук...\nУ меня за спиной!!!\nЯ так быстро побежал обратно\nк бюро услуг, что споткнулся\nи упал!\nИ теперь у меня нога болит.\nА у тебя что нового? (catchphrase)!",
      "JPja": "さっき　おさんぽしてたらね、\n何かが　とびはねてるような音が\n聞こえてきたんだぁ、ぴょんぴょんって・・・\nけっきょく　音の正体は　わかんなくて\nナゾのままなんだけど・・・\nいったい　なんだったんだろ～？　",
      "KRko": "아까 산책을 하던 도중에\n무언가가 튀어오르는 소리가\n들리더라구우... 뿅뿅 하고...\n그런데 결국\n소리의 정체는 밝히지 못했어...\n그건 대체 뭐였을까～? ～",
      "TWzh": "剛剛我在散步的時候，\n聽到有東西在蹦蹦跳。\n蹦～蹦……\n結果我還是不知道那個聲音是什麼，\n心中一直存留著疑問……\n到底是什麼呢～？。",
      "USen": "I was hanging out with folks over at\nResident Services when everyone\nheard a funny hoppity noise.\nSo I said I'd be right back and went\nto investigate aaaaaaaall by myself!\nIt was kinda dark and it was\nsuper-duper quiet out there\n'cause nobody was around...\nBut then I heard the noise again...\nRIGHT BEHIND ME!\nThat's when I started running back to\nResident Services, but then I tripped!\nAnd that's why my foot hurts. So\nwhat's new with you, (catchphrase)?",
      "USes": "Anoche estaba en la plaza con\nlos vecinos cuando se escuchó\nun ruido... ¡como de saltitos!\nEntonces me sentí como un héroe\nde cómic y me fui a investigar\nqué era yo solito.\nPero todo estaba tan oscuro y\nsilencioso que me empezó a dar\nun poco de miedito... y quise volver.\nPero, justo cuando me di la vuelta,\noí el ruido otra vez... ¡detrás de mí!\nDel susto salí corrieeeendo a la\nplaza, pero me tropecé y me lastimé\nla piernita.\nY esa es mi historia.\n¿Te pareció emocionante?\n¿Como una peli de miedo?",
      "USfr": "Je me baladais du côté du bureau\ndes résidents avec les copains-\ncopines, et on a entendu un bruit...\nUn « boing boing » très intrigant...\nDu coup, je sors ma loupe des\ngrands jours pour mener l'enquête...\n... je suis là, à scruter chaque\nrecoin d'herbe dans l'obscurité\net le silence...\nQuand BOING! Ça recommence\nJUSTE DERRIÈRE MOI!\nÉvidemment, je me mets à courir\nsans demander mon reste et paf,\nje me retrouve le nez par terre!\nEt c'est comme ça que je me suis\nfait mal à la patte. Et toi, quoi de neuf, (expression)?"
    }
  },
  {
    "label": "020",
    "attribute": "0x0000000000000000",
    "locale": {
      "CNzh": "现在，然然正在广场上呢～\n不知道今天会有些什么样的花呢？\n待会儿我也要去看一看～。",
      "EUde": "Ich hab gehört, dass Gerd hier auf\nunserer Insel sein soll! Der hat immer\nso schöne Blümchen, (Floskel).",
      "EUen": "I got a tip from my bug friends that\nLeif is here! They want me to find out\nwhat flowers he's got, (catchphrase).",
      "EUes": "Sabes que Gandulio está en la isla,\n¿no? ¿No? ¿No lo sabes o no está?\n¡Que sí está, no me líes!\nNo es culpa tuya, me lío yo solo.\nEn fin, que si quieres ver qué flores\ntiene... Pues eso, .",
      "EUfr": "Mes copains les insectes m'ont dit\nque Racine était là ! Je dois leur faire\nla liste de ses fleurs, (expression).",
      "EUit": "La fatina delle merendine mi ha\nconfidato che qui sull'isola c'è\nFlorindo!\nDevo scoprire quali fiori ha,\n.",
      "EUnl": "De beestjes zeggen dat Leif er is! Ze\nwillen dat ik voor ze uitzoek wat voor\nbloemen hij meeheeft, (catchphrase).",
      "EUru": "Мне тут друзья-жуки нашуршали,\nчто Лейф на острове! Им интересно,\nчто у него за цветы. (catchphrase).",
      "JPja": "今、広場に　レイジくんが　来てるよぉ\n今日は　どんなお花が　あるのかなぁ？\nあとで　見に行かなくっちゃねぇ、",
      "KRko": "지금 광장에 늘봉이가 와 있어～\n오늘은 어떤 꽃이 있을까?\n나중에 보러 가야겠다아～ !",
      "TWzh": "然然來到廣場了喔。\n不知道今天有怎樣的花？\n等等去看看好了，。",
      "USen": "I got a tip from my bug friends that\nLeif is here! They want me to find out\nwhat flowers he's got, (catchphrase).",
      "USes": "Sabes que Gandulio está en la isla,\n¿no? ¿No? ¿No lo sabes o no está?\n¡Que sí está, no me confundas!\nNo es culpa tuya, yo me confundo\nsolo. En fin, si quieres ver qué flores\ntiene... Pues ve, .",
      "USfr": "Mes amis les insectes m'ont dit\nque Racine était là! Je dois leur faire\nla liste de ses fleurs, (expression)."
    }
  },
  {
    "label": "021",
    "attribute": "0x0000000000000000",
    "locale": {
      "CNzh": "我刚才看到有个人睡在沙滩上呢～\n看着有些印象，\n但好像打扮和平时又不相同……",
      "EUde": "Am Strand liegt jemand rum und\nschläft! Und das bin ausnahmsweise\nmal nicht ich!\nIrgendwo hab ich das Gesicht aber\nschon mal gesehen...",
      "EUen": "There's someone asleep on the\nbeach right now! And it's not me!\nHe IS familiar though...",
      "EUes": "¡Hay alguien durmiendo en la playa!\n¡Y no soy yo! ¡Alguien me está\nusurpando!\nY el caso es que su cara me suena...\n¿Igual está usurpando a otro, ?",
      "EUfr": "Quelqu'un fait une sieste sur la plage\nen ce moment même ! Et ce n'est pas\nmoi ! Ceci dit, il m'est familier...",
      "EUit": "C'è qualcuno che sta schiacciando un\npisolino in spiaggia... e non sono io!\nPerò ha un'aria molto familiare...",
      "EUnl": "Er ligt iemand op het strand te\nslapen! En ik ben het niet! Maar hij\nkwam me wel bekend voor...",
      "EUru": "У нас на пляже кто-то спит! И это\nдаже не я! Но я его где-то видел...",
      "JPja": "さっき、はまべで　ねてるヒトが　いたんだぁ\n見たことある　気もするけど、\nいつもとカッコウが　ちがってたかも・・・",
      "KRko": "아까 바닷가에 누가 자고 있더라구우～\n아는 사람인 것 같기도 한데\n평소랑 옷차림이 좀 다르더라아...",
      "TWzh": "剛剛有人在海邊睡覺耶。\n好像在哪裡見過，\n但又跟我印象中的樣子有點不同……",
      "USen": "There's someone asleep on the\nbeach right now! And it's not me!\nHe IS familiar though...",
      "USes": "¡Hay alguien durmiendo en la playa!\n¡Y no soy yo! ¡Alguien quiere\n\"usuerpar\" mi cargo!\nY además su cara me parece\nconocida... ¿Y si está \"usuerpando\"\na otro además de mí?",
      "USfr": "Quelqu'un fait une sieste sur la plage\nen ce moment même! Et ce n'est pas\nmoi! Ceci dit, il m'est familier..."
    }
  },
  {
    "label": "022",
    "attribute": "0x0000000000000000",
    "locale": {
      "CNzh": "今天有K.K.的演唱会哦！\n说起来，在之前的演唱会上，\n我请他随意演唱一首，\n他竟然唱了新作给我听呢～！\n那首曲子的名字\n好像是叫。\n这次我要不要再拜托他试试呢？。",
      "EUde": "K.K. ist ein cooler Kerl, oder? Und er\ngibt sogar später ein Konzert hier,\nmit Musikwünschen und so.\nMich hat er mal gefragt, ob er mir\nwas Besonderes spielen soll, aber\nmir ist nix eingefallen. Äh, he he he.\nWar aber auch egal. K.K. hat nicht\nlange gefackelt und sein neues Lied\n gespielt.\nDas war sooo toll... Bei seinem\nnächsten Auftritt musst du dir das\nuuunbedingt auch wünschen!",
      "EUen": "K.K.'s cool, right? And he's doing a\nconcert here, right? And he takes\nrequests, riiiiight? A huh huh...\nOK, the other day he asked me what I\nwanted to hear, and I got so nervous\nall I did was giggle, .\nExcept he doesn't have any all-giggle\nsongs, so he played a new one called\n instead!\nIt was the third-best thing giggling\never got me! Promise you'll request\nthat song next time, OK?",
      "EUes": "Totakeke mola, ¿a que sí? Hoy da un\nconcierto aquí y acepta peticiones,\n¿lo sabías? Jus, jus, jus...\nEl otro día me preguntó si quiero que\ntoque algo en especial... Me puse tan\nnervioso que me quedé mudo.\nTuve miedo de que pensara que\nno conozco sus canciones, .\nPero, como es tan majo, me dejó\nescuchar un poco de su nuevo éxito:\n¡!\nNo sé de dónde saca la inspiración\npara los títulos, pero quédate con el\nnombre para pedírsela cuando toque.",
      "EUfr": "Kéké, il est cool, hein ? Et il va faire\nun concert ici, hein ? Et il accepte\nles requêtes, heiiiin ? Hé hé hé...\nEn fait, l'autre jour, il m'a demandé\nsi je voulais qu'il joue quelque chose,\nje me suis mis à ricaner bêtement.\nJ'avais l'air si désemparé qu'il a eu\npitié de moi, et a joué son nouveau\ntitre,  !\nFinalement, j'ai bien fait de ricaner...\nparce que c'est une super chanson !\n... Tu pourras la lui demander ?",
      "EUit": "K.K. è troppo forte, no? E terrà un\nconcerto qui, dico bene? E accetterà\nrichieste, giusto? Uauuu...\nVedi, l'altro giorno mi ha chiesto se\nvolevo ascoltare una sua canzone e\ndall'emozione mi è caduto lo snack.\nPurtroppo non aveva brani su snack\nperduti, quindi ne ha suonato uno\nnuovo: !\nEra una melodia talmente bella che\nmi ha fatto subito dimenticare quello\nche era successo al mio amato cibo.\nPromettimi che la prossima volta\nrichiederai quella canzone, OK?",
      "EUnl": "K.K. is cool, hè? En hij geeft een\nconcert hier, hè? En hij doet\nverzoeknummers, hè? Ahaha...\nHij vroeg me laatste wat ik wilde\nhoren en ik werd zo nerveus dat\nik alleen nog maar kon giechelen.\nMaar hij heeft geen liedjes met\ngegiechel, dus daarom speelde hij\n\"⁠⁠\"!\nDat was het op twee na beste wat ik\nooit door te giechelen heb gekregen!\nJe moet echt om dat liedje vragen!",
      "EUru": "К. К. классный, правда? И он здесь\nвыступает, правда классно? И даже\nиграет по заявкам! У-ху-ху...\nОн недавно спросил меня, какую\nпесню я хочу, а я так волновался,\nчто стоял и хихикал. !\nПравда, песни «Хи-хи-хи» у него\nне было, так что он сыграл новую,\n«»!\nВ первый раз хихиканье мне так\nпомогло! Не считая других двух раз.\nПопроси у него эту песню, ладно?",
      "JPja": "今日は　とたけけさんのライブがあるよぉ！\nそういえば　この前のライブのときに\nおまかせで　曲をおねがいしたらね、\n新しい曲を　きかせてくれたんだよ～！\nたしか　曲の名前は\nだったっけ\nまた　おねがいしてみようかなぁ、",
      "KRko": "오늘은 K.K.가 라이브하는 날이야!\n그러고 보니까 지난번에 라이브할 때\n아무거나 불러달라고 부탁했더니\n새로운 노래를 불러주더라구우～!\n우웅～ 노래 제목이 뭐더라아...?\n이다!\n또 부탁해볼까 봐아～ ～",
      "TWzh": "今天有K.K.的演唱會喔！\n話說我之前演唱會時，\n將演唱曲目交給他決定，\n結果他唱了新歌給我聽囉～！\n我記得那首歌好像叫\n，\n我要不要再來點一次看看呢，。",
      "USen": "K.K.'s cool, right? And he's doing a\nconcert here, right? And he takes\nrequests, riiiiight? A huh huh...\nOK, the other day he asked me what I\nwanted to hear, and I got so nervous\nall I did was giggle, .\nExcept he doesn't have any all-giggle\nsongs, so he played a new one called\n instead!\nIt was the third-best thing giggling\never got me! Promise you'll request\nthat song next time, OK?",
      "USes": "Totakeke es genial, ¿verdad?\n¿Ya sabías que hoy va a dar un\nconcierto aquí?\nEl otro día me preguntó si tenía una\npetición especial... Me emocioné\ntanto que me quedé mudo.\nLuego tuve miedo de que pensara\nque no conozco sus canciones,\n(catchphrase).\nPero como es tan genial, me dejó\nescuchar su nuevo éxito:\n¡!\nNo sé cómo inventa canciones\nque suenan tan bien en los oídos. Deberías pedirle que la toque.",
      "USfr": "Kéké, il est cool, hein? Et il va faire\nun concert ici, hein? Et il accepte\nles requêtes, heiiiin? Hé hé hé...\nEn fait, l'autre jour, il m'a demandé\nsi je voulais qu'il joue quelque chose,\nje me suis mis à ricaner bêtement.\nJ'avais l'air si désemparé qu'il a eu\npitié de moi, et a joué son nouveau\ntitre, !\nFinalement, j'ai bien fait de ricaner...\nparce que c'est une super chanson!\n... Tu pourras la lui demander?"
    }
  },
  {
    "label": "023",
    "attribute": "0x0000000000000000",
    "locale": {
      "CNzh": "今天K.K.在开演唱会哦～！\n对了，你听过了吗？\nK.K.的新作——\n！\n这首曲子很棒的，\n你也去点歌，\n请他唱给你听吧～。",
      "EUde": "Du magst doch coole Sachen, oder?\nK.K. gibt nämlich heute wieder ein\nrichtig cooles Konzert, (Floskel)!\nHast du schon sein neues, cooles\nLied gehört? Das ist richtig, richtig,\näh... cool.\nAllein schon der Name!\n! Auf so was muss man erst mal kommen!\nVOLL COOL! Den Namen solltest\ndu dir merken, wenn du ihn\ndir auch mal wünschen willst!",
      "EUen": "You like cool stuff, don't you? 'Cause\nK.K.'s doing a super-cool show here\ntoday, .\nAnd have you heard K.K.'s cool, new\nsong? It's really, really, REALLY, uh...\ncool.\nIt's even got a super-cool name if\nyou wanna request it. He named it...\n!\nTHAT'S SO COOL!",
      "EUes": "¿Te gustan los espectáculos?\nPorque el concierto de Totakeke\nes espectacular, .\n¿Y has oído ya la nueva canción?\nEs realmente, sin ninguna duda...\nespectacular.\nSí, repito mucho esa palabra,\npero es que el adjetivo «épico»\nestá todavía más gastado.\nTotal, que la canción se llama...\n¡!\n¡Un título épico y espectacular!",
      "EUfr": "Tu aimes les trucs cool, toi, non ?\nParce que Kéké va se produire en live\nici aujourd'hui même, .\nEn plus, il a une nouvelle chanson !\nTu l'as déjà entendue ? Elle est trop,\ntrop, TROP, euh... cool.\nD'ailleurs, elle a même un nom super\ncool, au cas où tu veux lui demander.\n !\nTROP COOOOL !",
      "EUit": "Tu adori le cose mitiche, no? Beh,\nsappi che oggi K.K. terrà un concerto\nsupermitico da noi, .\nE hai sentito la sua nuova mitica\ncanzone? È davvero, davvero, ehm...\nmitica.\nHa anche un titolo ultramitico, se\nla vuoi richiedere. L'ha chiamata...\n!\nMiticissimo, non è vero?!",
      "EUnl": "Jij houdt van coole dingen, toch? Want K.K geeft vandaag een supercoole show, .\nEn heb je K.K.'s coole nieuwe liedje\nal gehoord? Het is echt heel ERG,\neh... cool.\nJe moet erom vragen! Het heeft ook een coole naam... \"⁠⁠⁠⁠\"!\nSUPERCOOL!",
      "EUru": "Тебе же нравятся классные штуки?\nПотому что К. К. сегодня устраивает\nклассный концерт! !\nА ты слышал его новую классную\nпесню? Она очень, очень, очень...\nклассная.\nИ у нее даже такое классное\nназвание! Он назвал ее...\n«»!\nЭто та-а-ак классно!!!",
      "JPja": "今日は　とたけけさんのライブ　やってるねぇ\nそういえば、キミは　もう　きいた？\nとたけけさんの　新しい曲、\n！\nとっても　ステキな曲だから、\nキミも　リクエストして\nきかせてもらうと　いいよぉ～、",
      "KRko": "오늘은 K.K.의 라이브 날이야아\n있지이, 그거 들어봤어?\nK.K.의 새로운 노래\n 말야!\n엄～청 좋은 노래니까\n꼭 신청해서 들어봐아～ ～",
      "TWzh": "今天K.K.有辦演唱會喔。\n話說你已經聽過\nK.K.的那首新歌了嗎？\n就是那首！\n那是一首很棒的歌，\n你也點來聽聽看吧～。",
      "USen": "You like cool stuff, don't you? 'Cause\nK.K.'s doing a super-cool show here\ntoday, .\nAnd have you heard K.K.'s cool, new\nsong? It's really, really, REALLY, uh...\ncool.\nIt's even got a super-cool name if\nyou wanna request it. He named it...\n!\nTHAT'S SO COOL!",
      "USes": "¿Te gustan las cosas espectaculares?\nPorque el concierto de Totakeke\nes espectacular, .\n¿Ya escuchaste su nueva canción?\nEsa sí que es muy pero muy...\nespectacular.\nYa sé que estoy diciendo mucho esa\npalabra, pero es que no se me ocurre\notra forma de decirlo.\nAhora te diré cómo se llama, así que\nabre bien las orejas. Se llama...\n¡!\n¡Qué espectacular!",
      "USfr": "Tu aimes les trucs cool, toi, non?\nParce que Kéké va se jouer en direct\nici aujourd'hui même, .\nEn plus, il a une nouvelle chanson!\nTu l'as déjà entendue? Elle est trop,\ntrop, TROP, euh... cool.\nD'ailleurs, elle a même un nom super\ncool, au cas où tu veux lui demander.\n!\nTROP COOOOL!"
    }
  },
  {
    "label": "100",
    "attribute": "0x0000000000000000",
    "locale": {
      "CNzh": "刚才上有一个\n我从没见过的人呢～\n那人到底是谁呀～？。",
      "EUde": "Ich hab gerade eben eine neue\nPerson auf der Insel gesehen!\nIch hab richtig Angst bekommen!\nUnd dann hab ich mich versteckt!\nMeinst du, du könntest rausfinden,\nwer das ist?",
      "EUen": "I saw a new person on the island\njust now!\nI got all scared! And I hid!\nCan you maybe find out who\nthey are?",
      "EUes": "Acabo de encontrarme con alguien\nque no conozco...\n¡Así que me entró un poco de miedo\ny me escondí!\n¿No te importaría ir a comprobar\nquién era?",
      "EUfr": "Je viens de voir quelqu'un que j'avais\njamais vu sur l'île avant !\nMais j'étais trop nerveux pour aller\nlui parler et je me suis caché !\nDis, (surnom), tu voudrais pas aller voir qui c'est à ma place ?",
      "EUit": "Ho appena visto un muso nuovo\nsull'isola!\nMi sono nascosto subito. Scopri\ntu di chi si tratta? Così dopo forse\nposso parlarci di fumetti e snack...",
      "EUnl": "Ik zag net een nieuw iemand op het\neiland!\nIk wist niet wat ik moest doen, dus\nik heb me verstopt!\nKun jij misschien gaan kijken wie het\nis?",
      "EUru": "Только что видел незнакомое лицо!\nТак испугался, что даже спрятался!\nМожет, ты узнаешь, кто это был?",
      "JPja": "さっき　の中に\nはじめて見るヒトが　いたんだよぉ～\nだれだったのかなぁ～、",
      "KRko": "아까 에\n처음 보는 사람이 있더라아～\n누구였을까～? ?",
      "TWzh": "剛才啊，\n我在島上看見一個陌生人～\n不知道是誰呢～。",
      "USen": "I saw a new person on the island\njust now!\nI got all scared! And I hid!\nCan you maybe find out who\nthey are?",
      "USes": "Acabo de encontrarme con alguien\nque no conozco...\n¡Pero me dio pena y me escondí!\n¿Podrías ir a comprobar quién era?",
      "USfr": "Je viens de voir quelqu'un que j'avais\njamais vu sur l'île avant!\nMais j'étais trop nerveux pour aller\nlui parler et je me suis caché!\nDis, (surnom), tu voudrais pas aller voir qui c'est à ma place?"
    }
  }
]