﻿[
  {
    "label": "001",
    "attribute": "0x0000000000000000",
    "locale": {
      "CNzh": "很快就要迎来的\n第一个大型活动了！\n上的大家都这么说呢～\n到底会是一个什么样的活动呢～？\n我实在太好奇了，\n好奇得可能做梦都会梦到呢～。",
      "EUde": "Bald passiert etwas ganz Großes!\nUnd zum allerersten Mal passiert es\nauf .\nIch frage mich aber, was das sein\nwird... Ich hab vor Neugier und\nAufregung ganz doll wacklige Knie!",
      "EUen": "A big thing is happening soon!\nIt's gonna be the first time it\nhappens on .\nI wonder what kinda thing it is?\nI'm all curious-y inside—and also\nreal squishy—I'm so excited!",
      "EUes": "Algo gordo está a punto de pasar...\ny además va a ser la primera vez que\nsucede en .\nNo tengo claro qué será...\nTengo una mezcla de curiosidad\ny emoción que no veas...",
      "EUfr": "On raconte qu'il va y avoir un\névénement de taille très bientôt !\nUne grande première sur .\nC'est très intriguant, non ? Je suis\ncurieux de savoir ce que ce sera...\nJe tiens plus en place !",
      "EUit": "Sta per accadere qualcosa di grosso!\nQualcosa che non è mai successo\nprima  .\nChissà di che si tratta? Sono così\nagitato che ho finito la mia scorta\ndi snack di una settimana!",
      "EUnl": "Er gaat iets groots gebeuren! Het\nwordt een heel nieuw evenement\nvoor .\nIk vraag me af wat het precies is.\nIk ben niet alleen vol van snoep,\nmaar ook van nieuwsgierigheid!",
      "EUru": "Скоро наступит важный день! На\nострове  такое\nсобытие в первый раз.\nИнтересно, как все пройдет? Я так\nволнуюсь: мне и любопытно,\nи даже немножко страшно!",
      "JPja": "もうすぐ　で\nはじめての　大きなイベントがあるんだって\nのみんなが　言ってたよぉ～\nいったい　どんな　イベントなんだろぉ～？\nボク　気になりすぎて\nユメに　見ちゃいそうだぁ～、",
      "KRko": "이제 곧 에서\n처음으로 큰 이벤트가 열리나 봐아～\n온 이 떠들썩하더라구우～\n대체 어떤 이벤트일까아～?\n넘 궁금해서 꿈에 나올 거 같애～ ～",
      "TWzh": "再過不久上\n就要舉辦第一次的大型活動喔～\n島上的大家都在討論這件事～\n到底會是什麼樣的活動呢～？\n搞不好我會因為太好奇，\n結果夢到活動的事喔～。",
      "USen": "A big thing is happening soon!\nIt's gonna be the first time it\nhappens on .\nI wonder what kinda thing it is?\nI'm all curious-y inside—and also\nreal squishy—I'm so excited!",
      "USes": "Algo importante va a pasar en\n por primera vez...\nNo sé lo que será... Lo que sí sé\nes que siento hormigas en la pancita\nde emoción y curiosidad...",
      "USfr": "On raconte qu'il va y avoir un\névénement de taille très bientôt!\nUne grande première sur .\nC'est très intriguant, non? Je suis\ncurieux de savoir ce que ce sera...\nJe tiens plus en place!"
    }
  },
  {
    "label": "002",
    "attribute": "0x0000000000000000",
    "locale": {
      "CNzh": "终于，就是明天～！\n上的首次大型活动就要开始了～！\n对于来说\n一定也是非常重要的一天吧～\n我非常期待呢～！。",
      "EUde": "Morgen ist es endlich so weit!\nAuf dieser Insel findet das erste\ngroße Fest statt!\nIch bin sicher, morgen wird in die Geschichte von  eingehen, (Floskel)!\nIch bin so aufgeregt, dass ich direkt\n3 Tüten Chips verputzen könnte!",
      "EUen": "Tomorrow's the big day! The first\nbig event on this island! Since your\narrival, I mean.\nI think tomorrow's gonna go down\nin  history. I'm so\nexcited, I might reverse eat!",
      "EUes": "¡Mañana es el gran día!\nEl primer gran evento en la isla...\ndesde que tú llegaste, claro.\nMañana será un día grande en la\nhistoria de .\n¡Intriga, dolor de barrigaaa!",
      "EUfr": "Demain, c'est le grand jour ! Il va\nenfin se passer un truc intéressant\nsur l'île ! Enfin, depuis ton arrivée !\nC'est une date historique, crois-moi.\nQuelle chance nous avons de vivre\nça en direct, toi et moi !",
      "EUit": "Domani è il gran giorno! Quello\ndel primo grande evento dell'isola...\ndopo il tuo arrivo, naturalmente.\nMa anche la giornata di domani sarà\nstorica per , ecco\ntutto. Ho già l'acquolina in bocca!",
      "EUnl": "Morgen is de grote dag! Het eerste\ngrote evenement op dit eiland! Sinds\njij er bent, bedoel ik.\nHet wordt vast een memorabele dag voor . Wie weet is er wel speciaal snoep!",
      "EUru": "Завтра важный день! На острове\nв первый раз такое большое\nмероприятие! С твоего приезда.\nЗавтрашний день войдет\nв историю острова\n.\nЯ так переживаю, меня даже\nтошнит от волнения!",
      "JPja": "いよいよ　明日だよぉ！\nで　はじめての　大きなイベントの日～！\nきっと　にとって\nだいじな日になると　思うんだぁ～\nボク、ワクワクが　とまらない～！　",
      "KRko": "드디어 내일이구나아～!\n에서 처음으로 큰 이벤트가 열리는 날～!\n분명  역사상\n중요한 날이 될 거야아～\n나 가슴이 넘 두근두근해～! !",
      "TWzh": "就是明天了耶！\n島上第一次舉辦大型活動的日子～！\n對來說，\n明天一定會變成很重要的日子～\n我真的好興奮喔～！。",
      "USen": "Tomorrow's the big day! The first\nbig event on this island! Since your\narrival, I mean.\nI think tomorrow's gonna go down\nin  history. I'm so\nexcited, I might reverse eat!",
      "USes": "¡Mañana es el gran día!\nEl primer gran evento en la isla...\ndesde que tú llegaste, claro.\nMarcará historia en .\n¡Ay, qué nervios!",
      "USfr": "Demain, c'est le grand jour! Il va\nenfin se passer un truc intéressant\nsur l'île! Enfin, depuis ton arrivée!\nC'est une date historique, crois-moi.\nQuelle chance nous avons de vivre\nça en direct, toi et moi!"
    }
  },
  {
    "label": "005",
    "attribute": "0x0000000000000000",
    "locale": {
      "CNzh": "这周六就是\n大家期待已久的\n钓鱼大赛了哦～！\n我的目标是\n钓到全最大的鱼～\n我是不会输给\n你的哦～！。",
      "EUde": "Kommenden Samstag ist das\nAngelturnier und das ist total\nsuper, oder?\nGanz bestimmt werde ich den aller-\ngrößten Fisch fangen! Ich angle für\nmein Leben gern!\nUnd wenn ich fertig bin, hab ich\nauch direkt ein leckeres Abend-\nessen! Äh, he he he!",
      "EUen": "This Saturday is the Fishing Tourney.\nThat's real cool, right?!\nI love fishing. It's real relaxing, and\nwhen you're done, ya got dinner!",
      "EUes": "Este sábado se celebra el Torneo\nde Pesca... ¡Qué emocióoon!\nVoy a pescar un pez de los gordos.\nA mí es que me encanta la pesca;\n¡te relaja y al final consigues\nhasta la cena!",
      "EUfr": "Samedi, c'est le tournoi de pêche,\nc'est pas cool, ça ?\nJe vais pêcher le plus gros poisson\nde l'île ! J'adore pêcher. C'est\ntellement zen, tellement reposant...",
      "EUit": "Sabato prossimo ci sarà il torneo\ndi pesca. Non vedo l'ora, catturerò\nun pesce gigantesco!\nLa pesca è mitica: ti diverti un sacco\ne nello stesso tempo puoi procurarti\nla cena!",
      "EUnl": "Komende zaterdag is het vistoernooi,\ngaaf hè? Ik ga de allergrootste vis\nvangen!\nVissen is gaaf. Je kunt er lekker bij\nrelaxen en als je klaar bent, heb je\nmeteen nieuwe vrienden!",
      "EUru": "В субботу турнир «Мастер удочки»,\nкак здорово!!!\nОбожаю рыбалку! И отдыхаешь,\nи рыбку кушаешь!",
      "JPja": "つぎの土曜日は\nみんなが　楽しみにしている\n釣り大会だよぉ～！\nボクは　一番の　大モノねらいで\nいくつもりなんだぁ～\nには\nまけないよぉ～、",
      "KRko": "다음 토요일은 모두가 기다리는\n낚시대회야아～!\n나는 에서 젤 커다란 물고기를\n목표로 삼을래～\n한테\n지지 않을 거라구우～ ～",
      "TWzh": "星期六是大家都很期待的\n釣魚大會喔～！\n我的目標是要釣到\n島上最大條的魚喔～\n我不會輸給\n的喔～。",
      "USen": "This Saturday is the Fishing Tourney.\nThat's real cool, right?!\nI love fishing. It's real relaxing, and\nwhen you're done, ya got dinner!",
      "USes": "Este sábado tendremos Torneo de\nPesca... ¡Qué emocióóón!\nVoy a pescar un pez de los gordos.\nEs que a mí me encanta la pesca;\n¡te da sueño y al final hasta\nconsigues la cena!",
      "USfr": "Samedi, c'est le tournoi de pêche,\nc'est pas génial, ça?\nJe vais pêcher le plus gros poisson\nde l'île! J'adore pêcher. C'est\ntellement zen, tellement reposant..."
    }
  },
  {
    "label": "006",
    "attribute": "0x0000000000000000",
    "locale": {
      "CNzh": "终于～明天就是钓鱼大赛了呢～\n希望能钓到很多很多的鱼～！\n多到都不知道该怎么处理的量～\n我现在就开始兴奋了呢～\n看来今晚要睡不着了呀～。",
      "EUde": "Morgen findet das Angelturnier\nstatt! Ich fang hoffentlich boots-\nweise Fische!\nVerstanden? Boote und Fische?\nIch dachte, ich zeig mich mal von\nmeiner lustigen Seite. Äh, he he he...",
      "EUen": "Tomorrow's the Fishing Tourney!\nI hope I catch boatloads of fish!\nDid you get that joke? About boats\nand fish? I thought I'd try out some\njokes, a huh huh huh. Pretty good?",
      "EUes": "¡Mañana es el Torneo de Pesca! \n¡Pienso pescar de todo menos\nun resfriado!\nLo has pillado, ¿no?\nComo los resfriados también se\npescan... ¡Ay, que me troncho!",
      "EUfr": "Demain, c'est le tournoi de pêche !\nJ'espère que je vais attraper des\ncargos de poissons !\nT'as compris ma blague ? Un cargo,\nça va sur l'eau et les poissons, ça vit\ndans l'eau, et...\nOuais, c'était un peu nul, comme\nblague, en fait...",
      "EUit": "Domani c'è il torneo di pesca!\nSpero di prendere una barcata\ndi pesci!\nL'hai capita? Barcata... pesci...\nBella, eh? Potrei intraprendere\nla carriera di comico, non pensi?",
      "EUnl": "Het vistoernooi is morgen! Ik hoop\ndat ik niet achter het net vis!\nSnap je mijn grapje? Ik vond het zelf\nwel lollig, gheghe!",
      "EUru": "Завтра турнир «Мастер удочки»!\nНадеюсь, наловлю целое\nморе рыбы!\nПонимаешь мою шутку? Про море\nи рыбу. Да, решил пошутить,\nклассно же получилось? У-ху-ху!",
      "JPja": "いよいよ　明日は　釣り大会だよぉ～\nこまっちゃうくらい\nたくさん　釣れると　いいなぁ～\nボク　今から　ワクワクしちゃって、\n今夜は　ねむれそうにないよぉ～、",
      "KRko": "드디어 내일이 낚시대회야아～\n너무 많아서 깜짝 놀랄 만큼\n많이많이 잡으면 좋겠다아～\n나 벌써부터 두근거려서\n밤에 잠도 안 올 것 같애～ ～",
      "TWzh": "明天就是釣魚大會了耶～\n如果可以釣到很多魚，\n多到不知道怎麼辦的話就好了～\n我可能會興奮到\n今天晚上睡不著耶～。",
      "USen": "Tomorrow's the Fishing Tourney!\nI hope I catch boatloads of fish!\nDid you get that joke? About boats\nand fish? I thought I'd try out some\njokes, a huh huh huh. Pretty good?",
      "USes": "¡Mañana es el Torneo de Pesca! \n¡Mi plan es pescar de todo, menos\nun resfriado!\n¿Le entendiste a mi chiste?\nComo los resfriados también se\npescan... Je, je, je.",
      "USfr": "Demain, c'est le tournoi de pêche!\nJ'espère que je vais attraper des\ncargos de poissons!\nT'as compris ma blague? Un cargo,\nça va sur l'eau et les poissons, ça vit\ndans l'eau, et...\nOuais, c'était un peu nul, comme\nblague, en fait..."
    }
  },
  {
    "label": "007",
    "attribute": "0x0000000000000000",
    "locale": {
      "CNzh": "这周六就是大家\n期待已久的捕虫大赛了～！\n要一整天带着捕虫网\n在上到处寻找目标呢～\n诶嘿嘿～有点像去郊游的感觉～\n零食我也都准备好了，\n我已经开始迫不及待啦～。",
      "EUde": "Diesen Samstag ist das Insektikus-\nTurnier. Da hab ich schon ewig\ndrauf gewartet!\nIch werde DEN GANZEN TAG mit\nmeinem Netz herumlaufen! Das\nwird einfach toll!",
      "EUen": "This Saturday is the Bug-Off! Some\nof my best friends are bugs. They're\ngood talkers and tell funny jokes!",
      "EUes": "Este sábado tenemos la Caza de\nBichos. ¡Parece que han pasado\nsiglos desde la última!\nMe lo voy a pasar bomba\npaseándome todo el día\nred en ristre...",
      "EUfr": "Samedi, c'est l'insectosafari !\nJ'ai l'impression que le dernier était\nil y a une éternité...\nJe vais pouvoir me promener partout\nsur l'île avec mon joli filet !",
      "EUit": "Sabato c'è l'Insettomania! Sembra\nche siano passati secoli dall'ultima\nedizione.\nMi porterò dietro il retino per tutto\nil giorno, !",
      "EUnl": "De Beestjesbeker is deze zaterdag!\nHet lijkt wel eeeeuwen geleden sinds\nde vorige keer.\nIk hou mijn net mooi de hele dag in\nde aanslag!",
      "EUru": "В субботу турнир «Мастер сачка».\nТак давно его жду!\nВесь день буду ходить с сачком!!!",
      "JPja": "こんどの　土曜日は\nおまちかねの　ムシとり大会だよぉ～\nあみをもって　一日中\nの中を　歩き回るんだぁ～\nえへへ、ちょっと　遠足みたいだよねぇ\nおやつも　バッチリ　じゅんびしたし、\n今から　ウキウキしてきちゃったぁ、",
      "KRko": "이번 토요일은\n기다리고 기다리던 곤충채집대회야아～\n잠자리채를 들고 하루 종일\n온 을 돌아다녀야지이～\n에헤헤, 왠지 소풍 가는 거 같다아!\n간식도 많이 챙겼지롱～\n벌써부터 두근두근하다아～ !",
      "TWzh": "星期六是大家期待很久的\n捕蟲大會喔～\n到時候要一整天拿著網子\n在島上到處走來走去喔～\n欸嘿嘿，聽起來有點像遠足耶。\n我已經把點心都準備好了，\n我開始期待了，。",
      "USen": "This Saturday is the Bug-Off! Some\nof my best friends are bugs. They're\ngood talkers and tell funny jokes!",
      "USes": "Este sábado tenemos la Caza\nde Insectos. ¡Parece que pasaron\nsiglos desde la última!\n¡Prepara esa red!",
      "USfr": "Samedi, c'est l'insectosafari!\nJ'ai l'impression que le dernier était\nil y a une éternité...\nJe vais pouvoir me promener partout\nsur l'île avec mon joli filet!"
    }
  },
  {
    "label": "008",
    "attribute": "0x0000000000000000",
    "locale": {
      "CNzh": "终于～明天就是捕虫大赛了～！\n不知道能遇到什么样的虫子呢～？\n有点小期待呢～\n希望可以找到许许多多\n漂亮的、帅气的虫子～！。",
      "EUde": "Morgen ist endlich das Insektikus-\nTurnier. Was ich wohl für Käfer\ntreffen werde?\nBestimmt sind es total knuffige...\nKäfer sind fast alle richtig doll\nknuffig.\nAlso, wenn man sie erst mal näher\nkennenlernt! Äh, he he he...",
      "EUen": "Tomorrow's finally the Bug-Off.\nI wonder what kind of bugs I'll meet?\nPretty cool kinds, I'd guess...\nBugs are USUALLY pretty cool.\nOnce you get to know them.",
      "EUes": "¡Por fin mañana tenemos la Caza\nde Bichos! A ver los insectos\nque me encuentro...\n¡Ay, qué ganas tengo de conocerlos!",
      "EUfr": "Demain, c'est enfin l'insectosafari !\nJe me demande quel genre\nd'insectes je vais rencontrer...\nSûrement des insectes cool ! En\ngénéral tous les insectes sont cool,\nquand on apprend à les connaître.",
      "EUit": "Finalmente domani parte\nl'Insettomania.\nSicuramente catturerò degli insetti\nmitici! Del resto tutti gli insetti sono\nmitici... Beh, quasi!",
      "EUnl": "Morgen begint eindelijk de\nBeestjesbeker! Ik ben benieuwd wat\nvoor beestjes ik allemaal tegenkom.\nHet zullen sowieso coole beestjes\nzijn. Als je ze eenmaal leert kennen,\nzijn eigenlijk alle beestjes cool.",
      "EUru": "Завтра турнир «Мастер сачка».\nНаконец-то! Интересно, каких\nжуков я поймаю?\nНаверняка каких-нибудь классных...\nЖуки вообще все классные.\nКогда их получше узнаешь.",
      "JPja": "いよいよ　明日は　ムシとり大会～！\nどんな　ムシさんと　出会えるか\nワクワクしちゃうねぇ～\nキレイなのや　カッコイイの、\nたくさん　見つかると　いいなぁ～、",
      "KRko": "드디어 내일이 곤충채집대회야아～!\n어떤 곤충을 만날지\n두근두근 기대돼～\n예쁜 곤충이랑 멋진 곤충이랑\n많이많이 잡으면 좋겠다아～ !",
      "TWzh": "明天就是捕蟲大會了～！\n一想到不知道會遇到什麼樣的蟲蟲，\n就覺得很興奮耶～\n比如漂亮的蟲蟲，或是帥氣的蟲蟲，\n希望我可以找到很多蟲蟲～。",
      "USen": "Tomorrow's finally the Bug-Off.\nI wonder what kind of bugs I'll meet?\nPretty cool kinds, I'd guess...\nBugs are USUALLY pretty cool.\nOnce you get to know them.",
      "USes": "¡Al fin! ¡Mañana es la Caza\nde Insectos! No podré dormir\nde la emoción...\n¡Haré muchos amiguitos nuevos!",
      "USfr": "Demain, c'est enfin l'insectosafari!\nJe me demande quel genre\nd'insectes je vais rencontrer...\nSûrement des insectes cool! En\ngénéral tous les insectes sont cool,\nquand on apprend à les connaître."
    }
  },
  {
    "label": "016",
    "attribute": "0x0000000000000000",
    "locale": {
      "CNzh": "终于～明天就是\n期待已久的烟花大会了～！\n在夜空中绽放的无数烟花……\n嘻嘻，好期待啊～！。",
      "EUde": "Ich freu mich schon gaaanz dolle auf\ndas Feuerwerk morgen.\nDas wird wieder bunt und laut!\nWUUUSCH! PENG! KNUSPER,\nKNIRSCH, KNACK!\nHm? Ach sooo, das Geknuspere\nkommt von mir, weil ich dabei immer\ngern Chips mampfe. Äh, he he he.",
      "EUen": "I gotta say, I'm pretty excited for\nthe fireworks show tomorrow.\nIt's gonna be all...FWOOSH! BANG!\nCRUNCH! CRUNCH! CRUNCH!\nOh, the last part is me eating chips.\nA huh huh huh!",
      "EUes": "No puedo negar que los fuegos\nartificiales de mañana me están\nquitando el sueño por completo.\nSeguro que será un espectáculo\nexcepcional. ¡Fiuuu! ¡Pum! ¡Pam!\n¡CATAPUM!\nAún no he decidido con qué tipo de\ntapones protegeré del estruendo\nmis orejas. ¿Modelo clásico o retro?",
      "EUfr": "Si tu savais comme je suis impatient\nd'assister aux feux d'artifice de\ndemain !\nJ'adore quand ça fait... FIIII ! BOUM !\nCRUNCH ! CRUNCH ! CRUNCH !\nOh, à la fin, c'était moi en train de\nmanger des chips. Hé hé hé !",
      "EUit": "Devo dire che sono emozionato\nper lo spettacolo di fuochi artificiali\ndi domani.\nSarà un trionfo di... SWOOSH! BAM!\nGNAM! GNAM! GNAM!\nAh, l'ultima parte sono io che\nsgranocchio patatine. Ah ah ah!",
      "EUnl": "Ik kan niet wachten op de\nvuurwerkshow van morgen!\nDan gaat het zo van... Fjiiieeeoeeew!\nBAMMM! Kraak! Kraak! Kraak!\nDat laatste ben ik terwijl ik een zakje\nchips eet. Ahahaha!",
      "EUru": "Мне так не терпится посмотреть\nзавтрашний фейерверк!\nТам будет... Фьюить! Бабах!\nИ трабабах! Бдыщь! И пыщь!\nИ хрум-хрум-хрум!\nЕсли что, последняя часть —\nэто я озвучил, как буду там\nчипсы есть. У-ху-ху!",
      "JPja": "いよいよ　明日は\nおまちかねの　花火大会だよぉ～！\n夜空に　うち上がる　たくさんの花火・・・\nうふふ、楽しみだねぇ～！　",
      "KRko": "드디어 내일은\n기다리고 기다리던 불꽃축제야～!\n밤하늘에 피어나는 커다란 불꽃이랑,\n반짝반짝한 스파클러랑...\n헤헷, 너무 재밌겠다아～ !",
      "TWzh": "期待已久的煙火大會\n終於要在明天登場了喔～！\n大量的煙火朝著夜空發射……\n呵呵，真是令人期待～！。",
      "USen": "I gotta say, I'm pretty excited for\nthe fireworks show tomorrow.\nIt's gonna be all...FWOOSH! BANG!\nCRUNCH! CRUNCH! CRUNCH!\nOh, the last part is me eating chips.\nA huh huh huh!",
      "USes": "Estoy demasiado emocionado por\nlos fuegos artificiales de mañana.\nCuando cierro los ojos para imaginar\ncómo será solo escucho... ¡Fiuuu!\n¡Pum! ¡Pam! ¡CATAPUM!\nTambién imagino que al terminar\nel espectáculo como unas papitas\nmuy deliciosas.",
      "USfr": "Si tu savais comme je suis impatient\nd'assister aux feux d'artifice\nde demain!\nJ'adore quand ça fait... FIIII! BOUM!\nCRUNCH! CRUNCH! CRUNCH!\nOh, à la fin, c'était moi en train de\nmanger des chips. Hé hé hé!"
    }
  },
  {
    "label": "017",
    "attribute": "0x0000000000000000",
    "locale": {
      "CNzh": "明天，快乐家协会的人\n会来家里评分哦～！\n这次能得到几分呢……\n家里要被人看个精光，\n还真是让人紧张呀～\n不过我每周都很期待他们来的～！。",
      "EUde": "Morgen bekommen wir Besuch von\nder Akademie des schönen Hauses!\nWie viele Punkte ich wohl kriege?\nIch hoffe ja, es gibt Bonuspunkte für\neinen gut gefüllten Kühlschrank...",
      "EUen": "Tomorrow's the day the folks from\nHappy Home Academy come to visit!\nThe bugs in the floor always get\nexcited when the Happy Home Academy comes by!\nI wonder what score I'll get?",
      "EUes": "¡Mañana viene gente de la Academia\nde Artes Decorativas de visita!\n¿Me darán una buena puntuación?\nNo veas cómo me emociono cuando\nvienen a casa...",
      "EUfr": "Demain, on aura la visite de\nl'Académie des joyeux décorateurs !\nJ'espère que j'aurai une bonne note !\nMes amis les insectes se font\ntoujours une joie de ces visites !\nÇa leur fait de l'animation.",
      "EUit": "Domani vengono in visita quelli\ndell'Accademia delle Belle Case!\nChissà che voto mi daranno...\nQuando si avvicina questa data,\nperdo sempre il sonno e non riesco\na dormire più di dieci ore per notte...",
      "EUnl": "Morgen komt de commissie van de\nAcademie voor Wonderlijke Woningen\nlangs! Wat voor score zou ik krijgen?\nDe beestjes in de muren en de vloer\nvinden het altijd maar wát spannend\nals de commissie op bezoek komt!",
      "EUru": "Завтра из Академии домашнего\nуюта приедут проводить оценку.\nСколько же баллов я получу?\nМои жуки всегда рады Академии\nдомашнего уюта! Наверняка сразу\nвылезут из своих щелей.",
      "JPja": "明日は　ハッピーホームアカデミーのヒトが\nお家の点数を　はっぴょうする日だよぉ～\n今回は　何点もらえるかなぁ・・・\nお家を　丸ごと　見られちゃうなんて\nなんだか　キンチョーするけど、\nボク　毎週　楽しみにしてるんだぁ！　",
      "KRko": "내일은 해피홈 아카데미에서\n집을 보러 오는 날이야아～\n이번에는 몇 점 받을까아...\n집을 구석구석 살펴본다니까\n왠지 긴장되긴 하는데에\n그래도 매주 기대돼～! !",
      "TWzh": "明天是快樂家協會\n公布得分的日子喔～\n不知道這次會得幾分呢……\n一想到整間房子會被看光光，\n就覺得好緊張，\n不過我每個禮拜都很期待喔～！。",
      "USen": "Tomorrow's the day the folks from\nHappy Home Academy come to visit!\nThe bugs in the floor always get\nexcited when the Happy Home Academy comes by!\nI wonder what score I'll get?",
      "USes": "¡Mañana viene gente de la Academia de Artes Decorativas de visita! ¿Me darán una buena puntuación?\nLas hormigas que viven debajo\nde mi cama siempre se emocionan...",
      "USfr": "Demain, on aura la visite de\nl'Académie des joyeux décorateurs!\nJ'espère que j'aurai une bonne note!\nMes amis les insectes se font\ntoujours une joie de ces visites!\nÇa leur fait de l'animation."
    }
  },
  {
    "label": "018",
    "attribute": "0x0000000000000000",
    "locale": {
      "CNzh": "你已经看过快乐家协会的\n评分结果了吗～？\n我这次分数还不错哦～\n唔～哪怕只有一次机会也好！\n好想偷偷和来评分的人\n聊一聊啊～。",
      "EUde": "Hast du schon die Ergebnisse der\nAkademie des schönen Hauses\ngesehen?\nIn meinem stand „voll okay und so“,\nwenn ich mir das richtig gemerkt\nhabe.\nIch würde gerne mal die Leute\nkennenlernen, die diese\nBewertungen abgeben, (Floskel)!",
      "EUen": "Did ya see the results for Happy Home Academy already? Mine said,\n\"SO MANY BUGS!\" Which is cool.",
      "EUes": "¿Ya tienes los resultados de la\nAcademia de Artes Decorativas?\nYo creo que les dejé una buena\nimpresión... Espero.\nOjalá pudiese hablar con los\nque deciden...",
      "EUfr": "Alors, tu as vu le rapport de\nl'Académie des joyeux décorateurs ?\nPour ma maison, ils ont écrit :\n« Grouille d'insectes !!! »\nJ'avoue que je ne suis pas peu fier...",
      "EUit": "Hai visto i risultati della valutazione\ndell'Accademia delle Belle Case? La\nmia dice che è \"succulenta\". Mitico!\nMi fa proprio venire fam- ehm,\nvoglia di chiacchierare con i giudici,\n(catchphrase)...",
      "EUnl": "Heb je de beoordelingen van de\nAcademie voor Wonderlijke Woningen\nal gezien?\nOp die van mij stond \"Beestjes!\"\nGaaf dat ze daar zo enthousiast over\nzijn! Ik zou er graag eens verder over\nbabbelen met de jury...",
      "EUru": "Ты видел результаты оценки\nАкадемии домашнего уюта?\nПро мой дом написано: «Жуки».\nВот здорово!\nИнтересно было бы встретиться\nс судьями, поболтать с ними!",
      "JPja": "ハッピーホームアカデミーの　けっかは\nもう　見たぁ～？\nボクは　まぁまぁ　いいカンジだったかなぁ～\nうぅ～ん、一回でいいから\nこっそり　見に来てるヒトと　会って\nお話ししてみたいなぁ～、",
      "KRko": "해피홈 아카데미 결과\n혹시 봤어～?\n난 그럭저럭 괜찮은 거 같애～\n우웅～ 한 번이라도 좋으니까\n집을 보러 온 사람이랑 만나서\n얘기해보고 싶다아～ ～",
      "TWzh": "你已經看過\n快樂家協會的結果了嗎？\n我的分數應該算還不錯喔～\n嗯～只要一次就好，\n真希望能偷偷跟來看的人\n見面聊聊天～。",
      "USen": "Did ya see the results for Happy Home Academy already? Mine said,\n\"SO MANY BUGS!\" Which is cool.",
      "USes": "¿Ya tienes los resultados de la\nAcademia de Artes Decorativas?\nYo creo que les dejé una buena\nimpresión...\nOjalá pudiera hablar con los que\ndeciden...",
      "USfr": "Alors, tu as vu le rapport de\nl'Académie des joyeux décorateurs?\nPour ma maison, ils ont écrit :\n« Grouille d'insectes!!! »\nJ'avoue que je ne suis pas peu fier..."
    }
  },
  {
    "label": "019",
    "attribute": "0x0000000000000000",
    "locale": {
      "CNzh": "还有不久\n今年就要结束了呢～\n31日，元旦前夜，\n我一定要在倒计时活动的时候狂欢一下，\n然后正式和年告别～！。",
      "EUde": "Nicht mehr lange und das Jahr ist\nauch schon wieder futschikato.\nAm 31. findet der große Countdown\nstatt, um dem Jahr  Tschühüüs\nzu sagen, (Floskel)!",
      "EUen": "The year's over before too long.\nThe 31st is gonna be one big\nNew Year's Eve Countdown party,\nso we can say bye-bye to !",
      "EUes": "Este año se ha pasado volando...\n¡como Siestamán!\nEl 31 tenemos la cuenta atrás para\ndespedir el .",
      "EUfr": "La vieille année n'en a plus pour\ntrès longtemps.\nEn fait, le 31, c'est juste un long\ncompte à rebours de 24 heures\npour dire au revoir à  !",
      "EUit": "Un anno sta per lasciarci, quindi\nil minimo che possiamo fare...\n... è regalargli una bella festa\nd'addio il giorno 31! Dai, diciamo\ntutti insieme: \"Ciao, mitico !\"",
      "EUnl": "Het jaar is alweer bijna voorbij.\nOp 31 december gaan we een groot\naftelfeest houden tot het moment dat\nwe  mogen uitzwaaien!",
      "EUru": "Вот и год прошел.\n31-го числа будет большая\nвечеринка, будем провожать !",
      "JPja": "もう　あとちょっとで\n今年も　おわっちゃうねぇ～\n31日の　おおみそかは\nカウントダウンで　思いっきり　さわいで\n年と　おわかれするんだぁ、",
      "KRko": "이제 쫌만 있으면\n올해도 끝나는구나아～\n마지막 12월 31일에는\n카운트다운으로 신나게 놀면서\n년이랑 안녕할래～ ～",
      "TWzh": "再一下下\n今年也要結束了呢～\n我要趁跨年倒數\n盡情慶祝最後一天，\n和年說再見，。",
      "USen": "The year's over before too long.\nThe 31st is gonna be one big\nNew Year's Eve Countdown party,\nso we can say bye-bye to !",
      "USes": "Este año se fue volando...\n¡cual Siestamán!\nEl 31 tenemos la cuenta regresiva\npara despedir al .",
      "USfr": "La vieille année n'en a plus pour\ntrès longtemps.\nEn fait, le 31, c'est juste un long\ncompte à rebours de 24 heures\npour dire adieu à !"
    }
  },
  {
    "label": "020",
    "attribute": "0x0000000000000000",
    "locale": {
      "CNzh": "明天就是年的最后一天了～\n新年就在眼前啦～！\n明晚在广场上\n有跨年倒计时活动哦～！\n让我们和年愉快道别吧～！。",
      "EUde": "Morgen ist der letzte Tag des Jahres\n! Das neue Jahr steht schon\nvor der Tür und klopft!\nIch werde dem Jahr  morgen\nNacht beim Countdown auf dem\nFestplatz hinterherwinken!",
      "EUen": "Tomorrow's the last day of !\nThe new year is so close I can smell\nit! And it smells DELICIOUS!\nI'm gonna say bye to  at the\nCountdown party in the plaza\nat night!",
      "EUes": "Mañana es el último día de ...\n¡El año nuevo está a la vuelta\nde la esquina!\nYo no me pierdo la cuenta atrás\nen la plaza para despedirme\nde este año.",
      "EUfr": "Demain,  tire sa révérence,\net on saluera l'arrivée de la\nnouvelle année !\nLe mieux pour dire au revoir à ,\nc'est d'aller au compte à rebours sur\nla place quand la nuit est tombée !",
      "EUit": "Domani è l'ultimo giorno del .\nL'anno nuovo è alle porte!\nIo vado a salutare il  alla festa\nnotturna con il conto alla rovescia\nin piazza!",
      "EUnl": "Morgen is de laatste dag van !\nHet nieuwe jaar staat al bijna voor de\ndeur!\nIk ga feestelijk afscheid nemen van\n door 's avonds met iedereen\nsamen op het plein af te tellen!",
      "EUru": "Завтра последний день !\nВот и Новый год почти\nнаступил!\nСегодня ночью пойду на площадь\nна проводы !",
      "JPja": "明日は　年　さいごの日だよぉ～\n新しい年が　すぐそこまで　来てるんだねぇ\n夜には　広場で　年こしイベントの\nカウントダウンもあるし、年とは\n楽しく　さよならするんだぁ～！　",
      "KRko": "낼은 년 마지막 날이야아～\n새해가 이제 정말 코앞이라구우!\n밤엔 광장에 모여서 카운트다운도 하구우\n즐거운 기분으로 년이랑\n헤어질 거야아～! !",
      "TWzh": "明天是年的最後一天喔～\n新的一年快要到了呢。\n晚上在廣場\n也有跨年的倒數活動，\n要開開心心地和年說拜拜喔～！。",
      "USen": "Tomorrow's the last day of !\nThe new year is so close I can smell\nit! And it smells DELICIOUS!\nI'm gonna say bye to  at the\nCountdown party in the plaza\nat night!",
      "USes": "Mañana es el último día del ...\n¡Y empezará un nuevo año!\nIré a la cuenta regresiva de la plaza\npara despedirme y dar la bienvenida.",
      "USfr": "Demain,  tire sa révérence,\net on saluera l'arrivée de la\nnouvelle année!\nLe mieux pour dire au revoir à ,\nc'est d'aller au compte à rebours sur\nla place quand la nuit est tombée!"
    }
  },
  {
    "label": "103",
    "attribute": "0x0000000000000000",
    "locale": {
      "CNzh": "我说我说，，\n马上就到10月31日了呢……\n能不能快一些到来呀～万圣节！\n对了对了，你多准备一些糖果哦～\n大家都会来向你讨的！\n当然也包括我……。",
      "EUde": "Hast du mal in deinen Kalender\ngeguckt? Der 31. Oktober steht vor\nder Tür! Dann ist Halloween!\nIch muss vorher unbedingt noch\nBonbons besorgen! Säckeweise!\nNicht zum Verschenken, sondern\nzum selbst Mampfen! (Floskel)!",
      "EUen": "Ooh! Didja check your calendar?\nOctober 31st is coming up...and that\nmeans it's gonna be Halloween!\nBetter stock up on candy, 'cause\neveryone's gonna want some!\nMe especially, !",
      "EUes": "¿Has visto a qué día estamos?\n¡Se acerca el 31 de octubre!\nEs decir... ¡Halloween!\nSerá mejor hacerse con montones\nde chuches, porque van a estar\nmuy solicitadas. ¡Sí, lo digo por mí!",
      "EUfr": "Ooh ! Tu as regardé le calendrier ?\nOn est bientôt le 31 octobre... et\ndonc c'est presque Halloween !\nTu devrais te faire une réserve de bonbons, parce que tout le monde\nva en vouloir ! Et moi le premier !",
      "EUit": "Uh, per caso hai dato un'occhiata\nal calendario?\nIl 31 ottobre è alle porte... e questo\nsignifica che presto sarà Halloween!\nMeglio fare scorta di caramelle,\nperché tutti ne vorranno un po'!\nSoprattutto io, !",
      "EUnl": "Oe! Heb je al op de kalender\ngekeken? Het is bijna 31 oktober...\ndus het is bijna Halloween!\nSla maar snel snoep in, want dat\nlust iedereen graag! Vooral ik,\n!",
      "EUru": "У-ху! Ты в календарь заглядывал?\nУ нас скоро 31 октября... а значит,\nХэллоуин!\nЗапасись конфетами, их тут все\nзахотят! Особенно я! Хотя я и так\nот них не откажусь. !",
      "JPja": "ねぇねぇ、\n10月の31日まで　あと少しだねぇ・・・\n早く　来ないかなぁ～、ハロウィンの日！\nアメちゃんは　たくさん　よういしてねぇ\nみんなが　もらいに来るから！\nもちろん　ボクもね・・・、",
      "KRko": "저기, 아～\n이제 쫌 있으면 10월 31일이네에...\n빨리 할로윈이 됐으면 좋겠다아～\n너, 사탕 잔뜩 준비해 놔야 한다아?\n다들 사탕을 받으러 올 거니깐!\n나도 그렇구우～ ～",
      "TWzh": "那個，，\n馬上就要10月31日了……\n好希望萬聖節快點到喔！\n你要多準備一些糖果喔，\n因為大家都會來找你要！\n其中當然也包括我喔……。",
      "USen": "Ooh! Didja check your calendar?\nOctober 31st is coming up...and that\nmeans it's gonna be Halloween!\nBetter stock up on candy, 'cause\neveryone's gonna want some!\nMe especially, !",
      "USes": "¿Sabías una cosa? ¡Se acerca el 31\nde octubre! Es decir... ¡Halloween!\nSerá mejor buscar un montón de\ndulces antes de que se acaben.\n¡Sí, lo digo por mi propio bien!",
      "USfr": "Ooh! Tu as regardé le calendrier?\nOn est bientôt le 31 octobre... et\ndonc c'est presque l'Halloween!\nTu devrais te faire une réserve de bonbons, parce que tout le monde\nva en vouloir! Et moi le premier!"
    }
  },
  {
    "label": "104",
    "attribute": "0x0000000000000000",
    "locale": {
      "CNzh": "明天终于就是\n等了又等的万圣节啦～！\n虽然我也很好奇大家会乔装成什么样子，\n不过我还是更期待\n能够收到糖果呀～\n嘻嘻，到时候能收到多少份呢～\n希望你也能\n多给我一些糖果～。",
      "EUde": "Morgen ist es endlich so weit!\nDann feiern wir Halloween!\nIch freu mich schon total auf die\nvielen Kostüme! Aber noch mehr freu\nich mich auf die Bonbons und Lollis!\nÄh, he he he. Ich werd einen neuen\nMampfrekord aufstellen! Machst du\nmit, (Spitzname)?",
      "EUen": "Aaaaah! It's almost heeeere!\nTomorrow is FINALLY Halloween!\nYou know what's great? Seeing\neveryone's costumes! But you know\nwhat's even better? Candy!\nA huh huh! I wonder if I can beat\nlast year's haul record. You're gonna\nhelp, right, (nickname)?",
      "EUes": "¡Solo queda un día para Halloween!\nEstoy deseando ver de qué se\ndisfraza todo el mundo.\nAunque lo que más deseo es ver\nmontaaañas y montañas de chuches.\nMe pregunto si podré batir el récord\ndel año pasado. Tú me vas a ayudar,\n¿verdad, ?",
      "EUfr": "Aaaaah ! C'est bientôt Halloween !\nEncore quelques heures et on y est !\nTu sais ce qui me plaît ? Voir tout le\nmonde déguisé. Et ce qui me plaît\nencore plus ? Les BONBONS.\nHé hé hé ! Est-ce que je vais battre\nmon record de l'année dernière ? Tu\nvas m'aider, dis, (surnom) ?",
      "EUit": "Aaaaaah! Ci siamooo! Finalmente\ndomani è Halloween!\nSai qual è una cosa mitica? Vedere\ntutti in costume! E sai cos'è ancora\nmeglio? Le caramelle!\nChissà se riuscirò a battere il record\ndell'anno scorso. Tu m'aiuterai, vero,\n(nickname)?",
      "EUnl": "Aaaaa! Het is bijna zover! Morgen\nis het EINDELIJK Halloween!\nWeet je wat cool is? Het zien van\nalle kostuums! Weet je wat nog\nbeter is? SNOEP.\nAhaha! Ik hoop zo dat ik mijn record\nvan vorig jaar zal breken. Jij helpt me\ntoch wel, (nickname)?",
      "EUru": "Уря! Он почти настал, этот день!\nЗавтра Хэллоуин!\nКостюмы у всех, конечно, будут\nпросто классные! Но знаешь что\nлучше их на «к»? Конфеты, ага!\nУ-ху-ху! Интересно, я побью\nпрошлогодний рекорд? Ты же мне\nпоможешь, (nickname), да?",
      "JPja": "楽しみにしてた　ハロウィン、\nいよいよ　明日だよぉ～！\nみんなのカッコウも　気になるけど、\nやっぱり　アメちゃんをもらえるってことが\n一番の楽しみなんだよねぇ～\nうふふ、いくつくらい　あつまるかなぁ～\nからも\nたくさん　もらえるといいなぁ、",
      "KRko": "할로윈을 엄청엄청 기다리고 있었는데\n드디어 내일이야아～!\n다른 사람들이 어떤 변장을 할지도\n궁금하지만, 나는 사탕을 얼마나 받을지가\n더 기대되는 거 있지이～\n우후후, 잔뜩 받아서 사탕산을 쌓을 거야아～\n 너도\n많이많이 줘야 해～ !",
      "TWzh": "明天就是期待已久的\n萬聖節了～！\n雖然我很在意大家當天的裝扮，\n不過我更期待要到糖果的瞬間呢～\n呵呵，我到時候能收到多少份呢～\n要是也能\n給我很多那就好了，。",
      "USen": "Aaaaah! It's almost heeeere!\nTomorrow is FINALLY Halloween!\nYou know what's great? Seeing\neveryone's costumes! But you know\nwhat's even better? Candy!\nA huh huh! I wonder if I can beat\nlast year's haul record. You're gonna\nhelp, right, (nickname)?",
      "USes": "¡Solo falta un día para Halloween!\nQuiero ver de qué se disfraza todo\nel mundo.\nAunque lo que más quiero ver son\nmontaaañas y montañas de dulces.\nMe pregunto si podré batir el récord\ndel año pasado. Tú me vas a ayudar,\n¿verdad, ?",
      "USfr": "Aaaaah! C'est bientôt l'Halloween!\nEncore quelques heures et on y est!\nTu sais ce qui me plaît? Voir tout le\nmonde déguisé. Et ce qui me plaît\nencore plus? Les BONBONS.\nHé hé hé! Est-ce que je vais battre\nmon record de l'année dernière? Tu\nvas m'aider, dis, (surnom)?"
    }
  },
  {
    "label": "105",
    "attribute": "0x0000000000000000",
    "locale": {
      "CNzh": "还有没多久\n就到感恩节了呢！\n我都等不急要去广场上\n品尝美味佳肴啦～！\n因为我还准备当天自己也做些菜肴，\n所以得趁现在就想一想\n到时候要做些什么才行呢！。",
      "EUde": "Rate mal, was bald ist! Ganz genau,\ndas Schlemmfest! Der wohl leckerste\nTag des Jahres, (Floskel)!\nBeim Schlemmfest treffen sich alle\nauf dem Festplatz und bringen ganz\nviele leckerschmecker Sachen mit!\nHe, Moment mal! Muss ich dann\netwa auch was mitbringen?\nHoffentlich fällt mir bis dahin was\nein, das ich kochen kann... Puuuh, \ngeht auch was aus der Dose?",
      "EUen": "Guess what! The happiest, snackiest\nday of the whole year is coming!\nTurkey Day!\nOK, so on Turkey Day there's a feast\nwhere everyone brings food and...\nHang on! Everyone includes me!\nSo that means I need to bring food\ntoo? Oh man, I got some serious\nthinking to do, ...",
      "EUes": "Se acerca el día más maravilloso\ny feliz del año: ¡el Día del Pavo!\n¡Lo celebraremos montando un festín\nen la plaza, !\nSe prepara comida rica y yo me\nhincho a comer hasta que no puedo\nmás. Qué felicidad...",
      "EUfr": "La fête du partage approche !\nManger et faire la fête, c'est ce\nque je préfère, dans la vie !\nCe jour-là, on organise un festin où\nchacun apporte quelque chose à\nmanger... Mais alors... moi aussi ?!\nIl faut que je ramène un truc ?\nOuh là là, je devrais y réfléchir\nsérieusement, ...",
      "EUit": "Sta per arrivare il giorno più\ngoloso e gongolante dell'anno:\nil festival delle primizie!\nIn pratica, è una grande festa dove\ntutti portano del cibo. Aspetta un\nattimo... \"Tutti\" include anche me!\nE io cosa potrei portare? Oh,\ncaspitina... Ci devo pensare\nseriamente, !",
      "EUnl": "Heb je het al gehoord? De vrolijkste,\nsnoeperigste dag van het jaar komt\neraan! Het Smakenfestijn!\nBij het Smakenfestijn wordt er een\nfeestmaal georganiseerd waarvoor\niedereen een gerecht meeneemt en...\nO, wacht! Iedereen, daar hoor ik ook\nbij!\nDus betekent dat dat ik ook eten\nmoet meebrengen? O jee, dat wordt\nlastig kiezen, ...",
      "EUru": "Знаешь, что нас скоро ждет?\nСамый лучший и лакомый праздник\nв году — День изобилия!\nВ этот день мы устраиваем пир! Все приносят вкусняшки... Стоп! Раз все приносят, то и я должен!\nЗначит, мне тоже надо готовить?\nПридется как следует поварить\nкотелком... !",
      "JPja": "あと　もう少しで\nサンクスギビングデーだよぉ！\nひろばで　ごちそうを食べられるから、\n楽しみで　たまらないんだぁ～！\n当日は　ボクも　お料理するつもりだから\n今のうちに　何を作るか\n考えておかなくっちゃねぇ！　",
      "KRko": "이제 며칠 후면\n추수감사절이야아～!\n광장에서 맛있는 걸 먹을 수 있으니까\n벌써부터 막 기대되는 거 있지～!\n그날은 나도 요리를 할 거니까\n지금 미리 뭘 만들지\n생각해 놔야겠어～! !",
      "TWzh": "再過不久就是\n感恩節了喔！\n節慶那天能在廣場享用佳餚，\n我已經等不及了～！\n因為我當天也打算做些料理，\n所以得趁現在想好\n要做什麼才行！。",
      "USen": "Guess what! The happiest, snackiest\nday of the whole year is coming!\nTurkey Day!\nOK, so on Turkey Day there's a feast\nwhere everyone brings food and...\nHang on! Everyone includes me!\nSo that means I need to bring food\ntoo? Oh man, I got some serious\nthinking to do, ...",
      "USes": "Ya llega el día más increíble\ny feliz del año: ¡el Día del Pavo!\n¡Lo celebraremos con un festín\nen la plaza, !\nSe prepara comida rica y yo me\npongo a comer hasta que no puedo\nmás. Qué felicidad...",
      "USfr": "La fête du partage approche!\nManger et faire la fête, c'est ce\nque je préfère, dans la vie!\nCe jour-là, on organise un festin où\nchacun apporte quelque chose à\nmanger... Mais alors... moi aussi?!\nIl faut que je ramène un truc?\nOuh là là, je devrais y réfléchir\nsérieusement, ..."
    }
  },
  {
    "label": "106",
    "attribute": "0x0000000000000000",
    "locale": {
      "CNzh": "终于明天就是\n感恩节了！\n为了能够吃下尽可能多的\n广场上的菜肴和自己做的菜肴，\n我要先把肚子留出余地！。",
      "EUde": "Morgen feiern wir das Schlemmfest!\nIch freu mich schon sooo lang drauf,\n(Floskel)!\nBin gespannt, was es wohl Leckeres\nzu essen gibt. Wenn ich Glück hab,\nbleibt sogar noch was übrig!\nDas nehm ich mir dann mit heim\nund kann die nächsten Tage zu\nHause weiter Schlemmfest feiern!",
      "EUen": "Turkey Day's tomorrow! I can't\nbelieve it's almost here!\nTurkey Day's the best 'cause there's\nall kinds of good food, which means\neven gooder leftovers, .\nI'm gonna get my mouth watering\nnow so it'll be ready!",
      "EUes": "¡Mañana es el Día del Pavo!\nYa me rugen las tripas solo de\nimaginar todo lo que voy a comer.\nQuizá hasta me anime a cocinar\nyo algo en mi casa, .\nAunque, con lo despistado que soy,\nseguro que se me olvida algún\ningrediente, .",
      "EUfr": "Demain, on célèbre la fête du\npartage ! J'ai du mal à croire qu'on\ny soit déjà presque !\nY a rien de mieux que la fête du\npartage. Des bons petits plats, ça\nveut dire des bons petits restes !\nJe vais commencer à saliver dès\nmaintenant, comme ça, demain,\nje serai parfaitement préparé.",
      "EUit": "Ci siamo! Domani festeggeremo\nil festival delle primizie!\nCi sarà un sacco di cibo buonissimo,\nquindi anche avanzi golosi per giorni\ne giorni, .\nHo già l'acquolina in bocca!",
      "EUnl": "Het Smakenfestijn is morgen al! Ik\nkan haast niet geloven dat het bijna\nzover is!\nHet eten op het Smakenfestijn is\nsuperlekker, en dan komen daarna de\nkliekjes nog, .\nIk begin nu vast te watertanden, dan\nis mijn gebit goed gesmeerd en klaar\nvoor de grote missie van morgen.",
      "EUru": "Завтра День изобилия! Неужто\nя дождался?\nЭто лучший праздник в году. На нем\nможно попробовать кучу еды! На\nвсю неделю хватит! !\nНадо подготовиться заранее.\nНачинаю пускать слюнки!",
      "JPja": "いよいよ　明日は、\nサンクスギビングデー！\nひろばのお料理と　自分で作るお料理、\nどっちも　いっぱい食べられるように\nおなか　へらしておかなくっちゃ！　",
      "KRko": "드디어 내일은\n추수감사절이야아～!\n광장에서 만드는 요리랑 내가 만드는 요리랑\n둘 다 많이많이 먹을 수 있게\n배를 비워 놔야지이～! !",
      "TWzh": "明天就是\n感恩節了喔！\n為了能吃下很多廣場的料理跟\n自製的料理，我得先把肚子的\n空間空出來才行！。",
      "USen": "Turkey Day's tomorrow! I can't\nbelieve it's almost here!\nTurkey Day's the best 'cause there's\nall kinds of good food, which means\neven gooder leftovers, .\nI'm gonna get my mouth watering\nnow so it'll be ready!",
      "USes": "¡Mañana es el Día del Pavo!\nMi pancita está emocionada por\ntodas las delicias que va a comer.\nQuizá hasta me anime a cocinar\nalgo en mi casa, .\nAunque, con lo despistado que soy,\nseguro que se me olvida algún\ningrediente, .",
      "USfr": "Demain, on célèbre la fête du\npartage! J'ai du mal à croire qu'on\ny soit déjà presque!\nY a rien de mieux que la fête du\npartage. Des bons petits plats, ça\nveut dire des bons petits restes!\nJe vais commencer à saliver dès\nmaintenant, comme ça, demain,\nje serai parfaitement préparé."
    }
  },
  {
    "label": "107",
    "attribute": "0x0000000000000000",
    "locale": {
      "CNzh": "马上就是圣诞节了呢～！\n我要在平安夜和大家交换交换礼物什么的，\n好好享受这个节日！\n而且我已经把礼物都准备好了，\n就等着节日当天到来啦～！。",
      "EUde": "Spielzeugtag! Spielzeugtag!\nBald ist endlich Spielzeugtag!\nWas magst du eigentlich lieber?\nGeschenke schenken oder selbst\nwelche kriegen, (Floskel)?\nIch mag beides gern, weil's am Spiel-\nzeugtag ja auch um beides geht! Da\nfreu ich mich gleich doppelt so viel!",
      "EUen": "Toy Day's coming! Toy Day's coming!\nHey, which do you like better? Giving\ngifts or getting 'em, ?\n'Cause I like both, and Toy Day's all\nabout both, so that means a whole\nday of double-fun for me!",
      "EUes": "¿A ti qué te gusta más, regalar\no que te hagan regalos?\nPorque a mí me encantan las dos\ncosas, así que el Día de los Juguetes\nme divierto el doble, .",
      "EUfr": "C'est bientôt le jour des cadeaux !\nYoupi ! Qu'est-ce que tu préfères,\ndonner ou recevoir,  ?\nMoi, j'ai pas de préférence, j'aime les\ndeux. Du coup, je suis  comblé !",
      "EUit": "A te piace di più fare regali oppure\nriceverli?\nPerché io adoro entrambe le cose,\nquindi il Giorno dei giocattoli mi\ndiverto il doppio, .",
      "EUnl": "Het is bijna Speelgoeddag! Hoera\nhoera, Speelgoeddag! Krijg of geef jij\nliever cadeautjes, ?\nIk vind het allebei leuk en op\nSpeelgoeddag kan ik het allebei\ndoen, dus die dag is dubbel leuk!",
      "EUru": "Скоро День игрушек! Уря! Ты\nбольше любишь получать подарки\nили их дарить? !\nЯ люблю и то, и другое. Поэтому\nДень игрушек для меня двойная\nрадость!",
      "JPja": "もうすぐ　クリスマスだねぇ～！\nイブには　プレゼントこうかんとかして、\n思いっきり　楽しんじゃうんだぁ！\nそのためのプレゼントも　よういできてるし、\nあとは　当日を　まつだけだよぉ！　",
      "KRko": "크리스마스가 얼마 안 남았어～!\n이브에는 선물 교환 같은 것도 하면서\n분위기를 띄워야지이!\n벌써 선물도 준비해뒀어!\n크리스마스 이브를\n즐길 일만 남았다구우! !",
      "TWzh": "聖誕節馬上就要到了呢～！\n我可要好好地享受節日，\n像是在平安夜交換禮物之類的！\n為了那一天，我已經準備好禮物了。\n接下來只剩等待當天到來囉！。",
      "USen": "Toy Day's coming! Toy Day's coming!\nHey, which do you like better? Giving\ngifts or getting 'em, ?\n'Cause I like both, and Toy Day's all\nabout both, so that means a whole\nday of double-fun for me!",
      "USes": "¿A ti qué te gusta más, regalar\no que te hagan regalos?\nPorque a mí me encantan las dos\ncosas, así que el Día de los Juguetes\nme divierto el doble, .",
      "USfr": "C'est bientôt le jour des cadeaux!\nYoupi! Qu'est-ce que tu préfères,\ndonner ou recevoir, ?\nMoi, j'ai pas de préférence, j'aime les\ndeux. Du coup, je suis  comblé!"
    }
  },
  {
    "label": "108",
    "attribute": "0x0000000000000000",
    "locale": {
      "CNzh": "明天终于就是\n我期盼已久的平安夜了！\n打算给你的礼物我也准备好了，\n你要和我交换礼物哦～\n诶嘿嘿，好期待呢～！。",
      "EUde": "Morgen ist es endlich so weit, da\nfeiern wir den Spielzeugtag! Ich\nfreu mich schon seit Tagen drauf!\nUm die Geschenke hab ich mich\nauch schon gekümmert. Oh Mann,\nwird DAS ein tolles Fest!",
      "EUen": "Tomorrow's finally, FINALLY Toy Day.\nI feel like I've been waiting a whole\nweek for this, .\nI got presents to exchange and\neverything! This is gonna be the\nbest Toy Day ever!",
      "EUes": "Ya está aquí, ya llegó, ¡el Día de\nlos Juguetes es mañana! Llevo una semana, un mes, ¡un año esperando!\nYa tengo hasta los regalos envueltos\ny todo... aunque se me olvidó\netiquetar para quién es cada uno.\nPero no pienso dejar que eso me\nestropee el día más feliz del año,\n, ¡ya improvisaré!",
      "EUfr": "Enfin ! Demain, c'est le jour des\ncadeaux ! J'ai l'impression que ça\nfait une semaine que je l'attends.\nJ'ai tout ce qu'il faut et mes cadeaux\nsont prêts ! Ça va être le plus beau\njour des cadeaux du monde !",
      "EUit": "Finalmente domani è il Giorno dei\ngiocattoli! Era ora, è tutto l'anno\nche aspetto, .\nHo regali per tutti quanti. Li preparo\ngià da un mucchio di tempo! Sarà un\nGiorno dei giocattoli spettacoloso!",
      "EUnl": "Morgen is het EINDELIJK\nSpeelgoeddag! Ik kijk er al een\nhele week naar uit, .\nIk heb cadeautjes klaar voor iedereen\nen hoop dat ik er ook veel krijg. Dit\nwordt de beste Speelgoeddag ooit!",
      "EUru": "Завтра наконец наступит День\nигрушек! Я уже целую неделю\nрадуюсь! !\nДаже подарки приготовил заранее!\nОтмечу этот праздник с размахом!",
      "JPja": "いよいよ　明日は\nおまちかねの　クリスマスイブ！\nキミへのプレゼントも　よういしてるから、\nボクと　プレゼントこうかんしようねぇ\nうふふ、楽しみだなぁ～！　",
      "KRko": "드디어 내일은\n꿈에서도 기다리던 크리스마스 이브야아!\n너한테 줄 선물도 준비했으니까\n나랑 선물 교환하자아!\n우후훗, 너무 재밌겠다아～! !",
      "TWzh": "明天終於就是\n期待已久的平安夜啦！\n我已經準備好送你的禮物了，\n記得要來和我交換禮物喔。\n呵呵，好期待喔～！。",
      "USen": "Tomorrow's finally, FINALLY Toy Day.\nI feel like I've been waiting a whole\nweek for this, .\nI got presents to exchange and\neverything! This is gonna be the\nbest Toy Day ever!",
      "USes": "Ya está aquí, ya llegó, ¡el Día de\nlos Juguetes es mañana! Llevo una\nsemana, un mes, ¡un año esperando!\nYa tengo hasta los regalos envueltos\ny todo... aunque se me olvidó\netiquetar para quién es cada uno.\nPero no pienso dejar que eso me\nestropee el día más feliz del año,\n, ¡ya improvisaré!",
      "USfr": "Enfin! Demain, c'est le jour des\ncadeaux! J'ai l'impression que ça\nfait une semaine que je l'attends.\nJ'ai tout ce qu'il faut et mes cadeaux\nsont prêts! Ça va être le plus beau\njour des cadeaux du monde!"
    }
  },
  {
    "label": "109",
    "attribute": "0x0000000000000000",
    "locale": {
      "CNzh": "马上就是狂欢节庆典了！\n我正在准备当天穿的衣服。\n我想还是便于活动的服装会比较好吧。\n毕竟，到时候可是要尽情跳舞的啊！\n不过到底穿什么衣服，现在先暂时保密～\n你就好好期待当天的到来吧！。",
      "EUde": "Bald ist Karneval! Das wird ein Spaß!\nGlitzerkostüme, Musik, Tanz...\nKlingt doch wunderbärchen!\nUnd dass das gleich klar ist...\n  mit der besten\nVerkleidung werde ich sein!",
      "EUen": "Festivale's nearly here and it's gonna\nbe so fun. There's gonna be dancing,\nand music, and sparkly costumes...\nJust you wait. I'm gonna be the most\nfestive Festivale  anyone's\never seen, !",
      "EUes": "¿Ya has decidido qué vas a ponerte\nen Carnaval? ¡Pues date prisa porque\nestá a la vuelta de la esquina!\nEspera y verás lo que me pongo yo...\n¡Voy a ser  más carnavaler de la isla, !",
      "EUfr": "C'est bientôt carnaval. On va danser,\nécouter de la musique, et on aura\ndes costumes à paillettes...\nTu verras, aucun autre  ne rivalisera avec moi pour fêter carnaval,  !",
      "EUit": "Il Carnevale è alle porte e io non\nvedo l'ora!\nBalleremo, ascolteremo musica\ne indosseremo costumi sgargianti...\nAspetta e vedrai... Non ci sarà\n più festoso di me in tutta l'isola, !",
      "EUnl": "Het is bijna carnaval. Dan gaan we\ndansen, is er muziek en dragen we\noutfits die fonkelen...\nWacht maar. Ik word feestelijkste   je ooit hebt gezien, !",
      "EUru": "Скоро Карнавал! Ох и весело будет!\nБудут танцы и музыка, и костюмы\nс блестками...\nВот увидишь. Такого нарядного\n, как я, ты еще не\nвстречал. !",
      "JPja": "もうすぐ　カーニバルのおまつりだぁ！\n今、いしょうの　じゅんびをしてるんだけど\nやっぱり　うごきやすいのが　いいよねぇ\nだって、ノリノリで　おどるんだから！\nでも、どんな　いしょうかは　ナイショ～\n当日の　お楽しみだよぉ！　",
      "KRko": "쪼금 있으면 카니발이래애～\n지금 뭐 입을지 준비하고 있는데\n역시 움직이기 편한 게 제일이겠지이?\n왜냐면 신나게 춤춰야 하니깐!\n어떤 옷인지는 비밀이야～\n그날 확인해봐아～ !",
      "TWzh": "狂歡節的慶典馬上就要到了！\n我正在準備慶典時穿的衣服……\n我想還是穿方便活動的服裝會比較好喔。\n因為到時候我會盡情地跳舞啊！\n不過具體要穿什麼就先保密囉～\n你就好好期待活動當天吧！。",
      "USen": "Festivale's nearly here and it's gonna\nbe so fun. There's gonna be dancing,\nand music, and sparkly costumes...\nJust you wait. I'm gonna be the most\nfestive Festivale  anyone's\never seen, !",
      "USes": "¿Ya decidiste qué te vas a poner el\ndía de Carnaval? ¡Pues date prisa\nporque ya falta muy poco!\nY ya verás lo que me pongo yo...\n¡Voy a ser  más carnavaler de la isla, !",
      "USfr": "C'est bientôt le carnaval. On va\ndanser, écouter de la musique, \navec des costumes à paillettes...\nTu verras, aucun autre  ne rivalisera avec moi pour fêter le carnaval, !"
    }
  },
  {
    "label": "110",
    "attribute": "0x0000000000000000",
    "locale": {
      "CNzh": "终于，明天就是盼望已久的狂欢节了！\n你好好期待我的装扮吧！\n我准备了一套很棒的衣服哦～\n我还在脑海中进行了\n许多次舞蹈的练习。\n我完全准备好迎接明天的到来了！。",
      "EUde": "Menno! Morgen ist doch schon\nKarneval, und ich weiß nicht, ob\nmein Kostüm rechtzeitig fertig wird.\nWenn nicht, hab ich umsonst die\nganzen Nickerchen sausen lassen,\num Tanzen zu üben, (Floskel)!",
      "EUen": "Oh man! Festivale's tomorrow, but\nI dunno if my costume's gonna be\ndone in time, !\nBut if I don't finish, all the naps and\nsnack breaks I skipped to practice\ndancing will be for nothing!",
      "EUes": "¡Jooo! ¡Mañana es Carnaval y aún\nno sé qué ropa especial voy\na ponerme, !\nSi no me decido pronto, ¡las horas de\nsiesta que he perdido para practicar\nel baile habrán sido en balde!",
      "EUfr": "Ouh là là ! Carnaval est déjà demain,\net je sais pas si mon costume sera\nprêt à temps,  !\nSi je le finis pas, les siestes et les\ngoûters que j'ai sautés pour répéter\nma danse auront servi à rien !",
      "EUit": "Caspitina! Il Carnevale è domani, ma\nnon so se il mio costume sarà pronto\nin tempo, !\nSe non lo sarà, tutti gli snack\nmangiati durante le pause delle\nprove di ballo... saranno stati invano!",
      "EUnl": "Jeeeetje! Morgen is het carnaval,\nmaar ik weet niet of mijn outfit op\ntijd klaar zal zijn, !\nMaar als het niet lukt, heb ik al die\ndutjes en snoeppauzes voor niks\novergeslagen!",
      "EUru": "Ох! Завтра Карнавал, но я не\nуверен, что мой костюм будет\nготов вовремя. !\nВедь тогда я попусту репетировал\nсвой танец без перекусов и тихого\nчаса!",
      "JPja": "いよいよ　明日は　お楽しみのカーニバル！\nボクのカッコウ、きたいしててよぉ？\nステキないしょう　よういしたんだから～\nおどりのれんしゅうも　たっぷりできたし、\n明日のじゅんびは　カンペキだぁ！　",
      "KRko": "드디어 내일이 기다리던 카니발이야!\n내가 어떤 옷 입을지 궁금해 죽겠지～?\n엄청 멋있는 걸로 준비했다구우～\n카니발 춤 연습도\n상상 속에서 많이 했으니깐\n준비는 완벽해애～! !",
      "TWzh": "明天就是期待已久的狂歡節了！\n你要好好期待我的裝扮喔？\n我可是準備了很棒的衣服呢～\n另外我還做了很多\n舞蹈的意象訓練，\n準備得相當充分喔！。",
      "USen": "Oh man! Festivale's tomorrow, but\nI dunno if my costume's gonna be\ndone in time, !\nBut if I don't finish, all the naps and\nsnack breaks I skipped to practice\ndancing will be for nothing!",
      "USes": "¡Uuuy! ¡Mañana es Carnaval y aún\nno sé qué ropa especial me voy a\nponer, !\nSi no me decido pronto, ¡las horas de\nsiesta que perdí practicando mi baile\nhabrán sido para nada!",
      "USfr": "Ouh là là! Le carnaval est demain, et\nje sais pas si mon costume sera prêt\nà temps, !\nSi je le finis pas, les siestes et les\ncollations que j'ai sautées pour\nrépéter ma danse auront servi à rien!"
    }
  },
  {
    "label": "111",
    "attribute": "0x0000000000000000",
    "locale": {
      "CNzh": "就快到劳动节了呢～\n诶嘿嘿，好期待出远门去玩啊～\n劳动节的活动会在别的岛上举办，\n不知道是个什么样的地方呢，\n好期待～。",
      "EUde": "Wusstest du, dass bald die Mai-\nFeierei beginnt? Wirklich wahr!\nDas hat mir mein Kalender verraten.\nUnd ich hab gehört, dass es bei der\nMai-Feierei auch auf eine andere\nInsel gehen soll, (Floskel).\nDas mit der Insel hat mir mein\nKalender gar nicht gesagt. Komisch.",
      "EUen": "Did you know May Day is coming up?\nIt's true! I heard it from my calendar.\nI also heard there's supposed to be\nsome kind of May Day event on\nanother island, .\nMy calendar didn't tell me the island\npart though. That'd be weird.",
      "EUes": "¿Sabes que el Primero de Mayo está\nal caer? Eso dice mi almanaque...\nTambién hay un evento especial,\naunque no se celebra en esta isla,\n¡sino en otra muy misteriosa!\nLe he preguntado a mi almanaque\npor los secretos de esa otra isla,\npero no me ha dicho ni «mu»...",
      "EUfr": "Tu sais que c'est bientôt le 1er mai ?\nC'est mon calendrier qui m'a vendu\nla mèche, .\nIl paraît qu'en cette occasion, un\névénement est organisé sur une\nautre île.\nTu crois qu'il y aura un buffet, ou\nil faut emporter son pique-nique ?",
      "EUit": "Sai che i festeggiamenti per il Primo\nmaggio sono dietro l'angolo? È vero,\nme l'ha detto il mio calendario!\nE ho sentito anche che ci sarà una\nspecie di evento su un'altra isola...\nQuesto però non me l'ha detto il\nmio calendario. Sarebbe strano...",
      "EUnl": "Nog even en de feestdingen voor\nMeidag beginnen! Echt! Dat heb ik\nnamelijk gehoord van mijn kalender.\nIk heb ook gehoord dat er op een\nander eiland een of ander evenement\nzal plaatsvinden, .\nDat heb ik niet van mijn kalender\ngehoord, hoor. Dat zou raar zijn.",
      "EUru": "А ты знаешь, что к нам идет День\nмая? Правда-правда! Это мне мой\nкалендарик рассказал.\nА еще я слышал, что на другом\nострове в честь Дня мая будет\nкакой-то праздник. !\nНо это мне уже не календарик\nсказал. Это было бы странно.",
      "JPja": "もうすぐ　メーデーだねぇ～\nうふふ、お出かけするの　楽しみだなぁ～\nメーデーのイベントは、\nどこか　よその島で　やるから\nどんなトコか　ワクワクしちゃう～、",
      "KRko": "좀만 있으면 근로자의 날이네에～\n우후후, 나가는 거 기대된다아～\n근로자의 날 이벤트는\n여기 말고 다른 섬에서 하니까\n어떤 곳일지 엄청 궁금해애～ ～",
      "TWzh": "馬上就是勞動節了呢～\n呵呵，我好期待活動當天出門喔～\n勞動節的活動會在其他島嶼上舉辦，\n光是想像就讓人心跳加速啊～。",
      "USen": "Did you know May Day is coming up?\nIt's true! I heard it from my calendar.\nI also heard there's supposed to be\nsome kind of May Day event on\nanother island, .\nMy calendar didn't tell me the island\npart though. That'd be weird.",
      "USes": "¿Sabías que ya casi va a ser Primero\nde Mayo? O al menos eso dice mi\ncalendario...\nY escuché que en una isla muy\nmisteriosa tendrán un evento\nespecial.\nLe pregunté a mi calendario si sabía\nalgo sobre esa otra isla, pero no me\ndijo ni \"pío\"...",
      "USfr": "Tu sais que c'est bientôt le 1er mai?\nC'est mon calendrier qui m'a vendu\nla mèche, .\nIl paraît qu'en cette occasion, un\névénement est organisé sur une\nautre île.\nTu crois qu'il y aura un buffet, ou\nil faut emporter son pique-nique?"
    }
  },
  {
    "label": "112",
    "attribute": "0x0000000000000000",
    "locale": {
      "CNzh": "明天，劳动节活动就要开始了！\n我从很早之前就开始期待这一天了～\n到了明天，从莫里那儿\n领取到劳动节旅行券，\n就可以参加活动了～\n如果你也有兴趣的话，\n可以去领取旅行券，\n然后就能够出去玩啦～。",
      "EUde": "Morgen startet die Mai-Feierei!\nBist du auch schon so aufgeregt?\nIch bin's nämlich totaaal!\nIch hol mir gleich bei Bodo ein Mai-\nFeierei-Ticket ab, dann kann ich mich\nmorgen sofort auf den Weg machen!\nDu musst dir unbedingt auch so ein\nschnuffiges Ticket holen! Wer weiß,\nwas uns da alles Cooles erwartet?",
      "EUen": "The May Day event starts tomorrow!\nI've been so excited for this!\nI'm gonna go right now and get me a \nMay Day travel ticket from Orville so\nI can go to the event tomorrow!\nYou oughta get a travel ticket and go\non a trip, too, if doing real cool stuff\nis something you're interested in!",
      "EUes": "¡Mañana empieza el evento del\nPrimero de Mayo! ¿Te has enterado\nde que lo celebramos en otra isla?\nSi quieres participar, ve a hablar con\nRafa ahora mismo para conseguir\ntu billete Primero de Mayo.\n¡Pienso llenar la mochila de dulces\npara el viaje, !",
      "EUfr": "Demain commence l'événement du\n1er mai ! Tu te réjouis ? Parce que\nmoi, je suis tout fou !\nIl faut d'ailleurs que j'aille récupérer\nmon ticket 1er mai auprès de Morris\npour pouvoir y participer !\nTu devrais en faire de même, si tu\naimes les voyages et les activités\nsympas !",
      "EUit": "Domani si aprono i festeggiamenti\nlegati al Primo maggio! Anche a te\ntremano le zampe dall'emozione?\nOra vado dritto filato da Dodobaldo\na prendere un coupon Primo maggio\nper partecipare all'evento di domani!\nSe anche tu non vedi l'ora di scoprire\ncosa ci aspetta, corri subito a ritirare\nil tuo coupon!",
      "EUnl": "De feestdingen voor Meidag\nbeginnen morgen! Heb jij er ook\nzo'n zin in? Ik in ieder geval wel!\nIk ga meteen even langs Orville om\neen meidagbon, zodat ik morgen niks\nhoef te missen!\nJij zou ook een bon moeten halen.\nTenminste, als ontzettend coole\ndingen doen iets voor jou is!",
      "EUru": "День мая уже завтра! Я жду не\nдождусь!\nНадо попросить у Орвилла майскую\nпутевку, чтобы на праздник завтра\nпопасть!\nТы тоже возьми себе... ну, если,\nконечно, тебе тоже нравятся\nклассные экскурсии!",
      "JPja": "明日からは　メーデーイベントだよぉ！\nボク、前から　楽しみにしてたんだよねぇ\n明日になったら、モーリーさんに\nメーデーりょこうけんをもらって\nイベントに　さんかしちゃうんだぁ！\nも\nキョウミがあったら　りょこうけんをもらって\nお出かけしてみると　いいかも～、",
      "KRko": "드디어 내일부터 근로자의 날 이벤트야!\n전부터 얼마나 기다렸는지 몰라아～\n내일 모리 아저씨한테 가서\n근로자의 날 여행권으로\n이벤트에 참가하려구우～\n 너도\n관심 있으면 한번\n놀러 가봐아, !",
      "TWzh": "明天開始就是勞動節活動囉！\n我已經期待好久啦！\n到了明天，從莫里那裡\n領取勞動節旅行券，\n就能參加活動了！\n如果也對活動有興趣，\n使用旅行券出個門或許不錯喔～。",
      "USen": "The May Day event starts tomorrow!\nI've been so excited for this!\nI'm gonna go right now and get me a \nMay Day travel ticket from Orville so\nI can go to the event tomorrow!\nYou oughta get a travel ticket and go\non a trip, too, if doing real cool stuff\nis something you're interested in!",
      "USes": "¡Mañana empieza el evento del\nPrimero de Mayo! ¿Sabías que\nlo celebramos en otra isla?\nSi quieres participar, ve a hablar con\nRafa ahora mismo para conseguir tu\nboleto Primero de Mayo.\nVoy a preparar una mochila llena\nde dulces para el viaje, (catchphrase).",
      "USfr": "Demain commence l'événement du\n1er mai! Tu te réjouis? Parce que\nmoi, je suis tout fou!\nIl faut d'ailleurs que j'aille récupérer\nmon ticket 1er mai auprès de Morris\npour pouvoir y participer!\nTu devrais en faire de même, si tu\naimes les voyages et les activités\nsympas!"
    }
  }
]