﻿[
  {
    "label": "001",
    "attribute": "0x0000000100010000",
    "locale": {
      "CNzh": "要赶走起床的困倦，\n还是得靠坚强的意志呀～！。",
      "EUde": "Nichts macht so schnell so wach\nwie Kaffee, (Floskel).\nKAFFEE IS' DER WAHNSINN!",
      "EUen": "Nothing jump kicks the sleepy right\nof your morning brain like coffee.\nGET! HYPED! FOR! COFFEEEEEEEEE!",
      "EUes": "A estas horas absurdas lo único que\nme despeja son ¡unos pasos de baile!",
      "EUfr": "Y a rien de mieux qu'un café pour\npartir du bon pied. Un café au petit\ndéj, ça me donne une de ces pêches !",
      "EUit": "Niente ti sveglia come il caffè.\nNIENTE! Per il nostro amico caffè...\nHip, hip, urrà!",
      "EUnl": "Van niks word je zo wakker als van\nkoffie. Voel de koffiehyyyype!",
      "EUru": "Ничто так не бодрит,\nкак шикарная чашечка кофе.\nОбожаю кофе!",
      "JPja": "朝のネム気を　ふき飛ばすのは\nやっぱ気合だよね～！　",
      "KRko": "아침잠은 역시\n의지로 이겨내야지～! !",
      "TWzh": "要趕跑早上的瞌睡蟲，\n果然要靠意志力呢～！。",
      "USen": "Nothing jump kicks the sleepy right\nof your morning brain like coffee.\nGET! HYPED! FOR! COFFEEEEEEEEE!",
      "USes": "A estas horas absurdas lo único que\nme ayuda a despertar es...\n¡bailar y cantar y bailar!",
      "USfr": "Y'a rien de mieux qu'un café pour\npartir du bon pied. Un café au\ndéjeuner, passez une belle journée!"
    }
  },
  {
    "label": "002",
    "attribute": "0x0000000100020000",
    "locale": {
      "CNzh": "感觉自己还是有点困，\n眼睛总是睁不开～\n是不是再去洗一次脸比较好呢～？。",
      "EUde": "Okay, manchmal? Wenn ich morgens\nnicht wach werde? Dann renn ich\neinfach im Kreis und singe ganz laut!",
      "EUen": "Sometimes, when I can't wake up\nin the morning, I run in circles and\nscream really loud for a few minutes!\nGets the blood pumping, you know?",
      "EUes": "Cuando me levanto con sueño por\nla mañana... ¡me funciona correr en\ncírculos y chillar para despejarme!",
      "EUfr": "Quand je me réveille encore fatiguée,\nle matin, je cours en rond et je crie\ncinq minutes. L'effet est garanti !",
      "EUit": "Qualche volta, quando ho troppo\nsonno... faccio un paio di giri di\ncorsa e grido forte!",
      "EUnl": "Soms? Als ik dus 's ochtends niet\nwakker kan worden? Dan ren ik\nrondjes en schreeuw ik heel hard!",
      "EUru": "Иногда, когда я не могу проснуться\nс утра, я несколько минут бегаю\nпо дому и громко ору!",
      "JPja": "まだビミョーに　ねむくて\n目が　ショボショボするよ～\nもう一回　顔あらってこようかなー？　",
      "KRko": "아직 잠이 덜 깨서\n눈의 초점이 잘 안 맞아～\n한 번 더 세수하고 올까? ?",
      "TWzh": "我還是很想睡耶，\n眼睛都快張不開啦～\n還是我再去洗一次臉好了～？。",
      "USen": "Sometimes, when I can't wake up\nin the morning, I run in circles and\nscream really loud for a few minutes!\nGets the blood pumping, you know?",
      "USes": "Cuando me levanto con sueño por\nla mañana... ¡me funciona correr en\ncírculos y gritar para despertarme!",
      "USfr": "Quand je me réveille encore fatiguée,\nle matin, je cours en rond et je crie\ncinq minutes. L'effet est garanti!"
    }
  },
  {
    "label": "003",
    "attribute": "0x0000000100030000",
    "locale": {
      "CNzh": "其实一整天里，\n最让我觉得发困的\n就是现在这个时候啦～。",
      "EUde": "Hey... Nachmittag ist die lahmste\nZeit für Leute, die am Anfang ihrer\nPopstar-Karriere stehen...",
      "EUen": "To be totes honest? This is the time\nof day when I get the sleepiest!",
      "EUes": "Este es mi momento del día más\npachorro, las cosas como son.",
      "EUfr": "Là, tu vois, c'est mon heure. C'est\nmaintenant que je suis la plus...\nefficace ? Ouais, on peut dire ça.",
      "EUit": "Questo è il momento della giornata\nin cui sono più innocua, sai?\nIl resto del tempo sono da paura!",
      "EUnl": "Op dit moment van de dag ben ik dus\nhet minst meest gevaarlijk, weet je?",
      "EUru": "Если честно, в это время дня\nя больше всего хочу поспать!",
      "JPja": "実はアタイ、一日のうちで\n今が　いちばん　ねむくなっちゃう\n時間なんだよね～、",
      "KRko": "난 하루 중에\n이 시간이 제일 졸리더라～ !",
      "TWzh": "其實啊，\n現在是我一天當中\n最想睡的時候呢～。",
      "USen": "To be totes honest? This is the time\nof day when I get the sleepiest!",
      "USes": "A esta hora siempre me entra\nsueñito... ¡Es una lucha constante!",
      "USfr": "Là, tu vois, c'est mon heure. C'est\nmaintenant que je suis la plus...\nefficace? Ouais, on peut dire ça."
    }
  },
  {
    "label": "004",
    "attribute": "0x0000000500040000",
    "locale": {
      "CNzh": "嗯……\n接下来，\n今天还要做些什么好呢～？。",
      "EUde": "Hmm...\nWas mach ich heute Abend?",
      "EUen": "Hmm...what should I do tonight?",
      "EUes": "Mmm... ¿qué podría hacer\nesta noche?",
      "EUfr": "Hmm...\nQu'est-ce que je vais bien pouvoir\nfaire ce soir ?",
      "EUit": "Mmmh...\nCome posso fare, cioè, stasera?",
      "EUnl": "Hmm... Wat zal ik vanavond eens\ngaan doen?",
      "EUru": "Хм... Чем бы таким заняться\nсегодня вечером?",
      "JPja": "ん～・・・\n今日は　これから、\nなにして　過ごそうかな～？　",
      "KRko": "으음... 지금부터\n뭐 하면서 보내지～? ?",
      "TWzh": "嗯……\n接下來我今天\n要怎麼度過呢～？。",
      "USen": "Hmm...what should I do tonight?",
      "USes": "Mmm... ¿qué podría hacer\nesta noche?",
      "USfr": "Hmm...\nQu'est-ce que je vais bien pouvoir\nfaire ce soir?"
    }
  },
  {
    "label": "005",
    "attribute": "0x00000001000C0000",
    "locale": {
      "CNzh": "夕阳，好漂亮呀～\n这场景太过浪漫了，我觉得……\n自己变得好哀愁～！。",
      "EUde": "Ist der Sonnenuntergang nicht\ntotal MEGA? Und romantisch?\nIch will heulen, (Floskel)!",
      "EUen": "The sunset is sooo le beaut and\nromantic it makes me all soppy!",
      "EUes": "Las puestas de sol son como que\nde lo más romántico que hay.",
      "EUfr": "Un coucher de soleil, c'est quand\nmême la méga romance garantie !\nZyva, chuis trop in love !",
      "EUit": "Il tramonto è allucinante!\nRomantico da paura! Mi sciolgo...",
      "EUnl": "De zonsondergang is echt zo mooi?\nEn romantisch? Daar word ik gewoon\nsupersentimenteel van.",
      "EUru": "Этот закат красив до невозможного!\nКак романтично! Еще немного —\nи я растаю от умиления!",
      "JPja": "夕日、キレイだよねー\nロマンチックすぎて　アタイ・・・\nおセンチになっちゃう～！　",
      "KRko": "석양이 참 예쁘다～\n너무너무 로맨틱해...\n꼭 영화의 한 장면 같아～! !",
      "TWzh": "夕陽還真漂亮呢～\n實在太浪漫，我……\n都感傷起來了呢～！。",
      "USen": "The sunset is sooo le beaut and\nromantic it makes me all soppy!",
      "USes": "Los atardeceres son como\nsuperrománticos, ¿no crees?",
      "USfr": "Un coucher de soleil, c'est quand\nmême la méga romance garantie!\nZyva, j'adore trop!"
    }
  },
  {
    "label": "006",
    "attribute": "0x0000000100050000",
    "locale": {
      "CNzh": "今天晚上已经被安排得满满当当啦～\n我只是觉得，偶尔熬一下夜\n应该也没关系吧！。",
      "EUde": "Heute Nacht ist jede Minute total\nverplant, (Floskel)!\nAber die Nacht durchmachen ist\nokay, wenn man das nur ein paarmal\nin der Woche macht, oder?",
      "EUen": "My sched for tonight is paaacked!\nI've got a monster movie on TV, a\nvideo game to play, music to jam to...\nAll-nighters are OK a couple of\nnights a week, right?",
      "EUes": "¡Hoy tengo planes para toda\nla noche! De vez en cuando hay que\ndesmelenarse un poco, queri.",
      "EUfr": "Je suis overbookée ce soir ! Passer\nla nuit à faire la fête de temps en\ntemps, c'est pas mal non plus !",
      "EUit": "Stasera faccio festa! Stare svegli\ntutta la notte si può fare, un paio\ndi volte a settimana!",
      "EUnl": "Mijn agenda voor vanavond zit\nheeelemaal vol! Maar af en toe een\nnachtje doorhalen is toch prima?",
      "EUru": "Расписание на этот вечер забито!\nНо погулять ночью пару раз\nв неделю — это же нормально, да?",
      "JPja": "今日のアタイは　夜の予定もびっしりだよ～\nたまになら　夜ふかししても\nいいかな～って思って！　",
      "KRko": "오늘은 저녁 스케줄이 꽉 찼어～\n가끔씩은 밤 새우는 날이 있어도\n괜찮을 것 같아! !",
      "TWzh": "我今天啊，連晚上都排滿了行程唷～\n偶爾熬熬夜\n感覺也挺不錯的～！。",
      "USen": "My sched for tonight is paaacked!\nI've got a monster movie on TV, a\nvideo game to play, music to jam to...\nAll-nighters are OK a couple of\nnights a week, right?",
      "USes": "¡Hoy tengo planes para toooda\nla noche! De vez en cuando hay\nque festejar y desvelarse, amigui.",
      "USfr": "Je suis trop occupée ce soir! Passer\nla nuit à faire la fête de temps en\ntemps, c'est pas mal non plus!"
    }
  },
  {
    "label": "007",
    "attribute": "0x0000000100060000",
    "locale": {
      "CNzh": "嘻嘻，熬夜这件事\n始终会让人心情激动呀～！。",
      "EUde": "Ich mach die Nacht durch, um meine\nVampir-Seite zu entdecken. Hast du\nVampire in der Familie?",
      "EUen": "Hi! I'm out for my late-night spooky\nwalk. So far? Not too spooky.",
      "EUes": "¿Sabes qué me pasa cuando estoy\ndespierta toda la noche? Que me\nsiento así como vampira.",
      "EUfr": "Quand je fais la fête toute la nuit,\nje me sens un peu vampire...\nMais v'en mieux, lol !",
      "EUit": "Quando sto sveglia tutta la notte\nmi sembra di capire meglio i vampiri.\nTu hai qualche amico vampiro?",
      "EUnl": "Van een hele nacht opblijven voel ik\necht mijn innerlijke vampier. Heb jij\nvampierbloed in je familie?",
      "EUru": "Ночные тусовки помогают мне\nпочувствовать свою вампирскую\nсущность. Ты, случайно, не вампир?",
      "JPja": "えへへ、夜ふかしって\nテンション　あがっちゃうよね～！　",
      "KRko": "에헤헷, 밤새 놀면\n평소보다 더 신나는 것 같아～! !",
      "TWzh": "嘻嘻，熬夜……\n會讓人不自覺High起來耶～！。",
      "USen": "Hi! I'm out for my late-night spooky\nwalk. So far? Not too spooky.",
      "USes": "¿Sabes qué me pasa cuando estoy\ndespierta toooda la noche? ¡Que me\nsiento como si fuera vampira!\nOye, y ¿tus padres son vampiros?",
      "USfr": "Quand je fais la fête toute la nuit,\nje me sens un peu vampire...\nMais en mieux, lol!"
    }
  },
  {
    "label": "008",
    "attribute": "0x00000005000B0000",
    "locale": {
      "CNzh": "是不是朝霞的原因呢？\n感觉整个看上去\n和平时不太一样……让人好心动！。",
      "EUde": "Okay, die Morgensonne? Die ist\ntotal mega auf ...\nHeute könnte ALLES passieren!",
      "EUen": "The morning sun totes gives\n a really fun vibe...",
      "EUes": "No hay mejor filtro que el solete\nde la mañana: ¡ está espectacular con esta luz!",
      "EUfr": "Soleil du matin, la journée se\npassera bien. J'ai hâte de voir\nce qu'aujourd'hui nous réserve !",
      "EUit": "Non so se è la luce del mattino,\nma  sembra\n diversa e mi piace una cifra!",
      "EUnl": "Die ochtendzon? Die geeft écht een coole vibe aan ... Vandaag kan gewoon alles gebeuren!",
      "EUru": "На рассвете у острова\n такая\nклассная атмосфера...",
      "JPja": "朝焼けのせいかな？\nいつもの　とは　ちがう\nフンイキで・・・ドキドキしちゃう！　",
      "KRko": "아침노을 때문인가?\n의 분위기가\n평소랑 달라서... 두근두근해! !",
      "TWzh": "是因為朝霞的關係嗎？\n感覺好像跟平常\n不太一樣……讓我都心跳加速了！。",
      "USen": "The morning sun totes gives\n a really fun vibe...",
      "USes": "No hay mejor filtro que el solecito\nmañanero. ¡ se\nve superespectacular con esta luz!",
      "USfr": "Soleil du matin, la journée se\npassera bien. J'ai hâte de voir\nce qu'aujourd'hui nous réserve!"
    }
  },
  {
    "label": "011",
    "attribute": "0x0000000100000007",
    "locale": {
      "CNzh": "现在是散步时间哦～\n我正在努力消化\n刚才吃掉的～！。",
      "EUde": "Hey, ich lauf hier so rum!\nCheck das mal! Einen Fuß vor den\nanderen und los! Wahnsinn, oder?",
      "EUen": "You're out for a walk? Yay! I started\nwalking earlier and hoped it would\ncatch on. I'm such a trendsetter.",
      "EUes": "¡Estoy de paseo! En plan, pongo\nun pie delante de otro, ¡y caminando\nque me tienes!",
      "EUfr": "J'aime bien me balader ! Mettre un\npied devant l'autre et voir le paysage\ndéfiler, moi, chuis fan !",
      "EUit": "Vado a fare una passeggiata!\nGuarda... un passetto dopo l'altro\ne faccio chilometri!",
      "EUnl": "Ik ga eens lekker wandelen! Moet je\nkijken... Ik ga zo voetje voor voetje\nmooi overal naartoe? Bizar, toch?!",
      "EUru": "Я иду гулять! Смотри...\nЯ ставлю сначала одну ногу, потом\nвторую и так далее... Круто, да?",
      "JPja": "今、お散歩タイムなんだ～\nさっき食べた　を\nぜっさん消化中～！　",
      "KRko": "지금은 산책 시간이야～\n아까 먹은 을\n절찬 소화 중이지～! !",
      "TWzh": "現在可是我的散步時間喔～\n我正在大力消化\n剛剛吃的～！。",
      "USen": "You're out for a walk? Yay! I started\nwalking earlier and hoped it would\ncatch on. I'm such a trendsetter.",
      "USes": "¡Estoy de paseo! O sea, pongo\nun pie delante de otro, ¡y mira!\n¡Por ahí me voy caminando!",
      "USfr": "J'aime bien me balader! Mettre un\npied devant l'autre et voir le paysage\ndéfiler, moi, chuis fan!"
    }
  },
  {
    "label": "012",
    "attribute": "0x0000000500000007",
    "locale": {
      "CNzh": "晴天的空气就是舒服呀！\n光是深呼吸一口\n就觉得精神百倍～！。",
      "EUde": "Gutes Wetter ist echt das Größte!\nDa braucht man nur tief einzuatmen\nund kriegt schon tausend Songideen!",
      "EUen": "I should write a song about clear\nskies.\n♪ Day or night, clear skies let the\nstars shine bright. ♪\n♪ Don't forget, like some people do,\nour sun is a star too, living just eight\nlight minutes awaaaay! ♪\nOhmigosh! I just invented SPM!\nScience! Pop! Music!\nI DEFINED A GENRE!",
      "EUes": "¡Superadoro los cielos despejados!\nEs que miras arriba y es como que\n¡BUÁ! Qué grande es el universo.\nPorque a ver, el sol: sus rayos\nrecorren como mil millones de\nkilómetros o así.\nY por la noche vemos estrellas...\n¡y su luz ha viajado millones de\naños hasta llegar a nuestra isla!\n¡Ojalá mi luz también brille\nmuchísimo tiempo, !",
      "EUfr": "J'adore quand le ciel est dégagé\ncomme ça. La nuit, les étoiles brillent\nde mille feux !\nÇa inclut le soleil ! On l'oublie\ntoujours, mais c'est une étoile\nlui aussi.",
      "EUit": "Dovrei troppo scrivere una canzone\nsui cieli tersi.\n♪ Notte o giorno, con i cieli tersi\ndelle nuvole vedi il contorno.\n♪ Ricorda che anche il sole è una\nstella, troppo mitica e bella, che vive\na soli otto minuti luce da noooooi ♪\nAllucinante! Ho inventato la \"MPS\"!\nMusica Pop Spaziale! HO DEFINITO\nUN GENERE!",
      "EUnl": "Zo'n heldere lucht is supermooi!\nDan bedenk je pas echt hoe groot\nons universum is, weet je?\nZonlicht legt dagelijks miljoenen\nkilometers af om ons overdag warm\nte houden!\nEn 's nachts zien we het licht van de\nsterren dat soms wel miljoenen jaren\nonderweg is...\nGelukkig is je lievelingsster (resident name) altijd maar een paar stappen van je verwijderd!",
      "EUru": "Вот возьму и напишу песню\nо безоблачном небе.\n♪ Когда на небе ни облачка,\nи днем, и ночью сияют звездочки.\n♪ Ведь солнышко тоже звездочка,\nтолько живет она в восьми световых\nминутах от нас! ♪\nОбалдеть! Я только что изобрела\nНПМ — научную поп-музыку!\nЯ основала целый жанр!",
      "JPja": "晴れの日は　空気が気持ちいいよね！\n深こきゅうするだけで\n健康になりそ～！　",
      "KRko": "맑은 날은 공기도 상쾌해서 좋아!\n심호흡만 해도\n건강해지는 느낌이야～! !",
      "TWzh": "好天氣的日子空氣還真是新鮮耶！\n光是深呼吸，\n感覺就會變健康了～！。",
      "USen": "I should write a song about clear\nskies.\n♪ Day or night, clear skies let the\nstars shine bright. ♪\n♪ Don't forget, like some people do,\nour sun is a star too, living just eight\nlight minutes awaaaay! ♪\nOhmigosh! I just invented SPM!\nScience! Pop! Music!\nI DEFINED A GENRE!",
      "USes": "¡Superadoro los cielos despejados!\nEs que miras arriba y es como que\n¡GUAU! Qué grande es el universo.\nPorque o sea, el sol: sus rayos\nrecorren como mil millones de\nkilómetros o así.\nY por la noche vemos estrellas...\n¡y su luz ha viajado millones de\naños hasta llegar a nuestra isla!\n¡Ojalá mi luz también brille\nmuchísimo tiempo, !",
      "USfr": "J'adore quand le ciel est dégagé\ncomme ça. La nuit, les étoiles brillent\nde mille feux!\nÇa inclut le soleil! On l'oublie\ntoujours, mais c'est une étoile\nlui aussi."
    }
  },
  {
    "label": "013",
    "attribute": "0x0000000B00000007",
    "locale": {
      "CNzh": "花瓣可真漂亮呀～\n被落下的花这样簇拥着……\n感觉自己变成童话里的公主了～！。",
      "EUde": "Diese Blüten sind so total schön! Um\nmich herum nur tanzende Blüten...\nIch fühl mich wie eine Prinzessin!",
      "EUen": "The petals are so pretty!\nBeing surrounded by dancing\nflowers...it's like I'm a PRINCESS!",
      "EUes": "¡Cuántos pétalos! Es como si viera el\nvideoclip: yo entre pétalos... Plano\ncenital... Aparece un unicornio...",
      "EUfr": "Tous ces pétales qui volent, c'est\ntrop féérique ! Regarde, je suis une\nprincesse de conte pour enfants !",
      "EUit": "Gli alberi fioriti sono allucinanti!\nCircondata da petali profumati...\nmi sento come una principessa!",
      "EUnl": "Wat een mooie bloesempjes! Al die\ndansende bloemetjes om me heen...\nIk voel me net een prinses. Hihi!",
      "EUru": "Лепестки вишни такие миленькие!\nОкруженная этими цветочками...\nя чувствую себя принцессой!",
      "JPja": "花びら　キレイだね～\nひらひら　花につつまれて・・・\n童話のヒロインに　なった気分だよ～！　",
      "KRko": "꽃잎이 참 예쁘다～\n팔랑팔랑 떨어지는 꽃잎 속의 나...\n동화 속 주인공이 된 것 같아～! !",
      "TWzh": "花瓣還真是漂亮呢～\n在飄逸的花朵包圍下……有種變成\n童話故事女主角的感覺唷～！。",
      "USen": "The petals are so pretty!\nBeing surrounded by dancing\nflowers...it's like I'm a PRINCESS!",
      "USes": "¡Cuántos pétalos! Es como si viera el\nvideo: yo entre pétalos... Un bosque\nfantástico... Aparece un unicornio...",
      "USfr": "Tous ces pétales qui volent, c'est\ntrop féérique! Regarde, je suis une\nprincesse de conte pour enfants!"
    }
  },
  {
    "label": "014",
    "attribute": "0x0000000600000007",
    "locale": {
      "CNzh": "我现在正在思考，\n今天的甜点\n要吃些什么呢～！。",
      "EUde": "Hat jemand Wolken bestellt?!\nNebelmaschine könnte ich ja\nnoch verstehen...",
      "EUen": "Did someone order clouds? How are\nany of us supposed to be sunny if\nsunshine can't get down here?!",
      "EUes": "Superfán de las nubes, pero\na mis conciertos que no vengan,\n¿vale?",
      "EUfr": "Qui c'est qui a encore commandé\ndes nuages ?! Comment veux-tu\nque je brille, par un temps pareil ?",
      "EUit": "Avete ordinato voi le nuvole?\nCome facciamo a brillare senza\ni raggi del sole?!",
      "EUnl": "Wie heeft hier wolken besteld? Hoe\nkan iemand als ik nou sprankelen als\nde zon niet doorkomt?!",
      "EUru": "Кто-то заказывал тучи?\nА как же мы будем блистать,\nесли солнца нет?!",
      "JPja": "アタイ、今日は\nどんなスイーツを食べようか\n考えてたとこなの～！　",
      "KRko": "나 지금, 간식으로\n뭘 먹을지 고민 중이야～ !",
      "TWzh": "我現在正在思考，\n今天到底要\n吃什麼甜點才好呢～！。",
      "USen": "Did someone order clouds? How are\nany of us supposed to be sunny if\nsunshine can't get down here?!",
      "USes": "Soy superfán de las nubes, así con\ntodas sus formas distintas... pero\n¡a mis conciertos NO están invitadas!",
      "USfr": "Qui c'est qui a encore commandé\ndes nuages?! Comment veux-tu\nque je brille, par un temps pareil?"
    }
  },
  {
    "label": "015",
    "attribute": "0x0000000A00000007",
    "locale": {
      "CNzh": "今天感觉格外地冷呀～！\n下雪天的确会让人很开心，\n但是这一场下得有些太大啦～！。",
      "EUde": "Bei Schnee werd ich immer total\nhappy, okay? Aber warum muss\nder so ätzend kalt sein?!",
      "EUen": "Snow does fab things for my inner-\npeacefulness levels. But why does\nit have to be SO TOTES COLD?",
      "EUes": "Preciosa la nieve y todo lo que\nquieras, pero ¿el frío intenso\nes necesario?",
      "EUfr": "La neige a un côté relaxant, tu\ntrouves pas ? Par contre, pourquoi\nest-ce que c'est si froid ?!",
      "EUit": "La neve è da paura! Un vero\ntoccasana per la mia pace interiore.\nMa perché deve essere così fredda?",
      "EUnl": "Van sneeuw word ik hartstikke chill\nvanbinnen? Maar? Ik houd er niet\nvan als ik koud ben vanbuiten!",
      "EUru": "Снег меня так успокаивает...\nНо почему он должен быть\nтаким холодным?!",
      "JPja": "今日は　いちだんと冷えるね～！\n雪ってテンション　あがるけど\nちょっとコレは　ふりすぎ感あるよ～！　",
      "KRko": "오늘은 유난히 춥다～!\n눈이 오는 건 신나고 좋은데\n이건 좀 도가 지나친데～? ?",
      "TWzh": "今天真是特別寒冷耶～！\n下雪雖然讓人覺得High，\n但下成這樣好像有點太誇張啊～！。",
      "USen": "Snow does fab things for my inner-\npeacefulness levels. But why does\nit have to be SO TOTES COLD?",
      "USes": "Me superencanta la nieve,\n¡es hermosísima! Pero...\n¿el frío intenso es necesario?",
      "USfr": "La neige a un côté relaxant, tu\ntrouves pas? Par contre, pourquoi\nest-ce que c'est si froid?!"
    }
  },
  {
    "label": "016",
    "attribute": "0x0000000900000007",
    "locale": {
      "CNzh": "你不觉得雪中的\n看起来非常漂亮吗～？。",
      "EUde": " im Schnee?\nIch hab 'nen Song, für den ich genau\nso eine Kulisse will, (Floskel)...",
      "EUen": "Doesn't  look très\npretty in the snow, ?",
      "EUes": "¿No te mola  toda cubierta de nieve, ?",
      "EUfr": "J'adore quand \nrevêt son manteau blanc. L'île brille\nde mille feux, comme dit ma mère !",
      "EUit": "La nostra \nscintilla sotto la neve, !",
      "EUnl": "Ziet  er niet mooi glinsterend uit in de sneeuw? ?",
      "EUru": " в снегу выглядит просто потрясающе, правда? !",
      "JPja": "雪の　も\nオシャレだと思わない～？　",
      "KRko": "눈 내리는 도\n예쁘지 않아～? ?",
      "TWzh": "你不覺得下雪的\n也很時尚嗎～？。",
      "USen": "Doesn't  look très\npretty in the snow, ?",
      "USes": "Toda esta nieve hace que la isla\nse vea todavía más bonita.\n¿Verdad que sí, guapurita?",
      "USfr": "J'adore quand \nrevêt son manteau blanc. L'île brille\nde mille feux, comme dit ma mère!"
    }
  },
  {
    "label": "017",
    "attribute": "0x0000000800000007",
    "locale": {
      "CNzh": "一到下雨天，\n我就变成娇嫩欲滴的美少女啦！\n……是这样没错吧？。",
      "EUde": "Ich bin total vom Regen durchnässt.\nCool, oder? Wetlook ist grad voll\nin, (Floskel)!",
      "EUen": "Don't you think I really pull off the\nwhole \"drenched by rain\" look?",
      "EUes": "¿Qué tal me queda el «look pelo\nmojado y toda la ropa mojada\ntambién porque diluvia»?",
      "EUfr": "Tu aimes mon style « détrempé\ncomme une soupe » ? J'ai passé des\nplombes dehors pour le maîtriser !",
      "EUit": "Non trovi che mi doni molto\nil look \"bagnata fradicia\"?",
      "EUnl": "Vind je ook niet dat ik supergoed wegkom met die --look?",
      "EUru": "Как думаешь, мой шикарный\nнаряд достаточно шикарен, чтобы\nоставаться гламурным под дождем?",
      "JPja": "雨の日の　アタイは、\n水もしたたる　イイ女！\n・・・ってカンジでしょー？　",
      "KRko": "비 오는 날에 만나니까\n평소보다 더 촉촉하고\n분위기 있어 보이지 않아? ?",
      "TWzh": "雨天時的我\n就像出水芙蓉般的好女人！\n……你說對吧～？。",
      "USen": "Don't you think I really pull off the\nwhole \"drenched by rain\" look?",
      "USes": "¿Qué opinas de mi nuevo look?\nLo llamo \"después del diluvio chic\".\nMe queda bien, ¿no?",
      "USfr": "Tu aimes mon style « détrempé\ncomme une soupe »? J'ai passé des\nheures dehors pour le maîtriser!"
    }
  },
  {
    "label": "018",
    "attribute": "0x0000000700000007",
    "locale": {
      "CNzh": "",
      "EUde": "",
      "EUen": "",
      "EUes": "",
      "EUfr": "",
      "EUit": "",
      "EUnl": "",
      "EUru": "",
      "JPja": "",
      "KRko": "",
      "TWzh": "",
      "USen": "",
      "USes": "",
      "USfr": ""
    }
  },
  {
    "label": "019",
    "attribute": "0x0000000000000000",
    "locale": {
      "CNzh": "就是下雨天，才应该在外面玩！\n躲在房间里多可惜呀～。",
      "EUde": "Regentage sind mega! Aber nur,\nwenn man draußen ist. Drinnen\nbleiben ist voll die Verschwendung!",
      "EUen": "Rainy days are PERFECTO for going\noutside! Staying inside and being\ndry would be SUCH a waste!",
      "EUes": "Aprovecho los días de lluvia\npara salir a cantar. ¡Sería un\ndesperdicio quedarse seca en casa!",
      "EUfr": "C'est le temps IDÉAL pour jouer\ndehors ! Quel gâchis de rester à la\nmaison par un temps pareil !",
      "EUit": "I giorni di pioggia sono perfetti\nper giocare fuori! Cioè, stare a casa\nall'asciutto? Uno spreco totale!",
      "EUnl": "Regenachtige dagen zijn perfect om\nbuiten te spelen! Een beetje droog\nbinnenblijven is zooo saai!",
      "EUru": "Дождливые дни просто идеальны\nдля прогулок! Сидеть дома в такую\nпогоду — такая трата воды!",
      "JPja": "雨の日こそ　外で　遊ばなくっちゃね！\n部屋の中にいたら　もったいないよ～、",
      "KRko": "비가 오는 날이야말로 밖에서 놀아야지!\n집에만 있긴 아깝잖아～ !",
      "TWzh": "下雨天的時候就是要在外面玩呢！\n要是待在房間裡，實在太可惜啦～。",
      "USen": "Rainy days are PERFECTO for going\noutside! Staying inside and being\ndry would be SUCH a waste!",
      "USes": "Aprovecho los días de lluvia\npara salir a cantar. ¡Sería un\ndesperdicio quedarse seca en casa!",
      "USfr": "C'est le temps IDÉAL pour jouer\ndehors! Quel gâchis de rester à la\nmaison par un temps pareil!"
    }
  },
  {
    "label": "020",
    "attribute": "0x0000000000000000",
    "locale": {
      "CNzh": "都因为今天下雨，\n湿气太重，毛发都翘起来了～\n啊～好麻烦……。",
      "EUde": "Der Regen auf \nschmeckt irgendwie nach Pfeffer-\nminz, oder, (Spitzname)?",
      "EUen": "The rain on  tastes\nkind of like , don't you\nthink, (nickname)?",
      "EUes": "De verdad que la lluvia es como que\nlo peor para mi peinado.\nQué injusticia, oye...",
      "EUfr": "Tu trouves pas que la pluie sur\n a le goût de la\nmenthe fraîche, (surnom) ?",
      "EUit": "La pioggia qui  \nsa di menta piperita, non ti pare,\n(nickname)?",
      "EUnl": "Vind jij nou ook niet dat de regen op  naar pepermunt smaakt, (nickname)?",
      "EUru": "Дождь острова \nна вкус как мята, ты не замечал,\n(nickname)?",
      "JPja": "今日は雨だから、\n毛がしっけで　はねちゃうんだよね～\nあ～ん、こまったな～・・・、",
      "KRko": "오늘은 비 때문에\n머리가 축 처져서 엉망이야～\n으앙～ 어떡해～ !",
      "TWzh": "因為今天下雨，\n濕氣讓我的頭髮都亂翹了～\n討厭～真傷腦筋啊……。",
      "USen": "The rain on  tastes\nkind of like , don't you\nthink, (nickname)?",
      "USes": "Ay, en serio que la lluvia es lo\nsuperpeor para mi peinado...\n¡Es superinjustooo!",
      "USfr": "Tu trouves pas que la pluie sur\n a le goût de la\nmenthe fraîche, (surnom)?"
    }
  },
  {
    "label": "021",
    "attribute": "0x0000000100000008",
    "locale": {
      "CNzh": "散步的时候，\n总会见到不少有趣的事物哦～！\n比如说可爱的小花和漂亮的小屋！。",
      "EUde": "Ich liebe es, beim Spazierengehen\nneue Sachen zu entdecken! Zum\nBeispiel süße Blumen!\nUnd versteckte Orte, wo man singen\nüben kann...",
      "EUen": "I love all the amazing discoveries I\nmake on my walks. Like cute flowers,\nor très fantastique vistas!",
      "EUes": "Lo mejor de pasear, ¿vale?, es todo\nlo que me encuentro por ahí.\nFlores bonitas, futuros fans...",
      "EUfr": "Chaque fois que je me balade, je\ndécouvre des trucs déments ! Des\njolies fleurs, des super cachettes...",
      "EUit": "Adoro scoprire cose nuove durante\nle mie passeggiate! Tipo fiori carucci\no nascondigli vari...",
      "EUnl": "Als ik wandel, ontdek ik zoveel\nmooie dingen! Lieve bloempjes!\nPlekjes om dingen te verstoppen...",
      "EUru": "Обожаю все открытия, которые\nя делаю, когда гуляю! Всякие\nцветочки там, тайники...",
      "JPja": "お散歩って、いろんな出会いが\nあっていいよね～！\nカワイイ花とか　オシャレな家とかさ、",
      "KRko": "산책을 하다 보면\n다양한 만남이 있어서 좋아～!\n예쁜 꽃이나 멋진 집 말이야! !",
      "TWzh": "散步真是不錯……可以藉此\n與各式各樣的事物相遇呢～！\n像可愛的花朵或時髦的屋子等等！。",
      "USen": "I love all the amazing discoveries I\nmake on my walks. Like cute flowers,\nor très fantastique vistas!",
      "USes": "Lo mejor de pasear es ¡tooodo\nlo que me encuentro por ahí!\nFlores bonitas, futuros fans...",
      "USfr": "Chaque fois que je me balade, je\ndécouvre des trucs géniaux! Des\njolies fleurs, des super cachettes..."
    }
  },
  {
    "label": "022",
    "attribute": "0x0000000500000008",
    "locale": {
      "CNzh": "说到底，\n我最喜欢的还是晴天呀～\n可以享受到太阳还有月亮的光芒！。",
      "EUde": "Sonnentage sind die besten.\nWenn die Sonne scheint, sieht jeder\nwie ein Star aus, findest du nicht?",
      "EUen": "Sunny days are my absolute fave.\nOn a sunny day, life is just so...\ngreat. You know?",
      "EUes": "Los días soleados son mis favoritos.\nEs como que todo tiene un brillo\nespecial, ¿no te parece?",
      "EUfr": "Y a pas mieux que les jours\nensoleillés. C'est là que je peux\nbriller comme une vraie étoile !",
      "EUit": "I giorni di sole sono i miei preferiti.\nCon il sole la vita è scintillante\ne sprizza allegria, proprio come me!",
      "EUnl": "Zonnige dagen zijn mijn favo dagen.\nOp een zonnige dag glinstert alles!",
      "EUru": "Обожаю солнечные деньки!\nКогда светит солнце, я вся\nпросто блистаю, замечал?",
      "JPja": "アタイは　やっぱり\n晴れてる日が　一番好きだな～\n太陽や月の光を　いっぱい浴びたいもん、",
      "KRko": "난 역시 맑은 날이 제일 좋더라～\n햇빛도 달빛도\n마음껏 쬐고 싶거든! !",
      "TWzh": "我果然還是\n最喜歡晴朗的日子吧～\n因為可以盡情沐浴陽光或月光！。",
      "USen": "Sunny days are my absolute fave.\nOn a sunny day, life is just so...\ngreat. You know?",
      "USes": "Los días soleados son mis favoritos.\nTodo tiene un brillito extraespecial,\n¿no te parece?",
      "USfr": "Y'a pas mieux que les jours\nensoleillés. C'est là que je peux\nbriller comme une vraie étoile!"
    }
  },
  {
    "label": "023",
    "attribute": "0x0000000B00000008",
    "locale": {
      "CNzh": "啊，花瓣落在我的头上了～！\n你快抓紧呀，！\n这可是绝好的抓拍机会呢～！。",
      "EUde": "Oooh! Mir ist eine Blüte auf den\nKopf gefallen! (Spitzname)!\nVoll die Magie! Ich liebe es!",
      "EUen": "Ooh! A petal on my head!\n(nickname)! Make a wish!",
      "EUes": "¿Tengo un pétalo en la cabeza?\n¡Corre, (nickname), sácame\nuna foto, que saldré divina!",
      "EUfr": "Ooh ! Un pétale s'est posé sur ma\ntête ! (surnom) ! Ça vaut une photo, non ?",
      "EUit": "Oooh, (nickname), guarda! Ho un petalo in testa! Sembra di stare in un mondo fatato. Che storia!",
      "EUnl": "Moet je kijken! Een bloemblaadje op mijn hoofd! (nickname)! Dit is gewoon magie of zo? Gaaaaaaf!",
      "EUru": "Oх! Лепесток упал мне на голову!\n(nickname)! Это же просто\nволшебство какое-то! Шикарно!",
      "JPja": "あっ　花びらが　アタイの頭にー！\nちょっと　、\nシャッターチャンスだよ～！　",
      "KRko": "앗! 꽃잎이 내 머리에!\n지금이야, 아!\n사진, 사진～! !",
      "TWzh": "啊，花瓣落在我頭上了～！\n欸欸，，\n現在正是拍照的好時機唷～！。",
      "USen": "Ooh! A petal on my head!\n(nickname)! Make a wish!",
      "USes": "¿Tengo un pétalo en la cabeza?\n¡Corre, (nickname), tómame\nuna foto, que saldré superfabs!",
      "USfr": "Ooh! Un pétale s'est posé sur ma\ntête! (surnom)! Ça vaut une photo, non?"
    }
  },
  {
    "label": "024",
    "attribute": "0x0000000600000008",
    "locale": {
      "CNzh": "今天是阴天啊～\n既然如此……那就用我灿烂的笑容\n来让这座岛明朗起来吧～！。",
      "EUde": "Heute ist es total bewölkt. Aber egal,\ndenn so ein Wetter eignet sich prima,\num einen Wellness-Tag einzulegen.",
      "EUen": "It's cloudy. I'm not a fan. But you\nknow what? Clouds aren't so bad if\nyou talk about them with friends.",
      "EUes": "¡Qué nublado está hoy! Bueno,\nentiendo que las nubes también\nquieran salir a lucirse a veces.",
      "EUfr": "C'est nuageux aujourd'hui. Je suis\npas fan. Mais j'adore parler de la\npluie et du beau temps avec toi !",
      "EUit": "È nuvoloso. Non mi piacciono le\nnuvole, anche se non sono così male\nse ne parli con gli amici.",
      "EUnl": "Het is bewolkt. Ik ben geen fan. Maar\nweet je? Wolken vallen best mee als\nje erover praat met vrienden.",
      "EUru": "Не могу сказать, что люблю, когда\nоблачно. Но знаешь что? Когда ты\nс друзьями, любая погода хороша!",
      "JPja": "今日は　くもりかぁ～\nだったら・・・　アタイのスマイルで\n明るくするしかないよね～！　",
      "KRko": "오늘은 날이 흐리네～\n할 수 없군... 나의 미소로\n주변을 밝힐 수밖에～! !",
      "TWzh": "今天是陰天啊～\n這樣一來……就只好用我燦爛的笑容\n來照亮你了～！。",
      "USen": "It's cloudy. I'm not a fan. But you\nknow what? Clouds aren't so bad if\nyou talk about them with friends.",
      "USes": "¡Qué nublado está hoy! Bueno,\nentiendo que las nubes también\nquieran salir a lucirse a veces.",
      "USfr": "C'est nuageux aujourd'hui. Je suis\npas fan. Mais j'adore parler de la\npluie et du beau temps avec toi!"
    }
  },
  {
    "label": "025",
    "attribute": "0x0000000A00000008",
    "locale": {
      "CNzh": "习惯之后，\n在雪中散步也是很有趣的哦～。",
      "EUde": "Im Schnee rumlaufen ist total mega,\nwenn man dran denkt, sich was\nWarmes anzuziehen, (Floskel)!",
      "EUen": "Snowy walks are super fun once you\nremember you need to dress warm!",
      "EUes": "Los paseos en la nieve son de lo más\nestupén, siempre que te acuerdes de\nponerte mil capas de abrigo, claro.",
      "EUfr": "J'adore me balader sous la neige !\nFaut juste penser à s'habiller avec\ndes fringues chaudes, c'est tout !",
      "EUit": "Se ti ricordi di vestirti come si deve,\nle passeggiate nella neve possono\nessere un'esperienza da sogno!",
      "EUnl": "Als je maar weet dat je iets warms\nmoet aantrekken, dan is een\nsneeuwwandeling superlekker!",
      "EUru": "Гулять по снегу — это супервесело,\nно только если одеваешься\nдостаточно тепло!",
      "JPja": "雪の日の　お散歩も\n慣れちゃうと　楽しいね～、",
      "KRko": "눈 오는 날도 익숙해지면\n산책하는 게 즐거워～ !",
      "TWzh": "一旦習慣了雪中散步，\n就覺得很好玩呢～。",
      "USen": "Snowy walks are super fun once you\nremember you need to dress warm!",
      "USes": "¡Los paseos en la nieve son lo mejor!\nBueno, siempre que te acuerdes de\nabrigarte con mil capas, obvio.",
      "USfr": "J'adore me balader sous la neige!\nFaut juste penser à s'habiller avec\ndes vêtements chauds, c'est tout!"
    }
  },
  {
    "label": "026",
    "attribute": "0x0000000900000008",
    "locale": {
      "CNzh": "虽然雪摸起来很冷，\n但是看上去却是软绵绵的，\n很可爱对吧～！。",
      "EUde": "Schnee fühlt sich kalt an, aber\ner ist so fluffig, dass ich am\nliebsten ein Outfit draus hätte!",
      "EUen": "I built a snowperson that's cold to\nthe touch, but it's so fluffy and\nadorbs I just want to hug it!",
      "EUes": "La nieve es tan esponjosa y brilla\ntanto que quiero abrazarla toda... pero está fría... ¡pero es tan bonita!",
      "EUfr": "La neige est si froide au toucher.\nMais les flocons sont hyper choupi,\nça devrait presque être interdit !",
      "EUit": "La neve è freddissima, ma è così\ngraziosa e soffice che mi viene\nvoglia di abbracciarla! Possibile?",
      "EUnl": "Sneeuw is wel koud en zo, maar ook\nheel pluizig en lief. Kon ik er maar\neen kussen voor mijn bed van maken!",
      "EUru": "Снег такой холодный на ощупь,\nно при этом такой пушистый,\nчто хочется сгрести его в охапку!",
      "JPja": "雪って　さわると冷たいけど、\n見た目は　フワフワで\nカワイイよね～！　",
      "KRko": "눈은 만지면 차갑지만\n보기에는 폭신폭신해 보여서\n참 예뻐～! !",
      "TWzh": "雪雖然摸起來涼涼的，\n看上去卻蓬鬆柔軟，\n很可愛對吧～！。",
      "USen": "I built a snowperson that's cold to\nthe touch, but it's so fluffy and\nadorbs I just want to hug it!",
      "USes": "La nieve es tan esponjosa y brilla\ntanto que quiero abrazarla toda... pero está fría... ¡pero es tan bonita!",
      "USfr": "La neige est si froide au toucher.\nMais les flocons sont hyper mignons,\nça devrait presque être interdit!"
    }
  },
  {
    "label": "027",
    "attribute": "0x0000000800000008",
    "locale": {
      "CNzh": "如果这场雨下的是的话……\n超～级有趣的对吧！。",
      "EUde": "Wär schon cool, wenn es so viel\nregnen würde, dass die Insel sinkt\nund wir Meerjungfrauen werden...",
      "EUen": "It'd be kind of le great if it rained so\nmuch that the island sunk and we\nall turned into mermaids.",
      "EUes": "Me encantaría, no sé, ¿te imaginas\nque llueve tanto que se hunde\nla isla y nos hacemos todos sirenas?",
      "EUfr": "Imagine le délire : il pleut tellement\nque l'île finit engloutie et on se\ntransforme tous en sirènes, lol !",
      "EUit": "Sarebbe da paura se piovesse così\ntanto da far affondare l'isola e noi ci\ntrasformassimo tutti in sirene!",
      "EUnl": "Het zou te gek zijn als het zo hard\nregende dat het eiland zonk en we\nallemaal zeemeerwezens werden.",
      "EUru": "Было бы круто, если бы остров\nзатонул, а мы все превратились\nв русалок...",
      "JPja": "この雨が　だったら・・・\nちょー面白いよね～！　",
      "KRko": "이 비가 이라면...\n상상만 해도 재밌다～! !",
      "TWzh": "這場雨下的如果是……\n一定超～有趣的說～！。",
      "USen": "It'd be kind of le great if it rained so\nmuch that the island sunk and we\nall turned into mermaids.",
      "USes": "Me encantaría, no sé, ¿te imaginas\nque llueve tanto que se hunde la\nisla y nos hacemos todos sirenas?",
      "USfr": "Imagine le délire : il pleut tellement\nque l'île finit engloutie et on se\ntransforme tous en sirènes, lol!"
    }
  },
  {
    "label": "028",
    "attribute": "0x0000000700000008",
    "locale": {
      "CNzh": "",
      "EUde": "",
      "EUen": "",
      "EUes": "",
      "EUfr": "",
      "EUit": "",
      "EUnl": "",
      "EUru": "",
      "JPja": "",
      "KRko": "",
      "TWzh": "",
      "USen": "",
      "USes": "",
      "USfr": ""
    }
  },
  {
    "label": "029",
    "attribute": "0x0000000000000000",
    "locale": {
      "CNzh": "雨天的我是不是魅力十足呀？\n……开个玩笑啦！。",
      "EUde": "Okay, eigentlich ist Regen so was\nÄhnliches wie Glitter, okay?",
      "EUen": "Aren't I just so extra glam on\nrainy days?",
      "EUes": "¿Soy yo la única que superbrilla\nespecialmente en los días de lluvia?",
      "EUfr": "Tu trouves pas que, les jours de\npluie, je brille encore plus que\nd'habitude ?",
      "EUit": "Non mi trovi scintillante da paura\nnei giorni di pioggia?",
      "EUnl": "Ben ik niet gewoon\nsupermegasprankelend als het\nregent?",
      "EUru": "Разве я не выгляжу особенно\nблестяще в дождливую погоду?",
      "JPja": "雨の日のアタイって　ミリョク的でしょ？\n・・・なんちゃって！　",
      "KRko": "비 오는 날은\n내가 더 매력적이지 않아?\n나 지금 뭐래니～! !",
      "TWzh": "雨天的我……充滿了魅力對吧？\n……開玩笑的啦！。",
      "USen": "Aren't I just so extra glam on\nrainy days?",
      "USes": "¿Soy yo la única que superbrilla\nespecialmente en los días de lluvia?",
      "USfr": "Tu trouves pas que, les jours de\npluie, je brille encore plus que\nd'habitude?"
    }
  },
  {
    "label": "030",
    "attribute": "0x0000000000000000",
    "locale": {
      "CNzh": "像这种下雨天，\n就会觉得很想喝\n呀～！。",
      "EUde": "An Regentagen hab ich immer total\nLust auf die -Suppe\nvon meiner Ma!\nWärmt einen richtig auf und ist\nvoll lecker, (Floskel)!",
      "EUen": "Rainy days make me crave a bowl of\n and \nsoup! Yuuuummmm!",
      "EUes": "Cuando llueve tengo superantojo\nde  y la sopa\nde  de mi madre...",
      "EUfr": "La pluie, ça me fait penser à deux\nchoses...  et  de ma mère !",
      "EUit": "Quando piove mangerei volentieri...\nun po' di  e la zuppa di  di mamma!",
      "EUnl": "Als het regent krijg ik trek in mama's  en soep van ! Jammie!",
      "EUru": "От этого дождя мне захотелось\nфирменного \nот мамусика! Ням-ням-ням!",
      "JPja": "こんな雨の日は、\nが\n飲みたくなっちゃうよ～！　",
      "KRko": "이렇게 비 오는 날이면\n이\n마시고 싶어지더라～! !",
      "TWzh": "這種下雨的日子，\n讓人好想喝\n啊～！。",
      "USen": "Rainy days make me crave a bowl of\n and \nsoup! Yuuuummmm!",
      "USes": "Cuando llueve se me antoja  con   por mi mami.",
      "USfr": "La pluie, ça me fait penser à deux\nchoses...  et  de ma mère!"
    }
  },
  {
    "label": "031",
    "attribute": "0x0000000100000009",
    "locale": {
      "CNzh": "嘻嘻，\n你在这种地方做些什么呀～\n该不会是来见我的吧～？。",
      "EUde": "Was geeeeeeht, (Spitzname)?\nWillst du mit mir abhängen?",
      "EUen": "Hiiii, (nickname)... Are you\nhere to hang out with me?",
      "EUes": "¡(nickname)!\n¿Has venido a ver a la moi?",
      "EUfr": "Qu'est-ce que tu racontes de beau,\n(surnom) ? Tu passes voir ta chère (nom du résident) ?",
      "EUit": "Ehi, come butta, (nickname)?\nCercavi me?",
      "EUnl": "Hoe gaat het, (nickname)? Kom je iets leuks doen met mij?",
      "EUru": "Как делишки, (nickname)?\nХочешь погулять?",
      "JPja": "えへへ、ってゆうか\nこんなとこで　なにしてんのさー\nアタイに　会いにきてくれたとかー？　",
      "KRko": "에헤헤, 근데\n여기에서 뭐 해～?\n혹시 날 만나러 온 거야～? ?",
      "TWzh": "嘻嘻，是說……\n你在這種地方做什麼啊～\n難道你是來見我的嗎～？。",
      "USen": "Hiiii, (nickname)... Are you\nhere to hang out with me?",
      "USes": "¡(nickname)!\n¿Qué haces? ¿Viniste a verme?",
      "USfr": "Qu'est-ce que tu racontes de beau,\n(surnom)? Tu passes voir ta chère (nom du résident)?"
    }
  },
  {
    "label": "032",
    "attribute": "0x0000000500000009",
    "locale": {
      "CNzh": "天气这么好，\n真想在户外和人聊聊天呀～。",
      "EUde": "Ist es nicht toll, bei gutem Wetter\ndraußen zu sein? Wir müssen echt\nmal ein Picknick machen!",
      "EUen": "Don't you love being outside when\nthe weather's like this? We need to\nhave a picnic sometime!",
      "EUes": "¿No te superencanta salir con este\ntiempo? ¡Solo nos falta la cesta de\npícnic!",
      "EUfr": "Dès qu'un coin de ciel dégagé pointe\nle bout de son nez, je cours dehors !\nHé, un pique-nique, ça te tenterait ?",
      "EUit": "Non ti piace stare all'aperto\nquando c'è 'sto tempo? Dobbiamo\ntroppo fare un picnic insieme!",
      "EUnl": "Vind jij het ook niet super om buiten\nte zijn als het weer zo fijn is? We\nmoeten eens samen picknicken!",
      "EUru": "Как же круто в такую погоду\nгулять на свежем воздухе! Надо\nбудет как-нибудь устроить пикник!",
      "JPja": "いい天気だと、外で\nおしゃべりしたくなるよね～、",
      "KRko": "날이 맑으면 밖에서\n수다 떨고 싶어져～ !",
      "TWzh": "只要一遇到好天氣，\n就讓我想要在外面聊天呢～。",
      "USen": "Don't you love being outside when\nthe weather's like this? We need to\nhave a picnic sometime!",
      "USes": "¿No te superencanta salir con este\ntiempo? ¡Solo nos falta la cesta de\npícnic!",
      "USfr": "Dès qu'un coin de ciel dégagé pointe\nle bout de son nez, je cours dehors!\nHé, un pique-nique, ça te tenterait?"
    }
  },
  {
    "label": "033",
    "attribute": "0x0000000B00000009",
    "locale": {
      "CNzh": "这些花可真漂亮！\n简直就像是在歌颂\n我们两人的友情，对不对～？。",
      "EUde": "Die Blumen sind voll schön!\nAls würden sie unsere Freundschaft\nfeiern, oder so!",
      "EUen": "The flowers are sooo pretty! It's like\nthey're celebrating our friendship\nor whatever!",
      "EUes": "¡Mira qué flores tan cuquis! Seguro\nque han brotado solo para celebrar\nlo buenos amigos que somos...",
      "EUfr": "Ces fleurs sont magnifiques !\nOn dirait qu'elles font la fête en\nl'honneur de notre amitié, lol !",
      "EUit": "Sono belli una cifra questi fiori!\nCioè, forse sono qui per celebrare\nla nostra amicizia? Che storia!",
      "EUnl": "De bloemen zijn supermooi! Net of\nze onze vriendschap vieren of zo!",
      "EUru": "Эти цветочки такие шикарные!\nКак и наша с тобой дружба!",
      "JPja": "花、キレイだね！\nまるで　アタイらの友情を\nお祝いしてくれてるみたいじゃない？　",
      "KRko": "꽃이 참 예쁘다!\n마치 우리의 우정을\n축복하는 것 같지 않아? ?",
      "TWzh": "花朵……很漂亮對吧！\n不覺得它看起來\n就像在為我們的友情慶祝嗎～？。",
      "USen": "The flowers are sooo pretty! It's like\nthey're celebrating our friendship\nor whatever!",
      "USes": "¡Mira qué flores tan lindas! ¡Seguro\nque brotaron para celebrar nuestra\nsuperamistad!",
      "USfr": "Ces fleurs sont magnifiques!\nOn dirait qu'elles font la fête en\nl'honneur de notre amitié, lol!"
    }
  },
  {
    "label": "034",
    "attribute": "0x0000000600000009",
    "locale": {
      "CNzh": "真没想到，\n阴天的户外居然这么舒服！\n待在家里只会觉得外面好暗……。",
      "EUde": "Draußen abhängen wenn's bewölkt\nist, ist eigentlich voll schlau...\nDrinnen ist es nämlich ganz dunkel!",
      "EUen": "Being outside when it's cloudy is\ngreat...it's like we're kids and the\nworld is one big blanket fort.",
      "EUes": "Cuando está así de nublado como\nque el cuerpo me pide salir un poco,\nque en casa se está de un lúgubre...",
      "EUfr": "Par ce temps, il fait trop sombre\npour rester à l'intérieur... Dehors,\nla luminosité est parfaite !",
      "EUit": "Quando è nuvoloso fuori fa sempre\nun po' freschetto... Ma in casa\nè troppo buio!",
      "EUnl": "Buiten zijn als het bewolkt is, heeft\nook wel wat... Het is me gewoon te\ndonker binnen nu.",
      "EUru": "Вообще, гулять, когда на улице\nоблачно — это приятно...\nДома сейчас как-то темно.",
      "JPja": "くもりって　意外と、\n外では　すごしやすいよね！\n家の中では　暗いなーって思うけど、",
      "KRko": "흐린 날은 의외로\n밖이 쾌적한 편이야!\n집 안은 좀 어둡지만 말야, !",
      "TWzh": "陰天的日子……\n待在外面意外地舒服呢！\n不過家裡面應該會很昏暗吧，。",
      "USen": "Being outside when it's cloudy is\ngreat...it's like we're kids and the\nworld is one big blanket fort.",
      "USes": "Cuando está así de nublado,\nme dan ganas de salir a pasear.\n¡Mi casita se pone muy oscura!",
      "USfr": "Par ce temps, il fait trop sombre\npour rester à l'intérieur... Dehors,\nla luminosité est parfaite!"
    }
  },
  {
    "label": "035",
    "attribute": "0x0000000A00000009",
    "locale": {
      "CNzh": "，\n下雪真的很冷，小心不要感冒哦～？\n要不然就没法和我一起玩啦！。",
      "EUde": "Hol dir bei dem Schnee keine\nErkältung, okay, (Spitzname)?\nUnd wenn doch – gib sie zurück!",
      "EUen": "Don't catch a cold in this snow, 'K,\n(nickname)? And if you do\ncatch a cold, you should let it go!",
      "EUes": "No se te ocurra cogerme un catarro,\n¿vale, (nickname)? Y si lo pillas... ¡suéltalo!",
      "EUfr": "Va pas attraper un rhume à cause de\nla neige, (surnom) ! Et si tu l'attrapes, laisse-le partir, lol !",
      "EUit": "Ehi, cerca di non prendere\nil raffreddore, (nickname)!\nE se lo prendi... lascialo andare!",
      "EUnl": "Geen kou vatten in de sneeuw, hoor, (nickname)? En doe je dat wel, dan vat ik niet waarom, hihi!",
      "EUru": "Не поймай простуду в такую\nпогоду, (nickname)!\nA если поймаешь, то отпусти!",
      "JPja": "、\n雪で　マジ寒いけど　カゼひかないでねー？\nアタイと　遊べなくなっちゃうからさ！　",
      "KRko": "아!\n눈 때문에 대박 추우니까 감기 조심해!\n감기 걸리면 나랑 못 놀잖아! !",
      "TWzh": "，\n下雪實在超冷的，你可別感冒囉～？\n不然你就沒辦法跟我一起玩了！。",
      "USen": "Don't catch a cold in this snow, 'K,\n(nickname)? And if you do\ncatch a cold, you should let it go!",
      "USes": "No se te ocurra resfriarte,\n¿eh, (nickname)? Y si lo\nhaces... pues ¡mejórate prontito!",
      "USfr": "Va pas attraper un rhume à cause de\nla neige, (surnom)! Et si tu l'attrapes, laisse-le partir, lol!"
    }
  },
  {
    "label": "036",
    "attribute": "0x0000000900000009",
    "locale": {
      "CNzh": "，\n你见过雪花吗？\n真的超～级可爱哦～！。",
      "EUde": "Hast du dir schon mal Schneeflocken\nangesehn, (Spitzname)?\nDie sind alle verschieden –\naber alle sind voll süß!",
      "EUen": "Have you ever seen a snowflake up\nclose, (nickname)? They're\nall different—and all adorbs!",
      "EUes": "¿Has visto alguna vez un cristal\nde nieve, (nickname)? O sea,\nno puedo de lo preciosos que son.",
      "EUfr": "T'as déjà regardé un flocon de neige\nde près, (surnom) ? Ils sont trop mimi, et tous différents !",
      "EUit": "Hai mai visto un fiocco di neve,\n(nickname)? Sono tutti\ndiversi e tutti così carucci, non trovi?",
      "EUnl": "Heb jij weleens een sneeuwvlok gezien, (nickname)? Ze zijn allemaal anders, maar superschattig!",
      "EUru": "Ты когда-нибудь разглядывал\nснежинки, (nickname)? \nОни все такие разные и милые!",
      "JPja": "って、\n雪のけっしょう　見たことある？\nあれって　ちょーカワイイよね～！　",
      "KRko": " 너,\n눈의 결정을 본 적 있어?\n그거 진짜 예쁘다～! !",
      "TWzh": "是說……\n你看過雪花結晶嗎？\n那個看起來真是超～可愛的耶～！。",
      "USen": "Have you ever seen a snowflake up\nclose, (nickname)? They're\nall different—and all adorbs!",
      "USes": "¿Has visto alguna vez un cristal\nde nieve, (nickname)? O sea,\n¡no puedo con lo preciosos que son!",
      "USfr": "T'as déjà regardé un flocon de neige\nde près, (surnom)? Ils sont trop mignons, et tous différents!"
    }
  },
  {
    "label": "037",
    "attribute": "0x0000000800000009",
    "locale": {
      "CNzh": "，你知道吗？\n通过在雨天的打扮，可以看出一个人\n是不是真的潮人哦。。",
      "EUde": "Okay, ich hab gehört, dass Regen\nder ultimative Outfit-Test ist.\n(Floskel)!",
      "EUen": "Sometimes it's fun to stand out in\nthe rain and scream at the sky.\nI said \"fun,\" right? I sold that idea?",
      "EUes": "Mi teoría es que se puede saber\nsi alguien tiene estilo o no según\nlo que se ponga cuando llueve.",
      "EUfr": "Parfois, je reste sous la pluie et je\ncrie vers le ciel. C'est un peu une\nthérapie... mais trop logique !",
      "EUit": "Mi piace una cifra stare ferma sotto\nla pioggia e gridare al cielo.\nChe ne dici? Mi fai compagnia?",
      "EUnl": "Soms is het leuk om in de regen\nnaar de lucht te schreeuwen. Ik zei\ndus: \"leuk\". Kwam dat ook zo over?",
      "EUru": "Иногда так весело выйти в дождь\nи покричать на небо!\nОй, я это вслух сказала?",
      "JPja": "　知ってる？\n雨の日のファッションで　オシャレ度が\nわかるらしいよ～、",
      "KRko": "아, 그거 알아?\n비 오는 날의 패션을 보면\n그 사람의 센스를 알 수 있대～ !",
      "TWzh": "，你知道嗎？\n從雨天的打扮就可以看出\n一個人的時髦程度唷～。",
      "USen": "Sometimes it's fun to stand out in\nthe rain and scream at the sky.\nI said \"fun,\" right? I sold that idea?",
      "USes": "Mi teoría es que se puede saber\nsi alguien tiene estilo o no según\nlo que se ponga cuando llueve.",
      "USfr": "Parfois, je reste sous la pluie et je\ncrie vers le ciel. C'est un peu une\nthérapie... mais trop logique!"
    }
  },
  {
    "label": "038",
    "attribute": "0x0000000700000009",
    "locale": {
      "CNzh": "",
      "EUde": "",
      "EUen": "",
      "EUes": "",
      "EUfr": "",
      "EUit": "",
      "EUnl": "",
      "EUru": "",
      "JPja": "",
      "KRko": "",
      "TWzh": "",
      "USen": "",
      "USes": "",
      "USfr": ""
    }
  },
  {
    "label": "039",
    "attribute": "0x0000000000000000",
    "locale": {
      "CNzh": "，听我说嘛～\n听说在我的老家，\n下雨天是要开派对的哦～。",
      "EUde": "Hallöchen, (Spitzname)!\nAls ich noch klein war? Da hat meine\nMa an Regentagen immer Partys\ngegeben, (Floskel)!",
      "EUen": "Hi, (nickname)! Rainy days\nalways make me want to throw a\nparty. Nothing's better than rain!",
      "EUes": "¿Sabías que en casa siempre\ncelebrábamos fiestas cuando llovía,\n(nickname)? Pues eso.",
      "EUfr": "Quand j'étais petite, ma mère\norganisait des fêtes à chaque fois\nqu'il pleuvait ou qu'il mouillait !",
      "EUit": "Ciaaao, (nickname)! Quando\nero piccola, mia mamma faceva\nsempre una festa quando pioveva!",
      "EUnl": "Hé hoi, (nickname)! Toen ik nog jong was? Toen gaf mijn moeder altijd feestjes als het regende!",
      "EUru": "Привет, (nickname)! Когда\nя была маленькая, мамусик всегда\nустраивала вечеринку в дождь!",
      "JPja": "　あのね～\nアタイの　実家では\n雨の日に　パーティーするんだ～、",
      "KRko": "아, 있잖아～\n우리 고향에선\n비 오는 날에 파티가 열려! !",
      "TWzh": "，我跟你說～\n其實在我的老家，\n我們都會在下雨天開派對唷～。",
      "USen": "Hi, (nickname)! Rainy days\nalways make me want to throw a\nparty. Nothing's better than rain!",
      "USes": "¿Sabías que en casa siempre\ncelebrábamos fiestas cuando llovía,\n(nickname)? ¡Era lo mejooor!",
      "USfr": "Quand j'étais petite, ma mère\norganisait des fêtes à chaque fois\nqu'il pleuvait ou qu'il mouillait!"
    }
  },
  {
    "label": "040",
    "attribute": "0x0000000000000000",
    "locale": {
      "CNzh": "就算是下雨天，也要保持元气满满哦！\n那这次我就把我的元气分一些给\n吧！。",
      "EUde": "Hi, (Spitzname). Vielleicht sollte ich 'ne Regentagparty geben... Das würde doch alle aufheitern!",
      "EUen": "Hi, (nickname). I think maybe\nI should throw a rainy-day party...\nIt'd brighten up everyone's day!",
      "EUes": "¡Guapi! Fiesta bajo la lluvia: ¿en contra o super a favor? La comida sufriría, pero... ¡Baile bajo la lluvia!",
      "EUfr": "Coucou, (surnom). Et si on organisait une fête sur le thème de la pluie ? C'est de circonstance, lol !",
      "EUit": "Ehilà, (nickname)! Stavo pensando di organizzare un pioggia party da paura...\nScommetto, cioè, che perfino il sole\nspunterebbe fuori per partecipare,\n!",
      "EUnl": "Kijk eens, (nickname)! Deze plu hier? Dat is echt mijn favo plu. Hij is superschattig, net als ik.",
      "EUru": "Привет, (nickname)! Думаю\nустроить дождевую вечеринку...\nЧтобы все засияли, как солнце!",
      "JPja": "雨の日でも　気分アゲていくよ～！\nには　トクベツに\nアタイの元気　わけてあげるね！　",
      "KRko": "비가 와도 발랄하게 보내야지～!\n에게는 특별히\n내 넘치는 기운을 나눠줄게! !",
      "TWzh": "就算是雨天也要保持好心情唷～！\n我就破例把我的元氣\n分給吧！。",
      "USen": "Hi, (nickname). I think maybe\nI should throw a rainy-day party...\nIt'd brighten up everyone's day!",
      "USes": "¡Guapi! Fiesta bajo la lluvia: ¿en contra o super a favor? La comida sufriría, pero... ¡Baile bajo la lluvia!",
      "USfr": "Coucou, (surnom). Et si on organisait une fête sur le thème de la pluie? C'est de circonstance, lol!"
    }
  },
  {
    "label": "041",
    "attribute": "0x0000000100000007",
    "locale": {
      "CNzh": "现在我正在练习走模特步，\n顺便在上散步哦～！。",
      "EUde": "Ich kann schon voll gut posieren...\nHaaa-tschaaaa! Für 'nen zukünftigen\nPopstar ist das unerlässlich.\nMan weiß schließlich nie, wann man\nmal „Ha-tscha“ machen muss!",
      "EUen": "I'm practicing...posing! It's an\nimportant life skill. You never know\nwhen you might need to...POSE!",
      "EUes": "Estoy practicando poses. ¡BAM!\nEs algo superimprescindible.\n¡BAM! ¡DOBLE BAM!",
      "EUfr": "Je suis en train de bosser mes poses.\nTa-da ! C'est une aptitude méga\nimportante, pour une star. TA-DAA !",
      "EUit": "Mi sto allenando con una posa,\nquella del... BADA-BUM! Cioè,\nè un talento troppo importante!\nNon sai mai quando ti serve 'sta\nposa del... BADA-BUM!",
      "EUnl": "Ik oefen mijn poses. Ba-boem! Dat is\necht belangrijk om te kunnen, hoor.\nWant voor je het weet... Ba-bóém!",
      "EUru": "Учусь позировать... Вуаля!\nЭто очень важный навык. Он может\nпотребоваться в любой момент!",
      "JPja": "今ね　モデルウォーキングの\n練習がてら、の散歩中なんだ～！　",
      "KRko": "지금 나～ 모델 워킹을 연습할 겸\n 산책 중이야～ !",
      "TWzh": "我現在啊，正在練習走台步，\n順便在島上散步呢～！。",
      "USen": "I'm practicing...posing! It's an\nimportant life skill. You never know\nwhen you might need to...POSE!",
      "USes": "Estoy practicando poses. ¡BAM!\nEs algo superimprescindible.\n¡BAM! ¡DOBLE BAM!",
      "USfr": "Je suis en train de tester mes poses.\nTa-da! C'est une aptitude méga\nimportante, pour une star. TA-DAA!"
    }
  },
  {
    "label": "042",
    "attribute": "0x0000000100000007",
    "locale": {
      "CNzh": "散步的时候玩得太欢，\n现在感觉肚子饿了……\n之后去吃吧～！。",
      "EUde": "Am Anfang war dieser Spaziergang\nvoll aufregend! Aber nach ein paar\nSchritten wurde es dann langweilig.\nZum Glück bin ich dir begegnet, und\njetzt ist es wieder cool!",
      "EUen": "I was, like, waaay into this walk,\nbut then it started to get boring.\nThen I found you, and it's fab again!",
      "EUes": "Queri, lo que me estaba aburriendo\nde este paseo hasta que has aparecido tú. ¡Me has salvado!",
      "EUfr": "J'avais grave envie de me balader...\nEt pis j'ai commencé à m'ennuyer.\nMais te voilà, alors ça va mieux !",
      "EUit": "Cioè, ero troppo presa da 'sta\ncamminata, no? Poi però ha\niniziato ad annoiarmi.\nMa dopo aver incontrato te, è\ntornata a essere una camminata\ntroppo al top, !",
      "EUnl": "Ik was, zeg maar, aan het wandelen?\nMaar toen werd het saaaai. En toen\nvond ik jou en werd het weer super!",
      "EUru": "В общем, я тут гуляла... И мне\nстало та-а-ак скучно! И тут — ты!\nИ снова все шикарно!",
      "JPja": "はりきって　お散歩してたら\nおなかが　空いてきちゃったな～・・・\nあとで　でも食べよ！　",
      "KRko": "열심히 산책했더니 배고프다...\n이따 이나\n먹어야겠다～! !",
      "TWzh": "盡情散步之後，\n肚子就餓了起來耶……\n等會就去吃吧！。",
      "USen": "I was, like, waaay into this walk,\nbut then it started to get boring.\nThen I found you, and it's fab again!",
      "USes": "Ay, amigui, ya me estaba aburriendo\nde este paseo hasta que llegaste tú.\n¡Me salvaste la vidaaa!",
      "USfr": "J'avais méga envie de me balader...\nEt pis j'ai commencé à m'ennuyer.\nMais te voilà, alors ça va mieux!"
    }
  },
  {
    "label": "043",
    "attribute": "0x0000000100000008",
    "locale": {
      "CNzh": "对偶像来说，曝光度是很重要的，对不对？\n……所以呢，我尽量每天都保持\n在户外散步的习惯哦～！。",
      "EUde": "Ich will berühmt werden! Und dazu\nmuss man sein Gesicht zeigen. Also\ngeh ich so oft wie möglich spazieren!",
      "EUen": "HIHOWAREYOUI'MPRETTYGOODI'M\nGOINGFORAWALKTOWORKOFFTHIS\nCOFFEEBUZZ'KBYE!",
      "EUes": "¿Qué tal, (nickname)?\nHe salido a pasear para que mis fans puedan pedirme autógrafos.",
      "EUfr": "OHSALUT(surnom)\nCOMMENTÇAVAMOIÇAVAMAISJAI\nDÛAVALERTROPDESUCREÀPLUS !",
      "EUit": "Ciaaao (nickname)?! Come stai!? Io sto facendo una passeggiata per smaltire due zuccheri, si vede?!",
      "EUnl": "HOI(nickname)ALLESGOED\nMETMIJOOKWEETJEDATJEVAN\nSUIKERBESTWELHYPERWORDTDOEI!",
      "EUru": "Привет, (nickname)!!! Как\nты?! У меня такой прилив сил!!! Это\nот сладкого!!! Ладно, пойду дальше!",
      "JPja": "アイドルって　知名度が大事じゃん？\n・・・ってことで、顔見せがてら\nお散歩は　なるべく毎日やってるのー！　",
      "KRko": "아이돌은 인지도가 중요하잖아?\n...그래서 얼굴도 알릴 겸\n되도록 매일 산책하고 있어! !",
      "TWzh": "對偶像來說，知名度可是很重要的！\n……所以呢，\n我都會盡量每天去散步呢～！。",
      "USen": "HIHOWAREYOUI'MPRETTYGOODI'M\nGOINGFORAWALKTOWORKOFFTHIS\nCOFFEEBUZZ'KBYE!",
      "USes": "¡Holis, (nickname)!\nSalí a pasear para que mis fans\npuedan pedirme autógrafos.",
      "USfr": "OHSALUT(surnom)\nCOMMENTÇAVAMOIÇAVAMAISJAI\nDÛAVALERTROPDESUCREÀPLUS!"
    }
  },
  {
    "label": "044",
    "attribute": "0x0000000100000008",
    "locale": {
      "CNzh": "昨天练声的时候太用力，\n感觉现在嗓子好像有点走调～\n平时的声音，比现在可爱多了哦？。",
      "EUde": "Hey. Ich muss meine Stimme schonen. Hab's\ngestern mit meinen Stimmübungen etwas\nübertrieben...",
      "EUen": "Hi. I lost my voice. I was trying to be a\nheavy-metal singer instead of a pop\nstar... I am so not metal.",
      "EUes": "Arg. Estoy afónica. Me empeñé en cantar «heavy\nmetal» en el karaoke. ¿Y sabes qué? El metal, para quien le guste. Yo siempre seré de pop.",
      "EUfr": "C'est malin, j'ai plus de voix. J'ai essayé\nde chanter un peu façon heavy metal.\nBen ça m'a pas réussi... Fini le metal,\nje retourne aux paillettes et aux lasers.",
      "EUit": "Ciaaao. Ho perso la voce. Volevo provare a\nfare la cantante metal invece della pop star.\nMa non sono metal per niente. Zero proprio.",
      "EUnl": "Hoi. Mijn keel doet een beetje pijn.\nIk probeerde om heavymetalzangeres\nte worden? In plaats van popster?\nMaar ik ben dus echt niet metal.\n(Ik ben glitters en laserstralen.)",
      "EUru": "Привет, я голос потеряла. Попробовала себя\nв стиле хеви-метал. Но оказалось, что это совершенно не мое.\nВозвращаюсь к стилю поп! Это шик и блеск!!!",
      "JPja": "昨日、ボイトレ　がんばりすぎて\nビミョーに　声が　カスれてるんだよね～\nいつもは　もっとカワイイ声なんだけど、",
      "KRko": "어제 보컬 트레이닝을 너무 열심히 해서\n목이 조금 쉬었어～\n원래 목소리는 더 맑다구～! !",
      "TWzh": "昨天我太努力做發聲練習了，\n結果現在聲音有點沙啞呢～\n我本來的聲音更可愛動聽的，。",
      "USen": "Hi. I lost my voice. I was trying to be a\nheavy-metal singer instead of a pop\nstar... I am so not metal.",
      "USes": "Aaaay. ¡Me quedé afónica! Fui al karaoke\ny me empeñé en cantar \"heavy metal\"...\n¿Y sabes qué?\nEl metal... es cero mi estilo.\n¡Lo mío definitivamente es el pop!\n(Y, obvio, las brillantinas...).",
      "USfr": "C'est malin, j'ai plus de voix. J'ai essayé\nde chanter un peu façon heavy métal.\nBen ça m'a pas réussi... Fini le métal,\nje retourne aux paillettes et aux lasers."
    }
  },
  {
    "label": "045",
    "attribute": "0x0000000100000009",
    "locale": {
      "CNzh": "没错没错！其实呀……\n昨天我梦到了，\n真的超～级开心！。",
      "EUde": "Ich wollt dir mal drei Sachen ganz\ndeutlich sagen!\nEins... Du bist voll MEGA.\nZwei... Das mein ich ernst.\nDrei...\nOh, waren doch nur zwei Sachen!",
      "EUen": "Guess what I want to tell you! One...you're fab. Two...I mean that.\nThree...there is no three! Bye!",
      "EUes": "Tres cosas tengo que decirte, ¿vale?\nUna, que eres superguay. Dos, que\nlo digo en serio. ¡No hay tercera!",
      "EUfr": "Ah, tiens, je voulais te dire... Un...\nje te kiffe trop. Deux... Je le pense\nvraiment. Trois... Y a pas de trois.",
      "EUit": "Indovina cosa voglio dirti,\n?\nUno... Sei sconvolgente!\nDue... Dico sul serio!\nTre... Non c'è nessun tre!",
      "EUnl": "Weet je wat ik nou wilde zeggen?\nEén... Jij bent zo gaaf. Twee... Echt\nwel. Drie... Er is geen drie.",
      "EUru": "Ни за что не угадаешь,\nчто я тебе скажу!\nВо-первых... ты просто класс!\nВо-вторых... я серьезно!\nА в-третьих...\nТретьего пункта нет!",
      "JPja": "そうそう！　実は・・・\n昨日　が\n夢に出てきて、ちょーうれしかったの！　",
      "KRko": "맞다! 있잖아...\n어젯밤 꿈에 이\n나와서 너무 기뻤어! !",
      "TWzh": "對了對了！……\n其實啊，你昨天出現在我夢裡了，\n我超～開心的！。",
      "USen": "Guess what I want to tell you! One...you're fab. Two...I mean that.\nThree...there is no three! Bye!",
      "USes": "¡Tengo tres cosas superimportantes\nque decirte! Una, que eres genial.\nDos, que lo digo super en serio.\nY... ¡no hay tercera!",
      "USfr": "Ah, tiens, je voulais te dire... Un...\nje t'aime bien. Deux... Je le pense\nvraiment. Trois... Y'a pas de trois."
    }
  },
  {
    "label": "046",
    "attribute": "0x0000000100000009",
    "locale": {
      "CNzh": "最近感觉真的太好吃了，\n我快管不住自己了！\n下次我分你一半好不好～？。",
      "EUde": "Ich hab dich gesucht und gefunden!\nDu hast sozusagen Verstecken mit\nmir gespielt, ohne es zu wissen!",
      "EUen": "I've been walking around looking for\nyou! I was playing single-player\nhide-and-seek, and I won!",
      "EUes": "¡Aquí estás! No te estaba buscando\nni nada, pero me alegro de verte.",
      "EUfr": "Ah ben tiens, tu tombes bien ! Je\nfaisais une partie de cache-cache\ntoute seule, et j'ai gagné !",
      "EUit": "Andavo in giro cercando proprio te!\nCioè, peggio che giocare a\nnascondino da sola... però ho vinto!",
      "EUnl": "Ik liep je al te zoeken! Ik speelde\neenpersoonsverstoppertje en dat\nheb ik dus echt wel gewonnen!",
      "EUru": "Я тебя везде ищу! Пришлось одной\nв прятки играть. Угадай, кто\nвыиграл? Правильно, я!",
      "JPja": "最近、が\nめっちゃ　おいしくて　こまってるの！\n今度　はんぶんこして食べよ～？　",
      "KRko": "요즘 이\n너무 맛있어서 큰일이야～!\n다음에 반 나눠 먹자～! !",
      "TWzh": "我最近實在超愛吃\n，真傷腦筋啊！\n下次分一半給你吃吧～！。",
      "USen": "I've been walking around looking for\nyou! I was playing single-player\nhide-and-seek, and I won!",
      "USes": "¡Aquí estás! No te estaba buscando\nni nada, pero me alegro de verte.",
      "USfr": "Ah ben tiens, tu tombes bien! Je\nfaisais une partie de cachette\ntoute seule, et j'ai gagné!"
    }
  }
]