﻿[
  {
    "label": "001",
    "attribute": "0x0000000000000000",
    "locale": {
      "CNzh": "今年的生肖是鼠……\n因为我们的体型都比较小，只有在这一年\n才能显露头角，受到大家的瞩目。\n现在正是关键时刻，要振作精神，\n绝不让伙伴们\n脸上无光！。",
      "EUde": "Erfreulich, dass dieses Jahr im Zei-\nchen der Ratte steht. Wir Nagetiere\nverdienen mehr Aufmerksamkeit!\nNatürlich liegt es nicht jedem, ein\nganzes Jahr im Rampenlicht zu\nstehen.\nIch habe damit freilich kein Problem!\nIch stelle gerne unter Beweis, dass\nwir keine unscheinbaren grauen\nDinger sind, (Floskel)!",
      "EUen": "I'm so pleased this year's zodiac\nsign is the rat. I say it's time we little\nones get a wee bit more attention!\nOf course, a whole year in the\nlimelight might be exhausting\nfor some.\nNot me, darling! I'm ready to show\nthe world that fabulous things\ncome in small packages.",
      "EUes": "Según el horóscopo chino,\neste va a ser el año de la rata.\nLos roedores tenemos mucho que\naportar a la comunidad y es justo\nque se nos reconozca, .",
      "EUfr": "C'est l'année du rat ! Nous sommes\nenfin à l'honneur...\nJe sais que certains d'entre nous\npréféreraient se glisser dans un trou\nde souris cette année...\nMoi au contraire, j'ai bien l'intention\nd'en profiter !",
      "EUit": "Sono molto felice che questo sia\nl'anno del Topo nello zodiaco\ncinese.\nEra ora che anche noi piccoli\nricevessimo la dovuta attenzione!\nCerto, per alcuni, ritrovarsi sotto i\nriflettori per un anno intero\npotrebbe essere troppo stressante.\nMa non per me! Mi sento pronta ad\naffrontarlo!",
      "EUnl": "Het doet me een immens genoegen\ndat dit het jaar van de rat is. Kleine\nknaagdieren verdienen ook aandacht!\nMogelijk is een heel jaar sommigen\nwat te veel, maar mij kan het niet\nlang genoeg duren!",
      "EUru": "Наконец-то наступает год мыши.\nВсе внимание будет приковано\nк нам — маленьким грызунам!\nЦелый год внимания, душечка...\nТолько подумай...\nЯ готова! Можете начинать!",
      "JPja": "今年の干支は　ネズミだから・・・\n体の小さな　アタシ達も、この年だけは\n脚光を浴びて　皆に注目されちゃうってワケね\nこういうときこそ　気持ちを引きしめて、\nお仲間の信用を\n落とさないように　しなきゃ！　",
      "KRko": "올해는 쥐의 해니까...\n몸이 작은 우리도 올해만은\n주목받을 수 있겠어～\n이럴 때일수록 긴장을 늦추지 말고\n우정을 잃지 않게\n조심해야지! !",
      "TWzh": "今年的生肖是鼠……\n即使是身材嬌小的我們，\n在鼠年時也能成為眾人的焦點呢。\n不過這種時候，\n反而更應該謹言慎行，\n不能丟了同伴的臉！。",
      "USen": "I'm so pleased this year's zodiac\nsign is the rat. I say it's time we little\nones get a wee bit more attention!\nOf course, a whole year in the\nlimelight might be exhausting\nfor some.\nNot me, darling! I'm ready to show\nthe world that fabulous things\ncome in small packages.",
      "USes": "Este va a ser el año de la rata.\n¿Sabías eso?\nLos roedores tenemos mucho que\naportar a la comunidad y es justo\nque se nos reconozca, .",
      "USfr": "C'est l'année du rat! Nous sommes\nenfin à l'honneur...\nJe sais que certains d'entre nous\npréféreraient se glisser dans un trou\nde souris cette année...\nMoi au contraire, j'ai bien l'intention\nd'en profiter!"
    }
  },
  {
    "label": "002",
    "attribute": "0x0000000000000000",
    "locale": {
      "CNzh": "年是牛年……轮到我做生肖了。\n在这里\n明明过得这么舒服，却还是觉得有点不满。\n这也没办法……\n毕竟是12年才有一次嘛！\n我会好好回应大家的期待！。",
      "EUde": " ist das Jahr des Büffels, also\nauch irgendwie mein Jahr...\nDas ist kein Jahr, um auf der faulen\nKuhhaut zu liegen, (Floskel).\nNein, ich werde den Stier bei den\nHörnern packen und alle mit meinem\nStil verbüffeln... äh, verblüffen!",
      "EUen": "You know,  is the Year of the Ox.\nBut I think I shall call it the Year of\nthe Cow, .\nI had planned to spend the year\nblending into the background here\non .\nBut no! It's time I grab the bull by\nthe horns and shine for all cow-kind!",
      "EUes": "Según el calendario chino,\n será el año del buey, .\nEs obvio que los bóvidos vivimos\nen el olvido. La visibilidad no vendrá\nmal, ¿verdad? Uh, qué trabalenguas.",
      "EUfr": " est l'année du buffle...\nSi je veux devenir quelqu'un,\nc'est maintenant ou jamais.\nMoi qui avais prévu de me reposer\nun peu pour changer...\nNon, je ne veux pas laisser passer\nma chance. Le moment est venu\nd'attraper le taureau par les cornes !",
      "EUit": "Sai, il  è l'anno della Mucca.\nSignifica che è l'anno in cui mi tocca\nrisplendere, vero, ?\nE dire che per quest'anno avevo \nintenzione di non fare nulla, solo\nbighellonare per !\nMa visto che casca una volta ogni\ndodici anni, devo afferrare la mucca\nper la coda!",
      "EUnl": " is het jaar van de os. Ik zal dan\nook wel acte de présence moeten\ngeven, neem ik aan?\nEn ik was nog wel zó van plan om het er dit jaar op  eens lekker van te nemen.\nMaar nee! Dit gebeurt slechts\neenmaal per twaalf jaar. Tijd om de\nkoe bij de horens te vatten!",
      "EUru": "Ты знаешь, что  — год быка?\nНо я его буду называть годом\nкоровы! (catchphrase)!\nСначала я думала просто слиться\nс толпой здесь на острове\n и быть как все.\nНо нет! Настало время взять быка\nза рога и проявить себя! Пусть все\nкоровы мира сияют как звезды!",
      "JPja": "年は　ウシ年・・・、アタシの年かぁ\nで\nのんびりやってるってのに、ヤになっちゃうわ\n仕方ないわね・・・\n12年に　一度のことですもの！\n世間の　期待に応えてみせるわ！　",
      "KRko": "년은 소의 해... 우리의 해네\n에서\n여유를 즐기고 싶은데 곤란하다니까\n어쩔 수 없지...\n12년에 한 번뿐인걸!\n세상의 기대에 보답해줘야겠어, !",
      "TWzh": "年是牛年……是屬於我的一年啊。\n我明明只想在上\n悠閒度日，真討厭……\n不過沒辦法……\n畢竟12年才過一次牛年嘛！\n就讓我好好回應大家的期待吧！。",
      "USen": "You know,  is the Year of the Ox.\nBut I think I shall call it the Year of\nthe Cow, .\nI had planned to spend the year\nblending into the background here\non .\nBut no! It's time I grab the bull by\nthe horns and shine for all cow-kind!",
      "USes": "Según lo que escuché,\n será el año del buey, .\nEs obvio que los bóvidos vivimos\nen el olvido. La visibilidad no vendrá\nmal, ¿verdad? Uh, qué trabalenguas.",
      "USfr": " est l'année du buffle...\nSi je veux devenir quelqu'un,\nc'est maintenant ou jamais.\nMoi qui avais prévu de me reposer\nun peu pour changer...\nNon, je ne veux pas laisser passer\nma chance. Le moment est venu\nd'attraper le taureau par les cornes!"
    }
  },
  {
    "label": "003",
    "attribute": "0x0000000000000000",
    "locale": {
      "CNzh": "今年是虎年，(resident name)的一年！\n可能是这个原因吧？\n来，你看！！\n怎么样？\n不觉得我的毛发\n比以前更加光泽柔顺了吗？。",
      "EUde": "Dieses Jahr steht im Zeichen des\nTigers. Du kannst es auch gern das\nJahr der (Einwohnername) nennen!\nSieh dir an, wie mein Fell glänzt!\nÄhem... Ich bin sicher, das hängt\nauch damit zusammen, (Floskel).",
      "EUen": "It's the Year of the Tiger, you know.\nThat means...it's the Year of\n(resident name)!\nThat must be why my fur looks\neven more fabulous than usual,\n!",
      "EUes": "Va a ser el año del tigre, ¿sabes?\n¡El año de (resident name)!\nY no lo digo yo sola, ¿eh? Lo dicen\nhasta en China, ...",
      "EUfr": "C'est l'année du tigre, mon chéri...\nAutrement dit, c'est l'année\nde (nom du résident) !\nEn , c'est décidé, je sors les\ngriffes,  !",
      "EUit": "Questo è l'anno della Tigre nello\nzodiaco cinese, sai? Significa che...\nè l'anno di (resident name)!\nSarà per questo che la mia pelliccia\nè più lucente che mai, !",
      "EUnl": "Is het jou bekend dat dit het jaar van\nde tijger is? En dus eveneens... het\njaar van (resident name)!\nDaarom ziet mijn vacht er natuurlijk nog stralender uit dan anders, !",
      "EUru": "Год тигра — год... (resident name)!\nТак вот, наверное, почему моя\nшерстка стала еще шелковистее!\n!",
      "JPja": "今年は　トラ年、(resident name)の年よ！\nそのせいかしら？\nほら、見て！　！\nね？　いつもより　毛並みが\nツヤツヤしてると　思わない？　",
      "KRko": "올해는 호랑이의 해,\n(resident name)의 해야! 그래서인가?\n이것 봐봐, !\n어때?\n평소보다 털이 반짝반짝하고\n윤기가 흐르는 것 같지 않아? ?",
      "TWzh": "今年是虎年，也就是(resident name)年喔！\n不知道是不是受到這個影響……？\n來，你看！！\n是不是很漂亮啊？\n你不覺得我的毛髮\n今天看起來特別有光澤嗎？。",
      "USen": "It's the Year of the Tiger, you know.\nThat means...it's the Year of\n(resident name)!\nThat must be why my fur looks\neven more fabulous than usual,\n!",
      "USes": "Va a ser el año del tigre, ¿sabías?\n¡El año de (resident name)!\nSerá por eso que mi pelaje se ve\nmás di-vi-no que nunca, ...",
      "USfr": "C'est l'année du tigre, mon chéri...\nAutrement dit, c'est l'année\nde ⁠(nom du résident)!\nEn , c'est décidé, je sors les\ngriffes, !"
    }
  },
  {
    "label": "004",
    "attribute": "0x0000000000000000",
    "locale": {
      "CNzh": "年是兔年……\n没错！是属于我的一年！\n大概是因为这样吧？\n我觉得自己已经好运到极点啦！\n呵呵，我也把这些运气\n分一点吧！\n开玩笑的！。",
      "EUde": "Falls du es noch nicht mitbekommen\nhast:  ist das Jahr des Hasen.\nUnd somit... mein Jahr, (Floskel)!\nIch hoffe, es hoppelt mir nicht auf\nund davon. Auch als Hase muss man\nes nicht immer eilig haben!",
      "EUen": "Did you hear?  is the Year of\nthe Rabbit. That's right! It is\nMY year, !\nI do hope the year doesn't just\nrace by. I must be sure to slow\ndown and truly appreciate it.",
      "EUes": "¿Sabes que  va a ser el año\nde la liebre? Espero que todos me\nmostréis el respeto que merezco.\nSí, ya sé que liebres y conejas son\ncosas distintas, pero vamos a hacer\nla vista gorda, ¿vale, ?",
      "EUfr": " est l'année du lièvre...\nPar mes oreilles, j'ai la ferme\nintention d'en profiter !\nÇa fait 12 ans que j'attends ça,\n(surnom). 12 ans !",
      "EUit": "Hai saputo che il  è l'anno del\nConiglio? Sì, esatto! È proprio il mio\nanno, !\nMa spero che non si metta a correre!\nVorrei che scorresse abbastanza\nlento da potermelo godere appieno!",
      "EUnl": "Heb je het al gehoord?  is het\njaar van het konijn! Inderdaad. Dit is\nmijn jaar!\nEn ik durf er mijn lange oren om te\nverwedden dat het waarlijk een\nmagnifiek jaar gaat worden!",
      "EUru": "А ты знаешь, что  — год\nкролика? Да-да! Мой год, дорогуша!\n!\nНадеюсь, он не просто проскачет\nмимо меня. Постараюсь насладиться\nкаждым мигом этого года.",
      "JPja": "年は　ウサギ年・・・\nそう！　アタシの年よ！\nそのせいかしら？\n運気が　満ちてくる気がするの！\nふふっ、にも\nツキを　分けてあげる！\nなぁーんてね、",
      "KRko": "년은 토끼의 해...\n그래! 우리의 해야!\n그래서 그런가?\n뭔가 행운이 가득한 느낌이 들어!\n후훗, 한테도\n내 운을 나눠줄게!\n잘 가져가야 돼, !",
      "TWzh": "年是兔年……\n沒錯！是屬於我的一年喔！\n可能就是因為這個緣故吧？\n我覺得現在好運當頭呢！\n呵呵，，\n讓我也分一些好運給你吧！\n開玩笑的～。",
      "USen": "Did you hear?  is the Year of\nthe Rabbit. That's right! It is\nMY year, !\nI do hope the year doesn't just\nrace by. I must be sure to slow\ndown and truly appreciate it.",
      "USes": "¿Te enteraste? El  es el año de\nla liebre. O sea, va a ser MI año,\n¡!\nEspero que el año no se me escape\nen un instante. Tendré que ir despacio y apreciarlo.",
      "USfr": " est l'année du lièvre...\nPar mes oreilles, j'ai la ferme\nintention d'en profiter!\nÇa fait 12 ans que j'attends ça,\n(surnom). 12 ans!"
    }
  },
  {
    "label": "005",
    "attribute": "0x0000000000000000",
    "locale": {
      "CNzh": "，\n你知道今年是什么年吗？\n没错！是马年哦！\n毕竟12年才有一次，\n当然想要这一年过得开心对不对？\n今年我要尽全力奔跑起来啦！。",
      "EUde": "Sage mir, (Spitzname), welches Jahr haben wir? Das Jahr des Pferds natürlich, (Floskel)!\nDieses Jahr galoppiert nur alle zwölf\nJahre einmal vorbei. Ich hoffe, du\nbeurteilst es nicht zu kritisch...\nDenn du weißt ja, einem geschenkten\nGaul schaut man nicht ins Maul!",
      "EUen": "Why, (nickname), do you\nknow what this year is? It's the\nYear of the Horse, !\nThe Year of the Horse takes place\nonly once every 12 years, if you\ncan believe it.\nOf course, you heard it straight from\nthe horse's mouth, so I assure you...\nyou CAN believe it.",
      "EUes": "¿A que no sabes lo que pasa\nen , ?\nBueno, pasarán un millón de cosas,\npero la que más me interesa es esta:\n¡será el año del caballo!\nEsto solo se da una vez cada doce\naños... Qué injusticia, ¿no? ¿Y qué\nhago yo con mi vida los otros once?\nBueno, supongo que los otros\nanimales también se merecen una\noportunidad de vez en cuando...\n¡El caso es que pienso aprovechar\nel año para hacer de todo! Bueno,\ncualquier cosa menos ir a la hípica...",
      "EUfr": "Tu sais en quelle année on est,\n(surnom) ? , oui.\nMais encore ?\nC'est l'année du cheval. Ça ne peut\nvouloir dire qu'une chose... Cette\nannée, c'est moi qui tiens les rênes !",
      "EUit": "Sai che anno è, (nickname)?\nIndovinato! È l'anno del Cavallo!\nCapita una volta ogni dodici anni, per\nquesto farò in modo che passi\ngaloppando! Parola di cavallo!",
      "EUnl": "Mijn beste (nickname), ik neem aan dat je weet welk jaar dit is? Correct, het jaar van het paard!\nDit komt slechts eens in de twaalf\njaar voor, dus reken maar dat ik er\nalles ga uit slepen wat erin zit.\nWe moeten het beste paard van stal\nhalen! Ohohoho!",
      "EUru": "(nickname), а ты знаешь,\nчто этот год — год лошади?\nДа-да, это мой год! !\nОн станет лучшим за двенадцать\nлет, гарантирую, душечка!\nДаю слово лошади! И-го-го!",
      "JPja": "、\n今年が　何年かわかる？\nそう！　ウマ年よ！\n12年に一度のことですもの\nやっぱり、いい一年にしたいじゃない？\n今年は　全力で　走り抜けるわよ！　",
      "KRko": "!\n올해가 무슨 해인지 알아?\n그래, 말의 해야!\n12년에 한 번 찾아오는 해잖아\n이왕이면 좋은 기억만 남기고 싶어!\n좋아, 올해도 힘껏 달려야지! !",
      "TWzh": "，\n你知道今年是什麼年嗎？\n沒錯！就是馬年喔！\n畢竟12年才能過一次馬年，\n所以更讓人想好好經營這一年，對吧？\n今年我一定要全力衝刺！。",
      "USen": "Why, (nickname), do you\nknow what this year is? It's the\nYear of the Horse, !\nThe Year of the Horse takes place\nonly once every 12 years, if you\ncan believe it.\nOf course, you heard it straight from\nthe horse's mouth, so I assure you...\nyou CAN believe it.",
      "USes": "¿A que no sabes lo que pasa\nen el , ?\nBueno, pasarán un millón de cosas,\npero la que más me interesa es esta:\n¡será el año del caballo!\nEsto solo se da una vez cada doce\naños... Qué injusticia, ¿no? ¿Y qué\nhago yo con mi vida los otros once?\nBueno, supongo que los otros\nanimales también se merecen una\noportunidad de vez en cuando...",
      "USfr": "Tu sais en quelle année on est,\n(surnom)? , oui.\nMais encore?\nC'est l'année du cheval. Ça ne peut\nvouloir dire qu'une chose... Cette\nannée, c'est moi qui tiens les rênes!"
    }
  },
  {
    "label": "006",
    "attribute": "0x0000000000000000",
    "locale": {
      "CNzh": "虽说是羊年……\n但也并没有什么特别的改变，\n一时间总感觉提不起干劲。\n只要和往常一样散漫悠闲，\n在上继续过日子就好了……。",
      "EUde": " mag das Jahr des Schafs sein,\naber ich nehme das nicht allzu ernst.\nIch werde mich verhalten wie immer.\nMit Würde und Anstand leben und\nmich ab und zu mit einem neuen Paar\nSchuhe verwöhnen.\nObwohl... Vielleicht gönne ich mir in\ndiesem Jahr tatsächlich ein, zwei\nPaar zusätzlich, (Floskel)...",
      "EUen": "I realize that  is the Year of the\nSheep...but it's not like anything\nchanges for me, .\nI'm just going to do what I\nalways do... Pamper myself\nand shop for shoes.\nThough now that I think about it,\nperhaps I DO deserve to buy an\nextra pair of shoes or five.",
      "EUes": " será el año de la oveja.\n¿Y a mí beee? Quiero decir,\n¿a mí qué?\nYo seguiré como siempre: visitaré\nmuseos, asistiré a ballets y acudiré\na balnearios a que me den masajes...\nAunque, pensándolo mejor, igual sí\nque me merezco uno o dos masajes\nmás... a la semana, .",
      "EUfr": "Il paraît que  est l'année du\nmouton... mais qu'est-ce que ça\nchange pour moi ?\nSi j'avais droit à une réduction sur\ntoutes les chaussures que j'achète\ncette année, je ne dis pas...\nOh, mais c'est une excellente idée !\nJe vais lancer une pétition...",
      "EUit": "Mi sono appena accorta che il \nè l'anno della Pecora... ma in realtà\nnulla cambierà per me, !\nMi comporterò come ho sempre\nfatto... viziandomi comprando scarpe\nnuove. Ma ora che ci penso...\nNon è solo un vizio! Mi merito\nproprio di avere uno o due paia\ndi scarpe nuove!",
      "EUnl": " mag dan wel het jaar van het\nschaap zijn, maar voor mij verandert\ndat niet veel, .\nIk ga eenvoudigweg door met wat ik\naltijd al doe... mezelf verwennen en\nschoenen kopen.\nAlhoewel, nu ik erover nadenk,\nmisschien verdien ik dit jaar wel een\npaar extra schoenen!",
      "EUru": "Я знаю, что  — год овцы, то\nесть мой год... Но в моей жизни от\nэтого мало что изменится.\nЯ буду жить как всегда... Ухаживать\nза собой, развиваться, покупать\nтуфли... !\nХотя, раз это мой год, пожалуй,\nтаки позволю себе дополнительную\nпару туфель... Или даже две!",
      "JPja": "年は　ヒツジ年・・・って　言われても\n別に　何が変わる　ってわけでもないし、\nあんまり　ピンとこないわね\nいつも通り　のんびり　ゆったり、\nこので　過ごすだけよ、",
      "KRko": "년은 양의 해... 하지만\n특별히 달라진 것도 없고\n별로 와닿진 않아～\n평소대로 느긋하고 여유롭게\n이  생활을 즐겨야지, !",
      "TWzh": "雖然說年是羊年……\n但其實好像也不會特別有什麼改變，\n所以實在沒什麼真實感呢。\n我也只會和以往一樣，\n在島上度過悠閒自在的生活喔，。",
      "USen": "I realize that  is the Year of the\nSheep...but it's not like anything\nchanges for me, .\nI'm just going to do what I\nalways do... Pamper myself\nand shop for shoes.\nThough now that I think about it,\nperhaps I DO deserve to buy an\nextra pair of shoes or five.",
      "USes": " será el año de la oveja.\n¿Y a mí beee? Quiero decir,\n¿a mí qué?\nYo seguiré como siempre: visitaré\nmuseos, iré a cenas de gala y a los\nsaunas para unos masajes...",
      "USfr": "Il paraît que  est l'année du\nmouton... mais qu'est-ce que ça\nchange pour moi?\nSi j'avais droit à un rabais sur\ntous les souliers que j'achète\ncette année, je ne dis pas...\nOh, mais c'est une excellente idée!\nJe vais lancer une pétition..."
    }
  },
  {
    "label": "007",
    "attribute": "0x0000000000000000",
    "locale": {
      "CNzh": "去年是羊年，\n今年可是猴子当大王的猴年了！\n呵呵，这种感觉可真是不错！\n啊，但你可别打算问我\n究竟过了几个猴年哦……。",
      "EUde": "Nach elf Jahren Durststrecke feiern\nwir heuer endlich einmal wieder das\nJahr des Affen, (Floskel).\nWirklich schade, dass es nicht öfter\nstattfindet. Jeder sollte sich ab und\nan einmal zum Affen machen dürfen!",
      "EUen": "At long last, (catchphrase), it is the\nYear of the Monkey. It comes only\nonce every 12 years, you know.\nIt really should happen more often.\nAfter all, everyone enjoys having an\nexcuse to monkey around!",
      "EUes": "Llevo doce años esperando a que\nsea el año del mono, ¡doce años!\n¿Tú sabes cuántos días son esos?\nPues te lo voy a decir, mira,\ncinco por dos son diez, me llevo una,\ndos por seis doce y una trece...\nY luego los bisiestos...\n¡Son un montón de días!\n¡Doce años, !\n¿De qué estábamos hablando?\nAh, sí, el año del mono. ¡Por fin toca!\nLe pienso sacar partido, ¡créeme!",
      "EUfr": "L'année du singe... enfin !\nTu sais que ça n'arrive qu'une fois\ntous les 12 ans ?\nÇa laisse le temps d'apprendre à\nfaire la grimace... mais moi, je garde\nle sourire. Ça me va mieux au teint.",
      "EUit": "E così finalmente, (catchphrase), è giunto l'anno della Scimmia! Sai, capita una volta ogni dodici anni.\nDovrebbe succedere più spesso.\nDopotutto, non piace a tutti fare\nscherzi come una scimmietta?",
      "EUnl": "Ten langen leste is het jaar van de\naap aangebroken. Hier heb ik maar\nliefst twaalf jaar op moeten wachten!\nIk wil niet inhalig klinken, maar ik\nvind dat wat karig. Is om het jaar\nniet beter, of vind je dat apekool?",
      "EUru": "Наконец-то наступил год обезьяны!\n(catchphrase)! Двенадцать лет\nждать пришлось.\nЯ, конечно, не жалуюсь, но это как-\nто слишком долго. Всем же хочется\nповеселиться, пообезьянничать...",
      "JPja": "ヒツジ年から引き継いで、\n今年は　サルが主役の　サル年よ！\nふふっ、やっぱり　いいわね、この感覚！\nあっ、何度目のサル年か　なんて\nヤボなこと　聞いちゃダメよ、",
      "KRko": "양의 해 다음으로 찾아온 올해는\n바로 원숭이의 해야!\n후훗, 역시 이 느낌은 참 좋다니까!\n아, 올해가 내가 몇 번째로 맞는\n원숭이의 해인지는 묻지 말아줘... !",
      "TWzh": "羊年過了之後就是猴年，\n今年的主角輪到猴子了喔！\n呵呵，這種感覺……果然不錯呢！\n啊，你可別想趁機打探\n我已經過了多少個猴年唷……。",
      "USen": "At long last, (catchphrase), it is the\nYear of the Monkey. It comes only\nonce every 12 years, you know.\nIt really should happen more often.\nAfter all, everyone enjoys having an\nexcuse to monkey around!",
      "USes": "Llevo doce años esperando que\nsea el año del mono, ¡doce años!\n¿Tú sabes cuántos días son esos?\nPues te lo voy a decir, mira,\ncinco por dos son diez, me llevo una,\ndos por seis doce y una trece...\nY luego los bisiestos...\n¡Son un montón de días!\n¡Doce años, !\n¿De qué estábamos hablando?\nAh, sí, el año del mono. ¡Por fin!",
      "USfr": "L'année du singe... enfin!\nTu sais que ça n'arrive qu'une fois\ntous les 12 ans?\nÇa laisse le temps d'apprendre à\nfaire la grimace... mais moi, je garde\nle sourire. Ça me va mieux au teint."
    }
  },
  {
    "label": "008",
    "attribute": "0x0000000000000000",
    "locale": {
      "CNzh": "今年是鸡年！\n没错，到了我们的这一年啦！\n也许只有一开始大家会对我们有些优待，\n但还是觉得今年开了个好头啊！。",
      "EUde": "Das Jahr des Hahns beginnt.\nAlso auch für mich in gewisser\nWeise ein Ehrenjahr, (Floskel)!\nDer anfängliche Enthusiasmus wird\nnicht ewig halten, aber ein schöner\nStart ins Jahr ist es dennoch!",
      "EUen": "Oh, (nickname)!\nWonderful news! This year\nis the Year of the Rooster!\nIt doesn't matter whether you're\nwise as an owl, silly as a goose,\nor graceful as a swan...\nI say this is a time for birds of a\nfeather to flock together!",
      "EUes": "¿No sabes lo que pasa en ?\nPues blanco es y la gallina lo pone:\n¡es el año del gallo, !\nSolo ocurre una vez cada doce años,\nporque no organicé yo el horóscopo\nchino, que si no, ¡otro gallo cantaría!\nEl gallo es la única ave del calendario\nchino, ¡tenemos que aprovechar!\nMás vale pájaro en mano...",
      "EUfr": "(surnom) ! Je viens de réaliser que c'est l'année du coq !\nBêtes comme des oies, bavards\ncomme des pies ou fiers comme des\ncoqs, les volatiles sont à l'honneur !\nIl ne faut surtout pas nous voler\ndans les plumes, cette année !",
      "EUit": "Oh, (nickname)! Ho una\nnotizia meravigliosa da condividere!\nQuesto è l'anno del Gallo!\nNon importa se sei un saggio gufo,\nuna sciocca oca o un aggraziato\ncigno...\nQuesto è l'anno in cui tutti i pennuti\nuniranno le loro piume!",
      "EUnl": "O, (nickname)! Ik heb zulk heerlijk nieuws! Dit jaar is het jaar van de haan!\nHet maakt niet uit of je zo wijs als\neen uil, zo onnozel als een gans of\nzo sierlijk als een zwaan bent...\nDit jaar worden alle vogels in het\nzonnetje gezet!",
      "EUru": "(nickname), душечка! Какая\nвосхитительная новость! Наступил\nмой год — год птицы!\nГрациозные лебеди, мудрые совы,\nне такие уж мудрые гуси...\nВсе птички!\nВстрепенитесь, расправьте\nперышки! Это наш год!",
      "JPja": "今年は　トリ年よ！\nそう、アタシ達の年ってことね！\nチヤホヤされるのは　最初だけだとしても\nやっぱり　幸先良く感じるのよね、",
      "KRko": "올해는 닭의 해야!\n그래, 바로 우리의 해지!\n사람들의 시선을 받는 건 연초 잠깐이지만\n그래도 기분은 좋아, !",
      "TWzh": "今年是雞年喔！\n沒錯，是屬於我們的一年呢！\n就算只有年初這陣子會受人簇擁愛戴，\n我還是覺得這是個好兆頭呢，。",
      "USen": "Oh, (nickname)!\nWonderful news! This year\nis the Year of the Rooster!\nIt doesn't matter whether you're\nwise as an owl, silly as a goose,\nor graceful as a swan...\nI say this is a time for birds of a\nfeather to flock together!",
      "USes": "¿Sabes lo que pasa en el ?\nPues siéntate así no te desmayas:\n¡es el año del gallo, !\nSolo pasa una vez cada doce años,\nporque no lo organicé yo, si no, \n¡otro gallo cantaría!",
      "USfr": "(surnom)! Je viens de réaliser que c'est l'année du coq!\nGais comme des pinsons, bavards\ncomme des pies ou fiers comme des\ncoqs, les volatiles sont à l'honneur!\nIl ne faut surtout pas nous voler\ndans les plumes, cette année!"
    }
  },
  {
    "label": "009",
    "attribute": "0x0000000000000000",
    "locale": {
      "CNzh": "今年是久违了12年的狗年啊……\n你也没必要特别对待我，\n今年要还能和以前一样\n和我做好朋友，那我就很高兴了。。",
      "EUde": "Wieder einmal sucht uns das Jahr\ndes Hundes heim. Kannst du dich an\ndas letzte vor zwölf Jahren erinnern?\nDu brauchst mir natürlich keine\nbesondere Aufmerksamkeit\nzukommen lassen.\nAber wenn du das doch tust, werde\nich mich natürlich nicht beschweren,\n(Floskel)!",
      "EUen": "At long last, it is the Year of the Dog\nagain. I can't believe it only comes\nonce every 12 years!\nWell, no need to give me any special\ntreatment. That is...unless you really\nfeel you must, .",
      "EUes": "Ha pasado más de una década\ndesde el último año del perro.\n¡El tiempo vuela, !\nProtestaría por la larga espera,\npero se dice que perro que ladra no\nmuerde... Mejor me quedo calladita.\nPero tranquilo, que aunque en \nme toque a mí ser la protagonista,\nseguiré siendo tu mejor amiga...",
      "EUfr": "L'année tant attendue du chien est\nenfin arrivée ! Dire que la dernière\nremonte à il y a douze ans...\nÇa ne me rajeunit pas !",
      "EUit": "Dopo tanto tempo è tornato l'anno\ndel Cane. Peccato che capiti solo\nuna volta ogni dodici anni!\nBeh, non richiedo certo un\ntrattamento speciale. Però...\nse insisti, lo accetterò, !",
      "EUnl": "Eindelijk is het jaar van de hond\naangebroken. Eens in de twaalf\njaar is werkelijk veel te weinig!\nEnfin, ik verwacht geen speciale\nbehandeling, lieve schat. Tenzij\nje je geroepen voelt, natuurlijk!",
      "EUru": "Наконец-то снова наступил год\nсобаки! Двенадцать лет ждала,\nдушечка... (catchphrase)!\nТы не думай, что в этом году нужно\nменя сильно баловать... Но уж если\nочень хочется, я не буду против.",
      "JPja": "今年は　12年ぶりの　イヌ年かぁ・・・\nアタシを　特別扱いする必要はないけど\n今年も　変わることなく\n仲良くしてくれると　嬉しいわ、",
      "KRko": "12년 만에 찾아온 개의 해구나...\n날 특별 취급해주진 않아도 되지만\n올해도 변함없이\n사이좋게 지내줬으면 해, !",
      "TWzh": "今年是暌違了12年的狗年……\n雖然不需要給我什麼特別待遇，\n但希望我們今年還是能和往常一樣，\n一起好好相處喔，。",
      "USen": "At long last, it is the Year of the Dog\nagain. I can't believe it only comes\nonce every 12 years!\nWell, no need to give me any special\ntreatment. That is...unless you really\nfeel you must, .",
      "USes": "Ya pasó más de una década\ndesde el último año del perro.\n¡El tiempo vuela, !\nProtestaría por la larga espera,\npero dicen que perro que ladra no\nmuerde... Mejor me quedo calladita.\nPero tranquilo, que aunque en el\n me toque ser la protagonista,\nseguiré siendo tu mejor amiga...",
      "USfr": "L'année tant attendue du chien est\nenfin arrivée! Dire que la dernière\nremonte à il y a douze ans...\nÇa ne me rajeunit pas!"
    }
  },
  {
    "label": "010",
    "attribute": "0x0000000000000000",
    "locale": {
      "CNzh": "不知为何，总感觉今年对我而言\n会成为最棒的一年。\n你看，我的鼻子跟去年相比，\n色泽是不是更莹润了？。",
      "EUde": "Das Jahr des Schweins kann nur ein\ngutes Jahr für mich werden.\nSieh dir nur meine zierliche Schnauze\nan! Glänzt sie nicht bereits\nbesonders rosig, (Floskel)?",
      "EUen": "I can't help but feel this year is\ngoing to be an especially good\none for me.\nWhy, just look at my snout!\nIt is positively aglow with the\npossibilities already, !",
      "EUes": "Si  es el año del cerdo,\nyo me apunto, .\nY, como diría una buena amiga,\nsi alguien tiene un problema,\n¡que me lo diga al hocico!",
      "EUfr": "Cette année sera exceptionnelle,\nqu'on se le dise !\nRegarde mon nez, tu vois comme il\nfrétille ? C'est qu'il flotte comme un\nparfum de succès,  !",
      "EUit": "Sento che questo sarà un anno\nparticolarmente speciale per me.\nGuarda che grugno che ho! Dà già\nuna chiara indicazione di come\nproseguirà l'anno, !",
      "EUnl": "Het jaar van het varken. Aardig dat\nze aan me denken.\nIk ga heerlijke modderbaden nemen!\nEn in mijn staart zit al een extra\nsierlijke krul, !",
      "EUru": "Меня не покидает ощущение, что\nэтот год будет для меня очень\nудачным.\nТы только посмотри на мой\nпятачок! Он уже весь светится\nв предвкушении. (catchphrase)!",
      "JPja": "なんだか　今年は　アタシにとって\n最高に　いい年に　なるような気がするのよね\nだって　アタシの　ハナ、去年より\n色ツヤが　いいと思わない？　",
      "KRko": "올해는 돼지의 해인 만큼\n내겐 최고의 한 해가 될 것 같아!\n어때? 내 코, 작년보다\n더 오똑해 보이지 않니? ?",
      "TWzh": "感覺今年對我來說，\n一定會是個很美好的一年喔。\n你不覺得跟去年相比，\n我的鼻子看起來更有光澤了嗎？。",
      "USen": "I can't help but feel this year is\ngoing to be an especially good\none for me.\nWhy, just look at my snout!\nIt is positively aglow with the\npossibilities already, !",
      "USes": "Si el  es el año del cerdo,\nyo me apunto, .\nY, como diría una buena amiga,\nsi alguien tiene un problema,\n¡que me lo diga al hocico!",
      "USfr": "Cette année sera exceptionnelle,\nqu'on se le dise!\nRegarde mon nez, tu vois comme il\nfrétille? C'est qu'il flotte comme un\nparfum de succès, !"
    }
  }
]