﻿[
  {
    "label": "1008_Helmet_06092",
    "locale": {
      "CNzh": "银色",
      "EUde": "Silber",
      "EUen": "Silver",
      "EUes": "Plateado",
      "EUfr": "Argent",
      "EUit": "Argentato",
      "EUnl": "Zilver",
      "EUru": "Серебро",
      "JPja": "シルバー",
      "KRko": "실버",
      "TWzh": "銀色",
      "USen": "Silver",
      "USes": "Plateado",
      "USfr": "Argent"
    }
  },
  {
    "label": "1008_Helmet_09749",
    "locale": {
      "CNzh": "金色",
      "EUde": "Gold",
      "EUen": "Gold",
      "EUes": "Dorado",
      "EUfr": "Or",
      "EUit": "Dorato",
      "EUnl": "Goud",
      "EUru": "Золото",
      "JPja": "ゴールド",
      "KRko": "골드",
      "TWzh": "金色",
      "USen": "Gold",
      "USes": "Dorado",
      "USfr": "Or"
    }
  },
  {
    "label": "1008_Helmet_09750",
    "locale": {
      "CNzh": "粉金色",
      "EUde": "Rosagold",
      "EUen": "Rose gold",
      "EUes": "Oro rosa",
      "EUfr": "Or rose",
      "EUit": "Oro rosa",
      "EUnl": "Roségoud",
      "EUru": "Розовое золото",
      "JPja": "ピンクゴールド",
      "KRko": "핑크 골드",
      "TWzh": "玫瑰金",
      "USen": "Rose gold",
      "USes": "Oro rosa",
      "USfr": "Or rose"
    }
  },
  {
    "label": "1009_Helmet_06093",
    "locale": {
      "CNzh": "粉红",
      "EUde": "Rosa",
      "EUen": "Pink",
      "EUes": "Rosa",
      "EUfr": "Rose",
      "EUit": "Rosa",
      "EUnl": "Roze",
      "EUru": "Розовый",
      "JPja": "ピンク",
      "KRko": "핑크",
      "TWzh": "粉紅色",
      "USen": "Pink",
      "USes": "Rosa",
      "USfr": "Rose"
    }
  },
  {
    "label": "1009_Helmet_11894",
    "locale": {
      "CNzh": "蓝色",
      "EUde": "Blau",
      "EUen": "Blue",
      "EUes": "Azul",
      "EUfr": "Bleu",
      "EUit": "Blu",
      "EUnl": "Blauw",
      "EUru": "Синий",
      "JPja": "ブルー",
      "KRko": "블루",
      "TWzh": "藍色",
      "USen": "Blue",
      "USes": "Azul",
      "USfr": "Bleu"
    }
  },
  {
    "label": "1009_Helmet_11895",
    "locale": {
      "CNzh": "紫色",
      "EUde": "Lila",
      "EUen": "Purple",
      "EUes": "Púrpura",
      "EUfr": "Violet",
      "EUit": "Viola",
      "EUnl": "Paars",
      "EUru": "Фиолетовый",
      "JPja": "パープル",
      "KRko": "퍼플",
      "TWzh": "紫色",
      "USen": "Purple",
      "USes": "Morado",
      "USfr": "Mauve"
    }
  },
  {
    "label": "1009_Helmet_11896",
    "locale": {
      "CNzh": "绿色",
      "EUde": "Grün",
      "EUen": "Green",
      "EUes": "Verde",
      "EUfr": "Vert",
      "EUit": "Verde",
      "EUnl": "Groen",
      "EUru": "Зеленый",
      "JPja": "グリーン",
      "KRko": "그린",
      "TWzh": "綠色",
      "USen": "Green",
      "USes": "Verde",
      "USfr": "Vert"
    }
  },
  {
    "label": "1010_Helmet_06091",
    "locale": {
      "CNzh": "无其他种类",
      "EUde": "Keine Varianten",
      "EUen": "No Variations",
      "EUes": "Sin variaciones",
      "EUfr": "Sans variation",
      "EUit": "Nessuna variazione",
      "EUnl": "Geen variaties",
      "EUru": "Нет вариантов",
      "JPja": "バリエーションなし",
      "KRko": "종류 없음",
      "TWzh": "無其他種類",
      "USen": "No Variations",
      "USes": "Sin variaciones",
      "USfr": "Sans variation"
    }
  },
  {
    "label": "1011_Helmet_05819",
    "locale": {
      "CNzh": "发色",
      "EUde": "Haarfarbe",
      "EUen": "Hair Color",
      "EUes": "Color del pelo",
      "EUfr": "Couleur de cheveux",
      "EUit": "Colore dei capelli",
      "EUnl": "Haarkleur",
      "EUru": "Цвет волос",
      "JPja": "ヘアカラー",
      "KRko": "헤어 컬러",
      "TWzh": "頭髮顏色",
      "USen": "Hair Color",
      "USes": "Color del pelo",
      "USfr": "Couleur de cheveux"
    }
  },
  {
    "label": "1012_Helmet_05832",
    "locale": {
      "CNzh": "发色",
      "EUde": "Haarfarbe",
      "EUen": "Hair Color",
      "EUes": "Color del pelo",
      "EUfr": "Couleur de cheveux",
      "EUit": "Colore dei capelli",
      "EUnl": "Haarkleur",
      "EUru": "Цвет волос",
      "JPja": "ヘアカラー",
      "KRko": "헤어 컬러",
      "TWzh": "頭髮顏色",
      "USen": "Hair Color",
      "USes": "Color del pelo",
      "USfr": "Couleur de cheveux"
    }
  },
  {
    "label": "1040_Helmet_08609",
    "locale": {
      "CNzh": "无其他种类",
      "EUde": "Keine Varianten",
      "EUen": "No Variations",
      "EUes": "Sin variaciones",
      "EUfr": "Sans variation",
      "EUit": "Nessuna variazione",
      "EUnl": "Geen variaties",
      "EUru": "Нет вариантов",
      "JPja": "バリエーションなし",
      "KRko": "종류 없음",
      "TWzh": "無其他種類",
      "USen": "No Variations",
      "USes": "Sin variaciones",
      "USfr": "Sans variation"
    }
  },
  {
    "label": "1113_Helmet_09862",
    "locale": {
      "CNzh": "无其他种类",
      "EUde": "Keine Varianten",
      "EUen": "No Variations",
      "EUes": "Sin variaciones",
      "EUfr": "Sans variation",
      "EUit": "Nessuna variazione",
      "EUnl": "Geen variaties",
      "EUru": "Нет вариантов",
      "JPja": "バリエーションなし",
      "KRko": "종류 없음",
      "TWzh": "無其他種類",
      "USen": "No Variations",
      "USes": "Sin variaciones",
      "USfr": "Sans variation"
    }
  },
  {
    "label": "1265_Helmet_13003",
    "locale": {
      "CNzh": "橘色",
      "EUde": "Orange",
      "EUen": "Orange",
      "EUes": "Naranja",
      "EUfr": "Orange",
      "EUit": "Arancio",
      "EUnl": "Oranje",
      "EUru": "Оранжевый",
      "JPja": "オレンジ",
      "KRko": "오렌지",
      "TWzh": "橘色",
      "USen": "Orange",
      "USes": "Naranja",
      "USfr": "Orange"
    }
  },
  {
    "label": "1265_Helmet_13398",
    "locale": {
      "CNzh": "紫色",
      "EUde": "Lila",
      "EUen": "Purple",
      "EUes": "Púrpura",
      "EUfr": "Violet",
      "EUit": "Viola",
      "EUnl": "Paars",
      "EUru": "Фиолетовый",
      "JPja": "パープル",
      "KRko": "퍼플",
      "TWzh": "紫色",
      "USen": "Purple",
      "USes": "Morado",
      "USfr": "Mauve"
    }
  },
  {
    "label": "1265_Helmet_13399",
    "locale": {
      "CNzh": "白色",
      "EUde": "Weiß",
      "EUen": "White",
      "EUes": "Blanco",
      "EUfr": "Blanc",
      "EUit": "Bianco",
      "EUnl": "Wit",
      "EUru": "Белый",
      "JPja": "ホワイト",
      "KRko": "화이트",
      "TWzh": "白色",
      "USen": "White",
      "USes": "Blanco",
      "USfr": "Blanc"
    }
  },
  {
    "label": "1265_Helmet_13400",
    "locale": {
      "CNzh": "绿色",
      "EUde": "Grün",
      "EUen": "Green",
      "EUes": "Verde",
      "EUfr": "Vert",
      "EUit": "Verde",
      "EUnl": "Groen",
      "EUru": "Зеленый",
      "JPja": "グリーン",
      "KRko": "그린",
      "TWzh": "綠色",
      "USen": "Green",
      "USes": "Verde",
      "USfr": "Vert"
    }
  },
  {
    "label": "1265_Helmet_13401",
    "locale": {
      "CNzh": "红色",
      "EUde": "Rot",
      "EUen": "Red",
      "EUes": "Rojo",
      "EUfr": "Rouge",
      "EUit": "Rosso",
      "EUnl": "Rood",
      "EUru": "Красный",
      "JPja": "レッド",
      "KRko": "레드",
      "TWzh": "紅色",
      "USen": "Red",
      "USes": "Rojo",
      "USfr": "Rouge"
    }
  },
  {
    "label": "1265_Helmet_13402",
    "locale": {
      "CNzh": "黑色",
      "EUde": "Schwarz",
      "EUen": "Black",
      "EUes": "Negro",
      "EUfr": "Noir",
      "EUit": "Nero",
      "EUnl": "Zwart",
      "EUru": "Черный",
      "JPja": "ブラック",
      "KRko": "블랙",
      "TWzh": "黑色",
      "USen": "Black",
      "USes": "Negro",
      "USfr": "Noir"
    }
  },
  {
    "label": "1266_Helmet_13002",
    "locale": {
      "CNzh": "无其他种类",
      "EUde": "Keine Varianten",
      "EUen": "No Variations",
      "EUes": "Sin variaciones",
      "EUfr": "Sans variation",
      "EUit": "Nessuna variazione",
      "EUnl": "Geen variaties",
      "EUru": "Нет вариантов",
      "JPja": "バリエーションなし",
      "KRko": "종류 없음",
      "TWzh": "無其他種類",
      "USen": "No Variations",
      "USes": "Sin variaciones",
      "USfr": "Sans variation"
    }
  },
  {
    "label": "1282_Helmet_13168",
    "locale": {
      "CNzh": "无其他种类",
      "EUde": "Keine Varianten",
      "EUen": "No Variations",
      "EUes": "Sin variaciones",
      "EUfr": "Sans variation",
      "EUit": "Nessuna variazione",
      "EUnl": "Geen variaties",
      "EUru": "Нет вариантов",
      "JPja": "バリエーションなし",
      "KRko": "종류 없음",
      "TWzh": "無其他種類",
      "USen": "No Variations",
      "USes": "Sin variaciones",
      "USfr": "Sans variation"
    }
  },
  {
    "label": "1288_Helmet_13175",
    "locale": {
      "CNzh": "无其他种类",
      "EUde": "Keine Varianten",
      "EUen": "No Variations",
      "EUes": "Sin variaciones",
      "EUfr": "Sans variation",
      "EUit": "Nessuna variazione",
      "EUnl": "Geen variaties",
      "EUru": "Нет вариантов",
      "JPja": "バリエーションなし",
      "KRko": "종류 없음",
      "TWzh": "無其他種類",
      "USen": "No Variations",
      "USes": "Sin variaciones",
      "USfr": "Sans variation"
    }
  },
  {
    "label": "1304_Helmet_13297",
    "locale": {
      "CNzh": "无其他种类",
      "EUde": "Keine Varianten",
      "EUen": "No Variations",
      "EUes": "Sin variaciones",
      "EUfr": "Sans variation",
      "EUit": "Nessuna variazione",
      "EUnl": "Geen variaties",
      "EUru": "Нет вариантов",
      "JPja": "バリエーションなし",
      "KRko": "종류 없음",
      "TWzh": "無其他種類",
      "USen": "No Variations",
      "USes": "Sin variaciones",
      "USfr": "Sans variation"
    }
  },
  {
    "label": "1312_Helmet_13326",
    "locale": {
      "CNzh": "无其他种类",
      "EUde": "Keine Varianten",
      "EUen": "No Variations",
      "EUes": "Sin variaciones",
      "EUfr": "Sans variation",
      "EUit": "Nessuna variazione",
      "EUnl": "Geen variaties",
      "EUru": "Нет вариантов",
      "JPja": "バリエーションなし",
      "KRko": "종류 없음",
      "TWzh": "無其他種類",
      "USen": "No Variations",
      "USes": "Sin variaciones",
      "USfr": "Sans variation"
    }
  },
  {
    "label": "1343_Helmet_13910",
    "locale": {
      "CNzh": "无其他种类",
      "EUde": "Keine Varianten",
      "EUen": "No Variations",
      "EUes": "Sin variaciones",
      "EUfr": "Sans variation",
      "EUit": "Nessuna variazione",
      "EUnl": "Geen variaties",
      "EUru": "Нет вариантов",
      "JPja": "バリエーションなし",
      "KRko": "종류 없음",
      "TWzh": "無其他種類",
      "USen": "No Variations",
      "USes": "Sin variaciones",
      "USfr": "Sans variation"
    }
  },
  {
    "label": "1348_Helmet_14199",
    "locale": {
      "CNzh": "无其他种类",
      "EUde": "Keine Varianten",
      "EUen": "No Variations",
      "EUes": "Sin variaciones",
      "EUfr": "Sans variation",
      "EUit": "Nessuna variazione",
      "EUnl": "Geen variaties",
      "EUru": "Нет вариантов",
      "JPja": "バリエーションなし",
      "KRko": "종류 없음",
      "TWzh": "無其他種類",
      "USen": "No Variations",
      "USes": "Sin variaciones",
      "USfr": "Sans variation"
    }
  },
  {
    "label": "1374_Helmet_14279",
    "locale": {
      "CNzh": "无其他种类",
      "EUde": "Keine Varianten",
      "EUen": "No Variations",
      "EUes": "Sin variaciones",
      "EUfr": "Sans variation",
      "EUit": "Nessuna variazione",
      "EUnl": "Geen variaties",
      "EUru": "Нет вариантов",
      "JPja": "バリエーションなし",
      "KRko": "종류 없음",
      "TWzh": "無其他種類",
      "USen": "No Variations",
      "USes": "Sin variaciones",
      "USfr": "Sans variation"
    }
  },
  {
    "label": "1400_Helmet_14371",
    "locale": {
      "CNzh": "白色",
      "EUde": "Weiß",
      "EUen": "White",
      "EUes": "Blanco",
      "EUfr": "Blanc",
      "EUit": "Bianco",
      "EUnl": "Wit",
      "EUru": "Белый",
      "JPja": "ホワイト",
      "KRko": "화이트",
      "TWzh": "白色",
      "USen": "White",
      "USes": "Blanco",
      "USfr": "Blanc"
    }
  },
  {
    "label": "1400_Helmet_14961",
    "locale": {
      "CNzh": "蓝色",
      "EUde": "Blau",
      "EUen": "Blue",
      "EUes": "Azul",
      "EUfr": "Bleu",
      "EUit": "Blu",
      "EUnl": "Blauw",
      "EUru": "Синий",
      "JPja": "ブルー",
      "KRko": "블루",
      "TWzh": "藍色",
      "USen": "Blue",
      "USes": "Azul",
      "USfr": "Bleu"
    }
  },
  {
    "label": "1400_Helmet_14962",
    "locale": {
      "CNzh": "绿色",
      "EUde": "Grün",
      "EUen": "Green",
      "EUes": "Verde",
      "EUfr": "Vert",
      "EUit": "Verde",
      "EUnl": "Groen",
      "EUru": "Зеленый",
      "JPja": "グリーン",
      "KRko": "그린",
      "TWzh": "綠色",
      "USen": "Green",
      "USes": "Verde",
      "USfr": "Vert"
    }
  },
  {
    "label": "1400_Helmet_14963",
    "locale": {
      "CNzh": "黄色",
      "EUde": "Gelb",
      "EUen": "Yellow",
      "EUes": "Amarillo",
      "EUfr": "Jaune",
      "EUit": "Giallo",
      "EUnl": "Geel",
      "EUru": "Желтый",
      "JPja": "イエロー",
      "KRko": "옐로",
      "TWzh": "黃色",
      "USen": "Yellow",
      "USes": "Amarillo",
      "USfr": "Jaune"
    }
  },
  {
    "label": "1400_Helmet_14964",
    "locale": {
      "CNzh": "橘色",
      "EUde": "Orange",
      "EUen": "Orange",
      "EUes": "Naranja",
      "EUfr": "Orange",
      "EUit": "Arancio",
      "EUnl": "Oranje",
      "EUru": "Оранжевый",
      "JPja": "オレンジ",
      "KRko": "오렌지",
      "TWzh": "橘色",
      "USen": "Orange",
      "USes": "Naranja",
      "USfr": "Orange"
    }
  },
  {
    "label": "1439_Helmet_00316",
    "locale": {
      "CNzh": "黄色",
      "EUde": "Gelb",
      "EUen": "Yellow",
      "EUes": "Amarillo",
      "EUfr": "Jaune",
      "EUit": "Giallo",
      "EUnl": "Geel",
      "EUru": "Желтый",
      "JPja": "イエロー",
      "KRko": "옐로",
      "TWzh": "黃色",
      "USen": "Yellow",
      "USes": "Amarillo",
      "USfr": "Jaune"
    }
  },
  {
    "label": "1439_Helmet_00317",
    "locale": {
      "CNzh": "绿色",
      "EUde": "Grün",
      "EUen": "Green",
      "EUes": "Verde",
      "EUfr": "Vert",
      "EUit": "Verde",
      "EUnl": "Groen",
      "EUru": "Зеленый",
      "JPja": "グリーン",
      "KRko": "그린",
      "TWzh": "綠色",
      "USen": "Green",
      "USes": "Verde",
      "USfr": "Vert"
    }
  },
  {
    "label": "1439_Helmet_00318",
    "locale": {
      "CNzh": "酒红色",
      "EUde": "Weinrot",
      "EUen": "Berry red",
      "EUes": "Burdeos",
      "EUfr": "Bordeaux",
      "EUit": "Rosso lampone",
      "EUnl": "Bessenrood",
      "EUru": "Ягодно-красный",
      "JPja": "ワインレッド",
      "KRko": "와인 레드",
      "TWzh": "酒紅色",
      "USen": "Berry red",
      "USes": "Granate",
      "USfr": "Bordeaux"
    }
  },
  {
    "label": "1439_Helmet_00319",
    "locale": {
      "CNzh": "黑色",
      "EUde": "Schwarz",
      "EUen": "Black",
      "EUes": "Negro",
      "EUfr": "Noir",
      "EUit": "Nero",
      "EUnl": "Zwart",
      "EUru": "Черный",
      "JPja": "ブラック",
      "KRko": "블랙",
      "TWzh": "黑色",
      "USen": "Black",
      "USes": "Negro",
      "USfr": "Noir"
    }
  },
  {
    "label": "1439_Helmet_00320",
    "locale": {
      "CNzh": "白色",
      "EUde": "Weiß",
      "EUen": "White",
      "EUes": "Blanco",
      "EUfr": "Blanc",
      "EUit": "Bianco",
      "EUnl": "Wit",
      "EUru": "Белый",
      "JPja": "ホワイト",
      "KRko": "화이트",
      "TWzh": "白色",
      "USen": "White",
      "USes": "Blanco",
      "USfr": "Blanc"
    }
  },
  {
    "label": "1439_Helmet_14711",
    "locale": {
      "CNzh": "红色",
      "EUde": "Rot",
      "EUen": "Red",
      "EUes": "Rojo",
      "EUfr": "Rouge",
      "EUit": "Rosso",
      "EUnl": "Rood",
      "EUru": "Красный",
      "JPja": "レッド",
      "KRko": "레드",
      "TWzh": "紅色",
      "USen": "Red",
      "USes": "Rojo",
      "USfr": "Rouge"
    }
  },
  {
    "label": "1440_Helmet_00288",
    "locale": {
      "CNzh": "绿色",
      "EUde": "Grün",
      "EUen": "Green",
      "EUes": "Verde",
      "EUfr": "Vert",
      "EUit": "Verde",
      "EUnl": "Groen",
      "EUru": "Зеленый",
      "JPja": "グリーン",
      "KRko": "그린",
      "TWzh": "綠色",
      "USen": "Green",
      "USes": "Verde",
      "USfr": "Vert"
    }
  },
  {
    "label": "1440_Helmet_00289",
    "locale": {
      "CNzh": "蓝色",
      "EUde": "Blau",
      "EUen": "Blue",
      "EUes": "Azul",
      "EUfr": "Bleu",
      "EUit": "Blu",
      "EUnl": "Blauw",
      "EUru": "Синий",
      "JPja": "ブルー",
      "KRko": "블루",
      "TWzh": "藍色",
      "USen": "Blue",
      "USes": "Azul",
      "USfr": "Bleu"
    }
  },
  {
    "label": "1440_Helmet_00291",
    "locale": {
      "CNzh": "粉红",
      "EUde": "Rosa",
      "EUen": "Pink",
      "EUes": "Rosa",
      "EUfr": "Rose",
      "EUit": "Rosa",
      "EUnl": "Roze",
      "EUru": "Розовый",
      "JPja": "ピンク",
      "KRko": "핑크",
      "TWzh": "粉紅色",
      "USen": "Pink",
      "USes": "Rosa",
      "USfr": "Rose"
    }
  },
  {
    "label": "1440_Helmet_00293",
    "locale": {
      "CNzh": "橘色",
      "EUde": "Orange",
      "EUen": "Orange",
      "EUes": "Naranja",
      "EUfr": "Orange",
      "EUit": "Arancio",
      "EUnl": "Oranje",
      "EUru": "Оранжевый",
      "JPja": "オレンジ",
      "KRko": "오렌지",
      "TWzh": "橘色",
      "USen": "Orange",
      "USes": "Naranja",
      "USfr": "Orange"
    }
  },
  {
    "label": "1440_Helmet_14712",
    "locale": {
      "CNzh": "黄色",
      "EUde": "Gelb",
      "EUen": "Yellow",
      "EUes": "Amarillo",
      "EUfr": "Jaune",
      "EUit": "Giallo",
      "EUnl": "Geel",
      "EUru": "Желтый",
      "JPja": "イエロー",
      "KRko": "옐로",
      "TWzh": "黃色",
      "USen": "Yellow",
      "USes": "Amarillo",
      "USfr": "Jaune"
    }
  },
  {
    "label": "1451_Helmet_00527",
    "locale": {
      "CNzh": "金色",
      "EUde": "Gold",
      "EUen": "Gold",
      "EUes": "Dorado",
      "EUfr": "Or",
      "EUit": "Dorato",
      "EUnl": "Goud",
      "EUru": "Золото",
      "JPja": "ゴールド",
      "KRko": "골드",
      "TWzh": "金色",
      "USen": "Gold",
      "USes": "Dorado",
      "USfr": "Or"
    }
  },
  {
    "label": "1451_Helmet_00528",
    "locale": {
      "CNzh": "银色",
      "EUde": "Silber",
      "EUen": "Silver",
      "EUes": "Plateado",
      "EUfr": "Argent",
      "EUit": "Argentato",
      "EUnl": "Zilver",
      "EUru": "Серебро",
      "JPja": "シルバー",
      "KRko": "실버",
      "TWzh": "銀色",
      "USen": "Silver",
      "USes": "Plateado",
      "USfr": "Argent"
    }
  },
  {
    "label": "1451_Helmet_14763",
    "locale": {
      "CNzh": "黑色",
      "EUde": "Schwarz",
      "EUen": "Black",
      "EUes": "Negro",
      "EUfr": "Noir",
      "EUit": "Nero",
      "EUnl": "Zwart",
      "EUru": "Черный",
      "JPja": "ブラック",
      "KRko": "블랙",
      "TWzh": "黑色",
      "USen": "Black",
      "USes": "Negro",
      "USfr": "Noir"
    }
  },
  {
    "label": "674_Helmet_05322",
    "locale": {
      "CNzh": "无其他种类",
      "EUde": "Keine Varianten",
      "EUen": "No Variations",
      "EUes": "Sin variaciones",
      "EUfr": "Sans variation",
      "EUit": "Nessuna variazione",
      "EUnl": "Geen variaties",
      "EUru": "Нет вариантов",
      "JPja": "バリエーションなし",
      "KRko": "종류 없음",
      "TWzh": "無其他種類",
      "USen": "No Variations",
      "USes": "Sin variaciones",
      "USfr": "Sans variation"
    }
  },
  {
    "label": "675_Helmet_05323",
    "locale": {
      "CNzh": "红色",
      "EUde": "Rot",
      "EUen": "Red",
      "EUes": "Rojo",
      "EUfr": "Rouge",
      "EUit": "Rosso",
      "EUnl": "Rood",
      "EUru": "Красный",
      "JPja": "レッド",
      "KRko": "레드",
      "TWzh": "紅色",
      "USen": "Red",
      "USes": "Rojo",
      "USfr": "Rouge"
    }
  },
  {
    "label": "675_Helmet_11836",
    "locale": {
      "CNzh": "粉红",
      "EUde": "Rosa",
      "EUen": "Pink",
      "EUes": "Rosa",
      "EUfr": "Rose",
      "EUit": "Rosa",
      "EUnl": "Roze",
      "EUru": "Розовый",
      "JPja": "ピンク",
      "KRko": "핑크",
      "TWzh": "粉紅色",
      "USen": "Pink",
      "USes": "Rosa",
      "USfr": "Rose"
    }
  },
  {
    "label": "675_Helmet_11837",
    "locale": {
      "CNzh": "黄色",
      "EUde": "Gelb",
      "EUen": "Yellow",
      "EUes": "Amarillo",
      "EUfr": "Jaune",
      "EUit": "Giallo",
      "EUnl": "Geel",
      "EUru": "Желтый",
      "JPja": "イエロー",
      "KRko": "옐로",
      "TWzh": "黃色",
      "USen": "Yellow",
      "USes": "Amarillo",
      "USfr": "Jaune"
    }
  },
  {
    "label": "675_Helmet_11838",
    "locale": {
      "CNzh": "绿色",
      "EUde": "Grün",
      "EUen": "Green",
      "EUes": "Verde",
      "EUfr": "Vert",
      "EUit": "Verde",
      "EUnl": "Groen",
      "EUru": "Зеленый",
      "JPja": "グリーン",
      "KRko": "그린",
      "TWzh": "綠色",
      "USen": "Green",
      "USes": "Verde",
      "USfr": "Vert"
    }
  },
  {
    "label": "675_Helmet_11839",
    "locale": {
      "CNzh": "蓝色",
      "EUde": "Blau",
      "EUen": "Blue",
      "EUes": "Azul",
      "EUfr": "Bleu",
      "EUit": "Blu",
      "EUnl": "Blauw",
      "EUru": "Синий",
      "JPja": "ブルー",
      "KRko": "블루",
      "TWzh": "藍色",
      "USen": "Blue",
      "USes": "Azul",
      "USfr": "Bleu"
    }
  },
  {
    "label": "675_Helmet_11840",
    "locale": {
      "CNzh": "浅蓝色",
      "EUde": "Hellblau",
      "EUen": "Light blue",
      "EUes": "Celeste",
      "EUfr": "Bleu clair",
      "EUit": "Blu chiaro",
      "EUnl": "Lichtblauw",
      "EUru": "Голубой",
      "JPja": "ライトブルー",
      "KRko": "라이트 블루",
      "TWzh": "淺藍色",
      "USen": "Light blue",
      "USes": "Celeste",
      "USfr": "Bleu pâle"
    }
  },
  {
    "label": "675_Helmet_11841",
    "locale": {
      "CNzh": "浅绿色",
      "EUde": "Hellgrün",
      "EUen": "Light green",
      "EUes": "Verde claro",
      "EUfr": "Vert clair",
      "EUit": "Verde chiaro",
      "EUnl": "Lichtgroen",
      "EUru": "Светло-зеленый",
      "JPja": "ライトグリーン",
      "KRko": "라이트 그린",
      "TWzh": "淺綠色",
      "USen": "Light green",
      "USes": "Verde claro",
      "USfr": "Vert clair"
    }
  },
  {
    "label": "675_Helmet_11842",
    "locale": {
      "CNzh": "橘色",
      "EUde": "Orange",
      "EUen": "Orange",
      "EUes": "Naranja",
      "EUfr": "Orange",
      "EUit": "Arancio",
      "EUnl": "Oranje",
      "EUru": "Оранжевый",
      "JPja": "オレンジ",
      "KRko": "오렌지",
      "TWzh": "橘色",
      "USen": "Orange",
      "USes": "Naranja",
      "USfr": "Orange"
    }
  },
  {
    "label": "676_Helmet_05324",
    "locale": {
      "CNzh": "无其他种类",
      "EUde": "Keine Varianten",
      "EUen": "No Variations",
      "EUes": "Sin variaciones",
      "EUfr": "Sans variation",
      "EUit": "Nessuna variazione",
      "EUnl": "Geen variaties",
      "EUru": "Нет вариантов",
      "JPja": "バリエーションなし",
      "KRko": "종류 없음",
      "TWzh": "無其他種類",
      "USen": "No Variations",
      "USes": "Sin variaciones",
      "USfr": "Sans variation"
    }
  },
  {
    "label": "677_Helmet_05325",
    "locale": {
      "CNzh": "粉红",
      "EUde": "Rosa",
      "EUen": "Pink",
      "EUes": "Rosa",
      "EUfr": "Rose",
      "EUit": "Rosa",
      "EUnl": "Roze",
      "EUru": "Розовый",
      "JPja": "ピンク",
      "KRko": "핑크",
      "TWzh": "粉紅色",
      "USen": "Pink",
      "USes": "Rosa",
      "USfr": "Rose"
    }
  },
  {
    "label": "677_Helmet_11700",
    "locale": {
      "CNzh": "黄色",
      "EUde": "Gelb",
      "EUen": "Yellow",
      "EUes": "Amarillo",
      "EUfr": "Jaune",
      "EUit": "Giallo",
      "EUnl": "Geel",
      "EUru": "Желтый",
      "JPja": "イエロー",
      "KRko": "옐로",
      "TWzh": "黃色",
      "USen": "Yellow",
      "USes": "Amarillo",
      "USfr": "Jaune"
    }
  },
  {
    "label": "677_Helmet_11701",
    "locale": {
      "CNzh": "白色",
      "EUde": "Weiß",
      "EUen": "White",
      "EUes": "Blanco",
      "EUfr": "Blanc",
      "EUit": "Bianco",
      "EUnl": "Wit",
      "EUru": "Белый",
      "JPja": "ホワイト",
      "KRko": "화이트",
      "TWzh": "白色",
      "USen": "White",
      "USes": "Blanco",
      "USfr": "Blanc"
    }
  },
  {
    "label": "678_Helmet_05326",
    "locale": {
      "CNzh": "海军蓝",
      "EUde": "Marineblau",
      "EUen": "Navy blue",
      "EUes": "Azul marino",
      "EUfr": "Bleu marine",
      "EUit": "Blu marino",
      "EUnl": "Marineblauw",
      "EUru": "Черно-синий",
      "JPja": "ネイビー",
      "KRko": "네이비",
      "TWzh": "海軍藍",
      "USen": "Navy blue",
      "USes": "Azul marino",
      "USfr": "Bleu marine"
    }
  },
  {
    "label": "678_Helmet_11702",
    "locale": {
      "CNzh": "棕色",
      "EUde": "Braun",
      "EUen": "Brown",
      "EUes": "Marrón",
      "EUfr": "Brun",
      "EUit": "Marrone",
      "EUnl": "Bruin",
      "EUru": "Коричневый",
      "JPja": "ブラウン",
      "KRko": "브라운",
      "TWzh": "棕色",
      "USen": "Brown",
      "USes": "Marrón",
      "USfr": "Brun"
    }
  },
  {
    "label": "678_Helmet_11703",
    "locale": {
      "CNzh": "白色",
      "EUde": "Weiß",
      "EUen": "White",
      "EUes": "Blanco",
      "EUfr": "Blanc",
      "EUit": "Bianco",
      "EUnl": "Wit",
      "EUru": "Белый",
      "JPja": "ホワイト",
      "KRko": "화이트",
      "TWzh": "白色",
      "USen": "White",
      "USes": "Blanco",
      "USfr": "Blanc"
    }
  },
  {
    "label": "679_Helmet_05327",
    "locale": {
      "CNzh": "绿色",
      "EUde": "Grün",
      "EUen": "Green",
      "EUes": "Verde",
      "EUfr": "Vert",
      "EUit": "Verde",
      "EUnl": "Groen",
      "EUru": "Зеленый",
      "JPja": "グリーン",
      "KRko": "그린",
      "TWzh": "綠色",
      "USen": "Green",
      "USes": "Verde",
      "USfr": "Vert"
    }
  },
  {
    "label": "679_Helmet_10826",
    "locale": {
      "CNzh": "黑色",
      "EUde": "Schwarz",
      "EUen": "Black",
      "EUes": "Negro",
      "EUfr": "Noir",
      "EUit": "Nero",
      "EUnl": "Zwart",
      "EUru": "Черный",
      "JPja": "ブラック",
      "KRko": "블랙",
      "TWzh": "黑色",
      "USen": "Black",
      "USes": "Negro",
      "USfr": "Noir"
    }
  },
  {
    "label": "679_Helmet_10827",
    "locale": {
      "CNzh": "莱姆绿",
      "EUde": "Limettengrün",
      "EUen": "Lime",
      "EUes": "Lima",
      "EUfr": "Citron vert",
      "EUit": "Limetta",
      "EUnl": "Limoengroen",
      "EUru": "Лаймовый",
      "JPja": "ライム",
      "KRko": "라임",
      "TWzh": "萊姆綠",
      "USen": "Lime",
      "USes": "Verdoso",
      "USfr": "Lime"
    }
  },
  {
    "label": "679_Helmet_10828",
    "locale": {
      "CNzh": "红色",
      "EUde": "Rot",
      "EUen": "Red",
      "EUes": "Rojo",
      "EUfr": "Rouge",
      "EUit": "Rosso",
      "EUnl": "Rood",
      "EUru": "Красный",
      "JPja": "レッド",
      "KRko": "레드",
      "TWzh": "紅色",
      "USen": "Red",
      "USes": "Rojo",
      "USfr": "Rouge"
    }
  },
  {
    "label": "679_Helmet_10829",
    "locale": {
      "CNzh": "蓝色",
      "EUde": "Blau",
      "EUen": "Blue",
      "EUes": "Azul",
      "EUfr": "Bleu",
      "EUit": "Blu",
      "EUnl": "Blauw",
      "EUru": "Синий",
      "JPja": "ブルー",
      "KRko": "블루",
      "TWzh": "藍色",
      "USen": "Blue",
      "USes": "Azul",
      "USfr": "Bleu"
    }
  },
  {
    "label": "680_Helmet_05328",
    "locale": {
      "CNzh": "白色",
      "EUde": "Weiß",
      "EUen": "White",
      "EUes": "Blanco",
      "EUfr": "Blanc",
      "EUit": "Bianco",
      "EUnl": "Wit",
      "EUru": "Белый",
      "JPja": "ホワイト",
      "KRko": "화이트",
      "TWzh": "白色",
      "USen": "White",
      "USes": "Blanco",
      "USfr": "Blanc"
    }
  },
  {
    "label": "682_Helmet_05330",
    "locale": {
      "CNzh": "棕色",
      "EUde": "Braun",
      "EUen": "Brown",
      "EUes": "Marrón",
      "EUfr": "Brun",
      "EUit": "Marrone",
      "EUnl": "Bruin",
      "EUru": "Коричневый",
      "JPja": "ブラウン",
      "KRko": "브라운",
      "TWzh": "棕色",
      "USen": "Brown",
      "USes": "Marrón",
      "USfr": "Brun"
    }
  },
  {
    "label": "682_Helmet_11704",
    "locale": {
      "CNzh": "黑色",
      "EUde": "Schwarz",
      "EUen": "Black",
      "EUes": "Negro",
      "EUfr": "Noir",
      "EUit": "Nero",
      "EUnl": "Zwart",
      "EUru": "Черный",
      "JPja": "ブラック",
      "KRko": "블랙",
      "TWzh": "黑色",
      "USen": "Black",
      "USes": "Negro",
      "USfr": "Noir"
    }
  },
  {
    "label": "682_Helmet_11705",
    "locale": {
      "CNzh": "粉红",
      "EUde": "Rosa",
      "EUen": "Pink",
      "EUes": "Rosa",
      "EUfr": "Rose",
      "EUit": "Rosa",
      "EUnl": "Roze",
      "EUru": "Розовый",
      "JPja": "ピンク",
      "KRko": "핑크",
      "TWzh": "粉紅色",
      "USen": "Pink",
      "USes": "Rosa",
      "USfr": "Rose"
    }
  },
  {
    "label": "682_Helmet_11706",
    "locale": {
      "CNzh": "蓝色",
      "EUde": "Blau",
      "EUen": "Blue",
      "EUes": "Azul",
      "EUfr": "Bleu",
      "EUit": "Blu",
      "EUnl": "Blauw",
      "EUru": "Синий",
      "JPja": "ブルー",
      "KRko": "블루",
      "TWzh": "藍色",
      "USen": "Blue",
      "USes": "Azul",
      "USfr": "Bleu"
    }
  },
  {
    "label": "683_Helmet_05331",
    "locale": {
      "CNzh": "绿色",
      "EUde": "Grün",
      "EUen": "Green",
      "EUes": "Verde",
      "EUfr": "Vert",
      "EUit": "Verde",
      "EUnl": "Groen",
      "EUru": "Зеленый",
      "JPja": "グリーン",
      "KRko": "그린",
      "TWzh": "綠色",
      "USen": "Green",
      "USes": "Verde",
      "USfr": "Vert"
    }
  },
  {
    "label": "683_Helmet_11696",
    "locale": {
      "CNzh": "粉红",
      "EUde": "Rosa",
      "EUen": "Pink",
      "EUes": "Rosa",
      "EUfr": "Rose",
      "EUit": "Rosa",
      "EUnl": "Roze",
      "EUru": "Розовый",
      "JPja": "ピンク",
      "KRko": "핑크",
      "TWzh": "粉紅色",
      "USen": "Pink",
      "USes": "Rosa",
      "USfr": "Rose"
    }
  },
  {
    "label": "686_Helmet_05334",
    "locale": {
      "CNzh": "灰色",
      "EUde": "Grau",
      "EUen": "Gray",
      "EUes": "Gris",
      "EUfr": "Gris",
      "EUit": "Grigio",
      "EUnl": "Grijs",
      "EUru": "Серый",
      "JPja": "グレー",
      "KRko": "그레이",
      "TWzh": "灰色",
      "USen": "Gray",
      "USes": "Gris",
      "USfr": "Gris"
    }
  },
  {
    "label": "687_Helmet_05335",
    "locale": {
      "CNzh": "绿色",
      "EUde": "Grün",
      "EUen": "Green",
      "EUes": "Verde",
      "EUfr": "Vert",
      "EUit": "Verde",
      "EUnl": "Groen",
      "EUru": "Зеленый",
      "JPja": "グリーン",
      "KRko": "그린",
      "TWzh": "綠色",
      "USen": "Green",
      "USes": "Verde",
      "USfr": "Vert"
    }
  },
  {
    "label": "687_Helmet_11697",
    "locale": {
      "CNzh": "蓝色",
      "EUde": "Blau",
      "EUen": "Blue",
      "EUes": "Azul",
      "EUfr": "Bleu",
      "EUit": "Blu",
      "EUnl": "Blauw",
      "EUru": "Синий",
      "JPja": "ブルー",
      "KRko": "블루",
      "TWzh": "藍色",
      "USen": "Blue",
      "USes": "Azul",
      "USfr": "Bleu"
    }
  },
  {
    "label": "687_Helmet_11698",
    "locale": {
      "CNzh": "红色",
      "EUde": "Rot",
      "EUen": "Red",
      "EUes": "Rojo",
      "EUfr": "Rouge",
      "EUit": "Rosso",
      "EUnl": "Rood",
      "EUru": "Красный",
      "JPja": "レッド",
      "KRko": "레드",
      "TWzh": "紅色",
      "USen": "Red",
      "USes": "Rojo",
      "USfr": "Rouge"
    }
  },
  {
    "label": "687_Helmet_11699",
    "locale": {
      "CNzh": "黄色",
      "EUde": "Gelb",
      "EUen": "Yellow",
      "EUes": "Amarillo",
      "EUfr": "Jaune",
      "EUit": "Giallo",
      "EUnl": "Geel",
      "EUru": "Желтый",
      "JPja": "イエロー",
      "KRko": "옐로",
      "TWzh": "黃色",
      "USen": "Yellow",
      "USes": "Amarillo",
      "USfr": "Jaune"
    }
  },
  {
    "label": "691_Helmet_05345",
    "locale": {
      "CNzh": "蓝色",
      "EUde": "Blau",
      "EUen": "Blue",
      "EUes": "Azul",
      "EUfr": "Bleu",
      "EUit": "Blu",
      "EUnl": "Blauw",
      "EUru": "Синий",
      "JPja": "ブルー",
      "KRko": "블루",
      "TWzh": "藍色",
      "USen": "Blue",
      "USes": "Azul",
      "USfr": "Bleu"
    }
  },
  {
    "label": "691_Helmet_11886",
    "locale": {
      "CNzh": "红色",
      "EUde": "Rot",
      "EUen": "Red",
      "EUes": "Rojo",
      "EUfr": "Rouge",
      "EUit": "Rosso",
      "EUnl": "Rood",
      "EUru": "Красный",
      "JPja": "レッド",
      "KRko": "레드",
      "TWzh": "紅色",
      "USen": "Red",
      "USes": "Rojo",
      "USfr": "Rouge"
    }
  },
  {
    "label": "691_Helmet_11887",
    "locale": {
      "CNzh": "绿色",
      "EUde": "Grün",
      "EUen": "Green",
      "EUes": "Verde",
      "EUfr": "Vert",
      "EUit": "Verde",
      "EUnl": "Groen",
      "EUru": "Зеленый",
      "JPja": "グリーン",
      "KRko": "그린",
      "TWzh": "綠色",
      "USen": "Green",
      "USes": "Verde",
      "USfr": "Vert"
    }
  },
  {
    "label": "692_Helmet_05346",
    "locale": {
      "CNzh": "金色",
      "EUde": "Gold",
      "EUen": "Gold",
      "EUes": "Dorado",
      "EUfr": "Or",
      "EUit": "Dorato",
      "EUnl": "Goud",
      "EUru": "Золото",
      "JPja": "ゴールド",
      "KRko": "골드",
      "TWzh": "金色",
      "USen": "Gold",
      "USes": "Dorado",
      "USfr": "Or"
    }
  },
  {
    "label": "697_Helmet_05373",
    "locale": {
      "CNzh": "绿色",
      "EUde": "Grün",
      "EUen": "Green",
      "EUes": "Verde",
      "EUfr": "Vert",
      "EUit": "Verde",
      "EUnl": "Groen",
      "EUru": "Зеленый",
      "JPja": "グリーン",
      "KRko": "그린",
      "TWzh": "綠色",
      "USen": "Green",
      "USes": "Verde",
      "USfr": "Vert"
    }
  },
  {
    "label": "697_Helmet_11604",
    "locale": {
      "CNzh": "白色",
      "EUde": "Weiß",
      "EUen": "White",
      "EUes": "Blanco",
      "EUfr": "Blanc",
      "EUit": "Bianco",
      "EUnl": "Wit",
      "EUru": "Белый",
      "JPja": "ホワイト",
      "KRko": "화이트",
      "TWzh": "白色",
      "USen": "White",
      "USes": "Blanco",
      "USfr": "Blanc"
    }
  },
  {
    "label": "697_Helmet_11605",
    "locale": {
      "CNzh": "黄色",
      "EUde": "Gelb",
      "EUen": "Yellow",
      "EUes": "Amarillo",
      "EUfr": "Jaune",
      "EUit": "Giallo",
      "EUnl": "Geel",
      "EUru": "Желтый",
      "JPja": "イエロー",
      "KRko": "옐로",
      "TWzh": "黃色",
      "USen": "Yellow",
      "USes": "Amarillo",
      "USfr": "Jaune"
    }
  },
  {
    "label": "697_Helmet_11606",
    "locale": {
      "CNzh": "酒红色",
      "EUde": "Weinrot",
      "EUen": "Berry red",
      "EUes": "Burdeos",
      "EUfr": "Bordeaux",
      "EUit": "Rosso lampone",
      "EUnl": "Bessenrood",
      "EUru": "Ягодно-красный",
      "JPja": "ワインレッド",
      "KRko": "와인 레드",
      "TWzh": "酒紅色",
      "USen": "Berry red",
      "USes": "Granate",
      "USfr": "Bordeaux"
    }
  },
  {
    "label": "697_Helmet_11607",
    "locale": {
      "CNzh": "蓝色",
      "EUde": "Blau",
      "EUen": "Blue",
      "EUes": "Azul",
      "EUfr": "Bleu",
      "EUit": "Blu",
      "EUnl": "Blauw",
      "EUru": "Синий",
      "JPja": "ブルー",
      "KRko": "블루",
      "TWzh": "藍色",
      "USen": "Blue",
      "USes": "Azul",
      "USfr": "Bleu"
    }
  },
  {
    "label": "697_Helmet_11608",
    "locale": {
      "CNzh": "绿松石色",
      "EUde": "Türkis",
      "EUen": "Turquoise",
      "EUes": "Turquesa",
      "EUfr": "Turquoise",
      "EUit": "Turchese",
      "EUnl": "Turquoise",
      "EUru": "Бирюзовый",
      "JPja": "ターコイズ",
      "KRko": "터콰이즈",
      "TWzh": "綠松色",
      "USen": "Turquoise",
      "USes": "Turquesa",
      "USfr": "Turquoise"
    }
  },
  {
    "label": "697_Helmet_11609",
    "locale": {
      "CNzh": "红色",
      "EUde": "Rot",
      "EUen": "Red",
      "EUes": "Rojo",
      "EUfr": "Rouge",
      "EUit": "Rosso",
      "EUnl": "Rood",
      "EUru": "Красный",
      "JPja": "レッド",
      "KRko": "레드",
      "TWzh": "紅色",
      "USen": "Red",
      "USes": "Rojo",
      "USfr": "Rouge"
    }
  },
  {
    "label": "697_Helmet_11610",
    "locale": {
      "CNzh": "黑色",
      "EUde": "Schwarz",
      "EUen": "Black",
      "EUes": "Negro",
      "EUfr": "Noir",
      "EUit": "Nero",
      "EUnl": "Zwart",
      "EUru": "Черный",
      "JPja": "ブラック",
      "KRko": "블랙",
      "TWzh": "黑色",
      "USen": "Black",
      "USes": "Negro",
      "USfr": "Noir"
    }
  },
  {
    "label": "698_Helmet_05374",
    "locale": {
      "CNzh": "黑色",
      "EUde": "Schwarz",
      "EUen": "Black",
      "EUes": "Negro",
      "EUfr": "Noir",
      "EUit": "Nero",
      "EUnl": "Zwart",
      "EUru": "Черный",
      "JPja": "ブラック",
      "KRko": "블랙",
      "TWzh": "黑色",
      "USen": "Black",
      "USes": "Negro",
      "USfr": "Noir"
    }
  },
  {
    "label": "698_Helmet_11617",
    "locale": {
      "CNzh": "火红色",
      "EUde": "Feurig",
      "EUen": "Flame orange",
      "EUes": "Rojo",
      "EUfr": "Flamme",
      "EUit": "Arancione fiamma",
      "EUnl": "Vlammend oranje",
      "EUru": "Огненно-красный",
      "JPja": "ファイアーカラー",
      "KRko": "파이어 컬러",
      "TWzh": "火紅色",
      "USen": "Flame orange",
      "USes": "Rojo",
      "USfr": "Flamme"
    }
  },
  {
    "label": "698_Helmet_11618",
    "locale": {
      "CNzh": "棕色",
      "EUde": "Braun",
      "EUen": "Brown",
      "EUes": "Marrón",
      "EUfr": "Brun",
      "EUit": "Marrone",
      "EUnl": "Bruin",
      "EUru": "Коричневый",
      "JPja": "ブラウン",
      "KRko": "브라운",
      "TWzh": "棕色",
      "USen": "Brown",
      "USes": "Marrón",
      "USfr": "Brun"
    }
  },
  {
    "label": "698_Helmet_11619",
    "locale": {
      "CNzh": "莱姆黄",
      "EUde": "Gelbgrün",
      "EUen": "Lime yellow",
      "EUes": "Verde lima",
      "EUfr": "Citron vert",
      "EUit": "Giallo limetta",
      "EUnl": "Limoengeel",
      "EUru": "Лимонно-желтый",
      "JPja": "ライムイエロー",
      "KRko": "라임 옐로",
      "TWzh": "萊姆黃",
      "USen": "Lime yellow",
      "USes": "Verde claro",
      "USfr": "Lime"
    }
  },
  {
    "label": "698_Helmet_11620",
    "locale": {
      "CNzh": "卡其色",
      "EUde": "Avocado",
      "EUen": "Avocado",
      "EUes": "Verde bosque",
      "EUfr": "Vert kaki",
      "EUit": "Avocado",
      "EUnl": "Avocadogroen",
      "EUru": "Защитный",
      "JPja": "カーキ",
      "KRko": "카키",
      "TWzh": "卡其色",
      "USen": "Avocado",
      "USes": "Verde musgo",
      "USfr": "Vert kaki"
    }
  },
  {
    "label": "699_Helmet_05381",
    "locale": {
      "CNzh": "红色",
      "EUde": "Rot",
      "EUen": "Red",
      "EUes": "Rojo",
      "EUfr": "Rouge",
      "EUit": "Rosso",
      "EUnl": "Rood",
      "EUru": "Красный",
      "JPja": "レッド",
      "KRko": "레드",
      "TWzh": "紅色",
      "USen": "Red",
      "USes": "Rojo",
      "USfr": "Rouge"
    }
  },
  {
    "label": "702_Helmet_05386",
    "locale": {
      "CNzh": "红色",
      "EUde": "Rot",
      "EUen": "Red",
      "EUes": "Rojo",
      "EUfr": "Rouge",
      "EUit": "Rosso",
      "EUnl": "Rood",
      "EUru": "Красный",
      "JPja": "赤",
      "KRko": "빨간색",
      "TWzh": "紅色",
      "USen": "Red",
      "USes": "Rojo",
      "USfr": "Rouge"
    }
  },
  {
    "label": "702_Helmet_11877",
    "locale": {
      "CNzh": "黑色",
      "EUde": "Schwarz",
      "EUen": "Black",
      "EUes": "Negro",
      "EUfr": "Noir",
      "EUit": "Nero",
      "EUnl": "Zwart",
      "EUru": "Черный",
      "JPja": "黒",
      "KRko": "검은색",
      "TWzh": "黑色",
      "USen": "Black",
      "USes": "Negro",
      "USfr": "Noir"
    }
  },
  {
    "label": "702_Helmet_11878",
    "locale": {
      "CNzh": "蓝色",
      "EUde": "Blau",
      "EUen": "Blue",
      "EUes": "Azul",
      "EUfr": "Bleu",
      "EUit": "Blu",
      "EUnl": "Blauw",
      "EUru": "Синий",
      "JPja": "青",
      "KRko": "파란색",
      "TWzh": "藍色",
      "USen": "Blue",
      "USes": "Azul",
      "USfr": "Bleu"
    }
  },
  {
    "label": "702_Helmet_11879",
    "locale": {
      "CNzh": "白色",
      "EUde": "Weiß",
      "EUen": "White",
      "EUes": "Blanco",
      "EUfr": "Blanc",
      "EUit": "Bianco",
      "EUnl": "Wit",
      "EUru": "Белый",
      "JPja": "白",
      "KRko": "하얀색",
      "TWzh": "白色",
      "USen": "White",
      "USes": "Blanco",
      "USfr": "Blanc"
    }
  },
  {
    "label": "702_Helmet_11880",
    "locale": {
      "CNzh": "金黄色",
      "EUde": "Goldgelb",
      "EUen": "Golden yellow",
      "EUes": "Amarillo dorado",
      "EUfr": "Jaune orangé",
      "EUit": "Giallo oro",
      "EUnl": "Goudgeel",
      "EUru": "Золотисто-желтый",
      "JPja": "山吹色",
      "KRko": "황금색",
      "TWzh": "金黃色",
      "USen": "Golden yellow",
      "USes": "Amarillo dorado",
      "USfr": "Jaune orangé"
    }
  },
  {
    "label": "704_Helmet_05365",
    "locale": {
      "CNzh": "白色",
      "EUde": "Weiß",
      "EUen": "White",
      "EUes": "Blanco",
      "EUfr": "Blanc",
      "EUit": "Bianco",
      "EUnl": "Wit",
      "EUru": "Белый",
      "JPja": "ホワイト",
      "KRko": "화이트",
      "TWzh": "白色",
      "USen": "White",
      "USes": "Blanco",
      "USfr": "Blanc"
    }
  },
  {
    "label": "706_Helmet_05362",
    "locale": {
      "CNzh": "棕色",
      "EUde": "Braun",
      "EUen": "Brown",
      "EUes": "Marrón",
      "EUfr": "Brun",
      "EUit": "Marrone",
      "EUnl": "Bruin",
      "EUru": "Коричневый",
      "JPja": "ブラウン",
      "KRko": "브라운",
      "TWzh": "棕色",
      "USen": "Brown",
      "USes": "Marrón",
      "USfr": "Brun"
    }
  },
  {
    "label": "706_Helmet_11613",
    "locale": {
      "CNzh": "黑色",
      "EUde": "Schwarz",
      "EUen": "Black",
      "EUes": "Negro",
      "EUfr": "Noir",
      "EUit": "Nero",
      "EUnl": "Zwart",
      "EUru": "Черный",
      "JPja": "ブラック",
      "KRko": "블랙",
      "TWzh": "黑色",
      "USen": "Black",
      "USes": "Negro",
      "USfr": "Noir"
    }
  },
  {
    "label": "706_Helmet_11614",
    "locale": {
      "CNzh": "卡其色",
      "EUde": "Avocado",
      "EUen": "Avocado",
      "EUes": "Verde bosque",
      "EUfr": "Vert kaki",
      "EUit": "Avocado",
      "EUnl": "Avocadogroen",
      "EUru": "Защитный",
      "JPja": "カーキ",
      "KRko": "카키",
      "TWzh": "卡其色",
      "USen": "Avocado",
      "USes": "Verde musgo",
      "USfr": "Vert kaki"
    }
  },
  {
    "label": "707_Helmet_05363",
    "locale": {
      "CNzh": "嫩薄荷色",
      "EUde": "Minzgrün",
      "EUen": "Baby mint",
      "EUes": "Turquesa pastel",
      "EUfr": "Turquoise pastel",
      "EUit": "Menta pastello",
      "EUnl": "Mintgroen",
      "EUru": "Нежно-мятный",
      "JPja": "ベビーミント",
      "KRko": "베이비 민트",
      "TWzh": "粉嫩薄荷綠",
      "USen": "Baby mint",
      "USes": "Turquesa pastel",
      "USfr": "Turquoise pastel"
    }
  },
  {
    "label": "707_Helmet_11853",
    "locale": {
      "CNzh": "嫩紫色",
      "EUde": "Lila",
      "EUen": "Baby purple",
      "EUes": "Morado pastel",
      "EUfr": "Violet pastel",
      "EUit": "Viola pastello",
      "EUnl": "Paars",
      "EUru": "Нежно-фиолетовый",
      "JPja": "ベビーパープル",
      "KRko": "베이비 퍼플",
      "TWzh": "粉嫩紫色",
      "USen": "Baby purple",
      "USes": "Morado pastel",
      "USfr": "Mauve pastel"
    }
  },
  {
    "label": "707_Helmet_11854",
    "locale": {
      "CNzh": "嫩黄色",
      "EUde": "Gelb",
      "EUen": "Baby yellow",
      "EUes": "Amarillo pastel",
      "EUfr": "Jaune pastel",
      "EUit": "Giallo pastello",
      "EUnl": "Geel",
      "EUru": "Нежно-желтый",
      "JPja": "ベビーイエロー",
      "KRko": "베이비 옐로",
      "TWzh": "粉嫩黃色",
      "USen": "Baby yellow",
      "USes": "Amarillo pastel",
      "USfr": "Jaune pastel"
    }
  },
  {
    "label": "707_Helmet_11855",
    "locale": {
      "CNzh": "嫩绿色",
      "EUde": "Grün",
      "EUen": "Baby green",
      "EUes": "Verde pastel",
      "EUfr": "Vert pastel",
      "EUit": "Verde pastello",
      "EUnl": "Groen",
      "EUru": "Нежно-зеленый",
      "JPja": "ベビーグリーン",
      "KRko": "베이비 그린",
      "TWzh": "粉嫩綠色",
      "USen": "Baby green",
      "USes": "Verde pastel",
      "USfr": "Vert pastel"
    }
  },
  {
    "label": "707_Helmet_11856",
    "locale": {
      "CNzh": "嫩粉红色",
      "EUde": "Rosa",
      "EUen": "Baby pink",
      "EUes": "Rosa pastel",
      "EUfr": "Rose pastel",
      "EUit": "Rosa pastello",
      "EUnl": "Roze",
      "EUru": "Нежно-розовый",
      "JPja": "ベビーピンク",
      "KRko": "베이비 핑크",
      "TWzh": "粉嫩粉紅色",
      "USen": "Baby pink",
      "USes": "Rosa pastel",
      "USfr": "Rose pastel"
    }
  },
  {
    "label": "707_Helmet_11857",
    "locale": {
      "CNzh": "嫩灰色",
      "EUde": "Grau",
      "EUen": "Baby gray",
      "EUes": "Gris pastel",
      "EUfr": "Gris pastel",
      "EUit": "Grigio pastello",
      "EUnl": "Grijs",
      "EUru": "Нежно-серый",
      "JPja": "ベビーグレー",
      "KRko": "베이비 그레이",
      "TWzh": "粉嫩灰色",
      "USen": "Baby gray",
      "USes": "Gris pastel",
      "USfr": "Gris pastel"
    }
  },
  {
    "label": "707_Helmet_11858",
    "locale": {
      "CNzh": "嫩蓝色",
      "EUde": "Blau",
      "EUen": "Baby blue",
      "EUes": "Azul pastel",
      "EUfr": "Bleu pastel",
      "EUit": "Blu pastello",
      "EUnl": "Blauw",
      "EUru": "Нежно-синий",
      "JPja": "ベビーブルー",
      "KRko": "베이비 블루",
      "TWzh": "粉嫩藍色",
      "USen": "Baby blue",
      "USes": "Azul pastel",
      "USfr": "Bleu pastel"
    }
  },
  {
    "label": "707_Helmet_11859",
    "locale": {
      "CNzh": "嫩橘色",
      "EUde": "Orange",
      "EUen": "Baby orange",
      "EUes": "Naranja pastel",
      "EUfr": "Orange pastel",
      "EUit": "Arancione pastello",
      "EUnl": "Oranje",
      "EUru": "Нежно-оранжевый",
      "JPja": "ベビーオレンジ",
      "KRko": "베이비 오렌지",
      "TWzh": "粉嫩橘色",
      "USen": "Baby orange",
      "USes": "Naranja pastel",
      "USfr": "Orange pastel"
    }
  },
  {
    "label": "708_Helmet_05364",
    "locale": {
      "CNzh": "蓝紫色",
      "EUde": "Dunkelblau",
      "EUen": "Dark blue",
      "EUes": "Azul oscuro",
      "EUfr": "Bleu foncé",
      "EUit": "Blu scuro",
      "EUnl": "Donkerblauw",
      "EUru": "Темно-синий",
      "JPja": "紺",
      "KRko": "남색",
      "TWzh": "紫藍色",
      "USen": "Dark blue",
      "USes": "Azul oscuro",
      "USfr": "Bleu foncé"
    }
  },
  {
    "label": "708_Helmet_11870",
    "locale": {
      "CNzh": "灰色",
      "EUde": "Grau",
      "EUen": "Gray",
      "EUes": "Gris",
      "EUfr": "Gris",
      "EUit": "Grigio",
      "EUnl": "Grijs",
      "EUru": "Серый",
      "JPja": "灰色",
      "KRko": "회색",
      "TWzh": "灰色",
      "USen": "Gray",
      "USes": "Gris",
      "USfr": "Gris"
    }
  },
  {
    "label": "708_Helmet_11871",
    "locale": {
      "CNzh": "红色",
      "EUde": "Rot",
      "EUen": "Red",
      "EUes": "Rojo",
      "EUfr": "Rouge",
      "EUit": "Rosso",
      "EUnl": "Rood",
      "EUru": "Красный",
      "JPja": "赤",
      "KRko": "빨간색",
      "TWzh": "紅色",
      "USen": "Red",
      "USes": "Rojo",
      "USfr": "Rouge"
    }
  },
  {
    "label": "708_Helmet_11872",
    "locale": {
      "CNzh": "紫色",
      "EUde": "Lila",
      "EUen": "Purple",
      "EUes": "Púrpura",
      "EUfr": "Violet",
      "EUit": "Viola",
      "EUnl": "Paars",
      "EUru": "Фиолетовый",
      "JPja": "紫",
      "KRko": "보라색",
      "TWzh": "紫色",
      "USen": "Purple",
      "USes": "Morado",
      "USfr": "Mauve"
    }
  },
  {
    "label": "708_Helmet_11873",
    "locale": {
      "CNzh": "水蓝色",
      "EUde": "Hellblau",
      "EUen": "Aqua",
      "EUes": "Celeste",
      "EUfr": "Bleu clair",
      "EUit": "Blu chiaro",
      "EUnl": "Lichtblauw",
      "EUru": "Аквамариновый",
      "JPja": "水色",
      "KRko": "하늘색",
      "TWzh": "水藍色",
      "USen": "Aqua",
      "USes": "Turquesa",
      "USfr": "Bleu pâle"
    }
  },
  {
    "label": "708_Helmet_11874",
    "locale": {
      "CNzh": "绿色",
      "EUde": "Grün",
      "EUen": "Green",
      "EUes": "Verde",
      "EUfr": "Vert",
      "EUit": "Verde",
      "EUnl": "Groen",
      "EUru": "Зеленый",
      "JPja": "緑",
      "KRko": "초록색",
      "TWzh": "綠色",
      "USen": "Green",
      "USes": "Verde",
      "USfr": "Vert"
    }
  },
  {
    "label": "708_Helmet_11875",
    "locale": {
      "CNzh": "黄色",
      "EUde": "Gelb",
      "EUen": "Yellow",
      "EUes": "Amarillo",
      "EUfr": "Jaune",
      "EUit": "Giallo",
      "EUnl": "Geel",
      "EUru": "Желтый",
      "JPja": "黄色",
      "KRko": "노란색",
      "TWzh": "黃色",
      "USen": "Yellow",
      "USes": "Amarillo",
      "USfr": "Jaune"
    }
  },
  {
    "label": "708_Helmet_11876",
    "locale": {
      "CNzh": "橘色",
      "EUde": "Orange",
      "EUen": "Orange",
      "EUes": "Naranja",
      "EUfr": "Orange",
      "EUit": "Arancione",
      "EUnl": "Oranje",
      "EUru": "Оранжевый",
      "JPja": "橙",
      "KRko": "귤색",
      "TWzh": "橘色",
      "USen": "Orange",
      "USes": "Naranja",
      "USfr": "Orange"
    }
  },
  {
    "label": "709_Helmet_05366",
    "locale": {
      "CNzh": "红色",
      "EUde": "Rot",
      "EUen": "Red",
      "EUes": "Rojo",
      "EUfr": "Rouge",
      "EUit": "Rosso",
      "EUnl": "Rood",
      "EUru": "Красный",
      "JPja": "レッド",
      "KRko": "레드",
      "TWzh": "紅色",
      "USen": "Red",
      "USes": "Rojo",
      "USfr": "Rouge"
    }
  },
  {
    "label": "709_Helmet_11596",
    "locale": {
      "CNzh": "海军蓝",
      "EUde": "Marineblau",
      "EUen": "Navy blue",
      "EUes": "Azul marino",
      "EUfr": "Bleu marine",
      "EUit": "Blu marino",
      "EUnl": "Marineblauw",
      "EUru": "Черно-синий",
      "JPja": "ネイビー",
      "KRko": "네이비",
      "TWzh": "海軍藍",
      "USen": "Navy blue",
      "USes": "Azul marino",
      "USfr": "Bleu marine"
    }
  },
  {
    "label": "709_Helmet_11597",
    "locale": {
      "CNzh": "绿色",
      "EUde": "Grün",
      "EUen": "Green",
      "EUes": "Verde",
      "EUfr": "Vert",
      "EUit": "Verde",
      "EUnl": "Groen",
      "EUru": "Зеленый",
      "JPja": "グリーン",
      "KRko": "그린",
      "TWzh": "綠色",
      "USen": "Green",
      "USes": "Verde",
      "USfr": "Vert"
    }
  },
  {
    "label": "709_Helmet_11598",
    "locale": {
      "CNzh": "橘色",
      "EUde": "Orange",
      "EUen": "Orange",
      "EUes": "Naranja",
      "EUfr": "Orange",
      "EUit": "Arancio",
      "EUnl": "Oranje",
      "EUru": "Оранжевый",
      "JPja": "オレンジ",
      "KRko": "오렌지",
      "TWzh": "橘色",
      "USen": "Orange",
      "USes": "Naranja",
      "USfr": "Orange"
    }
  },
  {
    "label": "709_Helmet_11599",
    "locale": {
      "CNzh": "黄色",
      "EUde": "Gelb",
      "EUen": "Yellow",
      "EUes": "Amarillo",
      "EUfr": "Jaune",
      "EUit": "Giallo",
      "EUnl": "Geel",
      "EUru": "Желтый",
      "JPja": "イエロー",
      "KRko": "옐로",
      "TWzh": "黃色",
      "USen": "Yellow",
      "USes": "Amarillo",
      "USfr": "Jaune"
    }
  },
  {
    "label": "711_Helmet_05368",
    "locale": {
      "CNzh": "红色",
      "EUde": "Rot",
      "EUen": "Red",
      "EUes": "Rojo",
      "EUfr": "Rouge",
      "EUit": "Rosso",
      "EUnl": "Rood",
      "EUru": "Красный",
      "JPja": "レッド",
      "KRko": "레드",
      "TWzh": "紅色",
      "USen": "Red",
      "USes": "Rojo",
      "USfr": "Rouge"
    }
  },
  {
    "label": "711_Helmet_11829",
    "locale": {
      "CNzh": "蓝色",
      "EUde": "Blau",
      "EUen": "Blue",
      "EUes": "Azul",
      "EUfr": "Bleu",
      "EUit": "Blu",
      "EUnl": "Blauw",
      "EUru": "Синий",
      "JPja": "ブルー",
      "KRko": "블루",
      "TWzh": "藍色",
      "USen": "Blue",
      "USes": "Azul",
      "USfr": "Bleu"
    }
  },
  {
    "label": "711_Helmet_11830",
    "locale": {
      "CNzh": "绿色",
      "EUde": "Grün",
      "EUen": "Green",
      "EUes": "Verde",
      "EUfr": "Vert",
      "EUit": "Verde",
      "EUnl": "Groen",
      "EUru": "Зеленый",
      "JPja": "グリーン",
      "KRko": "그린",
      "TWzh": "綠色",
      "USen": "Green",
      "USes": "Verde",
      "USfr": "Vert"
    }
  },
  {
    "label": "711_Helmet_11831",
    "locale": {
      "CNzh": "粉红",
      "EUde": "Rosa",
      "EUen": "Pink",
      "EUes": "Rosa",
      "EUfr": "Rose",
      "EUit": "Rosa",
      "EUnl": "Roze",
      "EUru": "Розовый",
      "JPja": "ピンク",
      "KRko": "핑크",
      "TWzh": "粉紅色",
      "USen": "Pink",
      "USes": "Rosa",
      "USfr": "Rose"
    }
  },
  {
    "label": "711_Helmet_11832",
    "locale": {
      "CNzh": "黑色",
      "EUde": "Schwarz",
      "EUen": "Black",
      "EUes": "Negro",
      "EUfr": "Noir",
      "EUit": "Nero",
      "EUnl": "Zwart",
      "EUru": "Черный",
      "JPja": "ブラック",
      "KRko": "블랙",
      "TWzh": "黑色",
      "USen": "Black",
      "USes": "Negro",
      "USfr": "Noir"
    }
  },
  {
    "label": "711_Helmet_11833",
    "locale": {
      "CNzh": "黄色",
      "EUde": "Gelb",
      "EUen": "Yellow",
      "EUes": "Amarillo",
      "EUfr": "Jaune",
      "EUit": "Giallo",
      "EUnl": "Geel",
      "EUru": "Желтый",
      "JPja": "イエロー",
      "KRko": "옐로",
      "TWzh": "黃色",
      "USen": "Yellow",
      "USes": "Amarillo",
      "USfr": "Jaune"
    }
  },
  {
    "label": "712_Helmet_05369",
    "locale": {
      "CNzh": "红色",
      "EUde": "Rot",
      "EUen": "Red",
      "EUes": "Rojo",
      "EUfr": "Rouge",
      "EUit": "Rosso",
      "EUnl": "Rood",
      "EUru": "Красный",
      "JPja": "レッド",
      "KRko": "레드",
      "TWzh": "紅色",
      "USen": "Red",
      "USes": "Rojo",
      "USfr": "Rouge"
    }
  },
  {
    "label": "713_Helmet_05370",
    "locale": {
      "CNzh": "米色",
      "EUde": "Beige",
      "EUen": "Beige",
      "EUes": "Beis",
      "EUfr": "Beige",
      "EUit": "Beige",
      "EUnl": "Beige",
      "EUru": "Бежевый",
      "JPja": "ベージュ",
      "KRko": "베이지",
      "TWzh": "米色",
      "USen": "Beige",
      "USes": "Beige",
      "USfr": "Beige"
    }
  },
  {
    "label": "713_Helmet_10944",
    "locale": {
      "CNzh": "蓝色",
      "EUde": "Blau",
      "EUen": "Blue",
      "EUes": "Azul",
      "EUfr": "Bleu",
      "EUit": "Blu",
      "EUnl": "Blauw",
      "EUru": "Синий",
      "JPja": "ブルー",
      "KRko": "블루",
      "TWzh": "藍色",
      "USen": "Blue",
      "USes": "Azul",
      "USfr": "Bleu"
    }
  },
  {
    "label": "713_Helmet_10945",
    "locale": {
      "CNzh": "粉红",
      "EUde": "Rosa",
      "EUen": "Pink",
      "EUes": "Rosa",
      "EUfr": "Rose",
      "EUit": "Rosa",
      "EUnl": "Roze",
      "EUru": "Розовый",
      "JPja": "ピンク",
      "KRko": "핑크",
      "TWzh": "粉紅色",
      "USen": "Pink",
      "USes": "Rosa",
      "USfr": "Rose"
    }
  },
  {
    "label": "713_Helmet_10946",
    "locale": {
      "CNzh": "绿色",
      "EUde": "Grün",
      "EUen": "Green",
      "EUes": "Verde",
      "EUfr": "Vert",
      "EUit": "Verde",
      "EUnl": "Groen",
      "EUru": "Зеленый",
      "JPja": "グリーン",
      "KRko": "그린",
      "TWzh": "綠色",
      "USen": "Green",
      "USes": "Verde",
      "USfr": "Vert"
    }
  },
  {
    "label": "713_Helmet_10947",
    "locale": {
      "CNzh": "深红色",
      "EUde": "Rouge",
      "EUen": "Ruby red",
      "EUes": "Carmesí",
      "EUfr": "Framboise",
      "EUit": "Bordò",
      "EUnl": "Robijnrood",
      "EUru": "Рубиновый",
      "JPja": "ルージュ",
      "KRko": "루비색",
      "TWzh": "胭脂紅",
      "USen": "Ruby red",
      "USes": "Carmesí",
      "USfr": "Framboise"
    }
  },
  {
    "label": "713_Helmet_10948",
    "locale": {
      "CNzh": "青苔绿",
      "EUde": "Moosgrün",
      "EUen": "Moss green",
      "EUes": "Verde musgo",
      "EUfr": "Vert mousse",
      "EUit": "Verde muschio",
      "EUnl": "Mosgroen",
      "EUru": "Болотный",
      "JPja": "モスグリーン",
      "KRko": "모스 그린",
      "TWzh": "青苔綠",
      "USen": "Moss green",
      "USes": "Verde musgo",
      "USfr": "Vert mousse"
    }
  },
  {
    "label": "713_Helmet_10949",
    "locale": {
      "CNzh": "灰色",
      "EUde": "Grau",
      "EUen": "Gray",
      "EUes": "Gris",
      "EUfr": "Gris",
      "EUit": "Grigio",
      "EUnl": "Grijs",
      "EUru": "Серый",
      "JPja": "グレー",
      "KRko": "그레이",
      "TWzh": "灰色",
      "USen": "Gray",
      "USes": "Gris",
      "USfr": "Gris"
    }
  },
  {
    "label": "717_Helmet_05394",
    "locale": {
      "CNzh": "白色",
      "EUde": "Weiß",
      "EUen": "White",
      "EUes": "Blanco",
      "EUfr": "Blanc",
      "EUit": "Bianco",
      "EUnl": "Wit",
      "EUru": "Белый",
      "JPja": "ホワイト",
      "KRko": "화이트",
      "TWzh": "白色",
      "USen": "White",
      "USes": "Blanco",
      "USfr": "Blanc"
    }
  },
  {
    "label": "718_Helmet_05395",
    "locale": {
      "CNzh": "黑色",
      "EUde": "Schwarz",
      "EUen": "Black",
      "EUes": "Negro",
      "EUfr": "Noir",
      "EUit": "Nero",
      "EUnl": "Zwart",
      "EUru": "Черный",
      "JPja": "ブラック",
      "KRko": "블랙",
      "TWzh": "黑色",
      "USen": "Black",
      "USes": "Negro",
      "USfr": "Noir"
    }
  },
  {
    "label": "718_Helmet_10227",
    "locale": {
      "CNzh": "白色",
      "EUde": "Weiß",
      "EUen": "White",
      "EUes": "Blanco",
      "EUfr": "Blanc",
      "EUit": "Bianco",
      "EUnl": "Wit",
      "EUru": "Белый",
      "JPja": "ホワイト",
      "KRko": "화이트",
      "TWzh": "白色",
      "USen": "White",
      "USes": "Blanco",
      "USfr": "Blanc"
    }
  },
  {
    "label": "718_Helmet_10228",
    "locale": {
      "CNzh": "橄榄绿",
      "EUde": "Olivgrün",
      "EUen": "Olive",
      "EUes": "Verde oliva",
      "EUfr": "Vert olive",
      "EUit": "Verde oliva",
      "EUnl": "Olijfgroen",
      "EUru": "Оливковый",
      "JPja": "オリーブ",
      "KRko": "올리브",
      "TWzh": "橄欖綠",
      "USen": "Olive",
      "USes": "Verde oliva",
      "USfr": "Vert olive"
    }
  },
  {
    "label": "718_Helmet_10229",
    "locale": {
      "CNzh": "黄色",
      "EUde": "Gelb",
      "EUen": "Yellow",
      "EUes": "Amarillo",
      "EUfr": "Jaune",
      "EUit": "Giallo",
      "EUnl": "Geel",
      "EUru": "Желтый",
      "JPja": "イエロー",
      "KRko": "옐로",
      "TWzh": "黃色",
      "USen": "Yellow",
      "USes": "Amarillo",
      "USfr": "Jaune"
    }
  },
  {
    "label": "738_Helmet_05423",
    "locale": {
      "CNzh": "粉红",
      "EUde": "Rosa",
      "EUen": "Pink",
      "EUes": "Rosa",
      "EUfr": "Rose",
      "EUit": "Rosa",
      "EUnl": "Roze",
      "EUru": "Розовый",
      "JPja": "ピンク",
      "KRko": "핑크",
      "TWzh": "粉紅色",
      "USen": "Pink",
      "USes": "Rosa",
      "USfr": "Rose"
    }
  },
  {
    "label": "738_Helmet_11800",
    "locale": {
      "CNzh": "蓝色",
      "EUde": "Blau",
      "EUen": "Blue",
      "EUes": "Azul",
      "EUfr": "Bleu",
      "EUit": "Blu",
      "EUnl": "Blauw",
      "EUru": "Синий",
      "JPja": "ブルー",
      "KRko": "블루",
      "TWzh": "藍色",
      "USen": "Blue",
      "USes": "Azul",
      "USfr": "Bleu"
    }
  },
  {
    "label": "738_Helmet_11801",
    "locale": {
      "CNzh": "绿色",
      "EUde": "Grün",
      "EUen": "Green",
      "EUes": "Verde",
      "EUfr": "Vert",
      "EUit": "Verde",
      "EUnl": "Groen",
      "EUru": "Зеленый",
      "JPja": "グリーン",
      "KRko": "그린",
      "TWzh": "綠色",
      "USen": "Green",
      "USes": "Verde",
      "USfr": "Vert"
    }
  },
  {
    "label": "738_Helmet_11802",
    "locale": {
      "CNzh": "红色",
      "EUde": "Rot",
      "EUen": "Red",
      "EUes": "Rojo",
      "EUfr": "Rouge",
      "EUit": "Rosso",
      "EUnl": "Rood",
      "EUru": "Красный",
      "JPja": "レッド",
      "KRko": "레드",
      "TWzh": "紅色",
      "USen": "Red",
      "USes": "Rojo",
      "USfr": "Rouge"
    }
  },
  {
    "label": "738_Helmet_11803",
    "locale": {
      "CNzh": "黄色",
      "EUde": "Gelb",
      "EUen": "Yellow",
      "EUes": "Amarillo",
      "EUfr": "Jaune",
      "EUit": "Giallo",
      "EUnl": "Geel",
      "EUru": "Желтый",
      "JPja": "イエロー",
      "KRko": "옐로",
      "TWzh": "黃色",
      "USen": "Yellow",
      "USes": "Amarillo",
      "USfr": "Jaune"
    }
  },
  {
    "label": "738_Helmet_11804",
    "locale": {
      "CNzh": "黑色",
      "EUde": "Schwarz",
      "EUen": "Black",
      "EUes": "Negro",
      "EUfr": "Noir",
      "EUit": "Nero",
      "EUnl": "Zwart",
      "EUru": "Черный",
      "JPja": "ブラック",
      "KRko": "블랙",
      "TWzh": "黑色",
      "USen": "Black",
      "USes": "Negro",
      "USfr": "Noir"
    }
  },
  {
    "label": "738_Helmet_11805",
    "locale": {
      "CNzh": "银色",
      "EUde": "Silber",
      "EUen": "Silver",
      "EUes": "Plateado",
      "EUfr": "Argent",
      "EUit": "Argentato",
      "EUnl": "Zilver",
      "EUru": "Серебро",
      "JPja": "シルバー",
      "KRko": "실버",
      "TWzh": "銀色",
      "USen": "Silver",
      "USes": "Plateado",
      "USfr": "Argent"
    }
  },
  {
    "label": "738_Helmet_11806",
    "locale": {
      "CNzh": "白色",
      "EUde": "Weiß",
      "EUen": "White",
      "EUes": "Blanco",
      "EUfr": "Blanc",
      "EUit": "Bianco",
      "EUnl": "Wit",
      "EUru": "Белый",
      "JPja": "ホワイト",
      "KRko": "화이트",
      "TWzh": "白色",
      "USen": "White",
      "USes": "Blanco",
      "USfr": "Blanc"
    }
  },
  {
    "label": "741_Helmet_05434",
    "locale": {
      "CNzh": "紫色",
      "EUde": "Lila",
      "EUen": "Purple",
      "EUes": "Púrpura",
      "EUfr": "Violet",
      "EUit": "Viola",
      "EUnl": "Paars",
      "EUru": "Фиолетовый",
      "JPja": "パープル",
      "KRko": "퍼플",
      "TWzh": "紫色",
      "USen": "Purple",
      "USes": "Morado",
      "USfr": "Mauve"
    }
  },
  {
    "label": "741_Helmet_11863",
    "locale": {
      "CNzh": "蓝色",
      "EUde": "Blau",
      "EUen": "Blue",
      "EUes": "Azul",
      "EUfr": "Bleu",
      "EUit": "Blu",
      "EUnl": "Blauw",
      "EUru": "Синий",
      "JPja": "ブルー",
      "KRko": "블루",
      "TWzh": "藍色",
      "USen": "Blue",
      "USes": "Azul",
      "USfr": "Bleu"
    }
  },
  {
    "label": "741_Helmet_11864",
    "locale": {
      "CNzh": "粉红",
      "EUde": "Rosa",
      "EUen": "Pink",
      "EUes": "Rosa",
      "EUfr": "Rose",
      "EUit": "Rosa",
      "EUnl": "Roze",
      "EUru": "Розовый",
      "JPja": "ピンク",
      "KRko": "핑크",
      "TWzh": "粉紅色",
      "USen": "Pink",
      "USes": "Rosa",
      "USfr": "Rose"
    }
  },
  {
    "label": "741_Helmet_11865",
    "locale": {
      "CNzh": "黄色",
      "EUde": "Gelb",
      "EUen": "Yellow",
      "EUes": "Amarillo",
      "EUfr": "Jaune",
      "EUit": "Giallo",
      "EUnl": "Geel",
      "EUru": "Желтый",
      "JPja": "イエロー",
      "KRko": "옐로",
      "TWzh": "黃色",
      "USen": "Yellow",
      "USes": "Amarillo",
      "USfr": "Jaune"
    }
  },
  {
    "label": "742_Helmet_05435",
    "locale": {
      "CNzh": "粉红",
      "EUde": "Rosa",
      "EUen": "Pink",
      "EUes": "Rosa",
      "EUfr": "Rose",
      "EUit": "Rosa",
      "EUnl": "Roze",
      "EUru": "Розовый",
      "JPja": "ピンク",
      "KRko": "핑크",
      "TWzh": "粉紅色",
      "USen": "Pink",
      "USes": "Rosa",
      "USfr": "Rose"
    }
  },
  {
    "label": "742_Helmet_10230",
    "locale": {
      "CNzh": "绿色",
      "EUde": "Grün",
      "EUen": "Green",
      "EUes": "Verde",
      "EUfr": "Vert",
      "EUit": "Verde",
      "EUnl": "Groen",
      "EUru": "Зеленый",
      "JPja": "グリーン",
      "KRko": "그린",
      "TWzh": "綠色",
      "USen": "Green",
      "USes": "Verde",
      "USfr": "Vert"
    }
  },
  {
    "label": "742_Helmet_10231",
    "locale": {
      "CNzh": "紫色",
      "EUde": "Lila",
      "EUen": "Purple",
      "EUes": "Púrpura",
      "EUfr": "Violet",
      "EUit": "Viola",
      "EUnl": "Paars",
      "EUru": "Фиолетовый",
      "JPja": "パープル",
      "KRko": "퍼플",
      "TWzh": "紫色",
      "USen": "Purple",
      "USes": "Morado",
      "USfr": "Mauve"
    }
  },
  {
    "label": "742_Helmet_10232",
    "locale": {
      "CNzh": "蓝色",
      "EUde": "Blau",
      "EUen": "Blue",
      "EUes": "Azul",
      "EUfr": "Bleu",
      "EUit": "Blu",
      "EUnl": "Blauw",
      "EUru": "Синий",
      "JPja": "ブルー",
      "KRko": "블루",
      "TWzh": "藍色",
      "USen": "Blue",
      "USes": "Azul",
      "USfr": "Bleu"
    }
  },
  {
    "label": "742_Helmet_10233",
    "locale": {
      "CNzh": "红色",
      "EUde": "Rot",
      "EUen": "Red",
      "EUes": "Rojo",
      "EUfr": "Rouge",
      "EUit": "Rosso",
      "EUnl": "Rood",
      "EUru": "Красный",
      "JPja": "レッド",
      "KRko": "레드",
      "TWzh": "紅色",
      "USen": "Red",
      "USes": "Rojo",
      "USfr": "Rouge"
    }
  },
  {
    "label": "742_Helmet_10234",
    "locale": {
      "CNzh": "浅蓝色",
      "EUde": "Hellblau",
      "EUen": "Light blue",
      "EUes": "Celeste",
      "EUfr": "Bleu clair",
      "EUit": "Blu chiaro",
      "EUnl": "Lichtblauw",
      "EUru": "Голубой",
      "JPja": "ライトブルー",
      "KRko": "라이트 블루",
      "TWzh": "淺藍色",
      "USen": "Light blue",
      "USes": "Celeste",
      "USfr": "Bleu pâle"
    }
  },
  {
    "label": "742_Helmet_10235",
    "locale": {
      "CNzh": "黑色",
      "EUde": "Schwarz",
      "EUen": "Black",
      "EUes": "Negro",
      "EUfr": "Noir",
      "EUit": "Nero",
      "EUnl": "Zwart",
      "EUru": "Черный",
      "JPja": "ブラック",
      "KRko": "블랙",
      "TWzh": "黑色",
      "USen": "Black",
      "USes": "Negro",
      "USfr": "Noir"
    }
  },
  {
    "label": "742_Helmet_10236",
    "locale": {
      "CNzh": "黄色",
      "EUde": "Gelb",
      "EUen": "Yellow",
      "EUes": "Amarillo",
      "EUfr": "Jaune",
      "EUit": "Giallo",
      "EUnl": "Geel",
      "EUru": "Желтый",
      "JPja": "イエロー",
      "KRko": "옐로",
      "TWzh": "黃色",
      "USen": "Yellow",
      "USes": "Amarillo",
      "USfr": "Jaune"
    }
  },
  {
    "label": "748_Helmet_05443",
    "locale": {
      "CNzh": "红色",
      "EUde": "Rot",
      "EUen": "Red",
      "EUes": "Rojo",
      "EUfr": "Rouge",
      "EUit": "Rosso",
      "EUnl": "Rood",
      "EUru": "Красный",
      "JPja": "レッド",
      "KRko": "레드",
      "TWzh": "紅色",
      "USen": "Red",
      "USes": "Rojo",
      "USfr": "Rouge"
    }
  },
  {
    "label": "748_Helmet_10237",
    "locale": {
      "CNzh": "白色",
      "EUde": "Weiß",
      "EUen": "White",
      "EUes": "Blanco",
      "EUfr": "Blanc",
      "EUit": "Bianco",
      "EUnl": "Wit",
      "EUru": "Белый",
      "JPja": "ホワイト",
      "KRko": "화이트",
      "TWzh": "白色",
      "USen": "White",
      "USes": "Blanco",
      "USfr": "Blanc"
    }
  },
  {
    "label": "748_Helmet_10238",
    "locale": {
      "CNzh": "黑色",
      "EUde": "Schwarz",
      "EUen": "Black",
      "EUes": "Negro",
      "EUfr": "Noir",
      "EUit": "Nero",
      "EUnl": "Zwart",
      "EUru": "Черный",
      "JPja": "ブラック",
      "KRko": "블랙",
      "TWzh": "黑色",
      "USen": "Black",
      "USes": "Negro",
      "USfr": "Noir"
    }
  },
  {
    "label": "748_Helmet_10239",
    "locale": {
      "CNzh": "蓝色",
      "EUde": "Blau",
      "EUen": "Blue",
      "EUes": "Azul",
      "EUfr": "Bleu",
      "EUit": "Blu",
      "EUnl": "Blauw",
      "EUru": "Синий",
      "JPja": "ブルー",
      "KRko": "블루",
      "TWzh": "藍色",
      "USen": "Blue",
      "USes": "Azul",
      "USfr": "Bleu"
    }
  },
  {
    "label": "748_Helmet_10240",
    "locale": {
      "CNzh": "粉红",
      "EUde": "Rosa",
      "EUen": "Pink",
      "EUes": "Rosa",
      "EUfr": "Rose",
      "EUit": "Rosa",
      "EUnl": "Roze",
      "EUru": "Розовый",
      "JPja": "ピンク",
      "KRko": "핑크",
      "TWzh": "粉紅色",
      "USen": "Pink",
      "USes": "Rosa",
      "USfr": "Rose"
    }
  },
  {
    "label": "748_Helmet_10241",
    "locale": {
      "CNzh": "绿色",
      "EUde": "Grün",
      "EUen": "Green",
      "EUes": "Verde",
      "EUfr": "Vert",
      "EUit": "Verde",
      "EUnl": "Groen",
      "EUru": "Зеленый",
      "JPja": "グリーン",
      "KRko": "그린",
      "TWzh": "綠色",
      "USen": "Green",
      "USes": "Verde",
      "USfr": "Vert"
    }
  },
  {
    "label": "748_Helmet_10242",
    "locale": {
      "CNzh": "紫色",
      "EUde": "Lila",
      "EUen": "Purple",
      "EUes": "Púrpura",
      "EUfr": "Violet",
      "EUit": "Viola",
      "EUnl": "Paars",
      "EUru": "Фиолетовый",
      "JPja": "パープル",
      "KRko": "퍼플",
      "TWzh": "紫色",
      "USen": "Purple",
      "USes": "Morado",
      "USfr": "Mauve"
    }
  },
  {
    "label": "748_Helmet_10243",
    "locale": {
      "CNzh": "浅蓝色",
      "EUde": "Hellblau",
      "EUen": "Light blue",
      "EUes": "Celeste",
      "EUfr": "Bleu clair",
      "EUit": "Blu chiaro",
      "EUnl": "Lichtblauw",
      "EUru": "Голубой",
      "JPja": "ライトブルー",
      "KRko": "라이트 블루",
      "TWzh": "淺藍色",
      "USen": "Light blue",
      "USes": "Celeste",
      "USfr": "Bleu pâle"
    }
  },
  {
    "label": "750_Helmet_05446",
    "locale": {
      "CNzh": "棕色",
      "EUde": "Braun",
      "EUen": "Brown",
      "EUes": "Marrón",
      "EUfr": "Brun",
      "EUit": "Marrone",
      "EUnl": "Bruin",
      "EUru": "Коричневый",
      "JPja": "ブラウン",
      "KRko": "브라운",
      "TWzh": "棕色",
      "USen": "Brown",
      "USes": "Marrón",
      "USfr": "Brun"
    }
  },
  {
    "label": "758_Helmet_05464",
    "locale": {
      "CNzh": "黑色",
      "EUde": "Schwarz",
      "EUen": "Black",
      "EUes": "Negro",
      "EUfr": "Noir",
      "EUit": "Nero",
      "EUnl": "Zwart",
      "EUru": "Черный",
      "JPja": "ブラック",
      "KRko": "블랙",
      "TWzh": "黑色",
      "USen": "Black",
      "USes": "Negro",
      "USfr": "Noir"
    }
  },
  {
    "label": "758_Helmet_11707",
    "locale": {
      "CNzh": "红色",
      "EUde": "Rot",
      "EUen": "Red",
      "EUes": "Rojo",
      "EUfr": "Rouge",
      "EUit": "Rosso",
      "EUnl": "Rood",
      "EUru": "Красный",
      "JPja": "レッド",
      "KRko": "레드",
      "TWzh": "紅色",
      "USen": "Red",
      "USes": "Rojo",
      "USfr": "Rouge"
    }
  },
  {
    "label": "759_Helmet_05465",
    "locale": {
      "CNzh": "白色",
      "EUde": "Weiß",
      "EUen": "White",
      "EUes": "Blanco",
      "EUfr": "Blanc",
      "EUit": "Bianco",
      "EUnl": "Wit",
      "EUru": "Белый",
      "JPja": "ホワイト",
      "KRko": "화이트",
      "TWzh": "白色",
      "USen": "White",
      "USes": "Blanco",
      "USfr": "Blanc"
    }
  },
  {
    "label": "759_Helmet_11708",
    "locale": {
      "CNzh": "粉红",
      "EUde": "Rosa",
      "EUen": "Pink",
      "EUes": "Rosa",
      "EUfr": "Rose",
      "EUit": "Rosa",
      "EUnl": "Roze",
      "EUru": "Розовый",
      "JPja": "ピンク",
      "KRko": "핑크",
      "TWzh": "粉紅色",
      "USen": "Pink",
      "USes": "Rosa",
      "USfr": "Rose"
    }
  },
  {
    "label": "759_Helmet_11709",
    "locale": {
      "CNzh": "浅蓝色",
      "EUde": "Hellblau",
      "EUen": "Light blue",
      "EUes": "Celeste",
      "EUfr": "Bleu clair",
      "EUit": "Blu chiaro",
      "EUnl": "Lichtblauw",
      "EUru": "Голубой",
      "JPja": "ライトブルー",
      "KRko": "라이트 블루",
      "TWzh": "淺藍色",
      "USen": "Light blue",
      "USes": "Celeste",
      "USfr": "Bleu pâle"
    }
  },
  {
    "label": "759_Helmet_11710",
    "locale": {
      "CNzh": "棕色",
      "EUde": "Braun",
      "EUen": "Brown",
      "EUes": "Marrón",
      "EUfr": "Brun",
      "EUit": "Marrone",
      "EUnl": "Bruin",
      "EUru": "Коричневый",
      "JPja": "ブラウン",
      "KRko": "브라운",
      "TWzh": "棕色",
      "USen": "Brown",
      "USes": "Marrón",
      "USfr": "Brun"
    }
  },
  {
    "label": "790_Helmet_05607",
    "locale": {
      "CNzh": "金色",
      "EUde": "Gold",
      "EUen": "Gold",
      "EUes": "Dorado",
      "EUfr": "Or",
      "EUit": "Dorato",
      "EUnl": "Goud",
      "EUru": "Золото",
      "JPja": "ゴールド",
      "KRko": "골드",
      "TWzh": "金色",
      "USen": "Gold",
      "USes": "Dorado",
      "USfr": "Or"
    }
  },
  {
    "label": "822_Helmet_05669",
    "locale": {
      "CNzh": "粉红",
      "EUde": "Rosa",
      "EUen": "Pink",
      "EUes": "Rosa",
      "EUfr": "Rose",
      "EUit": "Rosa",
      "EUnl": "Roze",
      "EUru": "Розовый",
      "JPja": "ピンク",
      "KRko": "핑크",
      "TWzh": "粉紅色",
      "USen": "Pink",
      "USes": "Rosa",
      "USfr": "Rose"
    }
  },
  {
    "label": "822_Helmet_11815",
    "locale": {
      "CNzh": "蓝色",
      "EUde": "Blau",
      "EUen": "Blue",
      "EUes": "Azul",
      "EUfr": "Bleu",
      "EUit": "Blu",
      "EUnl": "Blauw",
      "EUru": "Синий",
      "JPja": "ブルー",
      "KRko": "블루",
      "TWzh": "藍色",
      "USen": "Blue",
      "USes": "Azul",
      "USfr": "Bleu"
    }
  },
  {
    "label": "822_Helmet_11816",
    "locale": {
      "CNzh": "橘色",
      "EUde": "Orange",
      "EUen": "Orange",
      "EUes": "Naranja",
      "EUfr": "Orange",
      "EUit": "Arancio",
      "EUnl": "Oranje",
      "EUru": "Оранжевый",
      "JPja": "オレンジ",
      "KRko": "오렌지",
      "TWzh": "橘色",
      "USen": "Orange",
      "USes": "Naranja",
      "USfr": "Orange"
    }
  },
  {
    "label": "822_Helmet_11817",
    "locale": {
      "CNzh": "绿色",
      "EUde": "Grün",
      "EUen": "Green",
      "EUes": "Verde",
      "EUfr": "Vert",
      "EUit": "Verde",
      "EUnl": "Groen",
      "EUru": "Зеленый",
      "JPja": "グリーン",
      "KRko": "그린",
      "TWzh": "綠色",
      "USen": "Green",
      "USes": "Verde",
      "USfr": "Vert"
    }
  },
  {
    "label": "822_Helmet_11818",
    "locale": {
      "CNzh": "紫色",
      "EUde": "Lila",
      "EUen": "Purple",
      "EUes": "Púrpura",
      "EUfr": "Violet",
      "EUit": "Viola",
      "EUnl": "Paars",
      "EUru": "Фиолетовый",
      "JPja": "パープル",
      "KRko": "퍼플",
      "TWzh": "紫色",
      "USen": "Purple",
      "USes": "Morado",
      "USfr": "Mauve"
    }
  },
  {
    "label": "825_Helmet_05687",
    "locale": {
      "CNzh": "红色",
      "EUde": "Rot",
      "EUen": "Red",
      "EUes": "Rojo",
      "EUfr": "Rouge",
      "EUit": "Rosso",
      "EUnl": "Rood",
      "EUru": "Красный",
      "JPja": "レッド",
      "KRko": "레드",
      "TWzh": "紅色",
      "USen": "Red",
      "USes": "Rojo",
      "USfr": "Rouge"
    }
  },
  {
    "label": "825_Helmet_11611",
    "locale": {
      "CNzh": "蓝色",
      "EUde": "Blau",
      "EUen": "Blue",
      "EUes": "Azul",
      "EUfr": "Bleu",
      "EUit": "Blu",
      "EUnl": "Blauw",
      "EUru": "Синий",
      "JPja": "ブルー",
      "KRko": "블루",
      "TWzh": "藍色",
      "USen": "Blue",
      "USes": "Azul",
      "USfr": "Bleu"
    }
  },
  {
    "label": "825_Helmet_11612",
    "locale": {
      "CNzh": "绿色",
      "EUde": "Grün",
      "EUen": "Green",
      "EUes": "Verde",
      "EUfr": "Vert",
      "EUit": "Verde",
      "EUnl": "Groen",
      "EUru": "Зеленый",
      "JPja": "グリーン",
      "KRko": "그린",
      "TWzh": "綠色",
      "USen": "Green",
      "USes": "Verde",
      "USfr": "Vert"
    }
  },
  {
    "label": "826_Helmet_05688",
    "locale": {
      "CNzh": "发色",
      "EUde": "Haarfarbe",
      "EUen": "Hair Color",
      "EUes": "Color del pelo",
      "EUfr": "Couleur de cheveux",
      "EUit": "Colore dei capelli",
      "EUnl": "Haarkleur",
      "EUru": "Цвет волос",
      "JPja": "ヘアカラー",
      "KRko": "헤어 컬러",
      "TWzh": "頭髮顏色",
      "USen": "Hair Color",
      "USes": "Color del pelo",
      "USfr": "Couleur de cheveux"
    }
  },
  {
    "label": "827_Helmet_05689",
    "locale": {
      "CNzh": "发色",
      "EUde": "Haarfarbe",
      "EUen": "Hair Color",
      "EUes": "Color del pelo",
      "EUfr": "Couleur de cheveux",
      "EUit": "Colore dei capelli",
      "EUnl": "Haarkleur",
      "EUru": "Цвет волос",
      "JPja": "ヘアカラー",
      "KRko": "헤어 컬러",
      "TWzh": "頭髮顏色",
      "USen": "Hair Color",
      "USes": "Color del pelo",
      "USfr": "Couleur de cheveux"
    }
  },
  {
    "label": "828_Helmet_05690",
    "locale": {
      "CNzh": "发色",
      "EUde": "Haarfarbe",
      "EUen": "Hair Color",
      "EUes": "Color del pelo",
      "EUfr": "Couleur de cheveux",
      "EUit": "Colore dei capelli",
      "EUnl": "Haarkleur",
      "EUru": "Цвет волос",
      "JPja": "ヘアカラー",
      "KRko": "헤어 컬러",
      "TWzh": "頭髮顏色",
      "USen": "Hair Color",
      "USes": "Color del pelo",
      "USfr": "Couleur de cheveux"
    }
  },
  {
    "label": "829_Helmet_05691",
    "locale": {
      "CNzh": "发色",
      "EUde": "Haarfarbe",
      "EUen": "Hair Color",
      "EUes": "Color del pelo",
      "EUfr": "Couleur de cheveux",
      "EUit": "Colore dei capelli",
      "EUnl": "Haarkleur",
      "EUru": "Цвет волос",
      "JPja": "ヘアカラー",
      "KRko": "헤어 컬러",
      "TWzh": "頭髮顏色",
      "USen": "Hair Color",
      "USes": "Color del pelo",
      "USfr": "Couleur de cheveux"
    }
  },
  {
    "label": "830_Helmet_05692",
    "locale": {
      "CNzh": "白色",
      "EUde": "Weiß",
      "EUen": "White",
      "EUes": "Blanco",
      "EUfr": "Blanc",
      "EUit": "Bianco",
      "EUnl": "Wit",
      "EUru": "Белый",
      "JPja": "ホワイト",
      "KRko": "화이트",
      "TWzh": "白色",
      "USen": "White",
      "USes": "Blanco",
      "USfr": "Blanc"
    }
  },
  {
    "label": "831_Helmet_05693",
    "locale": {
      "CNzh": "粉红",
      "EUde": "Rosa",
      "EUen": "Pink",
      "EUes": "Rosa",
      "EUfr": "Rose",
      "EUit": "Rosa",
      "EUnl": "Roze",
      "EUru": "Розовый",
      "JPja": "ピンク",
      "KRko": "핑크",
      "TWzh": "粉紅色",
      "USen": "Pink",
      "USes": "Rosa",
      "USfr": "Rose"
    }
  },
  {
    "label": "831_Helmet_11888",
    "locale": {
      "CNzh": "蓝色",
      "EUde": "Blau",
      "EUen": "Blue",
      "EUes": "Azul",
      "EUfr": "Bleu",
      "EUit": "Blu",
      "EUnl": "Blauw",
      "EUru": "Синий",
      "JPja": "ブルー",
      "KRko": "블루",
      "TWzh": "藍色",
      "USen": "Blue",
      "USes": "Azul",
      "USfr": "Bleu"
    }
  },
  {
    "label": "831_Helmet_11889",
    "locale": {
      "CNzh": "芥末黄",
      "EUde": "Senfgelb",
      "EUen": "Mustard",
      "EUes": "Mostaza",
      "EUfr": "Jaune moutarde",
      "EUit": "Senape",
      "EUnl": "Mosterdgeel",
      "EUru": "Горчичный",
      "JPja": "マスタード",
      "KRko": "머스터드",
      "TWzh": "芥末黃",
      "USen": "Mustard",
      "USes": "Mostaza",
      "USfr": "Jaune moutarde"
    }
  },
  {
    "label": "831_Helmet_11890",
    "locale": {
      "CNzh": "白色",
      "EUde": "Weiß",
      "EUen": "White",
      "EUes": "Blanco",
      "EUfr": "Blanc",
      "EUit": "Bianco",
      "EUnl": "Wit",
      "EUru": "Белый",
      "JPja": "ホワイト",
      "KRko": "화이트",
      "TWzh": "白色",
      "USen": "White",
      "USes": "Blanco",
      "USfr": "Blanc"
    }
  },
  {
    "label": "831_Helmet_11891",
    "locale": {
      "CNzh": "紫色",
      "EUde": "Lila",
      "EUen": "Purple",
      "EUes": "Púrpura",
      "EUfr": "Violet",
      "EUit": "Viola",
      "EUnl": "Paars",
      "EUru": "Фиолетовый",
      "JPja": "パープル",
      "KRko": "퍼플",
      "TWzh": "紫色",
      "USen": "Purple",
      "USes": "Morado",
      "USfr": "Mauve"
    }
  },
  {
    "label": "831_Helmet_11892",
    "locale": {
      "CNzh": "绿色",
      "EUde": "Grün",
      "EUen": "Green",
      "EUes": "Verde",
      "EUfr": "Vert",
      "EUit": "Verde",
      "EUnl": "Groen",
      "EUru": "Зеленый",
      "JPja": "グリーン",
      "KRko": "그린",
      "TWzh": "綠色",
      "USen": "Green",
      "USes": "Verde",
      "USfr": "Vert"
    }
  },
  {
    "label": "831_Helmet_11893",
    "locale": {
      "CNzh": "橘色",
      "EUde": "Orange",
      "EUen": "Orange",
      "EUes": "Naranja",
      "EUfr": "Orange",
      "EUit": "Arancio",
      "EUnl": "Oranje",
      "EUru": "Оранжевый",
      "JPja": "オレンジ",
      "KRko": "오렌지",
      "TWzh": "橘色",
      "USen": "Orange",
      "USes": "Naranja",
      "USfr": "Orange"
    }
  },
  {
    "label": "832_Helmet_05682",
    "locale": {
      "CNzh": "蓝色",
      "EUde": "Blau",
      "EUen": "Blue",
      "EUes": "Azul",
      "EUfr": "Bleu",
      "EUit": "Blu",
      "EUnl": "Blauw",
      "EUru": "Синий",
      "JPja": "ブルー",
      "KRko": "블루",
      "TWzh": "藍色",
      "USen": "Blue",
      "USes": "Azul",
      "USfr": "Bleu"
    }
  },
  {
    "label": "832_Helmet_11536",
    "locale": {
      "CNzh": "粉红",
      "EUde": "Rosa",
      "EUen": "Pink",
      "EUes": "Rosa",
      "EUfr": "Rose",
      "EUit": "Rosa",
      "EUnl": "Roze",
      "EUru": "Розовый",
      "JPja": "ピンク",
      "KRko": "핑크",
      "TWzh": "粉紅色",
      "USen": "Pink",
      "USes": "Rosa",
      "USfr": "Rose"
    }
  },
  {
    "label": "832_Helmet_11537",
    "locale": {
      "CNzh": "橘色",
      "EUde": "Orange",
      "EUen": "Orange",
      "EUes": "Naranja",
      "EUfr": "Orange",
      "EUit": "Arancio",
      "EUnl": "Oranje",
      "EUru": "Оранжевый",
      "JPja": "オレンジ",
      "KRko": "오렌지",
      "TWzh": "橘色",
      "USen": "Orange",
      "USes": "Naranja",
      "USfr": "Orange"
    }
  },
  {
    "label": "832_Helmet_11538",
    "locale": {
      "CNzh": "黑色",
      "EUde": "Schwarz",
      "EUen": "Black",
      "EUes": "Negro",
      "EUfr": "Noir",
      "EUit": "Nero",
      "EUnl": "Zwart",
      "EUru": "Черный",
      "JPja": "ブラック",
      "KRko": "블랙",
      "TWzh": "黑色",
      "USen": "Black",
      "USes": "Negro",
      "USfr": "Noir"
    }
  },
  {
    "label": "833_Helmet_05683",
    "locale": {
      "CNzh": "紫色",
      "EUde": "Lila",
      "EUen": "Purple",
      "EUes": "Púrpura",
      "EUfr": "Violet",
      "EUit": "Viola",
      "EUnl": "Paars",
      "EUru": "Фиолетовый",
      "JPja": "パープル",
      "KRko": "퍼플",
      "TWzh": "紫色",
      "USen": "Purple",
      "USes": "Morado",
      "USfr": "Mauve"
    }
  },
  {
    "label": "833_Helmet_11897",
    "locale": {
      "CNzh": "黑色",
      "EUde": "Schwarz",
      "EUen": "Black",
      "EUes": "Negro",
      "EUfr": "Noir",
      "EUit": "Nero",
      "EUnl": "Zwart",
      "EUru": "Черный",
      "JPja": "ブラック",
      "KRko": "블랙",
      "TWzh": "黑色",
      "USen": "Black",
      "USes": "Negro",
      "USfr": "Noir"
    }
  },
  {
    "label": "833_Helmet_11898",
    "locale": {
      "CNzh": "红色",
      "EUde": "Rot",
      "EUen": "Red",
      "EUes": "Rojo",
      "EUfr": "Rouge",
      "EUit": "Rosso",
      "EUnl": "Rood",
      "EUru": "Красный",
      "JPja": "レッド",
      "KRko": "레드",
      "TWzh": "紅色",
      "USen": "Red",
      "USes": "Rojo",
      "USfr": "Rouge"
    }
  },
  {
    "label": "833_Helmet_11899",
    "locale": {
      "CNzh": "粉红",
      "EUde": "Rosa",
      "EUen": "Pink",
      "EUes": "Rosa",
      "EUfr": "Rose",
      "EUit": "Rosa",
      "EUnl": "Roze",
      "EUru": "Розовый",
      "JPja": "ピンク",
      "KRko": "핑크",
      "TWzh": "粉紅色",
      "USen": "Pink",
      "USes": "Rosa",
      "USfr": "Rose"
    }
  },
  {
    "label": "833_Helmet_11900",
    "locale": {
      "CNzh": "蓝色",
      "EUde": "Blau",
      "EUen": "Blue",
      "EUes": "Azul",
      "EUfr": "Bleu",
      "EUit": "Blu",
      "EUnl": "Blauw",
      "EUru": "Синий",
      "JPja": "ブルー",
      "KRko": "블루",
      "TWzh": "藍色",
      "USen": "Blue",
      "USes": "Azul",
      "USfr": "Bleu"
    }
  },
  {
    "label": "833_Helmet_11901",
    "locale": {
      "CNzh": "浅紫色",
      "EUde": "Blasslila",
      "EUen": "Light purple",
      "EUes": "Lila claro",
      "EUfr": "Violet clair",
      "EUit": "Lilla",
      "EUnl": "Lichtpaars",
      "EUru": "Светло-фиолетовый",
      "JPja": "ライトパープル",
      "KRko": "라이트 퍼플",
      "TWzh": "淺紫色",
      "USen": "Light purple",
      "USes": "Morado claro",
      "USfr": "Mauve pâle"
    }
  },
  {
    "label": "834_Helmet_05684",
    "locale": {
      "CNzh": "蓝色",
      "EUde": "Blau",
      "EUen": "Blue",
      "EUes": "Azul",
      "EUfr": "Bleu",
      "EUit": "Blu",
      "EUnl": "Blauw",
      "EUru": "Синий",
      "JPja": "ブルー",
      "KRko": "블루",
      "TWzh": "藍色",
      "USen": "Blue",
      "USes": "Azul",
      "USfr": "Bleu"
    }
  },
  {
    "label": "834_Helmet_11881",
    "locale": {
      "CNzh": "紫色",
      "EUde": "Lila",
      "EUen": "Purple",
      "EUes": "Púrpura",
      "EUfr": "Violet",
      "EUit": "Viola",
      "EUnl": "Paars",
      "EUru": "Фиолетовый",
      "JPja": "パープル",
      "KRko": "퍼플",
      "TWzh": "紫色",
      "USen": "Purple",
      "USes": "Morado",
      "USfr": "Mauve"
    }
  },
  {
    "label": "834_Helmet_11882",
    "locale": {
      "CNzh": "粉红",
      "EUde": "Rosa",
      "EUen": "Pink",
      "EUes": "Rosa",
      "EUfr": "Rose",
      "EUit": "Rosa",
      "EUnl": "Roze",
      "EUru": "Розовый",
      "JPja": "ピンク",
      "KRko": "핑크",
      "TWzh": "粉紅色",
      "USen": "Pink",
      "USes": "Rosa",
      "USfr": "Rose"
    }
  },
  {
    "label": "834_Helmet_11883",
    "locale": {
      "CNzh": "黄色",
      "EUde": "Gelb",
      "EUen": "Yellow",
      "EUes": "Amarillo",
      "EUfr": "Jaune",
      "EUit": "Giallo",
      "EUnl": "Geel",
      "EUru": "Желтый",
      "JPja": "イエロー",
      "KRko": "옐로",
      "TWzh": "黃色",
      "USen": "Yellow",
      "USes": "Amarillo",
      "USfr": "Jaune"
    }
  },
  {
    "label": "836_Helmet_05695",
    "locale": {
      "CNzh": "红色",
      "EUde": "Rot",
      "EUen": "Red",
      "EUes": "Rojo",
      "EUfr": "Rouge",
      "EUit": "Rosso",
      "EUnl": "Rood",
      "EUru": "Красный",
      "JPja": "赤",
      "KRko": "빨간색",
      "TWzh": "紅色",
      "USen": "Red",
      "USes": "Rojo",
      "USfr": "Rouge"
    }
  },
  {
    "label": "836_Helmet_09741",
    "locale": {
      "CNzh": "桃红色",
      "EUde": "Rosa",
      "EUen": "Pink",
      "EUes": "Rosa",
      "EUfr": "Rose",
      "EUit": "Rosa",
      "EUnl": "Roze",
      "EUru": "Розовый",
      "JPja": "桃色",
      "KRko": "분홍색",
      "TWzh": "桃紅色",
      "USen": "Pink",
      "USes": "Rosa",
      "USfr": "Rose"
    }
  },
  {
    "label": "836_Helmet_09742",
    "locale": {
      "CNzh": "金黄色",
      "EUde": "Goldgelb",
      "EUen": "Golden yellow",
      "EUes": "Amarillo dorado",
      "EUfr": "Jaune orangé",
      "EUit": "Giallo oro",
      "EUnl": "Goudgeel",
      "EUru": "Золотисто-желтый",
      "JPja": "山吹色",
      "KRko": "황금색",
      "TWzh": "金黃色",
      "USen": "Golden yellow",
      "USes": "Amarillo dorado",
      "USfr": "Jaune orangé"
    }
  },
  {
    "label": "836_Helmet_09743",
    "locale": {
      "CNzh": "绿色",
      "EUde": "Grün",
      "EUen": "Green",
      "EUes": "Verde",
      "EUfr": "Vert",
      "EUit": "Verde",
      "EUnl": "Groen",
      "EUru": "Зеленый",
      "JPja": "緑",
      "KRko": "초록색",
      "TWzh": "綠色",
      "USen": "Green",
      "USes": "Verde",
      "USfr": "Vert"
    }
  },
  {
    "label": "836_Helmet_09744",
    "locale": {
      "CNzh": "蓝色",
      "EUde": "Blau",
      "EUen": "Blue",
      "EUes": "Azul",
      "EUfr": "Bleu",
      "EUit": "Blu",
      "EUnl": "Blauw",
      "EUru": "Синий",
      "JPja": "青",
      "KRko": "파란색",
      "TWzh": "藍色",
      "USen": "Blue",
      "USes": "Azul",
      "USfr": "Bleu"
    }
  },
  {
    "label": "836_Helmet_09745",
    "locale": {
      "CNzh": "紫色",
      "EUde": "Lila",
      "EUen": "Purple",
      "EUes": "Púrpura",
      "EUfr": "Violet",
      "EUit": "Viola",
      "EUnl": "Paars",
      "EUru": "Фиолетовый",
      "JPja": "紫",
      "KRko": "보라색",
      "TWzh": "紫色",
      "USen": "Purple",
      "USes": "Morado",
      "USfr": "Mauve"
    }
  },
  {
    "label": "836_Helmet_09746",
    "locale": {
      "CNzh": "黑色",
      "EUde": "Schwarz",
      "EUen": "Black",
      "EUes": "Negro",
      "EUfr": "Noir",
      "EUit": "Nero",
      "EUnl": "Zwart",
      "EUru": "Черный",
      "JPja": "黒",
      "KRko": "검은색",
      "TWzh": "黑色",
      "USen": "Black",
      "USes": "Negro",
      "USfr": "Noir"
    }
  },
  {
    "label": "837_Helmet_05696",
    "locale": {
      "CNzh": "发色",
      "EUde": "Haarfarbe",
      "EUen": "Hair Color",
      "EUes": "Color del pelo",
      "EUfr": "Couleur de cheveux",
      "EUit": "Colore dei capelli",
      "EUnl": "Haarkleur",
      "EUru": "Цвет волос",
      "JPja": "ヘアカラー",
      "KRko": "헤어 컬러",
      "TWzh": "頭髮顏色",
      "USen": "Hair Color",
      "USes": "Color del pelo",
      "USfr": "Couleur de cheveux"
    }
  },
  {
    "label": "838_Helmet_05697",
    "locale": {
      "CNzh": "红色",
      "EUde": "Rot",
      "EUen": "Red",
      "EUes": "Rojo",
      "EUfr": "Rouge",
      "EUit": "Rosso",
      "EUnl": "Rood",
      "EUru": "Красный",
      "JPja": "レッド",
      "KRko": "레드",
      "TWzh": "紅色",
      "USen": "Red",
      "USes": "Rojo",
      "USfr": "Rouge"
    }
  },
  {
    "label": "838_Helmet_11794",
    "locale": {
      "CNzh": "蓝色",
      "EUde": "Blau",
      "EUen": "Blue",
      "EUes": "Azul",
      "EUfr": "Bleu",
      "EUit": "Blu",
      "EUnl": "Blauw",
      "EUru": "Синий",
      "JPja": "ブルー",
      "KRko": "블루",
      "TWzh": "藍色",
      "USen": "Blue",
      "USes": "Azul",
      "USfr": "Bleu"
    }
  },
  {
    "label": "838_Helmet_11795",
    "locale": {
      "CNzh": "绿色",
      "EUde": "Grün",
      "EUen": "Green",
      "EUes": "Verde",
      "EUfr": "Vert",
      "EUit": "Verde",
      "EUnl": "Groen",
      "EUru": "Зеленый",
      "JPja": "グリーン",
      "KRko": "그린",
      "TWzh": "綠色",
      "USen": "Green",
      "USes": "Verde",
      "USfr": "Vert"
    }
  },
  {
    "label": "838_Helmet_11796",
    "locale": {
      "CNzh": "黑色",
      "EUde": "Schwarz",
      "EUen": "Black",
      "EUes": "Negro",
      "EUfr": "Noir",
      "EUit": "Nero",
      "EUnl": "Zwart",
      "EUru": "Черный",
      "JPja": "ブラック",
      "KRko": "블랙",
      "TWzh": "黑色",
      "USen": "Black",
      "USes": "Negro",
      "USfr": "Noir"
    }
  },
  {
    "label": "900_Helmet_05840",
    "locale": {
      "CNzh": "米色",
      "EUde": "Beige",
      "EUen": "Beige",
      "EUes": "Beis",
      "EUfr": "Beige",
      "EUit": "Beige",
      "EUnl": "Beige",
      "EUru": "Бежевый",
      "JPja": "ベージュ",
      "KRko": "베이지",
      "TWzh": "米色",
      "USen": "Beige",
      "USes": "Beige",
      "USfr": "Beige"
    }
  },
  {
    "label": "917_Helmet_06034",
    "locale": {
      "CNzh": "白色",
      "EUde": "Weiß",
      "EUen": "White",
      "EUes": "Blanco",
      "EUfr": "Blanc",
      "EUit": "Bianco",
      "EUnl": "Wit",
      "EUru": "Белый",
      "JPja": "ホワイト",
      "KRko": "화이트",
      "TWzh": "白色",
      "USen": "White",
      "USes": "Blanco",
      "USfr": "Blanc"
    }
  },
  {
    "label": "917_Helmet_11171",
    "locale": {
      "CNzh": "黑色",
      "EUde": "Schwarz",
      "EUen": "Black",
      "EUes": "Negro",
      "EUfr": "Noir",
      "EUit": "Nero",
      "EUnl": "Zwart",
      "EUru": "Черный",
      "JPja": "ブラック",
      "KRko": "블랙",
      "TWzh": "黑色",
      "USen": "Black",
      "USes": "Negro",
      "USfr": "Noir"
    }
  },
  {
    "label": "918_Helmet_06035",
    "locale": {
      "CNzh": "白色",
      "EUde": "Weiß",
      "EUen": "White",
      "EUes": "Blanco",
      "EUfr": "Blanc",
      "EUit": "Bianco",
      "EUnl": "Wit",
      "EUru": "Белый",
      "JPja": "ホワイト",
      "KRko": "화이트",
      "TWzh": "白色",
      "USen": "White",
      "USes": "Blanco",
      "USfr": "Blanc"
    }
  },
  {
    "label": "919_Helmet_06036",
    "locale": {
      "CNzh": "白色",
      "EUde": "Weiß",
      "EUen": "White",
      "EUes": "Blanco",
      "EUfr": "Blanc",
      "EUit": "Bianco",
      "EUnl": "Wit",
      "EUru": "Белый",
      "JPja": "ホワイト",
      "KRko": "화이트",
      "TWzh": "白色",
      "USen": "White",
      "USes": "Blanco",
      "USfr": "Blanc"
    }
  },
  {
    "label": "923_Helmet_06041",
    "locale": {
      "CNzh": "白色",
      "EUde": "Weiß",
      "EUen": "White",
      "EUes": "Blanco",
      "EUfr": "Blanc",
      "EUit": "Bianco",
      "EUnl": "Wit",
      "EUru": "Белый",
      "JPja": "ホワイト",
      "KRko": "화이트",
      "TWzh": "白色",
      "USen": "White",
      "USes": "Blanco",
      "USfr": "Blanc"
    }
  },
  {
    "label": "931_Helmet_06050",
    "locale": {
      "CNzh": "红色",
      "EUde": "Rot",
      "EUen": "Red",
      "EUes": "Rojo",
      "EUfr": "Rouge",
      "EUit": "Rosso",
      "EUnl": "Rood",
      "EUru": "Красный",
      "JPja": "レッド",
      "KRko": "레드",
      "TWzh": "紅色",
      "USen": "Red",
      "USes": "Rojo",
      "USfr": "Rouge"
    }
  },
  {
    "label": "931_Helmet_11600",
    "locale": {
      "CNzh": "海军蓝",
      "EUde": "Marineblau",
      "EUen": "Navy blue",
      "EUes": "Azul marino",
      "EUfr": "Bleu marine",
      "EUit": "Blu marino",
      "EUnl": "Marineblauw",
      "EUru": "Черно-синий",
      "JPja": "ネイビー",
      "KRko": "네이비",
      "TWzh": "海軍藍",
      "USen": "Navy blue",
      "USes": "Azul marino",
      "USfr": "Bleu marine"
    }
  },
  {
    "label": "931_Helmet_11601",
    "locale": {
      "CNzh": "绿色",
      "EUde": "Grün",
      "EUen": "Green",
      "EUes": "Verde",
      "EUfr": "Vert",
      "EUit": "Verde",
      "EUnl": "Groen",
      "EUru": "Зеленый",
      "JPja": "グリーン",
      "KRko": "그린",
      "TWzh": "綠色",
      "USen": "Green",
      "USes": "Verde",
      "USfr": "Vert"
    }
  },
  {
    "label": "931_Helmet_11602",
    "locale": {
      "CNzh": "橘色",
      "EUde": "Orange",
      "EUen": "Orange",
      "EUes": "Naranja",
      "EUfr": "Orange",
      "EUit": "Arancio",
      "EUnl": "Oranje",
      "EUru": "Оранжевый",
      "JPja": "オレンジ",
      "KRko": "오렌지",
      "TWzh": "橘色",
      "USen": "Orange",
      "USes": "Naranja",
      "USfr": "Orange"
    }
  },
  {
    "label": "931_Helmet_11603",
    "locale": {
      "CNzh": "黄色",
      "EUde": "Gelb",
      "EUen": "Yellow",
      "EUes": "Amarillo",
      "EUfr": "Jaune",
      "EUit": "Giallo",
      "EUnl": "Geel",
      "EUru": "Желтый",
      "JPja": "イエロー",
      "KRko": "옐로",
      "TWzh": "黃色",
      "USen": "Yellow",
      "USes": "Amarillo",
      "USfr": "Jaune"
    }
  },
  {
    "label": "932_Helmet_06051",
    "locale": {
      "CNzh": "黄色",
      "EUde": "Gelb",
      "EUen": "Yellow",
      "EUes": "Amarillo",
      "EUfr": "Jaune",
      "EUit": "Giallo",
      "EUnl": "Geel",
      "EUru": "Желтый",
      "JPja": "イエロー",
      "KRko": "옐로",
      "TWzh": "黃色",
      "USen": "Yellow",
      "USes": "Amarillo",
      "USfr": "Jaune"
    }
  },
  {
    "label": "932_Helmet_10830",
    "locale": {
      "CNzh": "红色",
      "EUde": "Rot",
      "EUen": "Red",
      "EUes": "Rojo",
      "EUfr": "Rouge",
      "EUit": "Rosso",
      "EUnl": "Rood",
      "EUru": "Красный",
      "JPja": "レッド",
      "KRko": "레드",
      "TWzh": "紅色",
      "USen": "Red",
      "USes": "Rojo",
      "USfr": "Rouge"
    }
  },
  {
    "label": "932_Helmet_10831",
    "locale": {
      "CNzh": "浅蓝色",
      "EUde": "Hellblau",
      "EUen": "Light blue",
      "EUes": "Celeste",
      "EUfr": "Bleu clair",
      "EUit": "Blu chiaro",
      "EUnl": "Lichtblauw",
      "EUru": "Голубой",
      "JPja": "ライトブルー",
      "KRko": "라이트 블루",
      "TWzh": "淺藍色",
      "USen": "Light blue",
      "USes": "Celeste",
      "USfr": "Bleu pâle"
    }
  },
  {
    "label": "932_Helmet_10832",
    "locale": {
      "CNzh": "绿色",
      "EUde": "Grün",
      "EUen": "Green",
      "EUes": "Verde",
      "EUfr": "Vert",
      "EUit": "Verde",
      "EUnl": "Groen",
      "EUru": "Зеленый",
      "JPja": "グリーン",
      "KRko": "그린",
      "TWzh": "綠色",
      "USen": "Green",
      "USes": "Verde",
      "USfr": "Vert"
    }
  },
  {
    "label": "932_Helmet_10833",
    "locale": {
      "CNzh": "海军蓝",
      "EUde": "Marineblau",
      "EUen": "Navy blue",
      "EUes": "Azul marino",
      "EUfr": "Bleu marine",
      "EUit": "Blu marino",
      "EUnl": "Marineblauw",
      "EUru": "Черно-синий",
      "JPja": "ネイビー",
      "KRko": "네이비",
      "TWzh": "海軍藍",
      "USen": "Navy blue",
      "USes": "Azul marino",
      "USfr": "Bleu marine"
    }
  },
  {
    "label": "932_Helmet_10834",
    "locale": {
      "CNzh": "银色",
      "EUde": "Silber",
      "EUen": "Silver",
      "EUes": "Plateado",
      "EUfr": "Argent",
      "EUit": "Argentato",
      "EUnl": "Zilver",
      "EUru": "Серебро",
      "JPja": "シルバー",
      "KRko": "실버",
      "TWzh": "銀色",
      "USen": "Silver",
      "USes": "Plateado",
      "USfr": "Argent"
    }
  },
  {
    "label": "933_Helmet_06052",
    "locale": {
      "CNzh": "白色",
      "EUde": "Weiß",
      "EUen": "White",
      "EUes": "Blanco",
      "EUfr": "Blanc",
      "EUit": "Bianco",
      "EUnl": "Wit",
      "EUru": "Белый",
      "JPja": "ホワイト",
      "KRko": "화이트",
      "TWzh": "白色",
      "USen": "White",
      "USes": "Blanco",
      "USfr": "Blanc"
    }
  },
  {
    "label": "933_Helmet_09747",
    "locale": {
      "CNzh": "红色",
      "EUde": "Rot",
      "EUen": "Red",
      "EUes": "Rojo",
      "EUfr": "Rouge",
      "EUit": "Rosso",
      "EUnl": "Rood",
      "EUru": "Красный",
      "JPja": "レッド",
      "KRko": "레드",
      "TWzh": "紅色",
      "USen": "Red",
      "USes": "Rojo",
      "USfr": "Rouge"
    }
  },
  {
    "label": "933_Helmet_09748",
    "locale": {
      "CNzh": "黑色",
      "EUde": "Schwarz",
      "EUen": "Black",
      "EUes": "Negro",
      "EUfr": "Noir",
      "EUit": "Nero",
      "EUnl": "Zwart",
      "EUru": "Черный",
      "JPja": "ブラック",
      "KRko": "블랙",
      "TWzh": "黑色",
      "USen": "Black",
      "USes": "Negro",
      "USfr": "Noir"
    }
  },
  {
    "label": "934_Helmet_06053",
    "locale": {
      "CNzh": "黑色",
      "EUde": "Schwarz",
      "EUen": "Black",
      "EUes": "Negro",
      "EUfr": "Noir",
      "EUit": "Nero",
      "EUnl": "Zwart",
      "EUru": "Черный",
      "JPja": "黒",
      "KRko": "검은색",
      "TWzh": "黑色",
      "USen": "Black",
      "USes": "Negro",
      "USfr": "Noir"
    }
  },
  {
    "label": "956_Helmet_07291",
    "locale": {
      "CNzh": "绿色",
      "EUde": "Grün",
      "EUen": "Green",
      "EUes": "Verde",
      "EUfr": "Vert",
      "EUit": "Verde",
      "EUnl": "Groen",
      "EUru": "Зеленый",
      "JPja": "グリーン",
      "KRko": "그린",
      "TWzh": "綠色",
      "USen": "Green",
      "USes": "Verde",
      "USfr": "Vert"
    }
  }
]