﻿[
  {
    "label": "002",
    "attribute": "0x00000000",
    "locale": {
      "CNzh": "总之先全部拜托你了，\n按你的喜好来也完全没问题哦。",
      "EUde": "Lasse deiner Kreativität ruhig\nfreien Lauf. Mir gefällt dein Stil.",
      "EUen": "Please feel free to do whatever you\nlike with the place. I'm looking\nforward to seeing your choices.",
      "EUes": "Tómate la libertad de diseñar\nla casa a tu antojo. Confío\nplenamente en tu criterio.",
      "EUfr": "Fais ce que tu veux. J'ai hâte de\nvoir ce que tu auras concocté.",
      "EUit": "Sentiti libero di fare come credi con\nil posto. Non vedo l'ora di scoprire\nle scelte che farai.",
      "EUnl": "Doe wat je wilt, ik geef je volledig de\nvrije hand. En ik ben reuzebenieuwd\nnaar hoe je het gaat aanpakken.",
      "EUru": "Можешь все менять по своему\nусмотрению. Интересно увидеть,\nчто же ты решишь сделать!",
      "JPja": "ひと通り　お任せするんで、\n好きなように　してもろたら　いいですよ",
      "KRko": "일단 한 번 쭉 맡겨볼 테니까는\n마음껏 해보이소",
      "TWzh": "這件事就全部交給你處理，\n你就照自己的想法去做吧。",
      "USen": "Please feel free to do whatever you\nlike with the place. I'm looking\nforward to seeing your choices.",
      "USes": "Diseña la casa como prefieras.\nConfío en ti.",
      "USfr": "Fais ce que tu veux. J'ai hâte de\nvoir ce que tu auras concocté."
    }
  },
  {
    "label": "003",
    "attribute": "0x01000000",
    "locale": {
      "CNzh": "哎呀，这个也可以选吗！\n我想想，这该怎么选呢……\n对了，你的建议是什么呢？",
      "EUde": "Ah, es gibt Variationsmöglichkeiten.\nDas ist guter Service! Was würdest\ndu denn empfehlen?",
      "EUen": "This is quite the comprehensive\nservice! What do you think I should\ndo? I'd love a recommendation.",
      "EUes": "Vaya... Pues no sé. ¿Qué me\naconsejas? ¡Acepto sugerencias!",
      "EUfr": "Hmm, il y a tant de possibilités !\nQue me conseillerais-tu ? Cela\nm'aiderait grandement à choisir.",
      "EUit": "Un servizio davvero completo!\nCosa credi che dovrei fare?\nDammi un consiglio.",
      "EUnl": "O, wat een service! Wat lijkt jou het\nbeste? Kun je me iets aanbevelen?",
      "EUru": "Сервис и правда полный! Как ты\nсчитаешь, что мне делать?\nПорекомендуй что-нибудь.",
      "JPja": "あら、そういうのまで　選べるんですか！\nそやねぇ、どうしようかしら・・・\nちなみに、こちらの　おすすめは？",
      "KRko": "오마나, 그런 것까지 고를 수 있습니꺼?\n흐음, 우야꼬...\n혹시 추천하시는 게 있으신가예?",
      "TWzh": "哎呀，連這種規格也可以挑選啊！\n我想想，該怎麼選比較好呢……\n順便問一下，你推薦選哪種？",
      "USen": "This is quite the comprehensive\nservice! What do you think I should\ndo? I'd love a recommendation.",
      "USes": "Vaya... Pues no sé. ¿Qué me\naconsejas? ¡Acepto sugerencias!",
      "USfr": "Hmm, il y a tant de possibilités!\nQue me conseillerais-tu? Cela\nm'aiderait grandement à choisir."
    }
  },
  {
    "label": "003_01",
    "attribute": "0x00000000",
    "locale": {
      "CNzh": "让你久等了。\n请你多多关照呢。",
      "EUde": "Habe ich dich warten lassen? Tut\nmir leid! Ich freue mich sehr darüber,\ndass du diese Sache übernimmst!",
      "EUen": "Sorry to keep you waiting. I look\nforward to working with you!",
      "EUes": "¡Qué ganas tengo de ver\ncómo queda!",
      "EUfr": "Désolée de t'avoir fait attendre.\nJe me réjouis de travailler avec toi !",
      "EUit": "Scusa se ti ho fatto aspettare. Sono\nproprio contenta che lavoreremo\ninsieme!",
      "EUnl": "Sorry dat ik je heb laten wachten. Ik\nverheug me op onze samenwerking!",
      "EUru": "Прошу прощения за задержку.\nНе терпится поработать с тобой!",
      "JPja": "お待たせしましたー\nよろしく　お願いしますね",
      "KRko": "오래 기다리셨지예～\n잘 부탁합니데이",
      "TWzh": "讓你久等了～\n要麻煩你囉。",
      "USen": "Sorry to keep you waiting. I look\nforward to working with you!",
      "USes": "¡Ya quiero ver cómo queda!",
      "USfr": "Désolée de t'avoir fait attendre.\nJe me réjouis de travailler avec toi!"
    }
  },
  {
    "label": "003_03",
    "attribute": "0x00000000",
    "locale": {
      "CNzh": "哎呀，挺好的。\n是我喜欢的地方呢。",
      "EUde": "Hach, da sieht richtig schön aus!\nBestimmt wird das mein neuer\nLieblingsort.",
      "EUen": "Oh my, what a beautiful place!\nI think I will absolutely love it!",
      "EUes": "¡Este lugar es encantador, prenda!\nPresiento que seré muy feliz aquí.",
      "EUfr": "Mais cet endroit est superbe !\nJe pense que je vais énormément\nm'y plaire !",
      "EUit": "Oh cielo, che posto meraviglioso!\nCredo che lo adorerò senza riserve.",
      "EUnl": "Oei, dat ziet er mooi uit! Ik weet nu\nal bijna zeker dat ik het er heel erg\nnaar mijn zin ga hebben.",
      "EUru": "С ума сойти, как здесь красиво!\nДумаю, от дачи в таком месте\nя буду просто без ума.",
      "JPja": "あら、エエやないの\nウチの　好きそうなトコロやわ",
      "KRko": "오마나, 괜찮네예\n제 맘에 쏙 들 것 같십니데이",
      "TWzh": "哎呀，看起來挺棒的呢。\n這地方很符合我的喜好喔。",
      "USen": "Oh my, what a beautiful place!\nI think I will absolutely love it!",
      "USes": "¡Qué lugar tan hermoso! Presiento\nque me traerá mucha felicidad.",
      "USfr": "Mais cet endroit est superbe!\nJe pense que je vais énormément\nm'y plaire!"
    }
  },
  {
    "label": "003_04",
    "attribute": "0x00000000",
    "locale": {
      "CNzh": "我下定决心了！\n这次也要麻烦你啦。",
      "EUde": "Ja, ich habe mich spontan für diesen\nUmzug entschieden! Abermals vielen\nDank für die Hilfe.",
      "EUen": "Yes, I decided to just go for it!\nThank you again for your help.",
      "EUes": "¡Sigamos adelante con ello!\nY gracias una vez más por\nayudar con todo.",
      "EUfr": "Eh oui, j'ai décidé de le faire !\nMerci encore pour ton aide.",
      "EUit": "Sì, ho deciso di buttarmi! Grazie\nancora di cuore per il tuo aiuto.",
      "EUnl": "Ja, ik doe het! Nogmaals bedankt\nvoor je hulp.",
      "EUru": "Да, я не стану тратить время на\nсомнения и просто решусь! Еще\nраз спасибо за помощь.",
      "JPja": "思いきって　決めちゃいました！\nまた　お世話になりますー",
      "KRko": "큰맘 먹고 결정했십니더!\n또 부탁 좀 드리겠습니데이～",
      "TWzh": "好，我下定決心了！\n這次又要請你多多關照囉～",
      "USen": "Yes, I decided to just go for it!\nThank you again for your help.",
      "USes": "¡Manos a la obra! Y gracias una vez\nmás por ayudar con todo.",
      "USfr": "Eh oui, j'ai décidé de le faire!\nMerci encore pour ton aide."
    }
  },
  {
    "label": "003_a",
    "attribute": "0x00000000",
    "locale": {
      "CNzh": "1楼建筑",
      "EUde": "Eine Etage!",
      "EUen": "A one-level home.",
      "EUes": "Un bungaló íntimo",
      "EUfr": "Une villa de plain-pied.",
      "EUit": "Una casa a un piano.",
      "EUnl": "Eén verdieping.",
      "EUru": "Пусть будет 1 этаж.",
      "JPja": "1階建て",
      "KRko": "1층 어때?",
      "TWzh": "一層樓",
      "USen": "A one-level home.",
      "USes": "Una casa de un piso",
      "USfr": "Une maison de plain-pied."
    }
  },
  {
    "label": "003_b",
    "attribute": "0x00000000",
    "locale": {
      "CNzh": "2楼建筑",
      "EUde": "Zwei Etagen!",
      "EUen": "A big two-level home.",
      "EUes": "Una casa de 2 plantas",
      "EUfr": "Une villa à étage.",
      "EUit": "Una casa a due piani.",
      "EUnl": "Twee verdiepingen.",
      "EUru": "Пусть будут 2 этажа.",
      "JPja": "2階建て",
      "KRko": "2층 어때?",
      "TWzh": "兩層樓",
      "USen": "A big two-level home.",
      "USes": "Una casa de dos pisos",
      "USfr": "Une maison avec étage."
    }
  },
  {
    "label": "004",
    "attribute": "0x00000000",
    "locale": {
      "CNzh": "这样啊。\n那就拜托你把我们家的别墅\n建成1楼建筑吧。",
      "EUde": "Aha. Wenn du das vorschlägst, ist es\nsicher eine gute Idee. Dann möchte\nich eine Etage haben.",
      "EUen": "I see. In that case, I'll go with a\none-story vacation home too.",
      "EUes": "Muy bien. ¡Que sea una sola\nplanta entonces!",
      "EUfr": "Je vois. Alors dans ce cas, c'est\nentendu. Va pour une villa de\nplain-pied.",
      "EUit": "Capisco. In tal caso, vada per una\ncasa vacanze a un piano.",
      "EUnl": "Goed. In dat geval kies ik voor een\nhuisje van één verdieping.",
      "EUru": "Ясно. В таком случае я тоже за\nодноэтажную дачу.",
      "JPja": "そうですか\nそしたら、ウチらの別荘も\n1階建てで　お願いさせてもらいます",
      "KRko": "알겠심더\n그라믄 우리 별장도\n1층으로 부탁드릴게예",
      "TWzh": "這樣啊。\n那就拜託你把我們家的別墅\n蓋成一層樓吧。",
      "USen": "I see. In that case, I'll go with a\none-story vacation home too.",
      "USes": "Muy bien. ¡Que sea un solo\npiso entonces!",
      "USfr": "Je vois. Alors dans ce cas, c'est\nentendu. Va pour une maison de\nplain-pied."
    }
  },
  {
    "label": "005",
    "attribute": "0x00000000",
    "locale": {
      "CNzh": "这样啊。\n那就拜托你把我们家的别墅\n建成2楼建筑吧。",
      "EUde": "Aha. Wenn du das vorschlägst, ist es\nsicher eine gute Idee. Dann möchte\nich zwei Etagen haben.",
      "EUen": "I see. In that case, I'll go with a\ntwo-story vacation home too.",
      "EUes": "Muy bien. ¡Que sean dos plantas\nentonces!",
      "EUfr": "Je vois. Alors dans ce cas, une villa\navec étage me semble de bon aloi.",
      "EUit": "Capisco. In tal caso, vada per una\ncasa vacanze a due piani.",
      "EUnl": "Goed. In dat geval kies ik voor een\nhuisje van twee verdiepingen.",
      "EUru": "Ясно. В таком случае я тоже за\nдвухэтажную дачу.",
      "JPja": "そうですか\nそしたら、ウチらの別荘も\n2階建てで　お願いさせてもらいます",
      "KRko": "알겠심더\n그라믄 우리 별장도\n2층으로 부탁드릴게예",
      "TWzh": "這樣啊。\n那就拜託你把我們家的別墅\n蓋成兩層樓吧。",
      "USen": "I see. In that case, I'll go with a\ntwo-story vacation home too.",
      "USes": "Muy bien. ¡Que sean dos pisos\nentonces!",
      "USfr": "Je vois. Alors dans ce cas, une\nmaison avec étage me semble\nde bon aloi."
    }
  }
]