﻿[
  {
    "label": "001",
    "attribute": "0x0000000000000000",
    "locale": {
      "CNzh": "虽然是因为身体不舒服的缘故，\n但你来都来了，\n我却没能陪你聊上几句话，真是抱歉。\n不过，多亏了的药，\n我现在已经好多了。\n别担心了！。",
      "EUde": "Sorry wegen vorhin. Wenn ich nich'\nfit bin, kann man mich echt in der\nPfeife rauchen, (Floskel)...\nZum Glück ist  rumgekommen und hat mir 'nen Packen Medizin gebracht.\nJetzt bin ich auch wieder zu den\nüblichen Schandtaten bereit.",
      "EUen": "Sorry I wasn't much fun to hang out\nwith last time. Turns out bein' sick\ntakes a lot out of you, (catchphrase).\nBut  brought some\nmedicine over and I'm feelin' WAY\nbetter now, so it's all good.",
      "EUes": "Perdona que antes cuando hablamos\nestuviese tan de bajón... ¡Ya sabes\nque no es mi rollo para nada!\nPero como  se ha\nportado y me ha traído medicina,\nya me siento más en mi elemento.\n¡Que se entere todo el mundo!\n(resident name) ya está lista para darlo todísimo otra vez.",
      "EUfr": "Désolée, c'était pas la joie d'traîner\navec ma pomme l'autre fois, mais\nj'étais vraiment mal fichue...\nCoup d'bol,  m'a r'filé un remède de compète. Bilan : chuis d'nouveau au top !",
      "EUit": "L'ultima volta che ci siamo visti non\nero me stessa. Quando si è malati\nci si comporta in modo strano.\nPer fortuna  mi ha portato la medicina e ora sto bene. Dov'è la mia moto?",
      "EUnl": "Sorry dat ik de vorige keer te ziek\nwas om gezellig te zijn. Ziek zijn\nsloopt je, (catchphrase).\nMaar  heeft me een medicijn gebracht dat me enorm heeft geholpen, dus alles is in orde.",
      "EUru": "В последнее время не хотелось ни\nс кем встречаться. Болезнь\nотнимает много сил. (catchphrase)!\nНо  принес\nмне лекарство, и мне уже лучше.\nТак что все в порядке.",
      "JPja": "さっきは　具合が悪かったとはいえ、\nせっかく来てくれたのに\nろくに話せなくて　ごめんよ\nにもらった\nくすりのおかげで　良くなったから\nもう心配無用さ！　",
      "KRko": "아깐 모처럼 와줬는데\n아파서 제대로 말도 못하고\n정말 미안하다\n한테 받은\n약 덕분에 괜찮아졌으니까\n걱정은 안 해도 돼! !",
      "TWzh": "雖然說剛才身體狀況很差，\n但難得你都來了，\n卻沒聊到什麼話，真是抱歉。\n多虧送來的藥，\n我現在好多了，\n已經不用再擔心我了！。",
      "USen": "Sorry I wasn't much fun to hang out\nwith last time. Turns out bein' sick\ntakes a lot out of you, (catchphrase).\nBut  brought some\nmedicine over and I'm feelin' WAY\nbetter now, so it's all good.",
      "USes": "Perdón por andar sin pila la última\nvez que hablamos... Cuando me\nenfermo se me va toda la energía.\nPero como  me\ntrajo un medicamento, ya me siento\natómica otra vez.\n¡Que se entere todo el mundo!\n(resident name) ya está con todo.",
      "USfr": "Désolée, c'était pas super d'traîner\navec moi l'autre fois, mais j'étais\nvraiment malade...\nHeureusement,  m'a r'filé un remède de cheval. Bilan : chuis d'nouveau au top!"
    }
  },
  {
    "label": "002",
    "attribute": "0x0000000000000000",
    "locale": {
      "CNzh": "(nickname)你又来啦！\n你是不是很惊讶我已经完全康复了？\n其实，\n是给我拿来了药。\n这药效果好得惊人！\n所以啊，我现在已经没事了，\n放心吧！。",
      "EUde": "Wir haben uns vorhin doch schon\ngesehen. Oder hab ich mir das in\nmeinem Delirium eingebildet?\nJedenfalls geht's mir dank\n wieder echt töfte.\nIch könnte glatt Bäume ausreißen!",
      "EUen": "Oh, you're back! Surprised to see\nme up and kickin', (catchphrase)?\nI owe it all to the medicine that\n brought. It's got\nme ready to take on the world again!",
      "EUes": "¡¿Qué pasa, (nickname)?!\n¿Te quedas todo loco al verme\ntan a tope ahora, ?\n¡Es que  ha tenido\nel detallazo de traerme medicina!\nQué gustazo da tener colegas así, tú.\nAhora estoy más que lista para volver\na darlo todo como yo sé. ¡Ya puedes\nir contándoselo a todos, chato!",
      "EUfr": "Tiens, te r'voilà ! Non, non, t'as pas\nla berlue, j'ai d'nouveau bonne\npatte, bon œil, (expression) !\nEt ce, grâce au remède surpuissant\nque m'a r'filé  !\nJ'ai r'trouvé ma légendaire gnaque !",
      "EUit": "Ah, eccoti qui! Sei sorpreso di\nvedermi già pronta a ballare di\nnuovo fino a notte fonda?\nÈ grazie alla medicina che mi ha portato . Ora vado a festeggiare la mia guarigione!",
      "EUnl": "O, daar ben je weer! Verrast dat ik\nweer gezond en wel rondloop, (catchphrase)?\nDat heb ik te danken aan het medicijn van . Nu kan ik weer de hele wereld aan!",
      "EUru": "А вот и ты! Не ожидал увидеть\nменя в полном здравии?\n(catchphrase)!\nЭто все благодаря лекарству, что\nмне  принес.\nТеперь я горы готова свернуть!",
      "JPja": "(nickname)、また来てくれたんだ！\nウチが元気になってて　おどろいたかい？\n実は　が\nくすりを　持ってきてくれてさ\nこれが　びっくりするほど効いたんだ！\nというわけで、もう平気だから\n安心しておくれ！　",
      "KRko": "또 왔네! (nickname)!\n내가 건강해져서 놀랐냐?\n사실 이\n약을 가져다줬거든!\n깜짝 놀랄 정도로 약이 잘 듣지 뭐냐!\n그 덕분에 지금은 괜찮아졌으니까\n안심해! !",
      "TWzh": "(nickname)，你又來看我啦！\n我變得這麼有精神，嚇到你了嗎？\n其實是\n帶了藥來給我，\n而且這藥效真的是非常驚人！\n所以說我已經沒事了，\n你大可放心！。",
      "USen": "Oh, you're back! Surprised to see\nme up and kickin', (catchphrase)?\nI owe it all to the medicine that\n brought. It's got\nme ready to take on the world again!",
      "USes": "¡¿Qué pasa, (nickname)?!\n¿Te sorprende verme toda atómica\nahora, (catchphrase)?\n¡Es que  vino\na dejarme un medicamento!\nQué gustazo da tener compis así, tú.\n¡Ya puedo seguir pasándola chévere!",
      "USfr": "Tiens, te r'voilà! Non, non, t'as pas\nla berlue, j'ai d'nouveau bonne\npatte, bon œil, (expression)!\nEt ce, grâce au remède surpuissant\nque m'a r'filé !\nJ'ai r'trouvé ma forme légendaire!"
    }
  },
  {
    "label": "003",
    "attribute": "0x0000000000000000",
    "locale": {
      "CNzh": "上次，谢谢你\n特意来我家看我！\n那时候我身体不好，\n没能好好招待你，不好意思啊！\n不过，之后\n给我拿来了药！\n多亏了那药，我已经彻底康复啦！。",
      "EUde": "Ich weiß, ich weiß. Ich war letztens\necht butterblumig unterwegs.\nAber is' halt so, wenn man krank is'.\nWäre  nich' mit 'ner Schippe Medizin angetanzt, wär ich wohl immer noch... unpässlich.\nJetzt geh ich aber wieder ab wie\nBrause, (Floskel)!",
      "EUen": "Yo, thanks so much for stopping by\nmy place the other day. That meant\na lot to me.\nSorry I was kind of a drag to be\naround, but that's life when you're\nsick, (catchphrase).\nThe good news is, \nbrought me some medicine. My\nspirits are higher than ever!",
      "EUes": "Aún no te he dado las gracias por\nhacerme una visitilla el otro día.\n¡Me dio un subidón que no veas!\nY eso que no estaba en mi mejor\nmomento, ¿eh? ¡No veas qué rabia\nme da no ir al 200 %, !\nMenos mal que \nse enrolló y me trajo medicina.\nCon colegas así, ¡da gusto!\nEl caso es que ya vuelvo a estar\nmotivadísima... ¡y estoy pensando\nen montar un fiestón para celebrarlo!",
      "EUfr": "Hé, merci de t'être radiné dans ma\nturne l'autre fois. Ça m'a mis du\nbaume au palpitant, .\nEt désolée si j'avais pas la gnaque\ndes grands jours, mais c'est comme\nça quand on est mal fichu.\nHeureusement,  m'a amené un remède miracle, et j'ai d'nouveau l'moral dans la casquette !",
      "EUit": "Lo so, l'ultima volta ero intrattabile.\nSuccede, soprattutto quando si è\nmalati, .\nPer fortuna  mi ha dato la medicina. Finalmente posso essere di nuovo me stessa!",
      "EUnl": "Hoi, bedankt dat je laatst bent komen\nkijken hoe het met me ging. Dat\nwaardeerde ik enorm.\nSorry dat ik niet zo gezellig was,\nmaar zo gaat dat als je ziek bent,\n.\nGelukkig heeft  me een medicijn gebracht. Ik voel me beter dan ooit!",
      "EUru": "Спасибо, что ты меня на днях\nпроведал. Я тебе за это очень\nблагодарна.\nИзвини, что я была такой занудой:\nболеть, знаешь ли, несладко.\n.\nХорошо, что \nпринес мне лекарство. Теперь\nя как новенькая!",
      "JPja": "こないだは　家まで来てくれて\nありがとうね！\nあんときゃ、ウチが　体を壊してたせいで\nもてなしてやれなくて　悪かったよ\nあのあと　が\nくすり　持ってきてくれたんだ！\nおかげで、もうすっかり元気さ！　",
      "KRko": "저번엔 집까지 찾아와줘서\n정말 고마웠어!\n그땐 내가 병이 나는 바람에\n제대로 접대도 못 해줘서 미안...\n네가 가고 나서 이\n약을 가져다줬거든! 그 덕분에\n지금은 이렇게 건강해졌어! !",
      "TWzh": "上次謝謝你\n來我家探病！\n那時候我因為把身子搞壞了，\n沒辦法招待你，真是不好意思。\n後來\n有帶了藥來給我吃！\n多虧這樣，我已經恢復精神了！。",
      "USen": "Yo, thanks so much for stopping by\nmy place the other day. That meant\na lot to me.\nSorry I was kind of a drag to be\naround, but that's life when you're\nsick, (catchphrase).\nThe good news is, \nbrought me some medicine. My\nspirits are higher than ever!",
      "USes": "Qué chévere que pasaste a visitarme\nel otro día. ¡Se me recargaron las\npilas!\nPudiste ver que traía una pinta\nhorrorosa... Pero \nme dio un medicamento.\n¡Da gusto tener compis así!",
      "USfr": "Hé, merci de t'être pointé dans ma\npiaule l'autre fois. Ça m'a mis du\nbaume au palpitant, .\nEt désolée si j'avais pas la forme\ndes grands jours, mais c'est comme\nça quand on est mal fichu.\nHeureusement,  m'a amené un remède miracle, et j'ai d'nouveau l'moral dans la casquette!"
    }
  },
  {
    "label": "004",
    "attribute": "0x0000000000000000",
    "locale": {
      "CNzh": "对了对了！\n之前我生病的时候，谢谢你来探望我！\n你来过之后，给我带了\n服用后药效立竿见影的药！\n所以你看，我已经满血复活啦！。",
      "EUde": "Also, dass du letztens vorbeige-\nschaut hast, als es mir so dreckig\nging, rechne ich dir hoch an.\nHab mich dann schließlich doch\nnoch dazu durchgerungen, ein paar\nMedikamente zu nehmen.\n war   und hat mir ausgeholfen.",
      "EUen": "Hey, I wanted to say it was cool of\nyou to stop in and check on me the\nother day, (catchphrase).\nAfterward, I took some medicine that\n brought me, so\nnow I'm back in business!",
      "EUes": "Por cierto, simpático... ¡Gracias por\npasarte a ver cómo estaba!\nAl final  tuvo\nel detallazo de traerme medicina\ny con eso me curé en un pispás.\nAhora quiero que se entere bien\ntodo el mundo: ¡ya estoy sana\ny lista para partir la pana!",
      "EUfr": "J'voulais t'remercier d'avoir passé\nune tête dans ma piaule l'autre\nfois, c'était sympa.\nDepuis,  m'a r'filé un remède maousse... et chuis à nouveau sur pattes,  !",
      "EUit": "Beh, eh... grazie per la visita\ndell'altro giorno, (catchphrase).\nAlla fine,  mi ha dato una medicina e ora sono pronta per andare a una festa!",
      "EUnl": "Hoi, ik wilde zeggen dat het aardig\nvan je was dat je langskwam om te\nzien hoe het met me ging.\nNa je bezoek heb ik een medicijn genomen dat  voor me mee had gebracht.\nIk kan er weer tegenaan!",
      "EUru": "Хотела сказать тебе спасибо за то,\nчто ты заглянул меня проведать.\n(catchphrase)!\n зашел после\nэтого и принес мне лекарство.\nИ вот я снова как новенькая.",
      "JPja": "そうそう、こないだは\nお見舞いに来てくれて　ありがとうね！\nあのあと　にもらった\nくすりが　テキメンに効いてね\nこの通り、完全復活さ！　",
      "KRko": "아 참, 그렇지!\n저번에 병문안 와줘서 고맙다!\n네가 가고 나서 한테\n받은 약 효과가 바로 나타난 덕분에\n보다시피 싹 다 나았어! !",
      "TWzh": "對了對了，\n上次謝謝你來探病！\n在那之後，\n送來的藥真是藥到病除，\n正如你所見，我已經完全康復啦！。",
      "USen": "Hey, I wanted to say it was cool of\nyou to stop in and check on me the\nother day, (catchphrase).\nAfterward, I took some medicine that\n brought me, so\nnow I'm back in business!",
      "USes": "Por cierto... ¡Gracias por pasar a ver\ncómo estaba!\nResulta que  tuvo\nel detallazo de traerme medicamento\ny con eso me curé rapidísimo.\n¡Y ahora estoy como nueva!",
      "USfr": "J'voulais t'remercier d'avoir passé\nune tête dans ma piaule l'autre\nfois, c'était sympa.\nDepuis,  m'a r'filé un remède de cheval... et chuis à nouveau sur pattes, !"
    }
  },
  {
    "label": "005",
    "attribute": "0x0000000000000000",
    "locale": {
      "CNzh": "其实我感冒了，\n直到刚才我还有点头晕眼花呢。\n不过多亏了拿来的药，\n现在好多了，\n如果没有这药，我可就惨了……\n你也要保重身体啊！。",
      "EUde": "Gnah, ich war dermaßen krank...\nBei dem Fieber, das ich hatte, hab\nich ordentlich Heizkosten gespart...\nNur gut, dass mir \n'ne Büchse Medizin untergejubelt\nhatte, (Floskel).\nSonst würd ich jetzt noch meine\nMatratze durchliegen. Lern draus\nund werd erst gar nich' krank!",
      "EUen": "Ugh, I've been sick like you wouldn't\nbelieve. You coulda cooked an egg\non me up till a while ago.\nThe medicine  got\nme is helping a lot though. I'd still\nbe zonked out without it.\nDon't be like me, (catchphrase).\nIf you ever feel sick, do somethin'\nabout it first thing.",
      "EUes": "Ay, no sabes lo malita que\nhe estado... ¡pensé que ya no\npodría salir de fiesta nunca más!\nSi no llega a ser por mi coleguilla , que me trajo medicina de la buena, ¡a saber!\nEl caso es que ahora estoy más\nmotivada que nunca y quiero que se\nentere toda la peña. ¡Voy a tope!",
      "EUfr": "Pff, j'étais malade comme jamais.\nUne fièvre à pouvoir cuire un œuf\nsur ma caboche.\nPis  a ramené sa poire avec un remède de maboul et ça m'a r'filé un bon coup d'fouet.\nSans ça, j'serais encore en train\nd'gémir sur l'polochon, en mode\n« pitié, achevez-moiiiii ».\nMoralité : fais pas comme moi à\nattendre qu'on vienne t'aider... Si\nt'es patraque, réagis du tac-au-tac !",
      "EUit": "Sono stata malissimo, oggi.\nAvrei potuto cuocere delle uova\nsulla fronte, qualche ora fa.\nPer fortuna  ha provveduto alla medicina, altrimenti sarei ancora delirante.\nNon fare come me. Vai a letto\npresto e bevi tante tisane calde\nai primi sintomi di raffreddore!",
      "EUnl": "Pfff, ik was zo ziek als een... als iets\nwat ziek is. Je had een eitje op me\nkunnen bakken, zo'n hoge koorts.\nHet medicijn dat  me gaf, hielp een heel stuk. Anders zou ik nog steeds in bed liggen.\nDoe niet net als ik, . Bij de eerste tekenen van ziekte moet je er meteen wat aan doen.",
      "EUru": "Ой, ты не представляешь, как\nсильно я болела. У меня был такой\nжар — хоть яичницу жарь.\nНо  мне помог\nсвоим лекарством. Если бы не он,\nя бы все еще лежала пластом.\nНе делай как я. .\nЕсли плохо себя чувствуешь,\nлечись сразу.",
      "JPja": "実は　カゼひいちゃってさぁ\nさっきまで　クラクラしてたんだ\nにもらった\nくすりのおかげで　楽になったけど、\nそれがなかったら　ヤバかったよ・・・\nアンタも　体には気をつけな！　",
      "KRko": "실은 감기에 걸려서 말이야...\n아까까지만 해도 어지러워 죽는 줄 알았어\n한테 받은\n약 덕분에 많이 괜찮아졌지만\n그게 없었더라면 쓰러졌을지도 몰라...\n너도 감기 조심해라! !",
      "TWzh": "其實我得了感冒，\n直到剛剛都還昏昏沉沉的。\n多虧帶了藥來給我，\n我才舒服多了。\n要不是這樣，恐怕會更難過吧……\n你也要保重身體喔！。",
      "USen": "Ugh, I've been sick like you wouldn't\nbelieve. You coulda cooked an egg\non me up till a while ago.\nThe medicine  got\nme is helping a lot though. I'd still\nbe zonked out without it.\nDon't be like me, (catchphrase).\nIf you ever feel sick, do somethin'\nabout it first thing.",
      "USes": "Ay, no sabes lo mal que me puse... ¡pensé que ya no podría salir de\nfiesta nunca de los nuncas!\nDe no ser por , que me trajo un medicamento,\n¡ve tú a saber cómo seguiría!\n¡El caso es que quedé reluciente\ncomo moto recién salida del taller!",
      "USfr": "Pff, j'étais malade comme jamais.\nUne fièvre à pouvoir cuire un œuf\nsur ma caboche.\nPis  m'a donné un remède de malade et ça m'a r'filé un bon coup d'fouet.\nSans ça, j'serais encore en train\nd'gémir su'l'polochon, en mode\n« pitié, achevez-moiiiii ».\nMoralité : fais pas comme moi à\nattendre qu'on vienne t'aider... Si\nt'es patraque, réagis du tac au tac!"
    }
  },
  {
    "label": "006",
    "attribute": "0x0000000000000000",
    "locale": {
      "CNzh": "今天，我早上起来就不太舒服。\n不过，多亏了的药，\n我已经好多了。\n我一直以为自己不会生病的，\n果然还是不能掉以轻心啊。。\n你也要注意，不要露着肚子睡觉哦！\n别像我一样……",
      "EUde": "Ich war heut den ganzen Tag so\nplatt, dass es mir fast meine\nimaginäre Zipfelmütze verbogen hat.\n kam mit 'nem Eimer Medis vorbei, dann war auch alles wieder stabil.\nFit wie ein Ballettschuh sogar, wenn\nich das beschreiben müsste, (Floskel)...\nMein Tipp, um so was zu vermeiden:\nNach der Gartenarbeit brav die\nPatschehändchen entvirifizieren.",
      "EUen": "I was feelin' gross all day until\n showed up with\nsome medicine. Now I'm way better.\nGuess everyone's gotta get sick\nsometime, but I could probably stand\nto be better about some stuff.\nLike...washing my hands after doin'\nmy gardening...or not eatin' food I've\nhad for more than two years...",
      "EUes": "He estado enferma a saco, ¿sabes?\nMenos mal que  se portó y me trajo medicina, tú.\n¡Ahora ya estoy atómica otra vez!\nA las chicas duras como yo no hay\nenfermedad que nos pare. ¡Ji, ji, ji!",
      "EUfr": "J'avais la caboche en feu depuis\nc'matin, pis  m'a filé un remède et là... ça va mieux.\nÇa arrive à tout l'monde d'être mal\nfichu, mais quand même, j'me dis\nque j'pourrais faire quelques efforts.\nGenre, m'laver les pattes après une\nséance de jardinage intensif, ou bien\narrêter la becquetance périmée...",
      "EUit": "Sono stata male tutto il giorno, finché  non ha portato la medicina. Ora sto meglio.\nMi chiedo solo cosa mi abbia fatta\nammalare tanto...\nSaranno stati i peperoni ripieni con\nil baccalà o la frittata di ceci che\navevo in frigo da una settimana?",
      "EUnl": "Ik voelde me de hele dag lamlendig tot  langskwam met een medicijn. Nu gaat het beter.\nIedereen wordt natuurlijk weleens\nziek, maar ik kan vast wel wat doen\nom het te voorkomen.\nZoals... mijn handen wassen nadat ik\nin de tuin heb gewerkt... en niets\neten wat een jaar over de datum is...",
      "EUru": "Я плохо себя чувствовала, пока\n не принес мне\nлекарство. Теперь мне уже лучше.\nОт болезни никто не застрахован,\nно все же мне стоит больше следить\nза своим здоровьем.\nНапример... мыть руки после\nработы в цветнике... или не есть\nеду годичной давности...",
      "JPja": "今日は朝から　具合が悪かったんだ\nでも　がくれた\nくすりのおかげで　もう良くなったよ\n病気には　縁がないほうだったけど\nやっぱ　油断したらダメだねぇ、\nアンタも　おなか出して寝るんじゃないよ！\nウチみたいに",
      "KRko": "오늘은 아침부터 몸이 안 좋았거든\n그래도 한테 받은\n약 덕분에 지금은 괜찮아졌어\n원래 병에 잘 안 걸리는 체질이라서\n방심하고 있다가 그만... ...\n너도 잘 때 이불 안 덮고 자면 감기 걸린다!\n나처럼...",
      "TWzh": "其實我今天一大早身體狀況就很糟……\n不過多虧帶了藥給我，\n現在已經好多了！\n我原本應該是不太會生病的體質，\n但看來還是大意不得呢，。\n你睡覺的時候，可別露出肚子啊！\n我就是這樣感冒的。",
      "USen": "I was feelin' gross all day until\n showed up with\nsome medicine. Now I'm way better.\nGuess everyone's gotta get sick\nsometime, but I could probably stand\nto be better about some stuff.\nLike...washing my hands after doin'\nmy gardening...or not eatin' food I've\nhad for more than two years...",
      "USes": "He estado enfermísima, tú. Menos mal que  se vio buena onda y me trajo medicamento.\n¡Ahora traigo la pila al 100!\n¡No hay enfermedad que pare\na las chicas rudas como yo!",
      "USfr": "J'avais la caboche en feu depuis\nc'matin, pis  m'a filé un remède et là... ça va mieux.\nÇa arrive à tout l'monde d'être mal\nfichu, mais quand même, j'me dis\nque j'pourrais faire quelques efforts.\nGenre, m'laver les pattes après une\nséance de jardinage intensif, ou bien\narrêter la boustifaille périmée..."
    }
  },
  {
    "label": "007",
    "attribute": "0x0000000000000000",
    "locale": {
      "CNzh": "说件有点丢脸的事，\n其实，前段时间我感冒了。\n还好给我送来了药，\n这才很快就康复了。\n如果没有那个药的话，我可能就惨了……\n你也要注意身体健康啊！。",
      "EUde": "Boah, du hattest das zum Glück ja\ngar nich' mitbekommen, aber mir\nging's letztens echt unterwettrig.\nWäre  nich' mit\n'ner Ladung Medis ums Eck gekom-\nmen, würde ich noch dahinsiechen...\nJetzt bin ich aber wieder hammer-\nhart am Durchstarten. So wie immer\neben, (Floskel)!",
      "EUen": "I hate to admit it, but I was sick as\nit gets the other day.\nI'd still be out of it without the\nmedicine  hooked\nme up with, (catchphrase).\nI go pretty hard all day, every day...\nbut I gotta remember to slow it down\nsometimes too.",
      "EUes": "Que quede entre tú y yo, pero...\nhace poco estuve enferma no,\nlo siguiente. ¡Como te lo cuento!\nSi no fuese por ,\nlo mismo ni estaba aquí ahora\ncharlando contigo tan pancha.\nMe trajo una medicina que me curó\nen un pispás, ¡y ahora ya puedo ir\na piñón otra vez, !\nEs posible que me haya puesto mala\npor andar tanto de farra... ¡pero no\npuedo renunciar a mi vena fiestera!",
      "EUfr": "Ça sert à rien d'se voiler la face :\nj'faisais pitié l'autre fois, à faire la\ngrimace dans mon plumard.\nD'ailleurs, je chouinerais encore sur\nl'édredon, sans  et son remède de compétition.\nÇa m'pendait au pif à force de vivre\nà cent à l'heure. Faut qu'je pense à\nlever la patte de temps en temps.",
      "EUit": "Devo ammetterlo: me la sono\nvista brutta, stavolta.\nSarei ancora malata se non fosse per la medicina che mi ha dato .\nForse non ho più l'età per fare\nbaldoria tutta la notte, .",
      "EUnl": "Ik zeg het niet graag, maar ik was\nlaatst zo ziek.\nAls  me geen medicijn had gebracht, zou ik nog even beroerd zijn, (catchphrase).\nIk geef iedere dag honderd procent...\nmaar ik moet er ook aan denken om\nhet soms wat rustiger aan te doen.",
      "EUru": "Стыдно сказать, но на днях меня\nвыворачивало наизнанку.\nЕсли бы не  со\nсвоим лекарством, я бы все еще\nмучилась. (catchphrase)!\nЯ каждый день пашу как лошадь...\nНо иногда стоит поберечь себя.",
      "JPja": "みっともない話なんだけど、\n実は　こないだ　カゼひいちゃってさ\nにもらった\nくすりのおかげで　すぐに治ったけど、\nそれがなかったら　ヤバかったよ・・・\nアンタも　体には気をつけな！　",
      "KRko": "한심한 소리지만\n실은 저번에 감기에 걸렸었거든...\n한테 받은\n약 덕분에 금방 나았지만\n그게 없었더라면 쓰러졌을지도 몰라...\n너도 감기 조심해라! !",
      "TWzh": "雖然說起來很不好意思，\n但我前陣子其實得了感冒……\n多虧有給我藥，\n所以我很快就好了，\n要不是這樣，恐怕就難過了……\n你也要保重身體喔！",
      "USen": "I hate to admit it, but I was sick as\nit gets the other day.\nI'd still be out of it without the\nmedicine  hooked\nme up with, (catchphrase).\nI go pretty hard all day, every day...\nbut I gotta remember to slow it down\nsometimes too.",
      "USes": "Yo sé que siempre me veo fuerte\ncomo un roble... pero voy saliendo\nde un condenado catarro.\nSi no fuese por ,\ntal vez no estaría aquí tan campante\nhablando contigo.\nResulta que me dio un medicamento\nque me dejó como nueva.",
      "USfr": "Ça sert à rien d'se voiler la face :\nj'faisais pitié l'autre fois, à faire la\ngrimace dans mon plumard.\nJ'serais encore à chialer sur\nl'édredon, sans  et son remède de compétition.\nÇa m'pendait au nez à force de vivre\nà cent à l'heure. Faut qu'je pense à\nlever la patte de temps en temps."
    }
  },
  {
    "label": "008",
    "attribute": "0x0000000000000000",
    "locale": {
      "CNzh": "说来，前段时间我发烧了。\n多亏了的药，\n很快就康复了。\n我基本不怎么生病的，\n但看来也不能掉以轻心啊。。\n你也要注意，不要露着肚子睡觉哦！\n别像我一样……",
      "EUde": "Letztens ging's mir echt grottig.\nHatte sogar Fieber und so... Aber\nmach dir mal um mich keinen Kopf.\nMit der Medizin, die mir  gegeben hatte, war ich im Nullkommanix wieder fit.\nUnd die Moral von der Geschichte?\nNich' mit offenem Fenster pennen.\nSonst riskierste, bettlägrig zu werden, so wie ich.",
      "EUen": "I had a bad fever the other day. Don't\nworry,  fixed me\nup with some medicine, but woof!\nI gotta take better care of myself...\nFrom now on, I'm gonna wear a face\nmask when I work on my bike!\nThose fumes probably weren't doin'\nme any favors, huh, (catchphrase)?",
      "EUes": "¿Sabías que  se\nmerece un monumento?\nEl otro día estaba malísima en casa\ny allí se plantó con una medicina.\n¡Si es que es un amorzote!\nSupongo que trasnochar durante\ntres días seguidos te pasa factura...\n¡pero no hacerlo es de cobardes!",
      "EUfr": "J'avais une fièvre à vous faire bouillir\nles tifs l'autre fois. Mais t'inquiète,\nchuis d'nouveau sur pattes.\nC'est grâce à  qui m'a filé un remède à flanquer le plus fourbasse des microbes au tapis.\nQuand même, faut qu'j'pense à faire\nplus gaffe... La bécane en t-shirt\nsous la pluie battante, c'est fini !",
      "EUit": "L'altro giorno ho avuto un febbrone, ma  mi ha portato la medicina e ne sono uscita.\nDevo stare più attenta alla salute...\nD'ora in poi, metterò una bandana\nal collo quando vado in moto!",
      "EUnl": "Ik heb pas koorts gehad. Geen zorgen,  heeft me er met medicijnen bovenop geholpen.\nIk moet beter voor mezelf zorgen...\nVanaf nu draag ik een mondkapje als\nik aan mijn motor sleutel!\nBedenk maar wat je anders allemaal\ninademt, (catchphrase)!",
      "EUru": "На днях у меня был жар. Не\nволнуйся, \nдал мне лекарство.\nМне нужно следить за своим\nздоровьем... Впредь буду всегда\nшапку носить!\nА то ведь так недолго и уши\nотморозить. (catchphrase)!",
      "JPja": "そういや　こないだ　熱が出たんだよ\nにもらった\nくすりのおかげで　すぐに治ったけどさ\n病気には　縁がないほうだったけど、\nやっぱ　油断したらダメだねぇ、\nアンタも　お腹出して寝るんじゃないよ！\nウチみたいに",
      "KRko": "그러고 보니 저번에 열이 났었거든\n한테 받은\n약 덕분에 금방 나았지만 말이야...\n원래 병에 잘 안 걸리는 체질이라서\n방심하고 있다가 그만... ...\n너도 잘 때 이불 안 덮고 자면 감기 걸린다!\n나처럼...",
      "TWzh": "對了，其實我前陣子發燒啦。\n多虧帶了藥給我，\n所以我很快就好了。\n我原本是不太會生病的體質，\n但看來還是大意不得呢，。\n你睡覺的時候，可別露出肚子啊！\n我就是這樣感冒的。",
      "USen": "I had a bad fever the other day. Don't\nworry,  fixed me\nup with some medicine, but woof!\nI gotta take better care of myself...\nFrom now on, I'm gonna wear a face\nmask when I work on my bike!\nThose fumes probably weren't doin'\nme any favors, huh, (catchphrase)?",
      "USes": "¿Sabías que  se\nmerece un monumento?\nEl otro día estaba malísima en casa\ny fue a dejarme un medicamento.\n¡Es bien chévere!\nOdio admitirlo, pero mi mamá tenía\nrazón al decirme que siempre debo\nde llevar un suéter...",
      "USfr": "J'avais une fièvre à vous faire bouillir\nles larmes l'aut' fois. Mais t'inquiète,\nchuis d'nouveau sur pattes.\nC'est grâce à  qui m'a donné un remède à flanquer le plus fourbe des microbes au tapis.\nQuand même, faut qu'j'pense à faire\nattention... La bécane en chandail\nsous la pluie battante, c'est fini!"
    }
  },
  {
    "label": "101",
    "attribute": "0x0000000000000000",
    "locale": {
      "CNzh": "我没有买药，\n多亏了你给我送来！\n其实，我正好头很晕，\n非常难受……\n你就是我的救命恩人！。",
      "EUde": "So elendig hatte ich mich selten\ngefühlt. Jemand nich' so Knallhartes\nhätte das sicher nich' überlebt.",
      "EUen": "That medicine you brought me saved\nmy biscuits for real, (catchphrase).\nI was dizzy even lyin' down\nfor a while there. I owe you big\ntime, (nickname).",
      "EUes": "¡La medicina esa me ha dejado\ncomo nueva! Ya sabía yo que tú\ncontrolabas del tema, simpático.\nPues nada, te debo una. ¡O dos o\ntres! Un día de estos monto un\njolgorio en tu honor, ¡palabrita!",
      "EUfr": "Hé, le remède que tu m'as ram'né, c'était pas  , (expression).\nSans toi, j'serais encore clouée\nau plumard ! J'te dois une fière\nchandelle, (surnom).",
      "EUit": "La medicina che mi hai dato mi\nha fatta tornare al mondo.\nMi girava talmente la testa che\nnon ti avevo neanche riconosciuto\nquando me l'hai portata.\nPerò adesso ti riconosco. Quindi\nsuppongo di doverti ringraziare,\n(nickname).",
      "EUnl": "Hé, dat medicijn van je heeft echt\nmijn hachje gered, (catchphrase).\nIk was zo duizelig dat ik compleet\nvan de wereld was. Ik sta bij je in het\nkrijt, (nickname).",
      "EUru": "Твое лекарство спасло меня.\n(catchphrase)!\nВокруг все плыло, даже когда\nя лежала в постели. Я у тебя\nв долгу, (nickname).",
      "JPja": "くすり　買ってなかったから、\n持ってきてくれて　ホント助かったよ！\n実は　クラクラしてて\nけっこう　ヤバかったんだ・・・\nアンタは　命の恩人だね！　",
      "KRko": "약이 없어서 곤란하던 참인데\n이렇게 가져와줘서 정말 고맙다!\n실은, 어질어질해서\n쓰러지기 일보 직전이었어...\n넌 내 생명의 은인이야! !",
      "TWzh": "因為我家裡沒有準備藥，\n所以你帶來給我，真的是幫了大忙！\n其實我一直昏昏沉沉的，\n狀況真的很糟……\n你真是我的救命恩人啊！。",
      "USen": "That medicine you brought me saved\nmy biscuits for real, (catchphrase).\nI was dizzy even lyin' down\nfor a while there. I owe you big\ntime, (nickname).",
      "USes": "¡El medicamento ese que me trajiste\nme dejó como nueva, (catchphrase)!\nTe debo una. ¡O dos o tres! Un día\nde estos hago una fiesta en tu honor,\npunto.",
      "USfr": "Hé, le remède que tu m'as ram'né, c'était pas  , (expression).\nSans toi, j'serais encore clouée\nau lit! J'te dois une fière\nchandelle, (surnom)."
    }
  },
  {
    "label": "102",
    "attribute": "0x0000000000000000",
    "locale": {
      "CNzh": "其实啊～\n我没有备药的习惯。\n所以本来是打算靠意志力来治病的，\n但说实话，我还是有点担心的。\n嘿嘿……真的谢谢你！。",
      "EUde": "Hmm... Vielleicht wäre es gar nich'\nmal so unklug, mir 'nen ordentlichen\nMedikamentenvorrat anzuschaffen.\nIch sach dir, Gänseblümchen.\nLern aus meinen Fehlern und mach\nmir nich' immer alles nach.\nGahaha! Außer natürlich,\nich mach's beim nächsten\nMal besser, (Floskel)!",
      "EUen": "Yeeaah...maybe I oughta start a\nmedicine stockpile at home.\nI thought I could like...WILL myself\nto get better. Turns out it doesn't\nwork like that.\nAnyway, thanks, (catchphrase).",
      "EUes": "Normalmente me resisto a tomar\nmedicinas, porque creo que las\nchicas duras no las necesitamos...\n¡Pero es que esta vez me\nhan salvado la vida! Ahora me\nlo estoy replanteando todo, tú.\nBueno, supongo que mientras tenga\ncoleguillas tan enrollados como tú,\n¡puedo despreocuparme del tema!",
      "EUfr": "J'ai bien gambergé, et j'crois que\nj'devrais garder quelques remèdes\nen réserve dans mon placard.\nFaut croire qu'ma volonté d'acier\nsuffit pas à éradiquer les microbes.\nC'est tenace, ces bêtes-là !\nEn tout cas, j'ferais moins la fière\nsi tu m'avais pas sortie d'cette\npanade. Merci encore, (expression) !",
      "EUit": "Uhm... forse dovrei considerare\nseriamente l'idea di comprare\nqualche medicina da tenere in casa?\nCredevo di poter guarire con...\nla sola forza di volontà, ma non\nha funzionato.\nVuoi insinuare che sto invecchiando?\nAh no... avevo sentito male! Dicevi\nche ho avuto una buona idea!\nBeh, allora grazie, (catchphrase).",
      "EUnl": "Hmm... Misschien moet ik maar vast\nwat medicijnen inslaan?\nIk dacht dat als ik het maar genoeg\nwilde, ik vanzelf beter zou worden.\nMaar nee, hoor, dat werkt voor geen\nmeter. Ik begon me al zorgen te\nmaken...\nHaha... Ha. In elk geval bedankt,\n(catchphrase)!",
      "EUru": "Да уж... Может, завести дома\nаптечку с лекарством?\nЯ хотела вылечиться... усилием\nволи. Но одного хотения\nоказалось мало.\nЛадно, спасибо тебе. (catchphrase)!",
      "JPja": "いや～　実はウチ、\nくすりの買い置きとか　してなくてさ\n気合いで治すつもりだったけど、\n正直　ちょっとだけ不安だったんだ\nへへ・・・　ホントありがとね！　",
      "KRko": "이야～ 사실은 집에\n약 같은 걸 안 사 놓거든\n정신력으로 버텨보려고 했는데\n솔직히 조금 불안했었어\n헤헤... 정말 고마워! !",
      "TWzh": "哎呀～其實我家裡\n沒有常備的藥呢。\n原本還打算靠氣勢來跟病魔對抗，\n但老實說，我也稍微有點不安呢。\n嘿嘿……真的很謝謝你！。",
      "USen": "Yeeaah...maybe I oughta start a\nmedicine stockpile at home.\nI thought I could like...WILL myself\nto get better. Turns out it doesn't\nwork like that.\nAnyway, thanks, (catchphrase).",
      "USes": "Normalmente me resisto a tomar\nmedicamentos, porque creo que las\nchicas rudas no los necesitamos...\n¡Pero es que esta vez me salvaron\nla vida! Bueno, tampoco era para\ntanto, solo era un resfriado.\nPero te juro que jamás me había\nsentido tan mal, tú. Total, ya pasó\ny te lo agradezco.",
      "USfr": "J'ai bien gambergé, et j'crois que\nj'devrais garder quelques remèdes\nen réserve dans mon placard.\nFaut croire qu'ma volonté d'acier\nsuffit pas à éradiquer les microbes.\nC'est tenace, ces bêtes-là!\nEn tout cas, j'ferais moins la fière\nsi tu m'avais pas sortie d'cette\npanade. Merci encore, (expression)!"
    }
  },
  {
    "label": "103",
    "attribute": "0x0000000000000000",
    "locale": {
      "CNzh": "俗话说得好，病从心上起。\n我以为只要有强大的意志力，病就会好的。\n看来，还是尽快吃药，\n赶紧治好病最实际。。",
      "EUde": "Ich war echt so derb krank – ich\nhab quasi die Tapeten von der Wand\ngehustet... Also, danke noch mal.\nBist mein Fels in der Brandung in\n'nem Ozean voller Butterblumen,\n(Floskel). Ehrlich wahr!",
      "EUen": "I figured bein' sick was all in the\nmind, right? So if I concentrated\non getting better, it'd go away.\nWell, that was pretty dumb\nof me. I just needed some\nmedicine, (catchphrase).",
      "EUes": "Qué movida, tú... Siempre había\npensado que estar enferma era\ntodo psicológico.\nHasta ahora, me convencía de que\nestaba sana y al rato ya me sentía\natómica del todo.\nPero esta vez, si no llega a ser por\nesa medicina, ¡no me habría\ncurado ni de palo!\nA partir de ahora me tomaré estas\nmovidas más en serio, majetón.\n¡Pero no lo vayas diciendo por ahí!\nTengo una reputación que mantener,\n¿sabes, ?",
      "EUfr": "J'avais beau m'concentrer à fond,\nces saletés d'microbes voulaient\npas faire leurs valoches !\nMais le remède que tu m'as ramené\nles a renvoyés dans leurs pénates.\n(surnom) 1 - Microbes 0 !",
      "EUit": "Pensavo che si potesse guarire con\nil potere della mente... Allora mi sono\nconcentrata con tutte le mie forze.\nE ora so perché si dice \"spremere le\nmeningi\"... Mi sono sentita come un\nlimone spremuto, non lo farò mai più!\nLa prossima volta prenderò subito\nuna medicina.",
      "EUnl": "Ik dacht dat ziek zijn tussen je oren\nzat. En dat als ik me genoeg zou\nconcentreren, het weg zou gaan.\nMaar nu weet ik hoe dom dat was en\ndat ik gewoon een medicijn nodig\nhad, (catchphrase).",
      "EUru": "Я думала, что моя болезнь — это\nслабость воли, поэтому я изо всех\nсил старалась выздороветь.\nНо теперь я понимаю, что это было\nглупо и мне нужно было принять\nлекарство. (catchphrase)!",
      "JPja": "病は気からって言うし\n気合いで吹っ飛ばせると　思ってたんだけど\nやっぱ、くすり飲んで　さっさと治すのが\n一番なのかもねぇ、",
      "KRko": "병은 마음에서 온다고들 하니까\n정신력으로 극복할 수 있을 줄 알았거든\n하지만 역시 약 먹고 빨리 낫는 게\n제일 좋은 것 같아, ...",
      "TWzh": "有句俗話說「病由心生」，\n所以我還以為病症只要靠幹勁就能趕跑了。\n看來還是盡早吃藥盡早痊癒\n才是最好的吧，。",
      "USen": "I figured bein' sick was all in the\nmind, right? So if I concentrated\non getting better, it'd go away.\nWell, that was pretty dumb\nof me. I just needed some\nmedicine, (catchphrase).",
      "USes": "Siempre había pensado que\nenfermarse era un mito.\nPero resulta que me enfermé...\nY de no ser por ese medicamento, ¡seguiría arrastrándome en mi casa!\nA partir de ahora me tomaré estas\ncosas más en serio.\n¡Pero no lo vayas diciendo por ahí!\nTengo una reputación que mantener,\n¿eh, (catchphrase)?",
      "USfr": "J'avais beau m'concentrer à fond,\nces saletés d'microbes voulaient\npas déguerpir!\nMais le remède que tu m'as ramené\nles a renvoyés d'où ils venaient.\n(surnom) 1 - Microbes 0!"
    }
  }
]