﻿[
  {
    "label": "100",
    "attribute": "0x0000000000000000",
    "locale": {
      "CNzh": "啊！抱歉！\n我现在正在\n和比赛呢！\n对不起啊，有什么待会儿再聊！。",
      "EUde": "Bin gerade schwerst damit\nbeschäftigt,  bei\n'ner Schatzsuche abzuziehen.\nLass uns doch einfach später\nquatschen, okay? Dann haste auch\nmeine ungeteilte Aufmerksamkeit.",
      "EUen": "Actually, I'm right in the middle of\nsomethin' with \nright now.\nI'll catch up with you later.\nAlright, (catchphrase)?",
      "EUes": "¿Ein? Me pillas liadísima haciendo\nuna cosa con , tú.\n¡Hale, ya charlaremos en\notro ratejo, !",
      "EUfr": "Alors en fait, chuis en train d'bricoler\nun truc avec ...\nOn papote plus tard, OK ?",
      "EUit": "Ora sono nel bel mezzo di una caccia al tesoro con . Parliamo più tardi, OK?",
      "EUnl": "Eigenlijk zijn  en ik al met iets anders bezig.\nWe kletsen later wel bij, goed?",
      "EUru": "Честно говоря, сейчас я занята.\n и я играем.\nЯ с тобой позже поговорю,\nладно?",
      "JPja": "あっと　ごめんよ、\n今は　と\n真剣勝負してるトコなんだ！\n悪いけど　あとで話そう、",
      "KRko": "앗, 이걸 어쩌냐\n지금은 하고\n불꽃 튀는 대결을 벌이고 있거든!\n미안한데 나중에 이야기하자! !",
      "TWzh": "哎唷，抱歉啊，\n我現在正跟\n展開全力對決呢！\n不好意思，我們晚點再聊吧，。",
      "USen": "Actually, I'm right in the middle of\nsomethin' with \nright now.\nI'll catch up with you later.\nAlright, (catchphrase)?",
      "USes": "¡Uy! Ando ocupada haciendo una\ncosa con , tú.\nHablamos luego, ¿sí, (catchphrase)?",
      "USfr": "Alors en fait, chuis en train d'faire\nun truc avec ...\nOn papote plus tard, OK?"
    }
  },
  {
    "label": "101",
    "attribute": "0x0000000000000000",
    "locale": {
      "CNzh": "抱歉，我正在和\n玩寻宝游戏呢！\n等我们分出了胜负，我就有空了！\n你待会儿再来找我吧！。",
      "EUde": "Grottenschlechtes Timing. Spiele\ngrade mit  'ne\nRunde Schatzsuche.\nDanach hab ich aber noch nix\nvor, falls du dann rumkommen\nmöchtest, (Floskel).",
      "EUen": "Oh, sorry, I'm playin' this treasure\nhunt game with \nright now.\nI'll be free once we finish, so come\nget at me then, (catchphrase)!",
      "EUes": "¡Pero tío! ¿No ves que estoy aquí\njugando con , tú?\n¡Vaya búsqueda del tesoro llevamos!\nEn cuanto liquidemos el asunto,\nsoy toda tuya, .",
      "EUfr": "Désolée, mais tu m'surprends en\npleine chasse au trésor palpitante\navec .\nPasse bavarder quand on aura fini,\nj'ai rien d'prévu après, .",
      "EUit": "Scusa, ma  e io ci stiamo cimentando in una caccia al tesoro.\nNon appena avrò finito, potrò\ndedicarti un po' di attenzione,\n!",
      "EUnl": "O, sorry, ik ben met  aan het schatzoeken.\nDaarna heb ik wel tijd voor je, dus\nkom dan maar terug, !",
      "EUru": "Ой, извини. Как раз сейчас\n ищет мое\nспрятанное сокровище.\nОбращайся, когда я освобожусь.\n!",
      "JPja": "悪いね、今は　と\n宝さがしゲームで　遊んでるんだ！\n勝負がついたら　ヒマになるからさ！\nまたあとで　来ておくれ！　",
      "KRko": "미안한데 지금은 이랑\n보물찾기 게임하면서 놀고 있거든!\n이 대결이 끝나면 한가해지니까\n이따가 다시 와줘! !",
      "TWzh": "不好意思耶，我現在\n在跟玩尋寶遊戲啊！\n等我們分出勝負之後，我就有空了！\n所以你晚點再來找我吧！。",
      "USen": "Oh, sorry, I'm playin' this treasure\nhunt game with \nright now.\nI'll be free once we finish, so come\nget at me then, (catchphrase)!",
      "USes": "¡Uy, perdón! Pero ando aquí jugando\ncon .\nEn cuanto terminemos,\nhablamos, ¿sí?",
      "USfr": "Désolée, mais tu m'surprends en\npleine chasse au trésor palpitante\navec .\nPasse bavarder quand on aura fini,\nj'ai rien d'prévu après, ."
    }
  },
  {
    "label": "102",
    "attribute": "0x0000000000000000",
    "locale": {
      "CNzh": "哟！\n其实，我正在和\n玩寻宝游戏呢。\n比赛正在进行中，\n所以你能待会儿再来找我吗？\n抱歉啊！。",
      "EUde": "Brennt's wo? Wenn nich', würd ich\nerst die Runde Schatzsuche mit\n fertigspielen.\nDauert auch nich' lange. Dann\nkönnen wir quatschen, bis uns\ndie Ohren abfallen, (Floskel).",
      "EUen": "Uh...can this wait until I finish\nmy treasure hunt thing\nwith ?\nWe're kinda in the middle of playing\nright now, so your stuff might have\nto wait a bit, (catchphrase). Sorry.",
      "EUes": "¡Pero tronco! Estoy jugando a\nla búsqueda del tesoro con mi\ncoleguilla .\nTenemos que centrarnos muy a tope,\ntú. ¡Ya hablaremos, !",
      "EUfr": "Euh... On pourrait en r'causer quand\nj'aurai fini ma chasse au trésor avec\n ?\nDésolée d'te faire poireauter, mais\non est en plein milieu d'une partie,\nlà... .",
      "EUit": "Ehm... possiamo parlarne dopo\nla caccia al tesoro che sto facendo\ncon ?\nSiamo nella fase decisiva, non posso\ndistrarmi proprio adesso per\nascoltare le tue ciance, .",
      "EUnl": "Eh... kan dit wachten tot mijn schatzoekerij met  voorbij is?\nWe zijn er heel druk mee, dus jouw ding moet even wachten. Sorry, .",
      "EUru": "Э... Ты не подождешь, пока\n найдет,\nну или не найдет сокровище?\nМы как раз играем в поиски.\nИзвини! !",
      "JPja": "よっ！\n実は　今、と\n宝さがしゲーム　してるトコなんだ\n勝負の　真っ最中だから、\nあとにしてもらって　いいかい？\nごめんよ、",
      "KRko": "안녕!\n실은 지금 하고\n보물찾기 게임을 하고 있거든\n한창 대결 중인데\n이따가 말하면 안 되겠냐?\n미안하다! !",
      "TWzh": "唷！\n其實我現在在跟\n玩尋寶遊戲！\n我們正對決到一半，\n所以你可以晚點再說嗎？\n抱歉喔，。",
      "USen": "Uh...can this wait until I finish\nmy treasure hunt thing\nwith ?\nWe're kinda in the middle of playing\nright now, so your stuff might have\nto wait a bit, (catchphrase). Sorry.",
      "USes": "¡Uy! Estoy jugando a la búsqueda\ndel tesoro con mi compi .\nHablamos después, ¿sí?",
      "USfr": "Euh... On pourrait en r'parler quand\nj'aurai fini ma chasse au trésor avec\n?\nDésolée d'te faire poireauter, mais\non est en plein milieu d'une partie,\nlà... ."
    }
  },
  {
    "label": "200",
    "attribute": "0x0000000000000000",
    "locale": {
      "CNzh": "那么，宝物到底\n埋在了哪里呢～？。",
      "EUde": "Wo ich den Schatz vergraben hab?\nDas wüssteste gerne... Meine Lippen\nsind mit Kraftkleber versiegelt.",
      "EUen": "Where's the treasure?\nMy lips are sealed!",
      "EUes": "Si te digo dónde lo he enterrado,\n¿qué gracia tiene el asunto? Hale,\nno seas vago y ponte a buscar, ¿sí?",
      "EUfr": "Où est l'trésor ? Motus, bouche\ncousue, débrouille-toi ou t'as perdu !",
      "EUit": "Vuoi sapere da me dov'è il tesoro?\nNon se ne parla neanche!",
      "EUnl": "Waar is de schat? Van mij zul je het\nniet horen!",
      "EUru": "Где сокровище? Не скажу!",
      "JPja": "さてさて、お宝は　一体\nどこに　埋まってんだろうね～？　",
      "KRko": "자～ 보물은 과연\n어디에 묻혀 있을까～? ?",
      "TWzh": "猜猜看，寶藏到底\n埋在什麼地方呢～？。",
      "USen": "Where's the treasure?\nMy lips are sealed!",
      "USes": "Si te digo dónde lo enterré,\n¿qué chiste tiene todo esto?\n¡Tú, puedes, anda!",
      "USfr": "Où est l'trésor? Motus, bouche\ncousue, débrouille-toi ou t'as perdu!"
    }
  },
  {
    "label": "201",
    "attribute": "0x0000000000000000",
    "locale": {
      "CNzh": "嘿！打起精神来，继续找啊！。",
      "EUde": "Also in meiner Hosentasche wirste\nden Schatz bestimmt nich' finden.\nMusst dich schon etwas anstrengen.",
      "EUen": "I'll tell you where the treasure's\nNOT...is in my pockets! You gotta\ntry harder than that, (catchphrase)!",
      "EUes": "A mí no me mires, no pienso decirte\ndónde está el tesoro... ¡Hale, menos\nremolonear y más buscar, majo!",
      "EUfr": "Tu veux un indice sur le trésor ?\nTiens : il est... pas dans ma poche,\n !",
      "EUit": "Di sicuro non troverai il tesoro nelle\nmie tasche! Datti una mossa e cerca\novunque, (catchphrase)!",
      "EUnl": "Ik kan je wel zeggen waar de schat\nniet is: in mijn zakken! Je moet echt\nbeter je best doen!",
      "EUru": "Могу сказать, где сокровища\nточно нет: у меня в кармане.\nТак что ищи внимательнее!",
      "JPja": "ほれっ！　気合い入れて探しな！　",
      "KRko": "자! 집중해서 잘 찾아봐, !",
      "TWzh": "嘿～！打起精神去尋寶吧！。",
      "USen": "I'll tell you where the treasure's\nNOT...is in my pockets! You gotta\ntry harder than that, (catchphrase)!",
      "USes": "A mí no me mires, no pienso decirte\ndónde está el tesoro... ¡Anda, sigue buscando!",
      "USfr": "Tu veux un indice sur le trésor?\nTiens : il est... pas dans ma poche,\n!"
    }
  },
  {
    "label": "202",
    "attribute": "0x0000000000000000",
    "locale": {
      "CNzh": "“其实并没有埋宝物！”\n这样的事，是绝对不可能的！。",
      "EUde": "Hast mich erwischt. Hab den Schatz\ngar nich' vergraben, sondern so\ngetan als ob, nur um dich zu ärgern.\nKomm schon, Gänseblümchen.\nFür wen hältste mich? Und jetzt\nmarsch an die Arbeit, (Floskel)!",
      "EUen": "You got me. I never buried the\ntreasure. C'mon, what do you take\nme for? Get huntin', (catchphrase)!",
      "EUes": "¿Sabes dónde está el tesoro?\n¡En cualquier sitio menos en mi cara!\nVenga, tío ponte a buscarlo antes\nde que nos den las uvas.",
      "EUfr": "C'est pas en bavassant qu'tu vas\ntomber sur l'trésor ! Dégaine ta\npelle et qu'ça creuse,  !",
      "EUit": "Sì, è vero, lo ammetto: in realtà non\nho seppellito il tesoro perché non\navevo voglia di sudare.\nSvegliaaaaa! Come puoi credere che\nIO rinunci a una caccia al tesoro?\nE ora riprendi la tua ricerca.",
      "EUnl": "Je hebt me door. Ik heb de schat\nhelemaal niet begraven... Pfff, waar\nzie je me voor aan? Ga zoeken!",
      "EUru": "Угадал. Никакое сокровище я не\nзакапывала. Ой, да шучу! За кого\nты меня держишь?! Ищи иди!",
      "JPja": "実は埋めてない、\nなんてことは　絶対ないからね！　",
      "KRko": "사실은 안 묻었다든가\n그런 일은 절대 없으니까! !",
      "TWzh": "其實我根本就沒有埋寶藏……\n像這種情況絕對不可能發生的喔！。",
      "USen": "You got me. I never buried the\ntreasure. C'mon, what do you take\nme for? Get huntin', (catchphrase)!",
      "USes": "¿Sabes dónde está el tesoro?\n¡En cualquier lugar menos aquí!\nSigue buscando, antes de que se\nte acabe el tiempo.",
      "USfr": "C'est pas en papotant qu'tu vas\ntomber su'l'trésor! Dégaine ta\npelle et qu'ça creuse, !"
    }
  }
]