﻿[
  {
    "label": "001",
    "attribute": "0x0000000000000600",
    "locale": {
      "CNzh": "哇～！吓了我一跳～！\n心脏都差点\n从嘴里跳出来了～！\n我现在满脑子\n都是～\n要玩的话，下次吧～。",
      "EUde": "Waaah! Hast DU mich erschreckt!\nJetzt hab ich mich fast an meiner\neigenen Spucke verschluckt!\nDa verschluck ich mich doch lieber\nan . Das mildert\nauch den Schock ein bisschen...",
      "EUen": "Ahh! You surprised me! Man, I almost\njumped outta my own mouth!\nBefore you scared me, I was after\n, so I'm\ngonna find some and calm down.",
      "EUes": "¡Huy! ¡Qué susto me has dado!\nCasi se me sale el corazón\npor la boca...\nMe has pillado yendo a por . Necesito algo con lo que distraerme.",
      "EUfr": "Aah ! Tu m'as fait trop peur !\nMon cœur a fait un de ces bonds,\nil s'est cogné contre mon crâne...\nJe cherchais  avant que tu me terrifies.\nJe devrais m'y remettre, ça va me\ncalmer,  !",
      "EUit": "Aaah, che spavento! Il cuore\nmi batte all'impazzata!\nPer calmarmi, mi servirà\n.",
      "EUnl": "Aah! Je liet me schrikken! Mijn hart\nsprong me gewoon in de keel!\nIk was eigenlijk op zoek naar . Misschien word ik daar wel wat kalmer van.",
      "EUru": "Ой! Как ты меня напугал!\nЯ чуть дар речи не потерял!\nА я тут искал .\nВот сейчас найду и успокоюсь.",
      "JPja": "わっ！　ビックリしたぁ～！\nしんぞうが　口から\nとびだすかとおもったよぉ！\nボクは　今　のことで\n頭がいっぱいだから\nまたこんど　あそぼうねぇ～、",
      "KRko": "우와앗! 깜짝이야아～!\n심장이 밖으로\n튀어나오는 줄 알았다구우!\n난 지금  생각으로\n머릿속이 꽉 차 있으니까아\n나중에 다시 놀자아～ !",
      "TWzh": "哇！嚇了我一跳～！\n我還以為\n心臟要從嘴巴裡跳出來了！\n因為我現在\n滿腦子都是，\n所以我們下次再玩吧～。",
      "USen": "Ahh! You surprised me! Man, I almost\njumped outta my own mouth!\nBefore you scared me, I was after\n, so I'm\ngonna find some and calm down.",
      "USes": "¡Uy! ¡Qué susto me diste!\nCasi se me sale el corazón\npor la boca...\nNecesito \npara que se me quite el susto.",
      "USfr": "Ahh! Tu m'as fait trop peur!\nMon cœur a fait un de ces bonds,\nil s'est cogné contre mon crâne...\nJe cherchais  avant que tu me terrifies.\nJe devrais m'y remettre,\nça va me calmer, !"
    }
  },
  {
    "label": "002",
    "attribute": "0x0000000000000600",
    "locale": {
      "CNzh": "哇～！\n我还以为是谁呢，原来是你啊～\n我现在正在想一些事情，\n待会儿再陪你聊天吧～。",
      "EUde": "FINGER WEG VOM PUDDING!\nAch, du bist's nur!\nIch übe gerade einen Ruf, um\nSüßigkeitendiebe zu verjagen.\nLass uns später reden, ja?",
      "EUen": "I WANNA EAT THE PUDDING!\nWhat? Oh, it's you!\nUm... I'm busy thinking right now.\nLet's talk later, OK?",
      "EUes": "¡Aaay!\n¿Qué? Ah, eres tú...\nAhora... estoy de reflexión, ¿sabes?\n¿Hablamos luego si no te importa?",
      "EUfr": "JE VEUX ENCORE UNE TARTINE !\nHein ? Oh, c'est toi !\nHmm... Désolé, je suis en train de\nréfléchir à des trucs. On discutera\nplus tard, tu veux bien ?",
      "EUit": "Voglio mangiare il budino!\nMa cosa...? Ah, sei tu!\nMmm... Scusa, ma sono nel bel\nmezzo di importanti riflessioni...\nParleremo più tardi, d'accordo?",
      "EUnl": "Weersta de pudding! Weersta de pudding!\nHè? O, jij bent het!\nEh... ik ben me even heel hard aan\nhet concentreren. Is het goed als we\nlater praten?",
      "EUru": "Хочу запеканку! Ой! Это ты?\nЯ сейчас занят, думаю о важных\nвещах. Давай потом поговорим?",
      "JPja": "わぁっ！\nだれかと思ったら、キミかぁ～\nボク、今は　考えごとの　まっさい中だから\nおしゃべりは　またあとでねぇ～、",
      "KRko": "우와앗!\n누군가 했더니 너였구나아～\n나 지금 한창 생각 중이니까아\n얘긴 나중에 다시 하자아～ !",
      "TWzh": "哇啊！\n我還想說是誰，原來是你啊～\n我現在正在想事情，\n所以我們等一下再聊吧～。",
      "USen": "I WANNA EAT THE PUDDING!\nWhat? Oh, it's you!\nUm... I'm busy thinking right now.\nLet's talk later, OK?",
      "USes": "¡Aaay!\n¿Qué? Ah, eres tú...\nAndo muy ocupado pensando en la\ninmortalidad del cangrejo, ¿sabes?\n¿Hablamos luego si no te importa?",
      "USfr": "JE VEUX ENCORE UNE TARTINE!\nHein? Oh, c'est toi!\nHmm... Désolé, je suis en train de\nréfléchir à des trucs. On discutera\nplus tard, tu veux bien?"
    }
  },
  {
    "label": "003",
    "attribute": "0x0000000000000000",
    "locale": {
      "CNzh": "今天的点心还是选……\n哇～！吓了我一跳呢～！\n我正在专心考虑一些事情，\n你暂时不要和我说话～。",
      "EUde": "Hm... Ist Schokolade eigentlich ein\nGewürz? Worüber man sich an einem\n so den Kopf zerbricht...\nAAAH! Hast du mich aber erschreckt!\nDu, ich mache mir hier gerade\ndoll tiefsinnige Gedanken.\nKomm doch später wieder, okay?",
      "EUen": "Is chocolate a condiment? Man...\nTough questions on a .\nAHHH! You scared me!\nI'm thinking real hard right now\nabout real important stuff. Come\nback later.",
      "EUes": "(¿Será el chocolate fruta o verdura?\nQué cuestión más metafísica\npara plantearse un ...)\n¡Ay, qué susto me has dado!\nAhora mismo estoy con un\nasunto bastante importante...\nDéjame un rato a lo mío, ¿vale?",
      "EUfr": "Et le chocolat, c'est un condiment ?\nGrosse question pour un ...\nAHHH ! Tu m'as fait peur !\nJe planche sur une question de la\nplus haute importance, je peux\nvraiment pas discuter pour l'instant.",
      "EUit": "Che dubbio atroce... Si potrà condire\nl'insalata con la cioccolata calda?\nAaah! Che spavento!\nSto cercando di togliermi un dubbio\nche mi attanaglia da giorni. Potresti\ntornare più tardi?",
      "EUnl": "Is chocola een specerij? Poeh, wat je je\nop een  al niet kunt afvragen!\nO! Ik zag je niet aankomen!\nIk ben even heel hard aan het\nnadenken over belangrijke dingen.\nKom later maar terug.",
      "EUru": "А шоколад — это приправа? Эх...\nСегодня , а тут такие\nвопросы. Ой!!! Ты меня напугал!\nЯ сейчас очень занят, обдумываю\nважные дела. Заходи попозже.",
      "JPja": "今日のおやつは　やっぱり・・・\nわっ！　ビックリしたぁ～！\n今、ボクは考えごとに　ムチュウだから\nしばらく　そっとしておいてねぇ～、",
      "KRko": "오늘 간식은 역시...\n으앗! 깜짝이야아～!\n지금 난 진지한 고민에 빠져 있으니까아\n잠시만 혼자 있게 해줘어～ !",
      "TWzh": "今天的點心果然還是……\n哇啊！嚇了我一跳～！\n我現在正在專心想事情，\n你先不要吵我～。",
      "USen": "Is chocolate a condiment? Man...\nTough questions on a .\nAHHH! You scared me!\nI'm thinking real hard right now\nabout real important stuff. Come\nback later.",
      "USes": "¿El chocolate es fruta o verdura?\nSi es ambas, tal vez deba duplicar\nmi porción...\n¡Ay, qué susto me diste!\nEstaba discutiendo conmigo mismo\nun asunto bastante importante...\nAsí que, con permisito. ",
      "USfr": "Et le chocolat, c'est un condiment?\nGrosse question pour un ...\nAHHH! Tu m'as fait peur!\nJe pense à une question de la\nplus haute importance, je peux\nvraiment pas discuter pour l'instant."
    }
  }
]