﻿[
  {
    "label": "001",
    "attribute": "0x0000000100000000",
    "locale": {
      "CNzh": "今天是农历新年哦～！\n，\n你有没有很兴奋啊～？。",
      "EUde": "Heute ist Mondneujahr! Mein\nKühlschrank und ich werden das\nganz doll feiern! Äh, he he he!",
      "EUen": "It's the Lunar New Year! Are you\npartying it up? Or down? There's no\nwrong direction to party!",
      "EUes": "¡Ha empezado el Año Nuevo Lunar!\n¿Lo estás celebrando?\n¡La ocasión lo merece!",
      "EUfr": "C'est le nouvel an lunaire ! C'est\nl'occasion de faire la super fiesta,\n(surnom) !",
      "EUit": "È il Capodanno lunare! Un'occasione\nper festeggiare alla grandissima,\n(catchphrase)!",
      "EUnl": "Vandaag begint het nieuwe maanjaar!\nVier jij het groots of hou je het klein?\nMij maakt de maat niet uit, feest is\nfeest!",
      "EUru": "Сегодня лунный Новый год!\nБудем веселиться до зари? Главное,\nчтобы вкусняшки не кончились!",
      "JPja": "今日は　旧正月だよぉ～！\n、\nもり上がってるぅ～？　",
      "KRko": "오늘은 설날이야아～!\n아!\n즐거운 설날 보내자아～ !",
      "TWzh": "今天是農曆新年喔～！\n，\n你有沒有覺得很開心呢～？。",
      "USen": "It's the Lunar New Year! Are you\npartying it up? Or down? There's no\nwrong direction to party!",
      "USes": "¡Es el Año Nuevo Lunar!\n¿Lo estás celebrando?\n¡Deberías!",
      "USfr": "C'est le Nouvel An lunaire! C'est\nl'occasion de faire la super fiesta,\n(surnom)!"
    }
  },
  {
    "label": "002",
    "attribute": "0x0000000100000000",
    "locale": {
      "CNzh": "嘻嘻，好开心啊～\n因为今天是农历新年呀～！\n是个喜庆的日子呢～！。",
      "EUde": "Du, heute ist Mondneujahr!\nIst das nicht wunderbärchen?\nBeim Mond denk ich immer an Pizza.",
      "EUen": "Man, it's the Lunar New Year!\nA big ol' celebration!",
      "EUes": "¡Estamos de enhorabuena, que ha\nempezado el Año Nuevo Lunar!\n¡Vamos a celebrarlo!",
      "EUfr": "Hé hé hé ! C'est le nouvel an\nlunaire ! Tu es prêt à faire la fête ?\nParce que moi, je suis déjà à fond !",
      "EUit": "Evvai, è il Capodanno lunare! Sei\npronto a festeggiare? Io ho già\nfatto una scorta famiglia di snack!",
      "EUnl": "Hé, vandaag begint het nieuwe\nmaanjaar! Een echte feestdag dus!\nFestivi-tijd is de leukste tijd!",
      "EUru": "Уря! Сегодня лунный Новый год!\nНаконец-то праздник! Я так люблю\nпраздники!",
      "JPja": "うふふ、なんだか　ウキウキしちゃうなぁ～\nだって、今日は　旧正月～！\nおめでたい日だもんねぇ～、",
      "KRko": "우후후, 왠지 두근두근 신나아～\n오늘은 설날이니까아～\n떡국 많이 먹어야지이～ !",
      "TWzh": "呵呵，總覺得好雀躍喔～\n因為今天是農曆新年～！\n是個喜氣洋洋的日子喔～。",
      "USen": "Man, it's the Lunar New Year!\nA big ol' celebration!",
      "USes": "¡Es el Año Nuevo Lunar!\n¡Hay que celebrar!",
      "USfr": "Hé hé hé! C'est le Nouvel An\nlunaire! Tu es prêt à faire la fête?\nParce que moi, je suis déjà à fond!"
    }
  },
  {
    "label": "003",
    "attribute": "0x0000000100000000",
    "locale": {
      "CNzh": "今天是农历新年～！\n我要吃好多好吃的东西，\n来庆祝新年～！。",
      "EUde": "Toll, heute ist Mondneujahr!\nUm das richtig zu feiern, werd ich\nzweimal so viel essen wie sonst!",
      "EUen": "Today's the Lunar New Year!\nTo celebrate, I'm gonna eat twice\nas many snacks as usual!",
      "EUes": "¡Hoy es Año Nuevo Lunar!\nPara celebrarlo, voy a comer el doble\nde chuches de lo normal.",
      "EUfr": "Aujourd'hui, c'est le nouvel an\nlunaire ! Pour fêter ça, je vais\nmanger des tonnes de friandises !",
      "EUit": "Oggi è il Capodanno lunare! Per\nfesteggiare l'evento, mi concederò\nuna doppia razione di merendine!",
      "EUnl": "Vandaag begint het nieuwe maanjaar!\nOm het te vieren eet ik twee keer\nzoveel snoep als anders!",
      "EUru": "Сегодня лунный Новый год!\nВ честь праздника съем сегодня\nв два раза больше вкусняшек!",
      "JPja": "今日は　旧正月だぁ～！\nおいしいもの　いっぱい　食べて\nおいわい　しなくっちゃねぇ～！　",
      "KRko": "설날이다아～!\n맛있는 거 많이 먹구\n세배도 해야지이～! !",
      "TWzh": "今天是農曆新年～！\n要吃很多好吃的東西來慶祝才可以～！。",
      "USen": "Today's the Lunar New Year!\nTo celebrate, I'm gonna eat twice\nas many snacks as usual!",
      "USes": "¡Hoy es el Año Nuevo Lunar!\nPara celebrarlo, voy a comer los dulces más deliciosos que tenga.",
      "USfr": "Aujourd'hui, c'est le Nouvel An\nlunaire! Pour fêter ça, je vais\nmanger des tonnes de bonbons!"
    }
  },
  {
    "label": "004",
    "attribute": "0x0000000100000000",
    "locale": {
      "CNzh": "上的大家好像都很开心的样子，\n因为今天是农历新年吗～？\n喜庆的节日是会让人觉得高兴呢～。",
      "EUde": "Alle freuen sich, weil heute Mond-\nneujahr ist! Ich freu mich immer,\nalso freu ich mich heute extra doll!",
      "EUen": "Everybody's all smiley 'cause of the\nLunar New Year! I'm always smiley,\nso today I'm extra smiley!",
      "EUes": "Todo el mundo está felicísimo porque\nha llegado el Año Nuevo Lunar.\n¡Aunque yo estoy felicísimo siempre!",
      "EUfr": "Tout le monde a le sourire\naujourd'hui pour le nouvel an\nlunaire !\nMoi, j'ai tout le temps le sourire,\nalors aujourd'hui j'ai le super-\nsourire !",
      "EUit": "Oggi tutti sorridono alla grande\nper il Capodanno lunare!\nCerto, io sorrido già tutto il tempo,\nper cui oggi ho... un super sorriso!",
      "EUnl": "Iedereen wordt blij van het nieuwe\nmaanjaar! Ik ben altijd al blij,\ndus vandaag ben ik dubbel zo blij!",
      "EUru": "Все так радуются лунному\nНовому году! Я вообще всегда рад,\nа сегодня я рад вдвойне!",
      "JPja": "のみんなが　なんだか　ニコニコしてるのは\n今日が　旧正月だからかなぁ～？\nおめでたいのは　うれしいもんねぇ、",
      "KRko": "의 모든 주민들이 기분 좋아 보이는데에\n설날이라 그런가아～?\n명절이 되면 괜히 신나～ !",
      "TWzh": "島上的人看起來都滿臉笑容，\n因為今天是農曆新年嗎～？\n節日的時候大家都會很高興啊～。",
      "USen": "Everybody's all smiley 'cause of the\nLunar New Year! I'm always smiley,\nso today I'm extra smiley!",
      "USes": "Todo el mundo está muy feliz\nporque llegó el Año Nuevo Lunar.\n¡Y yo estoy más feliz que siempre!",
      "USfr": "Tout le monde a le sourire\naujourd'hui pour le\nNouvel An lunaire!\nMoi, j'ai tout le temps le sourire,\nalors aujourd'hui j'ai\nle super-sourire!"
    }
  },
  {
    "label": "005",
    "attribute": "0x0000000100000000",
    "locale": {
      "CNzh": "今天，整座岛都开启了节日模式呢～\n因为今天是农历新年呀！\n我也非常非常开心呢～！。",
      "EUde": "Heute haben alle gute Laune,\nweil Mondneujahr ist! Ich glaube,\nder Mond hat heute Geburtstag!",
      "EUen": "Everyone's in party mode for\nLunar New Year! I think maybe\nit's the moon's birthday!",
      "EUes": "¡Fiestaza por el Año Nuevo Lunaaar!\n¡Hay que celebrar el cumpleaños\nde todos los lunares del mundooo!",
      "EUfr": "Toute l'île est en mode festif pour\nle nouvel an lunaire ! Joyeux\nanniversaire, madame la lune !",
      "EUit": "Tira aria di grande festa per il\nCapodanno lunare! È come se fosse\nil compleanno della luna, non trovi?",
      "EUnl": "Iedereen voelt zich feestelijk, want\nvandaag begint het nieuwe maanjaar! Volgens mij is de maan jarig!",
      "EUru": "Сегодня лунный Новый год!\nЯ сегодня вкусняшек налопаюсь\nи буду такой же круглый, как луна!",
      "JPja": "今日は　島中が　おまつりムードだぁ～\nなんてったって　旧正月だからねぇ！\nボクも　うれしくって　たまらない～、",
      "KRko": "오늘은 온 섬이 축제 분위기야아～\n왜냐면 오늘은 설날이니까!\n나두 넘 신난다아～ !",
      "TWzh": "今天島上充滿了慶典的感覺～\n因為今天是農曆新年呀！\n我也高興得不得了～。",
      "USen": "Everyone's in party mode for\nLunar New Year! I think maybe\nit's the moon's birthday!",
      "USes": "¡Fiesta por el Año Nuevo Lunaaar!\n¡Hay que celebrar el cumpleaños\nde todos los lunares del mundooo!",
      "USfr": "Toute l'île est en mode festif pour\nle Nouvel An lunaire! Bonne fête,\nmadame la lune!"
    }
  }
]