﻿[
  {
    "label": "002",
    "locale": {
      "CNzh": "石头",
      "EUde": "Stein",
      "EUen": "stone",
      "EUes": "piedra",
      "EUfr": "pierre",
      "EUit": "pietra",
      "EUnl": "stenen set",
      "EUru": "Камень",
      "JPja": "いし",
      "KRko": "돌",
      "TWzh": "石頭",
      "USen": "stone",
      "USes": "piedra",
      "USfr": "pierre"
    }
  },
  {
    "label": "003",
    "locale": {
      "CNzh": "办公室",
      "EUde": "Büro",
      "EUen": "office",
      "EUes": "oficina",
      "EUfr": "pro",
      "EUit": "ufficio",
      "EUnl": "kantoorset",
      "EUru": "Офис",
      "JPja": "オフィス",
      "KRko": "사무용",
      "TWzh": "辦公室",
      "USen": "office",
      "USes": "oficina",
      "USfr": "pro"
    }
  },
  {
    "label": "004",
    "locale": {
      "CNzh": "学习",
      "EUde": "Lernen",
      "EUen": "study",
      "EUes": "aprendizaje",
      "EUfr": "études",
      "EUit": "studio",
      "EUnl": "huiswerkset",
      "EUru": "Учеба",
      "JPja": "がくしゅう",
      "KRko": "학습",
      "TWzh": "學習",
      "USen": "study",
      "USes": "aprendizaje",
      "USfr": "études"
    }
  },
  {
    "label": "005",
    "locale": {
      "CNzh": "大讲堂",
      "EUde": "Hörsaal",
      "EUen": "lecture hall",
      "EUes": "aula",
      "EUfr": "amphi",
      "EUit": "aula",
      "EUnl": "collegezaalset",
      "EUru": "Аудитория",
      "JPja": "こうぎしつ",
      "KRko": "강의실",
      "TWzh": "大講堂",
      "USen": "lecture hall",
      "USes": "aula",
      "USfr": "salle de lecture"
    }
  },
  {
    "label": "006",
    "locale": {
      "CNzh": "书房",
      "EUde": "Studierzimmer",
      "EUen": "den",
      "EUes": "notario",
      "EUfr": "ministre",
      "EUit": "presidente",
      "EUnl": "notarisset",
      "EUru": "Кабинет",
      "JPja": "しょさい",
      "KRko": "서재",
      "TWzh": "書房",
      "USen": "den",
      "USes": "notario",
      "USfr": "ministre"
    }
  },
  {
    "label": "007",
    "locale": {
      "CNzh": "生日",
      "EUde": "Geburtstag",
      "EUen": "birthday",
      "EUes": "cumpleaños",
      "EUfr": "anniversaire",
      "EUit": "compleanno",
      "EUnl": "verjaardagsset",
      "EUru": "Именины",
      "JPja": "バースデー",
      "KRko": "생일",
      "TWzh": "生日",
      "USen": "birthday",
      "USes": "cumpleaños",
      "USfr": "fête"
    }
  },
  {
    "label": "008",
    "locale": {
      "CNzh": "苹果",
      "EUde": "Apfel",
      "EUen": "apple",
      "EUes": "manzana",
      "EUfr": "pomme",
      "EUit": "mela",
      "EUnl": "appelset",
      "EUru": "Яблоко",
      "JPja": "リンゴ",
      "KRko": "사과",
      "TWzh": "蘋果",
      "USen": "apple",
      "USes": "manzana",
      "USfr": "pomme"
    }
  },
  {
    "label": "009",
    "locale": {
      "CNzh": "桃子",
      "EUde": "Pfirsich",
      "EUen": "peach",
      "EUes": "melocotón",
      "EUfr": "pêche",
      "EUit": "pesca",
      "EUnl": "perzikset",
      "EUru": "Персик",
      "JPja": "モモ",
      "KRko": "복숭아",
      "TWzh": "桃子",
      "USen": "peach",
      "USes": "durazno",
      "USfr": "pêche"
    }
  },
  {
    "label": "010",
    "locale": {
      "CNzh": "樱桃",
      "EUde": "Kirsch",
      "EUen": "cherry",
      "EUes": "cereza",
      "EUfr": "cerise",
      "EUit": "ciliegia",
      "EUnl": "kersenset",
      "EUru": "Вишня",
      "JPja": "さくらんぼ",
      "KRko": "체리",
      "TWzh": "櫻桃",
      "USen": "cherry",
      "USes": "cereza",
      "USfr": "cerise"
    }
  },
  {
    "label": "011",
    "locale": {
      "CNzh": "橘子",
      "EUde": "Orange",
      "EUen": "orange",
      "EUes": "naranja",
      "EUfr": "orange",
      "EUit": "arancia",
      "EUnl": "sinaasappelset",
      "EUru": "Апельсин",
      "JPja": "オレンジ",
      "KRko": "오렌지",
      "TWzh": "橘子",
      "USen": "orange",
      "USes": "naranja",
      "USfr": "orange"
    }
  },
  {
    "label": "012",
    "locale": {
      "CNzh": "梨子",
      "EUde": "Birne",
      "EUen": "pear",
      "EUes": "pera",
      "EUfr": "poire",
      "EUit": "pera",
      "EUnl": "perenset",
      "EUru": "Груша",
      "JPja": "ナシ",
      "KRko": "배",
      "TWzh": "梨子",
      "USen": "pear",
      "USes": "pera",
      "USfr": "poire"
    }
  },
  {
    "label": "013",
    "locale": {
      "CNzh": "学校",
      "EUde": "Schule",
      "EUen": "school",
      "EUes": "escuela",
      "EUfr": "école",
      "EUit": "scuola",
      "EUnl": "schoolset",
      "EUru": "Школа",
      "JPja": "がっこう",
      "KRko": "학교",
      "TWzh": "學校",
      "USen": "school",
      "USes": "escuela",
      "USfr": "école"
    }
  },
  {
    "label": "014",
    "locale": {
      "CNzh": "中华",
      "EUde": "Asia-Restaurant",
      "EUen": "imperial dining",
      "EUes": "restaurante oriental",
      "EUfr": "restaurant chinois",
      "EUit": "ristorante cinese",
      "EUnl": "keizerlijke eetset",
      "EUru": "Обед в азиатском стиле",
      "JPja": "ちゅうか",
      "KRko": "중국풍",
      "TWzh": "中華",
      "USen": "imperial dining",
      "USes": "restaurante oriental",
      "USfr": "impérial"
    }
  },
  {
    "label": "015",
    "locale": {
      "CNzh": "熊猫",
      "EUde": "Panda",
      "EUen": "panda",
      "EUes": "panda",
      "EUfr": "panda",
      "EUit": "panda",
      "EUnl": "pandaset",
      "EUru": "Панды",
      "JPja": "パンダ",
      "KRko": "판다",
      "TWzh": "熊貓",
      "USen": "panda",
      "USes": "panda",
      "USfr": "panda"
    }
  },
  {
    "label": "016",
    "locale": {
      "CNzh": "熊",
      "EUde": "Bär",
      "EUen": "bear",
      "EUes": "osito",
      "EUfr": "ours",
      "EUit": "orso",
      "EUnl": "berenset",
      "EUru": "Медведи",
      "JPja": "クマ",
      "KRko": "곰",
      "TWzh": "熊",
      "USen": "bear",
      "USes": "osito",
      "USfr": "ours"
    }
  },
  {
    "label": "017",
    "locale": {
      "CNzh": "纸扎",
      "EUde": "Pappaufsteller",
      "EUen": "standee",
      "EUes": "atrezo",
      "EUfr": "décor en carton",
      "EUit": "sagoma",
      "EUnl": "kartonnen decoratieset",
      "EUru": "Бутафория",
      "JPja": "ハリボテ",
      "KRko": "연극 소품",
      "TWzh": "佈景板",
      "USen": "standee",
      "USes": "utilería",
      "USfr": "décor en carton"
    }
  },
  {
    "label": "018",
    "locale": {
      "CNzh": "自然",
      "EUde": "Funktional",
      "EUen": "natural",
      "EUes": "madera natural",
      "EUfr": "naturelle",
      "EUit": "naturale",
      "EUnl": "natuurlijke set",
      "EUru": "Обычный садовый",
      "JPja": "ナチュラル",
      "KRko": "내추럴",
      "TWzh": "自然",
      "USen": "natural",
      "USes": "madera natural",
      "USfr": "naturelle"
    }
  },
  {
    "label": "019",
    "locale": {
      "CNzh": "宠物",
      "EUde": "Haustier",
      "EUen": "pet",
      "EUes": "mascota",
      "EUfr": "animal",
      "EUit": "animali",
      "EUnl": "huisdierenset",
      "EUru": "Все для питомца",
      "JPja": "ペット",
      "KRko": "반려동물",
      "TWzh": "寵物",
      "USen": "pet",
      "USes": "mascota",
      "USfr": "animal"
    }
  },
  {
    "label": "020",
    "locale": {
      "CNzh": "圆环",
      "EUde": "Boxring",
      "EUen": "sports ring",
      "EUes": "ring de boxeo",
      "EUfr": "ring de boxe",
      "EUit": "ring da boxe",
      "EUnl": "boksringset",
      "EUru": "Ринг",
      "JPja": "リング",
      "KRko": "링",
      "TWzh": "圓環",
      "USen": "sports ring",
      "USes": "ring de boxeo",
      "USfr": "ring de boxe"
    }
  },
  {
    "label": "021",
    "locale": {
      "CNzh": "艺术",
      "EUde": "Künstler",
      "EUen": "artsy",
      "EUes": "diseño",
      "EUfr": "art",
      "EUit": "artistico",
      "EUnl": "fantasieset",
      "EUru": "Дизайн",
      "JPja": "アート",
      "KRko": "아트",
      "TWzh": "藝術",
      "USen": "artsy",
      "USes": "diseño",
      "USfr": "art"
    }
  },
  {
    "label": "022",
    "locale": {
      "CNzh": "铝木",
      "EUde": "Holz-Alu",
      "EUen": "metal and wood",
      "EUes": "aluminio",
      "EUfr": "métal et bois",
      "EUit": "alluminio e legno",
      "EUnl": "metalen-houten set",
      "EUru": "Металл и дерево",
      "JPja": "アルミウッド",
      "KRko": "메탈 우드",
      "TWzh": "鋁木",
      "USen": "metal and wood",
      "USes": "aluminio",
      "USfr": "métal et bois"
    }
  },
  {
    "label": "023",
    "locale": {
      "CNzh": "遗迹",
      "EUde": "Ruinen",
      "EUen": "ruined",
      "EUes": "ruinas",
      "EUfr": "ruine",
      "EUit": "in rovina",
      "EUnl": "ruïneset",
      "EUru": "Руины",
      "JPja": "いせき",
      "KRko": "유적",
      "TWzh": "遺跡",
      "USen": "ruined",
      "USes": "ruinas",
      "USfr": "ruine"
    }
  },
  {
    "label": "024",
    "locale": {
      "CNzh": "城堡",
      "EUde": "Burg",
      "EUen": "castle",
      "EUes": "castillo",
      "EUfr": "château",
      "EUit": "del castello",
      "EUnl": "kasteelset",
      "EUru": "Замок",
      "JPja": "おしろ",
      "KRko": "성",
      "TWzh": "城堡",
      "USen": "castle",
      "USes": "castillo",
      "USfr": "château"
    }
  },
  {
    "label": "025",
    "locale": {
      "CNzh": "花园",
      "EUde": "Garten",
      "EUen": "garden",
      "EUes": "plástico",
      "EUfr": "jardin",
      "EUit": "plastica",
      "EUnl": "tuinset",
      "EUru": "Сад",
      "JPja": "ガーデン",
      "KRko": "가든",
      "TWzh": "花園",
      "USen": "garden",
      "USes": "plástico",
      "USfr": "jardin"
    }
  },
  {
    "label": "026",
    "locale": {
      "CNzh": "游戏",
      "EUde": "Gaming",
      "EUen": "gaming",
      "EUes": "videojuegos",
      "EUfr": "gaming",
      "EUit": "gamer",
      "EUnl": "gamersset",
      "EUru": "Гейминг",
      "JPja": "ゲーミング",
      "KRko": "게이밍",
      "TWzh": "遊戲",
      "USen": "gaming",
      "USes": "videojuegos",
      "USfr": "jeux vidéo"
    }
  },
  {
    "label": "027",
    "locale": {
      "CNzh": "黑板",
      "EUde": "Tafel",
      "EUen": "chalkboard",
      "EUes": "pizarra",
      "EUfr": "tableau noir",
      "EUit": "lavagna",
      "EUnl": "schoolbordset",
      "EUru": "Классная доска",
      "JPja": "こくばん",
      "KRko": "칠판",
      "TWzh": "黑板",
      "USen": "chalkboard",
      "USes": "pizarrón",
      "USfr": "tableau noir"
    }
  },
  {
    "label": "028",
    "locale": {
      "CNzh": "事务",
      "EUde": "Homeoffice",
      "EUen": "office",
      "EUes": "oficina",
      "EUfr": "bureau",
      "EUit": "ufficio",
      "EUnl": "werkkamerset",
      "EUru": "Офис",
      "JPja": "じむ",
      "KRko": "오피스",
      "TWzh": "事務",
      "USen": "office",
      "USes": "oficina",
      "USfr": "bureau"
    }
  },
  {
    "label": "029",
    "locale": {
      "CNzh": "厨房",
      "EUde": "Großküche",
      "EUen": "kitchen",
      "EUes": "cocina",
      "EUfr": "cuisine",
      "EUit": "cucina",
      "EUnl": "keukenset",
      "EUru": "Кухня",
      "JPja": "ちゅうぼう",
      "KRko": "음식점",
      "TWzh": "廚房",
      "USen": "kitchen",
      "USes": "cocina",
      "USfr": "cuisine"
    }
  },
  {
    "label": "030",
    "locale": {
      "CNzh": "铸铁花园",
      "EUde": "Romantik",
      "EUen": "iron garden",
      "EUes": "forja",
      "EUfr": "mobilier de jardin en acier",
      "EUit": "da giardino di ferro",
      "EUnl": "ijzeren tuinset",
      "EUru": "Сад и железо",
      "JPja": "アイアンガーデン",
      "KRko": "아이언 가든",
      "TWzh": "鑄鐵花園",
      "USen": "iron garden",
      "USes": "forja",
      "USfr": "mobilier de jardin en acier"
    }
  },
  {
    "label": "031",
    "locale": {
      "CNzh": "昆虫床铺",
      "EUde": "Trophäe",
      "EUen": "bug head",
      "EUes": "cabeza de bicho",
      "EUfr": "têtes d'insectes",
      "EUit": "testa di insetto",
      "EUnl": "beestjesset",
      "EUru": "Головы насекомых",
      "JPja": "ムシヘッド",
      "KRko": "곤충 머리",
      "TWzh": "昆蟲床鋪",
      "USen": "bug head",
      "USes": "cabeza de insecto",
      "USfr": "têtes d'insectes"
    }
  }
]