﻿[
  {
    "label": "001",
    "attribute": "0x0000000000000000",
    "locale": {
      "CNzh": "",
      "EUde": "",
      "EUen": "",
      "EUes": "",
      "EUfr": "",
      "EUit": "",
      "EUnl": "",
      "EUru": "",
      "JPja": "",
      "KRko": "",
      "TWzh": "",
      "USen": "",
      "USes": "",
      "USfr": ""
    }
  },
  {
    "label": "001_01",
    "attribute": "0x0000000000000000",
    "locale": {
      "CNzh": "没问题，按你说的办！\n我正好想着换个环境换个心情呢！\n一定要帮我挑个好地方哦！。",
      "EUde": "'türlich! Etwas frischer Wind wird mir\nguttun, und euch ebenso! Muss ich\nwo unterschreiben, (Floskel)?",
      "EUen": "Yeah, sure, I'm in! I was just thinkin'\nit was time for a shake-up. Point\nthe way, (catchphrase)!",
      "EUes": "Venga, ¡vamos allá! Que no se diga\nque no me apunto a lo que sea.\n¡Espero que mi nuevo hogar sea\nun sitio flipante, !",
      "EUfr": "Un peu, mon n'veu ! J'commence à \nm'encroûter là où je crèche, changer\nde décor me f'ra pas d'mal !",
      "EUit": "OK, certo! I cambiamenti non mi\ndispiacciono. Scegli però il posto adatto\na una vera dura, !",
      "EUnl": "Ja, tuurlijk, ik doe mee! Tijd voor iets\nhe-le-maal nieuws, maatje. Zeg maar\nwaar ik heen moet, (catchphrase)!",
      "EUru": "Само собой! Я за! Сейчас самое\nвремя для хорошей встряски.\nТолько скажите куда! (catchphrase)!",
      "JPja": "よーし、その話　乗った！\nちょうど　気分を変えてみたかったトコさ\nいい場所を　選んでおくれよ？　",
      "KRko": "좋아! 그러지 뭐!\n마침 기분 전환이 필요하던 참이었거든\n좋은 곳 찾아줘야 된다! !",
      "TWzh": "好！我答應你！\n我正好想轉換一下心情呢。\n你可要幫我選個好地點喔？。",
      "USen": "Yeah, sure, I'm in! I was just thinkin'\nit was time for a shake-up. Point\nthe way, (catchphrase)!",
      "USes": "¡Sí! Que no se diga que no me\napunto a lo que sea.\n¡Espero que mi nuevo hogar sea\nde lo más atómico, (catchphrase)!",
      "USfr": "Un peu, mon neveu! J'commence à \nm'encroûter là où j'vis, changer\nde décor me f'ra pas d'mal!"
    }
  },
  {
    "label": "002",
    "attribute": "0x0000000000000000",
    "locale": {
      "CNzh": "我完全没意见哦！\n我很期待完工后的样子，\n你就打起精神，好好为我装修吧！",
      "EUde": "Hau rein, Gänseblümchen. Freu mich\nschon auf das Ergebnis.",
      "EUen": "Go right ahead. I'm lookin' forward\nto seeing what you come up with.",
      "EUes": "Adelante con el tema. A ver con qué\nme sorprendes.",
      "EUfr": "Allez-y gaiement. J'ai hâte de voir\nc'que vous allez m'pondre !",
      "EUit": "Perché no? Sono curiosa di vedere\ncome andrà.",
      "EUnl": "Zekersteweten. Ik kan niet wachten\nom de chille bende te zien die jullie\nvoor me gaan opleveren!",
      "EUru": "Приступай. Мне очень интересно\nпосмотреть, что ты предложишь.",
      "JPja": "ウチは　全然　かまわないよ！\nどんな風になるか　楽しみにしてるから\n気合い入れて　リフォームしておくれ！",
      "KRko": "난 아무래도 상관없어!\n어떤 식으로 변할지 기대할 테니까\n기합 빡 넣고 리폼해주라!",
      "TWzh": "我這邊沒意見喔！\n我很期待裝修後的樣子，\n麻煩你卯足幹勁幫我裝修吧！",
      "USen": "Go right ahead. I'm lookin' forward\nto seeing what you come up with.",
      "USes": "Pues adelante. A ver con qué\nme sorprendes.",
      "USfr": "Allez-y gaiement. J'ai hâte de voir\nc'que vous allez m'pondre!"
    }
  }
]