﻿[
  {
    "label": "001",
    "attribute": "0x0000000000000000",
    "locale": {
      "CNzh": "",
      "EUde": "",
      "EUen": "",
      "EUes": "",
      "EUfr": "",
      "EUit": "",
      "EUnl": "",
      "EUru": "",
      "JPja": "",
      "KRko": "",
      "TWzh": "",
      "USen": "",
      "USes": "",
      "USfr": ""
    }
  },
  {
    "label": "001_01",
    "attribute": "0x0000000000000000",
    "locale": {
      "CNzh": "我不管盯着虫子看多久，\n都完全不会觉得腻！挺不可思议的呢！\n如果是一只虫子突然飞过来，我也会怕的。\n博物馆的虫子都很乖的，\n可以放心地慢慢鉴赏哦！。",
      "EUde": "Ich find diese ganzen Krabbeltiere\nirgendwie eklig-faszinierend. Mir\negal, wenn mich das seltsam macht...\nAuf mir rumspringen solln die lieber\nlassen. Aber aus sicherer Entfernung\nkann ich mir die schon reinziehn!",
      "EUen": "No matter how long I stare, I just\nnever get bored of bugs. Maybe that\nmakes me weird. Whatever.\nI mean, I don't like it when they're\nleaping at my face or anything, but\nin a museum? Super fascinating.",
      "EUes": "Ah, míralos qué listos ellos...\nAquí se están bien quietos, ¿eh?\n¡Pero cuando intento cazarlos\nbien que se escapan corriendo\nlos muy pillos!",
      "EUfr": "J'peux mater les bébêtes pendant\ndes plombes, j'me lasse pas. Tant pis\nsi ça m'fait passer pour une toc-toc.\nAprès, j'dis pas que j'suis une fan\ndes bestioles qui s'jettent sur ma\nface... mais dans un musée, j'kiffe.",
      "EUit": "Potrei guardare gli insetti per ore\nsenza mai annoiarmi. Sarò strana io,\nforse. Anche se fosse... va bene così.\nNon mi piacerebbe trovarmeli sulla\nfaccia all'improvviso, per carità. Ma\nqui nel museo... li trovo affascinanti.",
      "EUnl": "Hoelang ik ook naar ze staar,\nbeestjes vervelen nooit. Misschien\nben ik raar of zo. Dat kan.\nIk hoef ze ook weer niet in mijn\ngezicht, hoor. Maar in een museum?\nSuperfascinerend.",
      "EUru": "Сколько бы я ни смотрела на\nнасекомых, они мне не надоедают.\nМожет, я странная. Ну и ладно.\nКонечно, я не люблю, когда они\nмне на голову падают, но в музее\nони такие милашки.",
      "JPja": "ムシってのは、ずーっと　眺めていても\n全然　飽きないから　不思議だねぇ\n急に　飛んで来られると　コワいけど、\n博物館のムシは　落ち着いてるから\n安心して　ゆっくり鑑賞できるよ、",
      "KRko": "곤충은 계속 보고 있어도\n질리지 않는 게 참 신기하단 말이지\n갑자기 날아오면 무섭지만\n이런 박물관에서는 얌전하니까\n안심하고 감상할 수 있어, ",
      "TWzh": "話說就算盯著昆蟲一直看，\n也完全看不膩，真是不可思議啊。\n如果突然飛過來是挺嚇人的啦，\n但博物館的昆蟲都很乖巧，\n可以放心慢慢看，。",
      "USen": "No matter how long I stare, I just\nnever get bored of bugs. Maybe that\nmakes me weird. Whatever.\nI mean, I don't like it when they're\nleaping at my face or anything, but\nin a museum? Super fascinating.",
      "USes": "Ah, míralos qué listos ellos...\nAquí sí están bien quietos, ¿no?\n¡Pero cuando intento atraparlos\nbien que se escapan los condenados!",
      "USfr": "J'peux r'garder les bébêtes pendant\ndes heures, j'me lasse pas. Tant pis\nsi ça m'fait passer pour une toc-toc.\nAprès, j'dis pas que j'suis une fan\ndes bestioles qui s'jettent sur ma\nface... mais dans un musée, j'aime."
    }
  },
  {
    "label": "001_02",
    "attribute": "0x0000000000000000",
    "locale": {
      "CNzh": "这间屋子里\n好像有展示一些危险的虫子，\n参观的时候可要提高警惕啊！\n这种情况如何走好第一步是关键！\n面对初次见面的虫子，可不能让它小看你了！\n要打起精神，拿出你的威慑力来！。",
      "EUde": "In diesem Raum findet man so\nmanche knallharte Viecher. Die\nsind fast so knallhart wie icke!\nAber nur fast! Mit meinem fiesen\nBlick schüchter ich die alle so lange\nein, bis sie parieren, (Floskel)!",
      "EUen": "This room's got a some really\ndangerous bugs in it. I just HAD\nto check 'em out, (catchphrase)!\nI've been going from bug to bug,\nstaring them all down. Don't wanna\nshow any weakness!",
      "EUes": "¿Sabías que en esta sala tienen\nunos bichos bastante peligrosos?\nMe he pasado a verlos para que\nsepan que no les tengo miedo.\n¡No puede haber nadie más dura\nque yo en toda ,\n!",
      "EUfr": "Y a des insectes très dangereux dans\nc'te pièce. J'allais pas rater ça,\n(expression) !\nMais j'suis passée d'une bestiole à\nl'autre et j'te les ai toisées les yeux\ndans les yeux. Même pas peur !",
      "EUit": "Alcuni degli insetti esposti in questa\nstanza sono molto pericolosi. Dovevo\nassolutamente vederli!\nLi ho guardati tutti negli occhi,\nsenza saltarne nemmeno uno. Ora\nsanno chi comanda, !",
      "EUnl": "Deze ruimte heeft veel gevaarlijke\ninsecten. Die moest ik gewoon gaan\nzien, (catchphrase)!\nIk ga de hele ruimte door en staar\nnaar ze. Mooi niet dat ze mijn\nzwakke plekken ontdekken!",
      "EUru": "В этом зале опасные насекомые.\nЯ просто не могла пройти мимо!\nЯ подхожу к каждому насекомому\nи смотрю ему в глаза. Нельзя\nдавать слабину! !",
      "JPja": "この部屋は　危険なムシも\n展示される場所みたいだから、\n気合い入れて　見学しなきゃね！\nこういうのは　最初が肝心なんだ\n初対面のムシに　なめられないように、\nしっかり　ガン飛ばしていくよ！　",
      "KRko": "여기는 위험한 곤충도 전시되어 있다니까\n견학할 땐 눈에 힘주고 다녀야겠다!\n이런 건 처음이 중요하다구\n곤충한테 초면에 무시당하지 않게\n철저하게 기선을 제압해야지! !",
      "TWzh": "這房間看起來\n好像也展示了一些危險的昆蟲，\n所以得拿出幹勁參觀才行呢！\n這種時候，一開始可是關鍵！\n為了別讓初次見面的昆蟲瞧不起，\n我要用眼神好好給牠們個下馬威！。",
      "USen": "This room's got a some really\ndangerous bugs in it. I just HAD\nto check 'em out, (catchphrase)!\nI've been going from bug to bug,\nstaring them all down. Don't wanna\nshow any weakness!",
      "USes": "¿Sabías que en esta sala tienen\nunos insectos bastante peligrosos?\n¡Vine a verlos para que sepan que\nno les tengo miedo!\n¡No puede haber nadie más ruda\nque yo en ,\n(catchphrase)!",
      "USfr": "Y'a des insectes très dangereux dans\nc'te pièce. J'allais pas rater ça,\n(expression)!\nMais j'suis passée d'une bestiole à\nl'autre et j'te les ai toisées les yeux\ndans les yeux. Même pas peur!"
    }
  },
  {
    "label": "001_03",
    "attribute": "0x0000000000000000",
    "locale": {
      "CNzh": "还好虫子的体型\n只有那么点儿……\n要是它们体型很大的话，\n感觉不管我们如何努力，\n都战胜不了它们。。",
      "EUde": "Zum Glück sind Insekten so klein...\nNich' auszudenken, wenn die so\ngroß wären wie wir!",
      "EUen": "I'm glad these bugs are so small.\nIf they were any bigger...well,\nI wouldn't be cool with that.",
      "EUes": "Hay peña que le tiene pánico a\nlos bichos, ¿sabes? Es algo que\nnunca he entendido, tú...\nCon lo pequeñuelos que son, deben\nde vernos en plan gigantes. ¡Seguro\nque les damos un miedo tremendo!",
      "EUfr": "J'suis bien contente qu'ces bestioles\nsoient si p'tites. Un poil plus grosses\net j'me mettais à flipper.",
      "EUit": "Questi insetti sono così piccoli! Va\nbene così. Se fossero più grandi...\nnon mi sentirei troppo tranquilla.",
      "EUnl": "Gelukkig zijn deze beestjes klein. Als\nze groter waren... Daar zou ik niet\necht blij van worden.",
      "EUru": "Хорошо, что эти насекомые\nмаленькие. Если бы они больше\nбыли... это было бы вовсе не круто.",
      "JPja": "ムシってさ、あのサイズで\nホントに　良かったねぇ・・・\n姿はあのままで　もっとデカかったら\nウチらが　どうがんばっても\n勝てる気が　しないじゃないか、",
      "KRko": "곤충은 저만한 크기여서\n참 다행인 것 같아...\n저런 모습에 크기까지 컸으면\n우리가 아무리 싸워도\n승산은 없었을 거야, ",
      "TWzh": "真慶幸昆蟲的大小\n就那麼一丁點大呢……\n因為要是牠的樣子不變，體型卻更大的話，\n不管我們再怎麼努力，\n感覺都贏不了牠啦！。",
      "USen": "I'm glad these bugs are so small.\nIf they were any bigger...well,\nI wouldn't be cool with that.",
      "USes": "Hay quienes le tienen pánico a\nlos insectos... Es algo que nunca\nhe entendido, tú...\nCon lo pequeñuelos que son, deben\nde vernos como gigantes. ¡Seguro\nque les damos un miedo tremendo!",
      "USfr": "J'suis bien contente qu'ces bestioles\nsoient si p'tites. Un poil plus grosses\net j'me mettais à capoter."
    }
  },
  {
    "label": "002",
    "attribute": "0x0000000000000000",
    "locale": {
      "CNzh": "",
      "EUde": "",
      "EUen": "",
      "EUes": "",
      "EUfr": "",
      "EUit": "",
      "EUnl": "",
      "EUru": "",
      "JPja": "",
      "KRko": "",
      "TWzh": "",
      "USen": "",
      "USes": "",
      "USfr": ""
    }
  },
  {
    "label": "002_01",
    "attribute": "0x0000000000000000",
    "locale": {
      "CNzh": "虫子的忍耐力好强大啊！\n像那样一动不动的，应该很不容易吧。\n这毅力真是让人刮目相看啊！\n我也要学习一下它们的忍耐力！\n当然，说不定\n它们只是在休息而已。。",
      "EUde": "Die Kerlchen haben ganz schön\nviel Geduld... Den lieben langen\nTag still sitzen, das könnt ich nich'.\nVielleicht hat das mit Geduld nix\nzu tun und die Viecher sind einfach\nnur grottenfaul. Gahahah!",
      "EUen": "Bugs have a ton of patience. They\ncan just sit there for hours, waiting\nfor their moment, (catchphrase).\nThere's so much I can learn. They're\nso calm, so focused. I definitely need\nmore of that in my life.\nHmm... I suppose they could also\njust be lazy though. I've already\nlearned how to be lazy.",
      "EUes": "Mira qué tranquilitos están\nlos bichejos por aquí, ¿eh?\nMe recuerdan un poco a mí, ¿sabes?\nAhora me he calmado bastante, ¡pero\nde joven era un torbellino tremendo!\nLo bueno es que he vivido tanto\nque ahora tengo consejos para\ndar y regalar.\nSi algún día tienes un dilema,\n¡ya sabes que puedes hablar\ncon la menda!",
      "EUfr": "Les p'tites bêtes ont une patience de\ndingo. Elles s'posent pendant des\nplombes sans bouger une antenne.\nElles attendent leur moment sans\nmoufter... J'pourrais en prendre\nd'la graine, ça m'ferait pas d'mal.\nHmm... Ou alors c'est juste des\ngrosses feignasses... Et de c'côté-là,\nj'ai zéro leçon à r'cevoir !",
      "EUit": "Gli insetti hanno una pazienza\ninvidiabile. Possono rimanere fermi a\nlungo in attesa del momento giusto.\nPotrei imparare molto da loro. Sono\ncosì calmi e concentrati. Non mi\ndispiacerebbe essere così.\nMmmh... E se fossero solo pigri?\nSulla pigrizia, però, non ho niente\nda imparare: sono già la migliore!",
      "EUnl": "Insecten zijn hartstikke geduldig. Ze\nkunnen uren zitten wachten op het\njuiste moment, (catchphrase).\nDaar kan ik nog wat van leren. Ze\nzijn zo kalm, zo gefocust. Daar wil ik\nmeer van in mijn leven.\nHmm... Het kan natuurlijk ook nog\ndat ze gewoon lui zijn. En luiheid heb\nik allang onder de knie.",
      "EUru": "У насекомых просто тонны\nтерпения. Они часами могут\nждать нужного момента.\nНужно у них поучиться. Они такие\nспокойные, целеустремленные.\nМне эти качества не помешают.\nХм... Хотя может быть, они просто\nлентяи. Этому мне учиться не\nнадо, и так умею!",
      "JPja": "ムシってのは　ガマン強いよねぇ\nじーっとしてるのも　大変だろうに、\nなかなか　見上げた根性だよ\nこの忍耐力は　ウチも見習わなきゃね！\nもしかしたら、のんびり　してるだけかも\n知れないけどさ、",
      "KRko": "곤충들은 엄청 잘 참는 것 같아\n오랫동안 가만히 있기도 하잖아?\n대단한 정신력이라니까\n나도 이 인내심을 본받고 싶어!\n이랬는데 사실은 그냥 느긋하게\n늘어져 있는 거 아닐까? ?",
      "TWzh": "昆蟲啊……真是很擅長忍耐耶！\n像那樣靜靜待著不動實在很辛苦，\n牠的毅力真讓我佩服啊！\n看來我也得學學牠的這股忍耐力呢！\n不過，也許牠只是在\n悠閒地放鬆而已哩，。",
      "USen": "Bugs have a ton of patience. They\ncan just sit there for hours, waiting\nfor their moment, (catchphrase).\nThere's so much I can learn. They're\nso calm, so focused. I definitely need\nmore of that in my life.\nHmm... I suppose they could also\njust be lazy though. I've already\nlearned how to be lazy.",
      "USes": "Mira qué tranquilos se ven los\ninsectos, tú. Me recuerdan un poco\na mí, (catchphrase).\nA veces son un torbellino, pero\ncuando están en un lugar cómodo,\nse relajan y echan la flojera...\nQuizá yo también podría echarme\nuna siesta aquí de vez en cuando.",
      "USfr": "Les p'tites bêtes ont une patience de\nfou. Elles s'posent pendant des\nheures sans bouger une antenne.\nElles attendent leur moment sans\nbouger... J'pourrais apprendre à les regarder, ça m'ferait pas d'mal.\nHmm... Ou alors c'est juste des\ngrosses paresseuses... Et de\nc'côté-là, j'ai pas besoin d'leçon!"
    }
  },
  {
    "label": "002_02",
    "attribute": "0x0000000000000000",
    "locale": {
      "CNzh": "哈～～欠……\n这边的温度控制得真是太绝了！\n我都开始犯困了。\n栖息在温暖地带的虫子，\n是不是一直都在和睡魔做抗争啊……\n真是让人肃然起敬呢！。",
      "EUde": "Die Temperaturregulierung läuft hier\n'nen Ticken zu gut... Wenn ich nich'\naufpasse, schnarch ich gleich weg.\nGeht's den Krabbeltierchen auch so?\nMüssen die jeden Tag Käfer-Energy-\nDrinks bechern, um wach zu bleiben?",
      "EUen": "The temperature control in here's\nworking a little TOO well...I feel like\nI'm gonna doze off, (catchphrase).\nDo you think bugs in warm places\nare always fighting to stay awake?\nThink they drink, like, bug coffee?",
      "EUes": "¿No te hace muchísima gracia\nla palabra «bicho»? Suena como...\nno sé, a estornudo o algo así.\n¿Crees que a ellos la palabra\n«persona» les hará la misma\ngracia?",
      "EUfr": "Le radiateur marche un poil trop\nbien, ici. J'pique du nez,\n(expression).\nTu crois qu'les insectes galèrent\naussi pour pas roupiller ? Qu'ils\nboivent de l'insexpresso pour tenir ?",
      "EUit": "La temperatura qui dentro mi sembra\nun po' troppo piacevole... Sento che\npotrei addormentarmi.\nSecondo te gli insetti fanno fatica\na stare svegli quando fa caldo?\nMagari bevono dei micro caffè.",
      "EUnl": "Ze beheren de temperatuur hier iets\nté goed... Ik val zo nog in slaap,\n(catchphrase).\nHebben insecten op warme plekken\nook moeite met wakker blijven?\nDrinken ze soms een beestjesbakkie?",
      "EUru": "Здесь о-очень хорошо работают\nбатареи... Сейчас засну.\nКак думаешь, как насекомым\nудается сохранять бодрость?\nМожет, они пьют особый кофе?",
      "JPja": "ふぁ～・・・\nここの温度管理が　絶妙で、\n眠くなって　きちまったよ\n暖かい場所に　住んでるムシってのは、\nいつも睡魔と　戦ってんのかねぇ・・・\nなんだか　尊敬しちまうよ、",
      "KRko": "흐아암～...\n여기는 온도 관리가 잘되어 있어서\n졸음이 자꾸 몰려온다니까\n따뜻한 곳에 사는 곤충들은\n항상 졸음과 싸우고 있는 걸까...\n정말 존경스러운 녀석들이야, ",
      "TWzh": "呼啊……\n這裡的溫度控制得真好，\n讓我都覺得睏啦！\n棲息在溫暖環境裡的昆蟲\n該不會隨時都在抵抗睡魔吧……\n總覺得好崇拜牠們啊，。",
      "USen": "The temperature control in here's\nworking a little TOO well...I feel like\nI'm gonna doze off, (catchphrase).\nDo you think bugs in warm places\nare always fighting to stay awake?\nThink they drink, like, bug coffee?",
      "USes": "El ambiente aquí está muy\nagradable... Podría quedarme\ndormida, (catchphrase).\n¿Será que a los insectos también\nles da sueño? ¿Tomarán café de\ninsectos para despertar?",
      "USfr": "Le radiateur marche un poil trop\nbien, ici. J'pique du nez,\n(expression).\nTu crois qu'les insectes se battent\naussi pour pas s'endormir? Qu'ils\nboivent de l'insexpresso pour tenir?"
    }
  },
  {
    "label": "002_03",
    "attribute": "0x0000000000000000",
    "locale": {
      "CNzh": "好像这间屋子里的，\n大多是孩子们喜欢的虫子。\n确实呢……\n我小的时候，\n也超级喜欢这些品种的虫子！\n就连现在，我都还会向往那种强大的力量！",
      "EUde": "Kinder finden Insekten immer total\ntöfte. Erst wenn man älter wird,\nentwickelt sich 'ne fiese Phobie...\nDa kann ich ja von Glück sagen, dass\nich geistig noch ein Teenie bin!",
      "EUen": "The insects in here are always a big\nhit with kids. I totally get it though.\nWhen I was a brat, I couldn't get\nenough of these bugs. Honestly,\nI'm still fascinated by 'em now!",
      "EUes": "Aquí los bichos parecen inofensivos\ny la mar de pacíficos, pero...\n¿Quién no ha tenido pesadillas\nterribles con ellos alguna vez?\n¡Yo no, por supuesto! Pero una\namiga mía me contó algo así una vez.",
      "EUfr": "Les gamins sont comme des fous\nquand ils arrivent dans la salle\ndes bébêtes. Tu m'étonnes !\nQuand j'étais môme, j'étais à donf\nsur les bébêtes ! Remarque, c'est\ntoujours le cas aujourd'hui !",
      "EUit": "Ai piccoli piacciono molto gli insetti\ndi questa stanza. Li capisco.\nQuando ero piccola anche io, non\navevo occhi che per loro. E non ho\nsmesso di trovarli affascinanti.",
      "EUnl": "De insecten hier zijn razend populair\nbij de kinderen. Dat begrijp ik wel.\nAls blaag van weinig jaar oud kon ik\ngeen genoeg van ze krijgen. Om\neerlijk te zijn is dat nog steeds zo!",
      "EUru": "Эти насекомые всегда очень\nнравятся детям. И это понятно.\nЯ сама, когда еще была маленькой\nбезобразницей, их обожала. И до\nсих пор они меня завораживают.",
      "JPja": "この部屋にいるのは\nこどもに人気のムシが　多いみたいだけど、\nそりゃ　そうだろうねぇ・・・\nウチも　ガキの頃、こういうタイプのムシが\n好きで好きで　しかたなかったよ！\n今でも　あの力強さには、あこがれてるんだ",
      "KRko": "여기에 있는 곤충들은\n아이들한테 인기가 많다던데\n그것도 이해가 가...\n나도 어릴 땐 이런 곤충들을\n엄청 좋아했었거든!\n지금도 그 힘을 동경하고 있지...",
      "TWzh": "在這房間裡的，\n好像大多都是受小孩喜愛的昆蟲耶，\n想想也是呢……\n我小時候也喜歡這類型的昆蟲\n喜歡得不得了啊！\n現在我依然很崇拜牠們那股強勁的魄力喔。",
      "USen": "The insects in here are always a big\nhit with kids. I totally get it though.\nWhen I was a brat, I couldn't get\nenough of these bugs. Honestly,\nI'm still fascinated by 'em now!",
      "USes": "Aquí los insectos parecen\ninofensivos, pero...\n¿Quién no ha tenido pesadillas\nterribles con ellos alguna vez?\n¡Yo no, por supuesto! Pero una amiga\nmía me contó algo así una vez...",
      "USfr": "Les enfants sont comme des fous\nquand ils arrivent dans la salle\ndes bébêtes. Tu m'étonnes!\nQuand j'étais p'tite, j'lisais tout \nsur les bébêtes! Remarque, c'est\ntoujours le cas aujourd'hui!"
    }
  },
  {
    "label": "003",
    "attribute": "0x0000000000000000",
    "locale": {
      "CNzh": "",
      "EUde": "",
      "EUen": "",
      "EUes": "",
      "EUfr": "",
      "EUit": "",
      "EUnl": "",
      "EUru": "",
      "JPja": "",
      "KRko": "",
      "TWzh": "",
      "USen": "",
      "USes": "",
      "USfr": ""
    }
  },
  {
    "label": "003_01",
    "attribute": "0x0000000000000000",
    "locale": {
      "CNzh": "一看到翩翩飞舞的虫子，\n我就想要\n拿起我的捕虫网……\n感觉已经是一种条件反射了！\n如果我真的在这里捕虫子的话，\n馆长一定会赶来把我大骂一顿的。。",
      "EUde": "Seh ich ein Flattervieh durch die Luft\nschwirren, juckt's mich direkt in den\nFingern, den Kescher auszupacken.\nAber wenn ich den hier drin auch nur\nansatzweise schwingen würde, würde\nmir Eugen die Ohren lang ziehn...",
      "EUen": "If I see a bug flapping around, I get\nan urge to grab my net. It's probably\na conditioned-reflex thingie.\nIf I tried to catch any of the bugs in\nhere, the curator'd probably get\nsuper angry, (catchphrase)...",
      "EUes": "Si tuvieses que elegir, ¿qué te\nharía más ilusión: ser un bicho\no ser un pez?\nYo sería un bicho sin dudarlo.\n¡Imagínate poder volar y brincar\ncomo si no hubiese un mañana!",
      "EUfr": "Si j'vois une bébête voltiger, j'ai\nl'filet qui m'démange. C'est un genre\nde réflexe conditionné.\nMais là, j'me retiens, parce que si\nj'commence à jouer du filet ici,\nle conservateur va s'mettre en boule.",
      "EUit": "Quando vedo volare una farfalla, mi\nviene voglia di prendere il retino.\nSarà un riflesso condizionato.\nMa devo controllarmi. Se cercassi\ndi catturare quelle esposte qui,\nqualcuno si arrabbierebbe molto.",
      "EUnl": "Als ik een insect zie vliegen, krijg\nik de neiging om mijn net te pakken.\nDat zal wel zo'n reflex zijn.\nAls ik dat hierbinnen doe, krijg ik\nalleen geheid ruzie met de\nconservator, (catchphrase)...",
      "EUru": "Когда вижу насекомых, сразу\nхватаюсь за сачок. Наверное,\nусловный рефлекс.\nНо куратор будет ругаться, если\nя здесь начну ловить насекомых!",
      "JPja": "ひらひら飛ぶ　ムシを　見ると、\nウチはつい、あみをかまえたく\nなっちまうんだ・・・\nま、条件反射ってヤツだね！\nこんなとこで　ムシとりなんかしちゃ、\n館長が飛んできて　大目玉だよ、",
      "KRko": "하늘하늘 날아다니는 곤충을 보고 있으면\n나도 모르게 잠자리채를\n꺼내 들고 싶어져...\n이런 걸 조건 반사라고 하나 봐!\n이런 데서 곤충채집을 했다간\n관장한테 엄청 혼나겠지? ?",
      "TWzh": "一看到飛來飛去的昆蟲，\n我就會忍不住想擺出\n揮捕蟲網的架式啊……\n哎，這就是所謂的反射動作吧！\n要是我在這種地方抓蟲，\n館長可會衝過來臭罵我一頓哩，。",
      "USen": "If I see a bug flapping around, I get\nan urge to grab my net. It's probably\na conditioned-reflex thingie.\nIf I tried to catch any of the bugs in\nhere, the curator'd probably get\nsuper angry, (catchphrase)...",
      "USes": "Si tuvieras que elegir, ¿qué\npreferirías: ser un insecto\no ser un pez?\nYo sería un insecto sin dudarlo.\n¡Imagínate poder volar y brincar\npor donde me dé la gana!",
      "USfr": "Si j'vois une bébête voltiger, j'ai\nl'filet qui m'démange. C'est un genre\nde réflexe conditionné.\nMais là, j'me retiens, parce que si\nj'commence à jouer du filet ici,\nle conservateur va s'mettre en boule."
    }
  },
  {
    "label": "003_02",
    "attribute": "0x0000000000000000",
    "locale": {
      "CNzh": "这间房间很暖和，\n所以不仅是虫子，花儿们看起来也很高兴呢。\n要是我家也能有个这么大的温室，\n我就想搞一个植物园！\n别看我这样，我可是很喜欢花的。。",
      "EUde": "Bei dem Klima kann man sich hier\ndrin echt wohlfühlen, (Floskel)...\nGlaubste mir nich'? Schau dir mal\ndie Pflanzen an. Schon mal so happy\nGrünzeug gesehn? Eben!",
      "EUen": "This temperature feels absolutely\nperfect. I bet it's not just the bugs\nthat are happy to be here.\nLook around. All the plants look\nsoooo healthy, (catchphrase)!\nI wish I had enough room for a\ngreenhouse like this. It'd be a blast\nto look after so much greenery!",
      "EUes": "Qué temperatura más ideal hace\nen este sitio, ¿no? Se nota que\nlos bichos están panchísimos.\nOye... ¿crees que sería muy cantoso\ntraer aquí la colada para secarla?\nHuy, no. No lo pregunto por mí, ¿eh?",
      "EUfr": "La température est parfaite.\nY a pas qu'les p'tites bébêtes qui\ns'la coulent douce ici, .\nJette un coup d'œil autour de toi :\nles fleurettes aussi ont la banane !\nSi seulement j'avais assez d'place\nchez moi... J'mettrais aussi d'la\nverdure à perte de vue !",
      "EUit": "La temperatura in questa stanza non\nè niente male. Scommetto che non\nfa felice solo gli insetti.\nGuardati intorno. Tutte le piante\ncrescono rigogliose, (catchphrase)!\nSe solo avessi abbastanza spazio per\nuna serra così. Occuparmi di tante\ncreature verdi sarebbe il massimo!",
      "EUnl": "Deze temperatuur voelt he-le-maal\nperfect. De insecten zijn vast niet de\nenige blije bewoners.\nKijk eens om je heen. Alle planten\nzien er kerngezond uit!\nHad ik maar genoeg plek voor een\ngrote kas als deze. Ik zou maar wat\ngraag voor al dat groen zorgen!",
      "EUru": "Здесь идеальная температура.\nНаверное, тут не только насекомым\nхорошо живется.\nТолько посмотри, все растения\nтакие довольные! (catchphrase)!\nЖаль, у меня нет такой оранжереи.\nБыло бы круто выращивать\nстолько растений.",
      "JPja": "この部屋は　暖かいから、\nムシだけじゃなくて　花も　うれしそうだねぇ\n家に　コレぐらい広い　温室があれば、\nウチは　植物園を　作りたいよ\nこう見えて　ウチは　花が好きでね、",
      "KRko": "여기는 너무 따뜻해서\n곤충뿐만 아니라 꽃들도 기분이 좋아보인다\n우리 집에 이만큼 넓은 온실이 있었다면\n나는 아마 식물원을 만들었을 거야\n이래 봬도 꽃을 좋아하거든, !",
      "TWzh": "這房間很溫暖，\n所以不只是昆蟲，花朵應該也會喜歡這裡吧。\n要是家裡有這麼大間的溫室，\n我還真想弄一座植物園呢！\n別看我這樣，我可是很愛花的喔，。",
      "USen": "This temperature feels absolutely\nperfect. I bet it's not just the bugs\nthat are happy to be here.\nLook around. All the plants look\nsoooo healthy, (catchphrase)!\nI wish I had enough room for a\ngreenhouse like this. It'd be a blast\nto look after so much greenery!",
      "USes": "La temperatura de este lugar es\nperfecta, ¿no? Se nota que los\ninsectos están pasándola a todo dar.\n¡Podría hacer una fiesta veraniega\nen los días más fríos del año, tú!",
      "USfr": "La température est parfaite. Y'a\npas qu'les p'tites bébêtes qui\ns'la coulent douce ici, .\nJette un coup d'œil autour de toi :\nles fleurettes aussi ont la banane!\nSi seulement j'avais assez d'place\nchez moi... J'mettrais aussi d'la\nverdure à perte de vue!"
    }
  },
  {
    "label": "003_03",
    "attribute": "0x0000000000000000",
    "locale": {
      "CNzh": "在这个温室，虫子们能过得很舒服吧。\n我也能在放松的状态下观察它们，\n简直太棒了！。",
      "EUde": "Check mal, wie relaxt die ganzen\nFlatterviecher hier abhängen.\nLiegt das an der Location oder daran,\ndass sie keine Fressfeinde haben?",
      "EUen": "I love this room. It's so toasty and\ncozy. You can relax, take it easy, and\njust stare at some insects.\nEven the bugs look super relaxed...\nthough that might be because there\naren't any predators in here.",
      "EUes": "Jo, qué bien se está en esta sala.\nCon esta temperatura que tiene,\nme da una modorra tremenda...\n(Creo que ya sé dónde me voy\na venir a echar la siesta a partir\nde ahora. Ji, ji, ji.)",
      "EUfr": "J'adore cette pièce. Il fait chaud,\non s'y sent à l'aise. On peut la jouer\npeinarde, à contempler les insectes.\nD'ailleurs, les bébêtes aussi ont l'air\nrelax... Pas un prédateur à l'horizon,\nelles peuvent roupiller tranquillou !",
      "EUit": "Questa stanza è la mia preferita.\nSi sta così caldi e comodi. Ci si può\npigramente rilassare con gli insetti.\nSì, sembrano tutti così tranquilli...\nForse, però, il motivo è un altro. Non\nci sono predatori da queste parti.",
      "EUnl": "Ik ben dol op deze ruimte. Het is hier\nzo knus. Je kunt hier lekker\nontspannen en naar insecten staren.\nZelfs de insecten zijn ontspannen...\nMaar dat is vast omdat er hier geen\nroofdieren zijn.",
      "EUru": "Такой классный зал. Теплый,\nуютный... Можно расслабиться\nи наблюдать за насекомыми.\nДаже жуки все расслабленные...\nНаверное, это потому, что здесь\nнет их естественных врагов.",
      "JPja": "この温室は　ムシも　過ごしやすそうだねぇ\nこっちも　リラックスしながら　観察できるし\n最高じゃないか、",
      "KRko": "이 온실은 곤충들도 살기 좋아 보여\n보는 사람도 편하게 관찰할 수 있고\n진짜 최고야, ",
      "TWzh": "感覺這間溫室能讓昆蟲舒適地待著呢！\n而且來參觀的人也可以一邊放鬆，\n一邊觀察昆蟲，真是太棒啦！。",
      "USen": "I love this room. It's so toasty and\ncozy. You can relax, take it easy, and\njust stare at some insects.\nEven the bugs look super relaxed...\nthough that might be because there\naren't any predators in here.",
      "USes": "Esta sala es muy chévere...\nCon esta temperatura que tiene,\nme da un sueño tremendo...\nCreo que ya sé dónde me voy\na venir a echar la siesta a partir\nde ahora.",
      "USfr": "J'adore cette pièce. Il fait chaud,\non s'y sent à l'aise. On peut la jouer\ntranquille, à contempler les insectes.\nD'ailleurs, les bébêtes aussi ont l'air\nrelax... Pas un prédateur à l'horizon,\nelles peuvent roupiller doucement!"
    }
  },
  {
    "label": "100",
    "attribute": "0x0000000000000000",
    "locale": {
      "CNzh": "",
      "EUde": "",
      "EUen": "",
      "EUes": "",
      "EUfr": "",
      "EUit": "",
      "EUnl": "",
      "EUru": "",
      "JPja": "",
      "KRko": "",
      "TWzh": "",
      "USen": "",
      "USes": "",
      "USfr": ""
    }
  },
  {
    "label": "100_01",
    "attribute": "0x0000000000000000",
    "locale": {
      "CNzh": "这座岛上的博物馆很不错吧？\n展出的虫子一只只地变多，\n总会让我很期待呢！。",
      "EUde": "Ich feier es jedes Mal gewaltig ab,\nwenn hier 'ne Ausstellung um\nirgendwas erweitert wird. Yeah!",
      "EUen": "This museum's really something,\nisn't it, (catchphrase)?\nEvery time they get a new bug in,\nmy hype ratchets up, like,\nthree notches!",
      "EUes": "¿Sabes qué? Cada vez que añaden\nun bicho nuevo a la colección del\nmuseo, hago algo para celebrarlo.\n¡Me invento un paso de baile en\nsu honor! Mira, este es el último\nque he creado. ¿Te mola, tronco?",
      "EUfr": "Ce musée, c'est pas rien quand\nmême. .\nChaque fois qu'ils accueillent un\nnouvel insecte, j'ai l'palpitant qui\nbondit et j'me rue sur place !",
      "EUit": "Questo museo non è niente male.\nNon credi anche tu?\nTutte le volte che mettono in mostra\nun nuovo insetto, corro subito qui\na vederlo, !",
      "EUnl": "Dit is een indrukwekkend museum,\nvind je niet?\nElke keer als er een nieuw beestje\nbijkomt, sta ik voor de deur. Soms\ndagen van tevoren. !",
      "EUru": "Крутой музей, правда?\nС каждым новым насекомым мой\nэнтузиазм подскакивает на десять\nбаллов. !",
      "JPja": "この島の博物館は　なかなかだろ？\n展示されるムシが　1匹　増えるたびに\nワクワクさせてもらってんだ、",
      "KRko": "우리 섬 박물관, 괜찮지 않냐?\n전시되는 곤충이 하나씩 늘어날 때마다\n엄청 설렌다니까! !",
      "TWzh": "這座島上的博物館還挺厲害的吧？\n只要看到展示的昆蟲一隻隻增加，\n我就會很興奮哩，。",
      "USen": "This museum's really something,\nisn't it, (catchphrase)?\nEvery time they get a new bug in,\nmy hype ratchets up, like,\nthree notches!",
      "USes": "¿Sabes qué? Cada vez que añaden\nun insecto nuevo a la colección del\nmuseo, hago algo para celebrarlo.\n¡Me invento un paso de baile en\nsu honor! Mira, este es el último\nque he creado. ¿Te gusta, o qué?",
      "USfr": "Ce musée, c'est pas rien quand\nmême. .\nChaque fois qu'ils accueillent un\nnouvel insecte, j'ai la patate qui\nbondit et j'me rue sur place!"
    }
  },
  {
    "label": "100_02",
    "attribute": "0x0000000000000000",
    "locale": {
      "CNzh": "这里是不是有点像一个植物园啊？\n岛上能有一个这样的综合性的博物馆，\n感觉上就很有文化气息呢！。",
      "EUde": "Unser Museum is' schon echt cremig.\nDa kann man glatt vergessen, dass\nman auf 'ner kleenen Insel lebt.",
      "EUen": "I love our little museum botanical\ngarden thing. It makes our island\nfeel so...cosmopolitan!",
      "EUes": "Hace unos años tenía una moto\ndecorada con pegatinas de bichos.\nYa se me ha pasado esa fase, ¡pero\nme sigue molando venir por aquí a\nver bichejos majos, simpático!",
      "EUfr": "J'ai un faible pour le p'tit jardin\nbotanique du musée. Ça donne\nà l'île un côté... urbain.\nMais pas « urbain », genre pollution,\ngratte-ciels, bitume et klaxons, nan !\n« Urbain »... genre chicos, quoi.",
      "EUit": "Devo ammettere che l'allestimento\ndi piante di questo museo regala alla\nnostra isola un che di... cosmopolita!",
      "EUnl": "Ik ben dol op ons museum en\nbotanische-tuin-ding. Het geeft ons\neiland iets... werelds.",
      "EUru": "Какой же классный ботанический\nсад в нашем музее! С ним наш\nостров такой... продвинутый!",
      "JPja": "まるで　ちょっとした　植物園みたいだろ？\nこういう　複合的な　博物館が島にあると、\nなんだか　文化的な香りがするねぇ、",
      "KRko": "꼭 작은 식물원 같지?\n이런 복합적인 박물관이 섬에 있으니까\n문화가 발달한 느낌이야, ",
      "TWzh": "這裡簡直就像是小型的植物園對吧？\n只要島上有這種複合式的博物館，\n感覺就會散發一股文化氣息呢，。",
      "USen": "I love our little museum botanical\ngarden thing. It makes our island\nfeel so...cosmopolitan!",
      "USes": "Recuerdo que cuando era una\nrenacuaja, decoré mi primera bici\ncon calcomanías de insectos.\nYa se me pasó esa fase de pegar\ncalcomanías, ¡pero me sigue\ngustando ver insectos!",
      "USfr": "J'ai un faible pour le p'tit jardin\nbotanique du musée. Ça donne\nà l'île un côté... urbain.\nMais pas « urbain », genre pollution,\ngratte-ciels, bitume et klaxons, nan!\n« Urbain »... genre vivant, quoi."
    }
  },
  {
    "label": "100_03",
    "attribute": "0x0000000000000000",
    "locale": {
      "CNzh": "这家博物馆里的虫子，\n看上去都活力十足呢！\n你可以去尽情地观察哦！",
      "EUde": "Die Krabbelviecher in unsrem\nMuseum rocken gewaltigst. Na?\nBiste schon gelb vor Neid?",
      "EUen": "The bugs here are super lively! It\nreally helps our museum stand out,\ndon'tcha think?",
      "EUes": "La gente que odia los bichos lo\ntiene que pasar fatal aquí, ¿no?\n¡Menos mal que a mí me pirran!\nBueno, y supongo que a ti también.",
      "EUfr": "Ces bestioles me font fondre !\nC'est les coqueluches du musée,\ntu trouves pas ?",
      "EUit": "Gli insetti qui dentro non stanno\nfermi un istante. Venire a osservarli\nè un'esperienza niente male.",
      "EUnl": "Onze insecten zijn superlevendig!\nDat geeft ons museum iets echt\nunieks, vind je niet?",
      "EUru": "Здесь такие подвижные жучки!\nВсе-таки наш музей — самый\nкрутой, правда же?",
      "JPja": "ここの　博物館のムシたちは　なんだか\nイキイキしてるような　気がするよ\nアンタも　思う存分、楽しんでいっておくれ",
      "KRko": "이 박물관의 곤충들은\n생기가 넘치는 것 같단 말이지\n너도 마음껏 둘러보다 가라",
      "TWzh": "這間博物館裡的昆蟲\n總散發著一種朝氣蓬勃的感覺哩！\n你也去盡情感受一下吧！",
      "USen": "The bugs here are super lively! It\nreally helps our museum stand out,\ndon'tcha think?",
      "USes": "La gente que le tiene miedo a los\ninsectos debe de pasarla muy mal\naquí, ¿no?\n¡Menos mal que a mí me encantan!\nBueno, y supongo que a ti también.",
      "USfr": "Ces bestioles me font fondre!\nC'est les coqueluches du musée,\ntu trouves pas?"
    }
  },
  {
    "label": "200",
    "attribute": "0x0000000000000000",
    "locale": {
      "CNzh": "",
      "EUde": "",
      "EUen": "",
      "EUes": "",
      "EUfr": "",
      "EUit": "",
      "EUnl": "",
      "EUru": "",
      "JPja": "",
      "KRko": "",
      "TWzh": "",
      "USen": "",
      "USes": "",
      "USfr": ""
    }
  },
  {
    "label": "200_01",
    "attribute": "0x0000000000000000",
    "locale": {
      "CNzh": "这座上的虫子多种多样，\n如果将所有种类的虫子都捐赠给博物馆的话，\n那一定很有看头吧～\n我都等不及想看这里被虫子占领的一天了！\n不过傅达会感到很困扰吧。。",
      "EUde": "Auf unsrer Insel tummeln sich so\nviele bunte Krabbelviecher. Coole\nIdee, die im Museum auszustellen...\nAktuell sieht's im Insektenbereich\nnoch etwas mau aus, aber mit etwas\nHingabe wird der top, (Floskel).",
      "EUen": "This island's got so many cool bugs...It's a good thing we've got the\nmuseum to show 'em off!\nThe bug display already rocks, but\nit'll be rockin' extra hard once it's\nfilled up, (catchphrase)!",
      "EUes": "Con la de bichos molones que hay\nen la isla, menos mal que tenemos\nun buen museo para exponerlos.\nSolo espero que la peña se ponga\nlas pilas y done ejemplares de todo\ntipo, .\nLa menda no va a contribuir, eso ya\nte lo digo yo. ¡Tengo la agenda tan\nllena que no me da la vida!",
      "EUfr": "Y a tellement d'bébêtes qui\ns'bousculent sur l'île... Un musée\nest pas d'trop pour les rassembler !\nLes vitrines ont déjà d'l'allure, mais\nattends un peu qu'les insectes y\nsquattent en masse,  !",
      "EUit": "La nostra isola ha un sacco di insetti\nniente male... È bello che ci sia un\nmuseo per metterli in mostra!\nAbbiamo già una collezione tosta, ma\nsarà ancora meglio quando l'avremo\ncompletata, !",
      "EUnl": "Het barst hier van de insecten...\nGoed dat we nu een museum hebben\nom al dat moois te laten zien!\nHet ziet er nu al te gek uit, maar ik\nkrijg pas echt de kriebels als het hier\nvol beestjes zit, (catchphrase)!",
      "EUru": "На этом острове много крутых\nнасекомых... Хорошо, что их можно\nи в музее увидеть!\nЖду не дождусь, когда здесь\nсоберется полная коллекция\nбукашек! (catchphrase)!",
      "JPja": "このには　いろんなムシがいるから、\n全種類　博物館に寄贈されたら\nかなり見ごたえが　あるだろうな～\nムシで　埋めつくされる日が　待ち遠しいね！\nフータさんは　困るかもだけど、",
      "KRko": "이 에는 다양한 곤충들이 있으니까\n모든 종류가 다 박물관에 기증되면\n진짜로 볼 만하겠어～\n곤충으로 꽉꽉 채워질 날이 기대되는구만!\n부엉씨가 좋아할진 모르겠지만, ",
      "TWzh": "這座島上有著各式各樣的昆蟲，\n如果能將全部的種類都捐贈給博物館，\n我想那一定會很壯觀的～\n真是期待擺滿昆蟲的那天啊！\n不過傅達應該會感到很困擾就是了，。",
      "USen": "This island's got so many cool bugs...It's a good thing we've got the\nmuseum to show 'em off!\nThe bug display already rocks, but\nit'll be rockin' extra hard once it's\nfilled up, (catchphrase)!",
      "USes": "Con la cantidad de insectos chéveres\nque hay en la isla, menos mal que\nhay un museo donde exponerlos.\nSolo espero que alguien se ponga\nlas pilas y done ejemplares de todo\ntipo, (catchphrase).\nYo voy avisando que no puedo.\n¡Tengo la agenda saturada de\nfiestuquis!",
      "USfr": "Y'a tellement d'bébittes qui\ns'bousculent sur l'île... Un musée\nest pas d'trop pour les rassembler!\nLes vitrines ont déjà d'l'allure, mais\nattends un peu qu'les insectes y\ndéménagent en masse, !"
    }
  },
  {
    "label": "200_02",
    "attribute": "0x0000000000000000",
    "locale": {
      "CNzh": "这座博物馆也会和的\n历史一起共同成长吧。\n一边注视着建得更加气派的博物馆，\n一边回忆今日的一天会到来吗？\n那样的景象或许也不错呢。。",
      "EUde": "Das Museum is' die perfekte\nLocation, unsere Artenvielfalt\nzu feiern, (Floskel).\nIch mein, wofür haben wir denn\nhier sonst tonnenweise epische\nKrabbelviecher rumzappeln?",
      "EUen": "The museum's got a seriously\ncool setup for checking out all\nof 's bugs.\nThose bugs are gonna teach us\nALL KINDS of awesome bug stuff\ntoo. So cool, (catchphrase)!",
      "EUes": "¡Me flipa tener un museo donde\nfardar de todos los bichejos que\ncorretean por !\nEspero que a nadie se le ocurra\nvenir a por mí por equivocación\npara donarme, .",
      "EUfr": "Un musée à ... Le rendez-vous d'tous les amoureux des bébêtes !\nOn va apprendre tellement d'trucs\nqu'on sortira avec une caboche\ncomme ça,  !",
      "EUit": "Mi fa piacere che ci sia un museo\ndove mettere in mostra e vantarci\ndegli insetti di !\nE scommetto che quegli insetti\nhanno anche un sacco di cose da\ninsegnarci. Ottimo, !",
      "EUnl": "De indeling van dit museum is chill! Je kunt alle beestjes van  zo goed zien!\nZo ga ik bendes boeiende beestjes-\ndingen leren. Ik kan niet wachten,\n(catchphrase)!",
      "EUru": "Круто, что в нашем музее есть\nвыставка насекомых острова\n.\nУверена, что у насекомых есть чему\nпоучиться! Классно. (catchphrase)!",
      "JPja": "このの　歴史と共に\n博物館も　成長していくんだろうね\nいつか　立派になった博物館を見て、\n今日のコト　思い出したりすんのかな？\n悪くないじゃないか、",
      "KRko": "이 의 역사와 함께\n박물관도 성장하겠지?\n언젠가 훌륭해진 박물관을 보고\n오늘을 떠올리는 날이 올까?\n나쁘지 않을 것 같아, !",
      "TWzh": "我想博物館應該會\n隨著的歷史一同成長吧。\n在未來看到經過歲月洗禮的博物館，\n我還能回想起今天的事情嗎？\n像這樣也挺有一番風情的呢，。",
      "USen": "The museum's got a seriously\ncool setup for checking out all\nof 's bugs.\nThose bugs are gonna teach us\nALL KINDS of awesome bug stuff\ntoo. So cool, (catchphrase)!",
      "USes": "¡Me encanta que tengamos un museo\ndonde mostrar todos los insectos\nque hay en !\nNo me vayas a salir con la bromita\nde venir por mí para donarme,\n(catchphrase), ¿eh?",
      "USfr": "Un musée à ... Le rendez-vous d'tous les amoureux des bébêtes!\nOn va apprendre tellement d'trucs\nqu'on sortira avec une caboche\ncomme ça, !"
    }
  },
  {
    "label": "200_03",
    "attribute": "0x0000000000000000",
    "locale": {
      "CNzh": "这座上的博物馆明明才刚建成，\n就能有不少的展品，这让我非常吃惊呢！\n也让我更期待它今后的发展了。\n终有一天，这个地方也会住满\n大家捐赠的虫子吧？\n光是想想就让人很激动呢！。",
      "EUde": "Stell dir nur vor, wie's hier drinnen\naussehen wird, wenn alle Vitrinen\nvoll sind, (Floskel)?\nEin Träumchen für alle Krabbelvieh-\nfans... Aber ich würde vor lauter\nAnti-Freude Schnappatmung kriegen!",
      "EUen": "The museum's bug display is\nlookin' really rad.\nI'm SUPER hyped for all the\ncrawly critters that're gonna\nend up in there, (catchphrase)!",
      "EUes": "Yo no soy muy de museos y toda\nla pesca, pero tengo que reconocer\nque mola tener uno en la isla, tú.\nIgual es por la perspectiva de todos\nlos fiestones que podemos montar.\nFiesta de inauguración, fiesta de\naniversario, fiesta al tener todos\nlos ejemplares...\n¡El caso es vivir de celebración\nconstante, !",
      "EUfr": "Le coin à bébêtes du musée a d'jà\npas mal d'allure,  !\nJ'te dis pas c'que ce sera quand on\naura rempli toutes les vitrines !",
      "EUit": "La collezione di insetti del museo è\nun bel colpo d'occhio, .\nNon vedo l'ora di scoprire quanti\naltri esserini sgambettanti finiranno\nin esposizione!",
      "EUnl": "Die insectententoonstelling in het museum ziet er té tof uit, (catchphrase).\nIk kan niet wachten om al die kleine\nkruipers te zien die er wonen!",
      "EUru": "В нашем музее уже и сейчас\nстолько интересных насекомых!\n(catchphrase)!\nНе терпится посмотреть на всех\nкопошащихся малюток, которыми\nскоро заполнятся музейные залы!",
      "JPja": "この博物館、できてすぐなのに\nそこそこ　展示されてて　驚いたよ\nこりゃ、これからが　楽しみだねぇ\nいずれこの場所も、寄贈されたムシで\nいっぱいに　なる予定なんだろ？\n考えただけで　ドキドキするよ、",
      "KRko": "이  박물관, 생긴 지 얼마 안 됐는데\n생각보다 전시품이 많아서 놀랐어\n미래가 더 기대되는걸!\n언젠가 여기도 기증된 곤충들로\n가득 채워질 날이 오겠지?\n상상만 해도 두근거린다, !",
      "TWzh": "這座島的博物館明明才剛建成，\n居然就已經有不少展品了，真令人訝異。\n看來今後非常值得期待啊。\n想到將來總有一天，\n就連這個地方也會擺滿捐贈的昆蟲展品，\n就讓我覺得心跳加速哩，。",
      "USen": "The museum's bug display is\nlookin' really rad.\nI'm SUPER hyped for all the\ncrawly critters that're gonna\nend up in there, (catchphrase)!",
      "USes": "Yo no soy muy de museos, pero\ntengo que reconocer que está\nchévere tener uno en la isla.\nPiensa en todos los fiestones que\nse podrían organizar.\nFiesta de inauguración, fiesta de\naniversario, fiesta al tener todos\nlos ejemplares...\n¡Es un mundo de oportunidades\nfiestiles, (catchphrase)!",
      "USfr": "Le coin à bébittes du musée a d'jà\npas mal d'allure, !\nJ'te dis pas c'que ce sera quand on\naura rempli toutes les vitrines!"
    }
  }
]