﻿[
  {
    "label": "001",
    "attribute": "0x00000000",
    "locale": {
      "CNzh": "哟，是你啊。",
      "EUde": "Harr, harr, hallo!",
      "EUen": "Oh, hello thar.",
      "EUes": "¿Tú también por aquí tan temprano,\nboquerón de marea baja?",
      "EUfr": "Oh, bien l'bonjour, mat'lot.",
      "EUit": "Corpo di mille balene! Salve.",
      "EUnl": "O, hallo maatje.",
      "EUru": "О, привет, юнга.",
      "JPja": "よう、おめぇか",
      "KRko": "어, 형씨구나",
      "TWzh": "嗨，是你呀。",
      "USen": "Oh, hello thar.",
      "USes": "¿Tú también por aquí tan temprano,\nlobito de mar?",
      "USfr": "Oh, bien l'bonjour, mat'lot."
    }
  },
  {
    "label": "002",
    "attribute": "0x00000000",
    "locale": {
      "CNzh": "哟，你也来啦。",
      "EUde": "Du auch hier, (Spielername)?",
      "EUen": "Ah, ye're here too, eh,\n(player name)?",
      "EUes": "¡Jar! ¡Buenos días, (player name)!",
      "EUfr": "Ah, t'avais aussi b'soin de prendre\nl'air, (nom du joueur) ?",
      "EUit": "Anche tu qui, (player name)?",
      "EUnl": "Ah, 'k zie dat je d'r ook bent,\n(player name).",
      "EUru": "А, и ты здесь, (player name)?",
      "JPja": "おめぇも　来てたんだな",
      "KRko": "어, 형씨도 왔어?",
      "TWzh": "嗨，你也來啦。",
      "USen": "Ah, ye're here too, eh,\n(player name)?",
      "USes": "¡Jar! ¡Buenos días, (player name)!",
      "USfr": "Ah, t'avais aussi b'soin de prendre\nl'air, (nom du joueur)?"
    }
  },
  {
    "label": "003",
    "attribute": "0x00000000",
    "locale": {
      "CNzh": "哟，是你啊。\n咖啡好喝吗？",
      "EUde": "Ahoi! Schmeckt der Kaffee?",
      "EUen": "Ahoy! Coffee good?",
      "EUes": "¡Ah del barco! ¿Qué tal está el café\nesta tarde?",
      "EUfr": "Kôa ! Y a pire comme café, hein ?",
      "EUit": "Girino! Buono il caffè, eh?",
      "EUnl": "Ahoi! Is de koffie lekker?",
      "EUru": "Привет! Как кофе?",
      "JPja": "よう、コーヒー　うめぇか？",
      "KRko": "오, 형씨\n커피는 맛있어?",
      "TWzh": "嗨，是你呀。\n咖啡好喝嗎？",
      "USen": "Ahoy! Coffee good?",
      "USes": "¿Qué tal está el café esta tarde,\nnavegante?",
      "USfr": "Kôa! Y a pire comme café, hein?"
    }
  },
  {
    "label": "004",
    "attribute": "0x00000000",
    "locale": {
      "CNzh": "哟，是你啊。\n咖啡好喝吗？",
      "EUde": "Ahoi! Schmeckt der Kaffee?",
      "EUen": "Ahoy! Coffee good?",
      "EUes": "Buenas tardes, ¡ar!",
      "EUfr": "Kôa ! Y a pire comme café, hein ?",
      "EUit": "Girino! Buono il caffè, eh?",
      "EUnl": "Ahoi! Is de koffie lekker?",
      "EUru": "Привет! Как кофе?",
      "JPja": "よう、コーヒー　うめぇか？",
      "KRko": "오, 형씨\n커피는 맛있어?",
      "TWzh": "嗨，是你呀。\n咖啡好喝嗎？",
      "USen": "Ahoy! Coffee good?",
      "USes": "Buenas tardes, ¡ar!",
      "USfr": "Kôa! Y a pire comme café, hein?"
    }
  },
  {
    "label": "005",
    "attribute": "0x00000000",
    "locale": {
      "CNzh": "哟，你也在休息吗？",
      "EUde": "Haste hier kurz mal den\nAnker geworfen?",
      "EUen": "Here fer a break?",
      "EUes": "¿Relajándote al final del día,\ngrumetillo?",
      "EUfr": "C'est l'heure d'la pause ?",
      "EUit": "Sei qui per una pausa?",
      "EUnl": "Kom je je anker effe neerlaten?",
      "EUru": "Зашел в эту гавань дать отдых\nпарусам?",
      "JPja": "おめぇも　休憩か？",
      "KRko": "여어, 형씨도 휴식 시간이야?",
      "TWzh": "嗨，你也來休息嗎？",
      "USen": "Here fer a break?",
      "USes": "¿Relajándote al final del día,\nlobito de mar?",
      "USfr": "C'est l'heure d'la pause?"
    }
  },
  {
    "label": "006",
    "attribute": "0x00000000",
    "locale": {
      "CNzh": "哟，是你啊。\n你来得可够晚的。",
      "EUde": "Ahoi! Gar nicht müde, harrr?",
      "EUen": "Well, ahoy to ye! Ye're sure here late.",
      "EUes": "¡Saludos! Parece que nos ha atraído\naquí la luz del mismo faro.",
      "EUfr": "Yar ! Qu'est-ce qui t'amène à\nc't'heure tardive ?",
      "EUit": "Ma guarda chi c'è! Fai le ore piccole,\nvedo.",
      "EUnl": "O, ahoi, ketelbinkie! Wat ben jij hier\nlaat.",
      "EUru": "Эй, на корабле! Поздненько ты тут\nпришвартовался.",
      "JPja": "よう、おめぇか\nこんな時間に　会うとはな",
      "KRko": "어, 형씨구나\n이런 시간에 다 만나네",
      "TWzh": "嗨，是你呀。\n這麼晚了還來光顧啊。",
      "USen": "Well, ahoy to ye! Ye're sure here late.",
      "USes": "¡Saludos! Parece que nos trajo\nhasta aquí la luz del mismo faro.",
      "USfr": "Yar! Qu'est-ce qui t'amène à\nc't'heure tardive?"
    }
  },
  {
    "label": "101",
    "attribute": "0x00000000",
    "locale": {
      "CNzh": "",
      "EUde": "",
      "EUen": "",
      "EUes": "",
      "EUfr": "",
      "EUit": "",
      "EUnl": "",
      "EUru": "",
      "JPja": "",
      "KRko": "",
      "TWzh": "",
      "USen": "",
      "USes": "",
      "USfr": ""
    }
  },
  {
    "label": "101_01",
    "attribute": "0x00000000",
    "locale": {
      "CNzh": "你也觉得\n这里的咖啡很特别呗？",
      "EUde": "Der Kaffee hier ist allererste Kajüte!\nFindste schon auch, harr?",
      "EUen": "Coffee here is somethin' special.\nYe think so too, aye?",
      "EUes": "Aaah, el aroma de este café es\nel único que puede competir\ncon el de la brisa marina...",
      "EUfr": "Le café ici, il a quèqu'chose de spécial. T'es pas d'accord ?",
      "EUit": "Il caffè qui è speciale. Dico bene?",
      "EUnl": "De koffie hier is echt bijzonder.\nVind je ook niet?",
      "EUru": "Кофе здесь особенный. Согласен?",
      "JPja": "ここのコーヒーは　格別だからな\nおめぇも　そう思うべ？",
      "KRko": "이곳의 커피는 특별한 것 같아\n형씨도 그렇게 생각하지?",
      "TWzh": "這裡的咖啡真是好喝唄。\n你也這麼認為吧？",
      "USen": "Coffee here is somethin' special.\nYe think so too, aye?",
      "USes": "Aaah, el aroma de este café es\nel único que puede competir\ncon el de la brisa marina...",
      "USfr": "Le café ici, il a quèqu'chose de spécial. T'es pas d'accord?"
    }
  },
  {
    "label": "101_02",
    "attribute": "0x00000000",
    "locale": {
      "CNzh": "喝了咖啡，\n感觉就能舒舒服服地出海了呗。",
      "EUde": "Eine Tasse Kaffee aus diesem Laden\nist noch besser als jede Seereise.",
      "EUen": "A mug o' coffee from this place\nmakes fer a good voyage.",
      "EUes": "Una taza de café caliente bajo el\ncaparazón es lo único que necesita\neste tortugo para hacerse a la mar.",
      "EUfr": "Moi j'dis, rien d'tel qu'un bon café\navant d'lever l'ancre.",
      "EUit": "Dopo una tazza di caffè sono pronto\na solcare i sette mari, o anche otto.",
      "EUnl": "Een mok koffie uit dit café maakt\niedere zeereis beter.",
      "EUru": "Чашка кофе в этом заведении —\nи я готов поднимать паруса.",
      "JPja": "海に出ると　しばらくは\nコーヒー　飲めねぇからな・・・",
      "KRko": "커피 마시고 상쾌한 기분으로\n바다에 나가야지!",
      "TWzh": "喝了咖啡之後，\n感覺可以心情愉快地出海去唄。",
      "USen": "A mug o' coffee from this place\nmakes fer a good voyage.",
      "USes": "Una taza de café caliente bajo el\ncaparazón es lo único que necesita\neste tortugo para ir a la mar.",
      "USfr": "Moi j'dis, rien d'tel qu'un bon café\navant d'lever l'ancre."
    }
  },
  {
    "label": "101_03",
    "attribute": "0x00000000",
    "locale": {
      "CNzh": "有了这么一家别致的咖啡店，\n这座岛也会越来越繁荣呗。",
      "EUde": "Nicht schlecht, dass so 'n kleines\nInselchen so 'n schniekes Café hat,\nharr, harr!",
      "EUen": "This li'l island's doin' well fer itself to\nland a fancy café like this.",
      "EUes": "Esta isla debe de ser muy próspera\npara poder albergar una cafetería\nde esta categoría.",
      "EUfr": "C'est pas n'importe quelle île\nqui peut s'vanter d'avoir un\naussi beau café !",
      "EUit": "Da queste parti sono fortunati\nad avere una caffetteria di questo\ncalibro.",
      "EUnl": "'n Luxecafé op zo'n klein eilandje.\n't Gaat de landrotten hier duidelijk\nvoor de wind!",
      "EUru": "А на этом островке дела идут\nнеплохо. Вот какое модное кафе\nтут работает.",
      "JPja": "シャレた　喫茶店もできて\nこの島も　ますます繁盛するべ",
      "KRko": "이렇게 멋진 카페가 생기다니\n이 섬도 점점 발전하네...",
      "TWzh": "能夠像這樣子蓋起一間漂亮的咖啡店，\n這個島會越來越興盛唄。",
      "USen": "This li'l island's doin' well fer itself to\nland a fancy café like this.",
      "USes": "Esta isla debe de ser muy próspera\npara poder albergar una cafetería\nde esta categoría.",
      "USfr": "C'est pas n'importe quelle île\nqui peut s'vanter d'avoir un\naussi beau café!"
    }
  },
  {
    "label": "101_04",
    "attribute": "0x00000000",
    "locale": {
      "CNzh": "感觉这里也很适合\n和家人一起来呗。",
      "EUde": "Zu diesem Café könnte man mal mit\nder ganzen Familie hinschippern!",
      "EUen": "This be a fine spot to bring the\nfamily too.",
      "EUes": "No es mal sitio este para traer\na la familia, no, para nada...",
      "EUfr": "J'devrais p'têt venir avec la p'tite\nfamille la prochaine fois.",
      "EUit": "Sembra un posto adatto alle famiglie.",
      "EUnl": "'t Is ook een fijne plek om met m'n\ngezin aan te meren.",
      "EUru": "Хорошее местечко, чтобы приплыть\nс семьей.",
      "JPja": "ここは　シックな見た目の割に\n家族連れも　ウェルカムなとこが　いいんだべ",
      "KRko": "여긴 가족이랑 다 같이 와도\n괜찮을 것 같아...",
      "TWzh": "感覺這裡也很適合\n帶著家人過來唄。",
      "USen": "This be a fine spot to bring the\nfamily too.",
      "USes": "Este parece un buen lugar\npara traer a la familia, ar...",
      "USfr": "J'devrais p'têt venir avec la p'tite\nfamille la prochaine fois."
    }
  },
  {
    "label": "101_05",
    "attribute": "0x00000000",
    "locale": {
      "CNzh": "你也喝杯这里的咖啡，\n稍微歇会儿呗。",
      "EUde": "Du hast dir 'nen Landgang mit 'nem\nBesuch in diesem Café redlich\nverdient, Matrose!",
      "EUen": "Ye deserve some downtime with a\ngood cup o' coffee too!",
      "EUes": "Fígaro me ha llamado con sus cantos\nde sirena... ¡Jar, jar, jar! Es un decir,\nclaro...",
      "EUfr": "Toi aussi, j'suis sûr qu't'as bien\nmérité une pause café !",
      "EUit": "Meriti anche tu una bella tazza di\ncaffè e un po' di sano riposo!",
      "EUnl": "Jij hebt 't ook verdiend om te\nontspannen met een goeie kop\nkoffie!",
      "EUru": "Ты заслужил небольшую\nпередышку за чашкой кофе, юнга!",
      "JPja": "おめぇも　ここのコーヒーで\nゆっくり　息抜きするといいべ",
      "KRko": "형씨도 여기 커피 마시면서\n푸～욱 쉬고 가라구",
      "TWzh": "你也喝一杯這裡的咖啡，\n好好地放鬆一下唄。",
      "USen": "Ye deserve some downtime with a\ngood cup o' coffee too!",
      "USes": "Fígaro me atrajo con sus cantos\nde sirena... ¡Jar, jar, jar! Es un decir,\nclaro...",
      "USfr": "Toi aussi, j'suis sûr qu't'as bien\nmérité une pause café!"
    }
  },
  {
    "label": "201",
    "attribute": "0x00000000",
    "locale": {
      "CNzh": "",
      "EUde": "",
      "EUen": "",
      "EUes": "",
      "EUfr": "",
      "EUit": "",
      "EUnl": "",
      "EUru": "",
      "JPja": "",
      "KRko": "",
      "TWzh": "",
      "USen": "",
      "USes": "",
      "USfr": ""
    }
  },
  {
    "label": "201_01",
    "attribute": "0x00000000",
    "locale": {
      "CNzh": "好的，那我回去工作了呗。",
      "EUde": "Ich muss zurück zur Anlegestelle.",
      "EUen": "Time fer me to get back to the dock!",
      "EUes": "¡El Capitán se vuelve al muelle! ¡Ar!",
      "EUfr": "Bon, c'est l'heure d'mettre les voiles !",
      "EUit": "Devo proprio mollare gli ormeggi!",
      "EUnl": "Hoog tijd dat 'k terug naar m'n\naanlegplaats ga.",
      "EUru": "Мне пора назад на причал!",
      "JPja": "よーし、持ち場に　戻るとすっか",
      "KRko": "오케이－ 그럼 난 부둣가로 돌아갈게",
      "TWzh": "好了～我該回去工作了唄。",
      "USen": "Time fer me to get back to the dock!",
      "USes": "¡Hora de que el Capitán vuelva\nal muelle! ¡Ar!",
      "USfr": "Bon, c'est l'heure d'mettre les voiles!"
    }
  },
  {
    "label": "201_02",
    "attribute": "0x00000000",
    "locale": {
      "CNzh": "再会啊，有需要的时候随时来找我。",
      "EUde": "Wennde mich brauchst, komm ruhig\nzu mir, harr, harr!",
      "EUen": "Come finds me if ye needs me.",
      "EUes": "Quien me necesite, ¡que me busque!",
      "EUfr": "Allez ! Tu sais où m'trouver si t'as\nbesoin d'mes services.",
      "EUit": "Sai dove trovarmi, se hai bisogno.",
      "EUnl": "Kom langs als 'k iets voor je kan\ndoen.",
      "EUru": "Найди меня, если я тебе\nпонадоблюсь.",
      "JPja": "用があったら　いつでも来てくんろ",
      "KRko": "또 보자구!\n볼일 있으면 언제든지 나한테 와",
      "TWzh": "再見了，有事的話隨時來找我喔。",
      "USen": "Come finds me if ye needs me.",
      "USes": "Quien me necesite, ¡que me busque!",
      "USfr": "Allez! Tu sais où m'trouver si t'as\nbesoin d'mes services."
    }
  },
  {
    "label": "201_03",
    "attribute": "0x00000000",
    "locale": {
      "CNzh": "那我就先走了呗！",
      "EUde": "Zeit für mich, die Segel zu setzen!",
      "EUen": "Time fer me to set sail!",
      "EUes": "¡Levo anclas!",
      "EUfr": "J'y vais ! Larguez les amarres !",
      "EUit": "Ora prendo il largo!",
      "EUnl": "Tijd om met de noorderzon te\nvertrekken!",
      "EUru": "Мне пора поднимать якорь!",
      "JPja": "そんじゃ、オラ　行くべ！",
      "KRko": "그럼 난 간다!",
      "TWzh": "那我就先走了唄！",
      "USen": "Time fer me to set sail!",
      "USes": "¡Levo anclas!",
      "USfr": "J'y vais! Larguez les amarres!"
    }
  }
]