﻿[
  {
    "label": "001",
    "attribute": "0x00000000",
    "locale": {
      "CNzh": "一眨眼就到目的地了！\n真是个很不错的地方～！",
      "EUde": "Und im Nu sind wir hier! Ach, hier ist\nes ja richtig schön!",
      "EUen": "And we're here in no time! Well,\nI think this is real nice!",
      "EUes": "¡Aquí estamos ya!\n¡Y qué maravilla de sitio!",
      "EUfr": "Et nous voilà arrivés en un rien\nde temps ! Et je dois dire, j'aime\nbeaucoup cet endroit !",
      "EUit": "Ed eccoci arrivati in un battito d'ali!\nBeh, davvero niente male!",
      "EUnl": "En presto, we zijn er! Flapperdeflap,\ndat ziet er mooi uit!",
      "EUru": "Додомчали в два счета!\nА тут неплохо!",
      "JPja": "あっという間に　着きましたね！\nいい所じゃないですか～！",
      "KRko": "금방 도착했군요!\n좋은 곳이네요～!",
      "TWzh": "轉眼間就抵達目的地了！\n這地方真是不錯啊～！",
      "USen": "And we're here in no time! Well,\nI think this is real nice!",
      "USes": "¡Y ya estamos aquí!\n¡Qué lugar maravilloso!",
      "USfr": "Et nous voilà arrivés en un rien\nde temps! Et je dois dire, j'aime\nbeaucoup cet endroit!"
    }
  },
  {
    "label": "001_01",
    "attribute": "0x00000000",
    "locale": {
      "CNzh": "那么，接下来就麻烦您了！",
      "EUde": "Den Rest überlasse ich dir!",
      "EUen": "I'm gonna leave the rest to you!",
      "EUes": "Dejaré que te encargues de todo.",
      "EUfr": "Je te laisse te charger du reste !",
      "EUit": "Il resto lo lascio a te!",
      "EUnl": "De rest laat ik aan jou over!",
      "EUru": "Ну, дальше давай сам!",
      "JPja": "それでは　ここからは　お任せしますね！",
      "KRko": "그럼 여기서부턴 맡기겠습니다!",
      "TWzh": "那麼接下來就有勞您囉！",
      "USen": "I'm gonna leave the rest to you!",
      "USes": "Te dejaré a cargo del resto.",
      "USfr": "Je te laisse te charger du reste!"
    }
  },
  {
    "label": "002",
    "attribute": "0x02000000",
    "locale": {
      "CNzh": "进展如何？",
      "EUde": "Hey! Na, wie schaut's?",
      "EUen": "Hey! You all done?",
      "EUes": "¡Cucú! ¿Ya has terminado?\nCambio.",
      "EUfr": "Alors ! Tu as fini ?",
      "EUit": "Ehi! Hai finito?",
      "EUnl": "Ja? Valt er iets te melden?",
      "EUru": "Ну что! Ты закончил?",
      "JPja": "どんな感じですか？",
      "KRko": "잘 진행되고 있나요?",
      "TWzh": "狀況如何？",
      "USen": "Hey! You all done?",
      "USes": "¡Cucú! ¿Ya terminaste?\nCambio.",
      "USfr": "Alors! Tu as fini?"
    }
  },
  {
    "label": "002_01",
    "attribute": "0x04000000",
    "locale": {
      "CNzh": "进展如何？",
      "EUde": "Hey! Na, wie schaut's?",
      "EUen": "Hey! You all done?",
      "EUes": "¡Cucú! ¿Ya has terminado?\nCambio.",
      "EUfr": "Alors ! Tu as fini ?",
      "EUit": "Ehi! Hai finito?",
      "EUnl": "Ja? Valt er iets te melden?",
      "EUru": "Ну что! Ты закончил?",
      "JPja": "どんな感じですか？",
      "KRko": "잘 진행되고 있나요?",
      "TWzh": "狀況如何？",
      "USen": "Hey! You all done?",
      "USes": "¡Cucú! ¿Ya terminaste?\nCambio.",
      "USfr": "Alors! Tu as fini?"
    }
  },
  {
    "label": "002_01_a",
    "attribute": "0x00000000",
    "locale": {
      "CNzh": "完成了！",
      "EUde": "Es ist fertig!",
      "EUen": "It's ready!",
      "EUes": "¡La casa está lista!",
      "EUfr": "Tout est prêt !",
      "EUit": "È pronta!",
      "EUnl": "Het is klaar!",
      "EUru": "Готово!",
      "JPja": "完成しました！",
      "KRko": "완성했어!",
      "TWzh": "完成了！",
      "USen": "It's ready!",
      "USes": "¡La casa está lista!",
      "USfr": "Tout est prêt!"
    }
  },
  {
    "label": "002_01_b",
    "attribute": "0x00000000",
    "locale": {
      "CNzh": "来建造2楼吧？",
      "EUde": "2. Etage gefällig?",
      "EUen": "Let's add an upstairs.",
      "EUes": "Añadamos una planta",
      "EUfr": "Ajoutons un étage.",
      "EUit": "Aggiungiamo un piano!",
      "EUnl": "Wil je nog een verdieping?",
      "EUru": "Добавим этаж!",
      "JPja": "2階をつくりませんか？",
      "KRko": "2층을 만드는 건 어때?",
      "TWzh": "要打造二樓嗎？",
      "USen": "Let's add an upstairs.",
      "USes": "Añadamos otro piso",
      "USfr": "Ajoutons un étage."
    }
  },
  {
    "label": "002_01_c",
    "attribute": "0x00000000",
    "locale": {
      "CNzh": "请稍等一下",
      "EUde": "Benötige noch Zeit...",
      "EUen": "Not quite yet.",
      "EUes": "Todavía falta un poco",
      "EUfr": "J'ai pas encore fini.",
      "EUit": "Ancora non è pronta...",
      "EUnl": "Nog niet helemaal klaar.",
      "EUru": "Еще чуть-чуть.",
      "JPja": "もう少し　お待ちください",
      "KRko": "조금만 더 기다려",
      "TWzh": "請再稍等一下",
      "USen": "Not quite yet.",
      "USes": "Todavía falta un poco",
      "USfr": "J'ai pas encore fini."
    }
  },
  {
    "label": "002_a",
    "attribute": "0x00000000",
    "locale": {
      "CNzh": "完成了！",
      "EUde": "Es ist fertig!",
      "EUen": "It's ready!",
      "EUes": "¡La casa está lista!",
      "EUfr": "Tout est prêt !",
      "EUit": "È pronta!",
      "EUnl": "Het is klaar!",
      "EUru": "Готово!",
      "JPja": "完成しました！",
      "KRko": "완성했어!",
      "TWzh": "完成了！",
      "USen": "It's ready!",
      "USes": "¡La casa está lista!",
      "USfr": "Tout est prêt!"
    }
  },
  {
    "label": "002_b",
    "attribute": "0x00000000",
    "locale": {
      "CNzh": "请稍等一下",
      "EUde": "Benötige noch Zeit...",
      "EUen": "Not quite yet.",
      "EUes": "Todavía falta un poco",
      "EUfr": "J'ai pas encore fini.",
      "EUit": "Ancora non è pronta...",
      "EUnl": "Nog niet helemaal klaar.",
      "EUru": "Еще чуть-чуть.",
      "JPja": "もう少し　お待ちください",
      "KRko": "조금만 더 기다려",
      "TWzh": "請再稍等一下",
      "USen": "Not quite yet.",
      "USes": "Todavía falta un poco",
      "USfr": "J'ai pas encore fini."
    }
  },
  {
    "label": "003_01",
    "attribute": "0x00000000",
    "locale": {
      "CNzh": "咦？您不进去吗？\n还是请您进里面看看吧！",
      "EUde": "Oh? Ich dachte, du wolltest zuerst\nmal einen Blick hineinwerfen. Bitte,\nnur zu!",
      "EUen": "Oh? I figured you'd wanna have a\nlook inside first. Please, feel free!",
      "EUes": "¿Seguro que no quieres asomarte\nprimero al interior? ¡Adelante,\npasa sin miedo!",
      "EUfr": "Oh ? Mais tu veux pas aller jeter un\nœil dedans d'abord ? Allez, entre,\nte gêne pas !",
      "EUit": "Oh? Pensavo che volessi vedere\ngli interni, prima. Accomodati pure!",
      "EUnl": "O? Moet je op zijn minst niet even\nbinnen kijken? Vooruit!",
      "EUru": "А? Я думал, ты сперва внутри\nпосмотришь. Не стесняйся!",
      "JPja": "おや、中は見なくて　いいんですか？\nドーゾ　中に入ってください！",
      "KRko": "앗, 안은 안 봐도 괜찮으신가요?\n사양하지 마시고 들어가주세요",
      "TWzh": "哎呀，您不看看屋內的狀況嗎？\n請您進到裡面看看吧！",
      "USen": "Oh? I figured you'd wanna have a\nlook inside first. Please, feel free!",
      "USes": "¿No quieres primero asomarte al\ninterior? ¡Adelante, pasa sin miedo!",
      "USfr": "Oh? Mais tu veux pas aller jeter un\nœil dedans d'abord? Allez, entre,\nte gêne pas!"
    }
  },
  {
    "label": "003_02",
    "attribute": "0x00000000",
    "locale": {
      "CNzh": "唔……我一个门外汉，\n好像不该插嘴专业人士的工作……\n可是，这个房间的东西是不是也太多了？\n希望您可以再帮我\n整理得清爽一些！",
      "EUde": "Das ist ja chaotischer hier, als wenn\ndas Gepäckförderband ausfällt.\nEs wäre schön, wenn du hier etwas\nPlatz schaffen könntest.",
      "EUen": "This is messier than workin'\nair-traffic control when the\nairport gate's open.\nIf ya would, I'd appreciate it if you\ncould get rid of the clutter in here.",
      "EUes": "Aquí hay más desorden que\nen el aeródromo en hora punta.\nAgradecería que ordenases un poco.",
      "EUfr": "Mais... c'est encore plus encombré\nqu'une soute à bagages !\nCe serait sympa de ta part de\ndéblayer un peu tout ça.",
      "EUit": "Il caos è tale e quale all'aeroporto\nnell'orario di punta.\nChe dici, puoi fare qualcosa per\nquesto disordine? Lo apprezzerei\ndavvero.",
      "EUnl": "Dit is nog een grotere janboel dan op\nde luchthaven aan het begin van de\nzomervakantie.\nMag ik je vragen wat orde in de\nchaos te scheppen?",
      "EUru": "Да тут прямо как в зале ожидания,\nкогда островной гейт закрыт!\nБыло бы здорово, если бы ты\nосвободил тут место.",
      "JPja": "えっと・・・　シロートが\nくちばしをはさむのも　なんですが・・・\nこの部屋、物が多すぎませんか？\nもう少し　物を減らして\nスッキリさせてもらえると　助かります！",
      "KRko": "으음... 이런 걸 잘 모르는 제가\n지적하자니 좀 그렇습니다만...\n이 방, 물건이 너무 많지 않나요?\n조금만 물건을 줄이고\n깔끔하게 해주시면 감사하겠습니다!",
      "TWzh": "那個……雖然我一個外行人提意見\n顯得有些失禮……\n但您不覺得這房間似乎放太多東西了嗎？\n如果能幫我再減少一些東西，\n讓房間顯得空曠點那就太好了！",
      "USen": "This is messier than workin'\nair-traffic control when the\nairport gate's open.\nIf ya would, I'd appreciate it if you\ncould get rid of the clutter in here.",
      "USes": "Aquí hay más desorden que en\nel aeródromo en horario pico.\nAgradecería que ordenaras un poco.",
      "USfr": "Mais... c'est encore plus encombré\nqu'une soute à bagages!\nCe serait sympa de ta part de\ndéblayer un peu tout ça."
    }
  },
  {
    "label": "003_03",
    "attribute": "0x00000000",
    "locale": {
      "CNzh": "唔……我一个门外汉，\n好像不该插嘴专业人士的工作……\n可是，这里面的东西也太多了吧？\n希望您可以再帮我\n整理得清爽一些！",
      "EUde": "Ähm... ich will meinen Schnabel nicht\nin deine Angelegenheiten stecken...\nAber ist das Haus nicht zu voll?\nKannst du den Boden nicht etwas von Stolperfallen befreien? Damit meine ich all das Gerümpel.",
      "EUen": "Um...not to poke my beak into your\nbusiness, but...don'tcha think there's\ntoo many things in there?\nCan ya reduce what the legal eagles\ncall \"traversal-surface obstacles\"?\nThat's clutter to me and you.",
      "EUes": "Eh... ¿no te parece que eso está\nabarrotado? Quizá puedas aligerar\nun poco el equipaje.",
      "EUfr": "Euh... Sans vouloir fourrer mon bec\npartout... tu ne crois pas qu'il y a\nun peu trop d'affaires là-dedans ?\nPourrais-tu réduire ce que les\nreprésentants de la loi qualifieraient\nd'obstruction matérielle aggravée ?\nJe te parle de virer ce bazar, en gros.",
      "EUit": "Mmmh... Non per mettere il becco\nnei tuoi affari, ma... non credi che\nla roba lì dentro sia davvero troppa?\nPuoi liberare la pista di atterraggio\nda tutti gli ostacoli trasversali?\nInsomma, ti sto chiedendo di pulire.",
      "EUnl": "Ehm... ik wil mijn snavel niet in\nandermans zaken steken, maar... ík\nvind dat er te veel spullen staan.\nKun je de \"doorgangbelemmerende\nobstakels wegnemen\", oftewel: de\nrommel opruimen?",
      "EUru": "Э-э-э... Не хочу совать клюв в твое\nдело, но... тебе не кажется, что там\nвсе слишком загромождено?\nА можно уменьшить количество\nобъектов на взлетно-посадочной?\nПопросту говоря, убери лишнее!",
      "JPja": "えっと・・・　シロートが\nくちばしをはさむのも　なんですが・・・\n建物の中、物が多すぎませんか？\nもう少し　物を減らして\nスッキリさせてもらえると　助かります！",
      "KRko": "저기... 비전문가라\n잘 모르긴 하지만...\n건물 안에 물건이 잔뜩 있네요\n조금만 물건을 줄여서\n깔끔하게 해주시면 좋을 것 같습니다!",
      "TWzh": "那個……雖然我一個外行人提意見\n顯得有些失禮……\n但您不覺得屋內似乎放太多東西了嗎？\n如果能幫我再減少一些東西，\n讓房間顯得空曠點那就太好了！",
      "USen": "Um...not to poke my beak into your\nbusiness, but...don'tcha think there's\ntoo many things in there?\nCan ya reduce what the legal eagles\ncall \"traversal-surface obstacles\"?\nThat's clutter to me and you.",
      "USes": "Eh... ¿no crees que hay demasiadas\ncosas ahí? Sería buena idea que\naligeraras un poco el equipaje.",
      "USfr": "Euh... Sans vouloir mettre mon bec\npartout... tu ne crois pas qu'il y a\nun peu trop d'affaires, là-dedans?\nPourrais-tu réduire ce que les\nreprésentants de la loi qualifieraient\nd'obstruction matérielle aggravée?\nJe te parle de nettoyer ce bazar,\npour être plus clair."
    }
  },
  {
    "label": "003_04",
    "attribute": "0x00000000",
    "locale": {
      "CNzh": "唔……我一个门外汉，\n好像不该插嘴专业人士的工作……\n可是另一个房间里的东西也太多了吧？\n希望您可以再帮我\n整理得清爽一些！",
      "EUde": "Ähm... hast du schon mal von\n„zu vielen Flugzeugen und nicht\ngenügend Landebahnen“ gehört?\nSo fühlt es sich im anderen Zimmer\nan. Es wäre toll, wenn du da etwas\nPlatz schaffen könntest.",
      "EUen": "Um...have ya ever heard the phrase\n\"too many airplanes, not enough\nrunway\"?\nThat's how it feels in the other room.\nI'd be grateful if you reduced the\nnumber of things in there, please.",
      "EUes": "En la otra estancia hay muchas\nturbulencias... Dime, ¿y si pones\nun poco de orden?",
      "EUfr": "Euh... Si je te dis qu'il y a trop\nd'avions, et pas assez de pistes,\ntu me suis ?\nEn tout cas, c'est l'impression que\nj'ai dans l'autre pièce.\nAlors je serais vraiment content si tu\npouvais y réduire l'encombrement.",
      "EUit": "Mmmh... Sai come diciamo noi in\nquesti casi? \"Troppi aerei per una\nsola pista.\"\nEcco come ci si sente nell'altra\nstanza. Prova a ridurre il numero\ndi oggetti, per favore.",
      "EUnl": "Zeg... ken je dat, als de passagier\nvoor je zijn rugleuning helemaal\nnaar achteren doet?\nZo voelt het in die andere kamer. Als\nje wat beenruimte voor me vrij zou\nwillen maken, heel graag.",
      "EUru": "Э-э-э... Тут в соседней комнате\nдаже этажерке не развернуться...\nТы не мог бы оттуда убрать\nвсе лишнее? Буду признателен!",
      "JPja": "えっと・・・　シロートが\nくちばしをはさむのも　なんですが・・・\nもうひとつの部屋、物が多すぎませんか？\nもう少し　物を減らして\nスッキリさせてもらえると　助かります！",
      "KRko": "저어... 프로분께\n이런 말씀을 드리기 꺼려집니다만...\n또 다른 방에 물건이 너무 많지 않나요?\n물건을 조금 줄이고\n깔끔하게 해주시면 고맙겠습니다!",
      "TWzh": "那個……雖然我一個外行人提意見\n顯得有些失禮……\n但您不覺得另一間房間似乎放太多東西了嗎？\n如果能幫我再減少一些東西，\n讓房間顯得空曠點那就太好了！",
      "USen": "Um...have ya ever heard the phrase\n\"too many airplanes, not enough\nrunway\"?\nThat's how it feels in the other room.\nI'd be grateful if you reduced the\nnumber of things in there, please.",
      "USes": "En la otra cabina hay muchas\nturbulencias... Dime, ¿y si pones\nun poco de orden?",
      "USfr": "Euh... Si je te dis qu'il y a trop\nd'avions, et pas assez de pistes,\ntu me suis?\nEn tout cas, c'est l'impression que\nj'ai dans l'autre pièce.\nAlors je serais vraiment content si tu\npouvais y réduire l'encombrement."
    }
  },
  {
    "label": "004",
    "attribute": "0x00000000",
    "locale": {
      "CNzh": "真是太棒了！\n非常感谢您！",
      "EUde": "Das ist großartig! Vielen Dank!",
      "EUen": "It's wonderful! Thank you so much!",
      "EUes": "¡Qué maravilla! ¡Gracias por todo!",
      "EUfr": "C'est impeccable ! Merci beaucoup !",
      "EUit": "Magnifico! Grazie mille!",
      "EUnl": "Dit is prachtig! Dank je wel!",
      "EUru": "Здесь чудесно! Большое спасибо!",
      "JPja": "素晴らしいです！\nドーモ　ありがとうございます！",
      "KRko": "멋지네요!\n정말 감사합니다!",
      "TWzh": "真是太棒了！\n非常謝謝您！",
      "USen": "It's wonderful! Thank you so much!",
      "USes": "¡Quedó impecable! ¡Gracias por todo!",
      "USfr": "C'est impeccable! Merci beaucoup!"
    }
  },
  {
    "label": "005",
    "attribute": "0x00000000",
    "locale": {
      "CNzh": "这样啊！\n那拜托您继续！",
      "EUde": "Verstehe! Mach bitte einfach weiter!",
      "EUen": "I see! Then please continue!",
      "EUes": "¡Recibido! Sigue trabajando\nen ello pues.",
      "EUfr": "Je vois ! Je te laisse continuer,\ndans ce cas !",
      "EUit": "Okappa! Continua, allora!",
      "EUnl": "Luid en duidelijk! Ga er dan maar\nsnel mee verder!",
      "EUru": "Ясно! Тогда прошу, продолжай!",
      "JPja": "そうですか！\nそれでは引き続き　よろしくドーゾ",
      "KRko": "그렇군요!\n그럼 계속해서 잘 부탁드립니다",
      "TWzh": "這樣啊！\n那麼接下來也麻煩您了。",
      "USen": "I see! Then please continue!",
      "USes": "¡Recibido! Te dejo que continúes\ntrabajando entonces.",
      "USfr": "Je vois! Je te laisse continuer,\ndans ce cas!"
    }
  },
  {
    "label": "006",
    "attribute": "0x02000000",
    "locale": {
      "CNzh": "唔……2楼吗？！\n要是现在开始还来得及的话，\n就麻烦您帮我扩建吧。",
      "EUde": "Du willst eine Etage draufsetzen?!\nLass mich erst den Sicherheits-Check\ndurchgeh-- Uuund fertig!\nJa, eine zweite Etage wäre super.",
      "EUen": "A second floor?! Lemme thi— YES!\nHow soon can you have it done?",
      "EUes": "¡¿Una segunda planta?! Pueees... ¡despegamos con esa idea pero ya!\n¿Y cuándo podría estar lista?",
      "EUfr": "Un étage ?! Je n'y avais pas pensé…\nÇA ME PLAÎT ! Quand est⁠-⁠ce qu'il\nsera prêt ?",
      "EUit": "Un altro piano?! Uhm, ci penso\nun... SÌ! Quanto ci vorrà per finire?\nNon sto più nelle piume!",
      "EUnl": "Een extra verdieping?! Wat zouden\ndodo's doe— JA! Hoe snel kun je\nhem bouwen?",
      "EUru": "Второй этаж?! Дай мне секунду\nна подумать... Да! Когда готов\nбудет?",
      "JPja": "おっと・・・　2階ですか？！\n今からでも　問題なければ\nお願いしても　いいですか？",
      "KRko": "어... 2층을요?!\n그렇게 해도 문제가 없으시다면\n저는 좋습니다!",
      "TWzh": "哎呀……二樓嗎！？\n要是現在開始動工也沒問題的話，\n那就麻煩您吧。",
      "USen": "A second floor?! Lemme thi— YES!\nHow soon can you have it done?",
      "USes": "¡¿Otro piso?! Pueees... ¡despegamos\ncon esa idea pero ya! ¿Y cuándo\nestará listo todo?",
      "USfr": "Un étage?! Je n'y avais pas pensé…\nÇA ME PLAÎT! Quand est⁠-⁠ce qu'il\nsera prêt?"
    }
  },
  {
    "label": "006_a",
    "attribute": "0x00000000",
    "locale": {
      "CNzh": "请交给我吧！",
      "EUde": "Überlass alles mir!",
      "EUen": "Leave it all to me!",
      "EUes": "¡Yo me encargo!",
      "EUfr": "Je m'occupe de tout !",
      "EUit": "Lascia fare a me!",
      "EUnl": "Laat alles maar aan mij over!",
      "EUru": "Предоставь это мне!",
      "JPja": "お任せください！",
      "KRko": "맡겨만 줘!",
      "TWzh": "請交給我吧！",
      "USen": "Leave it all to me!",
      "USes": "¡Yo me encargo!",
      "USfr": "Je m'occupe de tout!"
    }
  },
  {
    "label": "006_b",
    "attribute": "0x00000000",
    "locale": {
      "CNzh": "还是算了吧",
      "EUde": "Ach, lassen wir das...",
      "EUen": "Actually, never mind.",
      "EUes": "Mejor lo dejamos estar",
      "EUfr": "Laissons tomber.",
      "EUit": "Meglio lasciar stare...",
      "EUnl": "Weet je, laat maar zitten...",
      "EUru": "Забудь.",
      "JPja": "やっぱりやめましょう",
      "KRko": "역시 그만두자",
      "TWzh": "還是算了吧",
      "USen": "Actually, never mind.",
      "USes": "Mejor olvídalo",
      "USfr": "Laissons tomber."
    }
  },
  {
    "label": "007",
    "attribute": "0x00000000",
    "locale": {
      "CNzh": "那么，就请您多多关照了！",
      "EUde": "Geht klar, du bist am Zug!",
      "EUen": "Alrighty then—it's all you!",
      "EUes": "¡Pues nada, el timón es tuyo!",
      "EUfr": "Très bien ! Alors je compte sur toi !",
      "EUit": "Ricevuto. Lascio a te la cloche.",
      "EUnl": "Luid en duidelijk. Dan laat ik het\nallemaal aan jou over!",
      "EUru": "Хорошо, тогда за дело!",
      "JPja": "それでは　ドーゾよろしく！",
      "KRko": "그럼 잘 부탁드립니다!",
      "TWzh": "那麼這件事就麻煩您了！",
      "USen": "Alrighty then—it's all you!",
      "USes": "¡El timón es todo tuyo!",
      "USfr": "Très bien! Alors je compte sur toi!"
    }
  },
  {
    "label": "008",
    "attribute": "0x00000000",
    "locale": {
      "CNzh": "这样啊……\n那如果再有什么事，\n您也可以随时来找我。",
      "EUde": "Roger... Aber wenn du dir das NOCH\nMAL anders überlegst, sag mir auf\njeden Fall Bescheid.",
      "EUen": "Oops—spoke out of turn! Well, lemme\nknow if anything else comes up.",
      "EUes": "Huy, me ha faltado el «cambio».\nBueno, avísame si hay alguna\nnovedad.",
      "EUfr": "Oups, je me suis un peu emballé...\nTiens⁠⁠-⁠⁠moi au courant !",
      "EUit": "Ops, forse ci sono state delle\ninterferenze nella comunicazione\nradio! Beh, dimmi se cambi idea.",
      "EUnl": "Oeps! Ik loop op de zaken vooruit!\nNou, laat me gerust weten of er nog\nwat is.",
      "EUru": "Эх... обрадовался раньше времени!\nНу да ладно, дай знать, если будут\nкакие-то новости.",
      "JPja": "そうですか・・・\nではまた　なにかあったら\n気軽に　声をかけてください",
      "KRko": "그러시군요...\n그럼 또 무슨 일이 있으면\n편하게 말씀해주세요",
      "TWzh": "這樣啊……\n如果還有其他事的話，\n請直接告訴我吧。",
      "USen": "Oops—spoke out of turn! Well, lemme\nknow if anything else comes up.",
      "USes": "Uy, me faltó decir \"cambio\".\nBueno, me avisas si hay alguna\nnovedad.",
      "USfr": "Oups, je me suis un peu emballé...\nTiens⁠⁠-⁠⁠moi au courant!"
    }
  },
  {
    "label": "011",
    "attribute": "0x00000000",
    "locale": {
      "CNzh": "辛苦您工作了这么长时间！",
      "EUde": "Danke für all deine harte Arbeit!",
      "EUen": "Thanks for all your hard work!",
      "EUes": "¡Gracias por hacer un trabajo\ntan a conciencia!",
      "EUfr": "Merci beaucoup de tout ton boulot !",
      "EUit": "Grazie, ti sei dato proprio da fare!",
      "EUnl": "Je hebt er duidelijk enorm veel\nmoeite in gestoken.",
      "EUru": "Спасибо за усердие!",
      "JPja": "長い時間　おつかれさまでしたね！",
      "KRko": "오랜 시간 고생 많으셨습니다!",
      "TWzh": "忙了這麼久，真是辛苦您了！",
      "USen": "Thanks for all your hard work!",
      "USes": "¡Gracias por hacer un trabajo\ntan eficiente!",
      "USfr": "Merci beaucoup de tout ton travail!"
    }
  },
  {
    "label": "013",
    "attribute": "0x00000000",
    "locale": {
      "CNzh": "非常感谢您！\n您的工作速度和我们飞机的速度一样快，\n真是太厉害了！",
      "EUde": "Vielen Dank! Du hast das schneller\ngeschafft, als man ein Flugzeug ohne\nFlügel landen kann. Unglaublich!",
      "EUen": "Thank you so much! You got that\ndone faster than landing a plane\nwithout wings. Incredible!",
      "EUes": "¡Muchas gracias! ¡Has sido más\nrápido que un vuelo de DAL!",
      "EUfr": "Merci ! Tu as terminé en encore\nmoins de temps qu'il n'en faut pour\nfaire atterrir un avion sans ailes.",
      "EUit": "Grazie mille! Hai finito alla\nvelocità di un jet supersonico!\nDavvero incredibile!",
      "EUnl": "Dank je wel, dat was snel! Volgens\nmij heb je de geluidsbarrière\ndoorbroken!",
      "EUru": "Вот это скорость, большое спасибо!\nЗа это время и самолет сесть не\nуспел бы! Даже без крыльев!",
      "JPja": "ドーモ　ありがとうございます！\nうちの飛行機と同じくらい　仕事が速くて\n素晴らしいです！",
      "KRko": "정말 감사합니다!\n저희 비행기처럼 일 처리가 빠르시군요\n참 멋지십니다!",
      "TWzh": "非常謝謝您！\n您真是厲害，作業的速度簡直就跟\n我們的飛機一樣快呢！",
      "USen": "Thank you so much! You got that\ndone faster than landing a plane\nwithout wings. Incredible!",
      "USes": "¡Muchas gracias! ¡Fuiste más\nrápido que un vuelo de DAL!",
      "USfr": "Merci! Tu as terminé en moins de\ntemps qu'il n'en faut pour faire\natterrir un avion sans ailes."
    }
  },
  {
    "label": "016",
    "attribute": "0x00000000",
    "locale": {
      "CNzh": "",
      "EUde": "",
      "EUen": "",
      "EUes": "",
      "EUfr": "",
      "EUit": "",
      "EUnl": "",
      "EUru": "",
      "JPja": "",
      "KRko": "",
      "TWzh": "",
      "USen": "",
      "USes": "",
      "USfr": ""
    }
  },
  {
    "label": "016_01",
    "attribute": "0x00000000",
    "locale": {
      "CNzh": "布置成了一栋很棒的别墅呢！",
      "EUde": "Ich muss schon sagen, das ist ein\nsehr schönes Ferienhaus.",
      "EUen": "I gotta say, this is a very nice\nvacation home!",
      "EUes": "Debo decir que esta casa de\nvacaciones es estupenda.",
      "EUfr": "Je dois reconnaître que cette\nmaison de vacances en jette !",
      "EUit": "Devo dire che è proprio una bella\ncasa vacanze!",
      "EUnl": "Ik moet zeggen dat het een prachtig\nvakantiehuis is geworden!",
      "EUru": "Должен сказать, что дача весьма\nнеплоха!",
      "JPja": "いい別荘に　なりましたね！",
      "KRko": "좋은 별장이 완성됐군요!",
      "TWzh": "真是一棟好別墅！",
      "USen": "I gotta say, this is a very nice\nvacation home!",
      "USes": "Debo decir que esta casa de\nvacaciones es estupenda.",
      "USfr": "Je dois reconnaître que cette maison\nde vacances est magnifique!"
    }
  },
  {
    "label": "017",
    "attribute": "0x02000000",
    "locale": {
      "CNzh": "非常感谢您今天\n为我付出的劳动！",
      "EUde": "Vielen Dank für deine Hilfe heute!",
      "EUen": "Thanks so much for helping\nme today!",
      "EUes": "¡Gracias por toda tu ayuda!",
      "EUfr": "Tu m'as beaucoup aidé aujourd'hui.\nMerci beaucoup !",
      "EUit": "Grazie mille per l'aiuto di oggi!",
      "EUnl": "Enorm bedankt voor je hulp!",
      "EUru": "Спасибо, что помог мне сегодня!",
      "JPja": "今日は　わたしのために\nドーモ　ありがとうございました！",
      "KRko": "오늘은 절 위해 힘써주셔서\n정말 감사합니다!",
      "TWzh": "非常謝謝您\n今天替我做了這麼多！",
      "USen": "Thanks so much for helping\nme today!",
      "USes": "¡Gracias por toda tu ayuda!",
      "USfr": "Tu m'as beaucoup aidé aujourd'hui.\nMerci beaucoup!"
    }
  },
  {
    "label": "017_01",
    "attribute": "0x00000000",
    "locale": {
      "CNzh": "收到！\n回去的路上请小心！",
      "EUde": "Roger! Gute Reise! ",
      "EUen": "Roger! Travel safe!",
      "EUes": "¡Recibido! ¡Ve con cuidado!",
      "EUfr": "Okidodoki ! Bon voyage ! ",
      "EUit": "Ricevuto! Buon viaggio!",
      "EUnl": "Luid en duidelijk! Goeie reis!",
      "EUru": "Попутного ветра!",
      "JPja": "ラジャーです！\nお気をつけて　お帰りください！",
      "KRko": "알겠습니다!\n조심히 돌아가세요!",
      "TWzh": "收到！\n回去的路上要小心喔！",
      "USen": "Roger! Travel safe!",
      "USes": "¡Recibido! ¡Vuela con cuidado!",
      "USfr": "Okidodoki! Bon voyage! "
    }
  },
  {
    "label": "017_02",
    "attribute": "0x00000000",
    "locale": {
      "CNzh": "您想怎么拍都可以！\n要是有事的话，请尽管跟我说！",
      "EUde": "Fotos? Aber klar, schieß los!\nUnd sag mir bitte Bescheid, wenn\ndu wieder abfliegst!",
      "EUen": "Photo? Sure, snap away! And please\nlemme know when you're done!",
      "EUes": "¡Claro, adelante! Cuando quieras\nirte, pía.",
      "EUfr": "Ah, mais ne te prive surtout pas,\nprends-en autant que tu veux !\nEt préviens-moi quand tu décolles !",
      "EUit": "Delle foto? Ma certo, fanne quante\nne vuoi! E avvertimi quando vuoi\ndecollare via da qui!",
      "EUnl": "Foto's? Tuurlijk, schiet maar raak!\nEn laat het me even weten wanneer\nalles erop staat!",
      "EUru": "Фотографию? Да, конечно, снимай!\nИ дай мне знать, когда закончишь.",
      "JPja": "写真だったら　ドーゾご自由に！\nご用がありましたら　声をかけてくださいね！",
      "KRko": "사진이라면 마음껏 찍으세요!\n제가 필요하시면 말을 걸어주시기 바랍니다!",
      "TWzh": "要拍照嗎？沒問題，請儘管拍吧！\n有其他事的話，再告訴我一聲吧！",
      "USen": "Photo? Sure, snap away! And please\nlemme know when you're done!",
      "USes": "¡Claro, adelante! Cuando te quieras\nir, pía.",
      "USfr": "Ah, mais ne te prive surtout pas,\nprends-en autant que tu veux!\nEt préviens-moi quand tu décolles!"
    }
  },
  {
    "label": "017_04",
    "attribute": "0x02000000",
    "locale": {
      "CNzh": "怎么样？\n在您回去之前，\n拍些别墅的照片留作纪念如何！！",
      "EUde": "Oh, wolltest du von deinem Werk\nvielleicht ein paar Fotos machen,\nbevor du losdüst?",
      "EUen": "Oh, hey—didja want to get a\npicture of all your work before\nyou hit the skies?",
      "EUes": "Oye, ¿no te interesaría sacar unas\nfotos antes de despegar de aquí?",
      "EUfr": "Hé, dis⁠⁠⁠-⁠moi, tu veux prendre une\nphoto de ton travail avant le\ndécollage ?",
      "EUit": "Ehi ehi ehi! Non vuoi fare una foto\nalla tua opera, prima di decollare?",
      "EUnl": "O, hé! Wou je voordat je de hemel in\nvliegt nog een foto van je al harde\nwerk maken?",
      "EUru": "Эй, слушай... А ты не хочешь свое\nпроизведение сфоткать, прежде\nчем снова встанешь на крыло?",
      "JPja": "どうでしょう？\nお帰りになる前に　別荘の写真を\n撮っていくっていうのは！！",
      "KRko": "어떠신가요?\n돌아가시기 전에 기념으로\n별장 사진을 찍으면 좋을 것 같습니다만!!",
      "TWzh": "您要不要在回去前，\n拍幾張別墅的照片呢！？",
      "USen": "Oh, hey—didja want to get a\npicture of all your work before\nyou hit the skies?",
      "USes": "Oye, ¿no te interesaría tomar unas\nfotos antes de despegar de aquí?",
      "USfr": "Hé, dis⁠⁠⁠-⁠moi, tu veux prendre une\nphoto de ton travail avant le\ndécollage?"
    }
  },
  {
    "label": "017_04_a",
    "attribute": "0x00000000",
    "locale": {
      "CNzh": "好的，请让我拍照",
      "EUde": "Ja, ich mache  Fotos.",
      "EUen": "Yes, I'll take photos.",
      "EUes": " Sí, haré fotos",
      "EUfr": "Oui, des  photos !",
      "EUit": "Sì, grazie!",
      "EUnl": "Ja, doe ik.",
      "EUru": "Да, сделаю  снимки.",
      "JPja": "はい、撮らせてください",
      "KRko": "응, 찍을래!",
      "TWzh": "是的，請讓我拍張照",
      "USen": "Yes, I'll take photos.",
      "USes": " Sí, tomaré fotos",
      "USfr": "Oui, des  photos!"
    }
  },
  {
    "label": "017_04_b",
    "attribute": "0x00000000",
    "locale": {
      "CNzh": "抱歉，我要先走了",
      "EUde": "Ich muss zurück...",
      "EUen": "I need to head back.",
      "EUes": "No, tengo que irme",
      "EUfr": "Je dois repartir.",
      "EUit": "Devo proprio andare.",
      "EUnl": "Ik moet weer gaan.",
      "EUru": "Мне пора.",
      "JPja": "いえ、失礼します",
      "KRko": "아니, 됐어",
      "TWzh": "不了，我先走了",
      "USen": "I need to head back.",
      "USes": "No, me tengo que ir",
      "USfr": "Je dois repartir."
    }
  },
  {
    "label": "017_05",
    "attribute": "0x00000000",
    "locale": {
      "CNzh": "一定要拍出好看的照片啊！\n那么，接下来您要是有事的话，\n请尽管跟我说！",
      "EUde": "Lass dir ruhig Zeit. Tu, was du tun\nmusst. Sag mir einfach Bescheid,\nwenn du etwas brauchst!",
      "EUen": "Yeah, take your time. Do whatcha\nneed to do. Just let me know if you\nneed anything!",
      "EUes": "Vale, tómate tu tiempo para\nsacar fotos de altos vuelos.\nAvísame cuando acabes, ¿vale?",
      "EUfr": "Prends ton temps. Fais ce que tu as\nà faire, et fais-moi signe si tu as\nbesoin de quoi que ce soit !",
      "EUit": "Okappa, prenditi il tempo che vuoi.\nMagari torna da me a fare rapporto,\nquando ti senti pronto!",
      "EUnl": "Ik heb geen haast. Doe eerst je eigen\nding maar. Maar laat het me weten\nwanneer je iets nodig hebt!",
      "EUru": "Да, конечно, не торопись. Делай\nсвое дело на комфортной скорости.\nДай знать, если что-то понадобится!",
      "JPja": "いい写真、撮ってくださいね！\nそれでは　ご用がありましたら\n声をかけてください！",
      "KRko": "멋진 사진을 찍으시기 바랍니다!\n그럼 필요한 것이 있으시면\n저에게 말씀해주세요!",
      "TWzh": "請您要拍出好看的照片喔！\n有其他事的話，\n再告訴我一聲吧！",
      "USen": "Yeah, take your time. Do whatcha\nneed to do. Just let me know if you\nneed anything!",
      "USes": "Bien, tómate tu tiempo para\ntomar fotos de altos vuelos.\nAvísame cuando termines, ¿sí?",
      "USfr": "Prends ton temps. Fais ce que tu\nas à faire, et fais-moi signe si tu\nas besoin de quoi que ce soit!"
    }
  },
  {
    "label": "017_06",
    "attribute": "0x00000000",
    "locale": {
      "CNzh": "这样啊……\n那您回去的路上请小心！\n今天真的非常感谢您！",
      "EUde": "Roger! Dann gute Reise!",
      "EUen": "Roger! Travel safe!",
      "EUes": "¡Recibido! ¡Ve con cuidado!",
      "EUfr": "Okidodoki ! Bon voyage !",
      "EUit": "Ricevuto! Buon viaggio di ritorno!",
      "EUnl": "Luid en duidelijk! Ik wens je een\nveilige reis!",
      "EUru": "Так точно! Удачного полета!",
      "JPja": "そうですか・・・\nそれでは　お気をつけて　お帰りください！\n今日は　ありがとうございました！",
      "KRko": "그러시군요...\n그럼 조심히 돌아가세요!\n오늘 정말 감사했습니다!",
      "TWzh": "這樣啊……\n那麼回去的路上要小心喔！\n今天真的非常謝謝您！",
      "USen": "Roger! Travel safe!",
      "USes": "¡Recibido! ¡Ve con cuidado!",
      "USfr": "Okidodoki! Bon voyage!"
    }
  },
  {
    "label": "017_a",
    "attribute": "0x00000000",
    "locale": {
      "CNzh": "请让我拍张照",
      "EUde": "Darf ich  Fotos machen?",
      "EUen": "May I take photos?",
      "EUes": " ¿Puedo sacar fotos?",
      "EUfr": "Je peux faire des  photos ?",
      "EUit": "Posso fare delle  foto?",
      "EUnl": "Mag ik  foto's maken?",
      "EUru": "Можно делать  снимки?",
      "JPja": "写真を撮らせてください",
      "KRko": "사진 좀 찍을게",
      "TWzh": "請讓我拍張照",
      "USen": "May I take photos?",
      "USes": " ¿Puedo tomar fotos?",
      "USfr": "Je peux faire des  photos?"
    }
  },
  {
    "label": "017_b",
    "attribute": "0x00000000",
    "locale": {
      "CNzh": "那我就先走了",
      "EUde": "Ich muss los.",
      "EUen": "I'll be taking off now.",
      "EUes": "Ya me marcho",
      "EUfr": "Je vais y aller.",
      "EUit": "Devo volare via.",
      "EUnl": "Tijd voor mij om op te stijgen.",
      "EUru": "Мне пора отправляться.",
      "JPja": "それでは失礼します",
      "KRko": "이만 가볼게",
      "TWzh": "那麼我先告辭了",
      "USen": "I'll be taking off now.",
      "USes": "Ya me voy",
      "USfr": "Je vais y aller."
    }
  },
  {
    "label": "018",
    "attribute": "0x02000000",
    "locale": {
      "CNzh": "您好！有什么事吗？",
      "EUde": "Ja? Wie kann ich helfen?",
      "EUen": "Yes? Whaddaya need?",
      "EUes": "¡Cucú! ¿Querías alguna cosa?",
      "EUfr": "Oui ? Il te faut quelque chose ?",
      "EUit": "Sì? Ti serve qualcosa?",
      "EUnl": "Ja? Kan ik je helpen?",
      "EUru": "Да? Чем могу?",
      "JPja": "はいっ！　どうしました？",
      "KRko": "네! 무슨 일이시죠?",
      "TWzh": "好的！請問怎麼了嗎？",
      "USen": "Yes? Whaddaya need?",
      "USes": "¡Cucú! ¿Querías algo?",
      "USfr": "Oui? Il te faut quelque chose?"
    }
  },
  {
    "label": "018_a",
    "attribute": "0x00000000",
    "locale": {
      "CNzh": "要回去了",
      "EUde": "Schluss für heute.",
      "EUen": "I'm heading back.",
      "EUes": "Me vuelvo a la agencia",
      "EUfr": "Bon, je m'en vais.",
      "EUit": "Me ne vado.",
      "EUnl": "Ik ga er weer vandoor.",
      "EUru": "Вернусь обратно.",
      "JPja": "帰ります",
      "KRko": "돌아갈게",
      "TWzh": "我要回去了",
      "USen": "I'm heading back.",
      "USes": "Vuelvo a la agencia",
      "USfr": "Bon, je m'en vais."
    }
  },
  {
    "label": "018_b",
    "attribute": "0x00000000",
    "locale": {
      "CNzh": "没什么",
      "EUde": "Ach, nichts weiter.",
      "EUen": "I'm all good!",
      "EUes": "No, nada...",
      "EUfr": "Tout va bien !",
      "EUit": "È tutto OK.",
      "EUnl": "Alles is in orde!",
      "EUru": "Все хорошо!",
      "JPja": "なんでもないです",
      "KRko": "아무것도 아니야",
      "TWzh": "沒什麼事",
      "USen": "I'm all good!",
      "USes": "No, nada...",
      "USfr": "Tout va bien!"
    }
  },
  {
    "label": "020",
    "attribute": "0x00000000",
    "locale": {
      "CNzh": "请您在这儿多放松一下！",
      "EUde": "Lass dir ruhig Zeit!",
      "EUen": "Please take your time!",
      "EUes": "¡Sin problema! Tómatelo con calma.",
      "EUfr": "Prends ton temps, surtout !",
      "EUit": "Fai con comodo!",
      "EUnl": "Doe maar rustig aan!",
      "EUru": "Спешки нет!",
      "JPja": "ごゆっくり　ドーゾ！",
      "KRko": "천천히 쉬었다 가세요!",
      "TWzh": "請好好放鬆一下吧！",
      "USen": "Please take your time!",
      "USes": "¡Ningún problema! Tómatelo con calma.",
      "USfr": "Prends ton temps, surtout!"
    }
  },
  {
    "label": "021",
    "attribute": "0x00000000",
    "locale": {
      "CNzh": "收到！\n路上请小心！",
      "EUde": "Roger! Pass auf dich auf! ",
      "EUen": "Roger! Please be careful!",
      "EUes": "¡Recibido! ¡Ve con cuidado!",
      "EUfr": "Okidodoki ! Sois prudent en chemin,\ns'il te plaît ! ",
      "EUit": "Ricevuto! Fai attenzione!",
      "EUnl": "Luid en duidelijk! Goeie vlucht!",
      "EUru": "Все понял! Будь осторожен!",
      "JPja": "ラジャーです！\nドーゾ　お気をつけて！",
      "KRko": "알겠습니다!\n조심히 들어가십시오!",
      "TWzh": "收到！\n請您路上小心！",
      "USen": "Roger! Please be careful!",
      "USes": "¡Recibido! ¡Vuela con cuidado!",
      "USfr": "Okidodoki! Sois prudent en chemin,\ns'il te plaît!"
    }
  },
  {
    "label": "022",
    "attribute": "0x00000000",
    "locale": {
      "CNzh": "对了！\n这栋别墅的主题名称是什么呢？\n也可以称之为题字吧？！",
      "EUde": "Fast hätte ich es vergessen! Kannst\ndu mir die genaue Bezeichnung des\nFerienhaus-Konzepts verraten?",
      "EUen": "I almost forgot! Can ya tell me the\ndesignation for this vacation home?\nThat is to say, what's the theme?",
      "EUes": "¡Ah, casi se me olvida! ¿Podrías\ndecirme cómo definirías el tema\ndecorativo de la casa?",
      "EUfr": "Ah, avant que j'oublie... Est-ce\nque tu peux me dire le nom du\nthème de cette maison de vacances ?",
      "EUit": "Quasi dimenticavo! Mi puoi dire\nche tipo di casa vacanze è questa?\nIntendo dire, che tema è?",
      "EUnl": "Nog één ding! De code voor deze\nvakantiebestemming, wat wordt die?\nLiever gezegd, heb je een thema?",
      "EUru": "Чуть не забыл! Можешь сообщить\nмне диспетчерское наименование\nэтой дачи? Ну, какая у нее тема?",
      "JPja": "そうだっ！\nこの別荘の　テーマ名ってなんですか？\n言いかえると　題名みたいな？！",
      "KRko": "아 참!\n이 별장의 테마 이름은 뭔가요?\n제목이라고 할 수도 있겠군요!",
      "TWzh": "對了！\n請問這棟別墅的主題名稱是什麼？\n換個說法就是創作標題啦！？",
      "USen": "I almost forgot! Can ya tell me the\ndesignation for this vacation home?\nThat is to say, what's the theme?",
      "USes": "¡Ah, casi se me olvida! ¿Podrías\ndecirme cómo definirías el tema\ndecorativo de la casa?",
      "USfr": "Ah, avant que j'oublie... Est-ce que\ntu peux me dire le nom du thème\nde cette maison de vacances?"
    }
  },
  {
    "label": "023",
    "attribute": "0x02000000",
    "locale": {
      "CNzh": "对了对了，这栋别墅之前的主题名称\n叫……\n要改吗？",
      "EUde": "Den Frachtpapieren nach heißt \ndas Konzept dieses Ferienhauses\n.\nMöchtest du das ändern?",
      "EUen": "Checking the manifest, I can see this\nvacation home's theme designation\nis .\nYou gonna change it?",
      "EUes": "Si no me falla la memoria, el tema\ndecorativo de la casa era algo como\n«».\n¿Te sigue pareciendo bien\no prefieres cambiarlo?",
      "EUfr": "Laisse-moi jeter un œil à la feuille\nde route, d'abord...\nPour le moment, le thème s'appelle\n. Est-ce que tu veux le changer ?",
      "EUit": "Se non mi sbaglio, direi che il\ntema di questa casa vacanze\nè .\nIntendi cambiarlo?",
      "EUnl": "Volgens het logboek was het thema\n\"\".\nWil je dat zo houden of heb je\nliever iets anders?",
      "EUru": "Судя по декларации, диспетчерское\nнаименование этой дачи —\n«».\nХочешь сменить?",
      "JPja": "そうそう、この別荘のテーマ名って\n\nだったんですけど・・・　変えます？",
      "KRko": "그러고 보니 이 별장의 테마 이름은\n이었는데\n바꾸시겠습니까?",
      "TWzh": "對了，這棟別墅目前的主題名稱是\n……\n請問您有意更改名稱嗎？",
      "USen": "Checking the manifest, I can see this\nvacation home's theme designation\nis .\nYou gonna change it?",
      "USes": "Si no me falla la memoria, el tema\ndecorativo de la casa era algo como\n\"\".\n¿Te sigue pareciendo bien\no prefieres cambiarlo?",
      "USfr": "Laisse-moi jeter un œil à la feuille\nde route, d'abord...\nPour le moment, le thème s'appelle\n. Est-ce que tu veux le changer?"
    }
  },
  {
    "label": "023_a",
    "attribute": "0x00000000",
    "locale": {
      "CNzh": "更改吧",
      "EUde": "Ein neuer Name!",
      "EUen": "I'll pick a new name.",
      "EUes": "Le pongo otro nombre",
      "EUfr": "Je veux changer le nom.",
      "EUit": "Scelgo un altro nome.",
      "EUnl": "Ik kies een nieuw thema.",
      "EUru": "Лучше новое название!",
      "JPja": "変えましょう",
      "KRko": "바꾸자",
      "TWzh": "更改吧",
      "USen": "I'll pick a new name.",
      "USes": "Elijo otro tema",
      "USfr": "Je veux changer le nom."
    }
  },
  {
    "label": "023_b",
    "attribute": "0x00000000",
    "locale": {
      "CNzh": "保持现状",
      "EUde": "Mir gefällt der Name!",
      "EUen": "I like the name as is.",
      "EUes": "Así está bien",
      "EUfr": "Ce nom me convient.",
      "EUit": "Va bene questo nome.",
      "EUnl": "Het thema is prima zo.",
      "EUru": "Мне и так нравится.",
      "JPja": "そのままで",
      "KRko": "그대로 하자",
      "TWzh": "保持現狀",
      "USen": "I like the name as is.",
      "USes": "Así está bien",
      "USfr": "Ce nom me convient."
    }
  },
  {
    "label": "024",
    "attribute": "0x00000000",
    "locale": {
      "CNzh": "收到！\n那就请您告诉我新的主题名称吧！",
      "EUde": "Roger! Dann sag mir bitte, welches\ndie Bezeichnung für das neue\nKonzept sein wird!",
      "EUen": "Roger! Then please lemme know that\nnew theme!",
      "EUes": "¡Recibido! Entonces dime cuál\nva a ser.",
      "EUfr": "Okidodoki ! Dans ce cas, dis-moi\ncomment tu veux l'appeler !",
      "EUit": "Ricevuto! Allora fammi sapere che\ntema hai scelto!",
      "EUnl": "Luid en duidelijk! Dan mag je het\nthema nu doorgeven!",
      "EUru": "Все понял! Тогда прошу сообщить\nновую тему!",
      "JPja": "ラジャーです！\nそれでは　新しいテーマ名をどうぞ！",
      "KRko": "알겠습니다!\n그럼 새로운 테마 이름을 알려주세요!",
      "TWzh": "收到！\n那麼請您取個新的主題名稱吧！",
      "USen": "Roger! Then please lemme know that\nnew theme!",
      "USes": "¡Recibido! Entonces dime cuál\nva a ser.",
      "USfr": "Okidodoki! Dans ce cas, dis-moi\ncomment tu veux l'appeler!"
    }
  },
  {
    "label": "025",
    "attribute": "0x00000000",
    "locale": {
      "CNzh": "那么，就不改了吧！",
      "EUde": "Dann lassen wir einfach alles so,\nwie es ist!",
      "EUen": "Then let's just keep it the way it is!",
      "EUes": "¡Perfecto! Me parece bien.",
      "EUfr": "Très bien alors, autant le laisser\ncomme ça !",
      "EUit": "Allora lasciamo le cose così\ncome sono!",
      "EUnl": "Luid en duidelijk! We houden het bij\nhet oude.",
      "EUru": "Тогда оставим как есть!",
      "JPja": "それじゃ　そのままで　いきましょう！",
      "KRko": "그럼 그대로 유지하도록 하죠!",
      "TWzh": "那麼就維持目前的主題名稱吧！",
      "USen": "Then let's just keep it the way it is!",
      "USes": "¡Perfecto! Me parece bien.",
      "USfr": "Très bien alors, autant le laisser\ncomme ça!"
    }
  },
  {
    "label": "026",
    "attribute": "0x02000000",
    "locale": {
      "CNzh": "咦？\n还是用之前的吗？",
      "EUde": "Hm? Du willst den Namen des\nKonzepts behalten?",
      "EUen": "Hm? You just want to keep it the\nsame theme name?",
      "EUes": "¿Eh? ¿Quieres dejarlo igual?",
      "EUfr": "Hein ? Tu veux garder le nom\ntel quel, c'est ça ?",
      "EUit": "Eh? Non desideri cambiare il nome\ndel tema, allora?",
      "EUnl": "Luid en onduidelijk? Je wilt het\nthema zo houden?",
      "EUru": "Хм? Все же решил не менять?",
      "JPja": "あれ？　やっぱり\n今と同じにしておきますか？",
      "KRko": "음? 역시\n그대로 두시겠습니까?",
      "TWzh": "咦？您還是想用\n和現在相同的嗎？",
      "USen": "Hm? You just want to keep it the\nsame theme name?",
      "USes": "¿Eh? ¿Quieres dejarlo como está?",
      "USfr": "Hein? Tu veux garder le nom\ntel quel, c'est ça?"
    }
  },
  {
    "label": "026_a",
    "attribute": "0x00000000",
    "locale": {
      "CNzh": "还是保持现状吧",
      "EUde": "Namen behalten.",
      "EUen": "Let's keep the name.",
      "EUes": "Dejemos el mismo",
      "EUfr": "Gardons le nom.",
      "EUit": "Teniamo lo stesso.",
      "EUnl": "We laten het bij het oude.",
      "EUru": "Оставим название.",
      "JPja": "やっぱり　そのままで",
      "KRko": "역시 그대로 하자",
      "TWzh": "還是保持現狀吧",
      "USen": "Let's keep the name.",
      "USes": "Dejemos el mismo",
      "USfr": "Gardons le nom."
    }
  },
  {
    "label": "026_b",
    "attribute": "0x00000000",
    "locale": {
      "CNzh": "更改主题名称",
      "EUde": "Lieber einen anderen.",
      "EUen": "Let's use a new name.",
      "EUes": "Pongámosle otro",
      "EUfr": "Trouvons un nouveau nom.",
      "EUit": "Usiamo un nuovo nome.",
      "EUnl": "Een nieuw thema is beter.",
      "EUru": "Лучше другое название.",
      "JPja": "テーマ名は　変えます",
      "KRko": "다른 이름으로 바꿀래",
      "TWzh": "更改主題名稱吧",
      "USen": "Let's use a new name.",
      "USes": "Elijamos otro",
      "USfr": "Trouvons un nouveau nom."
    }
  },
  {
    "label": "027",
    "attribute": "0x00000000",
    "locale": {
      "CNzh": "这样啊！\n那请您告诉我新的主题名称吧！",
      "EUde": "Roger! Neues Konzept bestätigt!\nAlso, wie soll es heißen?",
      "EUen": "Affirmative! It's a new designation!\nOK, please lemme know the\nnew name!",
      "EUes": "¡Entendido! Dime por cuál te\nhas decidido.",
      "EUfr": "No problemo. C'est parti pour\nun nouveau nom ! À toi de me\nle révéler !",
      "EUit": "Affermativo! Nuovo tema in fase di\natterraggio! Okappa, fammi sapere\ncome si chiama!",
      "EUnl": "Bevestigd! We krijgen een nieuwe\naanduiding. Goed, geef maar door!",
      "EUru": "Все понял! У дачи будет новое\nдиспетчерское наименование!\nПрошу!",
      "JPja": "そうですよね！\nそれじゃ　新しいテーマ名を　ドーゾ！",
      "KRko": "그렇군요!\n그럼 새로운 테마 이름을 알려주세요!",
      "TWzh": "您也這麼認為對吧！\n那麼請您取個新的主題名稱吧！",
      "USen": "Affirmative! It's a new designation!\nOK, please lemme know the\nnew name!",
      "USes": "¡Entendido! Dime por cuál lo cambias\nentonces.",
      "USfr": "Pas de problème. C'est parti pour\nun nouveau nom! À toi de me\nle révéler!"
    }
  },
  {
    "label": "028",
    "attribute": "0x00000000",
    "locale": {
      "CNzh": "……\n恰如其分！",
      "EUde": " also⁠.⁠ Klingt perfekt!",
      "EUen": "So, ...\nSounds perfect!",
      "EUes": "Ah, «⁠»⁠... ¡⁠Sabia elección⁠!",
      "EUfr": ", hein ? C'est parfait !",
      "EUit": "... Mi piace come suona!",
      "EUnl": "\"\"... Uitstekend!",
      "EUru": "Значит, «»! Звучит отменно!",
      "JPja": "・・・\nバッチリですね！",
      "KRko": "...\n딱 어울리는 테마군요!",
      "TWzh": "……\n取得真好！",
      "USen": "So, ...\nSounds perfect!",
      "USes": "Ah, ...\n¡Sabia elección!",
      "USfr": ", hein? C'est parfait!"
    }
  },
  {
    "label": "101",
    "attribute": "0x06000000",
    "locale": {
      "CNzh": "您好！有什么事吗？",
      "EUde": "Ja? Wie kann ich dir helfen?",
      "EUen": "Yes? What can I help ya with?",
      "EUes": "¡Cucú! ¿Puedo ayudarte en algo?",
      "EUfr": "Oui ? Je peux faire quelque\nchose pour toi ?",
      "EUit": "Sì? In cosa posso esserti utile?",
      "EUnl": "Ja? Waarmee kan ik je van dienst\nzijn?",
      "EUru": "Да? Чем могу?",
      "JPja": "はい！　なんですか？",
      "KRko": "네! 무슨 일이시죠?",
      "TWzh": "好的！請問有什麼事嗎？",
      "USen": "Yes? What can I help ya with?",
      "USes": "¡Cucú! ¿Puedo ayudarte en algo?",
      "USfr": "Oui? Je peux faire quelque\nchose pour toi?"
    }
  },
  {
    "label": "101_01",
    "attribute": "0x06000000",
    "locale": {
      "CNzh": "唔……别墅怎么了吗？",
      "EUde": "Ja? Mein Ferienhaus? Was ist damit?",
      "EUen": "Yeah? My vacation home?\nWhat about it?",
      "EUes": "¿Y de qué quieres hablar?",
      "EUfr": "Ma maison de vacances ?\nTu veux savoir quoi, exactement ?",
      "EUit": "Eh? La mia casa vacanze? Cosa\nvorresti farci?",
      "EUnl": "Mijn vakantiehuis? Wat is daarmee?",
      "EUru": "Хм? Моя дача? А что с ней?",
      "JPja": "えっ・・・　別荘がどうかしました？",
      "KRko": "네...? 별장에 무슨 문제라도 있나요?",
      "TWzh": "咦……別墅怎麼了嗎？",
      "USen": "Yeah? My vacation home?\nWhat about it?",
      "USes": "¿Y de qué quieres hablar?",
      "USfr": "Ma maison de vacances?\nTu veux savoir quoi, exactement?"
    }
  },
  {
    "label": "101_01_a",
    "attribute": "0x00000000",
    "locale": {
      "CNzh": "关于装修",
      "EUde": "Umbau!",
      "EUen": "Let's talk remodeling.",
      "EUes": "¿Hacemos reforma?",
      "EUfr": "Parlons rénovations.",
      "EUit": "Parliamo di ristrutturare.",
      "EUnl": "Wat dacht je van verbouwen?",
      "EUru": "Обсудим новый дизайн?",
      "JPja": "リフォームしませんか",
      "KRko": "리폼 안 할래?",
      "TWzh": "關於裝修",
      "USen": "Let's talk remodeling.",
      "USes": "¿Remodelamos la casa?",
      "USfr": "Parlons rénovations."
    }
  },
  {
    "label": "101_01_b",
    "attribute": "0x00000000",
    "locale": {
      "CNzh": "关于搬家",
      "EUde": "Umzug!",
      "EUen": "Let's talk moving.",
      "EUes": "¿La trasladamos?",
      "EUfr": "Parlons déménagement.",
      "EUit": "Parliamo di trasloco.",
      "EUnl": "Wat dacht je van verhuizen?",
      "EUru": "Поговорим о переезде.",
      "JPja": "引越ししませんか",
      "KRko": "이사 어때?",
      "TWzh": "關於搬家",
      "USen": "Let's talk moving.",
      "USes": "¿La trasladamos?",
      "USfr": "Parlons déménagement."
    }
  },
  {
    "label": "101_01_c",
    "attribute": "0x00000000",
    "locale": {
      "CNzh": "关于合住",
      "EUde": "Mitbewohner!",
      "EUen": "Let's talk roommates.",
      "EUes": "Hablemos de compas",
      "EUfr": "Parlons colocation.",
      "EUit": "Parliamo di coinquilini.",
      "EUnl": "Wil je een huisgenoot?",
      "EUru": "Поговорим о соседях.",
      "JPja": "ハウスシェアのことで…",
      "KRko": "하우스 셰어 말인데…",
      "TWzh": "關於同住",
      "USen": "Let's talk roommates.",
      "USes": "¿Qué tal compartir casa?",
      "USfr": "Parlons colocation."
    }
  },
  {
    "label": "101_01_d",
    "attribute": "0x00000000",
    "locale": {
      "CNzh": "没什么",
      "EUde": "Hat sich erledigt.",
      "EUen": "Never mind.",
      "EUes": "Nada, es igual",
      "EUfr": "Laisse tomber.",
      "EUit": "Niente, lascia stare.",
      "EUnl": "Laat maar...",
      "EUru": "Я так, просто.",
      "JPja": "なんでもないです",
      "KRko": "아무것도 아니야",
      "TWzh": "沒什麼事",
      "USen": "Never mind.",
      "USes": "Olvídalo",
      "USfr": "Laisse tomber."
    }
  },
  {
    "label": "101_a",
    "attribute": "0x00000000",
    "locale": {
      "CNzh": "过得怎么样？",
      "EUde": "Wie geht's denn so?",
      "EUen": "How are things?",
      "EUes": "¿Qué te cuentas?",
      "EUfr": "Tout se passe bien ?",
      "EUit": "Come va?",
      "EUnl": "Hoe gaat het ermee?",
      "EUru": "Как жизнь?",
      "JPja": "いかがお過ごしですか？",
      "KRko": "어떻게 지내?",
      "TWzh": "最近過得怎麼樣呢？",
      "USen": "How are things?",
      "USes": "¿Qué cuentas?",
      "USfr": "Tout se passe bien?"
    }
  },
  {
    "label": "101_b",
    "attribute": "0x00000000",
    "locale": {
      "CNzh": "关于别墅",
      "EUde": "Was macht dein Haus?",
      "EUen": "How's your home?",
      "EUes": "Hablemos de tu casa",
      "EUfr": "Ta villa te plaît ?",
      "EUit": "Come va con la casa?",
      "EUnl": "Alles oké met je vakantiehuis?",
      "EUru": "Как твой дом?",
      "JPja": "別荘のことなのですが",
      "KRko": "별장에 대해서",
      "TWzh": "關於別墅",
      "USen": "How's your home?",
      "USes": "Hablemos de tu casa",
      "USfr": "Ta maison te plaît?"
    }
  },
  {
    "label": "101_c",
    "attribute": "0x00000000",
    "locale": {
      "CNzh": "要回去了",
      "EUde": "Ich gehe wieder.",
      "EUen": "I'm heading back.",
      "EUes": "Me vuelvo a la agencia",
      "EUfr": "Bon, je m'en vais.",
      "EUit": "Me ne vado.",
      "EUnl": "Ik ga er weer vandoor.",
      "EUru": "Вернусь обратно.",
      "JPja": "帰ります",
      "KRko": "이만 갈게",
      "TWzh": "我要回去了",
      "USen": "I'm heading back.",
      "USes": "Vuelvo a la agencia",
      "USfr": "Bon, je m'en vais."
    }
  },
  {
    "label": "101_d",
    "attribute": "0x00000000",
    "locale": {
      "CNzh": "只是打个招呼",
      "EUde": "Wollte nur Hallo sagen!",
      "EUen": "Just saying hi!",
      "EUes": "Solo saludaba...",
      "EUfr": "Je passe juste dire bonjour.",
      "EUit": "Volevo solo salutarti.",
      "EUnl": "Ik wilde alleen hoi zeggen!",
      "EUru": "Привет-привет!",
      "JPja": "ごあいさつだけ",
      "KRko": "그냥 인사하려고!",
      "TWzh": "只是打聲招呼",
      "USen": "Just saying hi!",
      "USes": "Solo quería saludar...",
      "USfr": "Je passe juste dire bonjour."
    }
  },
  {
    "label": "102_01",
    "attribute": "0x02000000",
    "locale": {
      "CNzh": "装修！收到！\n唔，可以全权交给您负责吗？",
      "EUde": "Umbauen! Roger! Ähm, macht es\ndir etwas aus, wenn ich die Details\ndir überlasse?",
      "EUen": "Customize! Roger! Um, do you mind\nif I just leave it all to you?",
      "EUes": "¡Recibido! ¿Te importa que lo deje\ntodo en tus manos?",
      "EUfr": "La rénover ! Okidodoki !\nEuh... tu vas m'en vouloir si je\nte laisse t'en occuper ?",
      "EUit": "Ristrutturazione! Ricevuto! Ehm, ti\ndispiace se lascio fare tutto a te?",
      "EUnl": "Een verbouwing! Luid en duidelijk!\nEhm, zou jij je daarover willen\nbekommeren?",
      "EUru": "Новый дизайн! Индивидуализация!\nВсе понял! Э-э-э, давай ты лучше\nсам этим займись, ладно?",
      "JPja": "リフォーム！　ラジャーです！\nえっと、おまかせしても　よろしいですか？",
      "KRko": "리폼이군요! 알겠습니다!\n...전부 맡겨도 되겠습니까?",
      "TWzh": "裝修！收到！\n請問，我可以將這件事全權委託給您嗎？",
      "USen": "Customize! Roger! Um, do you mind\nif I just leave it all to you?",
      "USes": "¡Recibido! ¿Te molestaría que lo deje\ntodo en tus manos?",
      "USfr": "La rénover! Okidodoki!\nEuh... tu vas m'en vouloir si je\nte laisse t'en occuper?"
    }
  },
  {
    "label": "102_01_a",
    "attribute": "0x00000000",
    "locale": {
      "CNzh": "请交给我吧！",
      "EUde": "Überlass alles mir!",
      "EUen": "Leave it all to me!",
      "EUes": "¡Yo me encargo!",
      "EUfr": "Je m'occupe de tout !",
      "EUit": "Lascia fare a me!",
      "EUnl": "Laat alles maar aan mij over!",
      "EUru": "Предоставь это мне!",
      "JPja": "お任せください！",
      "KRko": "맡겨만 줘!",
      "TWzh": "請交給我吧！",
      "USen": "Leave it all to me!",
      "USes": "¡Yo me encargo!",
      "USfr": "Je m'occupe de tout!"
    }
  },
  {
    "label": "102_01_b",
    "attribute": "0x00000000",
    "locale": {
      "CNzh": "还是算了吧",
      "EUde": "Ach, lassen wir das...",
      "EUen": "Actually, never mind.",
      "EUes": "Mejor lo dejamos estar",
      "EUfr": "Laissons tomber.",
      "EUit": "Meglio lasciar stare...",
      "EUnl": "Weet je, laat maar zitten...",
      "EUru": "Забудь.",
      "JPja": "やっぱりやめましょう",
      "KRko": "역시 그만두자",
      "TWzh": "還是算了吧",
      "USen": "Actually, never mind.",
      "USes": "Mejor olvídalo",
      "USfr": "Laissons tomber."
    }
  },
  {
    "label": "104_01",
    "attribute": "0x00000000",
    "locale": {
      "CNzh": "那就拜托您了！",
      "EUde": "Ich lass dich dann mal anfangen!",
      "EUen": "I'll let you get started, then!",
      "EUes": "¡Perfecto! Dejaré que te pongas\na ello entonces.",
      "EUfr": "Je te laisse faire, alors !",
      "EUit": "Ti lascio lavorare, allora!",
      "EUnl": "Mooi, dan heb je toestemming\nom te starten!",
      "EUru": "Ну, не буду мешать. Начинай!",
      "JPja": "では　ぜひ　お願いします！",
      "KRko": "그럼 잘 부탁드리겠습니다!",
      "TWzh": "那就麻煩您了！",
      "USen": "I'll let you get started, then!",
      "USes": "¡Perfecto! Dejaré entonces\nque te pongas en marcha.",
      "USfr": "Je te laisse faire, alors!"
    }
  },
  {
    "label": "107",
    "attribute": "0x00000000",
    "locale": {
      "CNzh": "啊？这样啊……\n那就等下次再说吧！",
      "EUde": "Verstehe, das ist also ein Nein... \nNun, dann vielleicht ja bei deinem\nnächsten Vorbeiflug.",
      "EUen": "Understood that that's a negative...\nWell, maybe on your next flyby.",
      "EUes": "Vaya negativa... Bueno, quizá\nvuelva a surgir la oportunidad\nalgún día.",
      "EUfr": "Ah, t'as pas envie, j'ai compris... \nLa prochaine fois que tu survoleras\nla zone, peut-être.",
      "EUit": "Ricevuto, esito negativo... Magari\nfacciamo al tuo prossimo volo.",
      "EUnl": "Luid en duidelijk, een nee dus...\nOké, misschien op je volgende route.",
      "EUru": "Все понял, отменяется... Ну,\nможет, следующим рейсом.",
      "JPja": "あれ、そうですか・・・\nでは　また次の機会に！",
      "KRko": "앗, 그러시군요...\n그럼 다음 기회에 부탁드리겠습니다!",
      "TWzh": "咦，這樣啊……\n那就下次再說吧！",
      "USen": "Understood that that's a negative...\nWell, maybe on your next flyby.",
      "USes": "Entendido... Bueno, quizá vuelva\na surgir la oportunidad en otro\nmomento.",
      "USfr": "Ah, t'as pas envie, j'ai compris... \nLa prochaine fois que tu survoleras\nla zone, peut-être."
    }
  },
  {
    "label": "108",
    "attribute": "0x02000000",
    "locale": {
      "CNzh": "搬家啊！\n这个提议挺突然的……\n不过，我就试试在新的土地上空翱翔吧！",
      "EUde": "Umziehen?! Das ist ja eine große\nVeränderung der Reiseroute... aber\nwarum nicht?! Dann mal flugs los!",
      "EUen": "Move?! That's a darn big change of\nitinerary...but why not? Let's wing!",
      "EUes": "¿Y mudarme a otro destino? Sería\nun cambio de itinerario interesante...\n¡De acuerdo! ¡Hagámoslo!",
      "EUfr": "Déménager ?! Tu me fais le coup\ndu changement subit d'itinéraire,\nquoi... Mais pourquoi pas, après tout.",
      "EUit": "Traslocare?! È un cambio di rotta\nnon indifferente... ma perché no?\nFacciamolo!",
      "EUnl": "Verhuizen?! Nou, dat stond niet in\nmijn vluchtplan... maar waarom ook\nniet? Klaar om op te stijgen!",
      "EUru": "Переезд?! Ничего себе вираж...\nХотя почему бы и нет! От винта!",
      "JPja": "引越しですか！\nなかなか　ダイタンですけど・・・\n新しい土地に　羽ばたいてみようかな！",
      "KRko": "이사 말씀이시군요!\n상당히 대담한 결정이지만...\n새로운 곳으로 떠나볼까요!",
      "TWzh": "您說搬家嗎！\n真是大膽的想法……\n那麼就試著展翅前往新天地好了！",
      "USen": "Move?! That's a darn big change of\nitinerary...but why not? Let's wing!",
      "USes": "¿Y mudarme a otro destino? Sería\nun cambio de itinerario interesante...\n¡De acuerdo! ¡Hagámoslo!",
      "USfr": "Déménager?! Tu me fais le coup\ndu changement soudain d'itinéraire,\nquoi... Mais pourquoi pas, après tout."
    }
  },
  {
    "label": "108_01",
    "attribute": "0x00000000",
    "locale": {
      "CNzh": "那么，麻烦您了！",
      "EUde": "Dann lass uns loslegen!",
      "EUen": "Then please—let's get to it!",
      "EUes": "¡Te dejo al mando entonces!",
      "EUfr": "Alors... au boulot !",
      "EUit": "Allora prego, diamoci da fare!",
      "EUnl": "Heel graag. Ga je gang!",
      "EUru": "Тогда прошу! За дело!",
      "JPja": "それでは　ドーゾ　よろしく！",
      "KRko": "그럼 잘 부탁드립니다!",
      "TWzh": "那麼這件事就麻煩您了！",
      "USen": "Then please—let's get to it!",
      "USes": "¡Te dejo al mando entonces!",
      "USfr": "Alors... au boulot!"
    }
  },
  {
    "label": "108_a",
    "attribute": "0x00000000",
    "locale": {
      "CNzh": "请交给我吧！",
      "EUde": "Überlass alles mir!",
      "EUen": "Leave it all to me!",
      "EUes": "¡Yo me encargo!",
      "EUfr": "Je m'occupe de tout !",
      "EUit": "Lascia fare a me!",
      "EUnl": "Laat alles maar aan mij over!",
      "EUru": "Предоставь это мне!",
      "JPja": "お任せください！",
      "KRko": "맡겨만 줘!",
      "TWzh": "請交給我吧！",
      "USen": "Leave it all to me!",
      "USes": "¡Yo me encargo!",
      "USfr": "Je m'occupe de tout!"
    }
  },
  {
    "label": "108_b",
    "attribute": "0x00000000",
    "locale": {
      "CNzh": "还是算了吧",
      "EUde": "Ach, lassen wir das...",
      "EUen": "Actually, never mind.",
      "EUes": "Mejor lo dejamos estar",
      "EUfr": "Laissons tomber.",
      "EUit": "Meglio lasciar stare...",
      "EUnl": "Weet je, laat maar zitten...",
      "EUru": "Забудь.",
      "JPja": "やっぱりやめましょう",
      "KRko": "역시 그만두자",
      "TWzh": "還是算了吧",
      "USen": "Actually, never mind.",
      "USes": "Mejor olvídalo",
      "USfr": "Laissons tomber."
    }
  },
  {
    "label": "109",
    "attribute": "0x00000000",
    "locale": {
      "CNzh": "和其他人一起分享别墅吗？\n唔……可是休息时间，\n我还是想要一个人度过……\n我知道您是诚意邀请，但很抱歉，\n请恕我拒绝！",
      "EUde": "Ich soll dieses Ferienhaus mit\njemandem teilen? Hm... ich verbringe\nmeinen Feierabend lieber alleine...\nDanke für das Angebot, aber ich\nfürchte, ich muss passen.",
      "EUen": "You mean share this vacation home\nwith someone else? Hm... I kinda\nlike spending my off hours alone...\nThanks for the offer, but I'm sorry.\nI'm gonna have to give your offer\na pass.",
      "EUes": "¿Sugieres que comparta la casa\ncon alguien más? (Con lo que me\ngusta pasar tiempo a mi aire...)\nGracias por la sugerencia, pero\nme temo que debo rechazarla.",
      "EUfr": "Tu veux dire que je partagerais\ncette maison avec quelqu'un ?\n(Hmm... J'aime bien être tout seul\npendant mon temps libre...)\nMerci de ta proposition, mais je\nvais devoir la décliner. Désolé !",
      "EUit": "Mi proponi di condividere questa\ncasa vacanze con qualcun altro?\nCome faccio a rilassarmi, poi?\nGrazie dell'offerta, ma devo rifiutare.\nMi dispiace.",
      "EUnl": "Je bedoelt of ik dit huisje wil delen?\nHm... ik ben na mijn dienst altijd blij als ik\nniemand meer hoef te zien...\nBedankt voor het aanbod, maar ik\ndoe het niet. Deze vlucht laat ik aan\nme voorbijgaan.",
      "EUru": "То есть... жить на этой даче вместе\nс кем-то еще? Хм... В нерабочее\nвремя я люблю отдыхать один...\nСпасибо за предложение,\nно вынужден отказаться, извини.",
      "JPja": "誰かと一緒に　別荘を使うんですか？\nう～ん・・・　休みの時は　ひとりで\n過ごしたいんだけどなぁ・・・\nせっかくですけど　すみません\nエンリョしておきます！",
      "KRko": "다른 분과 함께 별장을 쓰는 건가요?\n음～... 쉴 때는 혼자서 지내고 싶은데...\n모처럼 제안해주셨는데 죄송합니다만\n전 사양하겠습니다!",
      "TWzh": "要我和其他人同住一棟別墅嗎？\n唔……但我希望在休息時\n能一個人獨處啊……\n很謝謝您的提議，但是不好意思，\n請恕我婉拒！",
      "USen": "You mean share this vacation home\nwith someone else? Hm... I kinda\nlike spending my off hours alone...\nThanks for the offer, but I'm sorry.\nI'm gonna have to give your offer\na pass.",
      "USes": "¿Sugieres que comparta la casa\ncon alguien más? (Con lo que a mí\nme gusta volar sin copiloto...).\nGracias por la sugerencia, pero\nme temo que debo rechazarla.",
      "USfr": "Tu veux dire que je partagerais\ncette maison avec quelqu'un?\n(Hmm... J'aime bien être tout seul\npendant mon temps libre...)\nMerci de ta proposition, mais je\nvais devoir la décliner. Désolé!"
    }
  },
  {
    "label": "110",
    "attribute": "0x00000000",
    "locale": {
      "CNzh": "这真叫人受宠若惊啊……\n谢谢您特意来和我打招呼！",
      "EUde": "Nun... Danke, dass du dir die Zeit\ngenommen hast.",
      "EUen": "Well... Thanks for taking the time!",
      "EUes": "¿Ah, sí?... ¡Se agradece el interés!",
      "EUfr": "Eh bien... Merci de me consacrer\ndu temps !",
      "EUit": "Beh... Grazie per il tempo che\nmi hai dedicato!",
      "EUnl": "Eh, oké... Bedankt dat je de tijd\ngenomen hebt.",
      "EUru": "Что ж... Спасибо, что уделил\nмне время!",
      "JPja": "それはそれは・・・\nわざわざ　ありがとうございます！",
      "KRko": "그러십니까...?\n시간 내주셔서 감사합니다!",
      "TWzh": "哎呀，真是受寵若驚……\n感謝您特地來向我問候！",
      "USen": "Well... Thanks for taking the time!",
      "USes": "¿Ah, sí?... ¡Se agradece el interés!",
      "USfr": "Eh bien... Merci de me consacrer\ndu temps!"
    }
  },
  {
    "label": "110_01",
    "attribute": "0x00000000",
    "locale": {
      "CNzh": "这样啊……\n如果有什么事的话，请您随时和我说！",
      "EUde": "Verstanden! Funk mich jederzeit an,\nwenn's was zu bereden gibt.",
      "EUen": "Understood! Just lemme know if\nanything ever comes up!",
      "EUes": "¡Recibido! Si te inquieta cualquier\ncosa, házmelo saber sin problema.",
      "EUfr": "No problemo. Mais s'il te faut\nquelque chose, dis-le-moi !",
      "EUit": "Ricevuto! Se hai qualche novità,\nsai dove trovarmi!",
      "EUnl": "Luid en duidelijk! Dan hoor ik het wel\nals er wel iets is!",
      "EUru": "Все понял! Ну, если что —\nдай знать!",
      "JPja": "そうですか・・・\n何かあったら　いつでも言ってくださいね！",
      "KRko": "그러시군요...\n무슨 일 있으시면 언제든 말씀해주세요!",
      "TWzh": "這樣啊……\n如果有什麼事的話，請您隨時告訴我！",
      "USen": "Understood! Just lemme know if\nanything ever comes up!",
      "USes": "¡Recibido! Si te inquieta cualquier\ncosa, házmelo saber sin problema.",
      "USfr": "Pas de problème. Mais s'il te faut\nquelque chose, dis-le-moi!"
    }
  },
  {
    "label": "111",
    "attribute": "0x00000000",
    "locale": {
      "CNzh": "",
      "EUde": "",
      "EUen": "",
      "EUes": "",
      "EUfr": "",
      "EUit": "",
      "EUnl": "",
      "EUru": "",
      "JPja": "",
      "KRko": "",
      "TWzh": "",
      "USen": "",
      "USes": "",
      "USfr": ""
    }
  },
  {
    "label": "111_01",
    "attribute": "0x00000000",
    "locale": {
      "CNzh": "因为不知道什么时候就会收到工作通知，\n所以就算是在别墅里休息，\n我也会穿着制服！",
      "EUde": "Ich trage meine Uniform sogar, wenn\nich im Ferienhaus ausspanne.\nSo kann ich nach dem Rückflug so\nschnell bei der Arbeit sein, dass es\nscheint, als ob ich nie weg war!",
      "EUen": "I wear my uniform even when I'm\nstretching my wings out at my\nvacation home.\nThat way, once I return, I can get\nback to work so quick, it'll seem\nlike I never left!",
      "EUes": "No me quito el uniforme ni siquiera\ncuando estoy de vacaciones.\n¡Nunca se sabe cuándo te puede\ntocar alzar el vuelo!",
      "EUfr": "Je porte mon uniforme même pour\nme détendre un peu les ailes\npendant mes vacances.\nComme ça, de retour chez moi, je me\nremettrai au travail si vite qu'on\ncroira que j'étais pas parti du tout !",
      "EUit": "Indosso la mia uniforme anche\nquando mi rilasso nella mia casa\nvacanze.\nCosì una volta tornato alla mia vita\ndi tutti i giorni, sono subito pronto\na entrare in azione!",
      "EUnl": "Ik vind het prettig om ook tijdens de\nvakantie mijn uniform te dragen.\nDan is de overgang niet zo groot als\nik straks weer aan het werk moet!",
      "EUru": "Я даже на даче отдыхаю в форме.\nТак что когда вернусь домой, смогу\nвыйти на работу так быстро, будто\nи не уезжал!",
      "JPja": "別荘で　羽を伸ばしていたとしても\nいつ　仕事に呼ばれてもいいように\n制服を着ているんですよ！",
      "KRko": "별장에서 쉬고 있을 때도\n일이 생기면 언제든 나갈 수 있도록\n항상 유니폼을 입고 있답니다!",
      "TWzh": "雖然我正在別墅裡好好放鬆，\n但為了能隨時回到工作崗位，\n所以一直都穿著制服喔！",
      "USen": "I wear my uniform even when I'm\nstretching my wings out at my\nvacation home.\nThat way, once I return, I can get\nback to work so quick, it'll seem\nlike I never left!",
      "USes": "No me quito el uniforme ni siquiera\ncuando estoy de vacaciones.\n¡Nunca se sabe cuándo te puede\ntocar levantar vuelo!",
      "USfr": "Je porte mon uniforme même pour\nme détendre un peu les ailes\npendant mes vacances.\nComme ça, de retour chez moi, je me\nremettrai au travail si vite qu'on\ncroira que j'étais pas parti du tout!"
    }
  },
  {
    "label": "111_02",
    "attribute": "0x00000000",
    "locale": {
      "CNzh": "嗯！我在这里生活得很惬意！\n哈——欠…………\n惬意过头，我都快睡着了！",
      "EUde": "Hallo! Dieser Ort ist so entspannend!\nGähn... So entspannend, dass ich\nmanchmal unfreiwillig eindöse!",
      "EUen": "This place is so relaxing... So\nrelaxing that sometimes I can\nnod off without meaning to!",
      "EUes": "En este sitio puedo relajarme a\nmi aire. Ay, qué sueño...\nA veces me relajo tanto que hasta\nme echo una cabezadita casi sin\ndarme cuenta.",
      "EUfr": "Salut, salut ! Cet endroit est un\nhavre de paix ! (Zzz)...\nOh, pardon ! Je suis tellement\ndétendu, ici, qu'il m'arrive de piquer\ndu bec un peu n'importe quand.",
      "EUit": "Ciao! Questo posto è così rilassante!\nYawn... A volte mi appisolo senza\nneanche rendermene conto!",
      "EUnl": "Hé, hoi, ho! Ik kan hier zo goed\nontspannen! Gaap... Zo ontspannen\ndat ik soms zomaar even wegzak!",
      "EUru": "Привет! Здесь так спокойно!\nХр-р-р... Иногда я даже незаметно\nзасыпаю...",
      "JPja": "はいっ！　快適に過ごさせてもらってますよ！\nふあぁ～・・・・・・\n快適過ぎて　眠くなったりもしますけどね！",
      "KRko": "네! 쾌적하게 생활하고 있습니다!\n흐아암～......\n너무 쾌적해서 졸릴 정도지만요!",
      "TWzh": "是！我現在正過著舒適的日子喔！\n呼啊…………\n不過也因為太過舒適，害我經常想睡覺呢！",
      "USen": "This place is so relaxing... So\nrelaxing that sometimes I can\nnod off without meaning to!",
      "USes": "En este lugar puedo relajarme a\nmis anchas. Ay, qué sueño...\nA veces me relajo tanto que\nhasta me echo una siesta\ncasi sin darme cuenta.",
      "USfr": "Salut, salut! Cet endroit est un\nhavre de paix! (Zzz)...\nOh, pardon! Je suis tellement\ndétendu, ici, qu'il m'arrive de piquer\ndu bec un peu n'importe quand."
    }
  },
  {
    "label": "111_03",
    "attribute": "0x00000000",
    "locale": {
      "CNzh": "请看我的衬衫，\n是不是非常合身？\n面料弹性特别好，穿着非常舒服哦！",
      "EUde": "Sieh dir mal dieses Hemd an. Schön,\noder? Der Stoff ist extrem dehnbar,\nwie der von alten Flugzeugflügeln!",
      "EUen": "Take a look at this shirt. Nice, right?\nThe fabric's all stretchy, just like the\nfabric they used for old plane wings!",
      "EUes": "¡Esta camisa es comodísima!\nNi que la hubiesen diseñado\na medida para dodos.",
      "EUfr": "Regarde un peu cette chemise.\nElle est classe, ou bien ?\nC'est le même tissu étirable qu'on\nutilisait autrefois pour les ailes\nd'avions !",
      "EUit": "Dai un'occhiata a questa camicia.\nMagnifica, vero? Ha un design\naerodinamico.",
      "EUnl": "Mooi overhemd, hè? Deze stof rekt\neen beetje mee, net als de stof voor\nde vleugels van die ouwe kisten!",
      "EUru": "Хороша рубашка, а? Даже материал\nрастягивается! Как тот, из которого\nделали крылья старых самолетов!",
      "JPja": "見てください、わたしのシャツ、\nフィットしてるでしょ？\nよく伸びて　着心地サイコーなんですよ！",
      "KRko": "제 셔츠 좀 보세요\n딱 맞지 않습니까?\n잘 늘어나서 착용감이 최고랍니다!",
      "TWzh": "您看看我身上這件衣服，\n是不是很合身啊？\n而且彈性很好，穿起來非常舒服喔！",
      "USen": "Take a look at this shirt. Nice, right?\nThe fabric's all stretchy, just like the\nfabric they used for old plane wings!",
      "USes": "¡Esta camisa es comodísima!\nHasta parece diseñada\nexclusivamente para dodos.",
      "USfr": "Regarde un peu cette chemise.\nMagnifique, pas vrai?\nC'est le même tissu étirable qu'on\nutilisait autrefois pour les ailes\nd'avions!"
    }
  },
  {
    "label": "111_04",
    "attribute": "0x00000000",
    "locale": {
      "CNzh": "你有没有遇到过咖啡洒在领带上，\n留下污渍的情况？\n但其实只要表现得足够自然，\n别人就会以为领带本来就是这个花色，\n完全可以蒙混过去～！",
      "EUde": "Hast du dir schon mal Kaffee auf die\nKlamotten gekleckert?\nUnd dann ganz gelassen getan, als\nwäre der Fleck Teil des Outfits, weil\ndann alle auch gelassen reagieren?\nDas trifft übrigens nicht nur für\nKaffeeflecken zu. Wer sich gelassen\nverhält, erregt selten Aufsehen.",
      "EUen": "Do you ever spill coffee on your\nclothes and it leaves a stain?\nAnd do ya act like the stain's normal\nsince, if ya act like everything's fine,\nmost folks think it is?\nThat lesson applies to a lot more\nthan coffee stains. Folks don't notice\ncalm as much as they do panic.",
      "EUes": "¿Nunca se te ha caído café en la\ncorbata y luego te has quedado\ncon una mancha horrorosa?\nLa solución es fingir que forma parte\ndel diseño. Si muestras confianza\nen ti mismo, cualquier cosa cuela.\nAl menos a mí me funciona ese\nmétodo... Nadie ha dicho nunca nada\nsobre las manchas de mi corbata.\nEn realidad, es un truco aplicable\na muchas otras situaciones: el miedo\nsiempre es más visible que la calma.",
      "EUfr": "Ça t'est déjà arrivé de renverser\ndu café sur ta cravate et de te\nretrouver avec une énorme tache ?\nEt de faire comme si c'était le motif\nde la cravate jusqu'à ce que tout le\nmonde finisse par y croire ?\nEh bien, ça marche avec tout. Si tu\nte comportes normalement, les gens\ncroient que c'est normal.",
      "EUit": "Sai che faccio se mi capita di\nrovesciarmi addosso un po' di caffè?\nFaccio finta di niente, per me è la\nsoluzione ideale.\nE questo vale anche nella vita.\nLa calma passa inosservata,\na differenza del panico.",
      "EUnl": "Mors jij ook weleens koffie op je\nstropdas?\nEn als je die vlek er dan niet uit\nkrijgt, doe je dan maar alsof het zo\nhoort?\nIk denk dat het werkt... want\nniemand zegt ooit iets over de\nkoffievlekken op mijn stropdas!",
      "EUru": "Тебе случалось пролить кофе\nна галстук, да так, чтобы пятно\nосталось?\nА потом сидеть со спокойным\nвидом, будто так и надо — а вдруг\nостальные тоже так решат?\nИ это не только про пятна верно...\nВ любой ситуации веди себя\nестественно, и все будет хорошо.",
      "JPja": "ネクタイに　コーヒーを　こぼして\nシミになることって　ありませんか？\nでも　ドードーとしていれば\nそういう柄かなって　思ってもらえるので\n案外　大丈夫なんですよね～！",
      "KRko": "넥타이에 커피를 쏟아서\n얼룩이 진 적 있으신가요?\n그럴 땐 오히려 당당하게 있으면\n원래 그런 무늬인가 보다 하고\n의외로 다들 못 알아보시더군요～!",
      "TWzh": "您曾有過打翻咖啡\n在領帶上留下污漬的經驗嗎？\n其實只要將污漬當作是\n領帶本來的花紋，\n就能讓自己不去在意它喔～！",
      "USen": "Do you ever spill coffee on your\nclothes and it leaves a stain?\nAnd do ya act like the stain's normal\nsince, if ya act like everything's fine,\nmost folks think it is?\nThat lesson applies to a lot more\nthan coffee stains. Folks don't notice\ncalm as much as they do panic.",
      "USes": "¿Alguna vez se te ha caído café en la\ncorbata y luego te quedas con una\nmancha horrorosa?\nLa solución es fingir que forma parte\ndel diseño. Si mantienes la calma,\ntodo aterriza bien.\nAl menos a mí me funciona ese\nmétodo... Nadie ha dicho nunca nada\nsobre las manchas de mi corbata.\nIntento aplicarlo a muchas otras\ncosas: el miedo es más visible que\nla calma.",
      "USfr": "Ça t'est déjà arrivé de renverser\ndu café sur ta cravate et de te\nretrouver avec une énorme tache?\nEt de faire comme si c'était le motif\nde la cravate jusqu'à ce que tout le\nmonde finisse par y croire?\nEh bien, ça marche avec tout. Si tu\nte comportes normalement, les gens\ncroient que c'est normal."
    }
  },
  {
    "label": "119",
    "attribute": "0x00000000",
    "locale": {
      "CNzh": "",
      "EUde": "",
      "EUen": "",
      "EUes": "",
      "EUfr": "",
      "EUit": "",
      "EUnl": "",
      "EUru": "",
      "JPja": "",
      "KRko": "",
      "TWzh": "",
      "USen": "",
      "USes": "",
      "USfr": ""
    }
  },
  {
    "label": "119_01",
    "attribute": "0x00000000",
    "locale": {
      "CNzh": "难得拥有一个庭院，\n我就想练习一下飞行。\n结果完全飞不起来呢……",
      "EUde": "Da es hier einen Garten gibt, übe ich,\nmit meinen Flügeln zu schlagen...\nSo weit, so gut, wie man im\nFluggeschäft sagt!",
      "EUen": "Since there's a yard here, I thought\nI'd practice flapping my wings...\nSo far, so good, as they say in the\nflying business!",
      "EUes": "Quería aprovechar que tengo espacio\nen la parcela y practicar mi aleteo...\nTodavía no soy capaz de alzar\nel vuelo, ¡pero todo se andará!",
      "EUfr": "Comme il y a un jardin ici, je me suis\ndit que je m'entraînerais à battre\ndes ailes...\nAlors tout vole bien, comme on dit\nchez les pilotes !",
      "EUit": "Dato che qui c'è un giardino, ho\npensato bene di sgranchirmi un\npo' le ali...\nDevo stare attento a non esagerare,\nperò, o potrei decollare ed entrare in\nrotta di collisione con qualche aereo!",
      "EUnl": "Omdat ik nu een tuin heb, kan ik\nmooi oefenen om mijn vleugels te\nflapperen...\nTot zover gaat het als een trein!\nLetterlijk...",
      "EUru": "Раз тут есть сад, я решил размять\nкрылья...\nПока что полет нормальный...\nОбразно выражаясь.",
      "JPja": "せっかく　庭もありますから\nちょっと　羽ばたく練習もしてみたんですけど\nなかなか　飛べませんね・・・",
      "KRko": "모처럼 정원이 있으니까\n잠깐 비행 연습을 해봤는데\n생각만큼 쉽지 않군요...",
      "TWzh": "難得擁有自己的庭園，\n所以我就稍微練習了一下飛行，\n結果卻飛不太起來……",
      "USen": "Since there's a yard here, I thought\nI'd practice flapping my wings...\nSo far, so good, as they say in the\nflying business!",
      "USes": "Quería aprovechar que tengo espacio\nen el jardín para practicar mi aleteo...\nTodavía no puedo levantar vuelo,\n¡pero algún día funcionará!",
      "USfr": "Comme il y a un jardin ici, je me suis\ndit que je m'entraînerais à battre\ndes ailes...\nAlors tout vole bien, comme on dit\nchez les pilotes!"
    }
  },
  {
    "label": "119_02",
    "attribute": "0x00000000",
    "locale": {
      "CNzh": "平日里，我作为机场的职员，\n每天工作都非常忙碌……\n忽然让我像这样悠闲地待在别墅里，\n我都不知道该干些什么好了！",
      "EUde": "Sonst bin ich der, der andere auf\nReisen schickt und sagt, sie sollen\nes sich gutgehen lassen...\nAber jetzt, wo ich selbst da bin, weiß\nich nicht, was ich machen will!",
      "EUen": "I'm the one who usually sends folks\noff on trips. I tell them to have a\ngood time and have fun...\nBut now that I'm here, I dunno what\nI want to do!",
      "EUes": "Después de haber ayudado a tantos\nclientes a llegar aquí, ¡mírame!\n¡Con mi propia casa de vacaciones!\nEl problema es que ahora tengo\ntanto tiempo libre entre manos\nque no sé qué hacer con él.",
      "EUfr": "D'habitude, c'est moi qui salue les\ngens qui partent en voyage. Je leur\ndis de bien profiter de leur séjour...\nMais maintenant que c'est à mon\ntour d'être en vacances, je me\ndemande comment en profiter !",
      "EUit": "Di solito sono io a portare gli altri\nnei luoghi di villeggiatura...\nOra che è toccato a me, non so\ncome passare il tempo!",
      "EUnl": "Meestal ben ik degene die anderen\nop vakantie ziet gaan. En dan wens ik\nze een goeie reis en veel plezier...\nMaar nu ik hier zelf op vakantie ben,\nweet ik eigenlijk niet precies wat ik\nmoet doen!",
      "EUru": "Обычно это я провожаю других\nна отдых. Желаю всем хорошо\nпровести время в путешествии...\nНо теперь отдыхающий — я сам,\nи я совсем не знаю, чем хочу\nзаняться!",
      "JPja": "普段は　空港の職員として\n忙しい毎日なんですが・・・\nいざ　こんな風に　別荘で　のんびり過ごすと\n何をすればいいか　わかりませんね！",
      "KRko": "평소에는 비행장 직원으로서\n바쁜 하루하루를 보내고 있습니다만...\n막상 이렇게 여유로운 시간이 생기니\n뭘 하면 좋을지 모르겠네요!",
      "TWzh": "雖然身為一名機場職員，\n我每天都忙得喘不過氣來……\n可一旦像這樣實際在別墅裡悠哉生活，\n我反而不知道該做些什麼才好啊！",
      "USen": "I'm the one who usually sends folks\noff on trips. I tell them to have a\ngood time and have fun...\nBut now that I'm here, I dunno what\nI want to do!",
      "USes": "Después de haber ayudado a tantos\nclientes a llegar aquí, ¡mírame!\n¡Con mi propia casa de vacaciones!\nEl problema es que ahora tengo\ntanto tiempo libre que no sé qué\nhacer con él.",
      "USfr": "D'habitude, c'est moi qui salue les\ngens qui partent en voyage. Je leur\ndis de bien profiter de leur séjour...\nMais maintenant que c'est à mon\ntour d'être en vacances, je me\ndemande comment en profiter!"
    }
  },
  {
    "label": "119_03",
    "attribute": "0x00000000",
    "locale": {
      "CNzh": "我大部分时间是坐着办公的，\n所以每次外出的时候，\n我都会尽量多活动一下腿部！",
      "EUde": "Ich arbeite meist im Sitzen,\ndeswegen versuche ich draußen\nimmer, meine Beine zu bewegen!",
      "EUen": "I usually sit when I'm at work, so\nwhenever I get into the outdoors,\nI try to move my legs!",
      "EUes": "En el trabajo me paso un montón de\nhoras tras el mostrador, ¡así que aquí\naprovecho para moverme y corretear!",
      "EUfr": "Ça ne te surprendra pas si je te\ndis que je bosse beaucoup assis...\nDu coup, quand je suis à l'extérieur,\nj'essaie de me dégourdir les pattes !",
      "EUit": "Al lavoro resto seduto a lungo, per\ncui quando esco cerco sempre di\nmuovermi il più possibile!",
      "EUnl": "Op mijn werk zit ik bijna de hele dag,\ndus als ik vrij ben, wil ik mijn benen\nwel even strekken!",
      "EUru": "Работа у меня сидячая, так что на\nвоздухе я стараюсь разминаться!",
      "JPja": "基本的に　座り仕事なんで\n外に出た時は　なるべく\n脚を　動かさないとね！",
      "KRko": "제 일은 앉아서 하는 업무가 대부분이라\n밖에 나왔을 때만큼은 되도록\n발을 움직이려고 합니다",
      "TWzh": "我平時幾乎都是坐著工作，\n所以有機會外出時，\n我都會盡可能多活動雙腳！",
      "USen": "I usually sit when I'm at work, so\nwhenever I get into the outdoors,\nI try to move my legs!",
      "USes": "En el trabajo paso muchas horas\ndetrás del mostrador, ¡así que aquí\naprovecho para moverme y aletear!",
      "USfr": "Ça ne te surprendra pas si je te\ndis que je travaille beaucoup assis...\nDu coup, quand je suis à l'extérieur,\nj'essaie de me dégourdir les pattes!"
    }
  },
  {
    "label": "119_04",
    "attribute": "0x00000000",
    "locale": {
      "CNzh": "我也好想体验一把乘风飞翔的感觉……\n好吧，我只是想想罢了，\n毕竟还是坐飞机比较轻松～！",
      "EUde": "Ich würde auch gern mit dem Wind\naufsteigen und fliegen können...\nNur um mal zu sehen, wie das so ist.\nFlugzeuge sind natürlich bequemer.\nUnd es gibt Snacks. Und der Wind\nweht einem nicht ins Gesicht.",
      "EUen": "I'd like to be lifted on the wind and\nfly...just to see what it's like.\nOf course, planes are more comfy,\nand there's snacks. Less wind\nin your face too.",
      "EUes": "Ojalá pudiese alzarme en el viento\ny volar a placer... solo por saber\nqué se siente.\nTambién es verdad que los aviones\nson más cómodos. Además, sirven\npicoteo... ¡y el viento no te ciega!",
      "EUfr": "J'aimerais bien voler par moi-même,\ntransporté par le vent... Juste pour\nvoir ce que ça fait..\nAlors bien sûr, les avions ne\nmanquent pas de confort, et puis il y\na les collations... Et moins de vent.",
      "EUit": "Quanto mi piacerebbe volare cullato\ndal vento... anche solo per capire\ncosa si prova.\nOvviamente gli aerei sono più comodi\ne gli snack sono ottimi. E nessun\ninsetto che ti si spalma in faccia!",
      "EUnl": "Ik zou ook wel door de bries willen\nworden meegevoerd en vliegen...\nGewoon om te voelen hoe dat is.\nEen vliegtuig reist wel comfortabeler\nnatuurlijk, en je krijgt er wat te eten\nbij. En minder wind om je toet.",
      "EUru": "Хотелось бы мне самому быть\nподхваченным ветром и взлететь...\nНу, из спортивного интереса.\nСамолеты-то, конечно, удобней.\nТам еду дают, да и ветер в лицо\nне дует.",
      "JPja": "わたしも風に乗って　飛んでみたい・・・\nなんて、思ってはみたものの\n飛行機の方が　楽ですよね～！",
      "KRko": "바람을 타고 직접 날아보고 싶다...\n그런 생각도 해봤지만\n아무래도 비행기가 더 편하겠죠～!",
      "TWzh": "我也好想體驗乘風飛行的感覺……\n不過想歸想，\n還是搭飛機要來得方便多了～！",
      "USen": "I'd like to be lifted on the wind and\nfly...just to see what it's like.\nOf course, planes are more comfy,\nand there's snacks. Less wind\nin your face too.",
      "USes": "Ojalá pudiera volar por los cielos\ny surcar el viento... Solo por saber\nqué se siente.\nPero es verdad que los aviones son\nmás cómodos. Y te sirven comida...\n¡y el viento no te abofetea la cara!",
      "USfr": "J'aimerais bien voler par moi-même,\ntransporté par le vent... Juste pour\nvoir ce que ça fait..\nAlors bien sûr, les avions ne\nmanquent pas de confort, et puis il y\na les collations... Et moins de vent."
    }
  },
  {
    "label": "124",
    "attribute": "0x00000000",
    "locale": {
      "CNzh": "这里也是个很不错的地方啊！",
      "EUde": "Dieser Ort ist auch toll!",
      "EUen": "This place is great!",
      "EUes": "¡Otra ubicación estupenda! Tienes\nun ojo excelente para encontrarlas.",
      "EUfr": "Cet endroit est charmant !",
      "EUit": "Anche questo posto è fantastico!",
      "EUnl": "Het is hier fantastisch!",
      "EUru": "Это отличное местечко!",
      "JPja": "ここも　なかなか　いい場所ですね！",
      "KRko": "여기도 참 좋은 곳이군요!",
      "TWzh": "這裡也是個好地方呢！",
      "USen": "This place is great!",
      "USes": "¡Otra ubicación estupenda! Tienes\nmuy buen ojo para encontrarlas.",
      "USfr": "Cet endroit est charmant!"
    }
  },
  {
    "label": "124_01",
    "attribute": "0x00000000",
    "locale": {
      "CNzh": "那么，别墅的装修\n也麻烦您来负责了！",
      "EUde": "Ich hoffe, du freust dich schon aufs\nUmgestalten. Das wird ein Start in\neine neue Ära!",
      "EUen": "I hope you're looking forward to\ncustomizing it as much as I am!\nFresh start, here I come!",
      "EUes": "¡Espero que tengas tantas ganas\ncomo yo de verlo redecorado!\nEstoy deseando vivir aquí.",
      "EUfr": "J'espère que tu as hâte de tout redécorer ! Quand on déménage,\nautant tourner la page !",
      "EUit": "Non vedi l'ora di dargli una bella\nsistemata, ho ragione? Evviva, volo\nverso una nuova alba!",
      "EUnl": "Ik hoop dat je je net zo op het\ninrichten verheugt als ik! Ik ben klaar\nvoor een frisse start!",
      "EUru": "Тоже не терпится обустроить здесь\nвсе? На пустой взлетной полосе\nначинаешь как с чистого листа!",
      "JPja": "心機一転、別荘のリフォームも\nドーゾ　よろしく！",
      "KRko": "새로운 마음으로 별장 리폼도\n잘 부탁드립니다!",
      "TWzh": "那麼接下來，別墅的裝修\n也要麻煩您囉！",
      "USen": "I hope you're looking forward to\ncustomizing it as much as I am!\nFresh start, here I come!",
      "USes": "¡Espero que tengas tantas ganas\ncomo yo de verlo redecorado!\nYa quiero vivir aquí.",
      "USfr": "J'espère que tu as hâte de tout\nredécorer! Quand on déménage,\nautant tourner la page!"
    }
  },
  {
    "label": "129_06",
    "attribute": "0x00000000",
    "locale": {
      "CNzh": "还好当初选择了建成2楼建筑！\n这样就能离天空更近一些了！",
      "EUde": "Du hattest recht mit einer zweiten\nEtage. Ein Dodo möchte dem Himmel\nimmer ein bisschen näher sein!",
      "EUen": "Yeah, you were right about the\nsecond floor. A dodo like me\nbelongs up in the air.",
      "EUes": "Sí, tenías toda la razón sobre lo de\nla segunda planta. Los dodos,\ncuanto más alto, mejor.",
      "EUfr": "C'était une bonne idée d'ajouter un\nétage. Un dodo qui se respecte se\ndoit de vivre en hauteur !",
      "EUit": "Avevi proprio ragione sul costruire\nun altro piano. Un dodo è pur sempre\nun volatile e deve stare in alto!",
      "EUnl": "Ja, je had gelijk over die extra\nverdieping. Dodo's zoals ik horen in\nde lucht thuis.",
      "EUru": "Да, ты был прав насчет второго\nэтажа. Птице додо место в воздухе.",
      "JPja": "2階建てにして　正解でしたねー！\nちょっとだけ　空に近づきましたよ！",
      "KRko": "이층집으로 하길 잘했네요－!\n조금 더 하늘에 가까워졌습니다!",
      "TWzh": "選擇蓋兩層樓果然沒錯呢！\n我又離天空稍微近一點了！",
      "USen": "Yeah, you were right about the\nsecond floor. A dodo like me\nbelongs up in the air.",
      "USes": "Sí, tenías toda la razón sobre\nel segundo piso. Los dodos,\ncuanto más alto, mejor.",
      "USfr": "C'était une bonne idée d'ajouter un\nétage. Un dodo qui se respecte se\ndoit de vivre en hauteur!"
    }
  },
  {
    "label": "129_07",
    "attribute": "0x00000000",
    "locale": {
      "CNzh": "那么接下来也麻烦您了！",
      "EUde": "Gut, dann bist du jetzt am Zug,\ndas hier wohnlich zu machen!",
      "EUen": "Alright, it's all up to you!",
      "EUes": "Bueno, ¡te dejo el timón!",
      "EUfr": "Allez, à toi de jouer !",
      "EUit": "Okappa, a te la cloche!",
      "EUnl": "Goed, ik laat het allemaal aan jou\nover!",
      "EUru": "Ну, теперь все в твоих руках!",
      "JPja": "それでは引き続き　ドーゾ！",
      "KRko": "그럼 계속해서 잘 부탁드립니다!",
      "TWzh": "那麼接下來也麻煩您了！",
      "USen": "Alright, it's all up to you!",
      "USes": "Bueno, ¡te dejo el timón!",
      "USfr": "Allez, alors à toi de jouer!"
    }
  },
  {
    "label": "148",
    "attribute": "0x00000000",
    "locale": {
      "CNzh": "收到！\n欢迎您再来！",
      "EUde": "Roger! Und komm bitte mal wieder!",
      "EUen": "Roger! And please come again!",
      "EUes": "¡Recibido! Pásate de nuevo\ncuando quieras.",
      "EUfr": "Okidoki ! Et n'hésite pas à revenir\nquand le cœur t'en dit !",
      "EUit": "Ricevuto! Torna presto, mi\nraccomando!",
      "EUnl": "Luid en duidelijk! En waai nog eens\naan!",
      "EUru": "Все понял! Приходи еще!",
      "JPja": "ラジャーです！\nまた来てくださいね！",
      "KRko": "알겠습니다!\n또 들러주세요!",
      "TWzh": "收到！\n之後還要再來喔！",
      "USen": "Roger! And please come again!",
      "USes": "¡Recibido! Pasa de nuevo cuando\nte plazca.",
      "USfr": "Okidoki! Et n'hésite pas à revenir\nquand le cœur t'en dit!"
    }
  }
]