﻿[
  {
    "label": "001",
    "attribute": "0x0000000000000000",
    "locale": {
      "CNzh": "",
      "EUde": "",
      "EUen": "",
      "EUes": "",
      "EUfr": "",
      "EUit": "",
      "EUnl": "",
      "EUru": "",
      "JPja": "",
      "KRko": "",
      "TWzh": "",
      "USen": "",
      "USes": "",
      "USfr": ""
    }
  },
  {
    "label": "001_01",
    "attribute": "0x0000000000000000",
    "locale": {
      "CNzh": "哎呀，！\n我们很久不见了……没错吧？\n难道你最近很忙吗？\n可不要太勉强自己哦。。",
      "EUde": "Meine Güte, (Spitzname)!\nLange nicht gesehen... nicht wahr?\nAch, (Floskel)...\nIch weiß ja selbst, wie viel man im\nLeben um die Ohren haben kann...\nDoch bei aller Betriebsamkeit muss\nman von Zeit zu Zeit auch an sich\nselbst und seine Bedürfnisse denken!",
      "EUen": "Oh my, (nickname)! It's been\na while...hasn't it?\nOh, I know how you are. You always\nkeep yourself so busy. Just be sure\nto take some YOU time, darling.",
      "EUes": "Caramba, (nickname), cómo pasan los días, ¿cuánto hace que no te veía?\nPero claro, es normal, tú nunca paras\nquieto. A saber dónde habrás estado\ny lo que habrás hecho por ahí.\nCuenta, cuenta...",
      "EUfr": "(surnom) ! Qu'est-ce que tu deviens ? Travail, travail, et encore travail, je me trompe ?\nC'est tout à ton honneur, mais\npense à mettre le nez dehors\nun peu plus souvent, mon chéri.",
      "EUit": "Oh, (nickname)! Quanto tempo... vero?\nLo so, ti conosco bene. Hai sempre\nmille impegni. Ma prenditi anche\nl'impegno di pensare alla salute!",
      "EUnl": "Gunst, (nickname)! Het is al even geleden dat ik je gesproken\nheb, nietwaar?\nOch ja, ik weet wel hoe het komt. Jij\nbent altijd druk bezig. Vergeet echter\nniet ook tijd voor jezelf te nemen.",
      "EUru": "О, это ты, (nickname)!\nДавно не виделись... правда?\nДа, я знаю, ты вечно занят. Не\nзабывай отдыхать.",
      "JPja": "あらっ、！\nなんだか久しぶり・・・　よね？\nもしかして、忙しかった？\nあんまり　無理しちゃダメよ、",
      "KRko": "어머, !\n왠지 오랜만...이지?\n혹시 많이 바빴어?\n너무 무리하면 안 돼～ ～",
      "TWzh": "哎呀，！\n感覺好久不見了……對吧？\n你前陣子該不會都在忙吧？\n不要太勉強自己了喔，。",
      "USen": "Oh my, (nickname)! It's been\na while...hasn't it?\nOh, I know how you are. You always\nkeep yourself so busy. Just be sure\nto take some YOU time, darling.",
      "USes": "Caramba, (nickname), cómo\npasan los días, ¿cuánto hace que no\nnos vemos?\nPero claro, es normal, tú nunca te\nquedas quieto. Quién sabe por dónde\nhabrás estado y lo que habrás hecho.\nCuéntame, cuéntame...",
      "USfr": "(surnom)! Qu'est-ce que tu deviens? Travail, travail, et encore travail, je me trompe?\nC'est tout à ton honneur, mais\npense à mettre le nez dehors\nun peu plus souvent, mon chéri."
    }
  },
  {
    "label": "001_02",
    "attribute": "0x0000000000000000",
    "locale": {
      "CNzh": "！\n好久不见！\n你有些日子没回家了吧？\n我还有点担心你呢……\n看到你这么精神，我也就放心了。。",
      "EUde": "(Spitzname)! Wo hast du dich denn nur herumgetrieben, mein Lieber?\nEin wenig war ich schon in Sorge ob\ndeiner Abwesenheit... Doch nun bist\ndu ja wohlauf zurückgekehrt. Prima!",
      "EUen": "(nickname)! You were away\nfor a spell, weren't you?\nI confess, I was getting a wee bit\nworried. But you seem fine as\nfrog's hair.",
      "EUes": "¡Hola, (nickname)! Has estado de viaje, ¿no? No se te ha visto el pelo por la isla...\nCasi empezaba a preocuparme,\nque a veces soy muy «madre»\npara estas cosas...\nMe alegra ver que estás bien, (catchphrase).",
      "EUfr": "(surnom) ! Je commençais à me demander où tu étais passé.\nMais je me suis inquiétée pour rien,\ncomme d'habitude. Tu as l'air de\nte porter comme un charme.",
      "EUit": "Ehi, (nickname)! Sei stato via così a lungo... Dov'eri finito?\nAmmetto che stavo iniziando a\npreoccuparmi. Ma vedo che stai\nbene, quindi mi sono tranquillizzata.",
      "EUnl": "(nickname)! Jij bent een tijdje afwezig geweest, is het niet?\nIk moet bekennen dat ik me zorgen\nbegon te maken. Gelukkig is er niets\naan de hand.",
      "EUru": "(nickname)! Давно тебя не\nбыло, да?\nПризнаюсь, я даже волноваться\nначала. Но вижу, что ты жив-\nздоров.",
      "JPja": "！\n久しぶりねぇ！\nしばらく　お家を留守にしてたでしょ？\nちょっと　心配してたのよね\n元気そうな顔を見て　安心したわ、",
      "KRko": "!\n오랜만이야!\n한동안 집 비웠었지?\n좀 걱정했었어～\n건강한 얼굴 보니까 안심되네, !",
      "TWzh": "！\n好久不見！\n你好像有一陣子不在家吧？\n我之前還有點擔心呢。\n但看你這麼有精神，我就放心了，。",
      "USen": "(nickname)! You were away\nfor a spell, weren't you?\nI confess, I was getting a wee bit\nworried. But you seem fine as\nfrog's hair.",
      "USes": "¡Hola, (nickname)! Has estado de viaje, ¿no? No se te vio el pelo por la isla...\nMe estaba empezando a preocupar.\nA veces soy muy \"madre\" para estas cosas...\nMe alegra ver que estás bien, (catchphrase).",
      "USfr": "(surnom)! Je commençais à me demander où tu étais passé.\nMais je me suis inquiétée pour rien,\ncomme d'habitude. Tu as l'air de\nte porter comme un charme."
    }
  },
  {
    "label": "001_03",
    "attribute": "0x0000000000000000",
    "locale": {
      "CNzh": "哎呀，！\n有些时间没见到你了吧？！\n这座还是老样子哦。\n你不如去散散步，在岛上转转吧？。",
      "EUde": "Nanu! Wenn das mal nicht unser\n(Spitzname) ist! Hach, wie hat uns dein sonniges Gemüt gefehlt!\nNun, auf  ist alles beim Alten, aber mach dir am besten höchstselbst ein Bild von der Lage!",
      "EUen": "Well! If it isn't (nickname)!\nI haven't seen your smiling face for\nsome time now.\nWell,  is still here,\nand not much has changed. Take a\nlook around and you'll see.",
      "EUes": "¡(nickname)! Sabía que no te habías mudado.\nEra el rumor que se extendió.\nComo nadie te veía el pelo...\n(Es posible que lo extendiera yo...)\nPero soy muy observadora y,\nmirando a través de la ventana,\nvi que tus cosas seguían en tu casa.\n¿Cotilla yo? Solo me preocupaba\npor ti. Me alegra ver que estás bien.",
      "EUfr": "(surnom) ! Depuis le temps ! Tu t'es souvenu que tu habitais à  ?\nAh, ce qu'il m'a manqué, ce petit\nsourire espiègle...",
      "EUit": "Oh, cielo... (nickname)!\nNon vedevo il tuo sorriso smagliante\nda tanto tempo.\nBeh,  è ancora qui\ne non è cambiata molto. Dai\nun'occhiata in giro per accertartene.",
      "EUnl": "Nee maar! (nickname)! Ik heb jouw vriendelijke voorkomen de laatste tijd moeten missen.\n ligt nog altijd waar je het achterliet. Je zult zien dat er nauwelijks iets is veranderd.",
      "EUru": "Батюшки, это же (nickname)!\nДавно не видела тебя и твою\nлучезарную улыбку.\nА у нас здесь на острове\n все по-старому.\nПройдись, и сам в этом убедишься.",
      "JPja": "あら、\nしばらくぶりじゃない？！\nは　相変わらずよ\nお散歩がてら、見て回ってきたら？　",
      "KRko": "어머나, ～\n꽤 오랜만 아니니?!\n은 변함없어～\n산책 겸 한번 돌아보지 그러니? ?",
      "TWzh": "哎呀，，\n我們是不是一段時間沒見啦！？\n還是和以前一樣喔，\n你去散步時就順便到處看看吧，。",
      "USen": "Well! If it isn't (nickname)!\nI haven't seen your smiling face for\nsome time now.\nWell,  is still here,\nand not much has changed. Take a\nlook around and you'll see.",
      "USes": "¡(nickname)! Sabía que no te habías mudado.\nEra el rumor que se contaba por ahí.\nComo nadie te veía el pelo...\n(En realidad lo contaba yo...).\nPero soy muy observadora y,\nmirando a través de la ventana,\nvi que tus cosas seguían en tu casa.\n¿Chismosa yo? Solo me preocupaba\npor ti. Me alegra ver que estás bien.",
      "USfr": "(surnom)! Depuis le temps! Tu t'es souvenu que tu habitais à ?\nAh, ce qu'il m'a manqué, ce petit\nsourire espiègle..."
    }
  },
  {
    "label": "002",
    "attribute": "0x0000000000000000",
    "locale": {
      "CNzh": "",
      "EUde": "",
      "EUen": "",
      "EUes": "",
      "EUfr": "",
      "EUit": "",
      "EUnl": "",
      "EUru": "",
      "JPja": "",
      "KRko": "",
      "TWzh": "",
      "USen": "",
      "USes": "",
      "USfr": ""
    }
  },
  {
    "label": "002_01",
    "attribute": "0x0000000000000000",
    "locale": {
      "CNzh": "哎呀，！\n好像有点时间没见了吧？！\n作息时间一旦错开，\n连聊天的机会\n都好难找到啊！。",
      "EUde": "Hach, (Spitzname)...\nWie schön, dass du mich wieder mit\ndeiner Aufmerksamkeit würdigst!\nFast fürchtete ich, du gingest mir aus\ndem Weg, doch augenscheinlich liegt\nzwischen uns doch keine Kluft!",
      "EUen": "Well, well, (nickname).\nLong time no chat. We ARE on\nspeaking terms, aren't we?\nI feared something was amiss\nbetween us, but I'm pleased to see\nI was wrong. It's good to talk again.",
      "EUes": "Ah, (nickname), me alegra ver que todavía me diriges la palabra.\nHacía tanto que no hablábamos que\nempezaba a tener mis dudas... Me\ncongratula ver que eran infundadas.",
      "EUfr": "(surnom). Contente de te revoir. Peut-être que tu ne m'évites pas, finalement ?\nMe voilà soulagée. Je craignais que\ntu n'aies eu vent de quelque ru...\nMais je parle, je parle. Tirons un\ntrait là-dessus, veux-tu ?",
      "EUit": "Chi si rivede, (nickname)!\nMi sono mancate le nostre\nchiacchierate! O forse tu le evitavi?\nHo temuto fosse successo qualcosa\ndi spiacevole fra di noi, ma mi sono\nsbagliata. Per fortuna sei tornato!",
      "EUnl": "Zo zo, (nickname). Jou heb ik al even niet gesproken. Je mijdt me toch niet, mag ik hopen?\nIk vreesde dat er iets mis was met\nonze verstandhouding, maar gelukkig\nis alles goed. Fijn je weer te spreken!",
      "EUru": "Ну здравствуй, (nickname).\nДавно не разговаривала с тобой.\nТы же на меня не обижаешься?\nЯ уж думала, что произошло какое-\nто недоразумение, но хорошо, что\nя ошибалась. Рада тебя видеть.",
      "JPja": "あら、\nちょっと　久しぶりじゃない？！\nタイミングが合わないと\n話す機会も　こんなに\n減っちゃうものなのね～、",
      "KRko": "어머, ?\n오랜만에 본 거 아니니?!\n타이밍이 안 맞으면\n이야기를 나눌 기회도\n이렇게 줄어드는 법이라니까～ ～",
      "TWzh": "哎呀，，\n我們是不是有點久沒見了呀！？\n如果時間對不上，\n像這樣和你聊天的機會\n也會變少呢～。",
      "USen": "Well, well, (nickname).\nLong time no chat. We ARE on\nspeaking terms, aren't we?\nI feared something was amiss\nbetween us, but I'm pleased to see\nI was wrong. It's good to talk again.",
      "USes": "Ah, (nickname), me alegra ver que todavía me diriges la palabra.\nHacía tanto que no hablábamos que\nya tenía mis dudas... Me alegra\nsaber que no es el caso.",
      "USfr": "(surnom). Contente de te revoir. Peut-être que tu ne m'évites pas, finalement?\nMe voilà soulagée. Je craignais que\ntu n'aies eu vent de quelque ru...\nMais je parle, je parle. Tirons un\ntrait là-dessus, veux-tu?"
    }
  },
  {
    "label": "002_02",
    "attribute": "0x0000000000000000",
    "locale": {
      "CNzh": "！\n呵呵，好像已经很久没有机会\n和你这样聊聊天了。\n你现在应该也挺忙的，\n我很高兴你能来找我哦。。",
      "EUde": "Oh, (Spitzname), da bist du ja!\nIch habe unsere kleinen Pläusche\nüberaus vermisst!\nDich anzusprechen stand jedoch\naußer Frage, schließlich hast du ja\noffensichtlich so viel um die Ohren...",
      "EUen": "Oh, (nickname)!\nThere you are! We haven't\nchatted in forever, darling!\nYou always look so busy running\naround, I appreciate you stopping\nto say hello.",
      "EUes": "Ay, (nickname), ¡no sabes la de cotilleos jugosos que te has perdido estos días!\nTenemos que hablar más a menudo.\nAhora ya es tarde para contártelos:\nestán todos desmentidos.",
      "EUfr": "(surnom) ! On ne se voit plus, mon chéri !\nJe ne sais même pas à quand\nremonte notre dernière discussion.\nC'est un peu de ma faute aussi,\ntu avais l'air si occupé que je\nne voulais pas déranger.",
      "EUit": "Oh, (nickname)! Rieccoti! Finalmente potremo riprendere le\nnostre chiacchierate!\nSei sempre di corsa di qua e di là,\napprezzo il fatto che ti sia fermato\nun pochino a salutarmi.",
      "EUnl": "O, (nickname)! Daar ben je! We hebben elkaar al in geen tijden gesproken!\nJe rent altijd zo druk van hot naar\nher. Ik stel het op prijs dat je even\nde tijd neemt om gedag te zeggen.",
      "EUru": "Ах, (nickname)! Вот и ты!\nСто лет тебя не видела, дорогуша!\nТы всегда так занят! Я рада, что\nты зашел.",
      "JPja": "！\nふふっ、こうやってお話しするの、\n久しぶりよね\nアナタも　なにかと忙しそうな中、\n話しかけてくれて　嬉しいわ、",
      "KRko": "!\n후훗, 이렇게 둘이서 얘기하는 건\n오랜만이네～\n당신도 늘 바빠 보이던데\n그래도 말 걸어줘서 기뻐, ～",
      "TWzh": "！\n呵呵，我們已經有好久\n沒像這樣聊天了呢。\n你這麼忙還願意抽空來找我說說話，\n我真的好高興喔，。",
      "USen": "Oh, (nickname)!\nThere you are! We haven't\nchatted in forever, darling!\nYou always look so busy running\naround, I appreciate you stopping\nto say hello.",
      "USes": "Ay, (nickname), ¡no sabes los chismes jugosos que te perdiste en estos días!\nTenemos que hablar más seguido.\nAhora ya es tarde para contártelos:\nestán todos desmentidos.",
      "USfr": "(surnom)! On ne se voit plus, mon chéri!\nJe ne sais même pas à quand\nremonte notre dernière discussion.\nC'est un peu de ma faute aussi,\ntu avais l'air si occupé que je\nne voulais pas déranger."
    }
  },
  {
    "label": "002_03",
    "attribute": "0x0000000000000000",
    "locale": {
      "CNzh": "哎呀，好久不见！\n虽然遇见过你好几次，\n但没什么要事，也不好意思特意搭话。\n不过你完全不用对我那么拘谨，就算没事\n也可以随时来找我聊天哦？。",
      "EUde": "Ich grüße dich, (Spitzname),\nder du mir unverzagt die kalte\nSchulter zeigst...\nWie anders sollte ich dein Verhalten\ninterpretieren? Stets unterwegs,\nnicht einen Blick in meine Richtung...\nDabei solltest du doch wissen, welch\nFreude es mir bereitet, gelegentlich\nmit dir zu plaudern, (Floskel)...",
      "EUen": "Well, hello. I take it you're done\ngiving me the silent treatment?\nWhat was I supposed to think, my\ndear? I see you running about the\nisland...and not a word of hello.\nYou know, it's OK to drop by and\nsay hi without any particular reason.\nI'm always happy to chat with you.",
      "EUes": "Ah, ¿por fin vas a dejar de hacerme\nel vacío, (nickname)?\nSí, no disimules, te he visto\ncorreteando por la isla sin\ndirigirme la palabra...\nNo pasa nada, me alegra que hayas\ndejado de ignorarme, .",
      "EUfr": "Hello toi. On se souvient que\nj'existe ?\nJ'avais vraiment l'impression d'être\ntransparente, ces derniers jours...\nPas un mot, pas un bonjour.\nOn repart sur de bonnes bases,\nmon chéri ? Ça me fait toujours\nplaisir de discuter avec toi.",
      "EUit": "Ciao, potrei sapere perché non mi\nhai rivolto più la parola per tanto\ntempo?\nCosa devo pensare di te? Ti vedo\nandare in giro per l'isola... e, se mi\nincroci, non mi saluti neanche.\nÈ educato salutare qualcuno anche\nsenza avere qualcosa da dire. E io\nsono sempre felice di parlare con te.",
      "EUnl": "Aha, kijk eens aan. Blijkbaar negeer\nje me niet langer?\nWelnu, wat moest ik anders denken,\nlieve schat? Je rent hier maar rond,\nzonder iets tegen me te zeggen.\nJe moet toch weten dat je geen\nreden nodig hebt om met mij te\nkomen praten? Ik spreek je graag.",
      "EUru": "Ну здравствуй. Ты снова со мной\nразговариваешь?\nА что мне еще оставалось думать?\nХодишь по всему острову...\nи никогда не здороваешься.\nЗнаешь, иногда можно и безо\nвсякой причины зайти в гости.\nЯ всегда рада с тобой поболтать.",
      "JPja": "まあ、お久しぶり！\n何度か　見かけた気も　するんだけど、\n用がないと　意外と話さないものね\nアタシの方は　とくに用事がなくても　気軽に\n話しかけてくれていいのよ？　",
      "KRko": "어머나, 오랜만이야!\n몇 번인가 본 듯한 느낌도 들지만\n볼일이 없으면 의외로 대화가 잘 안 되지～\n나한테는 아무 일 없어도\n그냥 편하게 말 걸어도 돼～ !",
      "TWzh": "哎呀，好久不見！\n雖然好像曾經看到你好幾次，\n但如果不是有事找你，意外地說不上話呢。\n其實就算沒什麼特別的事，\n你也可以來找我聊聊天喔，。",
      "USen": "Well, hello. I take it you're done\ngiving me the silent treatment?\nWhat was I supposed to think, my\ndear? I see you running about the\nisland...and not a word of hello.\nYou know, it's OK to drop by and\nsay hi without any particular reason.\nI'm always happy to chat with you.",
      "USes": "Ah, ¿por fin vas a dejar de evadirme, (nickname)?\nSí, no disimules, te vi correteando\npor la isla sin dirigirme la palabra...\nNo pasa nada, me alegra que hayas\ndejado de ignorarme, .",
      "USfr": "Allo toi. On se souvient que\nj'existe?\nJ'avais vraiment l'impression d'être\ntransparente, ces derniers jours...\nPas un mot, pas un bonjour.\nOn repart sur de bonnes bases,\nmon chéri? Ça me fait toujours\nplaisir de discuter avec toi."
    }
  }
]