﻿[
  {
    "label": "001",
    "attribute": "0x0000020000000000",
    "locale": {
      "CNzh": "不好意思，你有没有看到\n我的袋子？\n好像是把它落在哪儿了……。",
      "EUde": "Erinnerst du dich an meinen\nLieblingsbeutel?\nVon dem Designer, dessen Name nur\naus Emojis und Hashtags besteht?\nNein? Egal.\nWorauf ich hinauswill... Ich habe\nihn irgendwo verloren!",
      "EUen": "Do you remember my favorite purse?\nIt's by that designer whose name\nI can't pronounce...\nNever mind. The important thing\nis, I can't find it anywhere.",
      "EUes": "¿Te he enseñado alguna vez\nmi bolso favorito?\nEs de ese diseñador impronunciable.\nEl nombre son todo emoticonos...\nEl caso es que se me ha perdido.",
      "EUfr": "Dis, tu n'aurais pas vu mon sac,\npar hasard ? Je l'ai laissé quelque\npart, mais je ne sais plus où...",
      "EUit": "Hai presente il mio sacchetto\npreferito? È di quel designer molto\nin voga, dal nome impronunciabile...\nNon importa se non te lo ricordi.\nQuello che conta è che non riesco\na trovarlo da nessuna parte.",
      "EUnl": "Herinner je je mijn favoriete tas nog?\nHij is van die ontwerper met die\nschier onuitspreekbare naam...\nNu ja, dat doet er nu niet toe. Waar\nhet om gaat, is dat ik die tas\nplotseling nergens meer kan vinden!",
      "EUru": "Помнишь мою любимую сумочку?\nНикак не могу выговорить\nимя ее дизайнера...\nНеважно. В общем, я нигде не\nмогу ее найти.",
      "JPja": "ねぇ、アタシの　ポーチ\nご存知ないかしら？\nどこかで　失くしたみたいなのよ、",
      "KRko": "있지, 내 파우치\n혹시 못 봤니?\n어디선가 잃어버린 모양이야, ～",
      "TWzh": "我問你喔，\n你有沒有看到我的束口袋呀？\n大概是掉在什麼地方了……。",
      "USen": "Do you remember my favorite purse?\nIt's by that designer whose name\nI can't pronounce...\nNever mind. The important thing\nis, I can't find it anywhere.",
      "USes": "¿Alguna vez te mostré mi bolsa\nfavorita?\nEs de ese diseñador impronunciable.\nEl nombre son todo emoticonos...\nEl asunto es que se me perdió.",
      "USfr": "Dis, tu n'aurais pas vu mon sac,\npar hasard? Je l'ai laissé quelque\npart, mais je ne sais plus où..."
    }
  },
  {
    "label": "001_a",
    "attribute": "0x0000000000000000",
    "locale": {
      "CNzh": "我来帮你找吧",
      "EUde": "Soll ich suchen?",
      "EUen": "Should I help search?",
      "EUes": "¿Te ayudo a buscarlo?",
      "EUfr": "Je vais le retrouver !",
      "EUit": "Ti aiuto a cercarlo?",
      "EUnl": "Zal ik je helpen zoeken?",
      "EUru": "Помочь тебе искать?",
      "JPja": "探してあげるよ",
      "KRko": "내가 찾아줄게",
      "TWzh": "我來幫你找吧",
      "USen": "Should I help search?",
      "USes": "¿Te ayudo a buscarla?",
      "USfr": "Je vais le retrouver!"
    }
  },
  {
    "label": "001_b",
    "attribute": "0x0000000000000000",
    "locale": {
      "CNzh": "打起精神来",
      "EUde": "Kopf hoch!",
      "EUen": "Aww, cheer up.",
      "EUes": "Bah, anímate, mujer...",
      "EUfr": "Du calme.",
      "EUit": "Oh, che peccato.",
      "EUnl": "Kom, er zijn ergere dingen.",
      "EUru": "Не расстраивайся.",
      "JPja": "元気出してね",
      "KRko": "기운 내～",
      "TWzh": "打起精神來喔",
      "USen": "Aww, cheer up.",
      "USes": "Bueno, arriba el ánimo...",
      "USfr": "Du calme."
    }
  },
  {
    "label": "002",
    "attribute": "0x0000020000000000",
    "locale": {
      "CNzh": "我有个很重要的袋子，\n之前不小心遗失了。\n直到现在我还在寻找它……。",
      "EUde": "Ich weiß nicht mehr weiter,\n(Spitzname)...\nMein Lieblingsbeutel ist weg!",
      "EUen": "I'm afraid I'm at my wit's end,\n(nickname). I can't find my\nfavorite purse anywhere!",
      "EUes": "He perdido un bolsito con una cosa\nmuy valiosa dentro y ya no sé dónde\nmás buscar...",
      "EUfr": "Je n'arrive pas à y croire,\n(surnom)...\nJ'ai perdu mon sac !",
      "EUit": "Non so più che altro fare, dove altro cercare, (nickname). Il mio sacchetto preferito è sparito!",
      "EUnl": "Ik ben werkelijk ten einde raad, (nickname). Ik heb geen idee waar mijn favoriete tas is gebleven!",
      "EUru": "(nickname), душечка,\nнеужели я совсем выжила из ума?\nНе могу найти любимую сумку!",
      "JPja": "アタシの大事な　ポーチが\nこの前から　行方不明なのよ\nずっと　探してるんだけど・・・、",
      "KRko": "내 소중한 파우치가\n얼마 전부터 행방불명 상태야～\n계속 찾아보고는 있는데, ...",
      "TWzh": "我重要的束口袋，\n從前陣子就不知去向了呢……\n雖然我一直很努力在找……。",
      "USen": "I'm afraid I'm at my wit's end,\n(nickname). I can't find my\nfavorite purse anywhere!",
      "USes": "Perdí una bolsa que tiene algo muy\nvalioso adentro y ya no sé por dónde\nmás buscar...",
      "USfr": "Je n'arrive pas à y croire,\n(surnom)...\nJ'ai perdu mon sac!"
    }
  },
  {
    "label": "002_a",
    "attribute": "0x0000000000000000",
    "locale": {
      "CNzh": "我帮你找吧",
      "EUde": "Ich suche ihn!",
      "EUen": "I'll help you look for it.",
      "EUes": "¡Yo te lo busco!",
      "EUfr": "Je vais le retrouver !",
      "EUit": "Ti aiuto a cercarlo.",
      "EUnl": "Ik help je wel zoeken.",
      "EUru": "Я поищу.",
      "JPja": "探すの手伝うよ",
      "KRko": "찾는 거 도와줄게",
      "TWzh": "我幫你找吧",
      "USen": "I'll help you look for it.",
      "USes": "¡Yo te la busco!",
      "USfr": "Je vais le retrouver!"
    }
  },
  {
    "label": "002_b",
    "attribute": "0x0000000000000000",
    "locale": {
      "CNzh": "那真可惜",
      "EUde": "Schlimm, schlimm...",
      "EUen": "You poor thing.",
      "EUes": "Pobrecita...",
      "EUfr": "Je compatis.",
      "EUit": "Mi dispiace...",
      "EUnl": "Ach, dat is vervelend.",
      "EUru": "Бедняжка!",
      "JPja": "残念だね",
      "KRko": "안타까워라",
      "TWzh": "真可惜呢",
      "USen": "You poor thing.",
      "USes": "Uy, pobrecita...",
      "USfr": "Je compatis."
    }
  },
  {
    "label": "003",
    "attribute": "0x0000020000000000",
    "locale": {
      "CNzh": "我把自己喜欢的袋子\n落在上的某个地方了，\n今天心情很忧伤……。",
      "EUde": "Oh, (Spitzname)... Es ist eine Tragödie! Ich habe irgendwo hier meinen Lieblingsbeutel verloren.",
      "EUen": "Oh, (nickname)...it's just \nawful. I dropped my very favorite\nbag somewhere on the island.",
      "EUes": "Ay, (nickname), qué drama.\nTengo una bolsa con cosas valiosas\ny no la encuentro, ¡la he perdido!",
      "EUfr": "Oh, (surnom)... c'est une tragédie ! J'ai perdu mon sac !",
      "EUit": "Buaaah! È successa una tragedia, (nickname)... Non trovo più il mio sacchetto preferito!\nDevo averlo lasciato per sbaglio da\nqualche parte sull'isola.",
      "EUnl": "Och, (nickname)... het is een ware tragedie. Ik ben mijn favoriete tas ergens op het eiland verloren!",
      "EUru": "(nickname), это просто\nужасно... Я где-то потеряла свою\nлюбимую сумочку!",
      "JPja": "実はアタシ、お気に入りのポーチを\nのどこかに　落としちゃって、\n今日は　とってもブルーなの・・・、",
      "KRko": "실은 내가 좋아하는 파우치를\n 어딘가에 떨어뜨린 모양이라\n오늘은 정말 우울해... ...",
      "TWzh": "其實我最喜歡的束口袋，\n不曉得掉在島上的哪裡了……\n所以我今天特別憂鬱呢……。",
      "USen": "Oh, (nickname)...it's just \nawful. I dropped my very favorite\nbag somewhere on the island.",
      "USes": "Ay, (nickname), qué drama.\nTengo una bolsa con cosas valiosas\ny no la encuentro, ¡creo que la perdí!",
      "USfr": "Oh, (surnom)... c'est une tragédie! J'ai perdu mon sac!"
    }
  },
  {
    "label": "003_a",
    "attribute": "0x0000000000000000",
    "locale": {
      "CNzh": "我来帮你找吧",
      "EUde": "Ich finde ihn für dich!",
      "EUen": "I'll go look for it.",
      "EUes": "¡Yo te la busco!",
      "EUfr": "Je vais le retrouver !",
      "EUit": "Andrò a cercarlo.",
      "EUnl": "Ik ga wel voor je zoeken.",
      "EUru": "Я поищу.",
      "JPja": "探してあげるよ",
      "KRko": "찾아줄게!",
      "TWzh": "我來幫你找吧",
      "USen": "I'll go look for it.",
      "USes": "¡Yo te la busco!",
      "USfr": "Je vais le retrouver!"
    }
  },
  {
    "label": "003_b",
    "attribute": "0x0000000000000000",
    "locale": {
      "CNzh": "这就麻烦啦",
      "EUde": "Das ist bitter...",
      "EUen": "I'm sorry to hear that.",
      "EUes": "Qué mala pata...",
      "EUfr": "C'est pas de chance.",
      "EUit": "Mi dispiace per te.",
      "EUnl": "Wat vervelend voor je.",
      "EUru": "Мне очень жаль.",
      "JPja": "困ったね",
      "KRko": "그거 큰일이네",
      "TWzh": "真傷腦筋耶",
      "USen": "I'm sorry to hear that.",
      "USes": "Qué mala pata...",
      "USfr": "C'est pas de chance."
    }
  },
  {
    "label": "004",
    "attribute": "0x0000020000000000",
    "locale": {
      "CNzh": "我可真是的，\n好像把自己常用的化妆袋\n丢在什么地方了……。",
      "EUde": "Oh, weh mir! Ich habe meinen\ngeliebten Kosmetikbeutel verloren...",
      "EUen": "Oh my! Oh dear! I think I dropped one of my most beloved makeup\nbags somewhere on the island...",
      "EUes": "¿Sabes lo que me trae loca?\n¡Mi querida bolsa de maquillaje!\nNo la encuentro por ninguna parte...",
      "EUfr": "Ohhh... zut alors... Je crois que j'ai\nlaissé mon sac quelque part dehors,\nmais je ne sais plus où...",
      "EUit": "Oh no! E ora come faccio?! Credo di\naver perso uno dei miei sacchetti\npreferiti qui sull'isola...",
      "EUnl": "Hemeltje! Nee! Ik vrees dat ik een\nvan mijn favoriete make-uptassen\nergens op het eiland ben verloren...",
      "EUru": "О, ужас! Душечка! Я где-то\nпотеряла свою любимую\nкосметичку...",
      "JPja": "アタシったら\n愛用のメイクポーチを　どこかで\n落としちゃった　みたいなの・・・、",
      "KRko": "내 정신 좀 봐...\n애용하던 화장품 파우치를\n어디에 떨어뜨리고 왔나 봐, ...",
      "TWzh": "我也真是的，\n好像不小心把常用的化妝包\n掉在什麼地方了……。",
      "USen": "Oh my! Oh dear! I think I dropped one of my most beloved makeup\nbags somewhere on the island...",
      "USes": "¿Sabes lo que me tiene loca?\n¡Que perdí mi querida bolsa!\nNo la encuentro por ninguna parte...",
      "USfr": "Ohhh... zut alors... Je crois que j'ai\nlaissé mon sac quelque part dehors,\nmais je ne sais plus où..."
    }
  },
  {
    "label": "004_a",
    "attribute": "0x0000000000000000",
    "locale": {
      "CNzh": "我来帮你找吧",
      "EUde": "Ich suche ihn!",
      "EUen": "I'll find it for you.",
      "EUes": "¡Voy a buscar yo!",
      "EUfr": "Je vais le retrouver !",
      "EUit": "Te lo trovo io.",
      "EUnl": "Ik vind hem wel voor je.",
      "EUru": "Я ее найду.",
      "JPja": "見つけてあげるよ",
      "KRko": "같이 찾아줄게",
      "TWzh": "我會替你找到的",
      "USen": "I'll find it for you.",
      "USes": "¡Yo te ayudo a buscar!",
      "USfr": "Je vais le retrouver!"
    }
  },
  {
    "label": "004_b",
    "attribute": "0x0000000000000000",
    "locale": {
      "CNzh": "这样啊～",
      "EUde": "So ein Pech...",
      "EUen": "I'm sorry to hear that.",
      "EUes": "Ay, ¡lo siento!",
      "EUfr": "Oh non !",
      "EUit": "Che gran peccato...",
      "EUnl": "Wat vervelend voor je.",
      "EUru": "Мне очень жаль.",
      "JPja": "ふ～ん",
      "KRko": "속상하겠다…",
      "TWzh": "哦～",
      "USen": "I'm sorry to hear that.",
      "USes": "Ay, ¡lo siento!",
      "USfr": "Oh non!"
    }
  },
  {
    "label": "006",
    "attribute": "0x0000020000000000",
    "locale": {
      "CNzh": "我好像是把\n刚买的小说\n不小心掉在某个地方了……。",
      "EUde": "Eine Katastrophe! Ich habe meinen\nGERADE erst erworbenen Roman\nverloren und kann ihn nicht finden!",
      "EUen": "This is just awful. I've gone and lost\nthe novel that I JUST bought!",
      "EUes": "Qué desastre. He perdido un libro\njusto cuando acababa de empezar\na leerlo...",
      "EUfr": "C'est une catastrophe ! Je ne\nretrouve plus le roman que je\ndévorais !",
      "EUit": "Che disastro! Ho perso il libro che\navevo appena comprato!",
      "EUnl": "Wat een catastrofe! Ik had net een\nboek gekocht en nu heb ik het\nzomaar ergens laten liggen!",
      "EUru": "Это просто ужасно... Я потеряла\nкнигу, которую только что купила!",
      "JPja": "実はアタシ\n買ったばかりの小説を　どこかで\n落としちゃった　みたいなの、",
      "KRko": "사실은 나 있지...\n산 지 얼마 안 된 소설책을\n어디선가 잃어버린 것 같아, ",
      "TWzh": "其實我好像不小心把剛買的小說\n掉在什麼地方了……。",
      "USen": "This is just awful. I've gone and lost\nthe novel that I JUST bought!",
      "USes": "Qué desastre. Perdí mi novela justo\ncuando recién empezaba a leerla...",
      "USfr": "C'est une catastrophe! Je ne\nretrouve plus le roman que je\ndévorais!"
    }
  },
  {
    "label": "006_a",
    "attribute": "0x0000000000000000",
    "locale": {
      "CNzh": "我来帮你找吧",
      "EUde": "Soll ich mal suchen?",
      "EUen": "Want me to look?",
      "EUes": "¿Quieres que busque?",
      "EUfr": "Je vais le retrouver !",
      "EUit": "Vuoi che lo cerchi io?",
      "EUnl": "Wil je dat ik ga zoeken?",
      "EUru": "Мне поискать?",
      "JPja": "探してあげるよ",
      "KRko": "한번 찾아볼게",
      "TWzh": "我來幫你找吧",
      "USen": "Want me to look?",
      "USes": "¿Quieres que busque?",
      "USfr": "Je vais le retrouver!"
    }
  },
  {
    "label": "006_b",
    "attribute": "0x0000000000000000",
    "locale": {
      "CNzh": "怎么会这样",
      "EUde": "Oh nein!",
      "EUen": "Really? Oh no!",
      "EUes": "¡Qué mala suerte!",
      "EUfr": "C'est terrible !",
      "EUit": "Davvero? Oh, no!",
      "EUnl": "Echt waar? Wat vervelend.",
      "EUru": "Правда? Вот беда.",
      "JPja": "そうなんだ",
      "KRko": "헉, 어떡해",
      "TWzh": "這樣啊",
      "USen": "Really? Oh no!",
      "USes": "¡Qué mala suerte!",
      "USfr": "C'est terrible!"
    }
  },
  {
    "label": "007",
    "attribute": "0x0000020000000000",
    "locale": {
      "CNzh": "我好像把那本小说\n忘在某个地方了，\n还没读完呢……。",
      "EUde": "Normalerweise achte ich auf meine\nSachen, aber jetzt habe ich meinen\nneu gekauften Roman verloren...",
      "EUen": "Oh bother! I've gone and left the new\nnovel I was reading...somewhere.\nI'm just dying to finish it too.",
      "EUes": "Estoy tonta. Estaba disfrutando tanto\nde un libro que pospuse leer el final,\n¡y ahora resulta que no lo encuentro!",
      "EUfr": "Moi qui suis d'ordinaire si\nprécautionneuse...\nJe n'arrive pas à croire que\nj'ai perdu le roman que je suis\nen train de lire !",
      "EUit": "Oh, no! Ho lasciato da qualche parte\nil libro che stavo leggendo...\nE dire che non vedevo l'ora di finirlo!",
      "EUnl": "Nee toch! Ik was in een nieuw boek\nbezig, maar ben het ergens vergeten.\nNu weet ik niet hoe het afloopt...",
      "EUru": "Беда! Я где-то потеряла книгу,\nкоторую только что читала...\nЯ же не знаю, чем все кончилось...",
      "JPja": "どこかに　小説を\n置き忘れちゃったみたいなの\nまだ　読み終わってないのに・・・、",
      "KRko": "어디다 소설책을\n두고 온 모양이야～\n아직 다 읽지도 못했는데... ...",
      "TWzh": "我好像不小心\n把我的小說忘在哪裡了……\n明明都還沒看完呢……。",
      "USen": "Oh bother! I've gone and left the new\nnovel I was reading...somewhere.\nI'm just dying to finish it too.",
      "USes": "Caramba. Estaba disfrutando tanto\nde mi novela que retrasé leer el final,\n¡y ahora resulta que no la encuentro!",
      "USfr": "Moi qui suis d'ordinaire si\nprécautionneuse...\nJe n'arrive pas à croire que\nj'ai perdu le roman que je suis\nen train de lire!"
    }
  },
  {
    "label": "007_a",
    "attribute": "0x0000000000000000",
    "locale": {
      "CNzh": "我帮你找吧",
      "EUde": "Den finden wir schon!",
      "EUen": "I'll help you look.",
      "EUes": "¡Ah, yo te lo busco!",
      "EUfr": "Je vais le retrouver !",
      "EUit": "Ti aiuto io a cercarlo.",
      "EUnl": "Ik help wel met zoeken.",
      "EUru": "Я тебе помогу найти.",
      "JPja": "探すの手伝うよ",
      "KRko": "내가 도와줄게",
      "TWzh": "我幫你找吧",
      "USen": "I'll help you look.",
      "USes": "¡Ah, yo te la busco!",
      "USfr": "Je vais le retrouver!"
    }
  },
  {
    "label": "007_b",
    "attribute": "0x0000000000000000",
    "locale": {
      "CNzh": "那真可惜",
      "EUde": "Das tut mir leid...",
      "EUen": "Aww, I'm sorry.",
      "EUes": "Pues sí es un drama...",
      "EUfr": "Aïe, c'est dur.",
      "EUit": "Mi dispiace tanto.",
      "EUnl": "Hè, dat is jammer.",
      "EUru": "Сожалею.",
      "JPja": "残念だね",
      "KRko": "안타깝네",
      "TWzh": "真可惜呢",
      "USen": "Aww, I'm sorry.",
      "USes": "Pues sí es un drama...",
      "USfr": "Aïe, c'est dommage."
    }
  },
  {
    "label": "008",
    "attribute": "0x0000020000000000",
    "locale": {
      "CNzh": "我的行事历……\n究竟是掉在哪儿了呢？\n虽然四处找过了，可就是找不着。。",
      "EUde": "Wo kann mein Wochenplaner nur\nabgeblieben sein? Ich vermisse ihn\nschon eine ganze Weile...",
      "EUen": "Where on earth did my planner\ngo to? I've been searching high\nand low, but can't find it anywhere...",
      "EUes": "Nada, que no sé dónde tengo la\nagenda. Siempre la llevo encima,\ny claro, el riesgo de perderla es alto.\nHace un momento la tenía en la mano\ny ahora no sé dónde la he puesto...\n¡Esto es preocupante!",
      "EUfr": "Où est-ce que j'ai bien pu laisser\nmon agenda...? Cette histoire\ncommence à m'inquiéter !",
      "EUit": "Dov'è finito il mio diario? L'ho\ncercato dappertutto, ma non riesco\na trovarlo da nessuna parte...",
      "EUnl": "Zeg... ik had eerder mijn agenda nog\nbij me, maar nu kan ik hem niet meer\nvinden. Ik maak me ernstige zorgen!",
      "EUru": "Куда делся мой ежедневник?\nЯ уже везде обыскалась...",
      "JPja": "アタシの　スケジュール帳、\nいったい　どこに行ったのかしら？\n探してるんだけど　見つからないの、",
      "KRko": "내 다이어리는\n대체 어디로 가버린 걸까?\n아무리 찾아도 도통 안 나오네, ...",
      "TWzh": "我的行事曆手帳，\n到底跑到哪裡去了呀？\n雖然我也找過了，但就是找不到呢，。",
      "USen": "Where on earth did my planner\ngo to? I've been searching high\nand low, but can't find it anywhere...",
      "USes": "Vaya, que no sé dónde tengo la\nagenda. Siempre la llevo encima,\ny claro, por eso mismo la perdí.\nHace un momento la tenía en la mano\ny ahora no sé dónde la puse...\n¡Esto es preocupante!",
      "USfr": "Où est-ce que j'ai bien pu laisser\nmon agenda...? Cette histoire\ncommence à m'inquiéter!"
    }
  },
  {
    "label": "008_a",
    "attribute": "0x0000000000000000",
    "locale": {
      "CNzh": "我来帮你找吧",
      "EUde": "Soll ich ihn suchen?",
      "EUen": "Want me to look?",
      "EUes": "¿Quieres que busque?",
      "EUfr": "Je vais le retrouver !",
      "EUit": "Posso cercarlo io.",
      "EUnl": "Wil je dat ik ga zoeken?",
      "EUru": "Хочешь, я поищу?",
      "JPja": "探してあげるよ",
      "KRko": "같이 찾아보자",
      "TWzh": "我來幫你找吧",
      "USen": "Want me to look?",
      "USes": "¿Quieres que busque?",
      "USfr": "Je vais le retrouver!"
    }
  },
  {
    "label": "008_b",
    "attribute": "0x0000000000000000",
    "locale": {
      "CNzh": "这就麻烦了",
      "EUde": "Wie ärgerlich...",
      "EUen": "Uh-oh! I'm sorry.",
      "EUes": "Vaya, qué despiste...",
      "EUfr": "Il y a de quoi...",
      "EUit": "Oh, no!",
      "EUnl": "Oeps! Wat een pech!",
      "EUru": "Ой-ой-ой!",
      "JPja": "困ったね",
      "KRko": "큰일이네!",
      "TWzh": "真傷腦筋耶",
      "USen": "Uh-oh! I'm sorry.",
      "USes": "Vaya, qué despiste...",
      "USfr": "Il y a de quoi..."
    }
  },
  {
    "label": "009",
    "attribute": "0x0000020000000000",
    "locale": {
      "CNzh": "我有本重要的行事历，\n之前不小心遗失了。\n直到现在我还在寻找它……。",
      "EUde": "Ich suche verzweifelt nach meinem\nWochenplaner, aber er scheint\nspurlos verschwunden zu sein...",
      "EUen": "This can't be happening! My precious\nplanner has gone missing! I've\nlooked everywhere, but no luck.",
      "EUes": "Ya sabes que soy muy organizada...\nPues el error que he cometido hoy\nme va a costar caro.\nUn solo despiste que generará\nincontables faltas de respeto\nimperdonables...\n¿Cómo acudiré a todos\nmis compromisos sociales\nsi he perdido mi agenda?",
      "EUfr": "Je ne retrouve plus mon agenda...\n(expression)... C'est à croire qu'il\ns'est envolé...",
      "EUit": "Non è possibile! Il mio prezioso\ndiario sembra svanito nel nulla!\nL'ho cercato dappertutto, invano...",
      "EUnl": "Wat een narigheid! Mijn onmisbare\nagenda is zoek. Ik heb overal\ngezocht, maar zonder enig succes.",
      "EUru": "Нет, этого просто не может быть!\nМой драгоценный ежедневник где-\nто потерялся... Как в воду канул!",
      "JPja": "アタシの大事な　スケジュール帳が\nこの前から　行方不明なのよ\nずっと　探してるんだけど・・・、",
      "KRko": "내 소중한 다이어리가\n얼마 전부터 행방불명 상태야!\n계속 찾고는 있는데... ...",
      "TWzh": "我的行事曆手帳，\n從前陣子就不知去向了呢……\n雖然我一直在找……。",
      "USen": "This can't be happening! My precious\nplanner has gone missing! I've\nlooked everywhere, but no luck.",
      "USes": "Ya sabes que soy muy organizada...\nPues el error que cometí hoy\nme va a costar caro.\nUn solo despiste que generará\nincontables faltas de respeto\nimperdonables...\n¿Cómo cumpliré con todos\nmis compromisos sociales\nsi perdí mi agenda?",
      "USfr": "Je ne retrouve plus mon agenda...\n(expression)... C'est à croire qu'il\ns'est envolé..."
    }
  },
  {
    "label": "009_a",
    "attribute": "0x0000000000000000",
    "locale": {
      "CNzh": "我来帮你找吧",
      "EUde": "Den finde ich schon!",
      "EUen": "I'll find it for you.",
      "EUes": "¡Te la voy a buscar!",
      "EUfr": "Je vais le retrouver !",
      "EUit": "Lo cercherò per te.",
      "EUnl": "Ik vind hem wel voor je.",
      "EUru": "Я его найду.",
      "JPja": "見つけてあげるよ",
      "KRko": "나도 찾아볼게",
      "TWzh": "我會替你找到的",
      "USen": "I'll find it for you.",
      "USes": "¡Te la voy a buscar!",
      "USfr": "Je vais le retrouver!"
    }
  },
  {
    "label": "009_b",
    "attribute": "0x0000000000000000",
    "locale": {
      "CNzh": "打起精神来",
      "EUde": "Klingt schlimm...",
      "EUen": "Sorry to hear that.",
      "EUes": "Ten más cuidado",
      "EUfr": "Quelle triste affaire.",
      "EUit": "Mi dispiace molto.",
      "EUnl": "Wat lastig voor je.",
      "EUru": "Мне очень жаль.",
      "JPja": "元気出してね",
      "KRko": "기운 내!",
      "TWzh": "打起精神來喔",
      "USen": "Sorry to hear that.",
      "USes": "Ten más cuidado",
      "USfr": "Quelle triste affaire."
    }
  },
  {
    "label": "011",
    "attribute": "0x0000000000000000",
    "locale": {
      "CNzh": "哎呀，你真是个好人！\n如果交给你感觉能找得到！\n我会满怀期待地等着你的。。",
      "EUde": "Oh, das wäre wirklich nett!\nWenn du dich der Sache annimmst,\ndann besteht noch Hoffnung.",
      "EUen": "Oh, that's so nice of you! Do let\nme know when you manage to\ntrack it down, won't you?",
      "EUes": "Ay, qué amable. Me avisas si lo\nencuentras, ¿vale?",
      "EUfr": "Oh, comme c'est gentil ! Je suis\nsûre que tu parviendras à mettre\nla patte dessus !",
      "EUit": "Oh, sei davvero molto gentile!\nFammi sapere se lo trovi,\nva bene?",
      "EUnl": "Och, wat fideel van je! Laat je het\nme weten als je hem ergens vindt?",
      "EUru": "Как благородно! Когда найдешь,\nскажешь мне, ладно?",
      "JPja": "まぁ、優しいのね！\nアナタなら　見つけてくれそう！\n期待して待ってるわ、",
      "KRko": "어머나, 상냥해라!\n당신이라면 왠지 찾을 수 있을 것 같아!\n기대하고 있을게, ～",
      "TWzh": "哎呀，你人真好呢！\n感覺你一定能夠幫我找到！\n我會等你的好消息的，。",
      "USen": "Oh, that's so nice of you! Do let\nme know when you manage to\ntrack it down, won't you?",
      "USes": "Ay, qué amable. Me avisas si la\nencuentras, ¿sí?",
      "USfr": "Oh, comme c'est gentil! Je suis\nsûre que tu parviendras à mettre\nla patte dessus!"
    }
  },
  {
    "label": "012",
    "attribute": "0x0000000000000000",
    "locale": {
      "CNzh": "谢谢你，帮大忙了。\n我会祈祷\n你能找到它的！。",
      "EUde": "Danke für das Angebot!\nIch hoffe, du hast mehr Erfolg\ndabei als ich.",
      "EUen": "Well, thank you! That's a big help.\nI hope you have better luck than me.",
      "EUes": "¡Sí, por favor! Me salvarías la vida\nsi lo recuperas...",
      "EUfr": "Oh, merci ! J'espère que tu te\nrévèleras plus chanceux que moi.",
      "EUit": "Grazie mille! Mi sei di grande aiuto.\nSpero che avrai più fortuna di me.",
      "EUnl": "Dank je wel! Daar help je me enorm\nmee. Hopelijk heb jij meer succes\ndan ik.",
      "EUru": "Вот спасибо! Ты мне очень\nпоможешь. Надеюсь, тебе\nбольше повезет.",
      "JPja": "ありがとう、助かるわ\n見つかるように\nいのってるわね！　",
      "KRko": "고마워, 정말 큰 도움이야～\n당신이 꼭 찾아주기를\n기도할게! !",
      "TWzh": "謝謝你，真是幫了我大忙。\n我會為你祈禱，\n希望你能找到！。",
      "USen": "Well, thank you! That's a big help.\nI hope you have better luck than me.",
      "USes": "¡Sí, por favor! Me salvarías la vida\nsi la recuperas...",
      "USfr": "Oh, merci! J'espère que tu te\nrévèleras plus chanceux que moi."
    }
  },
  {
    "label": "013",
    "attribute": "0x0000000000000000",
    "locale": {
      "CNzh": "哎呀，谢谢！\n我也再检查一遍\n自己走过的路吧。。",
      "EUde": "Oh, danke! Ich werde auch noch\neinmal alle Stellen ablaufen, an\ndenen ich gewesen bin.",
      "EUen": "Really? Thank you! Meanwhile, I'll\ngo retrace my steps one more time...",
      "EUes": "¿Harías eso por mí? ¡Gracias!\nYo seguiré pensando dónde\nla he podido dejar...",
      "EUfr": "Vraiment ? Oh, merci ! De mon côté,\nje vais essayer de retracer mes pas\nune nouvelle fois.",
      "EUit": "Dici davvero? Grazie! Nel frattempo\ncercherò di ripercorrere con la mente\ni miei ultimi passi...",
      "EUnl": "Meen je dat heus? Dank je! In de\ntussentijd ga ik mijn gangen nog\neens opnieuw na...",
      "EUru": "Правда? Спасибо! А я в это время\nеще раз пройдусь по своим\nследам...",
      "JPja": "あら、ありがとう！\nアタシも　もう一度\n自分が歩いた道を　探してみるわね、",
      "KRko": "어머나, 고마워!\n나도 내가 지나다닌 길을\n한 번 더 찾아볼게～ !",
      "TWzh": "哎呀，謝謝你！\n我也再去自己曾經走過的路上\n尋找看看吧，。",
      "USen": "Really? Thank you! Meanwhile, I'll\ngo retrace my steps one more time...",
      "USes": "¿En serio que me ayudarías?\n¡Gracias! Yo mientras tanto sigo\npensando en dónde la pude dejar...",
      "USfr": "Vraiment? Oh, merci! De mon côté,\nje vais essayer de retracer mes pas\nune nouvelle fois."
    }
  },
  {
    "label": "014",
    "attribute": "0x0000000000000000",
    "locale": {
      "CNzh": "谢谢，你真可靠。\n感觉如果有你帮忙，\n一定可以找到。。",
      "EUde": "Sehr nett von dir, vielen Dank!\nDas lässt mich wieder zu hoffen\nwagen.",
      "EUen": "Aww, thank you. You're such a dear\nfor helping me out. I'm sure we'll\nfind it in no time!",
      "EUes": "Huy, gracias, qué detalle.\nNo pretendía hacerme la damisela\nen apuros, pero se admite la ayuda.",
      "EUfr": "Ooh, merci. Tu es adorable !\nAvec ton aide, je suis sûre qu'on\nle retrouvera en un rien de temps !",
      "EUit": "Ti ringrazio molto. Sei un vero\ntesoro. Sono sicura che riuscirai\na trovarlo in men che non si dica.",
      "EUnl": "O, dank je, lieve schat. Je bent\nwerkelijk een engel. Met jouw hulp\nis hij vast snel weer boven water!",
      "EUru": "Спасибо! Ты просто душка! Я не\nсомневаюсь, что пропажа мигом\nнайдется!",
      "JPja": "頼もしいわね、ありがとう\nアナタの力を　借りれば\nなんだか　見つかる気がしてきたわ、",
      "KRko": "듬직하다니까, 정말～ 고마워!\n당신의 힘까지 빌리면\n왠지 금방 찾을 것 같아! !",
      "TWzh": "謝謝你，你真是可靠呢。\n只要借助你的力量，\n總覺得就一定能夠找到，。",
      "USen": "Aww, thank you. You're such a dear\nfor helping me out. I'm sure we'll\nfind it in no time!",
      "USes": "Uy, gracias, qué buen gesto el tuyo.\nNo quería hacerme la damisela en apuros, pero se agradece la ayuda.",
      "USfr": "Ooh, merci. Tu es adorable!\nAvec ton aide, je suis sûre qu'on\nle retrouvera en un rien de temps!"
    }
  },
  {
    "label": "015",
    "attribute": "0x0000000000000000",
    "locale": {
      "CNzh": "谢谢……\n感觉每次都是这样，等你忘了之后，\n总会在奇怪的地方出现。。",
      "EUde": "Ja, du hast wohl recht...\nSolche Sachen tauchen oft an\nunerwarteten Stellen wieder auf.",
      "EUen": "Yes, I suppose I should just chin up.\nThese things have a way of turning\nup eventually...",
      "EUes": "Llevas razón, tampoco me voy\na deprimir por haber perdido\nun bolso. Igual todavía aparece.",
      "EUfr": "Oui, tu as raison... Ce n'est pas en\ncédant à la panique que je me\ndonnerai les moyens de le retrouver.",
      "EUit": "Sì, puoi dirlo forte. Devo cercare di\nessere positiva, però. Queste cose\nsaltano fuori all'improvviso...",
      "EUnl": "Tja, je hebt waarschijnlijk gelijk.\nHij duikt uiteindelijk vast vanzelf wel\nweer ergens op...",
      "EUru": "Я постараюсь не расстраиваться.\nМожет, все еще уладится...",
      "JPja": "ありがとう・・・\nこういうものって、忘れたころに\n変なところから　出てくるのよね、",
      "KRko": "고마워...\n이런 거는 잊어버릴 즈음 되면\n꼭 이상한 데서 튀어나오더라, ...",
      "TWzh": "謝謝你……\n這種東西就是會在自己忘了的時候，\n才從奇怪的地方冒出來呢，。",
      "USen": "Yes, I suppose I should just chin up.\nThese things have a way of turning\nup eventually...",
      "USes": "Tienes razón, tampoco me voy\na deprimir por haber perdido\nuna bolsa. Quizás aparezca pronto.",
      "USfr": "Oui, tu as raison... Ce n'est pas en\ncédant à la panique que je me\ndonnerai les moyens de le retrouver."
    }
  },
  {
    "label": "016",
    "attribute": "0x0000000000000000",
    "locale": {
      "CNzh": "它肯定是藏在哪儿了，\n我还是重新再找一找吧！。",
      "EUde": "Irgendwo muss er ja sein...\nIch werde noch einmal mein ganzes\nHaus auf den Kopf stellen!",
      "EUen": "Yes, well, thank you. It has to\nbe somewhere, doesn't it?\nI'll keep on looking...",
      "EUes": "Bueno, cosas peores podrían pasar.\nSeguiré buscando y ya está...",
      "EUfr": "Il est forcément dans les environs...\nEn tout cas, il est hors de question\nque je baisse les bras.",
      "EUit": "Già, anche a me. Deve pur essere\nda qualche parte, no? Continuerò\na cercare...",
      "EUnl": "Dank je voor de sympathie, schat.\nHij moet toch ergens zijn, nietwaar?\nIk zal nog eens beter zoeken...",
      "EUru": "Спасибо за сочувствие.\nМоя пропажа наверняка где-то\nпоблизости. Буду искать дальше...",
      "JPja": "きっと　どこかにあるはずだから、もう一度\n探してみることにするわ！　",
      "KRko": "분명히 어딘가에는 있을 테니까\n한 번 더 찾아볼게! !",
      "TWzh": "一定是掉在什麼地方了，\n我決定再把家裡仔細找一遍！。",
      "USen": "Yes, well, thank you. It has to\nbe somewhere, doesn't it?\nI'll keep on looking...",
      "USes": "Bueno, no es algo tan grave después\nde todo... Voy a seguir buscando\ny listo...",
      "USfr": "Il est forcément dans les environs...\nEn tout cas, il est hors de question\nque je baisse les bras."
    }
  },
  {
    "label": "017",
    "attribute": "0x0000000000000000",
    "locale": {
      "CNzh": "少了它真的挺不方便的……\n一定是掉在什么地方了，\n我再耐心地找找吧。。",
      "EUde": "Ich kann nicht LEBEN ohne diesen\nBeutel. Irgendwo muss er ja sein.\nIch werde weitersuchen!",
      "EUen": "It's really one of a kind, so I hope\nit's not lost forever. I guess I'll get\nback to searching for it...",
      "EUes": "Sí, con la de productos cosméticos\nque tenía dentro... Huy, ¡que tiene,\nmejor dicho! He de seguir buscando.",
      "EUfr": "Ça tu peux le dire. C'est un modèle\nunique, j'espère vraiment qu'il n'est\npas perdu pour de bon !",
      "EUit": "È davvero unico nel suo genere...\nSpero proprio di riuscire a trovarlo.\nNon mi resta che cercare ancora.",
      "EUnl": "Het is een uniek exemplaar, dus\nhopelijk is hij niet voorgoed verloren.\nIk zoek dan maar weer verder...",
      "EUru": "Это уникальная вещь, надеюсь,\nя ее еще увижу. Пойду искать\nдальше...",
      "JPja": "とにかく　不便なのよね・・・\nどこかに　落ちてるはずだから\nあきらめずに　探してみるわ、",
      "KRko": "아무튼 너무 불편해서...\n어딘가에는 떨어져 있을 테니까\n포기하지 않고 찾아볼게, ～",
      "TWzh": "沒有它實在很不方便呢……\n我想一定是掉在哪裡了，\n我再繼續找找，不會輕易放棄的，。",
      "USen": "It's really one of a kind, so I hope\nit's not lost forever. I guess I'll get\nback to searching for it...",
      "USes": "Sí, y tenía todos mis productos\ncosméticos adentro... Uy, ¡tiene,\nmejor dicho! Voy a seguir buscando.",
      "USfr": "Ça tu peux le dire. C'est un modèle\nunique, j'espère vraiment qu'il n'est\npas perdu pour de bon!"
    }
  },
  {
    "label": "018",
    "attribute": "0x0000000000000000",
    "locale": {
      "CNzh": "人总会有犯迷糊的时候呀。\n我还是一边散步一边再找找吧。。",
      "EUde": "Normalerweise bin ich so vorsichtig,\nund dann das... Ich werde wohl noch\neinmal überall suchen.",
      "EUen": "Yes, well, I suppose it's all my fault.\nI'll just keep walking and looking...",
      "EUes": "Es culpa mía: me considero  responsable, pero tengo despistes como cualquiera.",
      "EUfr": "En effet ! J'espère vraiment que\nce n'est pas le cas...",
      "EUit": "Sì. Anche se in fondo è solo colpa\nmia. Continuerò a guardare in ogni\nangolo dell'isola...",
      "EUnl": "Tja, het zal helaas wel mijn eigen\nschuld zijn. Enfin, ik ga verder met\nmijn speurtocht...",
      "EUru": "Что ж, сама виновата.\nПойду искать...",
      "JPja": "時々　うっかりしちゃうのよね\n散歩しながら　探してみるわ、",
      "KRko": "가끔씩 이렇게 어벙해진다니까～\n산책하면서 더 찾아봐야겠어! !",
      "TWzh": "我有時候還挺不小心的……\n之後散步時，我再試著找找看吧，。",
      "USen": "Yes, well, I suppose it's all my fault.\nI'll just keep walking and looking...",
      "USes": "Es culpa mía: me considero  responsable, pero tengo despistes como cualquiera.",
      "USfr": "En effet! J'espère vraiment que\nce n'est pas le cas..."
    }
  },
  {
    "label": "020",
    "attribute": "0x0000000000000000",
    "locale": {
      "CNzh": "哎呀，\n那就承蒙你的好意了。。",
      "EUde": "Oh! Dieses Angebot nehme ich\nnur zu gerne an!",
      "EUen": "Well, if you're sure you don't mind!",
      "EUes": "Vaya, pues si no es molestia...",
      "EUfr": "Oh ! Si ça ne te dérange pas,\nj'accepte ton aide avec plaisir !",
      "EUit": "Questa sì che è un'idea! Sempre\nse non ti dispiace, ecco.",
      "EUnl": "Gunst, als je dat wilt doen, heel\ngraag!",
      "EUru": "Если тебе нетрудно!",
      "JPja": "まぁ、\nそれじゃ　お言葉に甘えるわ、",
      "KRko": "어머나～\n기쁘게 부탁할게! !",
      "TWzh": "哎呀，\n那我就恭敬不如從命了喔，。",
      "USen": "Well, if you're sure you don't mind!",
      "USes": "Vaya, pues si no es molestia...",
      "USfr": "Oh! Si ça ne te dérange pas,\nj'accepte ton aide avec plaisir!"
    }
  },
  {
    "label": "021",
    "attribute": "0x0000000000000000",
    "locale": {
      "CNzh": "真的吗？！\n你真可靠呀。。",
      "EUde": "Das würdest du tun?!\nAuf dich ist noch Verlass!",
      "EUen": "Really? Oh, that would be such\na help.",
      "EUes": "¿De veras, (nickname)?\nTe lo agradecería una barbaridad.",
      "EUfr": "Vraiment ? Oh, qu'est-ce que\ntu es serviable !",
      "EUit": "Faresti questo per me? Sarebbe\ndavvero di grande aiuto.\nGrazie!",
      "EUnl": "Werkelijk waar? O, daarmee bewijs je\nme een enorme dienst!",
      "EUru": "Правда? Ты меня здорово\nвыручишь!",
      "JPja": "ホント？！\nアナタって　頼りになるわね、",
      "KRko": "정말로?!\n당신 정말 듬직하다～ !",
      "TWzh": "真的嗎！？\n你真值得信賴呢，。",
      "USen": "Really? Oh, that would be such\na help.",
      "USes": "¿En serio, (nickname)?\nTe lo agradecería muchísimo.",
      "USfr": "Vraiment? Oh, qu'est-ce que\ntu es serviable!"
    }
  },
  {
    "label": "022",
    "attribute": "0x0000000000000000",
    "locale": {
      "CNzh": "咦，真的吗？！\n我有一种感觉，交给你的话\n就一定能找到！。",
      "EUde": "Oh, meinst du das ernst?\nIch bin sicher, du wirst ihn im\nHandumdrehen gefunden haben!",
      "EUen": "Wow, really? Well, with you helping\nout, I'm sure we'll find it in no time!",
      "EUes": "Si tú me ayudas, ¡seguro que\nno tardamos nada en encontrarla!",
      "EUfr": "Vraiment ? Si je peux compter sur\nton aide, alors je suis sûre qu'on\nle retrouvera en un rien de temps !",
      "EUit": "Che meraviglia! Grazie al tuo aiuto\nsono certa che il diario salterà\nfuori molto presto.",
      "EUnl": "Zou je dat willen doen? Welnu, met\njouw extra paar ogen vinden we hem\nvast terug!",
      "EUru": "Ух ты! Серьезно? С твоей помощью\nон в два счета найдется.",
      "JPja": "えっ、本当？！\nアナタなら\n見つけてくれる気がするわ！　",
      "KRko": "어머, 진짜?!\n당신이라면\n찾아줄 것만 같아! !",
      "TWzh": "咦？真的嗎！？\n我覺得你一定能夠幫我找到的！。",
      "USen": "Wow, really? Well, with you helping\nout, I'm sure we'll find it in no time!",
      "USes": "Si tú me ayudas, ¡seguro que la\nencuentro rapidísimo!",
      "USfr": "Vraiment? Si je peux compter sur\nton aide, alors je suis sûre qu'on\nle retrouvera en un rien de temps!"
    }
  },
  {
    "label": "023",
    "attribute": "0x0000000000000000",
    "locale": {
      "CNzh": "哎呀，谢谢你！\n那我就期待你的好消息了。。",
      "EUde": "Oh, vielen Dank!\nSag gleich Bescheid, solltest\ndu Erfolg haben.",
      "EUen": "Oh, thank you! Please let me know\nright away if you find it.",
      "EUes": "¡Gracias! Es muy cordial por tu parte\nprestarte a ayudar a una amiga\nen apuros.",
      "EUfr": "Oh, merci ! Fais-moi signe si tu\nparviens à mettre la main dessus !",
      "EUit": "Ti ringrazio molto! Fammi sapere\nse lo trovi.",
      "EUnl": "Dank je zeer, schat! Laat het me\nalsjeblieft meteen weten als je hem\nhebt!",
      "EUru": "Вот спасибо!\nКак найдешь, сразу скажи.",
      "JPja": "まぁ、ありがとう！\n期待して　待ってるわね、",
      "KRko": "어머나, 고마워!\n기대하고 있을게～ !",
      "TWzh": "哇！謝謝你！\n我會期待地等著喔，。",
      "USen": "Oh, thank you! Please let me know\nright away if you find it.",
      "USes": "¡Gracias! Agradezco tu generosidad.\nAvísame si la encuentras.",
      "USfr": "Oh, merci! Fais-moi signe si tu\nparviens à mettre la main dessus!"
    }
  },
  {
    "label": "024",
    "attribute": "0x0000000000000000",
    "locale": {
      "CNzh": "真的非常感谢你……\n我再重新\n仔细地寻找一遍吧。。",
      "EUde": "Danke für die Anteilnahme...\nVielleicht sollte ich noch einmal\nmein Haus durchsuchen?",
      "EUen": "Yes, well... I suppose I'd better take\nanother look through my house...",
      "EUes": "¿Verdad? Pues nada, me toca\nvolver a poner la casa patas arriba\na ver si doy con él bajo un cojín...",
      "EUfr": "Comme tu dis ! Je l'ai peut-être\nlaissé chez moi, mais j'en doute\nfortement...",
      "EUit": "Purtroppo sì... Sarà meglio dare\nun'altra occhiata in giro per casa.\nNon si sa mai...",
      "EUnl": "Ja, inderdaad... Ik maak nog maar\neens een ronde langs alle mogelijke\nplekken...",
      "EUru": "Ага... Посмотрю еще раз дома...",
      "JPja": "どうも　ありがとう・・・\nもう一度　しっかり\n探してみるわね、",
      "KRko": "정말 고마워...\n다시 한번 샅샅이 찾아볼게! !",
      "TWzh": "真是謝謝你……\n我會再仔細把家裡找一遍的，。",
      "USen": "Yes, well... I suppose I'd better take\nanother look through my house...",
      "USes": "¿En serio? Está bien, volveré a poner\nla casa patas para arriba para ver si está debajo de un cojín o algo...",
      "USfr": "Comme tu dis! Je l'ai peut-être\nlaissé chez moi, mais j'en doute\nfortement..."
    }
  },
  {
    "label": "025",
    "attribute": "0x0000000000000000",
    "locale": {
      "CNzh": "谢谢。\n一定能够找到的，对吧……。",
      "EUde": "Danke. Wahrscheinlich taucht er an\nder unmöglichsten Stelle wieder auf.",
      "EUen": "Thank you. I'm sure it will eventually\nturn up somewhere...",
      "EUes": "En efecto, mi vida sí que es un drama\ny no las telenovelas... Pues nada,\na seguir buscando tocan.",
      "EUfr": "Oui, je ne te le fais pas dire.\nJ'espère vraiment que j'arriverai\nà remettre la patte dessus...",
      "EUit": "Grazie della comprensione. Prima\no poi lo ritroverò. Almeno spero...",
      "EUnl": "Dat vind ik ook. Ik hoop maar dat het\nuiteindelijk toch nog boven water\nkomt...",
      "EUru": "Спасибо. Она наверняка отыщется...",
      "JPja": "ありがとう\nきっと　見つかるはずよね・・・、",
      "KRko": "고마워～\n찾을 수 있겠지...? ?",
      "TWzh": "謝謝你。\n我一定能找到的對吧……。",
      "USen": "Thank you. I'm sure it will eventually\nturn up somewhere...",
      "USes": "Confirmado, mi vida sí que es un\ndrama y no las telenovelas...\nPues nada, a seguir buscando.",
      "USfr": "Oui, je ne te le fais pas dire.\nJ'espère vraiment que j'arriverai\nà remettre la patte dessus..."
    }
  },
  {
    "label": "026",
    "attribute": "0x0000000000000000",
    "locale": {
      "CNzh": "不能这么快就放弃呀。\n我再努力多找找吧。。",
      "EUde": "In der Tat. Aber zum Aufgeben ist\nes noch zu früh. Ich werde weiter-\nsuchen, bis ich ihn wiederhabe!",
      "EUen": "Thank you for your concern.\nI haven't given up hope yet!",
      "EUes": "Pues sí, estas cosas solo me pasan\na mí. Pero no me rindo, ¡seguiré\nbuscando hasta dar con ella!",
      "EUfr": "En effet... Mais je suis bien décidée\nà remettre la patte dessus, ça oui !",
      "EUit": "Sì, è una piccola tragedia. Non devo\nperdere le speranze, però!",
      "EUnl": "Bedankt voor je medeleven. Ik heb\nde moed echter nog niet opgegeven!",
      "EUru": "Спасибо за сочувствие.\nЯ еще не потеряла надежду.",
      "JPja": "あきらめるには　まだ早いわね\nがんばって　探してみるわ、",
      "KRko": "포기하기에는 아직 이르지!\n열심히 찾아볼게, ～",
      "TWzh": "現在放棄還太早了對吧？\n我會再努力找找看的，。",
      "USen": "Thank you for your concern.\nI haven't given up hope yet!",
      "USes": "Pues sí, estas cosas solo me pasan\na mí. Pero no me rindo, ¡voy a seguir\nbuscando hasta que aparezca!",
      "USfr": "En effet... Mais je suis bien décidée\nà remettre la patte dessus, ça oui!"
    }
  },
  {
    "label": "027",
    "attribute": "0x0000000000000000",
    "locale": {
      "CNzh": "不是总说现在丢失的东西\n将来会在别的地方找到吗？\n我是不会放弃的。。",
      "EUde": "Sagt man nicht, verlorene Dinge\ntauchen erst wieder auf, wenn man\nnicht mehr danach sucht?\nNein, das sagt man nicht?!\nDann muss ich wohl einfach\nweitersuchen.",
      "EUen": "Well, they say you always find lost\nthings when you stop thinking about\nthem, right?\nTo that end, I'm off to distract\nmyself by .",
      "EUes": "Normalmente soy yo la que va dando\nconsejos, pero llevas toda la razón.\nTengo que estar más atenta.",
      "EUfr": "S'il s'est réellement envolé,\nil existe une minuscule chance\nque le vent le ramène vers moi !",
      "EUit": "Ecco... Dicono che, proprio quando\nsmetti di pensare a qualcosa che hai\nperso, quel qualcosa salti fuori.\nEcco perché cercherò di distrarmi\ndedicandomi a .",
      "EUnl": "Hmm, ja... Zegt men niet dat je altijd\nvindt wat je zoekt op het moment\ndat je er niet meer aan denkt?\nIk ga dus maar eens  om mijn gedachten af te leiden.",
      "EUru": "Говорят, что вещи сами находятся,\nесли перестать о них думать.\nЗаймусь я лучше своим хобби:\n.",
      "JPja": "失くし物は　思わぬ場所から\n急に出てくるって　言うじゃない？\nアタシ　あきらめないわ、",
      "KRko": "잃어버린 물건은 엉뚱한 곳에서\n갑자기 나타난다고들 하잖아?\n난 포기 안 해, ～",
      "TWzh": "人家不是常說弄丟的東西，\n總會突然出現在意想不到的地方嗎？\n我也不會輕易放棄的，。",
      "USen": "Well, they say you always find lost\nthings when you stop thinking about\nthem, right?\nTo that end, I'm off to distract\nmyself by .",
      "USes": "Normalmente soy yo la que da\nconsejos, pero tienes razón.\nTengo que estar más atenta.",
      "USfr": "S'il s'est réellement envolé,\nil existe une minuscule chance\nque le vent le ramène vers moi!"
    }
  },
  {
    "label": "101",
    "attribute": "0x0000020000000000",
    "locale": {
      "CNzh": "等等，！\n你有没有看到过我的化妆袋？\n我在周围已经找过了，\n可是完全找不着……。",
      "EUde": ", hast du nicht zufällig meinen Kosmetikbeutel gesehen?\nIch muss ihn irgendwo liegen lassen\nhaben. Ich hab schon überall gesucht\nund bin kurz davor, aufzugeben.",
      "EUen": "Oh, hello, (nickname)!\nSorry, I was just looking for\nmy makeup bag...\nI must have dropped it around\nhere somewhere, but I just can't\nseem to find it.",
      "EUes": "Ay, (nickname), no sabes lo preocupada que estoy...\nHe debido de perder la bolsa\ndonde guardo el maquillaje.",
      "EUfr": "Oh, bonjour (surnom).\nJe recherche mon sac... Tu ne\nl'aurais pas vu, par hasard ?",
      "EUit": "Scusami, stavo cercando il mio sacchetto con i trucchi...\nDevo averlo lasciato qui da qualche\nparte, ma non riesco proprio a\ntrovarlo.",
      "EUnl": "O, hallo (nickname)! Neem me niet kwalijk, ik zocht net naar mijn make-uptas...\nIk moet hem hier ergens zijn\nverloren, maar ik vind hem maar niet\nterug!",
      "EUru": "Привет, (nickname)!\nИзвини, я ищу свою косметичку...\nЯ ее где-то оставила\nи не могу найти...",
      "JPja": "ねぇ　！\nアタシの　メイクポーチ、見かけなかった？\nあちこち　探してはいるんだけど\nぜんぜん　見つからないのよね、",
      "KRko": "저기, !\n내 화장품 파우치 못 봤니?\n여기저기 찾아보고는 있는데\n전혀 눈에 띄지를 않아... ...",
      "TWzh": "！\n你有沒有看到我的化妝包？\n雖然我到處都找過了，\n但就是找不到呢，。",
      "USen": "Oh, hello, (nickname)!\nSorry, I was just looking for\nmy makeup bag...\nI must have dropped it around\nhere somewhere, but I just can't\nseem to find it.",
      "USes": "Ay, (nickname), no sabes lo preocupada que estoy...\nPerdí la bolsa donde guardo el\nmaquillaje.",
      "USfr": "Oh, bonjour (surnom).\nJe recherche mon sac... Tu ne\nl'aurais pas vu, par hasard?"
    }
  },
  {
    "label": "101_a",
    "attribute": "0x0000000000000000",
    "locale": {
      "CNzh": "我来帮你找吧！",
      "EUde": "Ich suche mit!",
      "EUen": "I'll help find it!",
      "EUes": "¿Te ayudo a buscarla?",
      "EUfr": "Je pars à sa recherche !",
      "EUit": "Ti aiuto a cercarlo.",
      "EUnl": "Ik help je wel!",
      "EUru": "Я тебе помогу.",
      "JPja": "探してあげる！",
      "KRko": "찾아봐 줄게!",
      "TWzh": "我幫你找！",
      "USen": "I'll help find it!",
      "USes": "¿Te ayudo a buscarla?",
      "USfr": "Je pars à sa recherche!"
    }
  },
  {
    "label": "101_b",
    "attribute": "0x0000000000000000",
    "locale": {
      "CNzh": "没见过",
      "EUde": "Hab nichts gesehen...",
      "EUen": "Sorry, haven't seen it.",
      "EUes": "Pues yo no la he visto",
      "EUfr": "Pas vu, non.",
      "EUit": "Non l'ho visto...",
      "EUnl": "Tja, ik heb ook niks gezien.",
      "EUru": "Извини, не видел.",
      "JPja": "見てないなあ",
      "KRko": "못 봤는데?",
      "TWzh": "沒看到耶",
      "USen": "Sorry, haven't seen it.",
      "USes": "Pues yo no la he visto",
      "USfr": "Pas vu, non."
    }
  },
  {
    "label": "102",
    "attribute": "0x0000020000000000",
    "locale": {
      "CNzh": "哎～今天真不走运……\n我到处找了很久，\n就是找不到我很喜欢的那个化妆袋……\n里面还装着我刚买不久的化妆品，\n真的是祸不单行……。",
      "EUde": "Hach... Was für ein Pech. Seit heute\nMorgen vermisse ich meinen\ngeliebten Kosmetikbeutel.\nIch hatte ihn gerade erst frisch\ngefüllt! Der Verlust wäre also\ndoppelt bitter...",
      "EUen": "Today is simply not my day.\nI set down my favorite makeup bag\nthis morning and now I can't find it!\nIt's full of the most fabulous\ncosmetics...and I just bought\nthem too.",
      "EUes": "Cariño, hoy no es mi día. Iba a darme\nun retoque en las pestañas y la bolsa\ndel maquillaje no aparece.\n¡Con los productos tan exclusivos\nque yo gasto...!",
      "EUfr": "C'est vraiment pas mon jour...\nJe n'arrive plus à mettre la patte sur\nmon sac favori depuis ce matin...\nIl y a le maquillage que je viens tout\njuste d'acheter, dedans ! Pour te dire\nà quel point la situation est grave !",
      "EUit": "Oggi non sembra proprio essere la\nmia giornata.\nNon trovo più il sacchetto con i\ntrucchi che avevo preparato\nstamattina.\nContiene i cosmetici più fantastici\npresenti sul mercato... e tra l'altro\nsono tutti nuovi di zecca.",
      "EUnl": "Ik heb vandaag mijn dag niet. Ik zette\neerder mijn make-uptas ergens neer,\nen nu weet ik niet meer waar!\nEn dan te bedenken dat hij vol zit\nmet de meest schitterende cosmetica\ndie ik warempel net had gekocht!",
      "EUru": "Сегодня просто не мой день.\nУтром я где-то оставила свою\nкосметичку... Никак ее не найду!\nВ ней столько восхитительной\nкосметики... Совсем новой...",
      "JPja": "はぁ～、今日は　ツイてないわ・・・\nお気に入りの　メイクポーチが\nどこを探しても　見つからないのよね・・・\n買ったばかりのコスメを　入れてたのに\n二重にショックだわ・・・、",
      "KRko": "하아～ 오늘은 힘드네...\n내가 좋아하는 화장품 파우치가\n어디를 찾아봐도 나오질 않아...\n산 지 얼마 안 된 화장품도 들어 있는데\n이건 더블 쇼크야, ...",
      "TWzh": "唉～今天還真是倒楣呢……\n不管我怎麼找，\n就是找不到我最喜歡的化妝包……\n那裡面還放著我剛買沒多久的化妝品呢，\n簡直就是雙重打擊……。",
      "USen": "Today is simply not my day.\nI set down my favorite makeup bag\nthis morning and now I can't find it!\nIt's full of the most fabulous\ncosmetics...and I just bought\nthem too.",
      "USes": "Cariño, hoy no es mi día. Me iba a\ndar un retoque en las pestañas y la\nbolsa del maquillaje no aparece.\n¡Con los productos tan exclusivos\nque yo compro...!",
      "USfr": "C'est vraiment pas mon jour...\nJe n'arrive plus à mettre la patte sur\nmon sac favori depuis ce matin...\nIl y a le maquillage que je viens tout\njuste d'acheter, dedans! Pour te dire\nà quel point la situation est grave!"
    }
  },
  {
    "label": "102_a",
    "attribute": "0x0000000000000000",
    "locale": {
      "CNzh": "我来帮你找吧",
      "EUde": "Soll ich ihn suchen?",
      "EUen": "Want me to look for it?",
      "EUes": "¿Te la busco?",
      "EUfr": "Je pars à sa recherche !",
      "EUit": "Vuoi che lo cerchi?",
      "EUnl": "Wil je dat ik ga zoeken?",
      "EUru": "Хочешь, я поищу?",
      "JPja": "探してあげるよ",
      "KRko": "내가 찾아줄게～",
      "TWzh": "我來幫你找吧",
      "USen": "Want me to look for it?",
      "USes": "¿Te la busco?",
      "USfr": "Je pars à sa recherche!"
    }
  },
  {
    "label": "102_b",
    "attribute": "0x0000000000000000",
    "locale": {
      "CNzh": "那真可惜……",
      "EUde": "Ärgerlich...",
      "EUen": "That's a shame...",
      "EUes": "Tus pestañas molan",
      "EUfr": "Quelle guigne...",
      "EUit": "Che peccato...",
      "EUnl": "Wat een lastige situatie...",
      "EUru": "Какая жалость...",
      "JPja": "残念だね・・・",
      "KRko": "안타까운 일이야…",
      "TWzh": "真遺憾……",
      "USen": "That's a shame...",
      "USes": "Qué lástima",
      "USfr": "Quel dommage..."
    }
  },
  {
    "label": "103",
    "attribute": "0x0000000000000000",
    "locale": {
      "CNzh": "咦，可以吗？！\n，你对我真好！\n那就拜托你了！。",
      "EUde": "Oh, das würdest du tun?\nWirklich sehr zuvorkommend von dir.\nDann viel Erfolg!",
      "EUen": "Would you really? Oh, that's so\nabove and beyond. Please and\nthank you!",
      "EUes": "¡Qué detalle tan caballeroso!\nSi es que se puede decir eso de\nun diablillo como tú... ¡Sí, por favor!",
      "EUfr": "C'est vrai ? Oh, c'est vraiment\nadorable de ta part. Merci !",
      "EUit": "Dici sul serio? Oh, che bella notizia!\nÈ molto di più di quello che mi sarei\naspettata. Ti ringrazio molto!",
      "EUnl": "Meen je dat werkelijk? Wat\nvoorkomend van je! Welnu, heel\ngraag, en hartelijk dank!",
      "EUru": "Серьезно? О, я об этом и мечтать\nне смела. Благодарю тебя!",
      "JPja": "えっ、いいの？！\n、優しいのね\nそれじゃ　頼んだわよ、",
      "KRko": "어머나, 그래도 돼?!\n은 참 상냥해～\n그러면 부탁할게! !",
      "TWzh": "咦，可以嗎！？\n，你人真好呢。\n那就拜託你了喔，。",
      "USen": "Would you really? Oh, that's so\nabove and beyond. Please and\nthank you!",
      "USes": "¡Qué gesto tan generoso!\nSi es que se puede decir eso de\nun diablito como tú... ¡Sí, por favor!",
      "USfr": "C'est vrai? Oh, c'est vraiment\nadorable de ta part. Merci!"
    }
  },
  {
    "label": "104",
    "attribute": "0x0000000000000000",
    "locale": {
      "CNzh": "真是的，到底落在哪儿了呢……\n如果你找到它，\n请记得告诉我哦。。",
      "EUde": "Das wäre auch zu schön gewesen...\nWo kann er nur hin sein? Sag bitte\nBescheid, wenn du ihn doch siehst.",
      "EUen": "No, of course you haven't. It seems\nto have vanished into the ether.\nWell, if you find it...you know\nwhere I am.",
      "EUes": "Yo tampoco la he visto, ese es\nprecisamente el problema...\nEn fin, si te tropiezas con ella,\nya sabes dónde vivo.",
      "EUfr": "C'est bien ce que je pensais...\nC'est à croire qu'il a tout bonnement\ndisparu.",
      "EUit": "No, certo che no. Sembra essersi\ndissolto nel nulla. Insomma, se\ndovessi vederlo... sai dove trovarmi.",
      "EUnl": "Nee, dat verbaast me niets. Hij\nschijnt in het niets te zijn opgelost.\nWelnu, mocht je hem toch\ntegenkomen, dan weet je me te\nvinden...",
      "EUru": "Конечно. Она как сквозь землю\nпровалилась. Если все же увидишь,\nскажи...",
      "JPja": "ホントに　どこに消えたのかしら\nもし見つけたら\n教えてくれると嬉しいわ、",
      "KRko": "정말 어디로 사라진 걸까?\n혹시라도 찾게 되면\n가르쳐주겠어? ?",
      "TWzh": "它到底消失到哪裡去了呢？\n如果你找到了，\n希望你能跟我說一聲喔，。",
      "USen": "No, of course you haven't. It seems\nto have vanished into the ether.\nWell, if you find it...you know\nwhere I am.",
      "USes": "Yo tampoco la he visto, justamente\nese es el problema...\nEn fin, si la ves por algún lado,\nya sabes dónde vivo.",
      "USfr": "C'est bien ce que je pensais...\nC'est à croire qu'il a tout bonnement\ndisparu."
    }
  },
  {
    "label": "105",
    "attribute": "0x0000000000000000",
    "locale": {
      "CNzh": "咦？！你愿意帮我找吗？！\n你真是个好心人！\n我有一种预感，你一定会帮我找到的。\n那就拜托你了！。",
      "EUde": "Das würdest du für mich tun?!\n, du bist noch einer vom alten Schlag!\nZusammen werden wir ihn sicher im\nHandumdrehen finden. Auf geht's!",
      "EUen": "Would I?! Yes, yes, a million times\nyes! Oh, thank you so much!\nWith both of us looking, we might\njust stand a chance.",
      "EUes": "Huy, sí, por favor. Yo he mirado\npor todas partes, en vano. Pero si\nme ayudas, seguro que aparece.",
      "EUfr": "Vraiment ?! Oooh ! Merci, merci,\nmerci ! Je ne sais pas ce que\nje ferais, sans toi !",
      "EUit": "E me lo chiedi anche? Sì, sì,\nancora sì! Oh, non so davvero\ncome ringraziarti!\nSe ci mettiamo a cercare entrambi,\navremo più probabilità di successo.",
      "EUnl": "Of ik dat zou willen?! Ja, absoluut,\nheel graag! O, dank je, mijn lieve\nschat!\nAls we er allebei naar zoeken, is er\nnog een kans dat we hem vinden!",
      "EUru": "Правда?! Огромнейшее спасибо!\nВместе у нас есть шанс ее найти.",
      "JPja": "えっ？！　探してくれるの？！\nアナタ　ホントいい人ね！\n必ず　見つかる気がするわ\nそれじゃ、よろしくね！　",
      "KRko": "응?! 찾아준다고?!\n당신은 정말 좋은 사람이야!\n왠지 당신이라면 찾을 수 있을 것 같아!\n그럼 잘 부탁해, !",
      "TWzh": "咦！？你願意幫我找嗎！？\n你真是個好人！\n我有預感，你一定找得到。\n那麼就麻煩你囉！。",
      "USen": "Would I?! Yes, yes, a million times\nyes! Oh, thank you so much!\nWith both of us looking, we might\njust stand a chance.",
      "USes": "Uy, sí, por favor. Yo busqué por\ntodas partes, pero no hubo caso.\nSi me ayudas, seguro que aparece.",
      "USfr": "Vraiment?! Oooh! Merci, merci,\nmerci! Je ne sais pas ce que\nje ferais, sans toi!"
    }
  },
  {
    "label": "106",
    "attribute": "0x0000000000000000",
    "locale": {
      "CNzh": "啊～事到如今只能祈祷了，\n希望有人捡到之后能还给我……。",
      "EUde": "Vielleicht findet ihn irgendwer\nzufällig und kommt darauf, dass er\nmeiner ist. Meine letzte Hoffnung...",
      "EUen": "You can say that again. Well, I sure\nhope it turns up somewhere,\nno matter WHO finds it...",
      "EUes": "Gracias, encanto, un cumplido\nsiempre anima. Pero necesitaré\nretocarlas tarde o temprano...\nSi ves la bolsa, me avisas,\n¿de acuerdo?",
      "EUfr": "Ça tu l'as dit ! J'espère vraiment\nqu'il n'est pas définitivement perdu !",
      "EUit": "A chi lo dici. Spero davvero che\nspunti fuori e che qualcuno lo trovi...",
      "EUnl": "Dat lijkt me nog zacht uitgedrukt.\nNu ja, ik hoop dat iemand hem\nuiteindelijk toch ergens vindt...",
      "EUru": "Это точно. Ладно, я уверена, что\nона когда-нибудь появится...",
      "JPja": "あぁ～、もう　誰でもいいから　見つけて\n届けてくれますように・・・、",
      "KRko": "아아～ 정말 누구라도 좋으니까\n찾아서 가져다줬으면... ...",
      "TWzh": "啊～不管是誰都好，希望有人找到東西的話，\n能帶來還給我……。",
      "USen": "You can say that again. Well, I sure\nhope it turns up somewhere,\nno matter WHO finds it...",
      "USes": "Sí, es un verdadero drama. \nPues bien, seguro que aparece por\nalguna parte...",
      "USfr": "Ça tu l'as dit! J'espère vraiment\nqu'il n'est pas définitivement perdu!"
    }
  },
  {
    "label": "201",
    "attribute": "0x0000020000000000",
    "locale": {
      "CNzh": "我好像把重要的行事历\n丢在某个地方了，\n现在搞不清楚行程，真的很头疼……。",
      "EUde": "Mein unersetzlicher Wochenplaner\nist nicht aufzufinden!\nIch werde alle meine Termine\nverpassen... Wo kann er nur sein?",
      "EUen": "Oh dear... I seem to have dropped\nmy planner somewhere, and I\nhaven't the slightest clue where!\nMy whole life is in there.\nWhat am I going to do?!",
      "EUes": "Querido, resulta que he perdido mi\nagenda, ¡el núcleo de mi vida social!\n¿Qué voy a hacer sin ella?",
      "EUfr": "Fichtre... Je ne retrouve plus mon\nagenda... Comment je vais faire pour\nrester organisée, maintenant ?!",
      "EUit": "Oh, cielo... Devo aver perso il diario\nda qualche parte, ma non ho la\nminima idea di dove possa essere!\nC'è tutta la mia vita lì dentro!\nCome farò?!",
      "EUnl": "Lieve deugd... Ik ben mijn agenda al\nsinds vanmorgen kwijt en heb geen\nidee waar ik hem moet zoeken.\nAl mijn afspraken staan erin.\nWat moet ik nu beginnen?!",
      "EUru": "Ох, душечка... Я где-то оставила\nсвой ежедневник. Ума не\nприложу где!\nВ нем же вся моя жизнь!\nЧто же мне теперь делать?!",
      "JPja": "アタシ、大切なスケジュール帳を\nどこかに　落としちゃったみたいで\n予定が　わからなくて大変なの、",
      "KRko": "나 있지, 소중한 다이어리를\n어디선가 잃어버린 것 같은데\n일정을 하나도 몰라서 큰일이야, ...",
      "TWzh": "我好像不小心把重要的行事曆手帳\n掉在什麼地方了，\n不知道自己的行程還真是困擾呢，。",
      "USen": "Oh dear... I seem to have dropped\nmy planner somewhere, and I\nhaven't the slightest clue where!\nMy whole life is in there.\nWhat am I going to do?!",
      "USes": "Querido, resulta que perdí mi\nagenda, ¡el núcleo de mi vida social!\n¡¿Qué voy a hacer sin mi agenda?!",
      "USfr": "Fichtre... Je ne retrouve plus mon\nagenda... Comment je vais faire pour\nrester organisée, maintenant?!"
    }
  },
  {
    "label": "201_a",
    "attribute": "0x0000000000000000",
    "locale": {
      "CNzh": "我来帮你找吧！",
      "EUde": "Ich helfe suchen!",
      "EUen": "I'll find it for you!",
      "EUes": "¡Yo daré con ella!",
      "EUfr": "Je pars à sa recherche !",
      "EUit": "Lo troverò io!",
      "EUnl": "Ik vind hem wel voor je!",
      "EUru": "Я его найду.",
      "JPja": "探してあげる！",
      "KRko": "찾아볼게!",
      "TWzh": "我幫你找！",
      "USen": "I'll find it for you!",
      "USes": "¡Yo la busco!",
      "USfr": "Je pars à sa recherche!"
    }
  },
  {
    "label": "201_b",
    "attribute": "0x0000000000000000",
    "locale": {
      "CNzh": "打起精神来吧",
      "EUde": "Der taucht schon auf!",
      "EUen": "I'm sure it'll turn up.",
      "EUes": "¡Cómprate otra!",
      "EUfr": "Tu t'en sortiras sans.",
      "EUit": "Salterà presto fuori.",
      "EUnl": "Je vindt hem vast wel terug.",
      "EUru": "Он найдется.",
      "JPja": "元気出してね",
      "KRko": "기운 내～",
      "TWzh": "打起精神來喔",
      "USen": "I'm sure it'll turn up.",
      "USes": "¡Cómprate otra!",
      "USfr": "Tu t'en sortiras sans."
    }
  },
  {
    "label": "202",
    "attribute": "0x0000020000000000",
    "locale": {
      "CNzh": "我好像是把那本常用的行事历\n掉在什么地方了。\n找遍整个房间都没找到。\n我想一定是落在户外了……\n唉，要是没有它，\n我就搞不清楚\n朋友的生日了……。",
      "EUde": "Mein treuer Wochenplaner ist perdu.\nIch habe schon mein ganzes Zuhause\nauf den Kopf gestellt.\nOhne diesen Planer bin ich aufge-\nschmissen. Ich werde sicher meinen\neigenen Geburtstag vergessen!",
      "EUen": "Well, I think it's finally time to admit\nthat my planner is lost. I was holding\nout hope, but I think it's truly gone.\nI turned my home inside out to no\navail, so I think I must have dropped\nit outside somewhere...\nI don't know what I'll do without it.\nI can't even remember my own\nbirthday without consulting it...",
      "EUes": "Me estaba aferrando a la esperanza\nde que mi agenda estaría en casa,\npero he levantado el último cojín y...\nNo sé qué voy a hacer sin ella.\n¡Me olvidaré hasta de mi propio\ncumpleaños!",
      "EUfr": "Ma foi, je crois que mon agenda\nest définitivement perdu...\nEn tout cas, j'ai fouillé ma maison de\nla cave au grenier, et je n'ai rien\ntrouvé. J'ai dû le perdre à l'extérieur.\nSans lui, je ne sais plus rien.\nPas même ma propre date\nd'anniversaire...",
      "EUit": "Devo rassegnarmi al fatto che il mio\ndiario sia perso per sempre. Temo\nche non servirà continuare a sperare.\nHo messo la casa sottosopra per\ntrovarlo. A questo punto penso di\naverlo perso fuori...\nNon so come farò, senza. Non\nricordo nemmeno il mio stesso\ncompleanno, senza consultarlo...",
      "EUnl": "Ik heb geen andere keuze dan toe\nte geven dat ik mijn agenda toch\necht kwijt ben. Hij is onvindbaar.\nIk heb mijn huis al binnenstebuiten\ngekeerd, maar zonder resultaat. Hij\nmoet dus wel ergens buiten liggen...\nIk voel me plotseling vreemd\nverloren. Ik twijfel zelfs al op welke\ndag ik ook alweer jarig ben...",
      "EUru": "Пора посмотреть правде в глаза:\nмой ежедневник безнадежно\nутерян.\nЯ весь дом перевернула — его\nнигде нет. Наверное, выронила его\nна улице...\nУма не приложу, что мне теперь\nделать. Без него я даже не знаю,\nкогда у меня день рождения...",
      "JPja": "実はアタシ、愛用の　大事なスケジュール帳を\n失くしちゃったみたいなの\n部屋を探しても　どこにもないから\nきっと　外で落したんだと思う・・・\nああ、あの手帳がないと\nお友達の　誕生日も\nわからないわ・・・、",
      "KRko": "사실은 나, 애용하던 다이어리를\n잃어버린 것 같아...\n집을 전부 찾아봐도 안 나오는 걸 보면\n분명 밖에서 잃어버린 걸 텐데...\n아아, 그 다이어리가 없으면\n친구들 생일도\n알 수가 없어... ...",
      "TWzh": "其實我好像不小心弄丟了\n自己很常用的行事曆手帳。\n因為找遍了整個房間都找不到，\n所以我想一定是掉在外面了……\n唉～要是沒有那本記事本，\n我就連朋友的生日都不知道了……。",
      "USen": "Well, I think it's finally time to admit\nthat my planner is lost. I was holding\nout hope, but I think it's truly gone.\nI turned my home inside out to no\navail, so I think I must have dropped\nit outside somewhere...\nI don't know what I'll do without it.\nI can't even remember my own\nbirthday without consulting it...",
      "USes": "Me estaba aferrando a la esperanza\nde que mi agenda estuviera en mi\ncasa, pero levanté el último cojín y...\nNo sé qué voy a hacer si no la\nencuentro. ¡Me voy a olvidar hasta\nde mi propio cumpleaños!",
      "USfr": "Ma foi, je crois que mon agenda\nest définitivement perdu...\nEn tout cas, j'ai fouillé ma maison de\nla cave au grenier, et je n'ai rien\ntrouvé. J'ai dû le perdre à l'extérieur.\nSans lui, je ne sais plus rien.\nPas même la date de ma\npropre fête..."
    }
  },
  {
    "label": "202_a",
    "attribute": "0x0000000000000000",
    "locale": {
      "CNzh": "我来帮你找吧",
      "EUde": "Soll ich ihn suchen?",
      "EUen": "Let me look for it!",
      "EUes": "¡Te ayudo a buscarla!",
      "EUfr": "Je vais le retrouver !",
      "EUit": "Proverò a cercarlo.",
      "EUnl": "Laat mij maar eens zoeken!",
      "EUru": "Я поищу.",
      "JPja": "見つけてあげるよ",
      "KRko": "내가 찾아줄까?",
      "TWzh": "我會替你找到的",
      "USen": "Let me look for it!",
      "USes": "¡Te ayudo a buscarla!",
      "USfr": "Je vais le retrouver!"
    }
  },
  {
    "label": "202_b",
    "attribute": "0x0000000000000000",
    "locale": {
      "CNzh": "这样啊",
      "EUde": "Kopf hoch!",
      "EUen": "Sorry to hear that.",
      "EUes": "Venga, no es tan grave",
      "EUfr": "Je compatis...",
      "EUit": "Mi dispiace...",
      "EUnl": "Wat lastig voor je.",
      "EUru": "Мне ужасно жаль.",
      "JPja": "そうなんだ",
      "KRko": "잘 찾으면 나올 거야",
      "TWzh": "這樣啊",
      "USen": "Sorry to hear that.",
      "USes": "Vamos, no es tan grave",
      "USfr": "Je compatis..."
    }
  },
  {
    "label": "203",
    "attribute": "0x0000000000000000",
    "locale": {
      "CNzh": "咦，你愿意帮我找吗？！\n真是太感谢了！\n现在我只能靠你了！。",
      "EUde": "Dazu wärst du bereit? Vielen Dank!\nDu bist meine letzte Hoffnung.",
      "EUen": "Are you serious? Oh, if you can\nfind it, I'd be incredibly grateful.\nThank you, (nickname)!",
      "EUes": "Lo dices con tanta seguridad\nque no me cabe duda de que\nlo conseguirás. ¡Muchas gracias!",
      "EUfr": "Vraiment ?! Oh, si tu pouvais le\nretrouver pour moi, tu me rendrais\nun fier service, (surnom) !",
      "EUit": "Davvero? Fantastico! Oh, se davvero\nriuscissi a trovarlo te ne sarei grata.\nGrazie, (nickname)!",
      "EUnl": "Meen je dat nu? O, ik zou je eeuwig\ndankbaar zijn als jij hem weet te\nvinden, (nickname)!",
      "EUru": "Серьезно? Я буду тебе очень\nпризнательна, если ты его найдешь.\nСпасибо, (nickname)!",
      "JPja": "えっ、探してくれるの？！\nどうも　ありがとう！\nアナタだけが　頼りだわ！　",
      "KRko": "어머, 찾아준다고?!\n정말 고마워!\n당신만 믿고 있을게! !",
      "TWzh": "咦？你要幫我找嗎！？\n真是謝謝你！\n我只能靠你了！。",
      "USen": "Are you serious? Oh, if you can\nfind it, I'd be incredibly grateful.\nThank you, (nickname)!",
      "USes": "Lo dices con tanta seguridad\nque no me cabe duda de que\nla encontrarás. ¡Muchas gracias!",
      "USfr": "Vraiment?! Oh, si tu pouvais le\nretrouver pour moi, tu me rendrais\nun fier service, (surnom)!"
    }
  },
  {
    "label": "204",
    "attribute": "0x0000000000000000",
    "locale": {
      "CNzh": "谢谢你这样安慰我。\n居然会犯这种失误，\n看来我还要多加努力呀……。",
      "EUde": "Ich wünschte, ich wäre da auch so\nzuversichtlich. Dass mir so etwas\nDummes passiert...",
      "EUen": "Well, thanks for trying to cheer me\nup. I can really use it right now...",
      "EUes": "Sí, la solución es fácil por la parte\nmaterial. Rellenar la nueva agenda\nya será otra cuestión...",
      "EUfr": "C'est gentil à toi d'essayer de me\nremonter le moral. Mais je crois que\ntu me surestimes un peu...",
      "EUit": "Apprezzo il tuo tentativo di tirarmi\nsu il morale. Ma al momento è\nproprio sotto le zampe...",
      "EUnl": "Bedankt voor je motiverende\nwoorden. Ik kan op dit moment alle\nsteun gebruiken...",
      "EUru": "Спасибо за моральную поддержку.\nМне она сейчас очень кстати...",
      "JPja": "なぐさめてくれて　ありがとう\nこんな　うっかりミスをするなんて\nアタシも　まだまだね・・・、",
      "KRko": "위로해줘서 고마워～\n이렇게 바보 같은 실수를 하다니\n나도 아직 덜렁이라니까, ...",
      "TWzh": "謝謝你安慰我。\n沒想到我居然會犯這麼粗心的錯，\n真是太不成熟了……。",
      "USen": "Well, thanks for trying to cheer me\nup. I can really use it right now...",
      "USes": "Sí, la solución es fácil en cuanto a lo\nmaterial. Rellenar la nueva agenda\nme llevaría siglos...",
      "USfr": "C'est gentil à toi d'essayer de me\nremonter le moral. Mais je crois que\ntu me surestimes un peu..."
    }
  },
  {
    "label": "205",
    "attribute": "0x0000000000000000",
    "locale": {
      "CNzh": "咦，是真的吗？！\n正巧遇上你真是太好了！\n我相信你一定能帮我找回来的！。",
      "EUde": "Wie?! Darf ich dir das aufhalsen?\nWie überaus nett von dir! Ich drücke\ndir die Daumen!",
      "EUen": "Really? I'd just about given up hope,\nbut I suppose a fresh set of eyes\ncouldn't hurt. Thank you!",
      "EUes": "Claro, cuatro ojos ven más que dos,\ny seis más que cuatro, y... Bueno,\ncon los tuyos seguro que ya basta.",
      "EUfr": "Vraiment ? Dire que j'avais\nabandonné tout espoir...\nJe compte sur toi !",
      "EUit": "Dici davvero? Per quanto abbia quasi\nperso le speranze, un paio di occhi\nin più potrebbero funzionare!",
      "EUnl": "Wil je dat doen? Ik had het eigenlijk\nal opgegeven, maar wie weet wat jij\nmet een frisse blik ziet. Dank je!",
      "EUru": "Правда? Я уже потеряла надежду,\nно свежий взгляд не помешает.\nСпасибо!",
      "JPja": "えっ、いいの？！\nアナタに相談して　本当に良かった！\n見つけてくれると　信じてるわ！　",
      "KRko": "어머, 그래도 돼?!\n당신한테 상담하길 정말 잘했어!\n찾아줄 거라고 믿을게! !",
      "TWzh": "咦，可以嗎！？\n我有找你商量真是太好了！\n我相信你會幫我找到的！。",
      "USen": "Really? I'd just about given up hope,\nbut I suppose a fresh set of eyes\ncouldn't hurt. Thank you!",
      "USes": "Claro, cuatro ojos ven más que dos,\ny seis más que cuatro, y... Bueno,\ncon los tuyos seguro que aparece.",
      "USfr": "Vraiment? Dire que j'avais\nabandonné tout espoir...\nJe compte sur toi!"
    }
  },
  {
    "label": "206",
    "attribute": "0x0000000000000000",
    "locale": {
      "CNzh": "谢谢……\n我再多找找吧。。",
      "EUde": "Danke, aber warme Worte helfen mir\njetzt auch nicht weiter.\nWeißt du zufällig die Geburtstage\naller Bewohner dieser Insel\nauswendig?",
      "EUen": "Yes, well, thank you. I suppose I'm\njust going to have to remember what\nmy plans for today were on my own.\nWas I going to do yoga...or relax by\nthe beach? Perhaps I was going to\ngo shopping for a new planner?",
      "EUes": "¿Que no? Ya me dirás si es grave\no no cuando te pida que me\nrecuerdes cómo te llamas...",
      "EUfr": "Merci, euh... cher ami... Tu vois ?!\nJe ne suis déjà même plus capable\nde remettre un nom sur un visage !",
      "EUit": "Ti ringrazio. Dovrò cercare di\nricordare da sola quali erano i\nprogrammi per oggi.\nForse devo andare a yoga... oppure a\nrilassarmi sulla spiaggia? Meglio\nandare a comprare un diario nuovo!",
      "EUnl": "Goed, dank je wel. Dan zit er weinig\nanders op dan zelf mijn plannen van\nvandaag te onthouden.\nMoest ik naar yoga? Of stond er een\nstrandwandeling op de planning? Ik\nkan maar beter een nieuwe kopen.",
      "EUru": "Ах, что ж, спасибо тебе. Видимо,\nпридется вспоминать свои планы\nна сегодня самой.\nМожет, я собиралась заняться\nйогой... или понежиться на пляже?\nИли купить новый ежедневник?",
      "JPja": "ありがとう・・・\nもう少し　探してみるわ、",
      "KRko": "고마워...\n좀 더 열심히 찾아볼게, ～",
      "TWzh": "謝謝你……\n我會再繼續找找看的，。",
      "USen": "Yes, well, thank you. I suppose I'm\njust going to have to remember what\nmy plans for today were on my own.\nWas I going to do yoga...or relax by\nthe beach? Perhaps I was going to\ngo shopping for a new planner?",
      "USes": "¿Ah, no? Ya me dirás si es grave\no no cuando te pida que me\nrecuerdes cómo te llamas...",
      "USfr": "Merci, euh... cher ami... Tu vois?!\nJe ne suis déjà même plus capable\nde remettre un nom sur un visage!"
    }
  }
]