﻿[
  {
    "label": "001",
    "attribute": "0x0000000000000000",
    "locale": {
      "CNzh": "哎呀，你这就走了吗？\n今天你能来，我很高兴哦！\n以后有时间随时再来！",
      "EUde": "Brichst du schon auf? Es war ganz\nwunderbar, dass du hier warst.\nKomm jederzeit wieder zu mir!",
      "EUen": "You're leaving already? Well, it was\na pleasure having you over today.\nPlease come back anytime!",
      "EUes": "¡Oh! ¿Ya te marchas? Bien,\nha sido un placer recibirte.\nVuelve cuando quieras.",
      "EUfr": "Comment ? Tu pars déjà ?\nEh bien, ce fut un plaisir de te\nrecevoir. Reviens quand tu veux !",
      "EUit": "Vai già via? D'accordo. È stato\nun piacere averti qui a casa con\nme. Torna a trovarmi quando vuoi!",
      "EUnl": "Alweer op huis aan? Het was me een\ngenoegen je vandaag te ontvangen.\nJe bent hier altijd welkom!",
      "EUru": "Уже уходишь? Что ж, я очень\nрада, что ты меня навестил.\nЗаходи еще в любое время!",
      "JPja": "あら、もう帰るのね？\n今日は来てくれて　嬉しかったわ\nまた、いつでも　いらっしゃい",
      "KRko": "어머, 이제 가려고?\n오늘은 와줘서 고마웠어～\n또 언제든지 놀러와!",
      "TWzh": "哎呀，你要回去了嗎？\n謝謝你今天來我家玩，我很高興喔。\n隨時歡迎你再來。",
      "USen": "You're leaving already? Well, it was\na pleasure having you over today.\nPlease come back anytime!",
      "USes": "¡Oh! ¿Ya te marchas? Bien,\nfue un placer recibirte.\nVuelve cuando quieras.",
      "USfr": "Comment? Tu pars déjà?\nEh bien, ce fut un plaisir de te\nrecevoir. Reviens quand tu veux!"
    }
  },
  {
    "label": "002",
    "attribute": "0x0000000000000000",
    "locale": {
      "CNzh": "哎呀，你已经要走了？\n今天我过得很开心哦。\n希望你有时间再来。",
      "EUde": "Oh, musst du schon aufbrechen?\nIch habe deinen Besuch sehr\ngenossen. Komm bald wieder!",
      "EUen": "My, my! Going home already? Well,\nthat was a splendid way to pass the\ntime. Let's do it again, shall we?",
      "EUes": "¿Ya te vas, (nickname)?\nTe agradezco mucho la visita.\nA ver si lo repetimos pronto, ¿vale?",
      "EUfr": "Eh bien, tu dois déjà partir ? Sache\nque j'ai passé un très bon moment.\nJ'espère que tu reviendras !",
      "EUit": "Oh! Già te ne vai? Va bene. È stato\nmeraviglioso passare il tempo con\nte. Alla prossima. Ci conto.",
      "EUnl": "Lieve deugd! Je gaat er al vandoor?\nIk heb erg van je bezoek genoten.\nKom maar gauw weer eens langs!",
      "EUru": "Как?! Неужели ты уже уходишь?\nЧто ж, время так быстро летит.\nМы это еще повторим, правда?",
      "JPja": "まあ、もう帰るのね？\n今日は　すごく楽しかったわ\nまた遊びに来て　ちょうだいね",
      "KRko": "어머나, 이제 가는 거니?\n오늘은 무척 즐거웠어～\n또 놀러와주겠어?",
      "TWzh": "哎呀，你要回去了嗎？\n今天真的玩得非常開心呢。\n要再來找我玩喔。",
      "USen": "My, my! Going home already? Well,\nthat was a splendid way to pass the\ntime. Let's do it again, shall we?",
      "USes": "¿Ya te vas, (nickname)?\nTe agradezco mucho la visita.\nA ver si lo repetimos pronto, ¿sí?",
      "USfr": "Eh bien, tu dois déjà partir? Sache\nque j'ai passé un très bon moment.\nJ'espère que tu reviendras!"
    }
  },
  {
    "label": "003",
    "attribute": "0x0000000000000000",
    "locale": {
      "CNzh": "哎呀，你已经要回去了？\n我很感谢你今天到家里来做客。\n以后可以常来玩哦。",
      "EUde": "Musst du los? Bitte sag, dass dem\nnicht so ist! Dein Besuch war nämlich\nsehr erquicklich! Komm bald wieder!",
      "EUen": "You're leaving? Say it isn't so,\ndarling! Well, at any rate, you were\na delight. Drop by anytime!",
      "EUes": "No me digas que ya te marchas.\nCon lo que me gusta tenerte aquí...\nEspero que regreses muy pronto.",
      "EUfr": "Tu pars déjà ? En tout cas, j'ai été\nravie de te voir, tu sais. J'espère que\ntu as passé un bon moment aussi.",
      "EUit": "Te ne vai? Speravo proprio di no!\nAd ogni modo, ecco, è stato un vero\npiacere averti qui. Vieni quando vuoi!",
      "EUnl": "Je gaat? Het is toch niet waar?!\nMaar we hebben ons uitstekend\ngeamuseerd, nietwaar? Tot gauw!",
      "EUru": "Уходишь? Может, еще побудешь?\nВ любом случае мне было очень\nприятно, что ты зашел в гости. ",
      "JPja": "あらら、もう帰る時間かしら？\n今日は、来てくれて　どうもありがとう\nいつでも　気軽に遊びに来てね",
      "KRko": "어머나, 이제 돌아갈 시간이니?\n오늘은 와줘서 정말 고마워～\n언제든지 맘 편하게 또 놀러와～",
      "TWzh": "哎呀呀，已經到該回家的時間了嗎？\n真的很謝謝你今天來我家。\n之後也隨時歡迎你來玩喔。",
      "USen": "You're leaving? Say it isn't so,\ndarling! Well, at any rate, you were\na delight. Drop by anytime!",
      "USes": "No me digas que ya te marchas.\nCon lo que me gusta tenerte aquí...\nEspero que regreses muy pronto.",
      "USfr": "Tu pars déjà? En tout cas, j'ai été\nravie de te voir, tu sais. J'espère que\ntu as passé un bon moment aussi."
    }
  },
  {
    "label": "004",
    "attribute": "0x0000000000000000",
    "locale": {
      "CNzh": "哎呀！你这就要走了？！\n难得来家里一趟，\n你完全可以多待一会儿的呀。。",
      "EUde": "Du brichst auf? Nachdem ich dich\nENDLICH hier hatte? Ach, bleib\ndoch bitte noch, (Floskel).",
      "EUen": "Tut-tut! Leaving already?! I FINALLY\ngot you over here. I'd have thought\nwe'd have more time, .",
      "EUes": "¿Ya te quieres ir? ¡Para una vez\nque consigo traerte!\nEsperaba que pudiéramos pasar\nmás tiempo juntos, ...",
      "EUfr": "Fichtre, tu t'en vas déjà ?!\nPour une fois que tu venais... Je\npensais que tu resterais plus\nlongtemps, .",
      "EUit": "Oh! Vai già via?! Con tutto quello\nche c'è voluto per averti qui, speravo\nrimanessi di più, .",
      "EUnl": "Ga je al weg?! Nadat ik je éíndelijk\nzover heb gekregen om te komen...\n...hoopte ik op meer tijd samen, .",
      "EUru": "Тебе пора? Ну вот! Мне наконец-то\nудалось тебя пригласить к себе...\nЯ думала, ты подольше останешься.",
      "JPja": "まあ！　もう帰るの？！\nせっかく　ここまで来たんだし\nもう少し　のんびりしていってよ、",
      "KRko": "어머? 벌써 가려고?!\n모처럼 여기까지 왔는데\n더 느긋하게 있다 가～ !",
      "TWzh": "哎呀！你要回去了嗎！？\n都難得來一趟了，\n再悠閒地多待一下吧，。",
      "USen": "Tut-tut! Leaving already?! I FINALLY\ngot you over here. I'd have thought\nwe'd have more time, .",
      "USes": "¿Ya te quieres ir? ¡Una vez que consigo traerte!\nPensé que podíamos pasar\nmás tiempo juntos, ...",
      "USfr": "Ça alors, tu t'en vas déjà?!\nPour une fois que tu venais... Je\npensais que tu resterais plus\nlongtemps, ."
    }
  },
  {
    "label": "005",
    "attribute": "0x0000000000000000",
    "locale": {
      "CNzh": "哎呀！\n何必这么急着走呢？\n再和我多聊一阵子吧？。",
      "EUde": "Wozu diese Eile, (Floskel)?\nEs gibt doch noch so viel zu\nbesprechen!",
      "EUen": "Mother of pearl! Don't be in such a\nrush to leave, . We still\nhave so much to talk about!",
      "EUes": "Pero ¿adónde vas con tanta prisa?\nAún tenemos tantas cosas de\nlas que hablar... Cuéntame\nalgún cotilleo, .",
      "EUfr": "Tant de précipitation... As-tu\ntellement hâte de partir ?\nNous avons encore tant à nous dire,\n !",
      "EUit": "Per tutti gli sconti! Non avere così\nfretta di andartene. Abbiamo ancora\ntanto di cui parlare, !",
      "EUnl": "Maar hoezo heb je zo'n haast, lieve\nschat?! We hebben nog zoveel te\nbespreken, !",
      "EUru": "Батюшки! Куда же ты так спешишь,\nдорогуша. Мы еще даже не все\nобсудили! !",
      "JPja": "あら！\nそんなに　あわてて　帰ることないじゃない\nもう少し　お話ししましょ？　",
      "KRko": "어머!\n그렇게 서둘러서 가지 말아주겠어?\n나랑 좀 더 이야기 나누자, ～",
      "TWzh": "哎呀！\n沒必要那麼急著回去吧？\n再多陪我聊一下好不好？。",
      "USen": "Mother of pearl! Don't be in such a\nrush to leave, . We still\nhave so much to talk about!",
      "USes": "Pero ¿adónde vas con tanta prisa?\nAún tenemos tantas cosas que\nhablar... Cuéntame algún\nchisme, .",
      "USfr": "Tant de précipitation... As-tu\ntellement hâte de partir?\nNous avons encore tant à nous dire,\n!"
    }
  },
  {
    "label": "006",
    "attribute": "0x0000000000000000",
    "locale": {
      "CNzh": "哎呀！别那么着急嘛！\n你难得来一趟，\n多待一会儿再走吧。。",
      "EUde": "Musst du jetzt schon los? Dann hat\nsich der Aufwand doch kaum gelohnt.\nBleib doch noch, (Floskel)!",
      "EUen": "You're departing? So soon? But you\ncame all that way. Couldn't you stay\na wee bit longer, ?",
      "EUes": "Anda, ¿después de darte el paseo\nhasta aquí, te vas tan pronto?\nQuédate un minuto más, amor.",
      "EUfr": "Tu t'en vas ? Si tôt ? Pour une fois\nque tu étais là... Ne peux-tu vraiment\npas rester,  ?",
      "EUit": "Eh? Te ne vai? Così presto? Ormai\nsei qui. Potresti rimanere un po' di\npiù, . No?",
      "EUnl": "Je gaat op huis aan? Nu al? Maar nu\nje er toch bent, kun je net zo goed\nwat langer blijven, ?",
      "EUru": "Уже уходишь? Ты же только что\nпришел. Может, еще побудешь?\n!",
      "JPja": "あっ！　ちょっと待って！\nせっかく来たんだから、もう少しだけ\nゆっくりしていってちょうだい、",
      "KRko": "앗! 잠깐 기다려!\n기왕 왔는데 더 느긋하게\n놀다 가면 안 될까? ?",
      "TWzh": "啊！請等一下！\n你難得來我家玩，就悠閒一點，\n再多待一下嘛！。",
      "USen": "You're departing? So soon? But you\ncame all that way. Couldn't you stay\na wee bit longer, ?",
      "USes": "Pues, ¿después de venir hasta aquí,\nte vas tan pronto? Quédate un minuto más, cielo.",
      "USfr": "Tu t'en vas? Si tôt? Pour une fois\nque tu étais là... Ne peux-tu vraiment\npas rester, ?"
    }
  },
  {
    "label": "100",
    "attribute": "0x0000000000000000",
    "locale": {
      "CNzh": "啊，我想起来了！\n来，你能收下这个吗？\n这是哦。\n把它当作小礼物带回家吧。",
      "EUde": "Oh, jetzt hätte ich fast vergessen,\ndass ich etwas für dich habe.\n !\nNichts Außergewöhnliches,\nnur eine kleine Erinnerung an\nunser gemütliches Zusammensein!",
      "EUen": "Oh! My goodness! I nearly forgot!\nHere, take this. It's nothing, just\n.\nSimply a souvenir to remind you of\nour time together.",
      "EUes": "¡Espera! Qué cabeza tengo,\npor poco se me olvida darte esto.\nEs  que espero que te sirva como recuerdo de la visita.",
      "EUfr": "Diantre, j'ai failli oublier ! J'avais\nprévu de te donner .\nCe n'est rien d'exceptionnel, tu en\nconviendras. Vois cela comme un\nsouvenir du temps passé ensemble.",
      "EUit": "Oh! Che sbadata! Stavo quasi per\ndimenticarmene! Ecco, è per te:\n.\nNiente di speciale. Solo un ricordo\ndel tempo che abbiamo passato\ninsieme.",
      "EUnl": "O, gossie! Bijna vergeten! Alsjeblieft,\ndit kleinigheidje is voor jou, .\nNiets speciaals, maar gewoon een\nklein aandenken aan ons gezellige\nsamenzijn vandaag.",
      "EUru": "Ой! Батюшки! Совсем забыла!\nДержи, это тебе. Это обычный\n.",
      "JPja": "あっ、そうそう！\nコレ、良かったら受け取ってくれる？\nよ\nお土産に　持って帰るといいわ",
      "KRko": "아 참, 그렇지!\n괜찮으면 이걸 받아주겠어?\n이야～\n선물이라고 생각해줘!",
      "TWzh": "啊，對了對了！\n希望你能收下這個。\n是喔。\n算是我送你的小禮物，請帶回去吧。",
      "USen": "Oh! My goodness! I nearly forgot!\nHere, take this. It's nothing, just\n.\nSimply a souvenir to remind you of\nour time together.",
      "USes": "¡Espera! Qué cabeza tengo,\npor poco se me olvida darte esto.\nEs \nque espero que te sirva\ncomo recuerdo de la visita.",
      "USfr": "Diantre, j'ai failli oublier!\nJ'avais prévu de te donner .\nCe n'est rien d'exceptionnel, tu en\nconviendras. Vois cela comme un\nsouvenir du temps passé ensemble."
    }
  },
  {
    "label": "101",
    "attribute": "0x0000000000000000",
    "locale": {
      "CNzh": "我刚想起来，还有件小礼物\n是打算送给你带回去的哦。\n就是这件，\n希望你能够喜欢它……",
      "EUde": "Da fällt mir ein... Bevor du gehst,\nmöchte ich dir noch etwas geben.\nHoffentlich gefällt dir \n!",
      "EUen": "Oh, that reminds me! Before you go,\nI have something I want to give you.\nI hope you'll be pleased. It's \n. Go on,\nit's all yours.",
      "EUes": "Antes de irte, toma:\n. Espero que te guste.",
      "EUfr": "Ah, j'y pense ! Avant que tu t'en\nailles, j'ai un petit quelque chose\nà te donner.\nJ'espère que ça te plaît d'avoir\n...",
      "EUit": "Prima che me ne dimentichi e prima\nche tu vada, ho una cosa da darti.\nSpero proprio che ti piaccia. Ecco\n.\nÈ per te!",
      "EUnl": "O, er schiet me nog iets te binnen!\nVoordat je weggaat, wil ik je graag\nnog iets geven.\nHopelijk past het in je straatje. Het  . Alsjeblieft, voor jou!",
      "EUru": "Ой, кстати! Пока ты не ушел —\nу меня есть кое-что для тебя.\nНадеюсь, тебе понравится. Это\n.\nБери и пользуйся!",
      "JPja": "そういえば、アナタに\n渡そうと思っていた　お土産があるのよ\nこの　、\n気に入ってもらえると　いいんだけど・・・",
      "KRko": "그러고 보니 당신한테\n주고 싶었던 선물이 있어～\n이 이\n마음에 들었으면 좋겠어...",
      "TWzh": "對了，\n我有件小禮物想送給你。\n這是，\n要是你喜歡的話就好了……",
      "USen": "Oh, that reminds me! Before you go,\nI have something I want to give you.\nI hope you'll be pleased. It's \n. Go on,\nit's all yours.",
      "USes": "Antes de irte, toma:\n.\nEspero que te guste.",
      "USfr": "Ah, j'y pense! Avant que tu t'en\nailles, j'ai un petit quelque chose\nà te donner.\nJ'espère que ça te plaît d'avoir\n..."
    }
  },
  {
    "label": "102",
    "attribute": "0x0000000000000000",
    "locale": {
      "CNzh": "对了对了，我还给你准备了一件礼物。\n是，\n你愿意把它带回去吗？",
      "EUde": "Warte, mir fällt gerade ein, dass ich\ndir etwas geben wollte. Hier, \n!",
      "EUen": "One moment! I nearly forgot! I have\na little souvenir for you. It's \n.",
      "EUes": "¡Ahora que caigo! Te iba a dar\n que tenía para ti.",
      "EUfr": "Un instant ! J'ai failli oublier ton\ncadeau. Tiens, prends donc ce\njoli .",
      "EUit": "Aspetta un attimo! Ho un regalino\nper te. Ecco, tieni. È \n.",
      "EUnl": "Momentje! Ik heb nog iets kleins\nvoor je. Alsjeblieft, het  \n.",
      "EUru": "Секундочку! Чуть не забыла!\nУ меня для тебя кое-что есть:\n.",
      "JPja": "そうそう、アナタに　お土産を用意してるの\nなの、\n持って帰ってくれるかしら？",
      "KRko": "아, 맞다! 당신한테 줄 선물을 준비했어!\n인데\n부디 받아주겠어?",
      "TWzh": "對了對了，我準備了一點小禮物要送你喔。\n這是，\n你願意收下嗎？",
      "USen": "One moment! I nearly forgot! I have\na little souvenir for you. It's \n.",
      "USes": "¡Ahora recuerdo! Te iba a dar\n\nque tenía para ti.",
      "USfr": "Un instant! J'ai failli oublier ton\ncadeau. Tiens, prends donc ce\njoli ."
    }
  },
  {
    "label": "103",
    "attribute": "0x0000000000000000",
    "locale": {
      "CNzh": "呵呵，光是和你\n说上几句话，就感觉自己\n全身都涌出一股气力……\n你今天愿意来家里做客，\n真的太感谢了。。",
      "EUde": "Mit dir zu konversieren versetzt\nmich stets in gute Laune!\nDanke, dass du mich besucht hast!",
      "EUen": "Well, my dear, somehow talking to\nyou always seems to cheer me up.\nThank you so much for coming today!",
      "EUes": "Que digo yo que, si uno se lleva un\nrecuerdo tras visitar un monumento,\nmi casa no va a ser menos.\n¡Gracias por la visita, !\nNos vemos pronto, ¿de acuerdo?",
      "EUfr": "Je passe toujours un bon moment\nen ta compagnie, tu sais. Merci\nbeaucoup d'être venu !",
      "EUit": "Sai, in qualche modo parlare con te\nmi fa sempre sentire meglio. Ti\nringrazio per la tua visita!",
      "EUnl": "Door met jou te spreken is mijn\nhumeur flink opgeklaard. Bedankt\nvoor je gezelschap vandaag!",
      "EUru": "Знаешь, дорогуша, от разговоров\nс тобой у меня всегда настроение\nулучшается. Спасибо за визит!",
      "JPja": "うふふ、なんだかアタシ、\nアナタと　お話ししてると\n元気が出るみたい\n今日は　遊びに来てくれて\nホントに　ありがとう、",
      "KRko": "우후훗, 왠지 나는\n당신이랑 대화하고 있으면\n기운이 나는 것 같아～\n오늘은 놀러와줘서\n정말 고마워～ !",
      "TWzh": "呵呵呵，\n總覺得和你聊完天以後，\n我變得更有精神了呢。\n今天真的很謝謝你\n來找我玩，。",
      "USen": "Well, my dear, somehow talking to\nyou always seems to cheer me up.\nThank you so much for coming today!",
      "USes": "Mira, si uno se lleva un recuerdo después de visitar un monumento,\nmi casa no va a ser menos.\n¡Gracias por la visita, !\nNos vemos pronto, ¿de acuerdo?",
      "USfr": "Je passe toujours un bon moment\nen ta compagnie, tu sais. Merci\nbeaucoup d'être venu!"
    }
  },
  {
    "label": "104",
    "attribute": "0x0000000000000000",
    "locale": {
      "CNzh": "我今天真的很开心。\n与你分别令我依依不舍……\n回家路上一定要当心哦。。",
      "EUde": "Ich habe deinen Besuch\nsehr genossen. Komm gut\nnach Hause!",
      "EUen": "I had such a fabulous time today!\nParting is such sweet sorrow.\nNow, get home safe!",
      "EUes": "Ya sí te dejo irte, primor.\nMuchas gracias por la visita, .",
      "EUfr": "J'ai beaucoup aimé partager ce\nmoment avec toi ! Je n'ai plus\nqu'à te souhaiter un bon retour.",
      "EUit": "Sono stata davvero bene con te! Al\nmomento dei saluti, divento sempre\nun po' triste. Ci vediamo presto!",
      "EUnl": "Ik heb het vandaag heerlijk naar mijn\nzin gehad! Afscheid nemen is altijd\nzo bitterzoet. Pas goed op jezelf!",
      "EUru": "Я так чудно провела время!\nМне всегда тяжело расставаться.\nДоброго пути!",
      "JPja": "今日は　ホントに　楽しかったわ\n名残おしいけど\n気をつけて帰ってね、",
      "KRko": "오늘은 정말 즐거웠어～\n아쉽기는 하지만 \n조심해서 돌아가～ !",
      "TWzh": "今天真的玩得好開心喔。\n真捨不得你回去……\n記得回家路上要小心喔，。",
      "USen": "I had such a fabulous time today!\nParting is such sweet sorrow.\nNow, get home safe!",
      "USes": "Ahora te dejo que te vayas, primor.\nMuchas gracias por la visita, .",
      "USfr": "J'ai beaucoup aimé partager ce\nmoment avec toi! Je n'ai plus\nqu'à te souhaiter un bon retour."
    }
  },
  {
    "label": "105",
    "attribute": "0x0000000000000000",
    "locale": {
      "CNzh": "今天真的非常感谢你。\n下次有机会，\n我也去你家里做客吧。。",
      "EUde": "Vielen Dank, dass du heute bei mir\nwarst! Vielleicht können wir uns\ndas nächste Mal bei dir treffen.",
      "EUen": "Thank you so much for today!\nPerhaps next time you can have\nme over to your house.",
      "EUes": "No te entretengo más, .\nYa volveremos a quedar, ¿vale?\n¿Quizá la próxima vez en tu casa?",
      "EUfr": "Merci pour ta visite ! Une prochaine\nfois, j'aimerais beaucoup que tu me\nfasses visiter ton chez-toi.",
      "EUit": "Ti ringrazio molto per oggi! Magari\nla prossima volta, possiamo vederci\na casa tua.",
      "EUnl": "Ontzettend bedankt voor vandaag!\nWellicht kan ik een volgende keer bij\njou op visite komen.",
      "EUru": "Большое спасибо за визит!\nВ следующий раз мы можем\nсходить к тебе.",
      "JPja": "今日は　ホントにありがとう\nまた　アナタの家にも\n遊びに行かせてね、",
      "KRko": "오늘은 정말 고마워!\n다음엔 당신네 집에도 \n놀러가게 해주겠어? ?",
      "TWzh": "今天真的很謝謝你。\n下次有機會的話，\n也讓我去你家玩吧，。",
      "USen": "Thank you so much for today!\nPerhaps next time you can have\nme over to your house.",
      "USes": "No te entretengo más, .\nYa volveremos a vernos, ¿sí?\n¿Quizás la próxima en tu casa?",
      "USfr": "Merci pour ta visite! Une prochaine\nfois, j'aimerais beaucoup que tu me\nfasses visiter ton chez-toi."
    }
  },
  {
    "label": "106",
    "attribute": "0x0000000000000000",
    "locale": {
      "CNzh": "……虽然我是这么想的，\n但是，，\n你身上带的东西已经够多了。\n我之后再把小礼物寄给你吧！\n真心感谢你\n今天能过来玩！。",
      "EUde": "Nun, deine Platzkapazitäten scheinen\nbereits ausgereizt zu sein. Dafür gibt\nes aber eine einfache Lösung.\nIch schicke dir das Präsent\npostalisch zu. Ach, und vielen\nDank auch für deinen Besuch.",
      "EUen": "Of course, you don't have room to\ncarry it, so never you mind. I'll just\nsend it along later.\nNow, thank you for coming to visit.\nWhat a pleasure it has been.",
      "EUes": "Ah, pero no tienes dónde llevarte\nesto. No importa, te lo envío por\ncorreo. ¡Y gracias por la visita!",
      "EUfr": "Mais enfin, (surnom)...\nTu n'as aucun endroit où ranger\ncela.\nNe t'en fais pas, je ferai déposer\nça dans ta boîte aux lettres. Merci\nencore pour ta visite !",
      "EUit": "Chiaramente, non hai spazio nelle\ntasche. Niente paura. Te lo farò\navere in un secondo momento.\nGrazie ancora per la visita. È stato\nun vero piacere!",
      "EUnl": "Je hebt geen plek voor mijn\npresentje, maar dat maakt niks uit,\nhoor! Ik stuur het later naar je op.\nBedankt voor je komst. Het was me\neen waar genoegen!",
      "EUru": "Ох... У тебя же больше нет места!\nТак ничего не унесешь.\nНичего страшного. Ты получишь\nвсе позже по почте. А сейчас —\nпремного благодарю за визит.",
      "JPja": "・・・と思ったんだけど\n、\nもちものが　いっぱいじゃない\nお土産は、あとで送っておくわね！\n今日は　遊びに来てくれて\nありがとう、",
      "KRko": "그런데...\n\n짐이 뭐 그렇게 많아～?\n내 선물은 나중에 보내줄게!\n오늘은 놀러와줘서 고마워! !",
      "TWzh": "本來……我是這麼想的，\n不過，\n你的持有物品已經滿了唷。\n晚點我再幫你把小禮物送過去吧！\n今天真的很謝謝你\n來找我玩，。",
      "USen": "Of course, you don't have room to\ncarry it, so never you mind. I'll just\nsend it along later.\nNow, thank you for coming to visit.\nWhat a pleasure it has been.",
      "USes": "Uy, pero no tienes dónde llevarte\nesto. No importa, te lo envío por\ncorreo. ¡Y gracias por la visita!",
      "USfr": "Oh non, (surnom)...\nTu n'as aucun endroit où ranger\ncela, j'en ai peur.\nNe t'en fais pas, je ferai déposer\nça dans ta boîte aux lettres. Merci\nencore pour ta visite!"
    }
  },
  {
    "label": "200",
    "attribute": "0x0000000000000000",
    "locale": {
      "CNzh": "我想到了！\n这样吧，你愿不愿意收下\n我最喜欢的这首曲子？\n它叫。\n作为第一次邀请你来我家的纪念，\n我想把它当作礼物给你。",
      "EUde": "Oh! Darf ich dir eines meiner Lieb-\nlingsstücke mit auf den Weg geben,\n„“?\nAuf dass dir diese denkwürdige erste\nEinladung meinerseits noch lange\nin Erinnerung bleiben möge!",
      "EUen": "Oh! If you don't mind, might I force\none of my favorite songs on you?\nIt's .\nConsider it my gift to commemorate\nthe first time I invited you to visit\nmy home.",
      "EUes": "Huy, pero antes ¿por qué no te\nllevas un recuerdo de la visita?\nMira, esta es una canción a la que\nle tengo mucho cariño.\nOjalá cada vez que oigas\n«» te acuerdes de mí.",
      "EUfr": "J'allais oublier ! Je tenais à t'offrir \nun de mes morceaux préférés.\n«  » !\nAprès tout, c'est la première fois\nque tu es invité chez moi, et ça,\nça se fête !",
      "EUit": "Ah! Se non ti dispiace, vorrei poterti\ndare in regalo una delle mie canzoni\npreferite.\nTieni. \"\" ti ricorderà della prima volta che ti ho invitato a casa mia.",
      "EUnl": "O! Als je het niet erg vindt, dring ik\nje graag nog een van mijn favoriete\nliedjes op.\nIs \"⁠⁠\" geen geweldig aandenken aan je eerste officiële bezoekje aan mij?",
      "EUru": "Послушай, я тут подумала... Я хочу\nподарить тебе песню! А именно эту:\n«»!\nТак сказать, сувенир на память.\nТы ведь в первый раз принял\nмое приглашение!",
      "JPja": "そうだわ！\nよかったら、アタシの　お気に入りの曲を\nもらってくれない？\nよ\n初めて　アタシの家に　招待した記念に\nプレゼントするわ",
      "KRko": "아 참!\n혹시 괜찮으면 내가 좋아하는 곡을\n받아주겠어?\n인데\n우리 집에 처음 초대한 기념으로\n당신한테 선물하고 싶어～",
      "TWzh": "對了！\n不嫌棄的話，不知道你願意收下\n我喜歡的這首曲子嗎？\n就是〈〉。\n我想送你這首曲子當禮物，\n當作是你第一次來我家玩的紀念喔。",
      "USen": "Oh! If you don't mind, might I force\none of my favorite songs on you?\nIt's .\nConsider it my gift to commemorate\nthe first time I invited you to visit\nmy home.",
      "USes": "Ah, pero antes ¿por qué no te\nllevas un recuerdo de la visita?\nMira, esta es una canción a la que\nle tengo mucho cariño.\nOjalá cada vez que escuches\n\"\" te acuerdes de mí.",
      "USfr": "J'allais oublier! Je tenais à t'offrir \nun de mes morceaux préférés.\n«  »!\nAprès tout, c'est la première fois\nque tu es invité chez moi, et ça,\nça se fête!"
    }
  },
  {
    "label": "201",
    "attribute": "0x0000000000000000",
    "locale": {
      "CNzh": "先等一下，\n在你回去前，我有点东西给你。\n这是我非常喜欢的曲子，\n。\n请收下吧，作为第一次邀请你来我家的纪念。",
      "EUde": "Oh! Warte einen Moment!\nIch habe hier noch etwas,\ndas ich dir überreichen möchte.\n„“ ist ein Stück, das ich geradezu vergöttere.\nBitte nimm es als eine Art Andenken\nan diese erste Einladung zu mir nach\nHause an!",
      "EUen": "Oh! Just a moment! Before you go,\nI have a song I want to give you. It's\ncalled .\nIt is one of my very favorites.\nTake it as a memento of the first\ntime I invited you to visit me here.",
      "EUes": "¡Ah, pero espera! Quería darte algo.\n«» es una de mis canciones favoritas...\nEspero que al oírla te acuerdes\nde aquella primera visita oficial\na Villa (resident name)...",
      "EUfr": "Oh ! Mais où ai-je la tête ? J'avais\nquelque chose à te donner.\n«  » !\nC'est un de mes morceaux préférés.\nEn souvenir de ta première invitation\nchez moi !",
      "EUit": "Oh, un attimo solo! Prima che tu\nvada, c'è una cosa che vorrei darti:\n\"\".\nÈ una delle mie canzoni preferite.\nSai, come ricordo della prima volta\nche ti ho invitato qui da me.",
      "EUnl": "O! Een momentje! Voordat je gaat,\nheb ik nog een kleinigheidje voor je.\n\"\" is een van mijn favoriete liedjes.\nZie het als een aandenken aan de\neerste keer dat ik je op bezoek heb\ngevraagd!",
      "EUru": "О! Секундочку! Пока ты не ушел,\nя хочу тебе подарить одну песню:\n«».\nЭто одна из моих самых любимых.\nВозьми на память, ты же в первый\nраз принял мое приглашение!",
      "JPja": "ちょっとまって、\n帰る前に　渡したいものがあるの\n、\nアタシの　お気に入りの曲よ\n初めて　お家に招待した記念に　受け取って",
      "KRko": "잠깐만!\n가기 전에 주고 싶은 게 있어～\n인데\n내가 좋아하는 곡이야!\n당신을 처음 초대한 기념으로 선물할게～",
      "TWzh": "等一下，\n在你回去前，我有東西想送給你呢。\n這首〈〉\n是我很喜歡的一首曲子喔。\n就當作是你第一次來我家玩的紀念，收下吧。",
      "USen": "Oh! Just a moment! Before you go,\nI have a song I want to give you. It's\ncalled .\nIt is one of my very favorites.\nTake it as a memento of the first\ntime I invited you to visit me here.",
      "USes": "¡Ah, pero espera! Quería darte algo.\n\"\" es una de mis canciones favoritas...\nEspero que al escucharla te acuerdes\nde aquella primera visita oficial\na Villa (resident name)...",
      "USfr": "Oh! Mais où ai-je la tête? J'avais\nquelque chose à te donner.\n«  »!\nC'est un de mes morceaux préférés.\nEn souvenir de ta première invitation\nchez moi!"
    }
  },
  {
    "label": "202",
    "attribute": "0x0000000000000000",
    "locale": {
      "CNzh": "如果也能喜欢，\n我就再高兴不过了。\n那么再见啦！。",
      "EUde": "Vielleicht gefällt es dir ja auch, (Spitzname). Bis zum nächsten Mal, (Floskel).",
      "EUen": "I do hope you enjoy it as much as\nI have, (nickname). Well then,\nuntil next time, .",
      "EUes": "Espero que te guste tanto como a mí.\nAhora sí, ¡hasta la próxima, !",
      "EUfr": "J'espère que nous avons les mêmes\ngoûts en matière de musique. À la\nprochaine fois,  !",
      "EUit": "Spero che piaccia anche a te, (nickname). Ciao, allora. Alla prossima, .",
      "EUnl": "Hopelijk geniet je er net zoveel van als ik, (nickname). Goed, tot de volgende keer, .",
      "EUru": "Надеюсь, тебе у меня понравилось,\n(nickname). Спасибо, что\nзашел. До встречи. !",
      "JPja": "にも\n気に入ってもらえたら　嬉しいわ\nそれじゃ　またね、",
      "KRko": " 당신도\n마음에 들었으면 좋겠어～\n그럼 또 봐, ～",
      "TWzh": "如果\n也喜歡的話，我會很高興的。\n那就再見囉，。",
      "USen": "I do hope you enjoy it as much as\nI have, (nickname). Well then,\nuntil next time, .",
      "USes": "Espero que te guste tanto como a mí.\nAhora sí, ¡hasta la próxima, !",
      "USfr": "J'espère que nous avons les mêmes\ngoûts en matière de musique. À la\nprochaine fois, !"
    }
  },
  {
    "label": "203",
    "attribute": "0x0000000000000000",
    "locale": {
      "CNzh": "你一定要在家里听一听哦。\n那么再见啦，\n！。",
      "EUde": "Höre doch bei nächster Gelegenheit\neinmal rein, (Spitzname), ja?\nAuf Wiedersehen, (Floskel)!",
      "EUen": "Do give it a listen when you get\nhome, (nickname). Alright,\nthen—ta ta for now, .",
      "EUes": "Escúchalo cuando llegues a casa\ny ya me dirás qué te parece, . ¡Hasta entonces!",
      "EUfr": "Écoute-le en arrivant, tu m'en diras\ndes nouvelles. Merci encore pour ta\nvisite, .",
      "EUit": "Ascoltala quando torni a casa, (nickname). D'accordo, allora. Ciao, ciao, .",
      "EUnl": "Luister er thuis maar eens goed naar, (nickname). Ciao ciao, .",
      "EUru": "Послушай, когда домой придешь,\n(nickname). А пока —\nпока-пока. !",
      "JPja": "ぜひ、お家で　聞いてみてちょうだい\nじゃあ、またね\n、",
      "KRko": "꼭 집에 가서 들어봐!\n그럼 다음에 또 봐～\n! ～",
      "TWzh": "回家後請一定要聽聽看喔。\n，\n那就先再見囉，。",
      "USen": "Do give it a listen when you get\nhome, (nickname). Alright,\nthen—ta ta for now, .",
      "USes": "Escúchalo cuando llegues a tu casa\ny me dirás qué te parece, . ¡Hasta entonces!",
      "USfr": "Écoute-le en arrivant, tu m'en diras\ndes nouvelles. Merci encore pour ta\nvisite, ."
    }
  }
]