﻿[
  {
    "label": "001",
    "attribute": "0x00000000",
    "locale": {
      "CNzh": "你好，你好！\n(player name)！",
      "EUde": "Grüß dich, (Spielername)!",
      "EUen": "Hello, (player name)!",
      "EUes": "¡Hola, (player name)!",
      "EUfr": "Bonjour, (nom du joueur) !",
      "EUit": "Salve, (player name)!",
      "EUnl": "Hallo, (player name)!",
      "EUru": "(player name)! Приветствую.",
      "JPja": "どーも、どーも！\n(player name)さん！",
      "KRko": "안녕!\n(player name)님!",
      "TWzh": "你好，你好！\n(player name)！",
      "USen": "Hello, (player name)!",
      "USes": "¡Hola, (player name)!",
      "USfr": "Bonjour, (nom du joueur)!"
    }
  },
  {
    "label": "002",
    "attribute": "0x00000000",
    "locale": {
      "CNzh": "K.K.的现场演唱会还不错吧？\n我心心念念的现场演唱会终于实现了，\n我真的太幸福狸！",
      "EUde": "Na, hat dir das Konzert von K.K.\nauch gefallen? Ich bin so froh,\ndass er bei uns aufgetreten ist!",
      "EUen": "Did you enjoy K.K.'s concert? It was\nwonderful, wasn't it? I'm overjoyed\nthat we could get him to play here!",
      "EUes": "¿Te ha gustado el concierto\nde Totakeke? Ha sido genial, ¿no?\n¡Qué bien que haya podido venir!",
      "EUfr": "Qu'as-tu pensé de la prestation du\ngrand Kéké ? Éblouissante, hm ?\nQuelle joie d'avoir pu l'accueillir !",
      "EUit": "Ti è piaciuto il concerto di K.K.? Un\nsuccessone, vero? Essere riusciti a\ninvitarlo qui mi riempie d'orgoglio!",
      "EUnl": "Heb je genoten van K.K.'s concert?\nGeweldig, vond je niet? Ik ben zo\ngelukkig dat hij hier kwam spelen.",
      "EUru": "Как тебе концерт К. К.? Просто\nгениально, не так ли? Я так рад,\nчто он приехал к нам на гастроли!",
      "JPja": "とたけけさんのライブ、楽しんでくれたかな？\n念願のライブを　実現できて\nボクは　とっても幸せなんだも！",
      "KRko": "K.K.씨의 라이브, 재미있었어?\n염원하던 라이브가 실현돼서\n난 정말 행복해구리!",
      "TWzh": "K.K.的現場演唱會是不是還不錯狸？\n我夢寐以求的現場演唱會終於實現了，\n我真的太幸福狸！",
      "USen": "Did you enjoy K.K.'s concert? It was\nwonderful, wasn't it? I'm overjoyed\nthat we could get him to play here!",
      "USes": "¿Te gustó el concierto de Totakeke?\nEstuvo genial, ¿no?\n¡Qué bueno que haya podido venir!",
      "USfr": "Qu'as-tu pensé de la prestation du\ngrand Kéké? Éblouissante, hm?\nQuelle joie d'avoir pu l'accueillir!"
    }
  },
  {
    "label": "003",
    "attribute": "0x00000000",
    "locale": {
      "CNzh": "为了纪念今天这个特别的日子，\n我要将刚才演唱会上的那首“大家集合吧”\n送给你狸！",
      "EUde": "So was Wunderbares! Hier, zur\nFeier des Anlasses schenke ich dir\nsein Lied „Neue Horizonte“!",
      "EUen": "It's a special thing, for sure. As a\ncommemorative gift, I have his song\nWelcome Horizons for you!",
      "EUes": "Ha sido todo un acontecimiento,\nasí que quiero regalarte una de sus\ncanciones: ¡«Nuevo horizonte»!",
      "EUfr": "Ça n'arrive pas tous les jours, non,\nnon. Pour fêter ça, voici une chanson\nen cadeau : « Horizons nouveaux » !",
      "EUit": "È stato un trionfo, di sicuro. E in\nricordo, ti regalo una sua canzone,\nNuovi orizzonti! Solo per te!",
      "EUnl": "Het was echt heel mooi, ja, ja. Als\naandenken heb ik zijn nummer\n\"Welkome horizon\" voor je!",
      "EUru": "Это было незабываемо, да-да!\nА вот тебе от меня на память его\nпесня «Светлые горизонты»!",
      "JPja": "今日の　この特別な日の　思い出に\nライブで演奏された「みんなあつまれ」の\nミュージックを　プレゼントするだなも！",
      "KRko": "오늘의 이 특별한 추억을 남기고자\n라이브 연주가 담긴 '모두 모여봐요'\n음악을 선물할게구리!",
      "TWzh": "我要將剛剛在現場演唱會中\n聽到的那首「大家集合吧」送給你，\n作為今天這個特別日子的紀念狸！",
      "USen": "It's a special thing, for sure. As a\ncommemorative gift, I have his song\nWelcome Horizons for you!",
      "USes": "Fue todo un acontecimiento,\nasí que quiero regalarte una de sus\ncanciones: ¡\"Nuevo horizonte\"!",
      "USfr": "Ça n'arrive pas tous les jours, non,\nnon. Pour fêter ça, voici une chanson\nen cadeau : « ⁠Horizons nouveaux »!"
    }
  },
  {
    "label": "003_00",
    "attribute": "0x00000000",
    "locale": {
      "CNzh": "为了纪念在这座岛上举办现场演唱会，\n我要将当天演奏的那首“大家集合吧”\n送给你狸！",
      "EUde": "Hier, zur Feier des Konzerts auf\ndieser Insel schenke ich dir sein\nLied „Neue Horizonte“!",
      "EUen": "To commemorate his island concert,\nI have the song he performed,\nWelcome Horizons, as a gift!",
      "EUes": "Quiero regalarte «Nuevo horizonte»,\nla canción que ha tocado, para\nconmemorar su concierto.",
      "EUfr": "Pour commémorer son concert sur\nl'île, je t'offre une des chansons qu'il\na jouées : « Horizons nouveaux » !",
      "EUit": "Per celebrare il suo concerto isolano,\nho qui la canzone che ha eseguito,\nNuovi orizzonti, da donarti in regalo!",
      "EUnl": "Ter ere van zijn eilandconcert heb\nik het nummer dat hij gespeeld heeft,\nWelkome horizon, voor je!",
      "EUru": "А вот тебе от меня на память\nпесня «Светлые горизонты», которую он исполнял!",
      "JPja": "このでの　ライブ開催の記念に\n当日、演奏された「みんなあつまれ」の\nミュージックを　プレゼントするだなも！",
      "KRko": "이 에서 라이브가 열린 것을 기념해서\n그날 연주된 '모두 모여봐요'의 음악을\n선물할게구리!",
      "TWzh": "為了紀念在島上舉辦現場演唱會，\n我將把當天演奏的那首「大家集合吧」\n贈送給你狸！",
      "USen": "To commemorate his island concert,\nI have the song he performed,\nWelcome Horizons, as a gift!",
      "USes": "Para conmemorar su concierto,\nquiero regalarte la canción que\ntocó: \"Nuevo horizonte\".",
      "USfr": "Pour commémorer son concert sur\nl'île, je t'offre une des chansons qu'il\na jouées : « ⁠Horizons nouveaux »!"
    }
  },
  {
    "label": "003_01",
    "attribute": "0x00000000",
    "locale": {
      "CNzh": "只要有可以播放音乐的\n音响类家具就可以听了。\n请好好享受音乐的乐趣吧。",
      "EUde": "Du brauchst nur etwas, das Musik\nabspielen kann, dann kannst du es\nanhören! Viel Vergnügen!",
      "EUen": "To listen to it, you'll need an item\nthat can play music. And I do hope\nyou enjoy it!",
      "EUes": "Para escucharla hazte con un objeto\nque te permita reproducir música,\n¡y a disfrutar, sí, sí!",
      "EUfr": "Trouve un objet permettant d'écouter\nde la musique, ouvre grand tes\noreilles... et laisse-toi emporter !",
      "EUit": "Per ascoltarla, hai bisogno di un\noggetto che possa riprodurre la\nmusica. Spero che ti piaccia!",
      "EUnl": "Om ernaar te luisteren heb je iets\nnodig wat muziek kan afspelen. Ik\nhoop dat je het leuk vindt!",
      "EUru": "Чтобы ее послушать, тебе нужно\nчто-то, на чем можно проигрывать\nмузыку. Надеюсь, тебе понравится!",
      "JPja": "ミュージックを再生できる\nオーディオの家具があれば　聴けるから、\n音楽を　楽しんでちょうだいね",
      "KRko": "음악을 재생할 수 있는\n오디오 가구가 있으면 들을 수 있으니까\n부디 즐겁게 들어줘구리!",
      "TWzh": "只要有播放音樂功能的\n音響類家具就能聽了。\n好好享受音樂帶來的樂趣吧。",
      "USen": "To listen to it, you'll need an item\nthat can play music. And I do hope\nyou enjoy it!",
      "USes": "Para escucharla consigue un objeto\nque te permita reproducir música,\n¡y a disfrutar, sí, sí!",
      "USfr": "Trouve un objet permettant d'écouter\nde la musique, ouvre grand tes\noreilles... et laisse-toi emporter!"
    }
  },
  {
    "label": "003_02",
    "attribute": "0x00000000",
    "locale": {
      "CNzh": "我会邮寄给你，\n请收到后好好享受音乐的乐趣吧。",
      "EUde": "Ich schicke es dir einfach per Post,\nja? Hör's dir doch mal an!",
      "EUen": "I'll send it to you in the mail, so give\nit a listen when you can, hm?",
      "EUes": "Te la enviaré por correo, así que\nescúchala cuando tengas un rato,\n¿sí?",
      "EUfr": "Je t'envoie ça directement dans ta\nboîte aux lettres, et te souhaite une\nbonne écoute d'avance, oui oui !",
      "EUit": "Te la manderò per posta. Ascoltala\nappena hai tempo. D'accordo?",
      "EUnl": "Ik zal het via de post naar je toe\nsturen, dus luister er eens naar als je\neven de tijd hebt, hm?",
      "EUru": "Я отправлю тебе песню по почте.\nПослушай, когда будет желание!",
      "JPja": "郵便で　送っておくから、\n届いたら　音楽を楽しんでちょうだいね",
      "KRko": "우편으로 보내줄 테니까\n도착하면 즐겁게 들어줘구리",
      "TWzh": "我會郵寄給你，等你收到之後，\n再好好享受音樂帶來的樂趣吧。",
      "USen": "I'll send it to you in the mail, so give\nit a listen when you can, hm?",
      "USes": "Te la enviaré por correo, así que\nescúchala cuando tengas un rato,\n¿sí?",
      "USfr": "Je t'envoie ça directement dans ta\nboîte aux lettres, et te souhaite une\nbonne écoute d'avance, oui oui!"
    }
  },
  {
    "label": "004",
    "attribute": "0x00000000",
    "locale": {
      "CNzh": "对了对了！还有啊！\nK.K.好像非常喜欢这座岛狸！\n所以，他以后每周六晚上\n都会来开现场演唱会，\n(player name)，敬请期待哦！",
      "EUde": "Ach ja! Und noch was Tolles!\nK.K. hat unser kleines Inselchen\nanscheinend richtig gut gefallen!\nEr meinte, er würde ab sofort jeden\nSamstag am Abend bei uns spielen!",
      "EUen": "Ah! I have some big news too!\nK.K. is apparently very fond of our\nisland now.\nHe's going to perform a show here\nevery Saturday evening from now on!",
      "EUes": "¡Ah, también tengo noticias!\nParece que a Totakeke le ha gustado\nmucho nuestra isla...\n¡Y desde ahora va a tocar aquí\ntodos los sábados por la tarde!",
      "EUfr": "Ah, et tu ne sais pas le meilleur !\nNotre île a tapé dans l'œil de Kéké...\nRésultat, on aura droit à un concert\ntous les samedis soirs !",
      "EUit": "Ah! Ho anche delle grandi notizie!\nK.K. si è appassionato tantissimo\nalla nostra isola.\nD'ora in poi terrà un concerto qui\nogni sabato sera!",
      "EUnl": "O! Ik heb ook nog groot nieuws!\nBlijkbaar is K.K. helemaal weg van\nons eiland.\nHij gaat hier vanaf nu elke\nzaterdagavond een show geven!",
      "EUru": "А! У меня для тебя отличная\nновость!\nК. К. так понравился наш остров,\nчто он собирается каждую субботу\nдавать здесь вечерние концерты!",
      "JPja": "そうそう！　それとね！\nとたけけさん、この島のことを\nとっても　気に入ってくれたみたいなんだも！\nそれで、これからも　毎週土曜の夜に\nライブに　来てくれることに　なったから、\n(player name)さんも　お楽しみにー！",
      "KRko": "아 참! 그리고 있지!\nK.K.씨, 우리 섬이\n아주 마음에 들었나 봐구리!\n그래서 앞으로도 매주 토요일 밤에\n라이브를 하러 온다고 하니까\n(player name)님도 기대해줘!",
      "TWzh": "對了對了！還有啊！\nK.K.說\n他相當喜歡這座島狸！\n所以他決定以後\n每週六晚上都要來開現場演唱會。\n(player name)，敬請期待～！",
      "USen": "Ah! I have some big news too!\nK.K. is apparently very fond of our\nisland now.\nHe's going to perform a show here\nevery Saturday evening from now on!",
      "USes": "¡Ah, también tengo noticias!\nParece que a Totakeke le gustó\nmucho nuestra isla...\n¡Y desde ahora va a tocar aquí\ntodos los sábados por la tarde!",
      "USfr": "Ah, et tu ne sais pas le meilleur!\nNotre île a tapé dans l'œil de Kéké...\nRésultat, on aura droit à un concert\ntous les samedis soirs!"
    }
  },
  {
    "label": "005",
    "attribute": "0x00000000",
    "locale": {
      "CNzh": "话又说回来……\n\n从最初的无人岛发展到现在，\n连现场演唱会都有了……\n所有这一切，都多亏了\n参加移居计划的(player name)\n以及各位居民狸！\n我今后也要永远留在\n快乐的上，\n还请大家继续请多多关照！",
      "EUde": "Wenn man's mir früher erzählt hätte,\nich hätte es ja nie geglaubt...\n, einst eine verlassene Insel, ist nun eine Location für erlesenste Konzerte...\nIch kann dir gar nicht genug danken!\nUnd allen anderen auf der Insel!\nMein Paket war ein voller Erfolg!\nIch hoffe, dass  auch künftig immer schöner und lebenswerter wird!\nDu hast so viel zu unserem Glück\nbeigetragen – kein Zweifel, mit dir\nhaben wir eine goldene Zukunft!",
      "EUen": "It really is amazing...\n was once a\ndeserted island, but now we\ncan host important concerts...\nI'm so thankful to you and everyone\nelse on this island! I guess my\ngetaway-package idea is a success!\nI hope  remains\nan enjoyable place to live for a long\ntime to come. With your help, it will.",
      "EUes": "Pensándolo bien, todo esto está\nsiendo alucinante...\n era una simple isla desierta y ya estamos celebrando conciertos multitudinarios...\n¡Todo gracias a ti y al resto de\nlos residentes! ¡Qué idea más genial\nla de poblar este lugar!\nEspero que  continúe siendo un sitio ideal para disfrutar de la vida...\n¡Y, con tu ayuda, estoy seguro\nde que esto será así por siempre\njamás!",
      "EUfr": "Quand j'y pense... Il fut un temps où  était un caillou perdu dans l'océan...\nEt voilà que c'est devenu un\nrendez-vous incontournable\npour tous les mélomanes !\nJe ne vous remercierai jamais assez,\ntoi et les autres, d'avoir contribué au\nsuccès de la formule Évasion !\nJ'espère qu'il fera toujours aussi bon\nvivre à , et avec toi, je n'en doute pas un instant !",
      "EUit": "È veramente incredibile...\nUn tempo  era un'isola deserta, ma ora si tengono concerti di artisti famosissimi...\nRingrazio te e tutti gli altri abitanti!\nModestamente, l'idea del Pacchetto\nisola deserta è stata grandiosa!\nMi auguro che  rimanga a lungo un'isola su cui tutti possono vivere felici.\nSono certo che con il tuo aiuto,\npotrò renderlo possibile.",
      "EUnl": "Het is echt geweldig...\n was ooit een verlaten eiland, maar nu organiseren we er grote concerten...\nIk ben jou en iedereen op dit eiland\nheel dankbaar! Mijn idee voor het\nEilandleven-pakket is een succes!\nHopelijk woont iedereen nog lang vol plezier op . Met jouw hulp, moet dat lukken.",
      "EUru": "Знаешь, даже не верится...\nОстров  когда-то был необитаемым, а теперь здесь проходят роскошные концерты...\nЯ так благодарен тебе и остальным!\nПакет услуг «Необитаемый остров»\nоправдал все мои ожидания! \nНадеюсь, остров \nтак и останется райским уголком.\nС твоей помощью — точно!",
      "JPja": "それにしても・・・\n無人島だった　このが\nここまで発展して\nライブまで　するようになって・・・\nすべて、移住パッケージに　参加してくれた\n(player name)さんを　始めとする\nみなさんの　おかげなんだも！\n今後も　末永く　楽しく暮らせる\nで　ありたいから、\n引き続き　よろしくね！",
      "KRko": "그건 그렇고...\n처음엔 무인도였던\n이 이\n이렇게 발전해서 공연도 열리게 되다니...\n이게 전부 다 이주 플랜에 참가해준\n(player name)님을 비롯한\n여기 주민분들 덕분이야구리!\n앞으로도 오래오래 즐겁게 살 수 있는\n을 만들 테니까\n계속해서 잘 부탁해구리!",
      "TWzh": "話說回來……\n\n從最初的無人島到現在蓬勃發展，\n連現場演唱會都有了……\n這一切都要感謝\n參加移居計畫的(player name)\n及各位的幫忙狸！\n我今後也想一直留在\n這座快樂的上，\n要繼續請大家多多關照狸！",
      "USen": "It really is amazing...\n was once a\ndeserted island, but now we\ncan host important concerts...\nI'm so thankful to you and everyone\nelse on this island! I guess my\ngetaway-package idea is a success!\nI hope  remains\nan enjoyable place to live for a long\ntime to come. With your help, it will.",
      "USes": "Es increíble pensar que...\n era una simple isla desierta y ya estamos celebrando conciertos multitudinarios...\n¡Todo gracias a ti y al resto de\nlos residentes! ¡Qué idea más genial\nla de poblar este lugar!\nEspero que  continúe siendo un lugar ideal para disfrutar de la vida...\n¡Y, con tu ayuda, estoy seguro\nde que será así para siempre!",
      "USfr": "Quand j'y pense... Il fut un temps où  était un caillou perdu dans l'océan...\nEt voilà que c'est devenu un\nrendez-vous incontournable\npour tous les mélomanes!\nJe ne vous remercierai jamais assez,\ntoi et les autres, d'avoir contribué au\nsuccès du forfait Évasion!\nJ'espère qu'il fera toujours aussi bon\nvivre à , et avec toi, je n'en doute pas un instant!"
    }
  },
  {
    "label": "006",
    "attribute": "0x00000000",
    "locale": {
      "CNzh": "那么，为了能生活更便利，\n作为岛屿建设支援的一环，\n我还开发了一个新的软件狸！\n我这就发送给\n(player name)吧。",
      "EUde": "Ach, und beim Thema Zukunftsmusik:\nIch hätte da eine nooktastische neue\nApp für dich!\nDie macht unsere Insel noch toller\nund attraktiver. Hier, ich schicke sie\ndir gleich aufs NookPhone, ja, ja!",
      "EUen": "Speaking of which, I've developed a\nnew app that should help you make\nthe island even more inviting.\nLet me send it to you now.",
      "EUes": "A propósito de esto, ¡he creado\nuna nueva aplicación que convertirá\nesta isla en un sitio aún mejor!\nTe la envío, ¿sí?",
      "EUfr": "Au fait, j'ai mis au point une nouvelle\nappli pour t'aider à rendre notre île\nencore plus accueillante.\nAttends, je t'envoie ça tout de suite.",
      "EUit": "A proposito, ho sviluppato una nuova\napplicazione che dovrebbe rendere\nl'isola ancora più invitante.\nTe la spedisco subito.",
      "EUnl": "Daarover gesproken, ik heb een\nnieuwe app ontwikkeld waarmee je\nhet eiland nog mooier kunt maken.\nIk zal hem gelijk aan je doorsturen.",
      "EUru": "Кстати, я разработал новое\nприложение, которое поможет тебе\nсделать наш остров еще лучше!\nСейчас я его тебе отправлю.",
      "JPja": "それでね、暮らしやすい　島づくりの\nサポートの一環として、\n新しいアプリも　開発したんだも！\n(player name)さんにも\nさっそく　送らせてもらうね",
      "KRko": "그래서 살기 좋은 섬 조성을\n지원하기 위한 일환으로\n새로운 앱도 개발했어구리!\n(player name)님한테도\n바로 보내줄게",
      "TWzh": "那麼，作為支援大家\n建造生活更便利的島嶼的一環，\n我開發出一項新的應用程式狸！\n話不多說，我就趕緊把它\n發送給(player name)吧。",
      "USen": "Speaking of which, I've developed a\nnew app that should help you make\nthe island even more inviting.\nLet me send it to you now.",
      "USes": "A propósito de esto, ¡desarrollé\nuna nueva aplicación que convertirá\nesta isla en un lugar aún mejor!\nTe la envío, ¿sí?",
      "USfr": "Au fait, j'ai mis au point une nouvelle\nappli pour t'aider à rendre notre île\nencore plus accueillante.\nAttends, je t'envoie ça tout de suite."
    }
  },
  {
    "label": "007",
    "attribute": "0x00000000",
    "locale": {
      "CNzh": "我刚刚发给你的新软件\n“岛屿创作家”可是了不得！\n是Nook Inc.允许居民们\n大胆开发岛屿的特别软件狸！\n最初只允许建造道路，\n但通过里数兑换，还可以获得各种\n道路、河流和悬崖的施工许可证……\n对开发渐渐熟悉以后，\n就会越发想要开发更多的东西！\n所以请一定要拿到许可证哦。",
      "EUde": "Erhalten? Gut. Die App heißt\n„Insel-Designer“! Knackig, wie?\nDieses gute Stück aus der reputablen\nApp-Schmiede von Nook Inc. erlaubt\ngrößeres Umgestalten der Insel!\nAnfangs kann man damit zwar nur\nWege bauen – aber das ändert sich,\nwenn man ein paar Meilen investiert!\nMit entsprechender Berechtigung\ndarf man dann nämlich sogar\nPlateaus oder Flussläufe anpassen!\nIch sag dir, wenn du erst mal ins\nInselgestalten hineinschnupperst,\nwird's für dich kein Halten geben!\nDaher schon jetzt viel Spaß\nbeim Sammeln der ganzen\nGestaltungsberechtigungen!",
      "EUen": "The app I've just sent you is called\nIsland Designer!\nIt's a special app from Nook Inc.\nthat gives residents the ability to\ntake part in bold island development!\nAt first, you'll only have permission\nto create paths, but you can use your\nmiles to access more options, like...\ndifferent kinds of paths and permits\nfor changing our cliffs and rivers!\nOnce you get a taste of island\ndesign, I think you'll want more.\nI encourage you to obtain all the\nnecessary permits!",
      "EUes": "Se llama Obras públicas y es una\naplicación exclusiva de Nook Inc.\nque tiene un objetivo muy claro...\n¡Permite que los residentes de\nla isla participen en su desarrollo\nurbanístico!\nAl principio solo tendrás permiso\npara crear caminos, pero podrás\nusar millas para ampliar las opciones.\nPor ejemplo, para crear otros tipos\nde caminos o acceder a permisos\npara elevar el terreno o crear ríos.\nCuando veas lo divertido que es\nremodelar la isla, ¡no podrás parar!\nTe recomiendo que te hagas con\ntodos los permisos disponibles, ¿sí?",
      "EUfr": "L'appli que je viens de t'envoyer\ns'appelle Remod'île !\nC'est une appli signée Nook Inc. qui\ndonne aux résidents l'opportunité de\nparticiper au développement de l'île !\nAu début, on ne peut que créer des\nchemins, mais d'autres options sont\naccessibles contre quelques miles...\nPar exemple, la possibilité de varier\nles sortes de chemins, et des permis\npour modifier falaises et rivières !\nCrois-moi, tu prendras vite goût à\nl'art de l'aménagement insulaire.\nJe ne peux que t'encourager à\ncollectionner les permis !",
      "EUit": "L'applicazione che ti ho mandato\nsi chiama Modifica isola!\nÈ un'applicazione della Nook Inc. che\npermette ai residenti di partecipare\nall'inarrestabile sviluppo dell'isola!\nAll'inizio si possono creare soltanto\ndelle strade, ma si possono usare le\nmiglia per accedere a più opzioni...\nSi potranno così avere disponibili,\nper esempio, diversi tipi di strade e\nlicenze per modificare rilievi e fiumi!\nDopo aver provato a creare qualcosa\ndi bello sull'isola, vedrai che ti verrà\nvoglia di continuare.\nTi consiglio di ottenere tutte le\nlicenze necessarie!",
      "EUnl": "De app die ik je net heb gestuurd,\nheet Eilandontwerper!\nHet is een speciale app van Nook Inc.\ndie bewoners in staat stelt om mee\nte helpen met de eilandontwikkeling!\nMomenteel kun je alleen paden\nmaken, maar met miles kun je\ntoegang krijgen tot meer opties...\nDenk aan andere soorten paden en\nvergunningen om het water en\nkliffen aan te passen!\nWacht maar tot je de smaak van het\nontwerpen te pakken hebt!\nIk raad je aan om alle benodigde\nvergunningen te verkrijgen!",
      "EUru": "Я тебе только что отправил\nприложение «Редактор острова»!\nОно разработано Nook Inc.\nи позволит тебе собственноручно\nизменять остров.\nСначала ты сможешь лишь строить\nдороги, но за мили можно получить\nи другие лицензии... посерьезней.\nНапример, ты сможешь строить\nновые виды дорог или даже\nвозводить скалы или рыть реки.\nУверен, когда ты войдешь во вкус,\nтебе захочется получить все-все\nлицензии!",
      "JPja": "いま送った　新アプリ、その名も\n「島クリエイター」は　なんとなんと！\nたぬき開発が　住民のみなさんに\n大胆な島の開発を　許可しちゃう\n特別なアプリなんだも！\n最初は　道を造る　許可だけだけど、\nマイル交換で　色んな種類の道から\n河川や崖の　工事の免許まで　取り扱うからね\n島の開発に　慣れてきたり、\nもっとガッツリ　開発したい！　って思ったら\nぜひ　免許を　手に入れてちょうだい！",
      "KRko": "지금 보낸 새로운 앱\n'섬 크리에이터', 이건 말이지!\nNook Inc.가 주민 여러분에게\n과감한 섬 개발을 허가해주는\n특별한 앱이야구리!\n처음엔 길을 만드는 허가만 내줬지만\n마일 교환으로 다양한 종류의 길부터\n하천, 절벽 공사 면허까지 딸 수 있으니까...\n섬 개발에 익숙해졌거나\n좀 더 제대로 개발하고 싶을 때\n면허를 따보는 걸 추천할게구리!",
      "TWzh": "我剛剛發送給你的是新的應用程式\n「島嶼創作家」。不得了不得了！\n這是Nook Inc.允許各位居民\n大膽開發島嶼的\n特別應用程式狸！\n雖然最初我們只讓大家建造道路，\n但我們也備有能透過哩數兌換的\n各種道路、河川和懸崖的施工許可證……\n若是有人對島嶼開發相當熟悉，\n想要再開發更多東西的話，\n請一定要拿到這個許可證。",
      "USen": "The app I've just sent you is called\nIsland Designer!\nIt's a special app from Nook Inc.\nthat gives residents the ability to\ntake part in bold island development!\nAt first, you'll only have permission\nto create paths, but you can use your\nmiles to access more options, like...\ndifferent kinds of paths and permits\nfor changing our cliffs and rivers!\nOnce you get a taste of island\ndesign, I think you'll want more.\nI encourage you to obtain all the\nnecessary permits!",
      "USes": "Se llama Obras públicas y es una\naplicación exclusiva de Nook Inc.\nque tiene un objetivo muy claro...\n¡Permite que los residentes de\nla isla participen en cuestiones de\ndesarrollo urbano!\nAl principio solo tendrás permiso\npara crear caminos, pero podrás\nusar millas para ampliar las opciones.\nPor ejemplo, para crear otros tipos\nde caminos o acceder a permisos\npara hacer desniveles o crear ríos.\nCuando veas lo divertido que es\nremodelar la isla, ¡no podrás parar!\nTe recomiendo que consigas todos\nlos permisos disponibles, ¿sí?",
      "USfr": "L'application que je viens de\nt'envoyer s'appelle Remod'île!\nC'est une appli signée Nook Inc. qui\ndonne aux résidents l'opportunité de\nparticiper au développement de l'île!\nAu début, on ne peut que créer des\nchemins, mais d'autres options sont\naccessibles contre quelques points...\nPar exemple, la possibilité de varier\nles sortes de chemins, et des permis\npour modifier falaises et rivières!\nCrois-moi, tu prendras vite goût à\nl'art de l'aménagement insulaire.\nJe ne peux que t'encourager à\ncollectionner les permis!"
    }
  },
  {
    "label": "008",
    "attribute": "0x00000000",
    "locale": {
      "CNzh": "总之，\n已经发展得这么好了……\n今后关于岛屿建造的事情，\n想更多地交给居民们！",
      "EUde": "Hach,  hat sich wirklich zu einem Inseljuwel gemausert, ja, ja...\nIn Zukunft will ich unsere Bewohner\nnoch mehr in die Gestaltung unseres\nschönen Stück Lands einbeziehen!",
      "EUen": "Yes, yes, \nhas come a long way...\nI think I'll leave more and more of\nthe future development of this island\nin the hands of its residents.",
      "EUes": " ha llegado muy lejos, sí, sí...\nA partir de ahora voy a ir dejando\npoco a poco el desarrollo urbano de\nla isla en zarpas de los residentes.",
      "EUfr": "Oui, oui,  a bien grandi...\nJe crois que je vais de plus en plus\nconfier la croissance de notre île\naux résidents...",
      "EUit": "Proprio così,  ha fatto tanta strada...\nCredo che lascerò sempre più\nspazio ai residenti nello sviluppo\nfuturo dell'isola.",
      "EUnl": "Ja, ja, we hebben veel bereikt op\n...\nIk denk dat ik in de toekomst de\nontwikkeling van het eiland overlaat\naan de bewoners.",
      "EUru": "Да-да, остров ,\nконечно, очень преобразился...\nДумаю даже, дальнейшее развитие\nострова я могу оставить в руках его\nжителей.",
      "JPja": "とにかく　も\nここまで　発展したわけだから・・・\n今後の島づくりは　もっともっと\n住民のみなさん自身に\nおまかせしちゃおうと　思いまーす！",
      "KRko": "아무튼 도\n이렇게 발전했으니까...\n앞으로도 섬 환경을 조성하는 건\n주민 여러분들에게 직접\n맡길 생각이야구리!",
      "TWzh": "總之，都\n這麼蓬勃發展了……\n今後建造島嶼的事，\n我就更加放手\n交給各位居民好了～！",
      "USen": "Yes, yes, \nhas come a long way...\nI think I'll leave more and more of\nthe future development of this island\nin the hands of its residents.",
      "USes": " ha llegado muy lejos, sí, sí...\nA partir de ahora voy a ir dejando\npoco a poco el desarrollo urbano de\nla isla en garras de los residentes.",
      "USfr": "Oui, oui,  a bien grandi...\nJe crois que je vais de plus en plus\nconfier la croissance de notre île\naux résidents..."
    }
  },
  {
    "label": "009",
    "attribute": "0x00000000",
    "locale": {
      "CNzh": "那么！\n今后也请多多关照\nNook Inc.和！",
      "EUde": "Die Zukunft ist rosig, (Spielername).\nIch und Nook Inc., wir freuen uns\nschon jetzt auf weitere erfolgreiche\nZusammenarbeit mit dir!\nDeine Ideen für  werden auch in Zukunft Gold wert sein, davon bin ich überzeugt!",
      "EUen": "I'm glad we had this talk,\n(player name).\nOn behalf of Nook Inc., I'm excited\nabout our continued partnership and\nyour  plans!",
      "EUes": "Me alegro de haber tenido\nesta conversación contigo,\n(player name).\nEn nombre de Nook Inc., ¡espero\ncontar con tu ayuda para hacer de\n un lugar mejor!",
      "EUfr": "Je suis bien content d'avoir eu cette\nconversation avec toi, (nom du joueur).\nAu travers de ma modeste personne,\nc'est tout Nook Inc. qui exprime sa\njoie de collaborer avec toi.\nTes idées pour  associées à notre expertise... On a de l'or dans les pattes, oui, oui !",
      "EUit": "Sono soddisfatto di questa bella\nchiacchierata che abbiamo fatto,\n(player name).\nIn nome della Nook Inc., mi sento\nonorato di proseguire la nostra\ncollaborazione...\nE portare a compimento l'esecuzione\ndei nostri progetti per lo sviluppo di\n!",
      "EUnl": "Ik ben blij dat we dit gesprek hebben\ngehad, (player name).\nNamens Nook Inc. kijk ik uit naar\nonze verdere samenwerking en je\nplannen voor !",
      "EUru": "Я рад, что мы поговорили,\n(player name).\nОт имени Nook Inc. надеюсь на\nдальнейшее сотрудничество на\nострове !",
      "JPja": "それじゃ！\n今後とも・・・\nたぬき開発と　を\n末永く　ごひいきにー！",
      "KRko": "자, 그럼!\n앞으로도...\nNook Inc.와 을\n계속 많이 사랑해줘구리!",
      "TWzh": "那麼！\n今後也請多多關照\nNook Inc.和～！",
      "USen": "I'm glad we had this talk,\n(player name).\nOn behalf of Nook Inc., I'm excited\nabout our continued partnership and\nyour  plans!",
      "USes": "Me alegro de haber tenido\nesta conversación contigo,\n(player name).\nEn nombre de Nook Inc., ¡espero\ncontar con tu ayuda para hacer de\n un lugar mejor!",
      "USfr": "Je suis bien content d'avoir eu cette\nconversation avec toi, (nom du joueur).\nAu travers de ma modeste personne,\nc'est tout Nook Inc. qui exprime sa\njoie de collaborer avec toi.\nTes idées pour  associées à notre expertise... On a de l'or dans les pattes, oui, oui!"
    }
  }
]