﻿[
  {
    "label": "101",
    "attribute": "0x00000C0100000000",
    "locale": {
      "CNzh": "这样聊天是不是更方便些？\n对了，你刚刚说什么？。",
      "EUde": "So redet es sich leichter, oder nicht?\nNun denn, was hast du auf dem\nHerzen, (Floskel)?",
      "EUen": "It's so much easier to chat like\nthis, no? Now then, what is it,\n?",
      "EUes": "Así es más cómodo charlar, ¿verdad?\nY bien, ¿qué me querías decir?",
      "EUfr": "Ce n'est pas mieux, ainsi ? Bien, que\nvoulais-tu me dire,  ?",
      "EUit": "In questo modo è molto più semplice\nchiacchierare, no? Allora, cosa\ndesideri, ?",
      "EUnl": "Zo praat het een stuk gemakkelijker,\nnietwaar? Welnu, waarover wilde je\nme spreken, ?",
      "EUru": "Так беседовать намного удобнее!\nЧто расскажешь? Я тебя слушаю.\n!",
      "JPja": "こっちのほうが　話しやすいでしょ？\nそれで、なんだったかしら？　",
      "KRko": "이쪽이 더 얘기하기 쉽지?\n그래서 무슨 일이니? ?",
      "TWzh": "這樣比較好說話吧？\n那麼，你剛才說到哪了？。",
      "USen": "It's so much easier to chat like\nthis, no? Now then, what is it,\n?",
      "USes": "Así es más cómodo charlar, ¿no?\nY bien, ¿qué me querías decir?",
      "USfr": "Ce n'est pas mieux, ainsi? Bien, que\nvoulais-tu me dire, ?"
    }
  },
  {
    "label": "102",
    "attribute": "0x00000C0100000000",
    "locale": {
      "CNzh": "我准备好了！\n你有什么事，请说吧。。",
      "EUde": "Erst mal möchte ich dir in die Augen\nsehen können! Nun gut, dann sage\ndoch bitte an, was dich bedrückt.",
      "EUen": "Now that I can look you in the eye,\n(catchphrase), what's on your mind?",
      "EUes": "Así es más fácil mirarte a los ojos.\nDime, .",
      "EUfr": "C'est quand même mieux de se parler\nface à face, . Alors, que\nvoulais-tu me dire ?",
      "EUit": "Ora che possiamo guardarci negli\nocchi, (catchphrase), mi dici a cosa\nstai pensando?",
      "EUnl": "Nu kan ik je tenminste in de ogen kijken, (catchphrase). Zo, wat zit je dwars, lieve schat?",
      "EUru": "Вот так я могу видеть твои глаза.\n(catchphrase)! Что расскажешь?\nЯ тебя слушаю.",
      "JPja": "準備OKよ！\nなにか用があるなら　どうぞ、",
      "KRko": "준비 OK야!\n무슨 얘기를 하러 왔니? ～",
      "TWzh": "我好了！\n有什麼事就請你繼續說吧，。",
      "USen": "Now that I can look you in the eye,\n(catchphrase), what's on your mind?",
      "USes": "Así puedo mirarte a los ojos.\nDime, .",
      "USfr": "C'est quand même mieux de se parler\nface à face, . Alors, que\nvoulais-tu me dire?"
    }
  },
  {
    "label": "103",
    "attribute": "0x00000C0100000000",
    "locale": {
      "CNzh": "久等啦……对了，\n你找我是不是有话要说？。",
      "EUde": "So! Nur zu, was möchtest du denn\ngern loswerden, (Floskel)?",
      "EUen": "Thanks for waiting. Now then, what\nwere you saying, ?",
      "EUes": "Gracias por tu paciencia.\nAhora sí. Soy toda oídos.",
      "EUfr": "Merci de ta patience. Je t'écoute,\nque voulais-tu me dire,  ?",
      "EUit": "Scusa se ti ho fatto aspettare.\nAllora, cosa stavi dicendo,\n?",
      "EUnl": "Dank je voor het wachten. Welnu, wat wilde je zeggen, ?",
      "EUru": "Спасибо, что подождал. С какими\nновостями пришел? Слушаю тебя.\n!",
      "JPja": "お待たせ！　・・・で、\nアタシに　お話があるのかしら？　",
      "KRko": "기다려줘서 고마워! ...자\n나한테 무슨 볼일이니? ?",
      "TWzh": "久等了！我記得……\n你剛才好像有話要跟我說吧？。",
      "USen": "Thanks for waiting. Now then, what\nwere you saying, ?",
      "USes": "Gracias por tu paciencia.\nAhora sí. Soy toda oídos.",
      "USfr": "Merci de ta patience. Je t'écoute,\nque voulais-tu me dire, ?"
    }
  },
  {
    "label": "201",
    "attribute": "0x0000000000000000",
    "locale": {
      "CNzh": "",
      "EUde": "",
      "EUen": "",
      "EUes": "",
      "EUfr": "",
      "EUit": "",
      "EUnl": "",
      "EUru": "",
      "JPja": "",
      "KRko": "",
      "TWzh": "",
      "USen": "",
      "USes": "",
      "USfr": ""
    }
  },
  {
    "label": "201_01",
    "attribute": "0x0000000000000000",
    "locale": {
      "CNzh": "哎呀，是啊。\n稍微等一下……。",
      "EUde": "(Spitzname)? Warte bitte, ich stehe auf...",
      "EUen": "Ah, (nickname).\nLet me get up...",
      "EUes": "Huy, como me hables desde ahí\narriba, me va a dar tortícolis. Si me\nconcedes un instante, me incorporo.",
      "EUfr": "Ah, (surnom).\nLaisse-moi me lever...",
      "EUit": "Ah, (nickname). Aspetta un attimo...",
      "EUnl": "Ah, (nickname). Een klein momentje, s'il vous plaît...",
      "EUru": "Привет, (nickname).\nПозволь мне подняться сначала...",
      "JPja": "あら、じゃない\nちょっと待ってね・・・、",
      "KRko": "어머나, ～\n잠시만 기다려줄래...? !",
      "TWzh": "哎呀，這不是嗎？\n等我一下喔……。",
      "USen": "Ah, (nickname).\nLet me get up...",
      "USes": "Uy, si me sigues hablando desde ahí\narriba, me va a dar tortícolis.\nDame un segundo así me incorporo.",
      "USfr": "Ah, (surnom).\nLaisse-moi me lever..."
    }
  },
  {
    "label": "201_02",
    "attribute": "0x0000000000000000",
    "locale": {
      "CNzh": "啊，。\n你稍微等我一下。。",
      "EUde": "Huch! Bitte sei so gut und warte\neinen Moment, (Floskel).",
      "EUen": "Oh, (nickname). Give me a\nmoment to stand up.",
      "EUes": "Espera, (nickname), ¿no prefieres que me levante para hablar?",
      "EUfr": "Oh, (surnom). Accorde-moi juste un instant pour que je me lève.",
      "EUit": "Oh, (nickname). Aspetta un momento, così mi alzo.",
      "EUnl": "O, (nickname). Geef me even een ogenblikje om te gaan staan.",
      "EUru": "Ох, (nickname). Разреши мне\nподняться, а то так неудобно\nразговаривать.",
      "JPja": "あっ、\nちょっと　待ってちょうだい、",
      "KRko": "앗, !\n잠깐만 기다려, ...",
      "TWzh": "啊，。\n請稍等我一下喔，。",
      "USen": "Oh, (nickname). Give me a\nmoment to stand up.",
      "USes": "Espera, (nickname), ¿no prefieres que me levante para hablar?",
      "USfr": "Oh, (surnom). Accorde-moi juste un instant pour que je me lève."
    }
  },
  {
    "label": "201_03",
    "attribute": "0x0000000000000000",
    "locale": {
      "CNzh": "，你有事吗？\n啊，我坐着不太好……。",
      "EUde": "(Spitzname), was gibt es?\nAh, lass mich kurz aufstehen...",
      "EUen": "(nickname), you look like\nyou need something. Give me a\nmoment to stand up.",
      "EUes": "Necesitas algo, te lo leo en la mirada.\nSi me das un segundo, me levanto\ny soy toda tuya.",
      "EUfr": "On dirait que tu as besoin de\nquelque chose, (surnom). Laisse-moi juste me lever.",
      "EUit": "Oh, (nickname), si direbbe che ti serva qualcosa. Dammi solo un attimino per alzarmi.",
      "EUnl": "(nickname), kan ik je ergens mee helpen? Geef me even een ogenblikje om op te staan.",
      "EUru": "(nickname), тебе что-то\nнужно? Разреши мне сначала\nподняться.",
      "JPja": "　どうかした？\nあっ、座ったままじゃね・・・　",
      "KRko": " 웬일이니?\n앗, 앉아 있기도 좀 그러네... ...",
      "TWzh": "，怎麼了嗎？\n啊，我這樣坐著不太好呢……。",
      "USen": "(nickname), you look like\nyou need something. Give me a\nmoment to stand up.",
      "USes": "Necesitas algo, te leo la mirada.\nSi me das un segundo, me levanto\ny me dices.",
      "USfr": "On dirait que tu as besoin de\nquelque chose, (surnom). Laisse-moi juste me lever."
    }
  },
  {
    "label": "202",
    "attribute": "0x0000000000000000",
    "locale": {
      "CNzh": "",
      "EUde": "",
      "EUen": "",
      "EUes": "",
      "EUfr": "",
      "EUit": "",
      "EUnl": "",
      "EUru": "",
      "JPja": "",
      "KRko": "",
      "TWzh": "",
      "USen": "",
      "USes": "",
      "USfr": ""
    }
  },
  {
    "label": "202_01",
    "attribute": "0x0000000000000000",
    "locale": {
      "CNzh": "哎呀，是啊。\n稍微等一下……。",
      "EUde": "Oh, (Spitzname)!\nEinen Moment bitte...",
      "EUen": "Ah! If it isn't (nickname).\nJust a moment...",
      "EUes": "Huy, qué baja estoy. Si me das\nun instante, me incorporo.",
      "EUfr": "Ah ! Mais c'est (surnom).\nAccorde-moi juste un instant...",
      "EUit": "Ah! Guarda un po' chi si vede, (nickname)! Solo un attimo...",
      "EUnl": "Ah! Kijk eens aan, als dat (nickname) niet is. Eén klein ogenblikje...",
      "EUru": "Батюшки! Это (nickname)!\nОдну минутку...",
      "JPja": "あら、じゃない\nちょっと待ってね・・・、",
      "KRko": "어머, 이구나!\n잠시만... ...",
      "TWzh": "哎呀，這不是嗎？\n等我一下喔……。",
      "USen": "Ah! If it isn't (nickname).\nJust a moment...",
      "USes": "Uy, qué baja estoy. Si me das\nun minuto, me incorporo.",
      "USfr": "Ah! Mais c'est (surnom).\nAccorde-moi juste un instant..."
    }
  },
  {
    "label": "202_02",
    "attribute": "0x0000000000000000",
    "locale": {
      "CNzh": "啊，。\n你稍微等我一下。。",
      "EUde": "Oh, (Spitzname)!\nEine Sekunde bitte...",
      "EUen": "Ah, (nickname).\nLet me get up...",
      "EUes": "Aguarda, (nickname), ¿no prefieres que me ponga de pie para charlar?",
      "EUfr": "Oh, (surnom). Donne-moi un instant...",
      "EUit": "Ah, (nickname). Il tempo di alzarmi, ...",
      "EUnl": "Ah, (nickname). Laat me even overeind komen...",
      "EUru": "Привет, (nickname)!\nРазреши мне подняться...",
      "JPja": "あっ、\nちょっと　待ってちょうだい、",
      "KRko": "앗, !\n잠깐만 기다려주겠어, ?",
      "TWzh": "啊，。\n請稍等我一下喔，。",
      "USen": "Ah, (nickname).\nLet me get up...",
      "USes": "Espera, (nickname), ¿no prefieres que me ponga de pie para charlar?",
      "USfr": "Oh, (surnom). Donne-moi un instant..."
    }
  },
  {
    "label": "202_03",
    "attribute": "0x0000000000000000",
    "locale": {
      "CNzh": "，你有事吗？\n啊，我坐着不太好……。",
      "EUde": "(Spitzname), was kann ich für dich tun? Moment, lass mich kurz aufstehen...",
      "EUen": "(nickname), you look like\nyou need something. Give me\na moment...",
      "EUes": "Dime, ¿qué necesitas? O mejor,\npermite que me ponga de pie...",
      "EUfr": "On dirait que tu as besoin de\nquelque chose, (surnom). Accorde-moi juste un instant.",
      "EUit": "Oh, (nickname), sembra che ti serva qualcosa. Dammi solo un momentino...",
      "EUnl": "(nickname), kan ik je ergens mee helpen? Eén momentje, alsjeblieft...",
      "EUru": "(nickname), тебе что-то\nнужно? Позволь мне встать...",
      "JPja": "　どうかした？\nあっ、座ったままじゃね・・・　",
      "KRko": " 어쩐 일이야?\n어머, 앉은 채로는 좀 그렇지, ...",
      "TWzh": "，怎麼了嗎？\n啊，我這樣坐著不太好呢……。",
      "USen": "(nickname), you look like\nyou need something. Give me\na moment...",
      "USes": "Dime, ¿qué necesitas? O mejor,\ndéjame que me ponga de pie...",
      "USfr": "On dirait que tu as besoin de\nquelque chose, (surnom). Accorde-moi juste un instant."
    }
  }
]