﻿[
  {
    "label": "0001",
    "locale": {
      "CNzh": "键盘开启",
      "EUde": "Tastatur",
      "EUen": "Keyboard",
      "EUes": "Teclado",
      "EUfr": "Clavier",
      "EUit": "Tastiera",
      "EUnl": "Toetsenbord",
      "EUru": "Клавиатура",
      "JPja": "キーボードON",
      "KRko": "키보드 ON",
      "TWzh": "鍵盤ON",
      "USen": "Keyboard",
      "USes": "Teclado",
      "USfr": "Clavier"
    }
  },
  {
    "label": "1001",
    "locale": {
      "CNzh": "//",
      "EUde": "  ",
      "EUen": " , ",
      "EUes": " de  de ",
      "EUfr": "  ",
      "EUit": "  ",
      "EUnl": "  ",
      "EUru": "  ",
      "JPja": "//",
      "KRko": "//",
      "TWzh": "//",
      "USen": " , ",
      "USes": " de  del ",
      "USfr": "  "
    }
  },
  {
    "label": "1101",
    "locale": {
      "CNzh": "",
      "EUde": "",
      "EUen": "",
      "EUes": "",
      "EUfr": "",
      "EUit": "",
      "EUnl": "",
      "EUru": "",
      "JPja": "",
      "KRko": "",
      "TWzh": "",
      "USen": "",
      "USes": "",
      "USfr": ""
    }
  },
  {
    "label": "1102",
    "locale": {
      "CNzh": "的",
      "EUde": " von ",
      "EUen": " from ",
      "EUes": ", de ",
      "EUfr": ", de ",
      "EUit": " di ",
      "EUnl": " van ",
      "EUru": " с острова ",
      "JPja": "　",
      "KRko": "의 ",
      "TWzh": "的",
      "USen": " from ",
      "USes": ", de ",
      "USfr": ", de ⁠"
    }
  }
]