﻿[
  {
    "label": "0101",
    "locale": {
      "CNzh": "",
      "EUde": "",
      "EUen": "",
      "EUes": "",
      "EUfr": "",
      "EUit": "",
      "EUnl": "",
      "EUru": "",
      "JPja": "",
      "KRko": "",
      "TWzh": "",
      "USen": "",
      "USes": "",
      "USfr": ""
    }
  },
  {
    "label": "0102",
    "locale": {
      "CNzh": "别墅的提议",
      "EUde": "Freie Gestaltung",
      "EUen": "Vacation-Home Concept",
      "EUes": "Tema libre",
      "EUfr": "Thème libre",
      "EUit": "Tema della casa vacanze",
      "EUnl": "Geen thema",
      "EUru": "Дачная концепция",
      "JPja": "別荘のご提案",
      "KRko": "별장 제안",
      "TWzh": "別墅提案",
      "USen": "Vacation-Home Concept",
      "USes": "Tema libre",
      "USfr": "Thème libre"
    }
  },
  {
    "label": "0301",
    "locale": {
      "CNzh": "",
      "EUde": "",
      "EUen": "",
      "EUes": "",
      "EUfr": "",
      "EUit": "",
      "EUnl": "",
      "EUru": "",
      "JPja": "",
      "KRko": "",
      "TWzh": "",
      "USen": "",
      "USes": "",
      "USfr": ""
    }
  },
  {
    "label": "0302",
    "locale": {
      "CNzh": "",
      "EUde": "",
      "EUen": "",
      "EUes": "",
      "EUfr": "",
      "EUit": "",
      "EUnl": "",
      "EUru": "",
      "JPja": "",
      "KRko": "",
      "TWzh": "",
      "USen": "",
      "USes": "",
      "USfr": ""
    }
  },
  {
    "label": "0601",
    "locale": {
      "CNzh": "展示室",
      "EUde": "Vorführraum",
      "EUen": "Showroom",
      "EUes": "Catálogo",
      "EUfr": "Hall d'exposition",
      "EUit": "Spazio espositivo",
      "EUnl": "Showroom",
      "EUru": "Салон",
      "JPja": "ショールーム",
      "KRko": "쇼룸",
      "TWzh": "展示室",
      "USen": "Showroom",
      "USes": "Catálogo",
      "USfr": "Hall d'exposition"
    }
  },
  {
    "label": "0801",
    "locale": {
      "CNzh": "工作中",
      "EUde": "In Arbeit",
      "EUen": "In Progress",
      "EUes": "En construcción",
      "EUfr": "Travaux en cours",
      "EUit": "Lavori in corso",
      "EUnl": "In aanbouw",
      "EUru": "Идут работы",
      "JPja": "お仕事中",
      "KRko": "작업 중",
      "TWzh": "工作中",
      "USen": "In Progress",
      "USes": "En construcción",
      "USfr": "Travaux en cours"
    }
  },
  {
    "label": "0901",
    "locale": {
      "CNzh": "请选择想要刊登的物件吧",
      "EUde": "Welche Immobilie hochladen?",
      "EUen": "Choose a property to post!",
      "EUes": "¿Qué propiedad vas a publicar?",
      "EUfr": "Choisis la propriété à publier.",
      "EUit": "Scegli un edificio da pubblicare!",
      "EUnl": "Welk gebouw wil je posten?",
      "EUru": "Выберите объект для публикации!",
      "JPja": "掲載したい物件を選んでね",
      "KRko": "게시하고 싶은 건물을 선택해주세요!",
      "TWzh": "選擇要刊登的物件吧",
      "USen": "Choose a property to post!",
      "USes": "¿Qué propiedad vas a publicar?",
      "USfr": "Choisis la propriété à publier."
    }
  }
]