﻿[
  {
    "label": "0000",
    "locale": {
      "CNzh": "//",
      "EUde": "..",
      "EUen": "//",
      "EUes": "--",
      "EUfr": "//",
      "EUit": "//",
      "EUnl": "--",
      "EUru": "..",
      "JPja": "’//",
      "KRko": "’//",
      "TWzh": "//",
      "USen": "//",
      "USes": "//",
      "USfr": "--"
    }
  },
  {
    "label": "0001",
    "locale": {
      "CNzh": "获得里数！",
      "EUde": "Meilen erhalten!",
      "EUen": "Get Miles!",
      "EUes": "Recibe millas",
      "EUfr": "Miles obtenus !",
      "EUit": "Ottieni le miglia!",
      "EUnl": "Ontvang miles!",
      "EUru": "Получить мили!",
      "JPja": "マイルGet!",
      "KRko": "마일 GET!",
      "TWzh": "獲得哩數！",
      "USen": "Get Miles!",
      "USes": "Recibe millas",
      "USfr": "Points obtenus!"
    }
  },
  {
    "label": "0002",
    "locale": {
      "CNzh": "",
      "EUde": "",
      "EUen": "",
      "EUes": "",
      "EUfr": "",
      "EUit": "",
      "EUnl": "",
      "EUru": "",
      "JPja": "",
      "KRko": "",
      "TWzh": "",
      "USen": "",
      "USes": "",
      "USfr": ""
    }
  },
  {
    "label": "0003",
    "locale": {
      "CNzh": "接收",
      "EUde": "Abholen",
      "EUen": "Claim",
      "EUes": "Recibir",
      "EUfr": "Récupérer",
      "EUit": "Ricevi",
      "EUnl": "Oké!",
      "EUru": "Получить",
      "JPja": "うけとる",
      "KRko": "받기",
      "TWzh": "接收",
      "USen": "Claim",
      "USes": "Recibir",
      "USfr": "Récupérer"
    }
  },
  {
    "label": "0004",
    "locale": {
      "CNzh": "New!",
      "EUde": "Neu!",
      "EUen": "New!",
      "EUes": "Novedad",
      "EUfr": "Nouveau !",
      "EUit": "Novità!",
      "EUnl": "Nieuw!",
      "EUru": "Новое!",
      "JPja": "New!",
      "KRko": "New!",
      "TWzh": "New!",
      "USen": "New!",
      "USes": "Novedad",
      "USfr": "Nouveau!"
    }
  },
  {
    "label": "0005",
    "locale": {
      "CNzh": "/",
      "EUde": "/",
      "EUen": "/",
      "EUes": "/",
      "EUfr": "/",
      "EUit": "/",
      "EUnl": "/",
      "EUru": "/",
      "JPja": "/",
      "KRko": "/",
      "TWzh": "/",
      "USen": "/",
      "USes": "/",
      "USfr": "/"
    }
  }
]