﻿[
  {
    "label": "0001",
    "locale": {
      "CNzh": "道具",
      "EUde": "Werkzeug",
      "EUen": "Tool",
      "EUes": "Herramienta",
      "EUfr": "Outil",
      "EUit": "Strumenti",
      "EUnl": "Tekengerei",
      "EUru": "Инструмент",
      "JPja": "どうぐ",
      "KRko": "도구",
      "TWzh": "道具",
      "USen": "Tool",
      "USes": "Herramienta",
      "USfr": "Outil"
    }
  },
  {
    "label": "0012",
    "locale": {
      "CNzh": "＋",
      "EUde": "＋",
      "EUen": "＋",
      "EUes": "＋",
      "EUfr": "＋",
      "EUit": "＋",
      "EUnl": "＋",
      "EUru": "＋",
      "JPja": "＋",
      "KRko": "＋",
      "TWzh": "＋",
      "USen": "＋",
      "USes": "＋",
      "USfr": "＋"
    }
  },
  {
    "label": "0101",
    "locale": {
      "CNzh": "更改多个颜色",
      "EUde": "Palette wechseln",
      "EUen": "Change Palette",
      "EUes": "Elegir paleta de colores",
      "EUfr": "Changer de palette",
      "EUit": "Cambia tavolozza",
      "EUnl": "Palet",
      "EUru": "Сменить палитру",
      "JPja": "まとめてカラー変更",
      "KRko": "모든 색상 변경",
      "TWzh": "更改多個顏色",
      "USen": "Change Palette",
      "USes": "Elegir paleta de colores",
      "USfr": "Changer de palette"
    }
  },
  {
    "label": "0102",
    "locale": {
      "CNzh": "更改各个颜色",
      "EUde": "Farbe wechseln",
      "EUen": "Change Color",
      "EUes": "Modificar color",
      "EUfr": "Changer de couleur",
      "EUit": "Cambia colore",
      "EUnl": "Kleur",
      "EUru": "Сменить цвет",
      "JPja": "各カラー変更",
      "KRko": "각 색상 변경",
      "TWzh": "更改各個顏色",
      "USen": "Change Color",
      "USes": "Modificar color",
      "USfr": "Changer de couleur"
    }
  },
  {
    "label": "0103",
    "locale": {
      "CNzh": "笔",
      "EUde": "Stift",
      "EUen": "Pen",
      "EUes": "Bolígrafo",
      "EUfr": "Crayon",
      "EUit": "Penna",
      "EUnl": "Potlood",
      "EUru": "Карандаш",
      "JPja": "ペン",
      "KRko": "펜",
      "TWzh": "筆",
      "USen": "Pen",
      "USes": "Pluma",
      "USfr": "Crayon"
    }
  },
  {
    "label": "0104",
    "locale": {
      "CNzh": "线条工具",
      "EUde": "Linie",
      "EUen": "Line Tool",
      "EUes": "Línea recta",
      "EUfr": "Outil ligne",
      "EUit": "Strumento linee",
      "EUnl": "Rechte lijn",
      "EUru": "Линия",
      "JPja": "ラインツール",
      "KRko": "직선 툴",
      "TWzh": "線形工具",
      "USen": "Line Tool",
      "USes": "Línea recta",
      "USfr": "Outil ligne"
    }
  },
  {
    "label": "0105",
    "locale": {
      "CNzh": "矩形工具",
      "EUde": "Viereck",
      "EUen": "Rectangle Tool",
      "EUes": "Rectángulo",
      "EUfr": "Outil rectangle",
      "EUit": "Strumento rettangoli",
      "EUnl": "Rechthoek",
      "EUru": "Прямоугольник",
      "JPja": "四角ツール",
      "KRko": "사각 툴",
      "TWzh": "方形工具",
      "USen": "Rectangle Tool",
      "USes": "Rectángulo",
      "USfr": "Outil rectangle"
    }
  },
  {
    "label": "0106",
    "locale": {
      "CNzh": "圆形工具",
      "EUde": "Kreis",
      "EUen": "Circle Tool",
      "EUes": "Círculo",
      "EUfr": "Outil cercle",
      "EUit": "Strumento cerchi",
      "EUnl": "Cirkel",
      "EUru": "Круг",
      "JPja": "円ツール",
      "KRko": "원형 툴",
      "TWzh": "圓形工具",
      "USen": "Circle Tool",
      "USes": "Círculo",
      "USfr": "Outil cercle"
    }
  },
  {
    "label": "0107",
    "locale": {
      "CNzh": "填充",
      "EUde": "Füllen",
      "EUen": "Fill",
      "EUes": "Rellenar",
      "EUfr": "Remplir",
      "EUit": "Riempi",
      "EUnl": "Inkleuren",
      "EUru": "Закрасить",
      "JPja": "塗りつぶし",
      "KRko": "칠하기",
      "TWzh": "填滿",
      "USen": "Fill",
      "USes": "Rellenar",
      "USfr": "Remplir"
    }
  },
  {
    "label": "0108",
    "locale": {
      "CNzh": "圆形印章",
      "EUde": "Runder Stempel",
      "EUen": "Round Stamp",
      "EUes": "Sello redondo",
      "EUfr": "Tampon rond",
      "EUit": "Stampino rotondo",
      "EUnl": "Cirkelstempel",
      "EUru": "Круглая печать",
      "JPja": "丸スタンプ",
      "KRko": "동그란 스탬프",
      "TWzh": "圓形印章",
      "USen": "Round Stamp",
      "USes": "Sello redondo",
      "USfr": "Étampe rond"
    }
  },
  {
    "label": "0109",
    "locale": {
      "CNzh": "星形印章",
      "EUde": "Stern-Stempel",
      "EUen": "Star Stamp",
      "EUes": "Sello de estrella",
      "EUfr": "Tampon étoile",
      "EUit": "Stampino stella",
      "EUnl": "Sterstempel",
      "EUru": "Печать в форме звезды",
      "JPja": "星スタンプ",
      "KRko": "별 스탬프",
      "TWzh": "星形印章",
      "USen": "Star Stamp",
      "USes": "Sello de estrella",
      "USfr": "Étampe étoile"
    }
  },
  {
    "label": "0110",
    "locale": {
      "CNzh": "心形印章",
      "EUde": "Herz-Stempel",
      "EUen": "Heart Stamp",
      "EUes": "Sello de corazón",
      "EUfr": "Tampon cœur",
      "EUit": "Stampino cuore",
      "EUnl": "Hartstempel",
      "EUru": "Печать в форме сердца",
      "JPja": "ハートスタンプ",
      "KRko": "하트 스탬프",
      "TWzh": "心形印章",
      "USen": "Heart Stamp",
      "USes": "Sello de corazón",
      "USfr": "Étampe cœur"
    }
  },
  {
    "label": "0111",
    "locale": {
      "CNzh": "全部填满",
      "EUde": "Alles füllen",
      "EUen": "Fill All",
      "EUes": "Cubrir todo",
      "EUfr": "Tout remplir",
      "EUit": "Riempi tutto",
      "EUnl": "Alles kleuren",
      "EUru": "Закрасить все",
      "JPja": "すべて塗りつぶし",
      "KRko": "전부 칠하기",
      "TWzh": "全部填滿",
      "USen": "Fill All",
      "USes": "Cubrir todo",
      "USfr": "Tout remplir"
    }
  },
  {
    "label": "0112",
    "locale": {
      "CNzh": "全体切换",
      "EUde": "Design verschieben",
      "EUen": "Drag Design",
      "EUes": "Desplazar diseño",
      "EUfr": "Déplacer le motif",
      "EUit": "Trascina tutto",
      "EUnl": "Ontwerp verslepen",
      "EUru": "Перетащить рисунок",
      "JPja": "全体シフト",
      "KRko": "전체 이동",
      "TWzh": "整體轉換",
      "USen": "Drag Design",
      "USes": "Desplazar diseño",
      "USfr": "Déplacer le motif"
    }
  },
  {
    "label": "0113",
    "locale": {
      "CNzh": "镜像模式",
      "EUde": "Spiegelmodus",
      "EUen": "Mirror Mode",
      "EUes": "Modo simétrico",
      "EUfr": "Mode miroir",
      "EUit": "Modalità specchio",
      "EUnl": "Symmetrisch tekenen",
      "EUru": "Зеркальный режим",
      "JPja": "ミラーモード",
      "KRko": "거울 모드",
      "TWzh": "鏡射模式",
      "USen": "Mirror Mode",
      "USes": "Modo simétrico",
      "USfr": "Mode miroir"
    }
  },
  {
    "label": "0114",
    "locale": {
      "CNzh": "切换预览",
      "EUde": "Vorschau wechseln",
      "EUen": "Swap Preview",
      "EUes": "Cambiar vista",
      "EUfr": "Changer d'aperçu",
      "EUit": "Cambia anteprima",
      "EUnl": "Voorweergave wisselen",
      "EUru": "Сменить объект",
      "JPja": "プレビュー切り替え",
      "KRko": "미리보기 바꾸기",
      "TWzh": "切換預覽",
      "USen": "Swap Preview",
      "USes": "Cambiar vista",
      "USfr": "Changer d'aperçu"
    }
  },
  {
    "label": "0115",
    "locale": {
      "CNzh": "切换/复制",
      "EUde": "Wechseln/kopieren",
      "EUen": "Swap/Copy",
      "EUes": "Cambiar parte/Copiar",
      "EUfr": "Autre élément / copie",
      "EUit": "Cambia/copia",
      "EUnl": "Ander onderdeel / Kopiëren",
      "EUru": "Сменить часть / копировать",
      "JPja": "切り替え/コピー",
      "KRko": "바꾸기/복사",
      "TWzh": "替換/複製",
      "USen": "Swap/Copy",
      "USes": "Cambiar parte/Copiar",
      "USfr": "Passer à un autre élément"
    }
  }
]