﻿[
  {
    "label": "0001",
    "locale": {
      "CNzh": "为\n寻找伙伴吧！",
      "EUde": "Finde einen Mitbewohner für\n!",
      "EUen": "Find a roommate for\n!",
      "EUes": "Busca compa de casa para\n.",
      "EUfr": "Trouve quelqu'un pour habiter\navec  !",
      "EUit": "Trova qualcuno che voglia abitare con\n!",
      "EUnl": "Vind een huisgenoot voor\n!",
      "EUru": "\nхочет себе соседа на дачу. Помоги ему!",
      "JPja": "の\nパートナーを探そう！",
      "KRko": "의\n파트너를 찾자!",
      "TWzh": "為\n尋找伙伴吧！",
      "USen": "Find a roommate for\n!",
      "USes": "Busca compañero de casa para\n.",
      "USfr": "Trouve quelqu'un pour habiter\navec !"
    }
  }
]