﻿[
  {
    "label": "0002",
    "locale": {
      "CNzh": "设置一个4位数的密码！",
      "EUde": "Bitte 4-stelligen Dodo-Code eingeben.",
      "EUen": "Enter your 4-digit Dodo Code™.",
      "EUes": "Introduce el PIN Dodo de cuatro dígitos.",
      "EUfr": "Entre les quatre chiffres de ton Dodo Code.",
      "EUit": "Inserisci un PIN Dodo di 4 cifre.",
      "EUnl": "Voer je Dodo-code van 4 cijfers in.",
      "EUru": "Введите 4-значный Додо-код™.",
      "JPja": "４桁のパスワードを入力してください",
      "KRko": "4자리 비밀번호를 입력해주세요!",
      "TWzh": "輸入一個4位數的密碼！",
      "USen": "Enter your 4-digit Dodo Code™.",
      "USes": "Ingresa el PIN Dodo™ de cuatro dígitos.",
      "USfr": "Entre les quatre chiffres de ton Dodo Code™."
    }
  }
]