﻿[
  {
    "label": "0201",
    "locale": {
      "CNzh": "",
      "EUde": "",
      "EUen": "",
      "EUes": "",
      "EUfr": "",
      "EUit": "",
      "EUnl": "",
      "EUru": "",
      "JPja": "",
      "KRko": "",
      "TWzh": "",
      "USen": "",
      "USes": "",
      "USfr": ""
    }
  },
  {
    "label": "0301",
    "locale": {
      "CNzh": "这种类型的房子\n无法选择墙壁。",
      "EUde": "Für diesen Haustyp kann\nkeine andere Fassade\nausgewählt werden.",
      "EUen": "You can't select the siding\nfor houses of this type.",
      "EUes": "Este tipo de casa dispone de\nun único estilo de fachada.",
      "EUfr": "Impossible de choisir les\nmurs de ce type de maison.",
      "EUit": "Non puoi scegliere esterni\nper le case di questo tipo.",
      "EUnl": "Voor deze stijl huizen is maar\néén soort gevel beschikbaar.",
      "EUru": "Для домов этого типа\nневозможно выбрать\nфасад.",
      "JPja": "このタイプの家は\nかべを 選べません",
      "KRko": "이 종류의 집은\n벽을 선택할 수 없어요!",
      "TWzh": "這種類型的房子，\n無法選擇牆壁！",
      "USen": "You can't select the siding\nfor houses of this type.",
      "USes": "Este tipo de casa tiene\nun único estilo de fachada.",
      "USfr": "Impossible de choisir les\nmurs de ce type de maison."
    }
  }
]