﻿[
  {
    "label": "001",
    "attribute": "0x00000000",
    "locale": {
      "CNzh": "这里比我想象的还要漂亮呢～！\n不愧是专业人员选的地方啊～",
      "EUde": "Hui! Hier ist es ja noch schöner, als\nich es mir vorgestellt hatte! Du hast\nwirklich Sinn für so was, Kindchen.",
      "EUen": "Whoa! This spot is even better than\nI imagined! You have a keen eye, kid.",
      "EUes": "¡Jo, jo, jo! ¡Esta ubicación es mejor\nde lo que me había imaginado!\nQué buen ojo tienes, oye.",
      "EUfr": "Ho ho ho ! Cet emplacement est\nencore mieux que je ne l'imaginais !\nOn peut dire que tu as l'œil, petit.",
      "EUit": "Ehi! Questo posto è ancora meglio\ndi come lo avessi immaginato!\nCi sai fare, pandorino.",
      "EUnl": "Sleeminee! Deze plek is nog beter\ndan ik had gedacht! Jij hebt er oog\nvoor.",
      "EUru": "Ух ты! Это место даже лучше, чем\nя думал! У тебя глаз-алмаз.",
      "JPja": "思ってた以上に　ステキなトコじゃないか～！\nさすが　プロの選んだ場所だけあるなぁ",
      "KRko": "생각한 것보다도 훨씬 멋지네～!\n역시 프로가 고른 이유가 있구나",
      "TWzh": "這地方比我所想的還要漂亮啊～！\n真不愧是專家精心挑選的地方。",
      "USen": "Whoa! This spot is even better than\nI imagined! You have a keen eye, kid.",
      "USes": "¡Jo, jo, jo! ¡Esta ubicación es mejor\nde lo que me había imaginado!\nQué buen ojo tienes, ¿eh?",
      "USfr": "Ho ho ho! Cet emplacement est\nencore mieux que je ne l'imaginais!\nOn peut dire que tu as l'œil, petit."
    }
  },
  {
    "label": "001_01",
    "attribute": "0x00000000",
    "locale": {
      "CNzh": "会变成一栋怎样的别墅呢？我好期待呀～\n那就拜托你啦！",
      "EUde": "Ich bin ja schon so auf mein Ferien-\nhaus gespannt! Übernimm du ab hier\nbesser die Zügel, ja?",
      "EUen": "I can't wait to see how my vacation\nhome turns out. I'm handing the\nreins over to you, so take it away!",
      "EUes": "La casa de vacaciones me hace\nmucha ilusión. Tú tomas las\nriendas, ¡a ver cómo queda!",
      "EUfr": "L'idée d'avoir une villa de vacances\nme réchauffe le cœur. Je te laisse\nprendre les rênes, mon ami !",
      "EUit": "Non vedo l'ora di scoprire come\nsistemerai la mia casa vacanze.\nTi lascio le redini, fammi sognare!",
      "EUnl": "Ik kan mijn enthousiasme bijna niet\nbeteugelen. Maak er wat moois van!",
      "EUru": "Мне не терпится увидеть, какой же\nбудет моя дача. Передаю бразды\nправления тебе, не подведи!",
      "JPja": "どんな別荘になるのか　楽しみにしてるよ\nじゃっ、よろしくね！",
      "KRko": "어떤 별장이 완성될지 기대하고 있을게\n그럼 잘 부탁해!",
      "TWzh": "我很期待別墅完工後的成果喔。\n那麼就麻煩你啦！",
      "USen": "I can't wait to see how my vacation\nhome turns out. I'm handing the\nreins over to you, so take it away!",
      "USes": "Estoy muy ilusionado por la casa\nde vacaciones. Tú tomas las riendas, ¡a ver cómo queda!",
      "USfr": "L'idée d'avoir une maison de \nvacances me réchauffe le cœur. \nPrends donc les rênes, mon ami!"
    }
  },
  {
    "label": "002",
    "attribute": "0x02000000",
    "locale": {
      "CNzh": "怎么样？进展还顺利吗？",
      "EUde": "Ho ho ho, wie läuft's denn so? Gibt's\nNeuigkeiten zu meinem Ferienhaus?",
      "EUen": "How ho-ho-goes it? Everything still\non track? Did you finish already?",
      "EUes": "¿Cómo va el proyecto?\n¿Ya lo has terminado?",
      "EUfr": "Alors ? Ça avance comme prévu ?\nTu as déjà tout terminé ?",
      "EUit": "Oh oh oh? Va tutto secondo i piani?\nEh? Hai già finito?",
      "EUnl": "Sleeminee! Goed je te zien. Zitten\nwe nog op schema? Ben je al klaar?",
      "EUru": "У тебя все хорошо? Работа кипит?\nТы уже закончил?",
      "JPja": "どうだい？　順調に進んでるかな？",
      "KRko": "어때? 잘돼 가?",
      "TWzh": "如何？進展得還順利嗎？",
      "USen": "How ho-ho-goes it? Everything still\non track? Did you finish already?",
      "USes": "¿Cómo va el proyecto?\n¿Ya lo terminaste?",
      "USfr": "Alors? Ça avance comme prévu?\nTu as déjà tout terminé?"
    }
  },
  {
    "label": "002_01",
    "attribute": "0x04000000",
    "locale": {
      "CNzh": "怎么样？进展还顺利吗？",
      "EUde": "Ho ho ho, wie läuft's denn so? Gibt's\nNeuigkeiten zu meinem Ferienhaus?",
      "EUen": "How ho-ho-goes it? Everything still\non track? Did you finish already?",
      "EUes": "¿Cómo va el proyecto?\n¿Ya lo has terminado?",
      "EUfr": "Alors ? Ça avance comme prévu ?\nTu as déjà tout terminé ?",
      "EUit": "Oh oh oh? Va tutto secondo i piani?\nEh? Hai già finito?",
      "EUnl": "Sleeminee! Goed je te zien. Zitten\nwe nog op schema? Ben je al klaar?",
      "EUru": "У тебя все хорошо? Работа кипит?\nТы уже закончил?",
      "JPja": "どうだい？　順調に進んでるかな？",
      "KRko": "어때? 잘돼 가?",
      "TWzh": "如何？進展得還順利嗎？",
      "USen": "How ho-ho-goes it? Everything still\non track? Did you finish already?",
      "USes": "¿Cómo va el proyecto?\n¿Ya lo terminaste?",
      "USfr": "Alors? Ça avance comme prévu?\nTu as déjà tout terminé?"
    }
  },
  {
    "label": "002_01_a",
    "attribute": "0x00000000",
    "locale": {
      "CNzh": "完成了！",
      "EUde": "Es ist fertig!",
      "EUen": "It's ready!",
      "EUes": "¡La casa está lista!",
      "EUfr": "Tout est prêt !",
      "EUit": "È pronta!",
      "EUnl": "Het is klaar!",
      "EUru": "Готово!",
      "JPja": "完成しました！",
      "KRko": "완성했어!",
      "TWzh": "完成了！",
      "USen": "It's ready!",
      "USes": "¡La casa está lista!",
      "USfr": "Tout est prêt!"
    }
  },
  {
    "label": "002_01_b",
    "attribute": "0x00000000",
    "locale": {
      "CNzh": "来建造2楼吧？",
      "EUde": "2. Etage gefällig?",
      "EUen": "Let's add an upstairs.",
      "EUes": "Añadamos una planta",
      "EUfr": "Ajoutons un étage.",
      "EUit": "Aggiungiamo un piano!",
      "EUnl": "Wil je nog een verdieping?",
      "EUru": "Добавим этаж!",
      "JPja": "2階をつくりませんか？",
      "KRko": "2층을 만드는 건 어때?",
      "TWzh": "要打造二樓嗎？",
      "USen": "Let's add an upstairs.",
      "USes": "Añadamos otro piso",
      "USfr": "Ajoutons un étage."
    }
  },
  {
    "label": "002_01_c",
    "attribute": "0x00000000",
    "locale": {
      "CNzh": "请稍等一下",
      "EUde": "Benötige noch Zeit...",
      "EUen": "Not quite yet.",
      "EUes": "Todavía falta un poco",
      "EUfr": "J'ai pas encore fini.",
      "EUit": "Ancora non è pronta...",
      "EUnl": "Nog niet helemaal klaar.",
      "EUru": "Еще чуть-чуть.",
      "JPja": "もう少し　お待ちください",
      "KRko": "조금만 더 기다려",
      "TWzh": "請再稍等一下",
      "USen": "Not quite yet.",
      "USes": "Todavía falta un poco",
      "USfr": "J'ai pas encore fini."
    }
  },
  {
    "label": "002_a",
    "attribute": "0x00000000",
    "locale": {
      "CNzh": "完成了！",
      "EUde": "Es ist fertig!",
      "EUen": "It's ready!",
      "EUes": "¡La casa está lista!",
      "EUfr": "Tout est prêt !",
      "EUit": "È pronta!",
      "EUnl": "Het is klaar!",
      "EUru": "Готово!",
      "JPja": "完成しました！",
      "KRko": "완성했어!",
      "TWzh": "完成了！",
      "USen": "It's ready!",
      "USes": "¡La casa está lista!",
      "USfr": "Tout est prêt!"
    }
  },
  {
    "label": "002_b",
    "attribute": "0x00000000",
    "locale": {
      "CNzh": "请稍等一下",
      "EUde": "Benötige noch Zeit...",
      "EUen": "Not quite yet.",
      "EUes": "Todavía falta un poco",
      "EUfr": "J'ai pas encore fini.",
      "EUit": "Ancora non è pronta...",
      "EUnl": "Nog niet helemaal klaar.",
      "EUru": "Еще чуть-чуть.",
      "JPja": "もう少し　お待ちください",
      "KRko": "조금만 더 기다려",
      "TWzh": "請再稍等一下",
      "USen": "Not quite yet.",
      "USes": "Todavía falta un poco",
      "USfr": "J'ai pas encore fini."
    }
  },
  {
    "label": "003_01",
    "attribute": "0x00000000",
    "locale": {
      "CNzh": "哎呀？\n你还没进过家里面吗？\n没想到你还是个冒失鬼呀～",
      "EUde": "Ähm... Solltest du dafür das Haus\nnicht erst mal betreten? Oder bist du\ndurch den Schornstein geschlüpft?",
      "EUen": "Huh? But you haven't even gone\ninside yet! Did you squeeze down\na secret chimney or something?",
      "EUes": "¿Eh? ¡Pero si aún no has estado\ndentro! ¿Estabas pensando entrar\npor una chimenea secreta?",
      "EUfr": "Oh, mais tu n'y es même pas encore\nentré ! Ne me dis pas que tu y as\ninstallé une cheminée secrète !",
      "EUit": "Eh? Non sei ancora entrato!\nSei passato per un camino segreto\no qualcosa di simile, per caso?",
      "EUnl": "Hè? Maar je bent nog niet eens\nbinnen geweest! Ben je door een\ngeheime schoorsteen gegaan of zo?",
      "EUru": "Хм? Но ведь ты даже не заходил\nвнутрь! Или ты тайком влез\nтуда через каминную трубу?",
      "JPja": "おや？　まだ　家の中にも\n入ってないんじゃないか？\n案外　あわてんぼうだね、キミ～",
      "KRko": "어라? 너 아직\n집 안에도 안 들어가지 않았어?\n의외로 덤벙거리는 면이 있구나～",
      "TWzh": "哎呀？你不是還沒進屋內看過嗎？\n看來你還挺冒失的呢～",
      "USen": "Huh? But you haven't even gone\ninside yet! Did you squeeze down\na secret chimney or something?",
      "USes": "¿Eh? ¡Pero si aún no has estado\nadentro! ¿Estabas pensando entrar\npor una chimenea secreta?",
      "USfr": "Oh, mais tu n'y es même pas encore\nentré! Ne me dis pas que tu y as\ninstallé une cheminée secrète!"
    }
  },
  {
    "label": "003_02",
    "attribute": "0x00000000",
    "locale": {
      "CNzh": "哎呀？\n感觉这个房间里东西有点多呢。\n不好意思，再稍微整理一下吧。",
      "EUde": "In diesem Raum ist noch weniger\nPlatz als in einer prall gefüllten\nGeschenksocke!\nIch wäre dir wirklich dankbar,\nwenn du hier noch etwas Platz\nschaffen könntest.",
      "EUen": "I'll be honest...this room feels like\nan overstuffed stocking. Any way\nyou can clear up some space?",
      "EUes": "Si te digo la verdad... este sitio\nparece un gran almacén. ¿No\npodrías hacer un poco de espacio?",
      "EUfr": "Je ne te cache pas que... cette pièce\nest aussi encombrée que mon sac de\ncadeaux. Tu peux faire de la place ?",
      "EUit": "Sarò sincero... Questa stanza sembra una calza troppo piena di dolci. Riesci a liberare un po' di spazio?",
      "EUnl": "Eerlijk gezegd... lijkt deze ruimte op\neen overvolle sok. Denk je dat je\nwat ruimte zou kunnen maken?",
      "EUru": "Если честно... эта комната\nвыглядит, как какой-то склад.\nМожет быть, ты приберешься тут?",
      "JPja": "おや？\nこの部屋、ちょっと物が多い気がするなぁ\n悪いけど、少し整理しておくれよ",
      "KRko": "어라?\n이 방에 물건이 너무 많은 것 같은데～\n미안하지만 정리 좀 부탁할게",
      "TWzh": "哎呀？\n這房間的東西似乎有點多呢。\n不好意思，請你稍微整理一下吧。",
      "USen": "I'll be honest...this room feels like\nan overstuffed stocking. Any way\nyou can clear up some space?",
      "USes": "Si te digo la verdad... este sitio\nparece un gran almacén. ¿No\npodrías hacer un poco de espacio?",
      "USfr": "Je ne te cache pas que... cette pièce\nest aussi encombrée que mon sac de\ncadeaux. Tu peux faire de la place?"
    }
  },
  {
    "label": "003_03",
    "attribute": "0x00000000",
    "locale": {
      "CNzh": "唔……\n家里东西太多了的话，\n就没地方放那些准备送给乖孩子的礼物了呀。\n不好意思，再稍微整理一下吧。",
      "EUde": "Hmmm... Findest du nicht, dass es\ndort drin etwas voll ist? Wo soll ich\nbitte die vielen Geschenke lagern?\nWenn du vor deiner Heimreise noch\netwas aufräumen könntest, wäre das\nwirklich toll! Sei doch so lieb, ja?",
      "EUen": "Hmm... The interior seemed a bit\ncrowded, didn't it? I need some free\nspace to stack gifts for the kiddos!\nCan you clear some room in there?\nSorry to be a bother!",
      "EUes": "Mmm... Está todo como un poco\napelotonado, ¿no?\n¡Necesito espacio para todos los\nregalos que tendré que repartir!\nVenga, por favor, despeja esto\nun poco... ¡y perdona que sea\ntan pesado!",
      "EUfr": "Hmm... Je vais avoir besoin de plus\nd'espace pour y stocker les cadeaux\nque je réserve aux enfants sages !\nTu voudrais bien débarrasser un\npeu la pièce ? J'espère que ça ne\nt'embête pas trop !",
      "EUit": "Mmmh... L'interno sembra un po'\ntroppo pieno, no? Mi serve spazio\nper impilare i regali!\nPuoi mettere un po' in ordine?\nScusa se ti disturbo!",
      "EUnl": "Hmm... Het is wel erg vol binnen, of\nniet? Ik heb wat ruimte nodig voor\nde opslag van cadeaus!\nKun je wat ruimte vrijmaken? Sorry\nvoor het ongemak!",
      "EUru": "Хм-м... Тесновато здесь, да? Мне\nпонадобится больше места, чтобы\nхранить подарки для детишек.\nМожет, ты тут приберешь?\nПрости, что напрягаю!",
      "JPja": "う～ん・・・\n家の中だけど、物が多くて　よいこに配る\nプレゼントが　置けそうにない気がするなぁ\nすまないけど、少し整理しておくれよ",
      "KRko": "으음... 집 안에 물건이 많아서\n착한 어린이들에게 전해줄 선물을\n어디다 둬야 할지 모르겠어～\n미안한데 조금 정리해줄래?",
      "TWzh": "嗯……\n屋內的東西實在是太多了，這樣我沒空間\n擺放要送給好孩子的禮物啊。\n抱歉，請你稍微整理一下吧。",
      "USen": "Hmm... The interior seemed a bit\ncrowded, didn't it? I need some free\nspace to stack gifts for the kiddos!\nCan you clear some room in there?\nSorry to be a bother!",
      "USes": "Mmm... El interior está como un poco\nlleno, ¿no?\n¡Necesito espacio para todos los\nregalos que tendré que repartir!\nVamos, por favor, despeja esto\nun poco... ¡y perdona que sea\ntan pesado!",
      "USfr": "Hmm... Je vais avoir besoin de plus\nd'espace pour cacher les cadeaux\nque je réserve aux enfants sages!\nTu voudrais bien débarrasser un\npeu la pièce? J'espère que ça ne\nt'embête pas trop!"
    }
  },
  {
    "label": "003_04",
    "attribute": "0x00000000",
    "locale": {
      "CNzh": "唔……我想说的是其他房间。\n因为工作原因，我要在房间里放很多行李的，\n如果没有更多空间的话就麻烦啦。\n可能要费些工夫，但还是请你再整理一下吧～",
      "EUde": "Hmmm... Ich wollte in dem anderen\nZimmer eigentlich die Geschenke\nlagern. Aber so voll, wie's darin ist...\nEntschuldige die Umstände, aber\nwäre es vielleicht möglich, dort noch\nein bisschen Platz zu schaffen?",
      "EUen": "Hmm... I'll need some space in the\nother room to store gifts. Kind of\ncrowded as is...\nCan you clear some room in there?\nSorry to be a bother!",
      "EUes": "Ehhh... Voy a necesitar espacio para\nalmacenar regalos en la otra\nhabitación. Y es que tal como está...\n¿No la podrías despejar un poco?\nSiento molestar con estas cosas.",
      "EUfr": "Hmm... Je vais avoir besoin d'espace\ndans l'autre pièce pour stocker les\ncadeaux. Ça ne me va pas en l'état...\nTu veux bien faire un peu de place ?\nJ'espère que ça ne t'embête pas !",
      "EUit": "Mmmh... Mi serve un po' di spazio\nnell'altra stanza per mettere i regali.\nCosì com'è ora ci sono troppe cose...\nPotresti liberare un po' il pavimento?\nScusa se ti disturbo!",
      "EUnl": "Hmm... Met al die spullen heb ik\ngeen ruimte om cadeaus op te slaan.\nHet staat wel erg vol hier...\nKun je wat ruimte vrijmaken? Dat zou\nheel fijn zijn!",
      "EUru": "Хм-м... Мне нужно место для\nхранения подарков. В той комнате\nтесновато...\nМожет быть, ты расчистишь ее для\nменя? Прости, что напрягаю!",
      "JPja": "う～ん・・・　他の部屋なんだけど\n仕事柄、荷物を　いっぱい置くことがあるから\nもっとスペースが無いと　困るんだよなぁ\n手間をかけるけど、少し整理しておくれよ",
      "KRko": "흐음～... 다른 방 말인데\n일하다 보면 짐을 잔뜩 둘 때가 있어서\n좀 더 공간이 있어야 하거든\n수고롭겠지만 조금만 정리해주라",
      "TWzh": "嗯……我想跟你商量另一間房間的事。\n我因為工作緣故，常會需要擺放大量行李，\n要是沒有更多空間的話，我會很困擾的。\n所以我想麻煩你，再幫我稍微整理一下。",
      "USen": "Hmm... I'll need some space in the\nother room to store gifts. Kind of\ncrowded as is...\nCan you clear some room in there?\nSorry to be a bother!",
      "USes": "Ehhh... Voy a necesitar espacio para\nalmacenar regalos en la otra\nhabitación. Y es que tal como está...\n¿No la podrías despejar un poco?\nSiento molestar con estas cosas.",
      "USfr": "Hmm... Je vais avoir besoin d'espace\ndans l'autre pièce pour cacher les\ncadeaux. Ça ne marchera pas...\nTu veux bien faire un peu de place?\nJ'espère que ça ne te dérange pas!"
    }
  },
  {
    "label": "004",
    "attribute": "0x00000000",
    "locale": {
      "CNzh": "辛苦啦！\n其实我因为太激动，早就已经等不及了呢！",
      "EUde": "Toll gemacht, Kindchen! So aufgeregt\nwar ich zuletzt, als ich von knitter-\nfreiem Geschenkpapier geträumt hab!",
      "EUen": "Great job, kid! I was so excited,\nI could barely keep it under wraps!",
      "EUes": "¡Muy bien hecho, chico! ¡Me has\nhecho sentir la emoción de abrir\nun regalo muy esperado!",
      "EUfr": "Beau travail, petit ! J'ai ressenti\nla même émotion que lorsqu'on\nouvre un cadeau tant attendu !",
      "EUit": "Ben fatto, pandorino! Sono troppo\nemozionato. Riesco a malapena a\nnasconderlo!",
      "EUnl": "Uitstekend gedaan! Ik kon mijn\nenthousiasme nog maar net\nbeteugelen!",
      "EUru": "Отличная работа! Это просто\nподарок какой-то! Моя дача\nполностью упакована!",
      "JPja": "ごくろうさま！\nワクワクして　待ちきれなかったよ！",
      "KRko": "고생했어!\n기다리는데 너무 설레더라!",
      "TWzh": "辛苦你了！\n我已經期待到快等不及啦！",
      "USen": "Great job, kid! I was so excited,\nI could barely keep it under wraps!",
      "USes": "¡Muy bien hecho, chico! ¡Me hiciste\nsentir la emoción de abrir un regalo\nmuy esperado!",
      "USfr": "Beau travail, petit! J'ai ressenti\nla même émotion que lorsqu'on\nouvre un cadeau tant attendu!"
    }
  },
  {
    "label": "005",
    "attribute": "0x00000000",
    "locale": {
      "CNzh": "好的！\n等完成了，记得再来告诉我一声哦～",
      "EUde": "Okay! Gib Bescheid, wenn du die\nSache eintüten magst!\nÄh, also im übertragenen Sinne.\nSo große Geschenktüten habe ich nicht...",
      "EUen": "OK! Let me know when you're ready\nto wrap this up. Not literally. I would\nneed waaay more wrapping paper.",
      "EUes": "Bueno, tú avísame cuando esté ya\ntodo envuelto en su papel de regalo.\nEs una metáfora, claro. ¡No vamos\na gastar semejante cantidad de papel!",
      "EUfr": "OK ! Fais-moi signe quand tu es\nprêt à partir, que je puisse\nte souhaiter bon vent !",
      "EUit": "OK! Dimmi quando il regalo è pronto\nper essere impacchettato.\nNon prendermi alla lettera, però.\nCi vorrebbe troppa carta.",
      "EUnl": "Oké! Laat het me weten wanneer je\ner klaar voor bent om dit aan te\npakken.\nInpakken is leuker. Maar dan heb ik\nveeeel meer inpakpapier nodig.",
      "EUru": "Еще не готово? Долгожданный\nподарок, выходит. Дай знать, когда\nможно будет перерезать ленточку!",
      "JPja": "オーケーだよ！\n完成したら　また声をかけておくれ",
      "KRko": "오케이!\n완성하면 다시 말을 걸어줘",
      "TWzh": "OK！\n等你完成後再告訴我吧。",
      "USen": "OK! Let me know when you're ready\nto wrap this up. Not literally. I would\nneed waaay more wrapping paper.",
      "USes": "Bueno, tú avísame cuando esté ya\ntodo envuelto en su papel de regalo.\nEs una metáfora, claro. ¡No vamos\na gastar semejante cantidad de papel!",
      "USfr": "OK! Fais-moi signe quand tu es\nprêt à partir, que je puisse\nte souhaiter bonne chance!"
    }
  },
  {
    "label": "006",
    "attribute": "0x02000000",
    "locale": {
      "CNzh": "现在还能建2楼吗？\n不过既然你都这么说了，\n况且机会难得，要不就拜托你吧。",
      "EUde": "Du setzt noch eins drauf? Also ein\nObergeschoss, mein ich jetzt...\nWunderbar! Zusätzlichen Lagerplatz\nfür Geschenke kann ich immer gut\ngebrauchen! Also, legen wir los!",
      "EUen": "You can add a second floor?!\nI'll never turn down extra space\nfor gift storage. Let's do it!",
      "EUes": "¡¿Puedes añadirle una planta?!\nNunca rechazaré espacio adicional\npara almacenar regalos. ¡Adelante!",
      "EUfr": "Tu peux ajouter un étage ?! Je ne\ndirai jamais non à plus d'espace\nde stockage pour mes cadeaux !",
      "EUit": "Puoi aggiungere un altro piano?!\nNon rinuncio certo a un posto extra\nper conservare i regali. Procediamo!",
      "EUnl": "Er kan een extra verdieping bij?! Ik\nzeg nooit nee tegen extra\ncadeau-opslagplek. Kom maar op!",
      "EUru": "Ты можешь построить второй\nэтаж?! Больше места — больше\nподарков! Начнем прямо сейчас!",
      "JPja": "今から　2階なんて作れるのかい？\nでも　そう言ってもらえるなら\nせっかくの機会だし　お願いしようかな？",
      "KRko": "여기서 2층으로 만들 수가 있어?\n그래도 네가 그렇게 말한다면야\n좋은 기회니까 부탁 좀 할게～",
      "TWzh": "你現在要幫我蓋二樓嗎？\n既然你都這麼說了，\n那我就趁這難得的機會拜託你吧。",
      "USen": "You can add a second floor?!\nI'll never turn down extra space\nfor gift storage. Let's do it!",
      "USes": "¡¿Puedes añadirle un piso?!\nNunca rechazaré espacio adicional\npara almacenar regalos. ¡Adelante!",
      "USfr": "Tu peux ajouter un étage?! Je ne\ndirai jamais non à plus d'espace\nd'entreposage pour mes cadeaux!"
    }
  },
  {
    "label": "006_a",
    "attribute": "0x00000000",
    "locale": {
      "CNzh": "请交给我吧！",
      "EUde": "Überlass alles mir!",
      "EUen": "Leave it all to me!",
      "EUes": "¡Yo me encargo!",
      "EUfr": "Je m'occupe de tout !",
      "EUit": "Lascia fare a me!",
      "EUnl": "Laat alles maar aan mij over!",
      "EUru": "Предоставь это мне!",
      "JPja": "お任せください！",
      "KRko": "맡겨만 줘!",
      "TWzh": "請交給我吧！",
      "USen": "Leave it all to me!",
      "USes": "¡Yo me encargo!",
      "USfr": "Je m'occupe de tout!"
    }
  },
  {
    "label": "006_b",
    "attribute": "0x00000000",
    "locale": {
      "CNzh": "还是算了吧",
      "EUde": "Ach, lassen wir das...",
      "EUen": "Actually, never mind.",
      "EUes": "Mejor lo dejamos estar",
      "EUfr": "Laissons tomber.",
      "EUit": "Meglio lasciar stare...",
      "EUnl": "Weet je, laat maar zitten...",
      "EUru": "Забудь.",
      "JPja": "やっぱりやめましょう",
      "KRko": "역시 그만두자",
      "TWzh": "還是算了吧",
      "USen": "Actually, never mind.",
      "USes": "Mejor olvídalo",
      "USfr": "Laissons tomber."
    }
  },
  {
    "label": "007",
    "attribute": "0x00000000",
    "locale": {
      "CNzh": "那就接着麻烦你了！",
      "EUde": "In Ordnung! Also, gutes Gelingen!",
      "EUen": "OK. Well, keep up the good work!",
      "EUes": "Ah, vale, ¡pues sigue trabajando!",
      "EUfr": "D'accord. Je te laisse lancer\nles festivités, alors !",
      "EUit": "OK. Bene, continua così!",
      "EUnl": "Oké. Nou, blijf zo doorgaan!",
      "EUru": "Ага. Хорошо, продолжай в том же\nдухе!",
      "JPja": "それじゃあ、引き続き　よろしく頼むね！",
      "KRko": "그럼 계속해서 잘 부탁해!",
      "TWzh": "那麼接下來也要麻煩你了！",
      "USen": "OK. Well, keep up the good work!",
      "USes": "Ah, bueno, ¡pues sigue trabajando!",
      "USfr": "D'accord. Je te laisse lancer\nles festivités, alors!"
    }
  },
  {
    "label": "008",
    "attribute": "0x00000000",
    "locale": {
      "CNzh": "啊，这样吗？\n唉，好可惜啊。",
      "EUde": "Oh! Ist das dein Ernst?\nWirklich schade.",
      "EUen": "Oh! Is that so? Too bad.",
      "EUes": "¿Eh? Bueno... Qué lástima.",
      "EUfr": "Oh ! Vraiment ? Quel dommage.",
      "EUit": "Ah! Davvero? Peccato.",
      "EUnl": "O! Is dat zo? Jammer.",
      "EUru": "Ох! Правда? Очень жаль.",
      "JPja": "おや、そうかい？\nなんだ　残念だなぁ",
      "KRko": "어라, 그래?\n아쉽지만 어쩔 수 없지...",
      "TWzh": "哎呀，這樣嗎？\n那真是可惜啊。",
      "USen": "Oh! Is that so? Too bad.",
      "USes": "¿Eh? Bueno... Qué lástima.",
      "USfr": "Oh! Vraiment? Quel dommage."
    }
  },
  {
    "label": "011",
    "attribute": "0x00000000",
    "locale": {
      "CNzh": "你居然花了这么长时间为我建别墅，\n我好幸福啊。\n太感谢你了！",
      "EUde": "Danke, dass du dir mit meinem Haus\nso viel Mühe gegeben hast. Ein\nwahrhaft willkommenes Geschenk!",
      "EUen": "Thanks for putting so much time into\ndesigning this home for me. It's been\nsuch a welcome gift!",
      "EUes": "Gracias por todo el tiempo que le\nhas dedicado a diseñarme la casa.\n¡Es todo un regalo!",
      "EUfr": "Merci d'avoir fourni tant d'efforts\npour construire cette maison. C'est\nun magnifique cadeau de bienvenue !",
      "EUit": "Grazie per il tempo che hai speso\nper progettare la mia casa. È stato\nun dono festosissimo!",
      "EUnl": "Bedankt dat je zoveel tijd steekt in\nhet ontwerpen van dit huis voor me.\nWat een fijn cadeau!",
      "EUru": "Спасибо, что ты потратил столько\nвремени на дизайн моей дачи. Это\nочень ценный подарок!",
      "JPja": "こんなに　時間をかけて\n作ってもらえるなんて、ボかぁ　幸せだなぁ\n心から感謝するよ！",
      "KRko": "이렇게 시간을 들여서 만들어주다니\n난 정말 행복한 순록이야\n진심으로 고마워!",
      "TWzh": "你居然花了這麼多時間\n來打造我的別墅，我真是幸福啊。\n我打從心底感謝你喔！",
      "USen": "Thanks for putting so much time into\ndesigning this home for me. It's been\nsuch a welcome gift!",
      "USes": "Gracias por todo el tiempo que\ndedicaste para diseñarme la casa.\n¡Es todo un regalo!",
      "USfr": "Merci d'avoir fourni tant d'efforts\npour construire cette maison. C'est\nun magnifique cadeau de bienvenue!"
    }
  },
  {
    "label": "013",
    "attribute": "0x00000000",
    "locale": {
      "CNzh": "什么！已经完成了？\n哈哈，你可真厉害～\n辛苦了啊！",
      "EUde": "Hui! Schon fertig? Du hast wirklich\nTalent, Kindchen! Und danke noch\nmal für die viele Mühe!",
      "EUen": "Whoa! Finished already? You're\nreally something, kid. Thanks for\nall your hard work!",
      "EUes": "¡Jo, jo, jo! ¿Ya has terminado?\nEres muy grande. ¡Gracias por\ntu gran trabajo!",
      "EUfr": "Ouah ! Tu as déjà terminé ? Tu es\nencore plus rapide que mon patron.\nUn grand merci à toi !",
      "EUit": "Ullallà! Già finito? Sei davvero in\nzampa, pandorino. Grazie per il tuo\nfestoso impegno!",
      "EUnl": "Wauw! Ben je al klaar? Jij bent echt\nongelo-ho-felijk. Bedankt voor al\nje harde werk!",
      "EUru": "Ого! Все готово? Это просто\nпраздник какой-то! Огромное\nспасибо за помощь!",
      "JPja": "おっと！　もう完成だって？\nハハッ、さすがだね～\nどうも　ごくろうさま！",
      "KRko": "아닛! 벌써 완성했다고?\n하핫, 역시 대단한걸～\n정말 고생 많았어!",
      "TWzh": "哎呀！你說你已經完成了？\n哈哈，不愧是你～\n真是辛苦你啦！",
      "USen": "Whoa! Finished already? You're\nreally something, kid. Thanks for\nall your hard work!",
      "USes": "¡Jo, jo, jo! ¿Ya terminaste?\nComo tú no hay dos. ¡Gracias por\ntu gran trabajo!",
      "USfr": "Wow! Tu as déjà terminé? Tu es\nencore plus rapide que mon patron.\nUn grand merci à toi!"
    }
  },
  {
    "label": "016",
    "attribute": "0x00000000",
    "locale": {
      "CNzh": "",
      "EUde": "",
      "EUen": "",
      "EUes": "",
      "EUfr": "",
      "EUit": "",
      "EUnl": "",
      "EUru": "",
      "JPja": "",
      "KRko": "",
      "TWzh": "",
      "USen": "",
      "USes": "",
      "USfr": ""
    }
  },
  {
    "label": "016_01",
    "attribute": "0x00000000",
    "locale": {
      "CNzh": "哎呀，我非常喜欢！\n交给专业人员来做真的太值了～！",
      "EUde": "Hui! Also DAS nenne ich mal eine\nschöne Bescherung, im positiven\nSinn! Gut gemacht, Kindchen!",
      "EUen": "Wow! You sleighed this job, kid!\nI'm so glad I let you take the reins.",
      "EUes": "¡Hala! ¡Qué bien repartes tus\nregalos! Me alegra mucho\nhaberlo dejado en tus manos.",
      "EUfr": "Ouah ! C'est beau comme un matin\nd'hiver ! Je suis ravi de t'avoir laissé\nprendre les rênes, mon ami.",
      "EUit": "Uau! Liscio e veloce come una slitta!\nSai che le redini in mano ti donano,\npandorino?",
      "EUnl": "Sleeminee! Het is nu al af! Jij bent\nniet het type dat de teugels laat\nvieren.",
      "EUru": "Ух ты! Вот мы и добрались до\nфинишной ленты! Долетели, как на\nсанях! Спасибо тебе!",
      "JPja": "いやぁ、すっかり気に入っちゃったよ！\nプロに　お任せしたかいがあるな～！",
      "KRko": "우와, 마음에 쏙 들어!\n프로에게 맡기길 잘했네～!",
      "TWzh": "哎呀，我很中意喔！\n拜託專家果然是對的～！",
      "USen": "Wow! You sleighed this job, kid!\nI'm so glad I let you take the reins.",
      "USes": "¡Vaya! ¡Qué bien repartes tus\nregalos! Me alegra mucho\nhaberlo dejado en tus manos.",
      "USfr": "Wow! C'est beau comme un matin\nd'hiver! Je suis ravi de t'avoir laissé\nprendre les rênes, mon ami."
    }
  },
  {
    "label": "017",
    "attribute": "0x02000000",
    "locale": {
      "CNzh": "既然你的工作也告一段落了，\n那只要你愿意，\n你就可以在我的别墅里好好休息一下。",
      "EUde": "Brauchst du jetzt vielleicht eine\nkleine Pause? Nur keine Scheu,\nleg ruhig ein Weilchen die Hufe hoch!",
      "EUen": "Reached a good stopping point?\nFeel free to rest your hooves for\na little while!",
      "EUes": "¿Necesitas hacer una pausa?\n¡Quédate un rato y dales\nun descanso a tus pezuñas!",
      "EUfr": "Tu as besoin d'une pause ?\nN'hésite pas à te reposer les\nsabots si tu en as envie.",
      "EUit": "Che dici, è ora di fare una pausa?\nRilassa pure gli zoccoli per un po'.",
      "EUnl": "Is dit een goede rustplaats? Blaas\ngerust even uit!",
      "EUru": "Если ты никуда не спешишь, то\nможешь устроиться здесь и дать\nотдых своим копытцам.",
      "JPja": "キミの仕事も　一段落ついたところだろうし、\nよければ　ボクの別荘で\nエンリョなく　羽を伸ばしていっておくれよ",
      "KRko": "네 일도 마무리됐으니까\n시간만 된다면 내 별장에서\n편하게 쉬고 가",
      "TWzh": "既然你的工作已經告一段落，\n如果你方便的話，\n就在我的別墅好好休息吧，千萬別客氣。",
      "USen": "Reached a good stopping point?\nFeel free to rest your hooves for\na little while!",
      "USes": "¿Necesitas hacer una pausa?\n¡Quédate un rato y dales\nun descanso a tus pezuñas!",
      "USfr": "Tu as besoin d'une pause?\nN'hésite pas à te reposer les\nsabots si tu en as envie."
    }
  },
  {
    "label": "017_01",
    "attribute": "0x00000000",
    "locale": {
      "CNzh": "要走了吗？\n那你下次再来玩呀，\n我随时欢迎你！",
      "EUde": "Oh, ho ho? Du bist mir hier\njedenfalls immer willkommen.\nSchau ruhig mal wieder vorbei!",
      "EUen": "Oh ho ho? Well, you're always\nwelcome here, so I hope you'll\nvisit again soon!",
      "EUes": "Jo, jo, jo... Bueno, aquí eres siempre\nbienvenido, ¡así que espero verte\npronto de nuevo!",
      "EUfr": "Ho ho ho ? Eh bien, n'hésite pas\nà repasser me rendre visite.\nJe t'accueillerai avec plaisir.",
      "EUit": "Oh oh oh? Beh, qui sei sempre\nil benvenuto, quindi spero che\ntornerai presto a farmi visita.",
      "EUnl": "O ho-ho? Nou, je bent altijd welkom\nhier. Ik hoop je snel weer te zien!",
      "EUru": "Хо-хорошо. Ну, значит в другой раз.\nЯ всегда рад гостям, так что\nзаглядывай в любое время!",
      "JPja": "そうかい？\nじゃあ　また遊びに来てくれると　嬉しいな\nキミなら　いつでも歓迎するからさ！",
      "KRko": "그럴래?\n그럼 또 놀러와줘\n너라면 언제든지 환영이야!",
      "TWzh": "這樣啊？\n如果你還願意來找我玩，我會很高興的。\n我隨時都歡迎你喔！",
      "USen": "Oh ho ho? Well, you're always\nwelcome here, so I hope you'll\nvisit again soon!",
      "USes": "Jo, jo, jo... Bueno, aquí eres siempre\nbienvenido, ¡así que espero verte\npronto de nuevo!",
      "USfr": "Ho ho ho? Eh bien, n'hésite pas\nà repasser me rendre visite.\nJe t'accueillerai avec plaisir."
    }
  },
  {
    "label": "017_02",
    "attribute": "0x00000000",
    "locale": {
      "CNzh": "当然可以！\n尽情地按下快门吧。\n拍好了记得和我说一声哦。",
      "EUde": "Klar doch! Knips, was das Zeug hält! \nAber sag Bescheid, bevor du nach\nHause aufbrichst.",
      "EUen": "Of course! Snap that shutter as much\nas you need! Just let me know when\nyou're all done.",
      "EUes": "¡Claro! ¡Haz todas las fotos que\nquieras! Avísame luego cuando\ntermines.",
      "EUfr": "Bien entendu ! Prends autant de\nphotos qu'il te plaira ! Fais-moi\nsigne quand tu auras terminé.",
      "EUit": "Ma certo! Scatta tutte le foto\nche vuoi! E fammi sapere quando\nhai finito.",
      "EUnl": "Natuurlijk! Schiet er zoveel als je wil!\nMaar laat me wel weten wanneer je\nklaar bent.",
      "EUru": "Без проблем! Щелкай затвором\nсколько влезет! Когда закончишь,\nпросто найди меня.",
      "JPja": "もちろん　いいとも！\n好きなだけ　シャッターを切っておくれ\n撮り終わったら　ボクに声をかけてね",
      "KRko": "물론 괜찮지!\n찍고 싶은 만큼 맘껏 찍어\n다 찍으면 나한테 말해줘",
      "TWzh": "那當然好了！\n你就盡情地拍照吧。\n等你拍完記得跟我說一聲喔。",
      "USen": "Of course! Snap that shutter as much\nas you need! Just let me know when\nyou're all done.",
      "USes": "¡Claro! ¡Toma todas las fotos que\nquieras! Avísame luego cuando\ntermines.",
      "USfr": "Bien entendu! Prends autant de\nphotos qu'il te plaira! Fais-moi\nsigne quand tu auras terminé."
    }
  },
  {
    "label": "017_04",
    "attribute": "0x02000000",
    "locale": {
      "CNzh": "好不容易完成了一栋\n这么漂亮的别墅，\n你可以拍几张照片哦～",
      "EUde": "Mach doch noch ein paar Fotos!\nKann nicht schaden, dein Kunstwerk\nfür die Nachwelt festzuhalten!",
      "EUen": "I don't mind if you take photos. You\ndid all the hard work here, after all!",
      "EUes": "No me importa que hagas fotos.\n¡Faltaría más, si has hecho todo\nel trabajo!",
      "EUfr": "Ça ne me dérange pas du tout que\ntu prennes des photos. C'est toi qui\nas fait tout le travail, après tout !",
      "EUit": "Non mi dispiace se fai delle foto.\nTutto il lavoro qui l'hai fatto tu,\ndopotutto!\nAllora, vuoi fare delle foto?",
      "EUnl": "Ik vind het niet erg als je foto's\nneemt. Jij hebt immers al het harde\nwerk verricht!",
      "EUru": "Не хочешь сделать фотки? В конце\nконцов, только благодаря тебе\nздесь есть что фотографировать.",
      "JPja": "せっかく　こんなに\nステキな別荘が　完成したんだから\n写真を撮ってくれても　かまわないよ？",
      "KRko": "모처럼 이렇게\n근사한 별장이 완성됐으니까\n사진 찍고 싶지 않아?",
      "TWzh": "難得打造出這麼棒的別墅，\n你要拍照留念也可以喔？",
      "USen": "I don't mind if you take photos. You\ndid all the hard work here, after all!",
      "USes": "No me importa que tomes fotos.\n¡Faltaba más, si hiciste todo\nel trabajo!",
      "USfr": "Ça ne me dérange pas du tout que\ntu prennes des photos. C'est toi qui\nas fait tout le travail, après tout!"
    }
  },
  {
    "label": "017_04_a",
    "attribute": "0x00000000",
    "locale": {
      "CNzh": "好的，请让我拍照",
      "EUde": "Ja, ich mache  Fotos.",
      "EUen": "Yes, I'll take photos.",
      "EUes": " Sí, haré fotos",
      "EUfr": "Oui, des  photos !",
      "EUit": "Sì, grazie!",
      "EUnl": "Ja, doe ik.",
      "EUru": "Да, сделаю  снимки.",
      "JPja": "はい、撮らせてください",
      "KRko": "응, 찍을래!",
      "TWzh": "是的，請讓我拍張照",
      "USen": "Yes, I'll take photos.",
      "USes": " Sí, tomaré fotos",
      "USfr": "Oui, des  photos!"
    }
  },
  {
    "label": "017_04_b",
    "attribute": "0x00000000",
    "locale": {
      "CNzh": "抱歉，我要先走了",
      "EUde": "Ich muss zurück...",
      "EUen": "I need to head back.",
      "EUes": "No, tengo que irme",
      "EUfr": "Je dois repartir.",
      "EUit": "Devo proprio andare.",
      "EUnl": "Ik moet weer gaan.",
      "EUru": "Мне пора.",
      "JPja": "いえ、失礼します",
      "KRko": "아니, 됐어",
      "TWzh": "不了，我先走了",
      "USen": "I need to head back.",
      "USes": "No, me tengo que ir",
      "USfr": "Je dois repartir."
    }
  },
  {
    "label": "017_05",
    "attribute": "0x00000000",
    "locale": {
      "CNzh": "请你尽情拍，\n直到拍出满意的照片为止！\n不过，你拍好了记得告诉我一声哦～",
      "EUde": "Fotografier nach Herzenslust!\nUnd nur keine Eile! Sag einfach\nBescheid, wenn du fertig bist.",
      "EUen": "Take all the shots you want! No rush.\nJust let me know when you're ready\nto wrap it up!",
      "EUes": "¡Haz todas las fotos que quieras!\nNo hay prisa. Avísame cuando\nhayas terminado.",
      "EUfr": "Prends autant de photos que tu\nle souhaites ! Et préviens-moi\nquand tu as terminé.",
      "EUit": "Fai tutte le foto che vuoi! Senza\nfretta. E dimmi quando il tuo pacco\ndi foto è pronto!",
      "EUnl": "Schiet zoveel foto's als je wilt!\nWe hebben alle tijd. En laat het maar\nweten wanneer je klaar bent!",
      "EUru": "Щелкай на здоровье! Сколько\nугодно! Только сделай мне\nподарок — сообщи как закончишь.",
      "JPja": "お気に入りの一枚が撮れるまで\nいくらでも粘ってくれて　オーケーさ！\nじゃあ、終わったら　また声をかけておくれ",
      "KRko": "마음에 드는 사진을 찍을 때까지\n얼마든지 도전해도 괜찮아!\n그럼 끝나면 다시 말을 걸어줘",
      "TWzh": "在你拍出滿意的照片之前，\n你想在這裡待多久都可以！\n那麼拍完以後，記得跟我說一聲喔。",
      "USen": "Take all the shots you want! No rush.\nJust let me know when you're ready\nto wrap it up!",
      "USes": "¡Toma todas las fotos que quieras!\nNo hay prisa. Avísame cuando\nhayas terminado.",
      "USfr": "Prends autant de photos que tu\nle souhaites! Et préviens-moi\nquand tu as terminé."
    }
  },
  {
    "label": "017_06",
    "attribute": "0x00000000",
    "locale": {
      "CNzh": "要走了吗？\n那你下次再来玩呀，\n我随时欢迎你！",
      "EUde": "Oh, ho ho? Na gut. Aber komm ruhig\nmal wieder vorbei. Du bist hier immer\nwillkommen!",
      "EUen": "Oh ho ho? OK, but be sure to visit\nagain. You're always welcome here!",
      "EUes": "Jo, jo, jo... Bueno, pero vuelve\na pasarte otro día. ¡Eres siempre\nbienvenido!",
      "EUfr": "Ho ho ho ? Très bien, mais pense à\nrendre visite à ton petit renne au nez\nnoir préféré, de temps en temps !",
      "EUit": "Oh oh oh? OK, ma torna a trovarmi.\nSei sempre il benvenuto qui!",
      "EUnl": "O ho-ho? Oké, maar kom zeker nog\neens langs. Je bent altijd welkom\nhier!",
      "EUru": "Хо-хорошо, тогда заглядывай\nв другой раз. Я всегда рад\nтебя видеть!",
      "JPja": "そうかい？\nそれじゃ、また　遊びに来ておくれよ\nキミなら　いつでも大歓迎さっ！",
      "KRko": "아, 그럴래?\n그럼 다음에 또 놀러와줘\n너라면 언제든 대환영이야!",
      "TWzh": "這樣啊？\n那麼請你下次再來玩吧。\n我隨時都歡迎你來拜訪喔！",
      "USen": "Oh ho ho? OK, but be sure to visit\nagain. You're always welcome here!",
      "USes": "Jo, jo, jo... Bueno, pero vuelve\nde visita otro día. ¡Siempre eres\nbienvenido!",
      "USfr": "Ho ho ho? Très bien, mais pense à\nrendre visite à ton petit renne au nez\nnoir préféré, de temps en temps!"
    }
  },
  {
    "label": "017_a",
    "attribute": "0x00000000",
    "locale": {
      "CNzh": "请让我拍张照",
      "EUde": "Darf ich  Fotos machen?",
      "EUen": "May I take photos?",
      "EUes": " ¿Puedo sacar fotos?",
      "EUfr": "Je peux faire des  photos ?",
      "EUit": "Posso fare delle  foto?",
      "EUnl": "Mag ik  foto's maken?",
      "EUru": "Можно делать  снимки?",
      "JPja": "写真を撮らせてください",
      "KRko": "사진 좀 찍을게",
      "TWzh": "請讓我拍張照",
      "USen": "May I take photos?",
      "USes": " ¿Puedo tomar fotos?",
      "USfr": "Je peux faire des  photos?"
    }
  },
  {
    "label": "017_b",
    "attribute": "0x00000000",
    "locale": {
      "CNzh": "不用了，我该走了",
      "EUde": "Nein, ich muss los.",
      "EUen": "Nah, I'll head out.",
      "EUes": "Mejor me voy, gracias",
      "EUfr": "Non, je dois y aller.",
      "EUit": "No, preferisco andare.",
      "EUnl": "Nee, ik ga ervandoor.",
      "EUru": "Не-а, мне пора идти.",
      "JPja": "いえ、そろそろ失礼します",
      "KRko": "아니, 이만 가볼게",
      "TWzh": "不，我差不多該告辭了",
      "USen": "Nah, I'll head out.",
      "USes": "Mejor me voy, gracias",
      "USfr": "Non, je dois y aller."
    }
  },
  {
    "label": "018",
    "attribute": "0x02000000",
    "locale": {
      "CNzh": "哎呀，怎么了吗？",
      "EUde": "Ho ho ho! Alles fein, Kindchen?",
      "EUen": "Hey! What's up, kid?",
      "EUes": "¡Hola! ¿Qué te cuentas?",
      "EUfr": "Salut ! Quoi de neuf, l'ami ?",
      "EUit": "Ehi! Tutto bene, pandorino?",
      "EUnl": "Hé! Hoe gaat ie?",
      "EUru": "Ну что? Как тут идут дела?",
      "JPja": "やあ、どうかしたかい？",
      "KRko": "안녕, 무슨 일이야?",
      "TWzh": "嗨，怎麼了嗎？",
      "USen": "Hey! What's up, kid?",
      "USes": "¡Hola! ¿Qué me cuentas?",
      "USfr": "Salut! Quoi de nouveau, l'ami?"
    }
  },
  {
    "label": "018_a",
    "attribute": "0x00000000",
    "locale": {
      "CNzh": "要回去了",
      "EUde": "Schluss für heute.",
      "EUen": "I'm heading back.",
      "EUes": "Me vuelvo a la agencia",
      "EUfr": "Bon, je m'en vais.",
      "EUit": "Me ne vado.",
      "EUnl": "Ik ga er weer vandoor.",
      "EUru": "Вернусь обратно.",
      "JPja": "帰ります",
      "KRko": "돌아갈게",
      "TWzh": "我要回去了",
      "USen": "I'm heading back.",
      "USes": "Vuelvo a la agencia",
      "USfr": "Bon, je m'en vais."
    }
  },
  {
    "label": "018_b",
    "attribute": "0x00000000",
    "locale": {
      "CNzh": "没什么",
      "EUde": "Ach, nichts weiter.",
      "EUen": "I'm all good!",
      "EUes": "No, nada...",
      "EUfr": "Tout va bien !",
      "EUit": "È tutto OK.",
      "EUnl": "Alles is in orde!",
      "EUru": "Все хорошо!",
      "JPja": "なんでもないです",
      "KRko": "아무것도 아니야",
      "TWzh": "沒什麼事",
      "USen": "I'm all good!",
      "USes": "No, nada...",
      "USfr": "Tout va bien!"
    }
  },
  {
    "label": "020",
    "attribute": "0x00000000",
    "locale": {
      "CNzh": "这样啊？\n你可以在这儿多待一会儿哦。",
      "EUde": "Gut! Dann immer schön weiter so.\nDenk dran, emsige Jungs gehen\nam Spielzeugtag selten leer aus...",
      "EUen": "Good! Keep taking it nice and easy.\nDowntime like this is a rare gift.",
      "EUes": "Bueno, sigue tomándote la vida\ncon calma, porque es un regalo\nexcepcional.",
      "EUfr": "Merveilleux ! Continue comme ça.\nChaque instant est un cadeau en soi.",
      "EUit": "Non preoccuparti! Continua a fare\ntutto con calma. I momenti di relax\nsono un dono prezioso.",
      "EUnl": "Goed! Doe het rustig aan. Zie het als\neen cadeautje voor jezelf.",
      "EUru": "Отлично! Теперь можно\nи отдохнуть. Умение\nрасслабиться — это редкий дар.",
      "JPja": "そうかい？\nゆっくりしていってくれて　いいからね",
      "KRko": "그래?\n여기서 편하게 쉬다 가!",
      "TWzh": "這樣啊？\n那麼請你好好休息吧。",
      "USen": "Good! Keep taking it nice and easy.\nDowntime like this is a rare gift.",
      "USes": "Bueno, sigue tomándote la vida\ncon calma, porque es un regalo\nexcepcional.",
      "USfr": "Merveilleux! Continue comme ça.\nChaque instant est un cadeau en soi."
    }
  },
  {
    "label": "021",
    "attribute": "0x00000000",
    "locale": {
      "CNzh": "今天谢谢你了。\n回去路上注意安全啊。\n以后再有事情也请多多关照！",
      "EUde": "In Ordnung! Und danke noch mal für\ndeine Hilfe. Komm gut heim und lass\nmich wissen, falls du was brauchst!",
      "EUen": "OK! Thanks again. You were a huge\nhelp today. Get home safe, and let\nme know if you need anything!",
      "EUes": "Bueno, ¡pues gracias de nuevo!\nMe has ayudado muchísimo.\n¡Vuelve bien a casa y avísame si\nnecesitas algo! (Aparte de regalos.)",
      "EUfr": "D'accord ! Merci encore. Tu m'as été\nd'une grande aide. Rentre bien,\net repasse me voir à l'occasion !",
      "EUit": "OK! Grazie ancora. Sei stato di\ngrande aiuto oggi. Buon ritorno\ne fammi sapere se ti serve qualcosa!",
      "EUnl": "Oké! Nogmaals bedankt. Dit was het\nmooiste cadeau ooit. Kom goed\nthuis, ik sta bij je in het krijt!",
      "EUru": "Хорошо! Спасибо еще раз!\nСчастливого пути. Дай знать, если\nтебе что-то понадобится.",
      "JPja": "今日は　すっかりお世話になったね\n気を付けて　帰っておくれよ\nまた　何かあったらよろしくね！",
      "KRko": "오늘은 정말 고생 많았어\n조심해서 돌아가\n또 무슨 일 생기면 부탁할게!",
      "TWzh": "今天真是辛苦你了，\n回去的路上要小心喔。\n如果還有事的話再麻煩你了！",
      "USen": "OK! Thanks again. You were a huge\nhelp today. Get home safe, and let\nme know if you need anything!",
      "USes": "Bueno, ¡pues gracias de nuevo!\nMe ayudaste muchísimo.\n¡Vuelve bien a casa y avísame si\nnecesitas algo! (Además de regalos).",
      "USfr": "D'accord! Merci encore. Tu m'as été\nd'une grande aide. Rentre bien,\net repasse me voir à l'occasion!"
    }
  },
  {
    "label": "022",
    "attribute": "0x00000000",
    "locale": {
      "CNzh": "对了，这栋别墅的主题名称是什么呢？\n你是基于怎样的构思来建造这栋别墅的？\n请一定要告诉我！",
      "EUde": "Ach, übrigens... Hat das Konzept\nmeines Hauses eigentlich auch einen\nNamen? Und verrätst du ihn mir?",
      "EUen": "Oh, hey, what's the theme name for\nmy vacation home? Did you have one\nin mind while you put it together?",
      "EUes": "Ah, oye, ¿qué nombre tendrá el tema\nde mi casa de vacaciones?\n¿Se te ocurrió alguno mientras\nla construías?",
      "EUfr": "Au fait, quel est le thème de ma\nvilla de vacances ? Tu as déjà\npensé à quelque chose ?",
      "EUit": "Oh, ehi, come si chiama il tema\ndella mia casa vacanze? Ne avevi in\nmente uno quando l'hai progettata?",
      "EUnl": "O, hé, wat is het thema voor het\nvakantiehuis? Had je er al een in\ngedachten toen je dit samenstelde?",
      "EUru": "О, погоди. А у этой дачи есть тема?\nМожет, тебе уже что-то приходило\nв голову, пока ты тут возился?",
      "JPja": "そうだ、この別荘の　テーマ名って何だい？\nどういう　イメージで作ってくれたのか\nぜひ　教えてほしいな！",
      "KRko": "아 참, 이 별장의 테마 이름은 뭐야?\n어떤 이미지로 만든 건지\n꼭 알려줬으면 좋겠어!",
      "TWzh": "對了，這棟別墅的主題名稱叫什麼呢？\n我想請教一下你是以什麼為靈感\n來打造別墅的。",
      "USen": "Oh, hey, what's the theme name for\nmy vacation home? Did you have one\nin mind while you put it together?",
      "USes": "Ah, oye, ¿cuál es el tema\nde mi casa de vacaciones?\n¿Pensaste alguno mientras\nla construías?",
      "USfr": "Au fait, quel est le thème de ma\nmaison de vacances? Tu as déjà\npensé à quelque chose?"
    }
  },
  {
    "label": "023",
    "attribute": "0x02000000",
    "locale": {
      "CNzh": "说起来，这栋别墅原来的主题名称是\n，\n这次也一样吗？",
      "EUde": "Der Konzeptname meines Hauses\nlautet . Ist der eigentlich noch aktuell?",
      "EUen": "By the way, you named this theme\n earlier.\nIs that name still on your \"nice\" list?",
      "EUes": "Ah, «» era el nombre que tenías antes⁠. ¿⁠Entonces lo dejas así⁠?",
      "EUfr": "Au fait, le thème de ma villa est\n.\nCe nom te plaît toujours ?",
      "EUit": "A proposito, il tema prima era . Il nome ti piace ancora?",
      "EUnl": "Hé, trouwens, het thema was \"⁠⁠\".\nKlopt dat nog steeds?",
      "EUru": "Кстати, раньше ты называл тему\n«». Тебе еще нравится это название?",
      "JPja": "そういえば、この別荘のテーマ名って\nだったけど\n今回も　同じなのかな？",
      "KRko": "그러고 보니 이 별장의 테마 이름은\n이었는데\n이번에도 똑같아?",
      "TWzh": "對了，這棟別墅之前的主題名稱叫做\n，\n這次也要沿用嗎？",
      "USen": "By the way, you named this theme\n earlier.\nIs that name still on your \"nice\" list?",
      "USes": "Ah, \"\" era el nombre que tenías antes⁠. ¿⁠Entonces lo dejas así⁠?",
      "USfr": "Au fait, le thème de ma maison est\n.\nCe nom te plaît toujours?"
    }
  },
  {
    "label": "023_a",
    "attribute": "0x00000000",
    "locale": {
      "CNzh": "更改吧",
      "EUde": "Ein neuer Name!",
      "EUen": "I'll pick a new name.",
      "EUes": "Le pongo otro nombre",
      "EUfr": "Je veux changer le nom.",
      "EUit": "Scelgo un altro nome.",
      "EUnl": "Ik kies een nieuw thema.",
      "EUru": "Лучше новое название!",
      "JPja": "変えましょう",
      "KRko": "바꾸자",
      "TWzh": "更改吧",
      "USen": "I'll pick a new name.",
      "USes": "Elijo otro tema",
      "USfr": "Je veux changer le nom."
    }
  },
  {
    "label": "023_b",
    "attribute": "0x00000000",
    "locale": {
      "CNzh": "保持现状",
      "EUde": "Mir gefällt der Name!",
      "EUen": "I like the name as is.",
      "EUes": "Así está bien",
      "EUfr": "Ce nom me convient.",
      "EUit": "Va bene questo nome.",
      "EUnl": "Het thema is prima zo.",
      "EUru": "Мне и так нравится.",
      "JPja": "そのままで",
      "KRko": "그대로 하자",
      "TWzh": "保持現狀",
      "USen": "I like the name as is.",
      "USes": "Así está bien",
      "USfr": "Ce nom me convient."
    }
  },
  {
    "label": "024",
    "attribute": "0x00000000",
    "locale": {
      "CNzh": "那就把新的主题名称告诉我吧～",
      "EUde": "Oh, ho ho! Und genau deshalb frage\nich zur Sicherheit immer noch mal\nnach. Welcher Name schwebt dir vor?",
      "EUen": "Oh ho ho! This is why I always check\ntwice. What's the new theme name\ngoing to be?",
      "EUes": "¡Jo, jo, jo! Por eso me gusta\ncomprobar todo dos veces. \n¿Y cuál será el nuevo nombre?",
      "EUfr": "Ho ho ho ! Et quel nom aimerais-tu\nlui donner ?",
      "EUit": "Oh oh oh! Ecco il motivo per cui\nrifaccio sempre la domanda. Qual è\nil nuovo nome del tema, allora?",
      "EUnl": "O ho-ho! Daarom vraag ik het altijd\ntwee keer. Wat gaat het nieuwe\nthema worden?",
      "EUru": "Хо-хорошо! Всегда лучше\nперепроверить. Ну, так какое у нас\nновое название темы?",
      "JPja": "じゃあ　新しいテーマ名も　教えておくれよ",
      "KRko": "그럼 새로운 테마 이름을 알려줘!",
      "TWzh": "那麼請告訴我新的主題名稱吧。",
      "USen": "Oh ho ho! This is why I always check\ntwice. What's the new theme name\ngoing to be?",
      "USes": "¡Jo, jo, jo! Por eso me gusta\ncomprobar todo dos veces. \n¿Y cuál será el nuevo nombre?",
      "USfr": "Ho ho ho! Et quel nom aimerais-tu\nlui donner?"
    }
  },
  {
    "label": "025",
    "attribute": "0x00000000",
    "locale": {
      "CNzh": "这样啊，主题名称还是和之前的一样啊。\n我明白了！",
      "EUde": "Also bleibt alles beim Alten?\nVerstanden!",
      "EUen": "Oh, OK! So we're keeping the same\ntheme name as before. Got it!",
      "EUes": "Vale, ¡pues se queda como estaba!",
      "EUfr": "Parfait ! On garde ce nom-là, alors.\nÇa me va !",
      "EUit": "Oh, OK! Quindi vuoi tenere lo stesso\nnome di prima. Capito!",
      "EUnl": "O ho-ho, oké! Dus het thema blijft\nhetzelfde. Ik snap het!",
      "EUru": "Хо-хорошо! Значит оставляем\nпрежнее название. Понял!",
      "JPja": "なるほど、テーマ名は　前と同じなんだね\n了解だよ！",
      "KRko": "알겠어, 테마 이름은 전이랑 똑같구나\n오케이!",
      "TWzh": "原來如此，主題名稱跟之前一樣啊。\n我了解了！",
      "USen": "Oh, OK! So we're keeping the same\ntheme name as before. Got it!",
      "USes": "Bien, ¡pues se queda como estaba!",
      "USfr": "Parfait! On garde ce nom-là, alors.\nÇa me va!"
    }
  },
  {
    "label": "026",
    "attribute": "0x02000000",
    "locale": {
      "CNzh": "咦？不改吗？\n还是决定不改主题名称吗？",
      "EUde": "Hast du es dir anders überlegt?\nKein Thema. Mir gefällt der aktuelle\nName nämlich richtig gut!",
      "EUen": "Changed your mind? That's fine.\nI like the current name!",
      "EUes": "¿Has cambiado de idea? No pasa\nnada, ¡me gusta el nombre que tiene!",
      "EUfr": "Tu as changé d'avis ? Ce n'est pas\nun souci. Le nom actuel me plaît !",
      "EUit": "Hai cambiato idea? Benissimo.\nIl nome attuale mi piace!",
      "EUnl": "Ben je van gedachten veranderd?\nGoed, hoor. Het huidige thema vind\nik prima!",
      "EUru": "Передумал? Ничего.\nМне и это название нравится!",
      "JPja": "おや？　やめるのかい？\nやっぱり　テーマ名は　変えないのかな？",
      "KRko": "어라? 그만두려고?\n역시 테마 이름은 안 바꾸는 거야?",
      "TWzh": "哎呀？你不改了？\n果然還是不打算更改主題名稱嗎？",
      "USen": "Changed your mind? That's fine.\nI like the current name!",
      "USes": "¿Cambiaste de idea? No te\npreocupes, ¡me gusta el nombre\nque tiene!",
      "USfr": "Tu as changé d'avis? Ce n'est pas\nun souci. Le nom actuel me plaît!"
    }
  },
  {
    "label": "026_a",
    "attribute": "0x00000000",
    "locale": {
      "CNzh": "还是保持现状吧",
      "EUde": "Namen behalten.",
      "EUen": "Let's keep the name.",
      "EUes": "Dejemos el mismo",
      "EUfr": "Gardons le nom.",
      "EUit": "Teniamo lo stesso.",
      "EUnl": "We laten het bij het oude.",
      "EUru": "Оставим название.",
      "JPja": "やっぱり　そのままで",
      "KRko": "역시 그대로 하자",
      "TWzh": "還是保持現狀吧",
      "USen": "Let's keep the name.",
      "USes": "Dejemos el mismo",
      "USfr": "Gardons le nom."
    }
  },
  {
    "label": "026_b",
    "attribute": "0x00000000",
    "locale": {
      "CNzh": "更改主题名称",
      "EUde": "Lieber einen anderen.",
      "EUen": "Let's use a new name.",
      "EUes": "Pongámosle otro",
      "EUfr": "Trouvons un nouveau nom.",
      "EUit": "Usiamo un nuovo nome.",
      "EUnl": "Een nieuw thema is beter.",
      "EUru": "Лучше другое название.",
      "JPja": "テーマ名は　変えます",
      "KRko": "다른 이름으로 바꿀래",
      "TWzh": "更改主題名稱吧",
      "USen": "Let's use a new name.",
      "USes": "Elijamos otro",
      "USfr": "Trouvons un nouveau nom."
    }
  },
  {
    "label": "027",
    "attribute": "0x00000000",
    "locale": {
      "CNzh": "这样啊，\n那就把新的主题名称告诉我吧。",
      "EUde": "Geht klar! Dann lass mal hören!",
      "EUen": "OK! Let's hear the new theme name!",
      "EUes": "Bueno, ¡pues venga ese\nnuevo nombre!",
      "EUfr": "Très bien ! Quel nom aimerais-tu\nlui donner, alors ?",
      "EUit": "OK! Sentiamo il nuovo nome!",
      "EUnl": "Oké! Kom maar op met dat nieuwe\nthema!",
      "EUru": "Хо-хорошо! Я готов к новому\nназванию!",
      "JPja": "そうなんだ\nなら、新しいテーマ名を　教えておくれよ",
      "KRko": "그렇구나\n그럼 새로운 테마 이름을 알려줘",
      "TWzh": "這樣啊。\n那麼請你將新的主題名稱告訴我吧。",
      "USen": "OK! Let's hear the new theme name!",
      "USes": "Bueno, ¡pues cuéntame cuál es ese\nnuevo nombre!",
      "USfr": "Très bien! Quel nom aimerais-tu\nlui donner, alors?"
    }
  },
  {
    "label": "028",
    "attribute": "0x00000000",
    "locale": {
      "CNzh": "吗～\n原来如此，这么听起来，\n确实有你的风格！",
      "EUde": ", hm?\nKlingt hübsch! Gefällt mir.",
      "EUen": ", huh?\nWhat a name! Love it.",
      "EUes": "¿«»⁠, entonces⁠? ¡⁠Me encanta⁠!",
      "EUfr": " ?\nC'est un nom on ne peut plus festif !",
      "EUit": "Uhm, ? Che bel nome! Mi piace.",
      "EUnl": "\"\", hè? Wat een thema! Geweldig.",
      "EUru": "«», да? Отличное название! Мне нравится.",
      "JPja": "か～\nなるほど、言われてみれば\nキミらしさが　よく出ているね！",
      "KRko": "～?\n그렇구나, 듣고 보니까\n너의 개성이 물씬 느껴지는 것 같아!",
      "TWzh": "啊～\n原來如此，聽你這麼一說，\n的確是很有你的風格呢！",
      "USen": ", huh?\nWhat a name! Love it.",
      "USes": "¿\"\"⁠, entonces⁠? ¡⁠Me encanta⁠!",
      "USfr": "?\nC'est un nom assez festif!"
    }
  },
  {
    "label": "101",
    "attribute": "0x06000000",
    "locale": {
      "CNzh": "找我有什么事吗？",
      "EUde": "Ho ho ho! Welchen Wunsch kann ich\ndir heute erfüllen?",
      "EUen": "What's up? Wishing for something?",
      "EUes": "¿Qué tal? ¿Tienes algún deseo?",
      "EUfr": "Qu'y a-t-il ? Aurais-tu un souhait\nparticulier ?",
      "EUit": "Che c'è? Ti serve qualcosa?",
      "EUnl": "Hoe gaat het? Heb je nog wensen?",
      "EUru": "Как дела? Могу чем-то помочь?",
      "JPja": "ボクに　なんのご用かな？",
      "KRko": "나한테 무슨 볼일 있어?",
      "TWzh": "你找我有什麼事嗎？",
      "USen": "What's up? Wishing for something?",
      "USes": "¿Qué tal? ¿Tienes algún deseo?",
      "USfr": "Qu'y a-t-il? Aurais-tu un souhait\nparticulier?"
    }
  },
  {
    "label": "101_01",
    "attribute": "0x06000000",
    "locale": {
      "CNzh": "我的别墅怎么了吗？",
      "EUde": "Mein Ferienhaus meinst du? Wieso,\nwas ist damit? Du hast was vor, das\nseh ich dir an der Nasenspitze an!",
      "EUen": "My vacation home? What's up?\nDid you have something in mind?",
      "EUes": "¿Mi casa de vacaciones? ¿Qué le\npasa? ¿Se te ha ocurrido algo?",
      "EUfr": "Ma maison ? Oui, bien sûr !\nAurais-tu quelque chose en tête ?",
      "EUit": "La mia casa vacanze? Che c'è?\nHai qualcosa in mente a riguardo?",
      "EUnl": "Mijn vakantiehuis? Wat is daarmee?\nHad je iets in gedachten?",
      "EUru": "Моя дача? А что?\nТы что-то задумал?",
      "JPja": "ボクの別荘が　どうしたんだい？",
      "KRko": "내 별장에 무슨 문제라도 있어?",
      "TWzh": "我的別墅怎麼了嗎？",
      "USen": "My vacation home? What's up?\nDid you have something in mind?",
      "USes": "¿Mi casa de vacaciones? ¿Qué le\npasa? ¿Se te ocurrió algo?",
      "USfr": "Ma maison? Oui, bien sûr!\nAurais-tu quelque chose en tête?"
    }
  },
  {
    "label": "101_01_a",
    "attribute": "0x00000000",
    "locale": {
      "CNzh": "关于装修",
      "EUde": "Umbau!",
      "EUen": "Let's talk remodeling.",
      "EUes": "¿Hacemos reforma?",
      "EUfr": "Parlons rénovations.",
      "EUit": "Parliamo di ristrutturare.",
      "EUnl": "Wat dacht je van verbouwen?",
      "EUru": "Обсудим новый дизайн?",
      "JPja": "リフォームしませんか",
      "KRko": "리폼 안 할래?",
      "TWzh": "關於裝修",
      "USen": "Let's talk remodeling.",
      "USes": "¿Remodelamos la casa?",
      "USfr": "Parlons rénovations."
    }
  },
  {
    "label": "101_01_b",
    "attribute": "0x00000000",
    "locale": {
      "CNzh": "关于搬家",
      "EUde": "Umzug!",
      "EUen": "Let's talk moving.",
      "EUes": "¿La trasladamos?",
      "EUfr": "Parlons déménagement.",
      "EUit": "Parliamo di trasloco.",
      "EUnl": "Wat dacht je van verhuizen?",
      "EUru": "Поговорим о переезде.",
      "JPja": "引越ししませんか",
      "KRko": "이사 어때?",
      "TWzh": "關於搬家",
      "USen": "Let's talk moving.",
      "USes": "¿La trasladamos?",
      "USfr": "Parlons déménagement."
    }
  },
  {
    "label": "101_01_c",
    "attribute": "0x00000000",
    "locale": {
      "CNzh": "关于合住",
      "EUde": "Mitbewohner!",
      "EUen": "Let's talk roommates.",
      "EUes": "Hablemos de compas",
      "EUfr": "Parlons colocation.",
      "EUit": "Parliamo di coinquilini.",
      "EUnl": "Wil je een huisgenoot?",
      "EUru": "Поговорим о соседях.",
      "JPja": "ハウスシェアのことで…",
      "KRko": "하우스 셰어 말인데…",
      "TWzh": "關於同住",
      "USen": "Let's talk roommates.",
      "USes": "¿Qué tal compartir casa?",
      "USfr": "Parlons colocation."
    }
  },
  {
    "label": "101_01_d",
    "attribute": "0x00000000",
    "locale": {
      "CNzh": "没什么",
      "EUde": "Hat sich erledigt.",
      "EUen": "Never mind.",
      "EUes": "Nada, es igual",
      "EUfr": "Laisse tomber.",
      "EUit": "Niente, lascia stare.",
      "EUnl": "Laat maar...",
      "EUru": "Я так, просто.",
      "JPja": "なんでもないです",
      "KRko": "아무것도 아니야",
      "TWzh": "沒什麼事",
      "USen": "Never mind.",
      "USes": "Olvídalo",
      "USfr": "Laisse tomber."
    }
  },
  {
    "label": "101_a",
    "attribute": "0x00000000",
    "locale": {
      "CNzh": "过得怎么样？",
      "EUde": "Wie geht's denn so?",
      "EUen": "How are things?",
      "EUes": "¿Qué te cuentas?",
      "EUfr": "Tout se passe bien ?",
      "EUit": "Come va?",
      "EUnl": "Hoe gaat het ermee?",
      "EUru": "Как жизнь?",
      "JPja": "いかがお過ごしですか？",
      "KRko": "어떻게 지내?",
      "TWzh": "最近過得怎麼樣呢？",
      "USen": "How are things?",
      "USes": "¿Qué cuentas?",
      "USfr": "Tout se passe bien?"
    }
  },
  {
    "label": "101_b",
    "attribute": "0x00000000",
    "locale": {
      "CNzh": "关于别墅",
      "EUde": "Was macht dein Haus?",
      "EUen": "How's your home?",
      "EUes": "Hablemos de tu casa",
      "EUfr": "Ta villa te plaît ?",
      "EUit": "Come va con la casa?",
      "EUnl": "Alles oké met je vakantiehuis?",
      "EUru": "Как твой дом?",
      "JPja": "別荘のことなのですが",
      "KRko": "별장에 대해서",
      "TWzh": "關於別墅",
      "USen": "How's your home?",
      "USes": "Hablemos de tu casa",
      "USfr": "Ta maison te plaît?"
    }
  },
  {
    "label": "101_c",
    "attribute": "0x00000000",
    "locale": {
      "CNzh": "要回去了",
      "EUde": "Ich gehe wieder.",
      "EUen": "I'm heading back.",
      "EUes": "Me vuelvo a la agencia",
      "EUfr": "Bon, je m'en vais.",
      "EUit": "Me ne vado.",
      "EUnl": "Ik ga er weer vandoor.",
      "EUru": "Вернусь обратно.",
      "JPja": "帰ります",
      "KRko": "이만 갈게",
      "TWzh": "我要回去了",
      "USen": "I'm heading back.",
      "USes": "Vuelvo a la agencia",
      "USfr": "Bon, je m'en vais."
    }
  },
  {
    "label": "101_d",
    "attribute": "0x00000000",
    "locale": {
      "CNzh": "只是打个招呼",
      "EUde": "Wollte nur Hallo sagen!",
      "EUen": "Just saying hi!",
      "EUes": "Solo saludaba...",
      "EUfr": "Je passe juste dire bonjour.",
      "EUit": "Volevo solo salutarti.",
      "EUnl": "Ik wilde alleen hoi zeggen!",
      "EUru": "Привет-привет!",
      "JPja": "ごあいさつだけ",
      "KRko": "그냥 인사하려고!",
      "TWzh": "只是打聲招呼",
      "USen": "Just saying hi!",
      "USes": "Solo quería saludar...",
      "USfr": "Je passe juste dire bonjour."
    }
  },
  {
    "label": "102_01",
    "attribute": "0x02000000",
    "locale": {
      "CNzh": "装修啊～\n反正交给你肯定没问题，\n那就拜托你啦！",
      "EUde": "Ein Umbau? Na ja, du hast mich\nbisher nicht enttäuscht, also geb\nich dir gern grünes Licht!",
      "EUen": "Renovate? Well, you've never steered\nme wrong before...so have at it!",
      "EUes": "¿Remodelar? Bueno, nunca me has\nllevado por mal camino, así que...\n¡venga!",
      "EUfr": "Eh bien, je suis toujours partant\npour ajouter quelques guirlandes ici\net là ! Vas-y, je te fais confiance !",
      "EUit": "Perché no? Beh, non hai mai tirato\nle redini dalla parte sbagliata...\nquindi fai pure.",
      "EUnl": "Renoveren? Nou, je hebt mij nog\nnooit de verkeerde richting\nopgestuurd... dus leef je uit!",
      "EUru": "Новый дизайн? Ты всегда\nвыбираешь верное направление...\nТак что, запрягай и погнали!",
      "JPja": "リフォームか～\nキミに任せておけば　間違いないだろうから\nぜひ　お願いするよ！",
      "KRko": "리폼이라～\n너라면 믿고 맡길 수 있지\n꼭 좀 부탁할게!",
      "TWzh": "你說裝修啊～\n交給你處理應該不會出問題，\n那這件事就拜託你吧！",
      "USen": "Renovate? Well, you've never steered\nme wrong before...so have at it!",
      "USes": "¿Remodelar? Bueno, nunca me has\nllevado por mal camino, así que...\n¡adelante!",
      "USfr": "Eh bien, je suis toujours partant\npour ajouter quelques guirlandes ici\net là! Vas-y, je te fais confiance!"
    }
  },
  {
    "label": "102_01_a",
    "attribute": "0x00000000",
    "locale": {
      "CNzh": "请交给我吧！",
      "EUde": "Überlass alles mir!",
      "EUen": "Leave it all to me!",
      "EUes": "¡Yo me encargo!",
      "EUfr": "Je m'occupe de tout !",
      "EUit": "Lascia fare a me!",
      "EUnl": "Laat alles maar aan mij over!",
      "EUru": "Предоставь это мне!",
      "JPja": "お任せください！",
      "KRko": "맡겨만 줘!",
      "TWzh": "請交給我吧！",
      "USen": "Leave it all to me!",
      "USes": "¡Yo me encargo!",
      "USfr": "Je m'occupe de tout!"
    }
  },
  {
    "label": "102_01_b",
    "attribute": "0x00000000",
    "locale": {
      "CNzh": "还是算了吧",
      "EUde": "Ach, lassen wir das...",
      "EUen": "Actually, never mind.",
      "EUes": "Mejor lo dejamos estar",
      "EUfr": "Laissons tomber.",
      "EUit": "Meglio lasciar stare...",
      "EUnl": "Weet je, laat maar zitten...",
      "EUru": "Забудь.",
      "JPja": "やっぱりやめましょう",
      "KRko": "역시 그만두자",
      "TWzh": "還是算了吧",
      "USen": "Actually, never mind.",
      "USes": "Mejor olvídalo",
      "USfr": "Laissons tomber."
    }
  },
  {
    "label": "104_01",
    "attribute": "0x00000000",
    "locale": {
      "CNzh": "这次也要麻烦你好好加油啊！",
      "EUde": "Aber sicher doch! Du machst das\nschon, Kindchen!",
      "EUen": "OK! Do your thing, kid!",
      "EUes": "¡Adelante! ¡Haz lo tuyo!",
      "EUfr": "Parfait ! Tu sais comment faire plaisir\nà ton p'tit renne au nez noir préféré !",
      "EUit": "OK! Mettiti all'opera, pandorino.",
      "EUnl": "Oké! Wat een mooi cadeau!",
      "EUru": "Хо-хорошо! Делай то, что считаешь\nнужным!",
      "JPja": "今回も　張り切ってよろしくね！",
      "KRko": "이번에도 힘내줘!",
      "TWzh": "這次也請你好好加油吧！",
      "USen": "OK! Do your thing, kid!",
      "USes": "¡Adelante! ¡Haz lo tuyo!",
      "USfr": "Parfait! Tu sais comment faire plaisir\nà ton p'tit renne au nez noir préféré!"
    }
  },
  {
    "label": "107",
    "attribute": "0x00000000",
    "locale": {
      "CNzh": "这样吗……好可惜啊。\n那等你下次方便的时候，我再来拜托你吧～",
      "EUde": "Oh, ho, ho? Kein Problem... Und\nsolltest du deine Meinung ändern,\nlass es mich wissen!",
      "EUen": "Oh ho ho? I see... Well, if you change\nyour mind—again—I'll be ready!",
      "EUes": "Jo, jo, jo... Ya veo... Bueno, avísame\nsi vuelves a cambiar de idea. ¡Aquí\nestaré!",
      "EUfr": "Ho ho ho ? Je vois... Eh bien,\nsi tu changes d'avis, tu sais où\nme trouver !",
      "EUit": "Oh oh oh? Capisco... Beh, se cambi\nidea... sarò pronto!",
      "EUnl": "O ho-ho? Oké dan... Nou, als je van\ngedachten verandert, dan sta ik in de\nstartblokken!",
      "EUru": "Хо-хорошо. Ясно... Ну, если\nпередумаешь, то ты знаешь, где\nменя искать!",
      "JPja": "そうかぁ・・・　それは残念だなぁ\nまた　キミの都合のいい時にでも　頼むよ",
      "KRko": "그렇구나... 그럼 어쩔 수 없지\n다음에 너 시간 되면 그때 부탁할게",
      "TWzh": "這樣啊……那真是太可惜了。\n那等你下次方便時再拜託你吧。",
      "USen": "Oh ho ho? I see... Well, if you change\nyour mind—again—I'll be ready!",
      "USes": "Jo, jo, jo... Ya veo... Bueno, avísame\nsi vuelves a cambiar de idea. ¡Aquí\nestaré!",
      "USfr": "Ho ho ho? Je vois... Eh bien,\nsi tu changes d'avis, tu sais où\nme trouver!"
    }
  },
  {
    "label": "108",
    "attribute": "0x02000000",
    "locale": {
      "CNzh": "现在这个地方我也很喜欢……\n不过既然是你推荐的，\n那肯定是值得搬去的地方吧？\n我决定了，就拜托你帮我搬家吧～",
      "EUde": "Also mir gefällt mein aktuelles \nFerienplätzchen eigentlich ganz gut...\nAber wenn du meinst, du hättest was\nBesseres gefunden, dann will ich auf\ndein Urteil vertrauen!",
      "EUen": "I'm pretty fond of my current spot...\nBut if you know a better place, then\nI'll take your word for it!",
      "EUes": "Estoy contento con el lugar actual,\npero si conoces otro mejor,\n¡yo te sigo!",
      "EUfr": "Ma maison actuelle me plaît assez...\nMais si tu connais un meilleur\nemplacement, je te fais confiance !",
      "EUit": "Questo posto mi va bene...\nMa se pensi di conoscerne uno\nmigliore, ti prendo in parola!",
      "EUnl": "Ik ben best wel blij met mijn huidige\nplek... maar als jij een betere plekje\nweet, dan geloof ik je op je woord!",
      "EUru": "Вообще-то, мне нравится здесь...\nНо если у тебя на примете есть\nместо получше, то я только за!",
      "JPja": "今の場所も　結構　気に入ってるけど・・・\nキミが　すすめてくるということは\n引越しする価値が　あるってことかな？\nじゃあ、思い切って　お願いするよ",
      "KRko": "지금 있는 곳도 꽤 마음에 드는데...\n네가 추천할 정도면\n그만한 가치가 있다는 거겠지?\n그럼 큰맘 먹고 부탁할게",
      "TWzh": "雖然我很喜歡現在的地點……\n不過既然你會推薦我，\n代表那個地方有搬過去的價值吧？\n那我就下定決心拜託你好了。",
      "USen": "I'm pretty fond of my current spot...\nBut if you know a better place, then\nI'll take your word for it!",
      "USes": "Estoy contento con el lugar actual,\npero si conoces otro mejor,\n¡yo te sigo!",
      "USfr": "Ma maison actuelle me plaît assez...\nMais si tu connais un meilleur\nemplacement, je te fais confiance!"
    }
  },
  {
    "label": "108_01",
    "attribute": "0x00000000",
    "locale": {
      "CNzh": "既然已经定下来了，\n那就赶紧开始吧！",
      "EUde": "Gut. Aber die genauen Details\nbaldowern wir erst noch mal\ngemeinsam aus!",
      "EUen": "OK! Let's talk details!",
      "EUes": "¡Vale! Veamos los detalles.",
      "EUfr": "Très bien ! Dis-m'en plus.",
      "EUit": "OK! Discutiamo i dettagli!",
      "EUnl": "Oké! Laten we dat meteen maar\nregelen dan!",
      "EUru": "Хорошо! Давай обсудим детали!",
      "JPja": "そうと決まれば\nさっそく　話を進めようじゃないか！",
      "KRko": "좋아, 그렇게 정했으면\n바로 진행해보자!",
      "TWzh": "既然決定好了，\n那就麻煩你盡快處理吧！",
      "USen": "OK! Let's talk details!",
      "USes": "¡De acuerdo! Veamos los detalles.",
      "USfr": "Très bien! Donne-moi plus de détails."
    }
  },
  {
    "label": "108_a",
    "attribute": "0x00000000",
    "locale": {
      "CNzh": "请交给我吧！",
      "EUde": "Überlass alles mir!",
      "EUen": "Leave it all to me!",
      "EUes": "¡Yo me encargo!",
      "EUfr": "Je m'occupe de tout !",
      "EUit": "Lascia fare a me!",
      "EUnl": "Laat alles maar aan mij over!",
      "EUru": "Предоставь это мне!",
      "JPja": "お任せください！",
      "KRko": "맡겨만 줘!",
      "TWzh": "請交給我吧！",
      "USen": "Leave it all to me!",
      "USes": "¡Yo me encargo!",
      "USfr": "Je m'occupe de tout!"
    }
  },
  {
    "label": "108_b",
    "attribute": "0x00000000",
    "locale": {
      "CNzh": "还是算了吧",
      "EUde": "Ach, lassen wir das...",
      "EUen": "Actually, never mind.",
      "EUes": "Mejor lo dejamos estar",
      "EUfr": "Laissons tomber.",
      "EUit": "Meglio lasciar stare...",
      "EUnl": "Weet je, laat maar zitten...",
      "EUru": "Забудь.",
      "JPja": "やっぱりやめましょう",
      "KRko": "역시 그만두자",
      "TWzh": "還是算了吧",
      "USen": "Actually, never mind.",
      "USes": "Mejor olvídalo",
      "USfr": "Laissons tomber."
    }
  },
  {
    "label": "109",
    "attribute": "0x00000000",
    "locale": {
      "CNzh": "你建议我和别人一起住？\n唔～让我想想。\n我啊，根据时期，\n有时候是要去各种不同的地方的，\n所以还是觉得自己一个人生活会更轻松～\n虽然很不好意思，\n但这次的事，我还是要拒绝的。",
      "EUde": "Ich soll mir mit jemanden das Haus\nteilen? Hmm. Und das, wo ich doch\nso häufig durch die Welt düse...\nDas wäre für uns beide eine ziemlich\nseltsame Situation, oder? Nein, da\nbleib ich lieber allein. Tut mir leid!",
      "EUen": "Me? Room with someone else? Hmm.\nMy work is complicated. I'm dashing\nand dancing all over the world...\nThat might make things weird for a\npotential roomie...and for me. It'd be\nbetter for me to be alone. Sorry!",
      "EUes": "¿Que si quiero compartir la casa\ncon alguien?\nUm... Tengo un trabajo complicado\nque me lleva por todo el mundo...\nNo sé cómo lo llevaría mi compa.\nAdemás, de vacaciones preferiría\ntener mi espacio y desconectar.\nLo siento, pero mejor no.",
      "EUfr": "Une colocation ? Hmm. Ça risque\nd'être compliqué avec mon travail...\nJe suis toujours en voyage, tu sais.\nEt puis j'empile des cadeaux dans\ntous les coins... Je pense qu'il vaut\nmieux que je reste seul. Désolé !",
      "EUit": "Io, abitare con qualcun altro? Mmh.\nFaccio un lavoro complicato. Sono\nsempre a galoppare per il mondo...\nQuesto potrebbe essere un problema\nper un coinquilino... e per me. È\nmeglio se me ne sto da solo. Scusa!",
      "EUnl": "Ik? Mijn vakantiehuis delen? Hmm.\nMijn werk is complex. Ik reis de hele\nwereld over...\nDat is misschien een beetje raar voor\neen potentiële huisgenoot... en voor\nmij. Liever niet dus. Sorry!",
      "EUru": "Я? Отдыхать с кем-то? Хм-м. У меня\nдовольно тяжелая работа. Я кручусь\nи верчусь по всему миру...\nЯ буду сложным соседом... да\nи мне самому будет тяжело. Лучше\nбез соседей, пожалуй. Извини!",
      "JPja": "他の　誰かと一緒に暮すのは　どうかって？\nう～ん、そうだなぁ\nボかぁ　時期によって\nいろんな場所に　飛び回っているから、\nひとり暮らしの方が　気楽でいいんだよね\nせっかくだけど、\n今回の話は　辞退させてもらうよ",
      "KRko": "다른 사람과 함께 사는 건 어떻겠냐고?\n으음～ 글쎄...\n난 시기에 따라\n여러 곳을 돌아다니니까\n혼자 사는 게 아무래도 편할 것 같아\n모처럼 말해줬는데 미안하지만\n이번 이야기는 거절하도록 할게",
      "TWzh": "你問我要不要跟其他人一起住？\n嗯～這個嘛……\n我在一年裡的某些時期，\n會需要在各地來回奔波，\n所以還是獨居比較自在。\n雖然是難得的邀請，\n不過這次還是容我婉拒這件事吧。",
      "USen": "Me? Room with someone else? Hmm.\nMy work is complicated. I'm dashing\nand dancing all over the world...\nThat might make things weird for a\npotential roomie...and for me. It'd be\nbetter for me to be alone. Sorry!",
      "USes": "¿Que si quiero compartir la casa\ncon alguien?\nUm... Tengo un trabajo intenso que\nme lleva por todo el mundo... No sé\ncómo afectaría a quien viva conmigo.\nAdemás, de vacaciones preferiría\ntener mi espacio y desconectarme.\nLo siento, pero mejor no.",
      "USfr": "Une colocation? Hmm. Ça risque\nd'être compliqué avec mon travail...\nJe suis toujours en voyage, tu sais.\nEt puis j'empile des cadeaux dans\ntous les coins... Je pense qu'il vaut\nmieux que je reste seul. Désolé!"
    }
  },
  {
    "label": "110",
    "attribute": "0x00000000",
    "locale": {
      "CNzh": "我可是随时都欢迎你过来的哦！\n一定要多待一会儿再走啊。",
      "EUde": "Du bist mir hier immer willkommen!\nFalls du mal deine Hufe hochlegen\nmöchtest, komm ruhig vorbei.",
      "EUen": "You're welcome here anytime! Take a\nload off. Rest your weary hooves.",
      "EUes": "¡Aquí eres siempre bienvenido!\nDeja tus cargas por un momento\ny dale un descanso a tus pezuñas.",
      "EUfr": "Tu es toujours le bienvenu chez\nmoi ! Mets-toi à l'aise. Sers-toi\nun bon chocolat chaud.",
      "EUit": "Qui sei sempre il benvenuto! Prenditi\nuna pausa. Riposa gli zoccoli.",
      "EUnl": "Je bent hier altijd welkom! Laat die\nlast van je schouders vallen. Hier\nhoef je niks.",
      "EUru": "Заглядывай в любой момент! Тебе\nздесь всегда найдется местечко,\nчтобы дать отдых копытцам.",
      "JPja": "キミなら　いつでも大歓迎さ！\nぜひ　ゆっくりしていってくれ",
      "KRko": "너라면 언제든 대환영이야!\n쉬고 싶은 만큼 편하게 쉬다 가",
      "TWzh": "我隨時都歡迎你喔！\n請你務必要在我這裡好好休息。",
      "USen": "You're welcome here anytime! Take a\nload off. Rest your weary hooves.",
      "USes": "¡Aquí siempre eres bienvenido!\nDeja tus cargas por un momento\ny dale un descanso a tus pezuñas.",
      "USfr": "Tu es toujours le bienvenu chez\nmoi! Mets-toi à l'aise. Sers-toi\nun bon chocolat chaud."
    }
  },
  {
    "label": "110_01",
    "attribute": "0x00000000",
    "locale": {
      "CNzh": "咦？这样吗？\n你说没事就没事吧。",
      "EUde": "Ach? Na dann...",
      "EUen": "Oh? Well, OK!",
      "EUes": "¿Eh? Bueno, ¡todo bien!",
      "EUfr": "Oh ? Bon, comme tu veux !",
      "EUit": "Oh? Beh, OK!",
      "EUnl": "O? Nou, oké!",
      "EUru": "Да? Ну ладно!",
      "JPja": "おや？　そうかい\nなら　別にいいんだけど",
      "KRko": "어라, 그래?\n그렇다면야 괜찮지만",
      "TWzh": "哎呀？這樣啊。\n沒事就好。",
      "USen": "Oh? Well, OK!",
      "USes": "¿Eh? Bueno, ¡todo bien!",
      "USfr": "Oh? Bon, comme tu veux!"
    }
  },
  {
    "label": "111",
    "attribute": "0x00000000",
    "locale": {
      "CNzh": "",
      "EUde": "",
      "EUen": "",
      "EUes": "",
      "EUfr": "",
      "EUit": "",
      "EUnl": "",
      "EUru": "",
      "JPja": "",
      "KRko": "",
      "TWzh": "",
      "USen": "",
      "USes": "",
      "USfr": ""
    }
  },
  {
    "label": "111_01",
    "attribute": "0x00000000",
    "locale": {
      "CNzh": "因为我的工作是体力劳动，\n所以在家里也少不得要锻炼！\n全归功于我坚持不懈，你看我的腿，\n是不是像羚羊一样！",
      "EUde": "Viele Leute meinen, ich hätte den\nwohl leichtesten Job der Welt, weil\nich nicht das ganze Jahr arbeite.\nAber das stimmt nicht! All die vielen\nGeschenke zu schleppen ist nämlich\neine schweißtreibende Geschichte!\nZumindest bleibe ich dadurch fit und\ndurchtrainiert, ho ho ho!",
      "EUen": "Folks don't think of my job as labor-\nintensive, but most of my day is a\nfunctional workout.\nThe evidence speaks for itself. Just\nget a load of these holly-jolly gams!\nGazelles better watch out, ho ho ho!",
      "EUes": "Hay gente que no es consciente\nde lo duro que es mi trabajo. ¡Creen\nque hago todo por arte de magia!\nPero no, el reparto se hace por\nmedios naturales.\nY los juguetes pesan, ¡incluso\nlos videojuegos! ¡Jo, jo, jo!",
      "EUfr": "On ne croirait pas, mais mon travail\nest très physique.\nÇa se voit, non ? Regarde un peu\nmes biceps ! On dirait deux jolies\nboules de neige, ho ho ho !",
      "EUit": "La gente non crede che il mio lavoro\nsia faticoso, ma per la maggior parte\ndella giornate è una sgobbata.\nC'è poco da fare. Un mucchio di\ngiocattoli può pesare un quintale!\nDa portare di corsa! Oh oh oh!",
      "EUnl": "Mensen denken vaak dat mijn werk\nenorm intensief is, maar eigenlijk\ntrain ik de hele dag.\nHet bewijs spreekt voor zich. Bekijk\ndeze gespierde rendierbenen maar!\nGazelles, pas maar op, ho-ho-ho!",
      "EUru": "Со стороны моя работа не выглядит\nособо тяжелой, но на самом деле\nэто серьезный физический труд.\nПосмотрел бы я на тебя, как ты\nбудешь целый день таскать\nэти огромные коробки с подарками!",
      "JPja": "こう見えて　ボクの仕事は　肉体労働だからね\n家の中でも　トレーニングを欠かさないんだ！\nおかげで　ホラ、見ておくれよ\nこの　カモシカのような脚！",
      "KRko": "이래 보여도 내 일은 체력이 필요하거든\n그래서 집에서도 꼬박꼬박 트레이닝하고 있어!\n그 덕분에 이렇게\n매끄럽게 쭉 뻗은 이 다리를 갖게 됐지!",
      "TWzh": "我的工作看似輕鬆，其實是一種重體力勞動喔。\n所以我在家都不會怠慢訓練！\n來，你看看，多虧了大量訓練，\n我的腳就跟山羊的腳一樣強壯！",
      "USen": "Folks don't think of my job as labor-\nintensive, but most of my day is a\nfunctional workout.\nThe evidence speaks for itself. Just\nget a load of these holly-jolly gams!\nGazelles better watch out, ho ho ho!",
      "USes": "Hay gente que no es consciente\nde lo duro que es mi trabajo. ¡Creen\nque hago todo por arte de magia!\nPero no, el reparto se hace por\nmedios naturales.\nY los juguetes pesan, ¡incluso\nlos videojuegos! ¡Jo, jo, jo!",
      "USfr": "On ne croirait pas, mais mon travail\nest très physique.\nÇa se voit, non? Regarde un peu\nmes biceps! On dirait deux jolies\nboules de neige, ho ho ho!"
    }
  },
  {
    "label": "111_02",
    "attribute": "0x00000000",
    "locale": {
      "CNzh": "你专注于工作的时候\n也会废寝忘食吗？\n我这么问，是因为刚好觉得有些饿了。\n不过，现在不是工作时间，\n肚子会饿也是正常的嘛。\n哈哈哈。",
      "EUde": "Bekommst du während der Arbeit\nauch immer so einen Kohldampf?\nIch nämlich schon! Wie jetzt gerade!\nOh, warte mal. Ich arbeite momentan\nja gar nicht. Dann muss es wohl am\nTapetenwechsel liegen. Ho ho ho!",
      "EUen": "Do you ever get hungry while you're\non the job? I sure do. Feels like I've\nbeen starving for hours!\nOh, wait... I'm not at work right now.\nI guess I've just got a vacation-sized\nappetite! Ho ho ho!",
      "EUes": "¿Tu trabajo no te da hambre?\nA mí sí. ¡Y me rugen las tripas\ndesde hace horas!\nSí, ya, que ahora mismo no estoy\ntrabajando... Es que las vacaciones\ntambién me dan hambre, ¡jo, jo, jo!",
      "EUfr": "Ça t'arrive d'avoir un petit creux\nau travail ? Moi oui. Là, tel que\ntu me vois, je meurs de faim !\nOh, mais... Je ne suis pas au travail.\nIl faut croire que c'est les vacances\nqui me donnent faim ! Ho ho ho !",
      "EUit": "Ti viene mai fame mentre stai\nlavorando? A me sì. Mi sento come\nse non mangiassi da giorni!\nOh, un momento... Non sto mica\nlavorando adesso. Allora il mio è un\nappetito vacanziero! Oh oh oh!",
      "EUnl": "Heb je nooit honger tijdens je werk?\nIk zeker wel. En ik ga bijna door mijn\nhoeven als ik niet snel wat eet!\nO, wacht... Ik ben niet aan het werk\nnu. Kennelijk krijg ik ook flinke trek\nvan mijn vakantie! Ho-ho-ho!",
      "EUru": "Есть не хочешь? Я всегда ужасно\nголодный на работе. Готов съесть\nвесь праздничный стол! С ножками!\nО, погоди... я же сейчас не работаю.\nЗначит отдых пробуждает аппетит\nне меньше работы! Хо-хо-хо!",
      "JPja": "キミも　仕事に集中しているときは\nお腹が空かないタイプかい？\nいや、ちょっと　小腹が空いてきたと思ってさ\nまぁ　今は　オフなんだから\nそりゃ　お腹も空いてくるハズだよね\nハッハッハ",
      "KRko": "너도 일에 집중하면\n배가 안 고픈 타입이야?\n아니, 갑자기 살짝 배가 고파져서...\n뭐, 지금은 일을 안 하고 있으니까\n배가 고픈 것도 당연한가?\n하하핫～",
      "TWzh": "你也是那種在專心工作時\n不會覺得餓的類型嗎？\n這個嘛，其實我剛好有點餓……\n不過我現在正在休假，\n也難怪我的肚子會餓了，\n哈哈哈。",
      "USen": "Do you ever get hungry while you're\non the job? I sure do. Feels like I've\nbeen starving for hours!\nOh, wait... I'm not at work right now.\nI guess I've just got a vacation-sized\nappetite! Ho ho ho!",
      "USes": "¿Tu trabajo no te da hambre?\nA mí sí. ¡Y me ruge la panza\ndesde hace horas!\nSí, es cierto que ahora no estoy\ntrabajando... Es que las vacaciones\ntambién me dan hambre, ¡jo, jo, jo!",
      "USfr": "Ça t'arrive d'avoir une petite faim\nau travail? Moi oui. Là, tel que\ntu me vois, je meurs de faim!\nOh, mais... Je ne suis pas au travail.\nIl faut croire que c'est les vacances\nqui me donnent faim! Ho ho ho!"
    }
  },
  {
    "label": "111_03",
    "attribute": "0x00000000",
    "locale": {
      "CNzh": "像这样有客人来我家，\n我其实是很开心的哦。\n我平时大多是去别人家打扰，\n你过来的话，我反倒有机会\n体会当主人的感受，感觉很新鲜呢。",
      "EUde": "Es ist ja so aufregend, zur\nAbwechslung mal selbst einen\nBesucher zu empfangen!\nSonst bin ja immer ich derjenige,\nder in die Häuser von anderen\npoltert. Rein beruflich, versteht sich.\nAber jetzt weiß ich endlich mal, wie\nsich die Gegenseite fühlt, ho ho ho!",
      "EUen": "It's so exciting to have a visitor!\nI'm usually the one barging into\nother folks' homes. Y'know, for work.\nNice to see how the other side lives,\nho ho ho!",
      "EUes": "¡Me encanta tener visitas! Es que\nnormalmente soy yo el que visita\nlas casas ajenas.\nAlgunas me inspiran para decorar\nla mía, ¡jo, jo, jo!",
      "EUfr": "Ça me fait plaisir d'avoir de la visite !\nD'habitude, c'est plutôt moi qui vais\nchez les gens.\nD'ailleurs, ça me donne toujours des\nidées de décoration. Ho ho ho !",
      "EUit": "È così bello ricevere una visita!\nDi solito sono io a visitare le case\ndella gente. Già, per lavoro.\nSono contento di aver scoperto\ncosa si prova a essere dall'altra\nparte, oh oh oh!",
      "EUnl": "Heel spannend om een bezoeker te\nhebben! Normaal val ik andermans\nhuizen binnen. Voor werk, natuurlijk.\nOok leuk om eens een keer aan de\nandere kant te staan, ho-ho-ho!",
      "EUru": "Мне так нравится принимать у себя\nгостей. Обычно это я влезаю\nв чужие дома. По работе, конечно.\nПриятно посмотреть на жизнь\nс другой стороны каминной трубы!",
      "JPja": "こうやって　お客さんが来てくれるのって\n嬉しいもんなんだね\nボかぁ　お邪魔することの方が多いから\nキミが来てくれると、迎えてくれる側の\n気持ちがわかって　新鮮だよ",
      "KRko": "이렇게 손님이 찾아온다는 건\n기분이 참 좋은 거구나～\n평소엔 내가 방문하는 쪽이니까\n네가 올 때면 맞이하는 사람의\n마음을 알게 돼서 신선해",
      "TWzh": "像這樣有客人來我家拜訪，\n真是令人感到開心啊。\n因為我平時大都是到其他人家裡作客，\n所以能作為招待方迎接你的到來，\n感覺真的很新鮮喔。",
      "USen": "It's so exciting to have a visitor!\nI'm usually the one barging into\nother folks' homes. Y'know, for work.\nNice to see how the other side lives,\nho ho ho!",
      "USes": "¡Me encanta tener visitas! Es que\nnormalmente soy yo el que visita\nlas casas ajenas.\nAlgunas me inspiran para decorar\nla mía, ¡jo, jo, jo!",
      "USfr": "Ça me fait plaisir d'avoir de la visite!\nD'habitude, c'est plutôt moi qui vais\nchez les gens.\nD'ailleurs, ça me donne toujours des\nidées de décoration. Ho ho ho!"
    }
  },
  {
    "label": "111_04",
    "attribute": "0x00000000",
    "locale": {
      "CNzh": "世界上有各种节日，\n你喜欢哪个节日呢？\n我当然最喜欢圣诞节了。\n不过，过节的时候我还要工作，\n没办法像别人一样\n享受其中呢。",
      "EUde": "Auf der ganzen Welt werden so viele\nFeste gefeiert... Welches Fest zählt\nzu deinen absoluten Favoriten?\nMein Lieblingsfest dürfte nun\nwirklich nicht schwer zu erraten\nsein. Der Spielzeugtag, natürlich!\nDas Problem ist nur, dass ich an dem\nTag immer arbeiten muss und nicht\nwie alle anderen entspannen kann.",
      "EUen": "There are so many seasonal events\nall over the world. Which one is your\nfavorite? I love Toy Day, obviously.\nThe problem is...I always have to\nwork on that day. So I don't get to\nrelax on Toy Day like everyone else.",
      "EUes": "Hay muchos eventos que tienen\nlugar una vez al año. Mi favorito es\nel Día de los Juguetes, obviamente.\nEl problema es que siempre tengo\nque trabajar ese día y no puedo\ndisfrutarlo como quisiera.",
      "EUfr": "Chaque saison a ses jours de fêtes.\nLequel est ton préféré ? Le mien,\nc'est le jour des cadeaux, bien sûr.\nLe problème, c'est que... je dois\ntoujours travailler, ce jour-là.\nJ'aimerais bien pouvoir en profiter,\nmoi aussi !",
      "EUit": "Ci sono così tanti eventi stagionali\nin giro. Qual è il tuo preferito? Il mio\nè il Giorno dei giocattoli, ovvio.\nIl problema è... che per me è sempre\nun giorno lavorativo. Niente relax nel\nGiorno dei giocattoli, purtroppo.",
      "EUnl": "Er zijn wereldwijd zoveel feestdagen. Wat is jouw favoriet? Mijn favoriet\nis natuurlijk Speelgoeddag.\nHet probleem is... dat ik altijd moet\nwerken op die dag. Dus ik kan dan\nnooit ontspannen zoals alle anderen.",
      "EUru": "В мире так много всяких\nпраздников. Тебе какие нравятся?\nМой любимый — День игрушек.\nНо есть одна проблема... Мне все\nвремя приходится работать в этот\nдень. Ни разу еще не отдохнул.",
      "JPja": "世の中には　いろんなイベントがあるけど\nキミは　どのイベントが好き？\nボかぁ　やっぱり　クリスマスだなぁ\nまぁ、イベント中は　仕事をしてるから\n他の人みたいに　楽しむことは\nできないんだけどね",
      "KRko": "이 세상엔 다양한 이벤트가 있는데\n너는 어떤 이벤트가 좋아?\n나는 역시 크리스마스가 좋더라\n사실 이벤트 중에는 일하고 있으니까\n다른 사람처럼 즐길 수는 없지만 말이야",
      "TWzh": "在這世界上有各式各樣的節日，\n你最喜歡哪個節日呢？\n我果然還是最喜歡聖誕節了。\n不過節日當天我還是得工作，\n所以沒辦法像其他人一樣\n享受節日就是了。",
      "USen": "There are so many seasonal events\nall over the world. Which one is your\nfavorite? I love Toy Day, obviously.\nThe problem is...I always have to\nwork on that day. So I don't get to\nrelax on Toy Day like everyone else.",
      "USes": "Hay muchos eventos que tienen\nlugar una vez al año. Mi favorito es\nel Día de los Juguetes, obviamente.\nEl problema es que siempre tengo\nque trabajar ese día y no puedo\ndisfrutarlo como quisiera.",
      "USfr": "Chaque saison a ses jours de fête.\nLequel est ton préféré? Le mien,\nc'est le jour des cadeaux, bien sûr.\nLe problème, c'est que... je dois\ntoujours travailler, ce jour-là.\nJ'aimerais bien pouvoir en profiter,\nmoi aussi!"
    }
  },
  {
    "label": "119",
    "attribute": "0x00000000",
    "locale": {
      "CNzh": "",
      "EUde": "",
      "EUen": "",
      "EUes": "",
      "EUfr": "",
      "EUit": "",
      "EUnl": "",
      "EUru": "",
      "JPja": "",
      "KRko": "",
      "TWzh": "",
      "USen": "",
      "USes": "",
      "USfr": ""
    }
  },
  {
    "label": "119_01",
    "attribute": "0x00000000",
    "locale": {
      "CNzh": "偶尔会有人对我说，\n这种日子还要工作，好辛苦啊……\n其实对我而言，大家的笑容就是最棒的礼物，\n我一点儿也不觉得辛苦呢。",
      "EUde": "Meist bin ich es, der Geschenke\nüberbringt. Selbst erhalte ich nur\nselten welche, aber das ist okay.\nDas Lächeln eines Beschenkten ist\nmir Lohn genug! Es wärmt mich wie\nein Feuer in einer eisigen Nacht.",
      "EUen": "I usually deliver gifts, so I rarely\nreceive any myself... But that's OK.\nI just like to see everyone smile.\nI mean it! A smiling face warms me\nup like a roaring fire on a cold night.",
      "EUes": "Normalmente no recibo regalos,\nsino que los reparto...\nPero no me quejo.\nMe gusta poner una sonrisa en los\nrostros de la gente. No sé quién me\nha inspirado esa idea...\nEl caso es que una sonrisa puede\ndar calor en las noches más frías\ndel invierno.",
      "EUfr": "En général, c'est moi qui livre les\ncadeaux, alors j'en reçois rarement\nmoi-même...\nMais ça ne me dérange pas, ça me\nsuffit de voir les gens sourire.\nJe suis sincère ! Le sourire d'un\nenfant me réchauffe l'âme comme\nun feu de cheminée en plein hiver.",
      "EUit": "Di solito sono io che recapito regali,\nquindi raramente li ricevo... ma non\nè un problema, anzi.\nVedere gli altri sorridere mi rende\nfelicissimo.\nDico sul serio! Un volto sorridente\nè come un falò che riscalda una\nnotte d'inverno.",
      "EUnl": "Ik bezorg normaal cadeautjes, dus ik\nkrijg ze zelden zelf... Maar dat is niet\nerg. Ik maak iedereen graag blij.\nDat meen ik! Een blij gezicht warmt\nme op als een knapperend vuurtje\nop een koude nacht.",
      "EUru": "Мне очень редко дарят подарки.\nОбычно это я всем что-то дарю...\nНо это не страшно.\nМне нравится приносить радость\nдругим. Серьезно! От их улыбок\nмне сразу становится теплее!",
      "JPja": "こんな日に　仕事だなんて　大変ねぇって\nたまに　言われることも　あるけど・・・\nみんなの笑顔が　一番のプレゼントだから\nボかぁ　少しも　大変じゃないんだよ",
      "KRko": "이런 날 일을 한다니 참 고생이 많다고\n그렇게 말해주는 사람이 가끔 있는데...\n나한테는 기뻐하는 모두의 얼굴이\n가장 큰 선물이라서 전혀 힘들지 않아",
      "TWzh": "偶爾有人會對我說\n「在這種日子還要工作，真是辛苦」……\n不過其實我一點都不覺得辛苦喔。\n因為大家的笑容，就是我收到的最棒禮物啊。",
      "USen": "I usually deliver gifts, so I rarely\nreceive any myself... But that's OK.\nI just like to see everyone smile.\nI mean it! A smiling face warms me\nup like a roaring fire on a cold night.",
      "USes": "Normalmente no recibo regalos,\nsino que los reparto...\nPero no me quejo.\nMe gusta poner una sonrisa en los\nrostros de la gente. No sé quién me\ninspiró esa idea...\nEl caso es que una sonrisa puede\ndar calor en las noches más frías\ndel invierno.",
      "USfr": "En général, c'est moi qui livre les\ncadeaux, alors j'en reçois rarement\nmoi-même...\nMais ça ne me dérange pas, ça me\nsuffit de voir les gens sourire.\nJe suis sincère! Le sourire d'un\nenfant me réchauffe l'âme comme\nun feu de cheminée en plein hiver."
    }
  },
  {
    "label": "119_02",
    "attribute": "0x00000000",
    "locale": {
      "CNzh": "你的休息日\n都是怎么度过的呢？\n是和亲近的人一起过吗？\n我休息日的时候\n就喜欢在这个庭院里消遣时光呢。\n能这么做也是多亏了你！",
      "EUde": "Wie verbringst du deine freien Tage?\nTriffst du Freunde? Besuchst du die\nFamilie? Vielleicht sogar beides?\nIch persönlich verbringe meine\nFreizeit am liebsten genau HIER!\nDanke für dieses tolle Ferienhaus!",
      "EUen": "How do you spend your days off?\nDo you chat with your friends? Visit\nwith family? Maybe both?\nPersonally, I love spending my\ndowntime riiight here. You made me\nsuch a great vacation ho-ho-home!",
      "EUes": "¿Qué haces en tus días libres?\n¿Sales con tus colegas? ¿Visitas\na tu familia? ¿Quizá las dos cosas?\nA mí me encanta pasar mi tiempo\nlibre aquí. ¡Gracias a la hermosa casa\nde vacaciones que me has hecho!",
      "EUfr": "Qu'est-ce que tu fais de ton temps\nlibre ? Tu discutes avec tes amis ?\nTu vas voir ta famille ?\nPersonnellement, j'aime simplement\nme reposer ici. Dans la magnifique\nvilla de vacances que tu m'as faite !",
      "EUit": "Come passi le tue giornate? Parli\ncon i tuoi amici? Vai a trovare i tuoi\nfamiliari? Entrambe le cose?\nPersonalmente, amo passare il mio\ntempo proprio qui. Mi hai creato una\ncasa vacanze festosissima!",
      "EUnl": "Wat doe jij als je vrij hebt? Praat je\nmet vrienden? Bezoek je familie?\nMisschien wel allebei?\nPersoonlijk ben ik het liefste hier. In\ndit geweldige vakantiehuis rust ik\ngraag mijn hoeven.",
      "EUru": "А как ты проводишь выходные?\nС друзьями? С семьей? Или с теми\nи с другими вместе?\nЯ-то больше всего люблю\nотдыхать прямо здесь. Ты мне\nпостроил такую хо-хорошую дачу.",
      "JPja": "キミは　オフの日は\nどう　過ごしているんだい？\n親しい人と　一緒に楽しんでたりするのかな？\nボかぁ　この庭で　ゆっくりするのが\n休日の楽しみになってるよ\nこれも　キミのおかげだね！",
      "KRko": "넌 쉬는 날에\n뭐 하면서 지내?\n친한 친구랑 같이 놀거나 해?\n난 요즘 이 정원에서 쉬는 게\n휴일의 즐거움이 됐어\n이것도 다 네 덕분이야!",
      "TWzh": "你都是怎麼度過你的假日啊？\n是和親近的人一起享受休假嗎？\n我的話，待在這座庭園裡悠哉度過的時光，\n已經成了我休假時的樂趣囉。\n能體會到這種感覺，也是多虧了你啊！",
      "USen": "How do you spend your days off?\nDo you chat with your friends? Visit\nwith family? Maybe both?\nPersonally, I love spending my\ndowntime riiight here. You made me\nsuch a great vacation ho-ho-home!",
      "USes": "¿Qué haces en tus días libres?\n¿Sales con tus amigos? ¿Visitas\na tu familia? ¿Quizá las dos cosas?\nA mí me encanta pasar mi tiempo\nlibre aquí. ¡Gracias a la hermosa casa\nde vacaciones que me hiciste!",
      "USfr": "Qu'est-ce que tu fais de ton temps\nlibre? Tu discutes avec tes amis?\nTu vas voir ta famille?\nMoi, j'aime simplement me reposer\nici. Dans la magnifique maison de vacances que tu m'as faite!"
    }
  },
  {
    "label": "119_03",
    "attribute": "0x00000000",
    "locale": {
      "CNzh": "你要是想给我拍照的话，\n那我可要拜托你按照我喜欢的角度来拍哦。\n我希望你可以从左下方来拍。\n这个角度拍出来的我最传神了！",
      "EUde": "Falls du ein Foto von mir machen\nwillst, dann bitte nur von meiner\nSchokoladenseite.\nAlso nur von links unten! Aus dieser\nPerspektive kommt mein Lächeln\ntotal gut zur Geltung!",
      "EUen": "If you take a photo of me, be sure\nto take it from my preferred angle.\nThat's from low down and to the\nleft. That really shows off my smile!",
      "EUes": "Si me haces una foto, sácame por\nfavor mi lado bueno.\nEs 40 grados a la derecha y 15\ngrados mirando hacia arriba.\n¡Así obtendrás mi lado bueno!",
      "EUfr": "Si tu me prends en photo, assure-toi\nde capturer mon meilleur profil.\nTu sais comment placer l'appareil ?\nÀ 40° vers la droite et à 15° en\ncontre-plongée... Ça me donne\nun sourire à faire fondre la glace !",
      "EUit": "Se mi scatti una foto, assicurati di\ninquadrarmi dal mio angolo preferito.\nDal basso verso sinistra. È il modo\nper far risaltare il mio sorrisone!",
      "EUnl": "Zorg ervoor dat wanneer je een foto\nvan me neemt, je dat vanuit mijn\nfavoriete hoek doet.\nDat is vanaf linksonder. Zo springt\nmijn glimlach er echt uit!",
      "EUru": "Если ты хочешь меня пофоткать,\nследи, чтобы я был в правильном\nракурсе.\nНаводи объектив чуток левее\nи ниже. Так моя улыбка будет\nвыглядеть лучше всего!",
      "JPja": "写真を　撮ってくれるときには\nお気に入りの角度で　お願いするよ\nできれば、左下からのアングルが嬉しいなぁ\nこの角度が　一番ボクらしく写るからね！",
      "KRko": "내 사진을 찍을 때\n부탁하고 싶은 각도가 있어\n가능하면 왼쪽 아래에서 찍어줄래?\n이 각도가 제일 나답게 찍히거든!",
      "TWzh": "如果你要拍照，\n請你用我最喜歡的角度拍攝吧。\n可以的話，請你盡量從左下方往上拍攝，\n因為那個角度能拍出最好看的我！",
      "USen": "If you take a photo of me, be sure\nto take it from my preferred angle.\nThat's from low down and to the\nleft. That really shows off my smile!",
      "USes": "Si me tomas una foto, que sea\na mi lado bueno, por favor.\nEs 40 grados a la derecha y 15\ngrados mirando hacia arriba.\n¡Así obtendrás mi lado bueno!",
      "USfr": "Si tu me prends en photo, assure-toi\nde capturer mon meilleur profil.\nTu sais comment placer l'appareil?\nÀ 40° vers la droite et à 15° en\ncontre-plongée... Ça me donne\nun sourire à faire fondre la glace!"
    }
  },
  {
    "label": "119_04",
    "attribute": "0x00000000",
    "locale": {
      "CNzh": "哎呀，完全没想到\n我居然能住\n这么漂亮的别墅。\n你给了我一份这么棒的礼物，\n那你岂不是就是我的圣诞老人吗？",
      "EUde": "Ich hätte mir nie träumen lassen,\nmeine freie Zeit in einem so schönen\nFerienhaus zu verbringen!\nDas ist das schönste Geschenk, das\ndu mir machen konntest. Aber woher\nwusstest du, dass...\nMoment mal! Das gibt's ja nicht!\nHat dich der Weihnachtsmann nun\nauch unter Vertrag genommen?",
      "EUen": "I never thought I'd get to spend time\nin a vacation home like this. You gave\nme the best gift ever!\nSeriously, you really nailed this one.\nHow did you know? Wait. No way...\nAre you my Toy Day secret Santa?!",
      "EUes": "Nunca pensé que tendría una casa\nde vacaciones como esta. ¡Es el\nmejor regalo que podías hacerme!\nEn serio, ha quedado niquelada.\n¿Cómo conoces tan bien mis\ngustos?\nEspera, no me digas que...\n¡¿tú también trabajas para el jefe?!",
      "EUfr": "Je n'aurais jamais cru pouvoir\nprofiter d'une si jolie villa. Tu m'as\noffert le plus beau des cadeaux !\nC'est fou, comment connais-tu aussi\nbien mes goûts ? Attends. Ne me dis\npas que... tu connais le patron ?!",
      "EUit": "Non avrei mai creduto di passare\nil tempo in una casa vacanze così.\nMi hai fatto un gran bel regalo!\nDavvero, hai azzeccato proprio tutto.\nMa come hai fatto? Aspetta. No...\nHai letto la mia lista dei desideri?!",
      "EUnl": "Ik had nooit gedacht dat ik tijd kon\ndoorbrengen in een vakantiehuis als\ndit. Echt het beste cadeau ooit!\nDit was echt een schot in de roos.\nHoe wist je dat? Wacht. Nee, toch...\nIs dit mijn speelgoeddagsurprise?",
      "EUru": "Я никогда и не думал, что у меня\nбудет такая хо-хорошая дача. Ты\nсделал мне отличный подарок!\nСерьезно, мне никогда не дарили\nничего лучше. И как ты угадал?\nТы что... умеешь читать мысли?!",
      "JPja": "いやぁ、まさか　こんなステキな\n別荘で　過ごせるなんて\n考えたこともなかったよ\n最高の　プレゼントをくれたキミは\nボクにとっての　サンタさんってトコかな？",
      "KRko": "아니, 설마 이렇게\n근사한 별장에서 지내게 될 줄은\n상상도 못 했어\n이런 최고의 선물을 주다니\n넌 나의 산타 할아버지구나～!",
      "TWzh": "哎呀，我完全沒想過\n我居然能住在這麼棒的別墅裡。\n將這麼棒的禮物送給我的你，\n應該算是我的聖誕老人吧？",
      "USen": "I never thought I'd get to spend time\nin a vacation home like this. You gave\nme the best gift ever!\nSeriously, you really nailed this one.\nHow did you know? Wait. No way...\nAre you my Toy Day secret Santa?!",
      "USes": "Nunca pensé que tendría una casa\nde vacaciones como esta. ¡Es el\nmejor regalo que podías hacerme!\nEn serio, quedó de maravilla.\n¿Cómo conoces tan bien mis\ngustos?\nEspera, no me digas que...\n¡¿tú también trabajas para el jefe?!",
      "USfr": "Je n'aurais jamais cru pouvoir \nprofiter d'une si jolie maison. Tu \nm'as offert un beau cadeau!\nC'est fou, comment connais-tu aussi\nbien mes goûts? Attends. Ne me dis\npas que... tu connais mon patron?!"
    }
  },
  {
    "label": "124",
    "attribute": "0x00000000",
    "locale": {
      "CNzh": "真好～这里也很棒！\n不愧是专业人士的选择！",
      "EUde": "Oh, ho ho! Dieser neue Ort gefällt\nmir ebenso gut wie der letzte!\nDu hast echt ein Äuglein für so was!",
      "EUen": "Oh ho ho! This spot is also lovely!\nNo surprise. You have a real eye\nfor this stuff!",
      "EUes": "¡Jo, jo, jo! ¡Este lugar es encantador!\nY no me sorprende, ¡porque tienes\nmuy buen ojo para esto!",
      "EUfr": "Ho ho ho ! Cet endroit est tout à fait\ncharmant, lui aussi. Tu as un vrai\ntalent pour ce genre de choses !",
      "EUit": "Oh oh oh! Questo posto è splendido!\nNon c'è da stupirsi. Hai un occhio\ninfallibile per queste cose!",
      "EUnl": "O ho-ho! Deze plek is geweldig! Echt\neen fantastisch cadeau. Ik kan mijn\nenthousiasme bijna niet beteugelen!",
      "EUru": "Хо-хорошо! Это место тоже\nвыглядит отлично! Я не удивлен.\nУ тебя прямо нюх на такие вещи!",
      "JPja": "いいね～、ここも　ステキな場所じゃないか！\nさすが　プロのチョイスなだけあるなぁ！",
      "KRko": "우와～ 여기도 굉장히 멋지다!\n역시 프로의 센스는 알아줘야 한다니까!",
      "TWzh": "不錯喔～這地方也很棒！\n不愧是專家挑選的地方！",
      "USen": "Oh ho ho! This spot is also lovely!\nNo surprise. You have a real eye\nfor this stuff!",
      "USes": "¡Jo, jo, jo! ¡Este lugar es encantador!\nY no me sorprende, ¡porque tienes\nmuy buen ojo para esto!",
      "USfr": "Ho ho ho! Cet endroit est tout à fait\ncharmant, lui aussi. Tu as un vrai\ntalent pour ce genre de choses!"
    }
  },
  {
    "label": "124_01",
    "attribute": "0x00000000",
    "locale": {
      "CNzh": "那么，就麻烦你按照\n这里的风格进行装修了！",
      "EUde": "Den Rest überlasse ich dir. Ich kann's\nkaum erwarten zu sehen, wie du mein\nHaus ausstaffieren wirst!",
      "EUen": "I'll leave the rest to you. Can't wait\nto see how you decorate the place!",
      "EUes": "El resto te lo dejo a ti. ¡Qué ganas\ntengo de ver cómo decoras mi casa!",
      "EUfr": "Je te laisse t'occuper du reste.\nJ'ai hâte d'être émerveillé par tes\ntalents de décorateur !",
      "EUit": "Lascio fare il resto a te. Sono\ncurioso di vedere come sistemerai\nquesto posto!",
      "EUnl": "Ik laat de rest aan jou over. Ik kan\nniet wachten om te zien hoe je deze\nplek gaat decoreren!",
      "EUru": "Оставляю тебя за главного. Мне\nужасно интересно, как все это\nбудет выглядеть.",
      "JPja": "それじゃあ、ここに合う感じで\nリフォームの方も　よろしく頼んだよ！",
      "KRko": "그럼 여기 분위기에 어울리도록\n리폼도 잘 부탁할게!",
      "TWzh": "那麼就麻煩你配合這裡的氛圍\n進行裝修了！",
      "USen": "I'll leave the rest to you. Can't wait\nto see how you decorate the place!",
      "USes": "El resto te lo dejo a ti. ¡Qué ganas\ntengo de ver cómo decoras mi casa!",
      "USfr": "Je te laisse t'occuper du reste.\nJ'ai hâte d'être émerveillé par tes\ntalents de décorateur!"
    }
  },
  {
    "label": "129_06",
    "attribute": "0x00000000",
    "locale": {
      "CNzh": "2楼也很不错啊～\n让我想想我要怎样在这里过出别样的生活～",
      "EUde": "Ich liebe mein Zusatzstockwerk! Was\nman daraus alles machen könnte...\nGeschenke drin lagern, zum Beispiel.",
      "EUen": "I love this second floor. This space\ncould become anything...but I'd just\nuse it for gift storage, probably.",
      "EUes": "Me encanta esta nueva planta.\nEste lugar se podría usar para\nmuchas cosas...\npero acabaré usándola enteramente\npara almacenar regalos.",
      "EUfr": "J'aime beaucoup cet espace. Je\npourrais en faire n'importe quoi...\nMais tel que je me connais, je vais\nsûrement m'en servir pour stocker\ndes cadeaux.",
      "EUit": "Mi piace il piano superiore. Potrei\nfarci qualsiasi cosa... ma credo che\nlo userò come deposito dei regali.",
      "EUnl": "Ik ben dol op die extra verdieping.\nWat ga ik ermee doen... O, natuurlijk!\nHij wordt één grote cadeauopslag.",
      "EUru": "Мне так нравится этот второй этаж.\nСтолько свободного места... для\nподарков! Хранилище радости!",
      "JPja": "2階も　なかなか　いいじゃないか～\nさて、ここで　どんな風に過ごそうかなぁ",
      "KRko": "2층도 너무 좋다～\n어디 보자, 여기서 어떻게 지내볼까?",
      "TWzh": "二樓的感覺也很不錯喔～\n我究竟會在這過上怎麼樣的生活啊？",
      "USen": "I love this second floor. This space\ncould become anything...but I'd just\nuse it for gift storage, probably.",
      "USes": "Me encanta este nuevo piso.\nEste lugar se podría usar para\nmuchas cosas...\nAunque sé que acabaré usándolo\nenteramente para almacenar regalos.",
      "USfr": "J'aime beaucoup cet espace. Je\npourrais en faire n'importe quoi...\nMais tel que je me connais, je vais\nsûrement m'en servir pour empiler\ndes cadeaux."
    }
  },
  {
    "label": "129_07",
    "attribute": "0x00000000",
    "locale": {
      "CNzh": "那么，这个房间的布置\n也拜托你了！",
      "EUde": "Nur gut, dass du die Gestaltung des\nZimmers übernimmst. Tob dich hier\noben ruhig aus, ich vertraue dir!",
      "EUen": "Thank goodness you're designing\nthe space for me! Do whatever you\nwant up here. I trust you!",
      "EUes": "¡Qué suerte que seas tú quien se\nencarga de diseñarme este espacio!\nHaz todo como mejor te parezca.\n¡Confío en tu buen criterio!",
      "EUfr": "Sache que ce p'tit renne au nez noir\nt'est très reconnaissant de t'occuper\nde la décoration !\nFais à ta guise, je te fais entièrement\nconfiance !",
      "EUit": "Per fortuna sarai tu a progettare\nquesto spazio per me! Fai pure ciò\nche vuoi. Mi fido di te!",
      "EUnl": "Echt hoeftastisch dat je deze ruimte\nvoor me gaat ontwerpen! Ik geef je\nde vrije hand. Ik vertrouw je!",
      "EUru": "Как же хорошо, что ты взялся за\nдизайн здесь! У тебя отлично\nполучается. Я в тебя верю!",
      "JPja": "じゃあ、この部屋のコーディネートも\nお任せするから　よろしくね！",
      "KRko": "그럼 이 방의 인테리어도\n네게 맡길 테니까 잘 부탁해!",
      "TWzh": "那麼這間房間的布置也交給你了，\n麻煩你啦！",
      "USen": "Thank goodness you're designing\nthe space for me! Do whatever you\nwant up here. I trust you!",
      "USes": "¡Qué suerte que seas tú quien se\nencarga de diseñarme este espacio!\nHaz todo como mejor te parezca.\n¡Confío en tu buen criterio!",
      "USfr": "Sache que ce p'tit renne au nez noir\nt'est très reconnaissant de t'occuper\nde la décoration!\nFais à ta guise, je te fais entièrement\nconfiance!"
    }
  },
  {
    "label": "148",
    "attribute": "0x00000000",
    "locale": {
      "CNzh": "那下次见！\n欢迎你随时再来哦～",
      "EUde": "In Ordnung, mach's gut! Und komm\nbald mal wieder vorbei!",
      "EUen": "OK! Buh-bye! Come visit anytime!",
      "EUes": "Muy bien, nos vemos otro día.\n¡Pásate cuando quieras!",
      "EUfr": "Ho ho ho ! À très bientôt !",
      "EUit": "OK! Ciao! E vieni a trovarmi quando\nti pare!",
      "EUnl": "Oké! Doehoehoei! Je bent altijd\nwelkom!",
      "EUru": "Хо-хорошо! Пока-пока! Возвращайся\nв любое время!",
      "JPja": "それじゃまたね！\nいつでも　気軽に　遊びに来ておくれよ",
      "KRko": "그럼 또 보자!\n언제든지 편하게 놀러와",
      "TWzh": "那麼下次見啦！\n歡迎你隨時過來玩喔。",
      "USen": "OK! Buh-bye! Come visit anytime!",
      "USes": "Muy bien, nos vemos otro día.\n¡Ven a visitarme cuando quieras!",
      "USfr": "Ho ho ho! À très bientôt!"
    }
  }
]