﻿[
  {
    "label": "001",
    "attribute": "0x0000000000000000",
    "locale": {
      "CNzh": "，\n今天的主角是你哦！\n来，对着蛋糕按，\n把蜡烛吹灭吧！。",
      "EUde": "Heute spielst DU die Hauptrolle,\n(Spitzname)!\nDann tritt doch mal an deinen\nKuchen heran und drücke ,\num die Kerzen auszublasen!",
      "EUen": "This is your moment,\n(nickname)!\nTake a deep breath and\nblow out all your candles!",
      "EUes": "Este es tu gran momento,\n(nickname).\nRespira hondo, piensa en un deseo\n¡y sopla las velas con !",
      "EUfr": "À toi de jouer, (surnom) !\nPlace-toi devant le gâteau, inspire\nfort et souffle toutes tes bougies\nd'un coup en appuyant sur  !",
      "EUit": "Questo è il tuo momento,\n(nickname)!\nPrendi un bel respiro e spegni\ntutte le tue candeline!",
      "EUnl": "Dit is jouw feestje, (nickname)!\nHaal diep adem en blaas alle\nkaarsjes uit met !",
      "EUru": "(nickname), наступает\nрешающий момент!\nНабери воздуха и погаси все свечи!",
      "JPja": "今日の主役は\n　ですからね！\nさあ、ケーキに向かって　で\nローソクを　消してください！　",
      "KRko": "오늘의 주인공은\n님이에요!\n자, 케이크를 향해 서서 로\n촛불을 꺼주세요! !",
      "TWzh": "，\n今天的主角可是你喔！\n來吧，快對著蛋糕按下，\n吹熄蠟燭吧！。",
      "USen": "This is your moment,\n(nickname)!\nTake a deep breath and\nblow out all your candles!",
      "USes": "Este es tu gran momento,\n(nickname).\nRespira hondo, piensa en un deseo\n¡y sopla las velas con !",
      "USfr": "À toi de jouer, (surnom)!\nPlace-toi devant le gâteau, inspire\nfort et souffle toutes tes chandelles\nd'un coup en appuyant sur !"
    }
  },
  {
    "label": "002",
    "attribute": "0x0000000000000000",
    "locale": {
      "CNzh": "呵呵，不是对着我，\n是要对着蛋糕按哦！。",
      "EUde": "Hihihi, nicht mich sollst du angucken,\nsondern den Kuchen! Und dann \ndrücken, (Floskel)!",
      "EUen": "Don't face me, face your candles!\nThen press  to blow them out.",
      "EUes": "¡No me mires a mí! No voy\na soplar las velas por ti. Anda,\nponte delante y pulsa  para soplar.",
      "EUfr": "Ce n'est pas moi qu'il faut regarder.\nLes bougies n'attendent que toi,\n !\nAllez, appuie sur  pour les souffler.",
      "EUit": "Non devi spegnere me, ma\nle candeline sulla torta!\nMettiti di fronte e premi .",
      "EUnl": "Kijk niet naar mij maar naar de\nkaarsjes! Druk op  om ze uit te\nblazen.",
      "EUru": "Ты не на меня смотри, а на свечи!\nНажми , чтобы их погасить.",
      "JPja": "うふふ、わたしじゃなくって\nケーキに向かって　ですよ！　",
      "KRko": "후후후, 제 쪽이 아니라\n케이크를 향해서 예요! !",
      "TWzh": "呵呵呵，不是對著我，\n是對著蛋糕按下喔！。",
      "USen": "Don't face me, face your candles!\nThen press  to blow them out.",
      "USes": "¡No me mires a mí! No voy a apagar\nlas velas por ti. Ponte frente a ellas\ny oprime  para soplar.",
      "USfr": "Ce n'est pas moi qu'il faut regarder.\nLes chandelles n'attendent que toi,\n!\nAllez, appuie sur  pour les souffler."
    }
  },
  {
    "label": "003",
    "attribute": "0x0000000000000000",
    "locale": {
      "CNzh": "虽然望着这摇曳的烛火\n也颇有情调……\n但差不多该按把蜡烛吹灭了。。",
      "EUde": "Die Kerzen verbreiten tolle\nPartystimmung... Aber so langsam\nsolltest du sie mit  ausblasen!",
      "EUen": "I know the candlelight's pretty,\nbut you should probably go on\nand blow them out now.",
      "EUes": "¿Por qué no soplas las velas, flor?\n¿No sabes qué deseo pedir?\n¿Es eso?\nCasi siempre, lo primero que se\nte pasa por la cabeza suele ser\nlo acertado.\nAsí que plántate delante de esa\ntarta y sopla con , ¡sin miedo!",
      "EUfr": "Je sais que la lumière des bougies\nest agréable, mais tu vas devoir\nles souffler quand même.\nAllez, il te suffit d'appuyer sur  !",
      "EUit": "Perché non spegni le candeline?\nNon sai che desiderio esprimere?\nÈ per questo?\nQuasi sempre, è la prima cosa che\nti passa per la testa che si avvera.",
      "EUnl": "Ik weet dat het kaarslicht mooi is,\nmaar misschien kun je de kaarsjes\nnu ook uitblazen met .",
      "EUru": "Я знаю, свечи красиво горят, но ты\nуже можешь их задуть.",
      "JPja": "ローソクの火が　ゆれるのを\n見ているのも　ムードがありますけど・・・\nそろそろ　で消してください、",
      "KRko": "촛불이 흔들리는 모습도\n분위기 있지만...\n이제 로 불을 꺼주세요! !",
      "TWzh": "雖然凝視著蠟燭搖曳的火光\n也很有情調……\n但差不多該按下把它吹熄囉！。",
      "USen": "I know the candlelight's pretty,\nbut you should probably go on\nand blow them out now.",
      "USes": "¿Por qué no soplas las velas, flor?\n¿No sabes qué deseo pedir?\n¿Es eso?\nCasi siempre, lo primero que se\nte pasa por la cabeza suele ser\nlo acertado.\nAsí que plántate frente a ese\npastel y sopla con , ¡sin miedo!",
      "USfr": "Je sais que la lumière des chandelles\nest agréable, mais tu vas devoir\nles souffler quand même.\nAllez, il te suffit d'appuyer sur !"
    }
  },
  {
    "label": "005",
    "attribute": "0x0000000000000000",
    "locale": {
      "CNzh": "，\n你今天真是闪耀动人！\n果然只要年龄增长一点，\n散发出来的光芒也截然不同了呀！。",
      "EUde": "Du strahlst heute förmlich von innen\nheraus, (Spitzname)!\nDas kommt sicher von den vielen\nGlückwünschen, (Floskel)!",
      "EUen": "You're all aglow today,\n(nickname)!\nMust be from basking in\nall this birthday attention.",
      "EUes": "Hoy tu aura brilla más intensamente\nque nunca, (nickname).\nSerá por la energía positiva que\nrebosa en esta fiesta tan genial.",
      "EUfr": "Tu es radieux aujourd'hui, (surnom) !\nPrendre de l'âge te va bien,\non dirait !",
      "EUit": "Oggi sei davvero raggiante,\n(nickname)!\nImmagino che sia così quando si\nè il festeggiato, n'est-ce pas?",
      "EUnl": "Je straalt vandaag, (nickname)!\nDat komt vast door al de aandacht\ndie je krijgt vanwege je verjaardag.",
      "EUru": "(nickname), ты весь\nсветишься!\nНаверное, потому что ты сегодня\nв центре внимания.",
      "JPja": "今日の　、\nとっても　キラキラしてますよ！\nやっぱり　ひとつ大人になると\n輝きが違いますね、",
      "KRko": "오늘 님은\n정말 빛나네요!\n역시 조금 더 어른이 되면\n오라가 달라지나 봐요, !",
      "TWzh": "今天的，\n實在非常耀眼喔！\n果然人只要長大了一點，\n散發出的光芒也會不同呢，。",
      "USen": "You're all aglow today,\n(nickname)!\nMust be from basking in\nall this birthday attention.",
      "USes": "Hoy tu aura brilla más intensamente\nque nunca, (nickname).\nSerá por la energía positiva que\nrebosa en esta fiesta tan genial.",
      "USfr": "Tu es radieux aujourd'hui, (surnom)!\nPrendre de l'âge te va bien,\non dirait!"
    }
  },
  {
    "label": "006",
    "attribute": "0x0000000000000000",
    "locale": {
      "CNzh": "呵呵，\n你觉得这场惊喜派对怎么样？\n我今天能够参加这场派对，\n真是太幸福了。。",
      "EUde": "Hihi, wie war unsere kleine\nÜberraschungsparty?\nIch bin auf jeden Fall glücklich, dass\nich dabei sein konnte, (Floskel)!",
      "EUen": "Enjoying your surprise party?\nI'm so happy I could be here to\ncelebrate your day, (catchphrase)!",
      "EUes": "¿Estás disfrutando de tu fiesta\nsorpresa, ?\nMe alegro mucho de haber podido\nasistir. ¡No me la hubiese perdido\npor nada!",
      "EUfr": "Tu t'amuses bien ?\nSi tu savais comme je suis contente\nd'être ici,  !",
      "EUit": "Ti stai godendo la tua festa\na sorpresa?\nSono così feliiice di poter essere\nqui con te, (catchphrase)!",
      "EUnl": "Bevalt je verrassingsfeestje?\nIk ben zo blij dat ik je verjaardag\nmet je kan vieren, (catchphrase)!",
      "EUru": "Тебе понравился наш сюрприз?\nЯ очень рада, что отмечаю этот\nпраздник вместе с тобой!\n(catchphrase)!",
      "JPja": "うふふ、サプライズパーティー\nいかがでしたか？\nわたし、今日ここに　来ることができて\nとっても幸せです、",
      "KRko": "후후후, 서프라이즈 파티는\n어떠셨어요?\n저는 오늘 여기에 와서\n너무나 행복하답니다, !",
      "TWzh": "呵呵呵，你覺得今天的\n驚喜派對怎麼樣？\n我覺得今天能來這裡一起慶祝，\n實在好幸福喔，。",
      "USen": "Enjoying your surprise party?\nI'm so happy I could be here to\ncelebrate your day, (catchphrase)!",
      "USes": "¿Estás disfrutando de tu fiesta\nsorpresa, (catchphrase)?\nMe alegro mucho de haber podido\nasistir. ¡No me la habría perdido\npor nada!",
      "USfr": "Tu t'amuses bien?\nSi tu savais comme je suis contente\nd'être ici, !"
    }
  },
  {
    "label": "007",
    "attribute": "0x0000000000000000",
    "locale": {
      "CNzh": "希望你能喜欢\n这份礼物……\n我在准备礼物时也出了一份力哦。。",
      "EUde": "Ich hoffe, das Geschenk gefällt dir...\nIch hab es quasi ausgesucht.",
      "EUen": "I hope you like your present...\nIt was sort of my idea.",
      "EUes": "Yo ayudé a escoger el regalo...\nEspero que te guste.",
      "EUfr": "J'espère que notre cadeau te plaît...\nL'idée est de moi.",
      "EUit": "Spero che adorerai il nostro regalo...\nPraticamente è stata una mia idea,\n.",
      "EUnl": "Ik hoop dat je je cadeautje leuk\nvindt... Het was min of meer mijn\nidee.",
      "EUru": "Надеюсь, тебе нравится этот\nподарок... Я старалась\nподобрать самый лучший!",
      "JPja": "プレゼント、喜んでいただけると\nうれしいなぁ・・・\nわたしも　準備を手伝ったんですよ、",
      "KRko": "선물이 마음에 드셨으면 좋겠어요...\n저도 같이 준비했거든요! !",
      "TWzh": "真希望你會喜歡\n我們送的禮物……\n我也有幫忙準備禮物喔！。",
      "USen": "I hope you like your present...\nIt was sort of my idea.",
      "USes": "Yo ayudé a escoger el regalo...\nEspero que te guste.",
      "USfr": "J'espère que notre cadeau te plaît...\nL'idée est de moi."
    }
  },
  {
    "label": "008",
    "attribute": "0x0000000000000000",
    "locale": {
      "CNzh": "想不到你能够这么轻松地敲碎皮纳塔。\n我好尊敬你！。",
      "EUde": "Na? Hat es Spaß gemacht,\ndie Piñata zu zerschmettern?\nDu hast ja wirklich ohne Rücksicht\nauf Verluste auf sie eingeschlagen!",
      "EUen": "So, was smashing the piñata fun?\nYou really gave it a good whack!",
      "EUes": "¿Te lo has pasado bien rompiendo\nesa piñata? Por la cara que ponías,\nyo diría que sí, .",
      "EUfr": "Tu t'es bien amusé avec la piñata ?\nTu n'y es pas allé de main morte,\n(surnom) !",
      "EUit": "Non è stato divertentissimissimo,\nspaccare la pignatta? Gliele hai\nsuonate di santa ragione!",
      "EUnl": "En, vond je het leuk om de piñata\nstuk te slaan?\nJe hebt er een flinke mep tegen\ngegeven!",
      "EUru": "Весело было разбивать пиньяту?\nХорошенько ты ее поколотил,\n(nickname)!",
      "JPja": "ピニャータを割るの、すごく　お上手でしたね\n尊敬しちゃいます！　",
      "KRko": "피냐타를 정말 잘 깨시네요!\n존경스러워요, !",
      "TWzh": "真沒想到，你好會敲皮納塔喔！\n我好崇拜你！。",
      "USen": "So, was smashing the piñata fun?\nYou really gave it a good whack!",
      "USes": "¿Te gustó pegarle a la piñata?\n¡Por la cara que ponías, yo diría\nque sí, (catchphrase)!",
      "USfr": "Tu t'es bien amusé avec la piñata?\nTu n'y es pas allé de main morte,\n(surnom)!"
    }
  },
  {
    "label": "009",
    "attribute": "0x0000000000000000",
    "locale": {
      "CNzh": "，\n希望明年也能够像这样\n为你庆祝生日。。",
      "EUde": "Ich hoffe, nächstes Jahr können wir\ndich genauso toll feiern wie heute!",
      "EUen": "I hope we can throw a party\nlike this for you every year!",
      "EUes": "¡Ojalá podamos montarte una fiesta\nsorpresa todos los años!\nAh... Pero entonces ya no será\nsorpresa, ¿no?",
      "EUfr": "Rendez-vous dans un an pour ta\nprochaine fête surprise ?",
      "EUit": "Potremmo organizzarti una festa\na sorpresa tutti gli anni!\nAh, peccato che poi non sarebbe\npiù una sorpresa...",
      "EUnl": "Ik hoop dat we elk jaar een feest\nkunnen organiseren voor je!",
      "EUru": "Мы теперь каждый год будем\nустраивать для тебя такую\nвечеринку.",
      "JPja": "来年も　こんな風に\nの\nお誕生日会が　できるといいですね、",
      "KRko": "내년에도 이렇게\n님의 생일 파티를\n할 수 있으면 좋겠어요! !",
      "TWzh": "真希望明年也能像這樣，\n幫\n舉辦慶生會呢！。",
      "USen": "I hope we can throw a party\nlike this for you every year!",
      "USes": "¡Ojalá podamos hacerte una fiesta\nsorpresa todos los años!\nAh... Pero entonces ya no será\nsorpresa, ¿no?",
      "USfr": "Rendez-vous dans un an pour ta\nprochaine fête surprise?"
    }
  },
  {
    "label": "011",
    "attribute": "0x0000000000000000",
    "locale": {
      "CNzh": "呵呵，其实我也是今天生日哦！\n，\n没想到我们竟然会是同一天生日，\n命运还真是奇妙呢。。",
      "EUde": "Verrückt, dass wir am selben Tag\nGeburtstag haben! Es war sicher vor-\nbestimmt, dass wir Freunde werden!",
      "EUen": "Today's my birthday too...\nMaybe we were fated to be\nfriends, (nickname)!",
      "EUes": "Hoy también es mi cumple...\nSupongo que estábamos destinados\na ser amigos, (nickname).",
      "EUfr": "C'est mon anniversaire aussi.\nÇa ne peut pas être un hasard !\nOn est faits pour s'entendre...",
      "EUit": "Oggi è anche il mio compleanno...\nForse è il destino che ci ha fatto\nincontrare, (nickname)!",
      "EUnl": "Vandaag is het ook mijn verjaardag...\nMisschien is het ons lot om bevriend\nte zijn, (nickname)!",
      "EUru": "Сегодня у меня тоже день\nрождения...\nЗначит, нам суждено было стать\nдрузьями, (nickname)!",
      "JPja": "うふふ、今日は　わたしも誕生日なんです！\nと\n同じ誕生日だなんて\nちょっと運命的ですね、",
      "KRko": "후후후, 오늘은 저도 생일이랍니다!\n님과\n생일이 같다니\n운명적인 뭔가가 느껴져요! !",
      "TWzh": "呵呵呵，今天其實也是我的生日喔！\n沒想到我居然\n跟同一天生日，\n命運真有點奇妙呢～。",
      "USen": "Today's my birthday too...\nMaybe we were fated to be\nfriends, (nickname)!",
      "USes": "Hoy también es mi cumple...\nSupongo que estábamos destinados\na ser amigos, (nickname).",
      "USfr": "C'est ma fête aussi.\nÇa ne peut pas être un hasard!\nOn est faits pour s'entendre..."
    }
  },
  {
    "label": "012",
    "attribute": "0x0000000000000000",
    "locale": {
      "CNzh": "，\n和你待在一起真的很开心。\n难道是因为我们同一天生日吗？\n不过就算不是同一天，\n我们也一定能成为好朋友的。。",
      "EUde": "Ob du mir deshalb so sympathisch\nbist, weil du am gleichen Tag\nGeburtstag hast wie ich?\nAber ich bin mir sicher, du wärst\nmir so oder so sympathisch,\n(Floskel)!",
      "EUen": "I got excited when I realized\nthat you and I share the same\nbirthday, (nickname).\nBut then I remembered reading\nthat the odds of that happening\nare higher than I'd thought.",
      "EUes": "¡Me he llevado una sorpresa cuando\nhe sabido que tú y yo cumplimos\naños el mismo día!\nSé que pasa bastante a menudo,\n¡pero aun así me hace ilusión!",
      "EUfr": "Quand j'ai appris qu'on était nés\nle même jour, j'étais surexcitée,\n(surnom) !\nMais finalement, ça n'a rien\nd'exceptionnel. Du point de vue\nstatistique, j'entends.",
      "EUit": "Quando ho scoperto che compiamo\ngli anni lo stesso giorno, ero molto\nfeliiice, (nickname).\nMa poi ho letto un articolo in cui\ndicevano che non è una cosa poi\ntanto rara...",
      "EUnl": "Ik vond het zo leuk om te horen dat\nwij dezelfde verjaardag hebben,\n(nickname).\nMaar toen herinnerde ik me dat ik in\neen boek heb gelezen dat dit vaker\nvoorkomt dan ik had verwacht.",
      "EUru": "Я так удивилась, когда узнала, что\nу нас с тобой день рождения в один\nи тот же день, (nickname).\nНо потом я где-то прочитала, что\nэто не такая уж и редкость.",
      "JPja": "と\n一緒にいて　とっても楽しいのは\n同じ誕生日だからかしら？\nまぁ、誕生日が　同じじゃなくっても\nきっと　楽しいと思いますけどね、",
      "KRko": "님과\n함께 있어서 이렇게 즐거운 건\n생일이 같아서일까요?\n물론 생일이 달라도\n즐거웠겠지만요, !",
      "TWzh": "跟待在一起，\n我就覺得特別開心，\n難道是因為我們同一天生日嗎？\n不過，就算我們的生日不是同一天，\n我想我一定也會很開心就是了，。",
      "USen": "I got excited when I realized\nthat you and I share the same\nbirthday, (nickname).\nBut then I remembered reading\nthat the odds of that happening\nare higher than I'd thought.",
      "USes": "¡Me llevé una sorpresa cuando\nsupe que tú y yo cumplimos\naños el mismo día!\nSé que no es algo del otro mundo,\n¡pero aun así me da mucha alegría!",
      "USfr": "Quand j'ai appris qu'on était nés\nle même jour, j'étais surexcitée,\n(surnom)!\nMais finalement, ça n'a rien\nd'exceptionnel. Du point de vue\nstatistique, j'entends."
    }
  },
  {
    "label": "014",
    "attribute": "0x0000000000000000",
    "locale": {
      "CNzh": "竟然在元旦这天生日，\n也就是说新年伊始双喜临门，\n感觉真是喜庆呢！。",
      "EUde": "An Neujahr Geburtstag zu haben, das\nist wie ein doppelter Neuanfang!",
      "EUen": "Having your birthday on the first\nday of a new year is like getting\ntwice as much of a fresh start!",
      "EUes": "Qué casualidad que nacieras justo\nen el primer día del año...\nEso te hará empezar el año con\nel doble de alegría, ¿no?",
      "EUfr": "C'est génial d'être né un premier\njanvier... Comme ça, tu sais toujours\nquel âge tu as, au jour près !",
      "EUit": "Compiere gli anni il primo giorno\ndell'anno è davvero un bel modo\nper aprirsi alle novità!",
      "EUnl": "Als je je verjaardag op de eerste dag\nvan het jaar hebt, is dat een extra\nmooi begin van het jaar!",
      "EUru": "День рождения в первый день\nнового года — это сразу две\nвозможности начать новую жизнь.",
      "JPja": "お正月が　誕生日だなんて、\nダブルで　新しい年の始まりで\nなんだか素敵ですね！　",
      "KRko": "1월 1일이 생일이라니\n즐거운 이벤트가 한꺼번에 왔네요!\n왠지 근사해요, !",
      "TWzh": "你的生日居然是在過年時期，\n這樣同時也是全新一年的開始，\n總覺得好棒喔！。",
      "USen": "Having your birthday on the first\nday of a new year is like getting\ntwice as much of a fresh start!",
      "USes": "Qué casualidad que nacieras justo\nen el primer día del año...\nEso hará que empieces el año con\nel doble de alegría, ¿no?",
      "USfr": "C'est génial d'être né un premier\njanvier... Comme ça, tu sais toujours\nquel âge tu as, au jour près!"
    }
  },
  {
    "label": "015",
    "attribute": "0x0000000000000000",
    "locale": {
      "CNzh": "你的生日是2月29日，\n所以这场生日派对其实算是提前了一天呢。\n，虽然时候还有些早，\n不过预祝你\n能够过上美好的一年。。",
      "EUde": "Eigentlich ist das ja eine\nvorgezogene Geburtstagsfeier,\nda es dieses Jahr keinen 29. gibt...\nAber andererseits ist es ja etwas\nGutes, wenn ich dir jetzt schon ein\ntolles nächstes Jahr wünschen kann!",
      "EUen": "So you were born on the 29th,\nbut you celebrate one day earlier\nwhen it's not a leap year, right?\nWell, at least I can get in early\non wishing you a great year\nthis year, (nickname)!",
      "EUes": "Naciste el 29, pero casi todos\nlos años tienes que celebrarlo\notro día diferente, ¿no?\nLo importante es que lo celebres\ny que recibas regalos igual.",
      "EUfr": "Vu que tu es né le 29, tu fêtes ton\nanniversaire en avance la plupart du\ntemps, non ?\nEnfin, est-ce qu'on peut vraiment\ndire « en avance » ? Je vais me\nrenseigner, je te dirai ça. ",
      "EUit": "In realtà sei nato il 29, ma festeggi\nil tuo compleanno un giorno prima,\nn'est-ce pas?\nBeh, almeno potrò farti gli auguri\nin anticipo, (nickname)!",
      "EUnl": "Je bent eigenlijk op de 29e geboren,\nmaar dit jaar vieren we je verjaardag\neen dag eerder, toch?\nDan kan ik je al vroeg een fijne\nverjaardag wensen, (nickname)!",
      "EUru": "Ты родился 29-го, но празднуешь\nна день раньше, если год не\nвисокосный, правильно?\nНо лучше раньше, чем позже,\n(nickname)!",
      "JPja": "ほんとうは　2月29日ですから\n一日早い　お誕生日会になっちゃいましたね\nちょっと早めですけど、\nの一年が　\nいい年になりますように、",
      "KRko": "진짜 생일은 2월 29일이니까\n하루 빠른 생일 파티가 되어버렸네요...\n좀 이르긴 하지만\n님의 생일을\n축하드려요, !",
      "TWzh": "因為你真正的生日是2月29號，\n所以慶生會就提早一天舉辦了呢。\n雖然還有點早，\n但，\n希望你接下來能有個美好的一年喔，。",
      "USen": "So you were born on the 29th,\nbut you celebrate one day earlier\nwhen it's not a leap year, right?\nWell, at least I can get in early\non wishing you a great year\nthis year, (nickname)!",
      "USes": "Naciste el 29, pero casi todos\nlos años tienes que celebrarlo\notro día diferente, ¿no?\nLo importante es que lo celebres\ny que recibas regalos igual.",
      "USfr": "Vu que tu es né le 29, tu fêtes ton\nanniversaire en avance la plupart du\ntemps, non?\nEnfin, est-ce qu'on peut vraiment\ndire « ⁠en avance »? Je vais me\nrenseigner, je te dirai ça. "
    }
  },
  {
    "label": "016",
    "attribute": "0x0000000000000000",
    "locale": {
      "CNzh": "，\n今天是2月29日，\n也就是你真正的生日呢！\n能够为你庆祝这场特别的生日，\n我非常感动！。",
      "EUde": "Heute ist der 29. Februar, also\nganz offiziell dein Geburtstag,\n(Spitzname)!\nDir an so einem seltenen Tag\ngratulieren zu können fühlt sich\nirgendwie ganz besonders an!",
      "EUen": "Since it's February 29th, \nyou get to celebrate on your\nactual birthday this year!\nI feel like it's a special treat for me\nto be here for it, (nickname)!",
      "EUes": "Como este año es bisiesto, puedes\ncelebrar tu cumpleaños el día 29,\n¡como debe ser!\nMe siento como si fuera un evento\nmuy especial... y es tu cumple,\n¡así que sí lo es!",
      "EUfr": "Cette année, tu peux fêter ton\nanniversaire le 29, le vrai jour\nde ta naissance.\nJe suis honorée de pouvoir\nêtre ici en ce jour si spécial,\n(surnom) !",
      "EUit": "Oh, quest'anno potrai festeggiare\nil tuo compleanno il 29! Il giorno\nin cui sei nato davvero!\nChe emozione poter condividere\ncon te questa occasione speciale,\n(nickname)!",
      "EUnl": "Het is 29 februari, dus dit jaar kun je\nje verjaardag op de daadwerkelijke\ndag vieren!\nIk vind het heel bijzonder dat ik erbij\nmag zijn, (nickname)!",
      "EUru": "Сегодня 29 февраля, значит,\nв этом году ты можешь отмечать\nсвой настоящий день рождения.\nЯ очень рада, что могу\nпоздравить тебя в этот день,\n(nickname)!",
      "JPja": "今日は　2月29日ですから\nの\n正式な　お誕生日ですね！\nこんな　特別な誕生日に　お祝いができて\nわたし、感激です！　",
      "KRko": "오늘은 2월 29일이니까\n님의\n진짜 생일이네요!\n이렇게 특별한 생일을\n축하해드릴 수 있다니\n저, 너무 행복해요! !",
      "TWzh": "今天是2月29號，\n所以是的\n正式生日呢！\n能為你慶祝這麼特別的生日，\n我覺得好感動喔！。",
      "USen": "Since it's February 29th, \nyou get to celebrate on your\nactual birthday this year!\nI feel like it's a special treat for me\nto be here for it, (nickname)!",
      "USes": "Como este año es bisiesto, puedes\ncelebrar tu cumpleaños el día 29,\n¡como debe ser!\nMe siento como si fuera un evento\nmuy especial... y es tu cumple,\n¡así que sí lo es!",
      "USfr": "Cette année, tu peux fêter ton\nanniversaire le 29, le vrai jour\nde ta naissance.\nJe suis honorée de pouvoir\nêtre ici en ce jour si spécial,\n(surnom)!"
    }
  },
  {
    "label": "017",
    "attribute": "0x0000000000000000",
    "locale": {
      "CNzh": "你的生日是月日，\n两个相同的数字排列在一起，\n非常好记呢！\n干脆今后\n就把这个数字\n当成我的幸运号码好了。。",
      "EUde": "Geboren am , das kann man\nsich wirklich leicht merken!\nDie .. Vielleicht ist das dann auch\ndeine Glückszahl, (Floskel)?",
      "EUen": "With a birthday on  ,\nthat means the day you were born\nmatches the number of the month.\nYou have a very easy birthday to\nremember... It's like you have your\nown lucky number, (catchphrase)!",
      "EUes": "Qué curioso, el día que naciste\ncoincide con el número del mes.\n¡Así es muy fácil acordarse\nde la fecha de tu cumple!",
      "EUfr": "C'est pratique d'être né un \n. Le numéro du jour\ncorrespond à celui du mois !\nC'est facile à retenir,  !",
      "EUit": "Che cosa curiosa, il giorno in cui\nsei nato coincide con il numero\ndel mese: /.\nCosì è molto più facile ricordarsi\nil tuo compleanno!",
      "EUnl": "Met je verjaardag op  \nis het getal van je geboortemaand\nhetzelfde als van je geboortedag.\nJe verjaardag is daardoor erg\nmakkelijk te onthouden... \n(catchphrase), wat handig!",
      "EUru": "Если у тебя день рождения\n , то у дня и у месяца\nрождения одни и те же цифры.\nТвой день рождения легко\nзапомнить... (catchphrase)!\nУ тебя есть свое счастливое число!",
      "JPja": "月日が　誕生日って、\n同じ数字が　並んでいるから\nとっても　覚えやすいですね！\nこの誕生日の数字、\nこれから　ラッキーナンバーに\nしようかしら、",
      "KRko": "월 일이 생일이라니\n친구들도\n잊어버릴 수가 없겠어요!\n앞으로 이 숫자를\n행운의 숫자로 삼을까 봐요, !",
      "TWzh": "你的生日居然在月號，\n月分與日期都是一樣的數字，\n所以非常好記呢！\n我以後是不是\n該把這組生日數字\n當成我的幸運號碼呢？。",
      "USen": "With a birthday on  ,\nthat means the day you were born\nmatches the number of the month.\nYou have a very easy birthday to\nremember... It's like you have your\nown lucky number, (catchphrase)!",
      "USes": "Qué curioso, el día que naciste\ncoincide con el número del mes.\n¡Así es muy fácil acordarse\ndel día de tu cumple!",
      "USfr": "C'est pratique d'être né un \n. Le numéro du jour\ncorrespond à celui du mois!\nC'est facile à retenir, !"
    }
  },
  {
    "label": "018",
    "attribute": "0x0000000000000000",
    "locale": {
      "CNzh": "竟然在平安夜这天生日，\n感觉真棒～。\n生日与平安夜，\n可喜可贺与值得期待的事一同到来，\n今天真是激动人心的日子啊！",
      "EUde": "Ich hoffe, dass sich an deinem\nGeburtstag all deine Wünsche\nerfüllen, (Spitzname)!",
      "EUen": "It's so wonderful that your birthday\nis on Toy Day, .\nI hope all your birthday wishes\ncome true, (nickname)!",
      "EUes": "Siempre es muy emocionante\ncumplir años, ¿verdad?\nEspero que todos tus deseos\nse hagan realidad.",
      "EUfr": "Ça doit être top de fêter son\nanniversaire aujourd'hui...\nJ'espère que tous tes vœux vont se\nréaliser, (surnom) !",
      "EUit": "Deve essere très emozionante\ncompiere gli anni proprio nel\nGiorno dei giocattoli, vero?\nSpero che tutti i tuoi desideri\nsi avverino, !",
      "EUnl": "Wat geweldig dat je verjaardag op\nSpeelgoeddag valt!\nDan heb je twee keer zoveel plezier\nop één dag!",
      "EUru": "Так замечательно, что твой\nдень рождения совпадает\nс Днем игрушек!\nЭто же двойной праздник!\nИ наверное, вдвое больше\nподарков!",
      "JPja": "クリスマスイブの日が　お誕生日なんて\nなんだか　素敵です～、\nお誕生日と　クリスマスイブ、\nおめでたいことと　楽しいことで\n今日は　ワクワクしっぱなしですね！",
      "KRko": "크리스마스 이브가 생일이라니\n어쩐지 근사하네요～ !\n생일 파티에다가 크리스마스 이브까지,\n오늘은 두 배로 두근두근한 하루가 되겠어요～",
      "TWzh": "你的生日居然跟平安夜同一天，\n感覺好棒喔～。\n可以一面慶祝生日，\n一面度過平安夜，\n今天真是美好的一天啊！",
      "USen": "It's so wonderful that your birthday\nis on Toy Day, .\nI hope all your birthday wishes\ncome true, (nickname)!",
      "USes": "Siempre es muy emocionante\ncumplir años, ¿verdad?\nEspero que todos tus deseos\nse hagan realidad.",
      "USfr": "Ça doit être top de célébrer\nsa fête aujourd'hui...\nJ'espère que tous tes vœux vont se\nréaliser, (surnom)!"
    }
  },
  {
    "label": "019",
    "attribute": "0x0000000000000000",
    "locale": {
      "CNzh": "生日竟然跟圣诞节是同一天，\n感觉真是浪漫呢！\n，\n祝你生日快乐！\n同时也祝你圣诞快乐！。",
      "EUde": "Hoffentlich bekommst du heute ganz\nviele tolle Geschenke, (Floskel)!",
      "EUen": "I hope you get lots and lots of\ngifts today, (catchphrase)!",
      "EUes": "A algunos no les gusta celebrar\nsus cumpleaños...\nPero a mí me parece la ocasión\nperfecta para reunirte con aquellos\nque te quieren.",
      "EUfr": "C'est drôle que ton anniversaire\ntombe aujourd'hui, (surnom)...\nTu vas en faire des jaloux,\navec tous les cadeaux que\ntu vas recevoir !",
      "EUit": "Spero che riceverai beaucoup di\nregali oggi, (catchphrase)!",
      "EUnl": "Ik hoop dat je vandaag heel veel\ncadeautjes krijgt, (catchphrase)!",
      "EUru": "Надеюсь, что ты сегодня\nполучишь кучу подарков.\n(catchphrase)!",
      "JPja": "お誕生日が　クリスマスって\nなんだか　ロマンチックですね！\n、\nハッピーバースデー　それから\nメリー・クリスマス！　",
      "KRko": "생일이 크리스마스라니\n어쩐지 로맨틱하네요!\n님,\n해피 버스데이～\n그리고 메리 크리스마스! !",
      "TWzh": "你的生日居然跟聖誕節同一天，\n總覺得好浪漫喔！\n，\nHappy Birthday！還有～\nMerry Christmas！。",
      "USen": "I hope you get lots and lots of\ngifts today, (catchphrase)!",
      "USes": "A algunos no les gusta celebrar\nsu cumpleaños...\nPero a mí me parece la ocasión\nperfecta para reunirte con aquellos\nque te quieren, (catchphrase).",
      "USfr": "C'est drôle que ta fête tombe\naujourd'hui, (surnom)...\nTu vas en faire des jaloux, avec tous\nles cadeaux que tu vas recevoir!"
    }
  },
  {
    "label": "020",
    "attribute": "0x0000000000000000",
    "locale": {
      "CNzh": "那个皮纳塔，\n是我们一起准备的哦！。",
      "EUde": "An diesem Kunstwerk haben\nwir alle zusammen ganz\nschön hart gearbeitet!",
      "EUen": "We all worked really hard on this!",
      "EUes": "Todos nos hemos esforzado mucho\npara prepararte esto.",
      "EUfr": "On ne s'est pas moqués de toi,\nhein,  ?",
      "EUit": "Ci abbiamo lavorato tutti con\ngrandissimissimo impegno!",
      "EUnl": "We hebben hier met zijn allen heel\nhard aan gewerkt!",
      "EUru": "Мы все очень-очень старались!",
      "JPja": "あのピニャータ、\nわたしたちで　準備したんですよ！　",
      "KRko": "저 피냐타는\n저희가 준비했답니다! !",
      "TWzh": "那個皮納塔\n是我們準備的喔！。",
      "USen": "We all worked really hard on this!",
      "USes": "Todos nos hemos esforzado mucho\npara prepararte esto.",
      "USfr": "On ne s'est pas moqués de toi,\nhein, ?"
    }
  },
  {
    "label": "021",
    "attribute": "0x0000000000000000",
    "locale": {
      "CNzh": "请不必顾虑，\n尽全力敲碎它吧！。",
      "EUde": "Jetzt aber keine halben Sachen!\nSchlag zu, mit allem, was du hast!",
      "EUen": "Don't hold back. Really go for it!",
      "EUes": "¡No te contengas y dale fuerte!",
      "EUfr": "N'aie pas peur. Frappe de toutes\ntes forces,  !",
      "EUit": "Non trattenerti... Mettici tutto\nte stesso, !",
      "EUnl": "Hou je niet in. Sla er maar flink op\nlos!",
      "EUru": "Не стесняйся, вперед!",
      "JPja": "エンリョせずに　思いっきり\n割ってくださいね！　",
      "KRko": "체면은 내려놓으시고\n있는 힘껏 부숴주세요! !",
      "TWzh": "請你不要客氣，\n用力敲開它吧！。",
      "USen": "Don't hold back. Really go for it!",
      "USes": "¡Dale con todas tus energías!",
      "USfr": "N'aie pas peur. Frappe de toutes\ntes forces, !"
    }
  },
  {
    "label": "022",
    "attribute": "0x0000000000000000",
    "locale": {
      "CNzh": "，\n好想快点看你\n敲碎皮纳塔！。",
      "EUde": "Das wird jetzt richtig lustig!",
      "EUen": "This is gonna be so great!",
      "EUes": "Esto va a ser muy divertido,\n¡ya verás!",
      "EUfr": "J'ai hâte de voir ça,  !",
      "EUit": "Perdindirindina, sarà divertentissimo!",
      "EUnl": "Dit wordt echt heel leuk!",
      "EUru": "Ой, это будет восхитительно!",
      "JPja": "が\nピニャータを割るところ、\n早く見てみたいです！　",
      "KRko": "님이\n피냐타를 깨는 순간을\n어서 보고 싶어요! !",
      "TWzh": "真想要快點看到\n\n敲開皮納塔的樣子！。",
      "USen": "This is gonna be so great!",
      "USes": "Esto va a ser muy divertido,\n¡ya verás!",
      "USfr": "J'ai hâte de voir ça, !"
    }
  }
]