﻿[
  {
    "label": "001",
    "attribute": "0x00000000",
    "locale": {
      "CNzh": "",
      "EUde": "",
      "EUen": "",
      "EUes": "",
      "EUfr": "",
      "EUit": "",
      "EUnl": "",
      "EUru": "",
      "JPja": "",
      "KRko": "",
      "TWzh": "",
      "USen": "",
      "USes": "",
      "USfr": ""
    }
  },
  {
    "label": "001_01",
    "attribute": "0x00000006",
    "locale": {
      "CNzh": "嘎啊啊啊啊————\n有鬼啊————",
      "EUde": "AAAAAAAAAAAAAAAH!\nEIN G-G-GEIIIIIIIIIIIIST!",
      "EUen": "AAIIIIIIIIEEEEEEEEEE!\nA G-G-GHOOOOOOST!",
      "EUes": "¡Uuuuuaaaah!\n¡U-un fantasmaaaa!",
      "EUfr": "AAAAAAAAAH !!!\nUN F-F-FANTÔME !!!",
      "EUit": "AAAIIIIIUUUUUTOOO!!!\nUN F-F-FANTAAASMA!!!",
      "EUnl": "AA-AAAAAAAAAAAH!\nEEN S-S-SPOOOOOK!",
      "EUru": "Ай-яй-яй-яй-яй!!!\nП-п-привидение!!!",
      "JPja": "ぎぇぇぇぇぇぇ～～～～～～～\n出た～～～～～～～～～～～～",
      "KRko": "끼야아아아아아～～～～～～\n유령이다～～～～～～～～",
      "TWzh": "嘎啊啊啊啊～～～～\n有鬼啊～～～～",
      "USen": "AAIIIIIIIIEEEEEEEEEE!\nA G-G-GHOOOOOOST!",
      "USes": "¡Uuuuuaaaah!\n¡U-un fantasmaaaa!",
      "USfr": "AAAAAAAAAH!!!\nUN F-F-FANTÔME!!!"
    }
  },
  {
    "label": "001_02",
    "attribute": "0x00000006",
    "locale": {
      "CNzh": "呀啊啊啊啊————\n有鬼啊————",
      "EUde": "N-N-NEIIIIIIIIIIIIIIIN!\nEIN G-G-GEIIIIIIIIIIIIST!",
      "EUen": "N-N-NOOOOOOOOOO!\nA G-G-GHOOOOOOST!",
      "EUes": "¡N-n-nooooooo!\n¡U-un fantasmaaaa!",
      "EUfr": "N-N-NOOOOOOOOON !!!\nUN F-F-FANTÔME !!!",
      "EUit": "N-N-NOOOOOOOOOO!!!\nUN F-F-FANTAAASMA!!!",
      "EUnl": "N-N-NEEEEEEEEEEEE!\nEEN S-S-SPOOOOOK!",
      "EUru": "Н-не может быть!!!\nП-п-привидение!!!",
      "JPja": "いやぁぁぁぁぁぁ～～～～～～\n出た～～～～～～～～～～～～",
      "KRko": "으아아아아아아～～～～～～\n유령이다～～～～～～～～",
      "TWzh": "咿啊啊啊啊～～～～\n有鬼啊～～～～",
      "USen": "N-N-NOOOOOOOOOO!\nA G-G-GHOOOOOOST!",
      "USes": "¡N-n-nooooooo!\n¡U-un fantasmaaaa!",
      "USfr": "N-N-NOOOOOOOOON!!!\nUN F-F-FANTÔME!!!"
    }
  },
  {
    "label": "001_03",
    "attribute": "0x00000006",
    "locale": {
      "CNzh": "哇啊啊啊啊————\n有鬼啊————",
      "EUde": "UWAAAAAAAAAAAAH!\nEIN G-G-GEIIIIIIIIIIIIST!",
      "EUen": "YEEEEEEEEEEEKKKKK!\nA G-G-GHOOOOOOST!",
      "EUes": "¡Aaaaaaaaaaah!\n¡U-un fantasmaaaaa!",
      "EUfr": "HIIIIIIIIIIIII !!!\nUN F-F-FANTÔME !!!",
      "EUit": "AAAAAAAAAAAAAAH!!!\nUN F-F-FANTAAASMA!!!",
      "EUnl": "II-IIIIIIIIIEEEEEEEEEK!\nEEN S-S-SPOOOOOK!",
      "EUru": "Ой-ей-ей-ей-ей!!!\nП-п-привидение!!!",
      "JPja": "ひぃぃぃぃぃぃぃ～～～～～～\n出た～～～～～～～～～～～～",
      "KRko": "히이이이이이익～～～～～～\n유령이다～～～～～～～～",
      "TWzh": "哇啊啊啊啊～～～～\n有鬼啊～～～～",
      "USen": "YEEEEEEEEEEEKKKKK!\nA G-G-GHOOOOOOST!",
      "USes": "¡Aaaaaaaaaaah!\n¡U-un fantasmaaaaa!",
      "USfr": "HIIIIIIIIIIIII!!!\nUN F-F-FANTÔME!!!"
    }
  },
  {
    "label": "002",
    "attribute": "0x00000000",
    "locale": {
      "CNzh": "",
      "EUde": "",
      "EUen": "",
      "EUes": "",
      "EUfr": "",
      "EUit": "",
      "EUnl": "",
      "EUru": "",
      "JPja": "",
      "KRko": "",
      "TWzh": "",
      "USen": "",
      "USes": "",
      "USfr": ""
    }
  },
  {
    "label": "002_01",
    "attribute": "0x00000000",
    "locale": {
      "CNzh": "呜呜呜，幽灵大大，\n我什么坏事也没做过，\n饶了我吧……",
      "EUde": "Bitte! Ich habe doch nichts getan!\nLass mich einfach gehen!",
      "EUen": "Please! I haven't done anything\nwrong! Just let me go!",
      "EUes": "¡Deja que me marche, por favor!\n¡No he hecho nada malo!",
      "EUfr": "Pitiééé ! Ne me faites pas de mal, je\nsuis innocent ! De grâce, laissez-moi\nen paaaaaix !",
      "EUit": "Ti preeeeego! Non ho fatto niente\ndi male! Lasciami andaaaaareeeee!",
      "EUnl": "Heb meelij! Ik heb nooit iemand\nkwaad gedaan! Laat me alsjeblieft\ngaaaaan!",
      "EUru": "Не трогай меня! Я же не сделал\nничего плохого! Отпу-у-усти меня!",
      "JPja": "ひいぃぃ　ユウレイさま、\nわたくし　何も悪いことは　しておりません\nどうか　お見逃しを・・・",
      "KRko": "으으으 유령님!\n저는 나쁜 짓 하나도 안 했어요...\n제발 살려주세요...",
      "TWzh": "嗚嗚嗚，幽靈大大，\n我什麼壞事都沒有做過……\n請放過我吧……",
      "USen": "Please! I haven't done anything\nwrong! Just let me go!",
      "USes": "¡Déjame ir, por favor!\n¡No he hecho nada malo!",
      "USfr": "Pitiééé! Ne me faites pas de mal, je\nsuis innocent! De grâce, laissez-moi\nen paaaaaix!"
    }
  },
  {
    "label": "002_02",
    "attribute": "0x00000000",
    "locale": {
      "CNzh": "啊啊啊！\n竟然出现了幽灵……\n完蛋了……我的一生要到头了……",
      "EUde": "Was willst du von mir, Geist?!\nDas ist jetzt mein Ende, oder?\nDas war es dann also für mich...",
      "EUen": "What do you want from me, ghost?!\nThis is the end for me, isn't it? This\nis how I go...",
      "EUes": "¿Qué quieres de mí?\n¿Vas a llevarme al más allá?",
      "EUfr": "Que me voulez-vous, esprit\ndésincarné ?! C'est la fin, n'est-ce\npas ? Mon heure est venue ?",
      "EUit": "Cosa vuoi da me, fantasma?!\nNon dirmi che questa è la fine\nper me, eh? No, non voglio...",
      "EUnl": "Wat wil je van me, spook? Mijn\nlaatste uur heeft geslagen, is het\nniet? Dat het dan zo moet eindigen...",
      "EUru": "Ну, чего ты ко мне пристало,\nпривидение?! Мне теперь конец,\nда? Все пропало...",
      "JPja": "ああぁぁ\nまさか　ユウレイが出るなんて・・・\nもうだめです・・・　一生の終わりです・・・",
      "KRko": "아아아...\n설마 유령이 나올 줄이야...\n이제 끝났어요... 제 인생은 끝이라구요...",
      "TWzh": "啊啊啊啊……\n沒想到竟然會有幽靈出現……\n不行了……我的人生完蛋了……",
      "USen": "What do you want from me, ghost?!\nThis is the end for me, isn't it? This\nis how I go...",
      "USes": "¿Qué quieres de mí?\n¿Vas a llevarme al más allá?",
      "USfr": "Que me voulez-vous, esprit\ndésincarné?! C'est la fin, n'est-ce\npas? Mon heure est venue?"
    }
  },
  {
    "label": "002_03",
    "attribute": "0x00000000",
    "locale": {
      "CNzh": "瑟瑟发抖……\n呜呜呜，不敢相信……\n竟然真的有幽灵存在……",
      "EUde": "I-ich kann es nicht glauben...\nIrgendwie wusste ich es ja immer...\nAber dass es Geister wirklich gibt...",
      "EUen": "I-I can't believe it... I mean, I did\nsuspect it, but... To think ghosts are\nreally, really real...",
      "EUes": "¡Se supone que los fantasmas\nno existen! ¡¿Por qué se me tiene\nque aparecer uno a mí?!",
      "EUfr": "I-Incroyable... M-Mes soupçons se\nconfirment ! Les f-fantômes existent\np-pour de vrai ! M-Miséricorde...",
      "EUit": "N-Non posso crederci... Sì, lo\nsospettavo, ma... Non credevo che\ni fantasmi esistessero davvero...",
      "EUnl": "I-Ik kan het niet geloven... Ik dacht\nwel dat er meer was, maar... Te\ndenken dat spoken echt bestaan...",
      "EUru": "Н-не могу поверить... Я, конечно,\nпредполагал... что привидения\nсуществуют в самом деле...",
      "JPja": "ガタガタガタガタ・・・\nひいぃ　信じられません・・・\nまさか　ユウレイが本当にいるなんて・・・",
      "KRko": "덜덜덜덜...\n히이익! 어떻게 이런 일이...\n유령이 진짜로 있을 줄이야...",
      "TWzh": "抖抖抖……\n嗚嗚嗚，真不敢相信……\n沒想到幽靈真的存在……",
      "USen": "I-I can't believe it... I mean, I did\nsuspect it, but... To think ghosts are\nreally, really real...",
      "USes": "¡Se supone que los fantasmas\nno existen! ¡¿Por qué se me tiene\nque aparecer uno a mí?!",
      "USfr": "I-Incroyable... M-Mes soupçons se\nconfirment! Les f-fantômes existent\np-pour de vrai! M-Miséricorde..."
    }
  },
  {
    "label": "003",
    "attribute": "0x00000000",
    "locale": {
      "CNzh": "咦？人类？\n你说你是活生生的人类？\n我从以前开始就一直在这个岛上，\n这里应该没有人居住啊……\n啊，你是最近移居过来的吗？\n原来如此！\n是这么回事啊～\n那么，让我再次自我介绍一下……\n我叫幽幽。\n很高兴认识你～",
      "EUde": "Wie? Du bist ein Mensch?\nSo ein richtiger, echter Mensch?\nIch bin jetzt wirklich lang auf dieser\nInsel, aber einen Menschen habe ich\nhier noch nie gesehen.\nOh, du bist gerade erst hergezogen?\nAh! Ach so!\nDas erklärt das natürlich. Dann\nerlaube mir, mich vorzustellen...\nIch bin Buhu. Freut mich!",
      "EUen": "Huh? A human? A real, live human?\nI've been on this island for a looong\ntime, but I've never seen a human...\nOh, you just moved here? Ohh! OK!\nWell, that explains everything. Allow\nme to introduce myself...\nMy name is Wisp. Nice to meet you!",
      "EUes": "¿Uuh? ¿Eres un humano?\n¿Uno de verdad?\nLlevo una eternidad en esta isla\ny es la primera vez que veo\na un humano...\n¡Uuh! ¿Hace poco que te has\nmudado aquí? Eso lo explica todo.\nPermíteme que me presente:\nsoy Buh. ¡Es un placer conocerte!",
      "EUfr": "Comment ? Un humain ? Un être\npalpable résolument matérialisé ?\nCela fait bien longtemps que je vis\nsur cette île, et je n'avais jamais\nremarqué de présence humaine...\nOh, tu viens seulement d'arriver ?\nÉvidemment, voilà qui explique tout !\nPermets-moi donc de me présenter.\nJe me nomme Follet. Enchanté de\nfaire ta connaissance !",
      "EUit": "Uh? Un essere umano? Un essere\numano viiiiivo?\nSono su quest'isola da un saaaaacco\ndi tempo, ma non avevo mai visto\nun essere umano prima d'ora...\nOh, ti sei appena trasferito? Oooh!\nOK! Ora ho capito. Lascia che mi\npresenti...\nIo mi chiamo Spirideo. Piacere!",
      "EUnl": "Wat? Ben jij een mens? Een echte\nmens, van vlees en bloed?\nIk ben al heeeeel lang op dit eiland,\nmaar ik heb nog nooit een mens\ngezien...\nO, woon je hier nog maar net? Oké!\nDat verklaart een heleboel. Ik heb me\ntrouwens nog niet voorgesteld...\nIk heet Wisp. Aangenaam kennis met\nje te maken!",
      "EUru": "Как? Человек?\nНастоящий живой человек?\nЯ на этом острове уже о-о-очень\nдавно, но еще ни разу не видел\nчеловека...\nВот как, ты сюда недавно\nпереселился? А! Ясно!\nТеперь понятно.\nПозволь представиться...\nМеня зовут Уисп.\nПриятно познакомиться!",
      "JPja": "えっ、人間？\n生身の人間ですって？\nわたくし昔から　この島に　おりますが、\nヒトは　ひとりも住んでいなかったハズ・・・\nあ、最近　移住してこられた、と？\nなるほどなるほど！\nそういうことだったのですね～\nでは　改めまして　自己紹介を・・・\nわたくしは　ゆうたろうと申します\nどうぞ　お見知りおきくださいませ～",
      "KRko": "앗, 인간?\n멀쩡히 살아 있는 인간이라구요?\n저는 옛날부터 이 섬에 있었지만\n분명 여기엔 사람이 한 명도 없었는데...\n아, 이사 왔다...구요?\n아하! 그렇게 된 거였군요!\n그럼 정식으로 제 소개를 해야겠네요...\n저는 깨빈이라고 합니다!\n앞으로 잘 부탁드려요～",
      "TWzh": "咦？人類？\n您說您是活生生的人類？\n我從以前就住在這個島上，\n這裡應該沒有人類居住才對啊……\n啊，您是最近才搬來的嗎？\n原來如此，原來如此！\n是這麼一回事啊～\n那麼，讓我重新自我介紹一次……\n我叫幽幽。\n今後請多多關照～",
      "USen": "Huh? A human? A real, live human?\nI've been on this island for a looong\ntime, but I've never seen a human...\nOh, you just moved here? Ohh! OK!\nWell, that explains everything. Allow\nme to introduce myself...\nMy name is Wisp. Nice to meet you!",
      "USes": "¿Uuh? ¿Eres un humano?\n¿Uno de verdad?\nLlevo una eternidad en esta isla\ny es la primera vez que veo\na un humano...\n¡Uuh! ¿Hace poco que te has\nmudado aquí? Eso lo explica todo.\nPermíteme que me presente:\nsoy Buh. ¡Es un placer conocerte!",
      "USfr": "Comment? Un humain? Un être\npalpable résolument matérialisé?\nCela fait bien longtemps que je vis\nsur cette île, et je n'avais jamais\nremarqué de présence humaine...\nOh, tu viens seulement d'arriver?\nÉvidemment, voilà qui explique tout!\nPermets-moi donc de me présenter.\nJe me nomme Follet. Enchanté de\nfaire ta connaissance!"
    }
  },
  {
    "label": "004",
    "attribute": "0x00000000",
    "locale": {
      "CNzh": "咦？人类？\n你说你是活生生的人类？\n我从以前开始就一直在这个岛上，\n这里应该没有像你这样的人居住啊……\n啊，你是最近移居过来的吗？\n原来如此！\n是这么回事啊～\n那么，让我再次自我介绍一下……\n我叫幽幽。\n很高兴认识你～",
      "EUde": "Wie? Du bist ein Mensch?\nSo mit Knochen und allem?\nIch bin jetzt wirklich lang auf dieser\nInsel, aber dich habe ich hier noch\nnie gesehen.\nOh, du bist gerade erst hergezogen?\nAh! Ach so!\nDas erklärt das natürlich. Dann\nerlaube mir, mich vorzustellen...\nIch bin Buhu. Freut mich!",
      "EUen": "What? A human? Like with bones\nand things?\nI've been on this island for quite\nsome time, and I've never seen the\nlikes of you before...\nOh, you just moved here? Well,\nthat makes sense. I guess I'm up\nto speed now.\nAllow me to introduce myself... My\nname is Wisp. Nice to meet you!",
      "EUes": "¿Uuh? ¿Eres un humano?\n¿Uno de verdad?\nLlevo una eternidad en esta isla\ny no me suena haberte visto nunca\npor aquí...\n¡Uuh! Claro, no hará tanto que te\nmudaste aquí... Eso lo explica todo.\nPermíteme que me presente:\nsoy Buh. ¡Es un placer conocerte!",
      "EUfr": "Comment ? Un humain ? Un être\nde chair et de sang tout ce qu'il y a\nde plus naturel ?\nCela fait bien longtemps que je vis\nsur cette île, et je ne t'avais jamais\nremarqué, jusqu'ici...\nOh, tu viens seulement d'arriver ?\nMa foi, je comprends mieux ! Ainsi\ndonc, me voilà détrompé.\nPermets-moi de me présenter... Je\nme nomme Follet. Je suis ravi de\nfaire ta connaissance !",
      "EUit": "Coooooosa? Un essere umano? Con\nle ossa e tutto il resto?\nÈ da un bel po' che sono su\nquest'isola e non ho mai visto nulla\ndi simile a te...\nOh, ti sei appena trasferito? Beh,\nquesto spiega tutto. Non serve che\ndici altro.\nLascia che mi presenti... Io sono\nSpirideo. Piacere di conoscerti!",
      "EUnl": "Hè? Een mens? Met botten en\nbloedvaten en zo?\nIk waar nu al een hele tijd op dit\neiland rond, maar iemand als jij heb\nik nog nooit gezien...\nO, ben je hier net naartoe verhuisd?\nJa, dat kan natuurlijk. Dan is dat\nmysterie ook weer opgelost.\nIk zal mezelf even voorstellen... Wisp\nis de naam. Aangenaam kennis met\nje te maken!",
      "EUru": "Как? Человек? Из плоти и крови?\nЯ на этом острове уже давно\nи еще ни разу не видел ничего\nподобного...\nАх вот как, ты только что сюда\nпереехал? Тогда понятно.\nТеперь мне все ясно.\nПозволь представиться...\nМеня зовут Уисп.\nПриятно познакомиться!",
      "JPja": "えっ、人間？\n生身の人間ですって？\nわたくし昔から　この島に　おりますが、\nあなたさまのようなヒトは\n住んでいなかったハズ・・・\nあ、最近　移住してこられた、と？\nなるほどなるほど！\nそういうことだったのですね～\nでは　改めまして　自己紹介を・・・\nわたくしは　ゆうたろうと申します\nどうぞ　お見知りおきくださいませ～",
      "KRko": "앗, 인간?\n멀쩡히 살아 있는 인간이라구요?\n저는 옛날부터 이 섬에 있었지만\n여기서 당신 같은 사람은\n본 적이 없는데...\n아, 이사 왔다...구요?\n아하! 그렇게 된 거였군요!\n그럼 정식으로 제 소개를 해야겠네요...\n저는 깨빈이라고 합니다!\n앞으로 잘 부탁드려요～",
      "TWzh": "咦？人類？\n您說您是活生生的人類？\n我從以前就住在這個島上，\n這裡應該沒有像您這樣的人類居住才對啊……\n啊，您是最近才搬來的嗎？\n原來如此，原來如此！\n是這麼一回事啊～\n那麼，讓我重新自我介紹一次……\n我叫幽幽。\n今後請多多關照～",
      "USen": "What? A human? Like with bones\nand things?\nI've been on this island for quite\nsome time, and I've never seen the\nlikes of you before...\nOh, you just moved here? Well,\nthat makes sense. I guess I'm up\nto speed now.\nAllow me to introduce myself... My\nname is Wisp. Nice to meet you!",
      "USes": "¿Uuh? ¿Eres un humano?\n¿Uno de verdad?\nLlevo una eternidad en esta isla\ny no me suena haberte visto nunca\npor aquí...\n¡Uuh! Claro, no hará tanto que te\nmudaste aquí... Eso lo explica todo.\nPermíteme que me presente:\nsoy Buh. ¡Es un placer conocerte!",
      "USfr": "Comment? Un humain? Un être\nde chair et de sang tout ce qu'il y a\nde plus naturel?\nCela fait bien longtemps que je vis\nsur cette île, et je ne t'avais jamais\nremarqué, jusqu'ici...\nOh, tu viens seulement d'arriver?\nMa foi, je comprends mieux! Ainsi\ndonc, me voilà détrompé.\nPermets-moi de me présenter... Je\nme nomme Follet. Je suis ravi de\nfaire ta connaissance!"
    }
  },
  {
    "label": "005",
    "attribute": "0x00000000",
    "locale": {
      "CNzh": "我虽然喜欢暗的地方……\n特别是黑夜，\n但却很害怕幽灵……\n所以，啊！\n我刚刚惊吓过度，\n结果变成了现在这个样子……\n刚才飞走的\n是我魂魄的一部分。\n好像是受惊的一刹那\n飞散出去的呢…………\n哎～我这个样子，\n什么事情都做不了，\n真是麻烦啊……",
      "EUde": "Ich... Ich sag es einfach frei heraus.\nIch liebe die Nacht, ihre Dunkelheit...\nAber ich habe Angst vor Geistern!\nDu liebe Güte! Unser Treffen hat\nmich zutiefst erschüttert.\nDu hast mich so erschreckt, dass\nich glatt Fragmente meiner Seele\nverloren habe!\nDas muss passiert sein, als wir\nzusammengestoßen sind...\nSo kann ich jedenfalls nicht bleiben.\nWas für ein Schlamassel...",
      "EUen": "I... Well, I'll just be honest with you...\nI love the darkness, especially\nnighttime. But I'm afraid of ghosts!\nWhew! This little run-in with you has\nme all shaken up...\nYou scared some pieces of my spirit\nright out of me!\nLooks like they flew off when we\nbumped into each other...\nThere's no way I can stay like this.\nWhat a pickle...",
      "EUes": "Siento el lamentable espectáculo\nque he montado antes...\nVerás, me encanta la oscuridad y\nsalir de noche a pasear, ¡pero me\ndan mucho miedo los fantasmas!\nMira cómo me he quedado\ndel susto que me has dado.\nMi esencia se ha deshecho\nen volutas por el sobresalto.\nNo puedo quedarme así,\nqué desastre, uuuh...",
      "EUfr": "Vois-tu... autant te le dire sans\ndétour... J'apprécie l'obscurité, mais\nj'ai terriblement peur des fantômes !\nMiséricorde ! Il semble que notre\nrencontre impromptue m'ait vraiment\nsecoué... J'en ai perdu mes esprits !\nIls ont dû s'envoler lorsque nous\nnous sommes aperçus...\nJe ne peux tout de même pas faire\nune croix dessus ! Quelle situation\ndélicate...",
      "EUit": "Io... Beh, io di solito esco fuori\nquando fa buio. Mi piace l'oscurità,\nsoprattutto quella notturna.\nMa ho paura dei fantasmi!\nAccipicchia! Averti incontrato mi ha\nletteralmente sconvolto...\nMi hai fatto talmente paura che dei\npezzetti del mio spirito sono volati\nvia!\nDev'essere successo quando ci\nsiamo scontrati...\nNon posso restare in questo stato a\nlungo. Che pasticcio...",
      "EUnl": "Ik eh... zal er maar geen doekjes om\nwinden... Ik hou van de nacht en het\ndonker. Maar spoken vind ik eng!\nGoeie genade! Onze ontmoeting\nheeft me danig van mijn stuk\ngebracht...\nDoor de schok zijn er flarden van\nmijn geest uitgetreden!\nZe vlogen er van schrik vandoor\ntoen we elkaar zo plotseling\ntegenkwamen...\nIk voel me zo onvolledig nu. In deze\nstaat kan ik niets aanvangen. Wat\neen ellende...",
      "EUru": "В общем... Скажу как есть...\nЯ люблю, когда темно, особенно\nночью. Но очень боюсь привидений!\nБатюшки! Наша встреча привела\nменя в плачевное состояние...\nПохоже, я растерял свой дух!\nОт столкновения какие-то частицы\nразлетелись от него в стороны...\nКак же мне теперь быть. Вот беда...",
      "JPja": "わたくし　暗いところ・・・\nとりわけ夜は　大好きなのですが、\nユウレイだけは　どうも苦手でして・・・\nって、あーっ！\nわたくし　驚きすぎて\nこんな姿に　なってしまいました・・・\n先ほど　飛んでいったのは\nわたくしの　たましいの一部なのです\nビックリした拍子に　そこら中に\n飛び散ってしまった　みたいですね・・・\nはぁ～、こんな姿じゃあ\nどうすることも　できません\nはてさて　困りました・・・",
      "KRko": "저는 어두운 곳...\n특히 밤을 아주 좋아하는데\n유령은 너무 무서워요...\n잠깐! 아아～!\n너무 깜짝 놀라서\n이런 모습이 돼버렸네요...\n아까 날아간 것은\n제 영혼 중 일부랍니다\n깜짝 놀라는 바람에\n뿔뿔이 흩어졌나 봐요...\n휴～ 이런 꼴로는\n아무것도 할 수가 없는데\n이걸 어쩐담...",
      "TWzh": "我很喜歡暗暗的地方……\n而且特別喜歡夜晚，\n不過卻很害怕幽靈……\n呃，啊——！\n我剛剛震驚過度，\n不小心就變成這個樣子了……\n剛才飛走的，\n是我靈魂的一部分。\n好像是在驚嚇那一瞬間，\n魂飛魄散了……\n唉～變成這個樣子，\n就什麼都做不了了。\n哎呀，真是煩惱……",
      "USen": "I... Well, I'll just be honest with you...\nI love the darkness, especially\nnighttime. But I'm afraid of ghosts!\nWhew! This little run-in with you has\nme all shaken up...\nYou scared some pieces of my spirit\nright out of me!\nLooks like they flew off when we\nbumped into each other...\nThere's no way I can stay like this.\nWhat a pickle...",
      "USes": "Siento haber armado semejante\nalboroto antes...\nVerás, me encanta la oscuridad y\nsalir de noche a pasear, ¡pero me\ndan mucho miedo los fantasmas!\nMira cómo quedé por el grandísimo\nsusto que me diste.\nMi esencia se deshizo en\nvolutas por el sobresalto.\nNo puedo quedarme así,\nqué desastre, uuuh...",
      "USfr": "Vois-tu... autant te le dire sans\ndétour... J'apprécie l'obscurité, mais\nj'ai terriblement peur des fantômes!\nMiséricorde! Il semble que notre\nrencontre impromptue m'ait vraiment\nsecoué... J'en ai perdu mes esprits!\nIls ont dû s'envoler lorsque nous\nnous sommes aperçus...\nJe ne peux tout de même pas faire\nune croix dessus! Quelle situation\ndélicate..."
    }
  },
  {
    "label": "006",
    "attribute": "0x00000000",
    "locale": {
      "CNzh": "那个……\n真是不好意思，\n我有件事想要麻烦你……\n你是否愿意帮忙\n收集我的魂魄呢？\n收集不到的话，我就得一辈子这样了！\n这个样子我就飘浮不起来了！\n请帮帮我吧，\n我会好好感谢你的！",
      "EUde": "Ähem... Ich bitte dich wirklich\nnicht gerne darum...\nAber könntest du die fehlenden\nFragmente meiner Seele suchen?\nSonst bleibe ich für immer so.\nUnd das geht doch nicht!\nBitte hilf mir... Es soll auch dein\nSchaden nicht sein.",
      "EUen": "Ummm... I'm sorry to ask this of\nyou, but...\nCould you maybe collect the pieces\nof my spirit that flew away?\nOtherwise I'll be like this forever.\nAnd I can NOT deal with that!\nPlease help... I promise there'll be\nsomething good in it for you.",
      "EUes": "Mmm... Siento pedirte esto, pero\n¿podrías ir a buscar las volutas\nde mi esencia por mí?\n¡Si no, me quedaré así para siempre!\nNo creo que pudiera soportarlo...\n¡Tienes que ayudarme, por favor!\nTe prometo que te lo agradeceré\nmuy generosamente... Uuh...",
      "EUfr": "Hmmm... Je suis terriblement confus,\nmais oserais-je...\nOserais-je te demander ton concours\npour rassembler mes esprits ?\nCar enfin, qu'adviendra-t-il de moi si\nje ne les retrouvais pas ? Non, non,\nnon. Je ne veux même pas y penser.\nTu vas m'aider, n'est-ce pas ? Je te\npromets que tu n'auras pas affaire\nà un ingrat !",
      "EUit": "Mmmmmh... Mi dispiace dovertelo\nchiedere, ma...\nNon è che potresti raccogliere\ni pezzetti del mio spirito che sono\nvolati via?\nAltrimenti, dovrei restare così per\nsempre. E sarebbe intollerabile!\nTi prego, aiutami... Ti prometto che\nsarò molto generoso nel dimostrarti\nla mia gratitudine.",
      "EUnl": "Ehhh... Ik weet dat dit waarschijnlijk\nte veel gevraagd is...\n...maar zou jij alsjeblieft de weggevlogen flarden van mijn\ngeest kunnen terughalen?\nAnders blijf ik met deze spirituele\nleegte zitten. En ik denk niet dat ik\ndat kan verdragen!\nJe helpt me toch wel? Ik beloof je\ndat ik je rijkelijk voor je inspanningen\nzal belonen.",
      "EUru": "О-ох... Мне очень неловко\nпросить тебя о помощи...\nНе мог бы ты собрать\nразлетевшиеся частицы моего духа?\nИначе мне придется навсегда\nостаться таким. А я этого просто\nне вынесу!\nПомоги мне, пожалуйста... Я тебя\nщедро отблагодарю, обещаю.",
      "JPja": "あの・・・\nこんなことを　お願いするのは\nとても　心苦しいのですが・・・\n飛び散った　わたくしの　たましいを、\nかき集めてきて　いただけないでしょうか？\nでないと　わたくし、一生　このままです！\nこんな姿のままでは　浮かばれません！\nお礼も　ちゃんと　させていただきますので\nどうか　お願いいたします！",
      "KRko": "저...\n이런 부탁을 드리기는\n정말 죄송하지만...\n흩어진 제 영혼을\n모아주시면 안 될까요?\n안 그러면 전 평생 이대로 살아야 해요!\n이런 모습으로는 세상을 뜰 수도 없어요!\n사례도 제대로 드릴 테니까\n제발 부탁드려요!",
      "TWzh": "那個……\n雖然有點難開口，\n可是我有一件事想要拜託您……\n能請您幫我找回\n我四散的靈魂嗎？\n不然的話，我一生就要這樣支離破碎了！\n這個樣子我就飄不起來了！\n我會好好報答您的，\n請您幫幫我吧！",
      "USen": "Ummm... I'm sorry to ask this of\nyou, but...\nCould you maybe collect the pieces\nof my spirit that flew away?\nOtherwise I'll be like this forever.\nAnd I can NOT deal with that!\nPlease help... I promise there'll be\nsomething good in it for you.",
      "USes": "Mmm... Siento pedirte esto, pero\n¿podrías ir a buscar las volutas\nde mi esencia por mí?\n¡Si no, me quedaré así para siempre!\nNo creo que pudiera soportarlo...\n¡Tienes que ayudarme, por favor!\nTe prometo que te lo agradeceré\nmuy generosamente... Uuh...",
      "USfr": "Hmm... Je suis terriblement confus,\nmais oserais-je...\nOserais-je te demander ton concours\npour rassembler mes esprits?\nCar enfin, qu'adviendra-t-il de moi si\nje ne les retrouvais pas? Non, non,\nnon. Je ne veux même pas y penser.\nTu vas m'aider, n'est-ce pas? Je te\npromets que tu n'auras pas affaire\nà un ingrat!"
    }
  },
  {
    "label": "007",
    "attribute": "0x00000000",
    "locale": {
      "CNzh": "飞散的魂魄，没错……\n总共有5个。\n魂魄应该正飘浮在\n这个岛的各个地方，\n请使用捕虫网来捕捉吧！",
      "EUde": "Mal sehen... Insgesamt gibt es\nfünf Fragmente meiner Seele.\nWahrscheinlich kannst du sie auf\nder Insel verteilt finden. Und du\nwirst einen Kescher brauchen.",
      "EUen": "Now let's see here... There are...\nfive pieces of my spirit in all.\nYou should be able to find them\nfloating around the island. You'll\nneed a net to catch them.",
      "EUes": "Me parece que se han perdido\ncinco volutas de mi esencia.\nDeben de estar flotando por\nla isla a sus anchas...\nNecesitarás una red para atraparlas.\n¡Buena suerte!",
      "EUfr": "Voyons voir... Si j'ai bien compté...\nmes esprits sont au nombre de 5.\nIls flottent certainement dans les airs\nun peu partout dans l'île. Il te faudra\nun filet pour les attraper.",
      "EUit": "Vediaaaaamo un po'... Il mio spirito...\nè composto da cinque pezzi.\nStaranno sicuramente svolazzando\nda qualche parte qui sull'isola...\nTi servirà un retino per prenderli.",
      "EUnl": "Goed, even inventariseren... Er zijn\nin totaal... vijf flarden van mijn geest\nweggevlogen.\nZe zweven her en der op het eiland\nrond. Met een net moet je ze kunnen\nvangen.",
      "EUru": "Посмотрим... Всего есть...\n5 частиц моего духа.\nОни разлетелись по всему\nострову. Чтобы поймать их,\nтебе понадобится сачок.",
      "JPja": "飛び散った　たましいは、そうですねぇ・・・\n全部で　５たまくらいでしょうか\n島の　あちこちに　ふわふわと\n漂っているハズですので、\nあみを使って　つかまえてくださいませ！",
      "KRko": "흩어진 영혼은... 어디 보자...\n전부 5개로군요!\n섬 여기저기에 흩어져서\n둥실둥실 떠다니고 있을 테니까\n잠자리채로 잡아주세요!",
      "TWzh": "我四散的靈魂啊，嗯嗯……\n總共有５塊吧。\n應該飄浮在島的各個地方才對。\n請使用捕蟲網捕捉起來吧！",
      "USen": "Now let's see here... There are...\nfive pieces of my spirit in all.\nYou should be able to find them\nfloating around the island. You'll\nneed a net to catch them.",
      "USes": "Me parece que se perdieron\ncinco volutas de mi esencia.\nDate una vuelta por la isla y seguro\nque las verás flotando por ahí.\nNecesitarás una red para atraparlas.\n¡Buena suerte!",
      "USfr": "Voyons voir... Si j'ai bien compté...\nmes esprits sont au nombre de 5.\nIls flottent certainement dans les airs\nun peu partout dans l'île. Il te faudra\nun filet pour les attraper."
    }
  },
  {
    "label": "011",
    "attribute": "0x00000000",
    "locale": {
      "CNzh": "咦，连一个都……\n啊不，没什么！\n总之就拜托你了。",
      "EUde": "Ach herrje. Wirklich? Kein einziges?\nOh! Mach dir keine Gedanken.\nEs ist nur so... Ich verlasse mich\nwirklich auf dich.",
      "EUen": "Oh, no. Really? Not a single one?\nBah! Don't mind my whining.\nIt's just... Well, I'm counting on you.",
      "EUes": "Vaya, ¿aún no has encontrado ni\nuna sola? Perdona, no quisiera\nmeterte prisa ni nada, uh...",
      "EUfr": "Miséricorde... Tu n'en a pas trouvé\nun seul ? Oh, ne fais pas attention,\nje ne devrais pas me plaindre...\nEh bien, je... Ma foi, je compte\nsur toi.",
      "EUit": "Oh, no! Sul serio? Nemmeno uno?\nUh, non badare alle mie lamentele...\nIo... Beh, io conto su di te.",
      "EUnl": "Ai ai, wat een treurnis. Je hebt er\nnog niet een weten te vinden? O!\nLet maar niet op mij.\nOok al... heb ik al mijn hoop op jou\ngevestigd.",
      "EUru": "Вот так так. Неужели?\nНи одной-единственной частицы?\nОх! Не обращай на меня внимания.\nЯ... Я все же на тебя рассчитываю.",
      "JPja": "えっ、まだ　ひとつも・・・\nいえ　なんでもありません！\nよろしくお願いいたしますぅ～",
      "KRko": "어... 아직 하나도...\n아니, 아무것도 아닙니다!\n부디 잘 부탁드려요～",
      "TWzh": "咦，連１塊都……\n沒事，沒什麼事！\n總之就拜託您了～",
      "USen": "Oh, no. Really? Not a single one?\nBah! Don't mind my whining.\nIt's just... Well, I'm counting on you.",
      "USes": "Vaya, ¿no has tenido suerte?\nPerdona, no quisiera apresurarte\nni nada...",
      "USfr": "Miséricorde... Tu n'en as pas trouvé\nun seul? Oh, ne fais pas attention,\nje ne devrais pas me plaindre...\nEh bien, je... Ma foi, je compte\nsur toi."
    }
  },
  {
    "label": "012",
    "attribute": "0x00000000",
    "locale": {
      "CNzh": "才只有1个……\n啊，没、没什么。\n请继续加油吧。",
      "EUde": "Puh... Nur ein Fragment bis jetzt...\nOh! Äh... Alles gut. Ich rede nur so\nvor mich hin, das ist alles.\nViel Erfolg bei der Suche weiterhin!",
      "EUen": "Oof... Only one piece so far, I see...\nOh! Um... Don't mind me. I'm just\nbabbling, that's all.\nGood luck on your search!",
      "EUes": "¿Uuh? ¿Solo has encontrado una?\nBueno, por algo se empieza.\n¡Buena suerte!",
      "EUfr": "Oh... Tu n'en as trouvé qu'un seul...\nAllons, ne fais pas attention ! Il faut\ntoujours que je grommelle !\nBonne chance pour la suite de\nta quête !",
      "EUit": "Ufff... Solo un pezzo, eh?! Capisco...\nOh! Mh... Non farci caso. Stavo solo\nparlando tra me e me.\nBuona fortuna per la tua ricerca!",
      "EUnl": "Oef... Nog maar één teruggevonden\nflard... O! Eh... nee, niets. Ik babbel\nmaar wat voor me uit.\nVeel succes met zoeken, hè!",
      "EUru": "Как... Пока только одна частица...\nОх! М-да... Не обращай на меня\nвнимания. Я просто бормочу.\nЖелаю тебе удачи в поисках!",
      "JPja": "まだ　１たましか・・・\nあ、いえ、なんでもありません\nがんばって　集めてくださいね",
      "KRko": "아직 1개밖에...\n아, 아니, 아무것도 아니에요!\n열심히 모아주세요!",
      "TWzh": "只有１塊……\n呃，沒事，沒什麼事！\n總之，請您努力收集吧。",
      "USen": "Oof... Only one piece so far, I see...\nOh! Um... Don't mind me. I'm just\nbabbling, that's all.\nGood luck on your search!",
      "USes": "¿Solo has encontrado una?\nBueno, por algo se empieza.\n¡Buena suerte!",
      "USfr": "Oh... Tu n'en as trouvé qu'un seul...\nAllons, ne fais pas attention! Il faut\ntoujours que je grommelle!\nBonne chance pour la suite de\nta quête!"
    }
  },
  {
    "label": "013",
    "attribute": "0x00000000",
    "locale": {
      "CNzh": "啊，有2个了啊！\n就按照这节奏进行吧！",
      "EUde": "Zwei Fragmente, ja? Weiter so!",
      "EUen": "Two pieces so far, eh? Keep it up!",
      "EUes": "¿Ya tienes dos volutas?\n¡Bien, sigue así!",
      "EUfr": "Tu en as trouvé deux ? C'est un\nexcellent début !",
      "EUit": "Due pezzi, eh?! Non mollare!",
      "EUnl": "Je hebt twee flarden gevangen?\nWe komen er wel!",
      "EUru": "Уже две частицы?\nПродолжай в том же духе!",
      "JPja": "あ、２たまですか！\nこの調子で　お願いいたしますぅ～",
      "KRko": "앗, 2개로군요!\n이렇게 쭉 부탁드려요～",
      "TWzh": "啊，有２塊啊！\n就照這個樣子繼續加油吧～",
      "USen": "Two pieces so far, eh? Keep it up!",
      "USes": "¿Ya tienes dos volutas?\n¡Bien, sigue así!",
      "USfr": "Tu en as trouvé deux? C'est un\nexcellent début!"
    }
  },
  {
    "label": "014",
    "attribute": "0x00000000",
    "locale": {
      "CNzh": "有3个了啊～！\n进展很顺利呢。\n请继续加油哦。",
      "EUde": "Drei Fragmente! Das läuft doch\nbestens! So kann es weitergehen!",
      "EUen": "Three pieces! That's pretty good!\nKeep it up!",
      "EUes": "¡Oh, tres volutas! Vas muy bien.\n¡Ánimo!",
      "EUfr": "Trois, déjà ? Je vois que tu as la\nsituation bien en main ! Continue\ncomme ça !",
      "EUit": "Tre pezzi! Stai andando benone!\nForza e coraggiooooo!",
      "EUnl": "Drie teruggevonden flarden! Dat\ngaat echt de goede kant op! Blijf\nalsjeblieft zoeken!",
      "EUru": "Три частицы! Поиски идут как по\nмаслу! Продолжай, у тебя хорошо\nполучается!",
      "JPja": "３たまですか～！\nなかなか　順調みたいですね\n引き続き　よろしくお願いいたしますぅ～",
      "KRko": "3개로군요～\n꽤 순조로운 모양이네요!\n계속해서 잘 부탁드립니다～",
      "TWzh": "有３塊啊～！\n還挺順利的呢。\n那就請您繼續加油喔～",
      "USen": "Three pieces! That's pretty good!\nKeep it up!",
      "USes": "¡Oh, tres volutas! Vas muy bien.\n¡Ánimo!",
      "USfr": "Trois, déjà? Je vois que tu as la\nsituation bien en main! Continue\ncomme ça!"
    }
  },
  {
    "label": "015",
    "attribute": "0x00000000",
    "locale": {
      "CNzh": "哦哦！\n只差1个了！\n请坚持到最后哦。\n我对你充满期待～",
      "EUde": "Oho! Es fehlt nur noch ein Fragment!\nFast geschafft!",
      "EUen": "Wow! Only one piece left!\nAlmost done! Keep going!",
      "EUes": "¡Uuuh! ¡Solo te falta una voluta!\n¡Vamos, ve a por ella!",
      "EUfr": "Ça alors, il ne t'en manque plus qu'un ?\nMerveilleux ! Nous y sommes\npresque !",
      "EUit": "Uau! Manca solo un pezzo!\nCi siamo quasi! Continua così!",
      "EUnl": "Wauw! Er ontbreekt nog maar één\nflard!\nWe zijn er bijna! Ik weet dat je dit\ntot een goed einde kunt brengen!",
      "EUru": "Вот это да! Осталась всего\nлишь одна частица!\nУже почти все найдены!\nПродолжай в том же духе!",
      "JPja": "おお～！\nあと　１たまですか！\n最後まで気を抜かず　お願いしますね\n期待して　待っておりますので～",
      "KRko": "오오～!\n앞으로 1개 남았어요!\n마지막까지 잘 부탁드려요～\n기대하고 있겠습니다!",
      "TWzh": "喔喔！\n只差１塊了啊！\n只差１塊了啊！\n要堅持到最後喔！\n期待您回來，等您喔～",
      "USen": "Wow! Only one piece left!\nAlmost done! Keep going!",
      "USes": "¡Uuuh! ¡Solo te falta una voluta!\n¡Vamos, tú puedes!",
      "USfr": "Ça alors, il ne t'en manque\nplus qu'un?\nMerveilleux! Nous y\nsommes presque!"
    }
  },
  {
    "label": "016",
    "attribute": "0x02000000",
    "locale": {
      "CNzh": "哇哦哦哦！\n终于收集齐所有魂魄了呢！\n好了！\n那就请赶紧还给我吧！",
      "EUde": "Es ist vollbracht! Du hast alle\nFragmente meiner Seele gefunden!\nAlso dann! Gib sie mir! Schnell!",
      "EUen": "You did it! You found all the pieces\nof my spirit!\nCome on! Hand them over! Hurry!",
      "EUes": "¡Has conseguido todas\nlas volutas de mi esencia!\n¿Me las das, por favor?",
      "EUfr": "Tu as réussi ! Tu as rassemblé les\nesprits en fuite !\nAllons, vite, vite ! Donne-les-moi !\nDépêche-toi !",
      "EUit": "Ce l'hai fatta! Hai ritrovato tutti\ni pezzi del mio spirito!\nVieni, vieni! Dammeli! Presto!",
      "EUnl": "Het is je gelukt! Je hebt alle\nweggevlogen flarden van mijn geest\nweten te vinden!\nSnel, snel! Mag ik ze van je terug?",
      "EUru": "Молодец! Ты нашел все частицы\nмоего духа!\nНу что же ты! Давай сюда!\nНе медли!",
      "JPja": "おわわーっ！\nついに　たましいを　全部　集めたんですね！\nささっ！\n早くわたくしに　お返しくださいませ！",
      "KRko": "오오옷～!\n드디어 영혼을 전부 모으셨군요!\n자자!\n어서 저에게 돌려주세요!",
      "TWzh": "哇哇！\n您終於收集到所有靈魂了！\n來！\n請您快點還給我吧！",
      "USen": "You did it! You found all the pieces\nof my spirit!\nCome on! Hand them over! Hurry!",
      "USes": "¡Conseguiste todas las volutas\nde mi esencia!\n¿Me las das, por favor?",
      "USfr": "Tu as réussi! Tu as rassemblé les\nesprits en fuite!\nAllons, vite, vite! Donne-les-moi!\nDépêche-toi!"
    }
  },
  {
    "label": "016_a",
    "attribute": "0x00000000",
    "locale": {
      "CNzh": "交出",
      "EUde": "Bitte sehr!",
      "EUen": "Here you go!",
      "EUes": "Aquí tienes",
      "EUfr": "Les voilà !",
      "EUit": "Ecco qua!",
      "EUnl": "Alsjeblieft!",
      "EUru": "Держи!",
      "JPja": "どうぞ",
      "KRko": "자, 받아!",
      "TWzh": "還給你",
      "USen": "Here you go!",
      "USes": "Aquí tienes",
      "USfr": "Les voilà!"
    }
  },
  {
    "label": "016_b",
    "attribute": "0x00000000",
    "locale": {
      "CNzh": "不还",
      "EUde": "Nö.",
      "EUen": "Nah.",
      "EUes": "Mejor me las quedo",
      "EUfr": "Pas envie.",
      "EUit": "No!",
      "EUnl": "Nee.",
      "EUru": "Не дам.",
      "JPja": "返さない",
      "KRko": "안 돌려줄래",
      "TWzh": "不還給你",
      "USen": "Nah.",
      "USes": "Mejor me las quedo",
      "USfr": "Pas envie."
    }
  },
  {
    "label": "017",
    "attribute": "0x02000000",
    "locale": {
      "CNzh": "哎？别开玩笑啦……\n请还给我吧。",
      "EUde": "Bitte wie? Du machst Witze... Na los.\nGib sie ihrem rechtmäßigen Besitzer\nzurück. Das bin ich, nebenbei.",
      "EUen": "What? Oh, stop kidding around. You\nare kidding around, right? You do\nrealize they...belong...to me?",
      "EUes": "¿Cómo? ¿Lo dices en serio?\nP-pero... son mías y a ti no te\nservirán para nada.\nDeberían estar con su legítimo\ndueño...",
      "EUfr": "Mais ? Allons, tu te moques de moi.\nIl faut pourtant qu'ils soient rendus\nà leur propriétaire... c'est-à-dire moi.",
      "EUit": "Come? Fossi in te non... Forza,\nrestituiscili al loro legittimo proprietario... Che sarei io.",
      "EUnl": "Wat zeg je nu? Het is nergens voor\nnodig om de plaaggeest uit te\nhangen...\nKom, doe niet zo flauw en geef ze\nterug aan hun rechtmatige eigenaar.\nTer verduidelijking: dat ben ik.",
      "EUru": "Как? Ты, наверное, шутишь... Зачем\nты так? Верни частицы законному\nвладельцу... Ведь они же мои.",
      "JPja": "えっ、またまた　ご冗談を・・・\nさぁ　お返しくださいませ～",
      "KRko": "네? 농담도 잘하시지...\n자! 어서 돌려주세요～",
      "TWzh": "咦？真是的，您又跟我開玩笑……\n來，快點還給我吧～",
      "USen": "What? Oh, stop kidding around. You\nare kidding around, right? You do\nrealize they...belong...to me?",
      "USes": "¿Cómo? ¿Lo dices en serio?\nP-pero son mías y a ti no te\nservirán para nada.\nDeberían estar con su legítimo\ndueño...",
      "USfr": "Mais? Allons, tu te moques de moi.\nIl faut pourtant qu'ils soient rendus\nà leur propriétaire... c'est-à-dire moi."
    }
  },
  {
    "label": "017_a",
    "attribute": "0x00000000",
    "locale": {
      "CNzh": "归还",
      "EUde": "Na gut. Hier.",
      "EUen": "I'll return 'em.",
      "EUes": "Te las devuelvo",
      "EUfr": "Je te les donne.",
      "EUit": "Te li restituisco.",
      "EUnl": "Alsjeblieft!",
      "EUru": "Верну.",
      "JPja": "返す",
      "KRko": "돌려줄게",
      "TWzh": "歸還",
      "USen": "I'll return 'em.",
      "USes": "Te las devuelvo",
      "USfr": "Je te les donne."
    }
  },
  {
    "label": "017_b",
    "attribute": "0x00000000",
    "locale": {
      "CNzh": "不还",
      "EUde": "Ich behalte sie.",
      "EUen": "Not gonna return 'em.",
      "EUes": "Me las quedo",
      "EUfr": "J'ai autre chose à faire.",
      "EUit": "Me li tengo io.",
      "EUnl": "Nee.",
      "EUru": "Не верну.",
      "JPja": "返さない",
      "KRko": "안 돌려줄래",
      "TWzh": "不還",
      "USen": "Not gonna return 'em.",
      "USes": "Me las quedo",
      "USfr": "J'ai autre chose à faire."
    }
  },
  {
    "label": "018",
    "attribute": "0x02000000",
    "locale": {
      "CNzh": "哎、哎呀～！\n请还给我吧，拜托啦～",
      "EUde": "W-was? Bitte!\nIch brauch die doch!",
      "EUen": "Wh-what? Please! I need them!",
      "EUes": "Pero ¿por qué? Las necesito...\nDámelas, por favor...",
      "EUfr": "Qu-Quoi ? Rends-les-moi, je t'en\nprie ! J'en ai grand besoin !",
      "EUit": "C-Cosa? Ti prego! Mi seeeeervono!",
      "EUnl": "M-Maar... hoe kun je zo hardvochtig\nzijn? Ik smeek het je! Zonder mijn\ngeest ben ik mezelf niet!",
      "EUru": "К-как? Прошу тебя!\nОни мне очень нужны!",
      "JPja": "そ、そんな～！\n返してくださいよ、お願いしますぅ～",
      "KRko": "아, 안 돼요～!\n어서 돌려주세요! 제발 부탁드려요～",
      "TWzh": "怎、怎麼這樣～！\n請您還給我吧！求求您了～",
      "USen": "Wh-what? Please! I need them!",
      "USes": "Pero ¿por qué? Las necesito...\nDámelas, por favor...",
      "USfr": "Qu-Quoi? Rends-les-moi, je t'en\nprie! J'en ai grand besoin!"
    }
  },
  {
    "label": "018_a",
    "attribute": "0x00000000",
    "locale": {
      "CNzh": "归还",
      "EUde": "Na gut. Hier.",
      "EUen": "I'll return 'em.",
      "EUes": "Te las devuelvo",
      "EUfr": "Je te les donne.",
      "EUit": "Te li restituisco.",
      "EUnl": "Alsjeblieft!",
      "EUru": "Верну.",
      "JPja": "返す",
      "KRko": "돌려줄게",
      "TWzh": "歸還",
      "USen": "I'll return 'em.",
      "USes": "Te las devuelvo",
      "USfr": "Je te les donne."
    }
  },
  {
    "label": "018_b",
    "attribute": "0x00000000",
    "locale": {
      "CNzh": "不还",
      "EUde": "Ich behalte sie.",
      "EUen": "Not gonna return 'em.",
      "EUes": "Me las quedo",
      "EUfr": "J'ai autre chose à faire.",
      "EUit": "Me li tengo io.",
      "EUnl": "Nee.",
      "EUru": "Не верну.",
      "JPja": "返さない",
      "KRko": "안 돌려줄래",
      "TWzh": "不還",
      "USen": "Not gonna return 'em.",
      "USes": "Me las quedo",
      "USfr": "J'ai autre chose à faire."
    }
  },
  {
    "label": "019",
    "attribute": "0x02000000",
    "locale": {
      "CNzh": "为、为什么啊？！\n你拿着我的魂魄，\n也没什么用啊～！！",
      "EUde": "Ich... Ich verstehe das nicht.\nWas nützt dir denn meine Seele?",
      "EUen": "I...I don't understand. What possible\nuse could you have for my spirit?!",
      "EUes": "No lo entiendo... ¿Para qué quieres\ntú volutas de mi esencia?",
      "EUfr": "Mais enfin... tout cela n'a aucun\nsens ! Quel usage pourrais-tu bien\navoir de mes esprits ?!",
      "EUit": "N-Non capisco. Che te ne fai tu\ndel mio spirito?!",
      "EUnl": "Ik... begrijp er niks van. Wat wil je\ndan met mijn geest? Daar heb je\ntoch niets aan?",
      "EUru": "Я... Я не совсем понимаю.\nЗачем тебе мой дух?!",
      "JPja": "ななな、なぜですか～？！\nわたくしの　たましいなんか　持ってても\nしかたがないじゃ　ありませんか～！！",
      "KRko": "왜, 왜죠!\n제 영혼 같은 건 가져 봤자\n어디 쓸데도 없잖아요!",
      "TWzh": "為為為、為什麼？！\n您拿著我的靈魂\n也沒有用吧～！！",
      "USen": "I...I don't understand. What possible\nuse could you have for my spirit?!",
      "USes": "No lo entiendo... ¿Para qué quieres\ntú volutas de mi esencia?",
      "USfr": "Mais enfin... tout cela n'a aucun\nsens! Quel usage pourrais-tu bien\navoir de mes esprits?!"
    }
  },
  {
    "label": "019_a",
    "attribute": "0x00000000",
    "locale": {
      "CNzh": "归还",
      "EUde": "Na gut. Hier.",
      "EUen": "I'll return 'em.",
      "EUes": "Te las devuelvo",
      "EUfr": "Je te les donne.",
      "EUit": "Te li restituisco.",
      "EUnl": "Alsjeblieft!",
      "EUru": "Верну.",
      "JPja": "返す",
      "KRko": "돌려줄게",
      "TWzh": "歸還",
      "USen": "I'll return 'em.",
      "USes": "Te las devuelvo",
      "USfr": "Je te les donne."
    }
  },
  {
    "label": "019_b",
    "attribute": "0x00000000",
    "locale": {
      "CNzh": "不还",
      "EUde": "Ich behalte sie.",
      "EUen": "Not gonna return 'em.",
      "EUes": "Me las quedo",
      "EUfr": "J'ai autre chose à faire.",
      "EUit": "Me li tengo io.",
      "EUnl": "Nee.",
      "EUru": "Не верну.",
      "JPja": "返さない",
      "KRko": "안 돌려줄래",
      "TWzh": "不還",
      "USen": "Not gonna return 'em.",
      "USes": "Me las quedo",
      "USfr": "J'ai autre chose à faire."
    }
  },
  {
    "label": "020",
    "attribute": "0x02000000",
    "locale": {
      "CNzh": "没有魂魄的话，\n我会非常麻烦的～！\n无论如何，请一定要还给我！",
      "EUde": "Aber es geht um meine Seele!\nIch bitte dich! Gib mir die Fragmente!",
      "EUen": "But I NEEEEED my spirit pieces!\nPlease! Please give them back!",
      "EUes": "¡Esto ya no tiene gracia! Dame\nlas volutas, ¡te lo pido por favor!",
      "EUfr": "Mais tu ne comprends pas, je DOIS\nles récupérer ! Je t'en prie ! S'il te\nplaîîîîît, rends-les-moi !",
      "EUit": "Ma a me servono quei pezzi\nspirituali! Ti prego! Ridammeliiiii!",
      "EUnl": "Maar ik heb mijn geestesflarden echt\nnodig! Toe nou! Geef ze me terug!",
      "EUru": "Но ведь мне нужны частицы моего\nдуха! Прошу тебя! Пожалуйста,\nотдай мне их!",
      "JPja": "それがないと　わたくし\n非常に　困るんですよ～！\nどうか！　どうか　返してください～",
      "KRko": "그게 없으면 저는\n아주아주 곤란하다구요～!\n제발! 돌려주세요～!",
      "TWzh": "沒有靈魂，\n我會非常困擾的～！\n拜託了！請您還給我吧～",
      "USen": "But I NEEEEED my spirit pieces!\nPlease! Please give them back!",
      "USes": "¡Esto ya no tiene nada de gracia!\nDame las volutas, ¡te lo pido\npor favor!",
      "USfr": "Mais tu ne comprends pas, je DOIS\nles récupérer! Je t'en prie! S'il te\nplaîîîîît, rends-les-moi!"
    }
  },
  {
    "label": "020_a",
    "attribute": "0x00000000",
    "locale": {
      "CNzh": "归还",
      "EUde": "Na gut. Hier.",
      "EUen": "I'll return 'em.",
      "EUes": "Te las devuelvo",
      "EUfr": "Je te les donne.",
      "EUit": "Te li restituisco.",
      "EUnl": "Alsjeblieft!",
      "EUru": "Верну.",
      "JPja": "返す",
      "KRko": "돌려줄게",
      "TWzh": "歸還",
      "USen": "I'll return 'em.",
      "USes": "Te las devuelvo",
      "USfr": "Je te les donne."
    }
  },
  {
    "label": "020_b",
    "attribute": "0x00000000",
    "locale": {
      "CNzh": "不还",
      "EUde": "Ich behalte sie.",
      "EUen": "Not gonna return 'em.",
      "EUes": "Me las quedo",
      "EUfr": "J'ai autre chose à faire.",
      "EUit": "Me li tengo io.",
      "EUnl": "Nee.",
      "EUru": "Не верну.",
      "JPja": "返さない",
      "KRko": "안 돌려줄래",
      "TWzh": "不還",
      "USen": "Not gonna return 'em.",
      "USes": "Me las quedo",
      "USfr": "J'ai autre chose à faire."
    }
  },
  {
    "label": "021",
    "attribute": "0x02000000",
    "locale": {
      "CNzh": "……你要是再不还我，\n我要生气了！",
      "EUde": "...Hör zu, du MUSST mir diese\nFragmente einfach geben.\nMach mich bitte nicht sauer...",
      "EUen": "...Listen, you need to give those\nto me...or E L S E.",
      "EUes": "Tienes que devolverme las volutas,\npor favor, o no respondo de lo que\npueda hacer.",
      "EUfr": "... Allons, sois raisonnable, il faut\nque tu me les rendes. Sinon, je vais\nvraiment finir par me fâcher.",
      "EUit": "Senti, me li devi ridare.\nA L T R I M E N T I...",
      "EUnl": "Luister goed naar me. Je moet ze me\necht teruggeven. Anders blijf ik\neeuwig bij je spoken.",
      "EUru": "Послушай, отдай их лучше мне.\nИначе ты об этом точно пожалеешь.",
      "JPja": "・・・そろそろ　返してくれないと\n怒　り　ま　す　よ",
      "KRko": "...슬슬 안 돌려주시면\n화 낼 거 예 요",
      "TWzh": "……您再不還給我，\n我　要　生　氣　囉。",
      "USen": "...Listen, you need to give those\nto me...or E L S E.",
      "USes": "Tienes que devolverme las volutas,\npor favor, o no sé qué será de\nmí...",
      "USfr": "... Allons, sois raisonnable, il faut\nque tu me les rendes. Sinon, je vais\nvraiment finir par me fâcher."
    }
  },
  {
    "label": "021_a",
    "attribute": "0x00000000",
    "locale": {
      "CNzh": "归还",
      "EUde": "Na gut. Hier.",
      "EUen": "I'll return 'em.",
      "EUes": "Te las devuelvo",
      "EUfr": "Je te les donne.",
      "EUit": "Te li restituisco.",
      "EUnl": "Alsjeblieft!",
      "EUru": "Верну.",
      "JPja": "返す",
      "KRko": "돌려줄게",
      "TWzh": "歸還",
      "USen": "I'll return 'em.",
      "USes": "Te las devuelvo",
      "USfr": "Je te les donne."
    }
  },
  {
    "label": "021_b",
    "attribute": "0x00000000",
    "locale": {
      "CNzh": "不还",
      "EUde": "Ich behalte sie.",
      "EUen": "Not gonna return 'em.",
      "EUes": "Me las quedo",
      "EUfr": "J'ai autre chose à faire.",
      "EUit": "Me li tengo io.",
      "EUnl": "Nee.",
      "EUru": "Не верну.",
      "JPja": "返さない",
      "KRko": "안 돌려줄래",
      "TWzh": "不還",
      "USen": "Not gonna return 'em.",
      "USes": "Me las quedo",
      "USfr": "J'ai autre chose à faire."
    }
  },
  {
    "label": "030",
    "attribute": "0x00000000",
    "locale": {
      "CNzh": "没错没错！\n确实是5个，有了有了～！",
      "EUde": "Perfekt!\nDas sind alle fünf Fragmente.",
      "EUen": "Perfect! That's all five pieces.",
      "EUes": "¡Ay, gracias! ¡Por fin podré volver\na recomponer mi esencia!",
      "EUfr": "Merveilleux ! Le compte y est !",
      "EUit": "Perfetto! Eccoli qua, cinque pezzi.",
      "EUnl": "Perfect! Dat zijn alle vijf de gevlogen\nflarden.",
      "EUru": "Превосходно! Все пять частиц.",
      "JPja": "はいはい！\n確かに　５たま、あります　あります～！",
      "KRko": "네!\n확실히 5개가 맞군요～!",
      "TWzh": "是的是的！\n的確是有５塊，有的有的！",
      "USen": "Perfect! That's all five pieces.",
      "USes": "¡Ay, gracias! ¡Por fin podré volver\na recomponer mi esencia!",
      "USfr": "Merveilleux! Le compte y est!"
    }
  },
  {
    "label": "031",
    "attribute": "0x00000000",
    "locale": {
      "CNzh": "　啪啦啪啦～\n啊啊，多亏了你\n我才能恢复原来的样子！\n哎呀呀～\n真的是太好了，太好了！\n你真的太棒了！\n万分感谢你的帮助～",
      "EUde": "　TA-DA!\nAh, endlich wieder vollständig.\nPuh! Ein Glück!\nVielen Dank!\nIch fühle mich großartig!",
      "EUen": " TA-DA!\nAhh, back to normal.\nWhew! Thank goodness.\nAnd thank YOU! I feel wonderful!",
      "EUes": "¡¡Tachán!!\nUuuh, ¡qué bien sienta volver a\nla normalidad!\nGracias por todo, amigo.\n¡Me siento fenomenal!",
      "EUfr": " TA-DA !\nAaah, me voici redevenu moi-même !\nOuf ! Quel soulagement !\nMerci à toi, vraiment !\nJ'ai l'impression de revivre !",
      "EUit": "　TAH-TAAAH!!!\nAaah, sono tornato come nuovo.\nFiuuu! Meno maaaaale.\nE... grazie! Mi sento in gran forma!",
      "EUnl": "　TA-DA!\nHèhè, ik voel me weer compleet.\nOef! Gelukkig maar.\nDank je wel! Alles is weer zoals het\nmoet zijn!",
      "EUru": "　У-ра!\nАх, как снова приятно быть собой.\nУф! Спасибо.\nОгромное тебе спасибо!\nЯ чувствую себя замечательно!",
      "JPja": "　ぱっぱらぱ～\nあぁぁ、あなたさまのおかげで\n元の姿に　戻ることができましたぁ～！\nいやぁ～\n本当に　よかった　よかった！\n実に　スバラシイです！\nありがとうございました～",
      "KRko": "　빰빠밤～\n휴우우, 당신이 도와주신 덕분에\n원래 모습으로 돌아왔습니다～!\n이야～\n정말 다행이에요! 다행!\n참으로 훌륭합니다!\n정말 감사드려요～",
      "TWzh": "　啪啪啦啪～\n啊啊啊，多虧了您，\n我才能回復原來的樣子～！\n哎呀～\n真是太好了，太好了！\n您真的太厲害了！\n非常感謝您的幫忙～",
      "USen": " TA-DA!\nAhh, back to normal.\nWhew! Thank goodness.\nAnd thank YOU! I feel wonderful!",
      "USes": "¡¡Tarán!!\nUuuh, ¡qué bien se siente volver a\nla normalidad!\nGracias por todo, amigo.\n¡Me siento fenomenal!",
      "USfr": " TA-DA!\nAaah, me voici redevenu moi-même!\nOuf! Quel soulagement!\nMerci à toi, vraiment!\nJ'ai l'impression de revivre!"
    }
  },
  {
    "label": "032",
    "attribute": "0x00000000",
    "locale": {
      "CNzh": "对了对了！\n我要给你之前说好的谢礼！",
      "EUde": "Oh, ach ja! Deine Belohnung!",
      "EUen": "Oh! Right! I need to give you the\nreward I promised.",
      "EUes": "¡Ah, sí! Tengo que darte\nla recompensa que te prometí.",
      "EUfr": "Une promesse est une promesse,\nje vais te remettre la récompense\nque je te dois !",
      "EUit": "Oooooh! Giusto! Devo darti la\nricompensa che avevo promesso.",
      "EUnl": "O ja! Ik had je een beloning beloofd.",
      "EUru": "Ах да! Тебе же полагается награда!",
      "JPja": "そうそう！\nお約束した　お礼を　差し上げなくては！",
      "KRko": "맞다!\n약속드린 대로 사례를 해야겠네요!",
      "TWzh": "對了對了！\n我要給您之前說好的謝禮才行。",
      "USen": "Oh! Right! I need to give you the\nreward I promised.",
      "USes": "¡Ah, sí! Tengo que darte\nla recompensa que te prometí.",
      "USfr": "Une promesse est une promesse,\nje vais te remettre la récompense\nque je te dois!"
    }
  },
  {
    "label": "033_01",
    "attribute": "0x00000000",
    "locale": {
      "CNzh": "是这样呢～……\n那么，我就给你家具类的东西吧！",
      "EUde": "Was gebe ich dir denn...?\nAch, Möbel mag jeder, oder?",
      "EUen": "What's it going to be? Well, who\ndoesn't love furniture?",
      "EUes": "A ver qué te doy... Un mueble\nsiempre viene bien, ¿no?",
      "EUfr": "Voyons, que vais-je bien pouvoir\nt'offrir... Oh, je sais ! Un meuble,\nvoilà qui fait toujours plaisir !",
      "EUit": "Che cosa sarààààà...? Beh, a chi è\nche non piacciono i mobili?",
      "EUnl": "Wat zal ik je eens geven? Ja! Wie\nhoudt er nou niet van meubels?",
      "EUru": "Чем же тебя одарить...\nНу, предметы обихода любят все.",
      "JPja": "そうですね～・・・\nでは何か　家具を　差し上げましょう！",
      "KRko": "어디 보자～...\n그럼 가구를 드리겠습니다!",
      "TWzh": "我想想看……\n那麼，我就給您家具類的東西吧！",
      "USen": "What's it going to be? Well, who\ndoesn't love furniture?",
      "USes": "A ver qué te doy... Un mueble\nsiempre gusta a todos, ¿no?",
      "USfr": "Voyons, que vais-je bien pouvoir\nt'offrir... Oh, je sais! Un meuble,\nvoilà qui fait toujours plaisir!"
    }
  },
  {
    "label": "033_02",
    "attribute": "0x00000000",
    "locale": {
      "CNzh": "是这样呢～……\n那么，我就给你壁纸类的东西吧！",
      "EUde": "Was gebe ich dir denn...?\nAh, ich weiß! Eine Tapete!",
      "EUen": "What's it going to be? I know!\nI'll give you some wallpaper!",
      "EUes": "A ver qué te doy... ¡Ya sé! Te daré\nun bonito papel de pared.",
      "EUfr": "Voyons, que vais-je bien pouvoir\nt'offrir... Oh, je sais ! Un ravissant\npapier peint !",
      "EUit": "Cosa posso dartiiiii...? Idea!\nUna beeeeella carta da parati!",
      "EUnl": "Wat zal ik je eens geven? Ik weet\nhet al! Een leuk behangetje zal vast\nnaar je smaak zijn.",
      "EUru": "Чем же тебя одарить...\nПридумал! Дам тебе обои!",
      "JPja": "そうですね～・・・\nでは何か　壁紙を　差し上げましょう！",
      "KRko": "어디 보자～...\n그럼 벽지를 드리겠습니다!",
      "TWzh": "我想想看……\n那麼，我就給您壁紙類的東西吧！",
      "USen": "What's it going to be? I know!\nI'll give you some wallpaper!",
      "USes": "A ver qué te doy... ¡Ya sé! Te daré\nun bonito papel de pared.",
      "USfr": "Voyons, que vais-je bien pouvoir\nt'offrir... Oh, je sais! Un ravissant\npapier peint!"
    }
  },
  {
    "label": "033_03",
    "attribute": "0x00000000",
    "locale": {
      "CNzh": "是这样呢～……\n那么，我就给你地板类的东西吧！",
      "EUde": "Was gebe ich dir denn...?\nAh! Niemand kann einem schönen\nBoden widerstehen!",
      "EUen": "What's it going to be? Oh! I know!\nFlooring! Everyone loves flooring.",
      "EUes": "A ver qué te doy... ¡Pues claro!\n¡Un suelo! Es algo muy práctico.",
      "EUfr": "Voyons, que vais-je bien pouvoir\nt'offrir... Oh, je sais ! Un revêtement\nde sol du meilleur goût !",
      "EUit": "Cosa mai ti daròòòòò...? Ooooh!\nLo so! Dei pavimentiiiii! Tutti amano\ni pavimentiiiii!",
      "EUnl": "Wat zal ik je eens geven? O, ik weet\nhet al! Een vloer. Iedereen houdt\nvan vloeren.",
      "EUru": "Чем же тебя одарить...\nАга, знаю! Полы всем нравятся.",
      "JPja": "そうですね～・・・\nでは何か　床板を　差し上げましょう！",
      "KRko": "어디 보자～...\n그럼 바닥재를 드리겠습니다!",
      "TWzh": "我想想看……\n那麼，我就給您地板類的東西吧！",
      "USen": "What's it going to be? Oh! I know!\nFlooring! Everyone loves flooring.",
      "USes": "A ver qué te doy... ¡Pues claro!\n¡Un suelo! Es algo muy práctico.",
      "USfr": "Voyons, que vais-je bien pouvoir\nt'offrir... Oh, je sais! Un revêtement\nde sol du meilleur goût!"
    }
  },
  {
    "label": "033_04",
    "attribute": "0x00000000",
    "locale": {
      "CNzh": "是这样呢～……\n那么，我就给你服饰类的东西吧！",
      "EUde": "Was kann ich dir denn geben...?\nIch denke, was zum Anziehen...",
      "EUen": "What's it going to be? I'm thinking\nsome type of clothing...",
      "EUes": "A ver qué te doy... Quizá algo de\nropa podría estar bien.",
      "EUfr": "Voyons, que vais-je bien pouvoir\nt'offrir... Et pourquoi pas une pièce\nd'habillement ? Cela sert toujours !",
      "EUit": "Cosa sarà maaaaai...? Pensavo a un\ncapooooo di abbigliamento...",
      "EUnl": "Wat zal ik je eens geven? Mijn\ngedachten gaan naar kleding...",
      "EUru": "Чем же тебя одарить...\nМожет, одежда подойдет...",
      "JPja": "そうですね～・・・\nでは何か　装飾品を　差し上げましょう！",
      "KRko": "어디 보자～...\n그럼 장식품을 드리겠습니다!",
      "TWzh": "我想想看……\n那麼，我就給您服飾類的東西吧！",
      "USen": "What's it going to be? I'm thinking\nsome type of clothing...",
      "USes": "A ver qué te doy... Quizá algo de\nropa podría estar bien.",
      "USfr": "Voyons, que vais-je bien pouvoir\nt'offrir... Et pourquoi pas une pièce\nd'habillement? Cela sert toujours!"
    }
  },
  {
    "label": "035",
    "attribute": "0x02000000",
    "locale": {
      "CNzh": "有你还未拥有的东西，\n或是有点昂贵的东西\n可供选择，请问你要哪种呢？",
      "EUde": "Ich kann dir etwas geben, das du\nnoch nicht hast, oder etwas Teures.\nWas hättest du gern?",
      "EUen": "I can get you something you don't\nhave yet, or I can get you something\nexpensive. So what's it going to be?",
      "EUes": "Puedo darte algo que aún\nno tengas o algo bastante caro.\n¿Qué prefieres?",
      "EUfr": "Tu peux choisir entre un élément que\ntu ne possèdes pas encore et un\nobjet de valeur. Que préfères-tu ?",
      "EUit": "Potrei darti qualcosa che non haaai\nancora ooooppure qualcosa di caro.\nDuuuuunque?",
      "EUnl": "Ik kan je iets geven wat je nog niet\nhebt, of ik kan je iets duurs geven.\nWat heb je liever?",
      "EUru": "Могу дать тебе что-нибудь, чего\nу тебя еще нет! Или что-нибудь\nочень ценное! Что ты выберешь?",
      "JPja": "まだ　あなたさまが持っていないものか\nちょっとだけ　高価そうなもの、\nお選び頂けますが　どちらが良いでしょうか？",
      "KRko": "가지고 계시지 않은 물건과\n조금 값비싸 보이는 물건 중에서\n고르실 수 있습니다만 어떻게 하시겠어요?",
      "TWzh": "您可以自己選擇，\n看您是想要還沒拿到過的東西呢？\n還是有點昂貴的東西？您想要哪一種呢？",
      "USen": "I can get you something you don't\nhave yet, or I can get you something\nexpensive. So what's it going to be?",
      "USes": "Puedo darte algo que aún\nno tienes o algo bastante caro.\n¿Qué prefieres?",
      "USfr": "Tu peux choisir entre un élément que\ntu ne possèdes pas encore et un\nobjet de valeur. Que préfères-tu?"
    }
  },
  {
    "label": "035_a",
    "attribute": "0x00000100",
    "locale": {
      "CNzh": "还未拥有的东西",
      "EUde": "Etwas Neues.",
      "EUen": "Something new.",
      "EUes": "Algo que no tenga",
      "EUfr": "Un truc nouveau.",
      "EUit": "Qualcosa di nuovo.",
      "EUnl": "Iets nieuws.",
      "EUru": "Новое.",
      "JPja": "まだ持っていないもの",
      "KRko": "가지고 있지 않은 것",
      "TWzh": "沒拿到過的東西",
      "USen": "Something new.",
      "USes": "Algo que no tenga",
      "USfr": "Un truc nouveau."
    }
  },
  {
    "label": "035_b",
    "attribute": "0x00000100",
    "locale": {
      "CNzh": "有点昂贵的东西",
      "EUde": "Etwas Teures.",
      "EUen": "Something expensive.",
      "EUes": "Prefiero lo caro",
      "EUfr": "Un truc cher.",
      "EUit": "Qualcosa di caro.",
      "EUnl": "Iets duurs.",
      "EUru": "Очень ценное.",
      "JPja": "高価そうなもの",
      "KRko": "값비싸 보이는 것",
      "TWzh": "有點昂貴的東西",
      "USen": "Something expensive.",
      "USes": "Prefiero lo caro",
      "USfr": "Un truc cher."
    }
  },
  {
    "label": "036_01",
    "attribute": "0x00000000",
    "locale": {
      "CNzh": "好的好的，我明白了～\n要你还未拥有的东西呢！\n我想，只要你不是狂热的收藏家，\n就应该还没拥有过这个……",
      "EUde": "Gut, in Ordnung! Etwas Neues...\nEtwas, das du noch nicht hast...\nOb du schon eine große Sammlung\nhast oder nicht... Ich denke, ich habe\ngenau das Richtige für dich.",
      "EUen": "OK! You got it! Something new...\nSomething you don't have yet...\nWell, whether or not you've already\ngot a lot of stuff, I think I have just\nthe item for you.",
      "EUes": "¡Marchando algo que no tengas!\nCreo que ya sé cuál puede ser\nel objeto perfecto para ti.",
      "EUfr": "Fort bien ! Voyons voir, quelque\nchose de nouveau... Laisse-moi\nréfléchir...\nMa foi, que tu sois déjà bien équipé\nou non, je serais bien surpris que tu\naies déjà ceci en ta possession !",
      "EUit": "Sì! Ho capitooo! Qualcosa di nuovo...\nUna cosa che non hai ancoraaaaa...\nBeh, hai già un sacco di cooooose,\nma credo di averne una che ti\nmancaaaaa.",
      "EUnl": "Begrepen! Iets nieuws... Iets wat je\nnog niet hebt...\nOf je nu veel of weinig bezit, ik denk\ndat ik je wel iets moois kan bieden!",
      "EUru": "Хороший выбор! Что-нибудь\nновое... чего у тебя еще нет...\nЯ не знаю, сколько у тебя вещей,\nно этой вещи у тебя еще, наверное,\nнет.",
      "JPja": "はいはい　承知いたしました～\nまだ　あなたさまが　持ってないものですね！\nおそらく、あなたさまが\nよほど熱心な　コレクターではない限り\nお持ちではないと　思うのですが・・・",
      "KRko": "네! 알겠습니다～\n가지고 계시지 않은 물건 말이군요!\n아마 당신이 어지간히\n열성적인 수집가가 아닌 이상\n이걸 갖고 계시진 않겠죠...",
      "TWzh": "好的好的，我知道了～\n您還沒拿到過的東西啊！\n我想只要您不是狂熱的收藏家，\n就應該不會擁有這個才對……",
      "USen": "OK! You got it! Something new...\nSomething you don't have yet...\nWell, whether or not you've already\ngot a lot of stuff, I think I have just\nthe item for you.",
      "USes": "Bien, ¡te daré algo que no tienes!\nCreo que tengo el objeto perfecto\npara ti.",
      "USfr": "Fort bien! Voyons voir, quelque\nchose de nouveau... Laisse-moi\nréfléchir...\nMa foi, que tu sois déjà bien équipé\nou non, je serais bien surpris que tu\naies déjà ceci en ta possession!"
    }
  },
  {
    "label": "036_02",
    "attribute": "0x00000000",
    "locale": {
      "CNzh": "好的好的，我明白了～！\n要有点昂贵的东西呢！\n我对判断物品价值不是很在行，\n所以到底是不是很值钱，\n我也不是很清楚呢……",
      "EUde": "Gut, in Ordnung! Also etwas, das\nein klein wenig hochpreisiger ist?\nIch bin nicht so gut darin, den Wert\nvon Dingen einzuschätzen.\nAlso weiß ich nicht, ob das hier\nwirklich viel wert ist...",
      "EUen": "OK! You got it! So we're looking for\nsomething a little on the expensive\nside, huh?\nI'm not that great at judging the\nvalue of items, so I'm not totally sure\nif this item is worth a lot, but...",
      "EUes": "Ah, así que vas a lo caro...\n¡Me parece muy bien!\nReconozco que no soy experto en\ncosas materiales, pero creo que\nesto te va a gustar.",
      "EUfr": "Fort bien ! Ainsi donc, tu voudrais\nun présent qui affiche une certaine\nvaleur marchande...\nJe n'ai jamais bien su juger de la\nvaleur des choses, pardonne-moi\ndonc si je fais erreur...",
      "EUit": "OK! Ho capitoooo! Allora devoooo\nandare sul costoso, eeeeeh?\nNon sono mai stato bravo a valutare\ngli oggetti, perciò non sono sicurooo\nche questo valga molto, peròòòòò...",
      "EUnl": "Begrepen! Dus je wilt graag iets\nwat een rib uit je lijf kost.\nNu ben ik niet zo goed in het\nschatten van de waarde van dingen,\ndus ik hoop dat dit goed is...",
      "EUru": "Хороший выбор! Тебе хочется\nнемного роскоши, верно?\nЯ не эксперт, поэтому я не уверен,\nценная эта вещь или не очень...",
      "JPja": "はいはい　承知いたしました～！\nちょっとだけ　高価そうなものですね！\nわたくし　品定めが　得意ではありませんので\n本当に　価値があるモノなのかどうかは\n正直　わからないのですが・・・",
      "KRko": "네! 알겠습니다～\n조금 값비싸 보이는 물건 말이군요!\n사실 안목이 특별히 뛰어나진 않아서\n정말 값비싼 물건인지 아닌지는\n잘 모르지만요...",
      "TWzh": "好的好的，我知道了～\n有點昂貴的東西啊！\n我對判定東西的價值不是很在行，\n所以說真的，我也不太清楚\n這是不是真正有價值的東西……",
      "USen": "OK! You got it! So we're looking for\nsomething a little on the expensive\nside, huh?\nI'm not that great at judging the\nvalue of items, so I'm not totally sure\nif this item is worth a lot, but...",
      "USes": "Ah, así que prefieres lo caro...\n¡Me parece muy bien!\nReconozco que no soy experto en\ncosas materiales, pero creo que\nesto te va a gustar.",
      "USfr": "Fort bien! Ainsi donc, tu voudrais\nun présent qui affiche une certaine\nvaleur marchande...\nJe n'ai jamais bien su juger de la\nvaleur des choses, pardonne-moi\ndonc si je fais erreur..."
    }
  },
  {
    "label": "037",
    "attribute": "0x00000000",
    "locale": {
      "CNzh": "我就给你\n吧～\n已经放进你的包包里了哦。",
      "EUde": "Hier, bitte sehr, ich gebe dir \n! Ich lege das gute Stück in deine Tasche.",
      "EUen": "Here, have...\n!\nI'll put this item in your pocket, OK?",
      "EUes": "¡Se trata nada más y nada menos que\nde ! L guardaré en tus bolsillos.",
      "EUfr": "Voilà pour toi :  ! Glissons cela dans ta poche !",
      "EUit": " da me per teeee! Ti metto questo oggettoooo in tasca, va beneeeee?",
      "EUnl": "Alsjeblieft, ! Ik berg  op in je zakken.",
      "EUru": "Вот, держи...\nЭто !\nЯ положу его тебе в карман, ладно?",
      "JPja": "を\n差し上げようと思います～\nもちものに　入れておきますね",
      "KRko": "입니다～\n주머니에 넣어드릴게요!",
      "TWzh": "我就給您\n好了～\n我已經放進您的包包裡了。",
      "USen": "Here, have...\n!\nI'll put this item in your pocket, OK?",
      "USes": "¡Se trata nada más y nada menos que\nde ! L guardaré en tus bolsillos.",
      "USfr": "Voilà pour toi : ! Glissons cela dans ta poche!"
    }
  },
  {
    "label": "038",
    "attribute": "0x00000000",
    "locale": {
      "CNzh": "那么，\n我们有缘再相见啦。\n告辞了～",
      "EUde": "Ich hoffe, wir sehen uns mal wieder!\nMach's gut bis dahin!",
      "EUen": "Let me just say, I hope our\npaths cross again sometime.\nUntil then, farewell!",
      "EUes": "Espero que nuestros caminos\nvuelvan a cruzarse otro día.\n¡Hasta la vista!",
      "EUfr": "Je souhaite que nos chemins se\ncroisent à nouveau un jour !\nEn attendant, porte-toi bien !",
      "EUit": "Congediamoci con la speranza che\ni nostri cammini si incrocino di\nnuovo. Per ora quindi... arrivederci!",
      "EUnl": "Ik hoop dat onze paden zich nog\neens kruisen. Maar tot dat moment\ndaar is, zeg ik vaarwel.",
      "EUru": "Надеюсь, наши пути еще не раз\nпересекутся. А пока — прощай!",
      "JPja": "それでは　また、\n何かご縁がありましたら　お会いしましょう\nこれにて　失礼いたします～",
      "KRko": "자, 그럼!\n혹시 인연이 닿는다면 다시 만나요!\n이만 물러가겠습니다～",
      "TWzh": "那麼，\n我們有緣再見吧。\n告辭了～",
      "USen": "Let me just say, I hope our\npaths cross again sometime.\nUntil then, farewell!",
      "USes": "Espero que nuestros caminos\nvuelvan a cruzarse otro día.\n¡Hasta la vista!",
      "USfr": "Je souhaite que nos chemins se\ncroisent à nouveau un jour!\nEn attendant, porte-toi bien!"
    }
  },
  {
    "label": "040",
    "attribute": "0x00000000",
    "locale": {
      "CNzh": "哇哦！\n你终于收集齐所有魂魄了呢！\n……但是我\n不喜欢暴露在众目睽睽之下……\n现在正好有可能会被\n岛外的访客看到，\n所以我暂时不会恢复原来的样子。\n过会你再来吧～",
      "EUde": "Nun! Du hast alle Fragmente meiner\nSeele gefunden!\nAber... Ich möchte nicht, dass andere\nmeine Verwandlung sehen. Ich bin da\netwas schüchtern...\nIch würde es vorziehen, wenn keine\nBesucher da wären, die diesem\nSpektakel beiwohnen.\nEs tut mir sehr leid, aber können\nwir das später zu Ende bringen, wenn die Besucher weg sind?",
      "EUen": "Well! You've collected all the pieces\nof my spirit!\nBut...I'm afraid I'm a little shy about\nthe possibility of other folks seeing\nmy spirit transformation...\nI'd prefer to avoid the chance that\nvisitors might behold such a jaw-\ndropping sight.\nI'm terribly sorry, but can we wrap\nthis up later, when there are no\nvisitors around?",
      "EUes": "¡Pero si has conseguido todas\nlas volutas de mi esencia!\nAunque me alegro mucho, me da\nalgo de vergüenza transformarme\ndelante de gente que no conozco.\n¿Te importaría guardarme las\nvolutas y dármelas luego cuando\nse haya ido todo el mundo?\nDe verdad que lo siento mucho...",
      "EUfr": "Oh oh ! Tu as réuni mes esprits en\nfuite !\nMalheureusement... Je ne me sens\npas à l'aise à l'idée que des inconnus\nassistent à ma transformation...\nEt il me semble préférable de ne pas\noffrir ce spectacle à tes visiteurs,\nils risqueraient d'être secoués.\nJe regrette beaucoup, mais tu veux\nbien que l'on reprenne notre affaire\nplus tard, lorsqu'ils seront partis ?",
      "EUit": "Beeeeene! Hai raccolto tutti i pezzi\ndel mio spirito!\nMa... io sono un timidooooone e preferirei non essere visto da troppi occhi indiscreti...\nMeglio evitare che eventuali\nvisitatori assistano alla mia, ehm...\nspiritooooosa trasformazione!\nDevi davveeeero scusarmi, ma\npossiamo rimandaaaaare a quando\nnon ci sarannoooo visitatori in giro?",
      "EUnl": "O, wat fijn! Je hebt alle flarden van\nmijn geest teruggevonden!\nHet is alleen zo... dat ik me wat\nongemakkelijk voel bij het idee dat\nanderen mijn transformatie zien...\nIk heb liever niet dat bezoekers\ngetuige zijn van deze opzienbarende\ngebeurtenis.\nVergeef me, maar kunnen we deze\naffaire op een ander moment\nafronden?",
      "EUru": "Что ж! Ты собрал все частицы\nмоего духа!\nОднако... мне немного неудобно,\nчто кто-то может наблюдать мое\nпревращение, — я стесняюсь...\nНе хотелось бы, чтобы кто-то\nглазел. Все-таки не каждый\nдень такое происходит.\nМне ужасно жаль, но давай\nуладим это позже, когда нет\nпосторонних?",
      "JPja": "おわわーっ！\nついに　たましいを　全部　集めたんですね！\n・・・ですが　わたくし、\n多くの人の目に　さらされるのが\nことのほか　苦手でして・・・\n島の外からの　来訪者の目に\n触れてしまう可能性がある　今はちょっと、\n元の姿に戻るのは　エンリョしておきます\nまた　のちほど、\nよろしくお願いいたします～",
      "KRko": "오오옷～!\n드디어 영혼을 전부 모으셨군요!\n...그런데 제가 좀\n보는 눈이 많은 곳은 영 불편해서요...\n지금은 섬 밖에서 오신 분의 눈에\n띌지도 모르니까 원래 모습으로 돌아가는 건\n잠시 미루도록 하겠습니다!\n다음에 다시 부탁드릴게요～!",
      "TWzh": "哇哇哇！\n您終於收集到所有靈魂了！\n……可是，我非常不喜歡\n在很多人的面前現身……\n現在這個時刻，\n正好有可能被島外來的訪客看見，\n所以我還是先不要回復原來的樣子好了。\n請您等一下再過來吧，\n麻煩您了～",
      "USen": "Well! You've collected all the pieces\nof my spirit!\nBut...I'm afraid I'm a little shy about\nthe possibility of other folks seeing\nmy spirit transformation...\nI'd prefer to avoid the chance that\nvisitors might behold such a jaw-\ndropping sight.\nI'm terribly sorry, but can we wrap\nthis up later, when there are no\nvisitors around?",
      "USes": "¡Pero si has conseguido todas\nlas volutas de mi esencia!\nAunque me alegro mucho, me da\nalgo de vergüenza transformarme\ndelante de gente que no conozco.\n¿Te importaría guardarme las\nvolutas y dármelas luego cuando\nse haya ido todo el mundo?\nDe verdad que lo siento mucho...",
      "USfr": "Oh oh! Tu as réuni mes esprits\nen fuite!\nMalheureusement... Je ne me sens\npas à l'aise à l'idée que des inconnus\nassistent à ma transformation...\nEt il me semble préférable de ne pas\noffrir ce spectacle à tes visiteurs,\nils risqueraient d'être secoués.\nJe regrette beaucoup, mais tu veux\nbien que l'on reprenne notre affaire\nplus tard, lorsqu'ils seront partis?"
    }
  },
  {
    "label": "045",
    "attribute": "0x00000000",
    "locale": {
      "CNzh": "呀，是(player name)吗？\n请不要再吓我了～\n我心脏病都要被吓出来了……\n我的魂魄又四处飞散了。\n哎～我这个样子，\n什么事情都做不了，\n真是麻烦啊……",
      "EUde": "Oh, (Spielername)!\nHast du mich wieder erschreckt!\nUnd weg sind sie, die Fragmente\nmeiner Seele!\nWas für ein Elend. Ich kann doch\nnicht länger SO aussehen!\nWas mach ich denn jetzt?",
      "EUen": "Oh, (player name)!\nPlease do NOT startle me like that!\nMy heart nearly stopped... And there\ngoes my spirit again!\nGreat. I can't go around looking like\nthis... What should I do?",
      "EUes": "¡Ah, (player name)!\n¡No me des estos sustos, por favor!\nCreo que mi esencia ha vuelto\na deshacerse.\nUuuh, no puedo quedarme así...\n¿Qué hago? ¿Qué hago?",
      "EUfr": "Oh, mais c'est (nom du joueur) !\nJe t'en prie, ne me fais plus de peurs\npareilles ! Regarde-moi, voilà que\nj'en ai à nouveau perdu mes esprits !\nQuel ennui ! Non, vraiment, je ne\npeux pas rester ainsi... Que faire,\nque faire ?",
      "EUit": "Oh, (player name)! Ti preeeeego, non spaventarmi così!\nIl mio cuore si è fermato per un\nsecondo... E guarda cosa è successo\ndi nuovo al mio spirito!\nChe disgraaaaazia! Non posso mica\nrestare così... Che si fa? Che si fa?",
      "EUnl": "O, (player name)!\nLaat me toch alsjeblieft niet zo\nschrikken! Ik bleef er bijna in... En\nnu is mijn geest er alweer vandoor!\nGrote griebels. Zo kan ik toch niet\ndoor het leven gaan. Wat moet ik nu\nbeginnen...",
      "EUru": "О, (player name)!\nНе надо меня так пугать! У меня\nсердце почти из груди выскочило...\nИ я снова растерял свой дух!\nПропади ты пропадом. На кого\nя теперь похож?! Что же делать...",
      "JPja": "って、(player name)さんですか\nもう、驚かさないでくださいよぉ～\n心臓が　止まるかと思いました・・・\nまた　たましいが　飛び散っちゃいましたよ\nはぁ～、こんな姿じゃあ\nどうすることも　できません\nはてさて　困りました・・・",
      "KRko": "앗, (player name)님이셨군요!\n아휴, 놀랐잖아요오오～!\n심장이 멎을 뻔했다구요...\n또 영혼이 뿔뿔이 흩어졌어요...\n휴～ 이런 꼴로는\n아무것도 할 수가 없는데\n이걸 또 어쩐담...",
      "TWzh": "呃，是(player name)啊。\n真是的，請您不要再嚇我了～！\n我嚇得心跳都要停止了……\n靈魂又四處飛散了……\n唉～變成這個樣子，\n就什麼都做不了了。\n哎呀，真是煩惱……",
      "USen": "Oh, (player name)!\nPlease do NOT startle me like that!\nMy heart nearly stopped... And there\ngoes my spirit again!\nGreat. I can't go around looking like\nthis... What should I do?",
      "USes": "¡Ah, (player name)!\n¡No me des estos sustos, por favor!\nCreo que mi esencia ha vuelto\na deshacerse.\nUuuh, no puedo quedarme así...\n¿Qué hago? ¿Qué hago?",
      "USfr": "Oh, mais c'est (nom du joueur)!\nJe t'en prie, ne me fais plus de peurs\npareilles! Regarde-moi, voilà que\nj'en ai à nouveau perdu mes esprits!\nQuel ennui! Non, vraiment, je ne\npeux pas rester ainsi... Que faire,\nque faire?"
    }
  },
  {
    "label": "046",
    "attribute": "0x00000000",
    "locale": {
      "CNzh": "那个……\n真是不好意思，\n我有件事想要麻烦你……\n你是否愿意再帮忙\n收集我的魂魄呢？\n收集不到的话，我就得一辈子这样了！\n这个样子我就飘浮不起来了！\n请帮帮我吧，\n我会好好感谢你的！",
      "EUde": "Das ist mir wirklich unangenehm,\naber könntest du für mich wieder die\nFragmente meiner Seele suchen?\nSonst muss ich den Rest meines\nDaseins so verbringen! Allein die\nVorstellung...\nBitte! Du musst es auch nicht\numsonst tun!",
      "EUen": "Um... I'm so sorry to ask, but...is\nthere any chance you can collect\nthe pieces of my spirit again?\nOtherwise I'll be stuck like this\nfor the rest of my life! Like THIS!\nI can't even think about it.\nPlease! I promise there'll be a nice\nreward in it for you.",
      "EUes": "¿Tú podrías ir a buscar las volutas\nde mi esencia? Siento tener que\npedírtelo así...\nPero si no me ayudas, me quedaré\nasí para el resto de mis días.\nTe prometo que te daré una buena\nrecompensa a cambio.",
      "EUfr": "Dis-moi... cela m'ennuie de t'embêter\navec ça, mais... accepterais-tu de\nréunir à nouveau mes esprits ?\nAutrement, je suis condamné à finir\nmes jours sous cette apparence...\nImpensable ! Je frémis à cette idée !\nMais tu vas m'aider, n'est-ce pas ?\nEn échange, je saurai te récompenser\ndignement.",
      "EUit": "Mmmh... Mi dispiace disturbarti,\nma... potresti raccogliere di nuovo\ntutti i pezzi del mio spirito?\nAltrimenti dovrò restare così per\nil resto della mia vita! COSÌ! Aaah,\nmi vengono i brividi solo a pensarci.\nTi prego! Prometto di darti una lauta\nricompensa!",
      "EUnl": "Ik klop niet graag met mijn miserie\nbij je aan, maar... kun je misschien\nmijn geest nogmaals bijeenrapen?\nAnders moet ik voor eeuwig zo\nblijven ronddolen! Incompleet! Dit\ngemis kan ik niet aan.\nAlsjeblieft! Er wacht je na afloop een\nmooie beloning, dat beloof ik je.",
      "EUru": "Э... Мне ужасно неловко тебя об\nэтом просить, но... ты не мог бы\nснова собрать частицы моего духа?\nИначе мне придется остаться таким\nна всю жизнь! Вот таким!!! Я не\nмогу себе этого представить.\nПожалуйста! Я обещаю тебе за это\nпрелестную награду.",
      "JPja": "あの・・・\nこんなことを　お願いするのは\nとても　心苦しいのですが・・・\n飛び散った　わたくしの　たましいを、\nまた　集めてきて　いただけないでしょうか？\nでないと　わたくし、一生　このままです！\nこんな姿のままでは　浮かばれません！\nお礼も　ちゃんと　させていただきますので\nどうか　お願いいたします！",
      "KRko": "저...\n이런 부탁을 드리기는\n정말 죄송하지만...\n이번에도 흩어진 제 영혼을\n모아주시면 안 될까요?\n안 그러면 전 평생 이대로 살아야 해요!\n이런 모습으로는 세상을 뜰 수도 없어요!\n사례도 제대로 드릴 테니까\n제발 부탁드려요!",
      "TWzh": "那個……\n雖然有點難開口，\n可是我有一件事想要拜託您……\n能請您幫我找回\n我四散的靈魂嗎？\n不然的話，我一生就要這樣支離破碎了！\n這個樣子我就飄不起來了！\n我會好好報答您的，\n請您幫幫我吧！",
      "USen": "Um... I'm so sorry to ask, but...is\nthere any chance you can collect\nthe pieces of my spirit again?\nOtherwise I'll be stuck like this\nfor the rest of my life! Like THIS!\nI can't even think about it.\nPlease! I promise there'll be a nice\nreward in it for you.",
      "USes": "¿Tú podrías ir a buscar las volutas\nde mi esencia? Lamento tener que\npedírtelo así...\nPero si no me ayudas, me quedaré\nasí para el resto de mis días.\nTe prometo que te daré una buena\nrecompensa a cambio.",
      "USfr": "Dis-moi... cela m'ennuie de t'embêter\navec ça, mais... accepterais-tu de\nréunir à nouveau mes esprits?\nAutrement, je suis condamné à finir\nmes jours sous cette apparence...\nImpensable! Je frémis à cette idée!\nMais tu vas m'aider, n'est-ce pas?\nEn échange, je saurai te\nrécompenser dignement."
    }
  },
  {
    "label": "050",
    "attribute": "0x00000000",
    "locale": {
      "CNzh": "呀，是(player name)吗？\n请不要再吓我了～\n我心脏病都要被吓出来了……\n我的魂魄又四处飞散了。\n刚才我想靠自己的力量撑住，\n但真的太难了。",
      "EUde": "Oh, (Spielername)!\nHast du mich wieder erschreckt!\nUnd weg sind sie, die Fragmente\nmeiner Seele!\nUnd ich hatte mich gerade erst\nwieder berappelt. Das war ein\nhartes Stück Arbeit, glaub mir!",
      "EUen": "Oh! (player name)!\nPlease don't scare me like that! My\nheart can't take it! Aaaaand the\npieces of my spirit took off again.\nI managed to sort it out earlier, but\nit was back-breaking work.",
      "EUes": "¡Aaah, (player name)!\n¿Otra vez? Yo no puedo más con\nestos sustos... Y mi esencia se ha\nvuelto a deshacer, uuuh.\nLa última vez pude apañármelas\nsolo para reunir todas las volutas,\npero me costó muchísimo.",
      "EUfr": "Oh ! (nom du joueur) !\nTu m'as fait une peur atroce ! Mon\ncœur a bien failli lâcher, et j'ai à\nnouveau perdu mes esprits !\nLa dernière fois, j'ai réussi à les\nrassembler, mais je n'ai pas la force\nde recommencer...",
      "EUit": "Oh, (player name)! Ti preeeeego, non spaventarmi così!\nIl mio cuore si è fermato per un\nsecondo... E guarda cosa è successo\ndi nuovo al mio spirito!\nLa scorsa volta, sono riuscito a\nrisolvere la situazione da solo, ma è\nstata un'esperienza faticosissima!",
      "EUnl": "O! (player name)! Wat laat je me schrikken!\nDoe dat mijn hart alsjeblieft niet aan!\nMijn geest is ook alweer in bange\nflarden uiteengevallen.\nIk heb mezelf eerder uiteindelijk\nbijeen weten te rapen, maar dat had\nnog heel wat voeten in de aarde.",
      "EUru": "О! (player name)!\nПожалуйста, не пугай меня так!\nМое бедное сердце! Да и частицы\nмоего духа снова разлетелись.\nТакое со мной уже случалось,\nи в итоге все обошлось, но это\nбыло непросто.",
      "JPja": "って、(player name)さんですか\nもう、驚かさないでくださいよぉ～\n心臓が　止まるかと思いました・・・\nまた　たましいが　飛び散っちゃいましたよ\n先ほどは　自力でなんとかしましたが、\n大変だったんですから",
      "KRko": "앗, (player name)님이셨군요!\n아휴, 놀랐잖아요오오～!\n심장이 멎는 줄 알았잖아요...\n또 영혼이 뿔뿔이 흩어졌네요...\n저번에는 제 힘으로 겨우겨우 수습했지만\n얼마나 고생했다구요...",
      "TWzh": "呃，是(player name)啊。\n真是的，請您不要再嚇我了～！\n我嚇得心跳都要停止了……\n靈魂又四處飛散了……\n剛才，我努力想靠自己的力量撐住不要散開，\n但實在是太辛苦了。",
      "USen": "Oh! (player name)!\nPlease don't scare me like that! My\nheart can't take it! Aaaaand the\npieces of my spirit took off again.\nI managed to sort it out earlier, but\nit was back-breaking work.",
      "USes": "¡Aaah, (player name)!\n¿Otra vez? Yo no puedo más con\nestos sustos... Y mi esencia se\nvolvió a deshacer, uuuh.\nLa última vez pude arreglármelas\nsolo para reunir todas las volutas,\npero me costó muchísimo.",
      "USfr": "Oh! (nom du joueur)!\nTu m'as fait une peur atroce! Mon\ncœur a bien failli lâcher, et j'ai à\nnouveau perdu mes esprits!\nLa dernière fois, j'ai réussi à les\nrassembler, mais je n'ai pas la force\nde recommencer..."
    }
  },
  {
    "label": "051",
    "attribute": "0x00000000",
    "locale": {
      "CNzh": "……所以这次，\n你是否愿意再帮我\n收集魂魄呢？\n请帮帮我吧，\n我会好好感谢你的！",
      "EUde": "Wäre es möglich, dass du dich jetzt\nauf die Suche nach den Fragmenten\nmeiner Seele machst?\nEs gibt auch eine Belohnung,\nversprochen!",
      "EUen": "Could I...bother you to collect the\npieces of my spirit this time?\nI'll prepare a reward for you and\neverything! Promise!",
      "EUes": "¿Me harías el favor de ir a buscar\nlas volutas por mí?\nTe prometo que te lo agradeceré\ncomo es debido.",
      "EUfr": "Accepterais-tu de m'aider, cette\nfois-ci ? Tu veux bien rassembler\nmes esprits pour moi ?\nSi tu me rends ce service, tu ne le\nregretteras pas ! Je te donnerai une\nbelle récompense, c'est promis !",
      "EUit": "Non è che potresti... occuparti tu\ndi raccooooogliere i pezzi del mio\nspirito questa volta?\nIo ti darò una ricompensa, con tutti\ngli annessi e connessi, promessi!\nEhm... volevo dire promesso!",
      "EUnl": "Mag ik je vragen... of jij deze keer de\nflarden van mijn geest voor me kunt\nterughalen?\nIk zorg dat er aan het eind een\nbeloning op je wacht. Erewoord!",
      "EUru": "Могу ли я... надеяться на то, что ты\nи в этот раз соберешь все частицы\nмоего духа?\nБез награды ты не останешься,\nобещаю!",
      "JPja": "・・・ということで　今度こそ、\n飛び散った　わたくしの　たましいを、\n集めてきて　いただけないでしょうか？\nお礼も　ちゃんと　させていただきますので\nどうか　お願いいたします！",
      "KRko": "...그래서 말인데 이번에는\n흩어진 제 영혼을\n모아주시면 안 될까요?\n사례도 제대로 드릴 테니까\n꼭 좀 부탁드려요!",
      "TWzh": "……也就是說，這次\n能請您幫我\n把我四散的靈魂收集回來嗎？\n我會好好報答您的，\n請您幫幫我吧！",
      "USen": "Could I...bother you to collect the\npieces of my spirit this time?\nI'll prepare a reward for you and\neverything! Promise!",
      "USes": "¿Me harías el favor de ir a buscar\nlas volutas por mí?\nTe prometo que te lo agradeceré\ncomo es debido.",
      "USfr": "Accepterais-tu de m'aider, cette\nfois-ci? Tu veux bien rassembler\nmes esprits pour moi?\nSi tu me rends ce service, tu ne le\nregretteras pas! Je te donnerai une\nbelle récompense, c'est promis!"
    }
  },
  {
    "label": "052",
    "attribute": "0x00000000",
    "locale": {
      "CNzh": "咦？\n你没有拿捕虫网……？\n啊～用那边掉落的\n树枝之类的赶紧制作一下，\n简简单单的就行了……",
      "EUde": "Huch? Du hast keinen Kescher.\nAber du kannst dir ja aus Ästen ein\nProvisorium bauen...",
      "EUen": "Huh? You don't seem to have a net...\nWell, maybe just make a quick\none using one of the branches\nlying around?",
      "EUes": "Uh, pero parece que no tienes\nuna red.\nPuedes fabricarte una con alguna\nrama que encuentres tirada por ahí.",
      "EUfr": "Oh, mais ? Ne me dis pas que tu\nn'as pas de filet...\nEh bien, j'imagine que tu peux\ntoujours en fabriquer un avec\nquelques branches qui traînent...",
      "EUit": "Oh? Mi seeeeembra che tu non\naaaaabbia un retino...\nBeh, te ne puoi sempre fare uno\nsenza pretese usando un ramo che\ntrovi in giro...",
      "EUnl": "Goh? Heb je geen net?\nNu ja, je hebt zo een eenvoudig\nexemplaar gemaakt van de takken\ndie je hier overal vindt...",
      "EUru": "Ой! По-моему, у тебя даже\nнет сачка...\nПопробуй смастерить себе хоть\nплохонький из веток, которые\nздесь валяются...",
      "JPja": "えっ？\nあみを　お持ちではない・・・？\nあぁ～、そんなの　そこらへんに落ちてる\nきのえだとかを使って　ちゃちゃっと作った\nしょぼいやつで　十分ですので・・・",
      "KRko": "네?\n잠자리채가 없으시다구요...?\n에휴～ 그런 건 주변에 널려 있는\n나뭇가지로 뚝딱뚝딱 대충 만든\n엉성한 걸로도 충분하다구요...",
      "TWzh": "什麼？\n您說您沒有捕蟲網……？\n啊～捕蟲網這種東西，\n用掉在那裡的樹枝隨便做一個，\n簡簡單單的就行了……",
      "USen": "Huh? You don't seem to have a net...\nWell, maybe just make a quick\none using one of the branches\nlying around?",
      "USes": "Uh, pero parece que no tienes\nuna red.\nPuedes fabricarte una con alguna\nrama que encuentres tirada por ahí.",
      "USfr": "Oh, mais? Ne me dis pas que tu\nn'as pas de filet...\nEh bien, j'imagine que tu peux\ntoujours en fabriquer un avec\nquelques branches qui traînent..."
    }
  },
  {
    "label": "053",
    "attribute": "0x00000000",
    "locale": {
      "CNzh": "这件事就拜托你了～\n谢谢……谢谢……",
      "EUde": "Ich verlasse mich auf dich! Danke!",
      "EUen": "I'm counting on you! Thank you!",
      "EUes": "¡Cuento contigo, compi!\n¡Y gracias!",
      "EUfr": "Je compte sur toi ! Merci beaucoup !",
      "EUit": "Conto su di te! Graaaaazie!",
      "EUnl": "Ik reken op je! Mijn dank is groot!",
      "EUru": "Я на тебя рассчитываю!\nСпасибо огромное!",
      "JPja": "では　よろしく　お願いいたしますぅ～\nありがたや・・・　ありがたや・・・",
      "KRko": "그럼 부탁드리겠습니다～\n이 은혜를 어떻게 하면 좋을지...",
      "TWzh": "那麼，這件事就拜託您了～\n感激不盡……感激不盡……",
      "USen": "I'm counting on you! Thank you!",
      "USes": "¡Cuento contigo!\n¡Y gracias!",
      "USfr": "Je compte sur toi! Merci beaucoup!"
    }
  },
  {
    "label": "060",
    "attribute": "0x00000000",
    "locale": {
      "CNzh": "哇～！\n啊，(player name)啊？\n刚才真是谢谢你。",
      "EUde": "WAAAAAAH! Oh. Du bist's nur,\n(Spielername). Puh.\nDanke noch mal für deine Hilfe.",
      "EUen": "AIIIEEEEEEE! Oh. It's just you,\n(player name). Whew.\nThanks for your help earlier.",
      "EUes": "¡Uaaaah! ¿Uh? ¡Pero si eres tú,\n(player name)! Menos mal...\nGracias por echarme una mano\ncon aquello.",
      "EUfr": "AAAAAAAAAH ! Oh. C'est toi,\n(nom du joueur). J'aime mieux ça !\nJe te remercie de m'avoir aidé,\nl'autre fois.",
      "EUit": "AAAAAAAAAAAAAAAH! Oh. Sei tu,\n(player name). Fiuuuuu.\nGrazie mille per il tuo aiutooooo.",
      "EUnl": "IIIEEEEEEEK! O, jij bent het maar,\n(player name). Fjoe.\nBedankt voor je hulp laatst.",
      "EUru": "Ой-ой-ой! А, это ты,\n(player name). Уф.\nСпасибо, что ты мне помог.",
      "JPja": "ひぃ～っ！\nって、(player name)さんでしたか\n先ほどは、どうも　ありがとうございました",
      "KRko": "히이익～!\n아, (player name)님이셨군요\n지난번에 도와주셔서 감사합니다",
      "TWzh": "咿～！\n啊，是(player name)啊？\n剛才真的非常感謝您。",
      "USen": "AIIIEEEEEEE! Oh. It's just you,\n(player name). Whew.\nThanks for your help earlier.",
      "USes": "¡Uaaaah! ¿Uh? ¡Pero si eres tú,\n(player name)! Menos mal...\nGracias por ayudarme antes.",
      "USfr": "AAAAAAAAAH! Oh. C'est toi,\n(nom du joueur). J'aime mieux ça!\nJe te remercie de m'avoir aidé,\nl'autre fois."
    }
  },
  {
    "label": "061",
    "attribute": "0x00000000",
    "locale": {
      "CNzh": "因为某些原因，\n我变成了现在这个样子……",
      "EUde": "Was gibt es hier zu gucken? Es gibt\neinen guten Grund, warum ich in\ndiesem Zustand bin...",
      "EUen": "What are you looking at? There's a\nvery, very good reason why I'm like\nthis right now...",
      "EUes": "¿Q-qué pasa? Ya sé que mi aspecto\nes un poco extraño, pero tiene una\nexplicación...",
      "EUfr": "Qu'y a-t-il ? C'est mon apparence\nqui te surprend ? Elle s'explique\npourtant bien facilement...",
      "EUit": "Cos'hai da guardare? C'è un motivo ben preciso se ora mi ritrooooovo\nin queste condizioooooni...",
      "EUnl": "Waar staar je naar? Er is een heel,\nheel goede reden waarom ik er op\nhet ogenblik zo uitzie...",
      "EUru": "Что ты так смотришь? Я выгляжу\nтак неспроста. На это есть\nпричины...",
      "JPja": "今は　訳あって\nこんな姿に　なってしまっているのです・・・",
      "KRko": "지금은 사정이 있어서\n이런 모습이 되고 말았답니다...",
      "TWzh": "因為某些原因，\n我變成了這個樣子……",
      "USen": "What are you looking at? There's a\nvery, very good reason why I'm like\nthis right now...",
      "USes": "¿Q-qué pasa? Ya sé que mi aspecto\nes un poco extraño, pero tiene una\nexplicación...",
      "USfr": "Qu'y a-t-il? C'est mon apparence\nqui te surprend? Elle s'explique\npourtant bien facilement..."
    }
  },
  {
    "label": "065_01",
    "attribute": "0x00000000",
    "locale": {
      "CNzh": "等等，(player name)！\n我不是魂魄啊！",
      "EUde": "Hey! Du weißt schon, dass ich\nkein Seelenfragment bin, oder,\n(Spielername)?",
      "EUen": "Hey! You know that I am not a spirit\npiece...right, (player name)?",
      "EUes": "¡Eeeh! ¡Que yo no soy una voluta!\nUuuh...",
      "EUfr": "Voyons, voyons ! Ne me dis pas que\ntu me prends pour l'un de mes\nesprits, (nom du joueur) !",
      "EUit": "Ehi, (player name)! Io non sono un pezzo di spirito, lo sai veeeeero?",
      "EUnl": "Hé zeg! Je weet toch wel dat ik geen\nflard van mijn geest ben, (player name)?",
      "EUru": "Ой! Я не частица духа, ты же\nпонимаешь, (player name)?",
      "JPja": "ちょっと、(player name)さん！\nわたくしは　たましいでは　ございません！",
      "KRko": "저기, (player name)님!\n저는 영혼이 아니에요!",
      "TWzh": "等一下，(player name)！\n我不是靈魂啊！",
      "USen": "Hey! You know that I am not a spirit\npiece...right, (player name)?",
      "USes": "¡Eeeh! ¡Que yo no soy una voluta!\nUuuh...",
      "USfr": "Voyons, voyons! Ne me dis pas que\ntu me prends pour l'un de mes\nesprits, (nom du joueur)!"
    }
  },
  {
    "label": "065_02",
    "attribute": "0x00000000",
    "locale": {
      "CNzh": "那个，我是本体哦～！\n请不要把我错当成魂魄～",
      "EUde": "Öööh... Ich bin es nur.\nBitte verwechsle mich nicht mit\neinem meiner Seelenfragmente, ja?",
      "EUen": "Ummmm... This is just me. Please\ndon't confuse me for a piece of my\nspirit, OK?",
      "EUes": "¡Oye, que soy Buh! No me confundas\ncon una voluta, por favor...",
      "EUfr": "Mais, mais, mais... c'est moi,\nenfin ! Tu m'as pris pour l'un\nde mes esprits, peut-être ?",
      "EUit": "Mmmmmh... Ehi, sono io! Non\nconfondermi con uno dei pezzi\ndel mio spirito, OK?",
      "EUnl": "Eeeh... Dit ben ik zelf. Verwar me\nalsjeblieft niet met de flarden van\nmijn geest. Dit is al moeilijk genoeg.",
      "EUru": "Эх... Это же я. Не путай меня\nс частицами моего духа, ладно?",
      "JPja": "あの、わたくしが　本体ですよ～！\nたましいと　間違えないでください～",
      "KRko": "저기, 제가 본체예요～!\n영혼이랑 헷갈리지 말아주세요～",
      "TWzh": "那個，我是本體啦～！\n請您不要把我當成靈魂啊～",
      "USen": "Ummmm... This is just me. Please\ndon't confuse me for a piece of my\nspirit, OK?",
      "USes": "¡Oye, que soy Buh! No me confundas\ncon una voluta, por favor...",
      "USfr": "Mais, mais, mais... c'est moi,\nenfin! Tu m'as pris pour l'un\nde mes esprits, peut-être?"
    }
  },
  {
    "label": "065_03",
    "attribute": "0x00000000",
    "locale": {
      "CNzh": "等、等一下！\n我说过不能抓我的！\n请去抓魂魄吧～！",
      "EUde": "Hey! Nicht mich sammeln!\nSondern meine Seelenfragmente!\nBitte!",
      "EUen": "Hey! You can't collect me!\nYou should be collecting my\nspirit pieces!",
      "EUes": "¡Uh! ¡Tienes que atrapar volutas,\nno a mí!",
      "EUfr": "Oh ! Tu ne peux pas m'attraper \ncomme ça, voyons ! Ce sont mes\nesprits que tu dois retrouver !",
      "EUit": "Ehi! Non sono un pezzo da\nraccogliere, io! Devi raccooooogliere\ni pezzi del mio spirito, inteeeeesi?!",
      "EUnl": "Hé daar! Je hoeft mij niet te\nverzamelen! Je moet de flarden\nvan mijn geest verzamelen!",
      "EUru": "Ой! Меня-то зачем ловить?! Тебе\nследовало бы собирать мои\nчастицы духа!",
      "JPja": "ちょ、ちょっと！\nわたくしは　つかまえられません　ってば！\nたましいの方を　つかまえてくださいよ～！",
      "KRko": "자, 잠깐만요!\n저는 잡을 수 없다구요!\n저 말고 영혼을 잡아주세요～!",
      "TWzh": "等、等一下！\n我就說您不能抓我了！\n請您去抓靈魂吧～！",
      "USen": "Hey! You can't collect me!\nYou should be collecting my\nspirit pieces!",
      "USes": "¡Uh! ¡Tienes que cazar volutas,\nno a mí!",
      "USfr": "Oh! Tu ne peux pas m'attraper \ncomme ça, voyons! Ce sont mes\nesprits que tu dois retrouver!"
    }
  },
  {
    "label": "070",
    "attribute": "0x00000000",
    "locale": {
      "CNzh": "这附近怎么到处都坑坑洼洼的，\n好难走啊……\n嘿嘿，我是飘着移动的，也不影响啦。",
      "EUde": "Bei den vielen Löchern hier im Boden\nfällt das Laufen ganz schön schwer...\nAber was weiß ICH schon davon!",
      "EUen": "Seems like it'd be hard to walk with\nall these holes in the ground...\nNot that I'd knoooow.",
      "EUes": "Parece que va a ser difícil andar\ncon tantos agujeros en el suelo...\nAunque a mí debería darme igual.",
      "EUfr": "Avec tous ces trous dans le sol,\nmarcher doit être laborieux...\nAprès, moi je dis ça, mais je ne sais\nmême pas de quoi je parle !",
      "EUit": "Mi sembra difficile camminare con\ntutte queste b-buche in giiiiiro...\nNon che io ne sappia qualcosa.",
      "EUnl": "Het is vast lastig lopen hier, met al\ndie gaten in de grond... Niet dat ík\ndaar iets van afweet.",
      "EUru": "Неудобно, наверное, по всем этим\nямам ходить... Хотя откуда мне\nзнать.",
      "JPja": "なんだか　このあたり\n穴ぼこだらけで　歩きにくいですね・・・\nいやまぁ、わたくし　浮いてるんですけど",
      "KRko": "어떻게 된 일인지 이 근처에\n구멍이 잔뜩 있어서 걷기가 힘드네요...\n뭐, 저는 둥둥 떠다니고 있지만요～",
      "TWzh": "這附近不知道為什麼有好多坑洞，\n感覺好難走喔……\n不過我是用飄的就是了。",
      "USen": "Seems like it'd be hard to walk with\nall these holes in the ground...\nNot that I'd knoooow.",
      "USes": "Parece que va a ser difícil caminar\ncon tantos agujeros en el suelo...\nAunque a mí debería darme igual.",
      "USfr": "Avec tous ces trous dans le sol,\nmarcher doit être laborieux...\nAprès, moi je dis ça, mais je ne sais\nmême pas de quoi je parle!"
    }
  }
]