﻿[
  {
    "label": "001",
    "attribute": "0x0000000000000000",
    "locale": {
      "CNzh": "咦？有什么事？。",
      "EUde": "Hmm? Was kann das sein,\n(Floskel)?",
      "EUen": "Hmm? What's this?",
      "EUes": "¿Eh? ¿Qué tenemos aquí?",
      "EUfr": "Hmm ? Qu'est-ce que c'est ?",
      "EUit": "Mmmh? Che sarà, ?",
      "EUnl": "Hmm? Wat dan wel?",
      "EUru": "А ну-ка! Что там у тебя?",
      "JPja": "え？　何かな？　",
      "KRko": "음? 무슨 일이지? ?",
      "TWzh": "咦？有什麼事嗎？。",
      "USen": "Hmm? What's this?",
      "USes": "¿Eh? ¿Qué tenemos aquí?",
      "USfr": "Hmm? Qu'est-ce que c'est?"
    }
  },
  {
    "label": "002",
    "attribute": "0x0000000000000000",
    "locale": {
      "CNzh": "呵呵呵，\n这样就想吸引我的注意？\n真叫人为难呢……。",
      "EUde": "So, so... Na, du bist mir ja ein Clown,\n(Floskel).",
      "EUen": "Oh, you're a trickster, eh?",
      "EUes": "Vaya, veo que tratas de llamar\nmi atención, ¿no, listillo?",
      "EUfr": "Oh, je vois. J'ai affaire à quelqu'un\nqui a un sens de l'humour pour\nle moins conceptuel.",
      "EUit": "Oh, ti stai prendendo juego di me,\nper caso?",
      "EUnl": "O, bijdehandje, hè?",
      "EUru": "Шуточки шутим, да?",
      "JPja": "フフフ、そんなんで\nボクの　気を引くつもりかい？\nまったく　困った人だ・・・、",
      "KRko": "후후후, 그렇게\n내 관심을 끌고 싶은 건가?\n정말 곤란하다니깐... ...",
      "TWzh": "呵呵呵，你就那麼想要\n吸引我的注意力嗎？\n真是讓人困擾的小可愛呢……。",
      "USen": "Oh, you're a trickster, eh?",
      "USes": "Vaya, veo que estás tratando de\nllamar mi atención, ¿eh?",
      "USfr": "Oh, je vois. J'ai affaire à quelqu'un\nqui a un sens de l'humour pour\nle moins conceptuel."
    }
  },
  {
    "label": "003",
    "attribute": "0x0000000000000000",
    "locale": {
      "CNzh": "啊，是借给的\n那个东西吗～！",
      "EUde": "Hey! Hatte ich \nnicht vor einer Weile was\nausgeliehen?!",
      "EUen": "Huh? Didn't I let \nborrow something a while back?",
      "EUes": "¡Ahí va! ¿Será aquello que le presté\nhace la tira a ?",
      "EUfr": "Ouah ! Ce serait pas ce que j'ai prêté\nà  il y a une éternité ?",
      "EUit": "Oh! Avevo prestato una cosa   tiempo fa!",
      "EUnl": "Hè?! Dit heeft  toch een hele tijd terug van me geleend?",
      "EUru": "Хм? Я вроде что-то одалживал\n, но уже плохо помню.",
      "JPja": "あっ、に\n貸してた　例のヤツか～！",
      "KRko": "앗, 군에게\n빌려줬던 물건이로군～?",
      "TWzh": "啊，這是我借給的\n那個東西啊～！",
      "USen": "Huh? Didn't I let \nborrow something a while back?",
      "USes": "¡Vaya! ¿Será eso que le presté a  hace un tiempo?",
      "USfr": "Wow! Ce serait pas ce que j'ai prêté\nà  y'a une éternité?"
    }
  },
  {
    "label": "004",
    "attribute": "0x0000000000000000",
    "locale": {
      "CNzh": "我的遗失物品？",
      "EUde": "Ich habe etwas liegen gelassen?",
      "EUen": "You're saying I lost something?",
      "EUes": "¿Dices que se me había perdido?",
      "EUfr": "Tu veux dire que j'ai perdu quelque\nchose ?",
      "EUit": "Vuoi dire che ho dimenticato\nqualcosa?",
      "EUnl": "Zeg je dat ik iets verloren ben?",
      "EUru": "Что? Я что-то где-то оставил?!",
      "JPja": "ボクの　忘れ物だって？",
      "KRko": "내가 잃어버린 물건이라고?",
      "TWzh": "我忘記帶走的東西？",
      "USen": "You're saying I lost something?",
      "USes": "¿Dices que se me había perdido?",
      "USfr": "Tu veux dire que j'ai perdu quelque\nchose?"
    }
  },
  {
    "label": "005",
    "attribute": "0x0000000000000000",
    "locale": {
      "CNzh": "那边\n收到了寄给我的包裹？",
      "EUde": "Warte, mein Paket wurde an\n geliefert?",
      "EUen": "Wait, my package went to\n by mistake?",
      "EUes": "¿Le habían entregado el paquete\na  por error?",
      "EUfr": "Un colis pour moi a été livré chez\n par erreur ?",
      "EUit": "Un momento, il mio pacco è arrivato\n  per errore?",
      "EUnl": "Wacht, is mijn pakje per ongeluk bij\n afgeleverd?",
      "EUru": "Серьезно?! Мою посылку\nпо ошибке доставили\n?!",
      "JPja": "の所に\nボク宛の　荷物が？",
      "KRko": "군 집에\n내 앞으로 온 물건이?",
      "TWzh": "應該要給我的包裹……\n送到那裡去了？",
      "USen": "Wait, my package went to\n by mistake?",
      "USes": "¿Le entregaron el paquete\na  por error?",
      "USfr": "Un colis pour moi a été livré chez\n par erreur?"
    }
  },
  {
    "label": "006",
    "attribute": "0x0000000000000000",
    "locale": {
      "CNzh": "\n给我的礼物？！",
      "EUde": "Du hast ein Geschenk für mich von\n?",
      "EUen": "You have a gift for me\nfrom ?",
      "EUes": "¿ te ha pedido\nque me traigas un regalo?",
      "EUfr": "Tu as un cadeau pour moi de la part\nde  ?",
      "EUit": "Hai un regalo por mi da parte di ?",
      "EUnl": "Heb jij een cadeau voor me van ?",
      "EUru": "Ух ты! Подарок от ?",
      "JPja": "から\nボクに　プレゼント？！",
      "KRko": "군이\n내게 선물을?!",
      "TWzh": "\n有禮物要送給我！？",
      "USen": "You have a gift for me\nfrom ?",
      "USes": "¿ te pidió\nque me trajeras un regalo?",
      "USfr": "Tu as un cadeau pour moi de la part\nde ⁠?"
    }
  },
  {
    "label": "007",
    "attribute": "0x0000000000000000",
    "locale": {
      "CNzh": "给我的？",
      "EUde": "Moment mal. Das kommt von\n?",
      "EUen": "Wait.  sent this?",
      "EUes": "¿Cómo? ¿Que \nme envía esto? ¿Estás seguro?",
      "EUfr": "Hein ? C'est  qui m'envoie ça ?",
      "EUit": "Aspetta un momento...  mi manda questo?",
      "EUnl": "Wacht. Heeft  dit gestuurd?",
      "EUru": "Погоди-погоди... \nпередал мне подарок?..",
      "JPja": "が　ボクに？",
      "KRko": "군이 내게?",
      "TWzh": "這是要給我的？",
      "USen": "Wait.  sent this?",
      "USes": "¿Cómo? ¿Que \nme envía esto? ¿Estás seguro?",
      "USfr": "Hein? C'est  qui m'envoie ça?"
    }
  },
  {
    "label": "101",
    "attribute": "0x0000000000000000",
    "locale": {
      "CNzh": "，\n有把向我借东西的事\n好好放在心上呢……\n而且还好好包装起来才还给我，\n这份不可忽视的用心，\n非常有她的风格呢。",
      "EUde": "Hach, wenn sich jemand an so etwas\nerinnert, dann .\nUnd sie hat es sogar richtig\nordentlich verpackt! Das ist ganz\nunsere , oder?",
      "EUen": "Aww, leave it to \nto actually remember something\nlike this.\nAnd she even wrapped it up all\nnicely! That's just like her, isn't it?",
      "EUes": "Debo decir que es un detalle\nbastante amable por parte\nde ...\nY viene envuelto con mucha clase,\n¡como es propio de ella!",
      "EUfr": "C'est bien aimable de la part\nde  de s'en être souvenue.\nEt en plus, elle s'est fendue d'un\nemballage de première classe,\nce qui ne gâche rien.",
      "EUit": "Oh, che gentile da parte di  ricordarsi.\nE ha anche fatto un bel pacchetto!\nNon ci si poteva aspettare altro da\nlei, no?",
      "EUnl": "O ja, zoiets kun je wel aan  overlaten. Ze onthoudt altijd alles.\nEn ze heeft het zelfs mooi ingepakt!\nEcht iets voor haar, toch?",
      "EUru": "И как  вспомнила\nоб этой вещи?\nОна даже позаботилась о красивой\nупаковке! Как это мило\nс ее стороны...",
      "JPja": "、\n借りてたこと　ちゃんと\n覚えていてくれたんだ・・・\nていねいに包んで　返してくれるなんて\nちょっとした　気づかいが\nカノジョらしいね",
      "KRko": "양,\n빌려갔던 거\n잊지 않고 있었구나...\n포장까지 예쁘게 해서 돌려주다니\n이런 세심한 배려가\n양다운걸～",
      "TWzh": "原來\n還記得他跟我借了這個啊……\n居然這麼細心包裝以後，\n才送回來給我……\n真像她的作風呢。",
      "USen": "Aww, leave it to \nto actually remember something\nlike this.\nAnd she even wrapped it up all\nnicely! That's just like her, isn't it?",
      "USes": "Debo decir que es un gesto\nbastante amable por parte\nde ...\nY viene envuelto con mucha clase,\n¡como es propio de ella!",
      "USfr": "Ça me fait plaisir\nque ⁠ s'en soit souvenue.\nEt en plus, j'ai droit à un emballage\nde première classe. Je la reconnais\nbien dans ces petites attentions."
    }
  },
  {
    "label": "102",
    "attribute": "0x0000000000000000",
    "locale": {
      "CNzh": "哦——做了\n这样的包装啊……\n呵呵呵，是罪恶感作祟吧。\n能做到这种程度，\n就好像收到了礼物一样，\n感觉还有点开心呢。",
      "EUde": "Sieh mal an,  hat es gleich noch zuckersüß verpackt. Das Mädchen hat Stil!\nIch fühle mich fast, als würde ich ein\nGeschenk bekommen, dabei war es\ndoch nur ausgeliehen, (Floskel)!",
      "EUen": "Leave it to  to\nwrap it up in a cute package.\nThe girl's got style!\nAnd now it feels like I'm getting a\ngift, even though I'm only getting\nmy own item back, (catchphrase)!",
      "EUes": "Parece que  me\nlo ha envuelto con todo su esmero.\n¡Esa chica es una joya!\n¡Es como si me hicieran un regalo,\naunque el objeto ya fuera mío!",
      "EUfr": "C'est tout  de se fendre d'un joli paquet. Je vais te dire un truc, cette fille a de la classe.\nEt elle sait s'y prendre ! Elle ne fait\nque me rendre un objet à moi, et j'ai\nl'impression de recevoir un cadeau.",
      "EUit": " è una garanzia quando si tratta di impacchettare regali. Lei sì che ha stile!\nE ora mi sembra di ricevere un regalito, anche se sto solo ricevendo una cosa già mia, (catchphrase)!",
      "EUnl": "Echt iets voor  om er zo'n mooi pakje van te maken. Die meid heeft stijl!\nHet voelt nu alsof ik een cadeautje\nkrijg, terwijl ik alleen mijn eigen ding\nterugkrijg. (catchphrase)!",
      "EUru": "Только  могла\nтак красиво завернуть вещь!\nВыглядит так, как будто\nя получил подарок!\n(catchphrase)!",
      "JPja": "ふーん、が\nこのラッピングをね～・・・\nフフフ、罪悪感の現れかな\nここまで　してもらえると\nプレゼントを　もらったみたいで\nなんだか　嬉しいよ",
      "KRko": "흐음, 양이\n이런 포장을...\n후후후, 죄책감이라도 느낀 거려나\n이렇게 예쁘게 해서 돌려주다니\n선물이라도 받은 기분인걸\n왠지 기쁘다구～",
      "TWzh": "哦～\n包了這樣的包裝嗎……\n呵呵，看來她是有一點罪惡感呢。\n裝飾得這麼漂亮，\n好像在收禮物一樣，\n總覺得很開心呢。",
      "USen": "Leave it to  to\nwrap it up in a cute package.\nThe girl's got style!\nAnd now it feels like I'm getting a\ngift, even though I'm only getting\nmy own item back, (catchphrase)!",
      "USes": "Parece que \nlo envolvió con mucho esmero.\n¡Esa chica es una joya!\n¡Es como si me hicieran un regalo,\naunque el objeto ya era mío!",
      "USfr": "C'est tout  de me faire un joli paquet. Je vais te dire un truc, cette fille a de la classe.\nEt elle sait s'y prendre! Elle ne fait\nque me rendre un objet à moi, et j'ai\nl'impression de recevoir un cadeau."
    }
  },
  {
    "label": "103",
    "attribute": "0x0000000000000000",
    "locale": {
      "CNzh": "不愧是……\n有好好包装起来呢。\n像这样体贴他人的女性，\n实在是非常美好呢～",
      "EUde": "Natürlich würde  sogar etwas einpacken, das sie sich von mir ausgeliehen hat. Typisch!\nEigentlich... gar keine so schlechte\nIdee! Avantgardistisch ist es\njedenfalls! Ha-HA!",
      "EUen": "Of course  would\nwrap up my own item just to give\nit back to me. Classic.\nHeh... Actually, I kind of like it\nbetter like this.",
      "EUes": "Muy típico de ,\nhaberse preocupado de ponerle\nun envoltorio.\nAunque... la verdad es que me gusta\ncómo le ha quedado.",
      "EUfr": "Bien sûr,  m'a fait un charmant emballage. Pour me rendre mon objet.\nMais il faut admettre que ça lui\najoute une indéniable touche de\nclasse. Ha HA !",
      "EUit": " che incarta una cosa già mia prima di restituirmela. Ovvio. È un classico.\nPerò mi sorprende mucho che non\nabbia messo anche un bel fiocco sul\npacchetto. Ah ah!",
      "EUnl": "Natuurlijk pakt  iets van mij in als een cadeautje. Schitterend.\nHm... Eigenlijk bevalt me dit wel.\nHaHA!",
      "EUru": "Какая прелесть!  так\nкрасиво завернула мою вещь, что\nкажется, будто это подарок!\nХм... Правду говоря, мне так даже\nбольше нравится.",
      "JPja": "さすが　・・・\nちゃんと　ラッピングしてるね\nこんな風に　気づかいができる女性って\nステキだと　思うなぁ～",
      "KRko": "역시 양이네...\n포장까지 예쁘게 해주고 말이지\n양은 이런 배려심이\n참 멋있다니까～",
      "TWzh": "不愧是……\n真是完美的包裝！\n我覺得啊，像這樣貼心的女性\n真的很棒～！",
      "USen": "Of course  would\nwrap up my own item just to give\nit back to me. Classic.\nHeh... Actually, I kind of like it\nbetter like this.",
      "USes": "Muy típico de ,\nhaberse preocupado de ponerle\nun envoltorio.\nAunque... la verdad es que me gusta\ncómo le quedó.",
      "USfr": "Bien sûr,  m'a fait un charmant emballage. Voilà qui ne m'étonne pas d'elle.\nLa seule chose qui me surprend,\nc'est qu'elle ait renoncé au petit\nnœud sur le haut du paquet. Ha HA!"
    }
  },
  {
    "label": "104",
    "attribute": "0x0000000000000000",
    "locale": {
      "CNzh": "哎～做了\n这个包装啊……真叫人意外～\n她时不时展现出的\n这种专属于女性的体贴，\n很叫人心动呢。",
      "EUde": "Hey, hat  das wirklich selbst verpackt? Das ist ungewohnt aufmerksam von ihr.\nOder sie wollte nicht, dass ich zu\nfrüh merke, dass es von ihr ist.\nHa-HA!",
      "EUen": "Wow, did  actually\nwrap this? That's weirdly considerate\nof her.\nOr maybe she thought she had to\nsmuggle it to me, like I was in\ndetention at school. Ha HA!",
      "EUes": "¡¿Y este envoltorio es cosa\nde ?! No me\nesperaba un detalle así de ella...\n¿Pensaría que si no tiene pinta\nde regalo, le iban a cobrar\nimpuestos en la aduana? ¡Je, je!",
      "EUfr": "Oh,  a fait le paquet elle-même ? C'est très délicat, surtout pour elle...\nComme quoi, elle peut se montrer\nadorable, quand elle veut.",
      "EUit": "Sorbole! L'ha incartato ? È mucho premuroso da parte sua.\nO forse ha pensato che dovesse\nconsegnarmelo di nascosto senza\nche lo vedessero gli altri. Ah ah!",
      "EUnl": "Wauw, heeft  dit echt ingepakt? Dat is echt raar attent van haar.\nZe houdt wel van aanpakken, maar\nkennelijk ook van inpakken. HaHA!",
      "EUru": "Ух ты,  позаботилась\nо такой красивой упаковке? Как\nнеожиданно...\nНаверное, ей просто было нечем\nзаняться... Хо-хо!",
      "JPja": "へ～、が\nこのラッピングをね・・・意外だな～\n時おり見せる　こういう女性らしい\nカノジョの　気づかいに\nドキッと　させられるんだよね",
      "KRko": "오호～ 양이\n이렇게 포장을... 의외인걸～\n이렇게 은근히 챙겨주는 모습이\n날 두근거리게 한다니깐～",
      "TWzh": "哦～這個包裝是\n選的嗎……真讓人意外～\n像她這樣偶爾表現出溫柔體貼的一面，\n藉此流露出的女性魅力\n就會讓人不禁心動呢。",
      "USen": "Wow, did  actually\nwrap this? That's weirdly considerate\nof her.\nOr maybe she thought she had to\nsmuggle it to me, like I was in\ndetention at school. Ha HA!",
      "USes": "¡¿Y este envoltorio es cosa\nde ?! No me\nesperaba un gesto así de ella...\n¿Habrá pensado que si no parecía un\nregalo, le iban a cobrar impuestos\nen la aduana? ¡Je, je!",
      "USfr": "Oh,  a fait le paquet elle-même? C'est très délicat, surtout pour elle...\nComme quoi, elle peut se montrer\nadorable, quand elle veut."
    }
  },
  {
    "label": "105",
    "attribute": "0x0000000000000000",
    "locale": {
      "CNzh": "好可爱的包装啊。\n也算是\n为我考虑了不少吧？\n说实话……\n我把这个借出去的时候，\n就没想过它还会回来。",
      "EUde": "Hach,  hat es\nsogar für mich verpackt.\nUm ehrlich zu sein, hatte ich nicht\ndamit gerechnet, es jemals von ihm\nwiederzubekommen.",
      "EUen": "Aww,  even gift-\nwrapped it for me.\nTo be honest, when I left it with him,\nI never expected to see it again, so\nthis is a pleasant surprise.",
      "EUes": "¡Fíjate! ¡Pero si \nle ha puesto un envoltorio como\nsi fuese un regalo!\nA decir verdad, es una agradable\nsorpresa que esta joyita haya vuelto\ncon su dueño.",
      "EUfr": "Oh,  a poussé l'effort jusqu'à l'emballer dans un charmant paquet cadeau.\nSachant que je ne comptais plus\nrevoir cet objet un jour, j'avoue que\nje suis agréablement surpris.",
      "EUit": "Ah,  l'ha persino incartato come un regalito.\nIn tutta sincerità, quando gliel'ho\ndato, pensavo che non l'avrei più\nrivisto. Che sorpresa eccezionale!",
      "EUnl": "O, kijk nou,  heeft het zelfs ingepakt als cadeautje.\nEerlijk gezegd had ik nooit meer\nverwacht het nog terug te zien. Wat\neen aangename verrassing.",
      "EUru": "Надо же,  даже\nпозаботился о красивой\nупаковке...\nЯ и не думал, что он вообще\nвернет мне эту вещь.\nНу, приятный сюрприз!",
      "JPja": "かわいい　ラッピングだね\nなりに\n色々と　気づかってくれたのかな？\n実を　言うと・・・\nもう　返ってこないつもりで\n貸したんだけどね",
      "KRko": "귀여운 포장이로군\n군 나름대로\n신경 써준 거려나?\n사실대로 말하자면...\n앞으로 못 받는 셈 치고\n빌려준 거거든",
      "TWzh": "真是可愛的包裝呢。\n看來也是有努力\n在各種地方表現他的貼心啊。\n說實話……\n我東西借給他以後，\n本來就沒打算要他還了。",
      "USen": "Aww,  even gift-\nwrapped it for me.\nTo be honest, when I left it with him,\nI never expected to see it again, so\nthis is a pleasant surprise.",
      "USes": "¡Fíjate! ¡Pero si \nle puso un envoltorio como\nsi fuese un regalo!\nA decir verdad, es una agradable\nsorpresa que esta joyita haya vuelto\ncon su dueño.",
      "USfr": "Oh,  a poussé l'effort jusqu'à l'emballer dans un charmant paquet cadeau.\nSachant que je comptais plus\nrevoir cet objet un jour, j'avoue que\nje suis agréablement surpris."
    }
  },
  {
    "label": "106",
    "attribute": "0x0000000000000000",
    "locale": {
      "CNzh": "哎～\n做了这个包装啊……\n出人意料地做事有分寸呢……",
      "EUde": "Du willst mir also sagen, dass\n das verpackt hat?\nDas glaube ich dir nicht.",
      "EUen": "Wait, you're telling me that\n wrapped this?\nI don't believe you.",
      "EUes": "¿Esperas que me crea que\n le ha puesto\neste envoltorio? No, no me lo creo.",
      "EUfr": "Quoi ?  se serait fatigué à faire un emballage cadeau ? Et je suis censé croire ces fariboles ?",
      "EUit": "Un momento, vuoi dire che l'ha incartato ? Non ci credo!",
      "EUnl": "Wacht, zeg je me nou dat  dit heeft ingepakt? Ik geloof er niks van.",
      "EUru": "Вот это да!  так\nкрасиво завернул мою вещь!\nПросто не верится!",
      "JPja": "へ～、が\nこのラッピングを・・・\n意外と　ちゃんとしてる　というか・・・",
      "KRko": "오호～ 군이\n이렇게 포장을...\n의외로 예쁘게 되어 있잖아...?",
      "TWzh": "哦～這包裝……\n是包的？\n該說他包得意外地還不錯嗎……",
      "USen": "Wait, you're telling me that\n wrapped this?\nI don't believe you.",
      "USes": "¿Esperabas que me creyera que\n le había puesto este envoltorio? No, no lo creo.",
      "USfr": "Quoi?  se serait fatigué à faire un emballage cadeau? Et je suis censé croire ces niaiseries?"
    }
  },
  {
    "label": "107",
    "attribute": "0x0000000000000000",
    "locale": {
      "CNzh": "不过是一个借来的东西，\n却如此珍惜爱护，\n真是个用情至深的人啊。\n我也要见贤思齐才好～",
      "EUde": "Sag über , was du willst, aber gelegentlich legt er gute Manieren an den Tag.\nSieh nur, wie sorgfältig das\nverpackt ist, (Floskel)!",
      "EUen": "Say what you want about\n, but his\ngeneration has manners.\nLook at how politely he wrapped this!",
      "EUes": "Puede que  sea\nun carcamal, pero la gente de su\ngeneración tiene buen gusto.\n¡Fíjate qué envoltorio le ha puesto!",
      "EUfr": "On dira ce qu'on veut, mais la\ngénération de  a pas été élevée chez les ploucs.\nRegarde un peu ce délicieux\nemballage cadeau ! Si ça ne suinte\npas la plus exquise politesse, ça !",
      "EUit": "Dì quel che ti pare su , ma non che la sua generazione non sia educata.\nGuarda che pacchetto incredibile!",
      "EUnl": "Zeg wat je wilt over , maar zijn generatie heeft manieren.\nMoet je zien hoe mooi dit ingepakt\nis!",
      "EUru": " явно человек\nдругого поколения. Ах, какие\nраньше были манеры!\nОн даже завернул мою вещь\nкак подарок!",
      "JPja": "借り物ひとつに　ここまで\nていねいに　対応してくれるなんて\nどこまでも　情の深い人だね\nボクも　見習わなくちゃな～",
      "KRko": "빌린 물건 하나도 이렇게까지\n정성스럽게 돌려주다니\n정말 사려 깊은 사람이야\n나도 본받아야겠어～",
      "TWzh": "不過是歸還一個東西而已，\n居然對應得這麼細心，\n真是懂得待人接物呢。\n我也應該好好學習一下了～",
      "USen": "Say what you want about\n, but his\ngeneration has manners.\nLook at how politely he wrapped this!",
      "USes": "Es posible que \nsea anticuado, pero la gente de su\ngeneración tiene buen gusto.\n¡Fíjate el envoltorio que le puso!",
      "USfr": "On dira ce qu'on veut, mais la\ngénération de ⁠ a pas été élevée chez les loups.\nRegarde un peu ce délicieux\nemballage cadeau! Si ça suinte\npas la plus exquise politesse, ça!"
    }
  },
  {
    "label": "108",
    "attribute": "0x0000000000000000",
    "locale": {
      "CNzh": "多么优雅的包装品位！\n归还向人借取的物品，\n还送上这样的惊喜……",
      "EUde": "Selbstverständlich hat er es in das\ngleiche trendige Geschenkpapier\nverpackt, das ich auch wählen würde.\nUnd außerdem hat er überhaupt erst\ndaran gedacht, es zurückzugeben.\nEin echter Wahnsinnstyp.",
      "EUen": "Of course he'd wrap this in just\nthe kind of on-trend wrapping that\nI'd pick out myself.\nAnd he thought to return it to me\nin the first place. What a guy.",
      "EUes": "¡Qué envoltorio! Es supermoderno\ny anticuado a la vez, ¡como si\nlo hubiera elegido yo mismo!\n¿Y qué me dices del detallazo en\nsí de devolverme lo que es mío?\n¡Qué bien me cae ese tipo!",
      "EUfr": "Non seulement il rend ce qu'on lui\nprête, mais il l'emballe en plus dans\nun paquet d'un irrésistible bon goût.\nIl n'y a pas à dire, c'est quand même\nquelqu'un d'exceptionnel.",
      "EUit": "L'ha impacchettata con una carta alla\nmoda proprio come l'avrei scelta io.\nPer non parlare del fatto che ha\npensato di restituirmi una cosa\nprestata! Che tipo unico!",
      "EUnl": "Natuurlijk heeft hij dit verpakt in\nmodieus inpakpapier. Ik zou het zelf\nuitgekozen kunnen hebben.\nDat hij er alleen al aan dacht om het\nme terug te geven. Wat een gast.",
      "EUru": "Я даже не удивлен тем, что он\nвыбрал именно эту упаковку,\nона самая модная сейчас!\nЯ мог бы догадаться, что это от\nнего. Кто еще так разбирается\nв трендах... Разве что я сам!",
      "JPja": "なんて　ラッピングセンスなんだ！\n借り物を　返すのに\nこんな　サプライズを・・・",
      "KRko": "엄청난 포장 센스로군!\n빌린 물건을 돌려주면서\n이런 서프라이즈를...",
      "TWzh": "這包裝的品味真是太棒了！\n沒想到他為了歸還物品，\n居然還會準備這樣的驚喜……",
      "USen": "Of course he'd wrap this in just\nthe kind of on-trend wrapping that\nI'd pick out myself.\nAnd he thought to return it to me\nin the first place. What a guy.",
      "USes": "¡Qué envoltorio! Es supermoderno\ny anticuado a la vez, ¡como si\nlo hubiera elegido yo mismo!\n¿Y qué me dices del gesto de devolverme algo que es mío?\n¡Qué bien me cae ese tipo!",
      "USfr": "Non seulement il rend ce qu'on lui\nprête, mais il l'emballe en plus dans\nun paquet d'un irrésistible bon goût.\nY'a pas à dire, c'est quand même\nquelqu'un d'exceptionnel."
    }
  },
  {
    "label": "109",
    "attribute": "0x0000000000000000",
    "locale": {
      "CNzh": "对了对了，\n谢谢你特意送过来！\n。\n那边，\n能替我带声好吗？。",
      "EUde": "Tja, ich bin dir wirklich äußerst\ndankbar, dass du mir das gebracht\nhast, (Spitzname).\nUnd richte \nGrüße von mir aus, ja?",
      "EUen": "Anyway, thank you so much for\nbringing it to me, (nickname).\nGive my regards to\n as well,\nwill you?",
      "EUes": "Por cierto, muchas gracias por\nencargarte tú mismo de la entrega,\n(nickname).\nDale recuerdos a \nde mi parte, ¿vale?",
      "EUfr": "En tout cas, merci d'avoir assuré\nla livraison, (surnom).\nRemercie aussi  de ma part, s'il te plaît.",
      "EUit": "Comunque, muchas gracias per avermelo riportato, (nickname).\nPuoi salutare  da parte mia, por favor?",
      "EUnl": "Heel erg bedankt dat je het naar me\ntoe bracht, (nickname).\nKun je  ook de groeten van me doen?",
      "EUru": "Большущее спасибо, что принес\nмне эту вещь, (nickname)!\nПоблагодари от меня\n, хорошо?",
      "JPja": "そうそう、\nわざわざ　届けてくれて　ありがとう！\n\nにも\nよろしく　伝えてもらえるかな、",
      "KRko": "아, 참\n여기까지 가져다줘서 고마워!\n군\n군한테도\n안부 전해주겠어? ?",
      "TWzh": "對了對了，\n謝謝你特地幫我把東西送過來，\n！\n也請你幫我跟\n打個招呼吧！。",
      "USen": "Anyway, thank you so much for\nbringing it to me, (nickname).\nGive my regards to\n as well,\nwill you?",
      "USes": "Por cierto, muchas gracias por\nencargarte tú mismo de la entrega,\n(nickname).\nDale saludos a \nde mi parte, ¿sí?",
      "USfr": "En tout cas, merci d'avoir assuré\nla livraison, (surnom).\nRemercie aussi  de ma part, s'il te plaît."
    }
  },
  {
    "label": "201",
    "attribute": "0x0000000000000000",
    "locale": {
      "CNzh": "这不是……\n吗！\n我还以为它出门旅行，\n再也没法见面了呢……\n原来在那里啊。",
      "EUde": "Oh... Wenn das nicht  verloren   ist...\nUnd  hat die ganze Zeit bei\n gelegen?\nWas sagt man dazu, (Floskel)!",
      "EUen": "Whoa...it's my long-lost\n, isn't it?\nAll this time it's been at\n's place?\nWell, (catchphrase)!",
      "EUes": "¡Mi ! ¡No me lo puedo creer! ¡Hace mucho que l había dado por perdid!\n¡Y todo este tiempo ha estado en\ncasa de ! ¡Quién lo habría dicho!",
      "EUfr": " que je pensais à jamais perdu !\nEt pendant tout ce temps, \nétait chez  ? Comme quoi... (expression) !",
      "EUit": " che avevo perduto mucho tiempo fa! Sorbole!\nEra a casa di ? Ma pensa un po', (catchphrase)!",
      "EUnl": "Wauw... het  mijn ,  ik al zo lang kwijt was, toch?\nAl die tijd had  ? Nou, (catchphrase)!",
      "EUru": "Вот это да... Это же мой\n!\nОн был дома у ?\n(catchphrase)!",
      "JPja": "これは・・・\nじゃないか！\nどこかに　旅立ってしまって\nもう会えないと　思っていたけど・・・\nの所に　いたんだね",
      "KRko": "이건...\n이잖아?\n어딘가로 떠나버린 줄 알고\n이젠 못 만날 거라 생각했는데...\n군 집에 있었던 거네",
      "TWzh": "這個……不是\n嗎！\n我還以為它已經踏上旅途，\n再也不會回來了……原來是忘在\n那邊了啊。",
      "USen": "Whoa...it's my long-lost\n, isn't it?\nAll this time it's been at\n's place?\nWell, (catchphrase)!",
      "USes": "¡Mi !\n¡No lo puedo creer! ¡Hace mucho\nque l había dado por perdid!\n¡Y todo este tiempo estuvo en la\ncasa de !\n¡Quién lo hubiera dicho!",
      "USfr": " que je pensais à jamais perdu!\nEt pendant tout ce temps,  était chez ? Comme quoi... (expression)!"
    }
  },
  {
    "label": "202",
    "attribute": "0x0000000000000000",
    "locale": {
      "CNzh": "唔，可以给我一点时间吗……\n我也毫无印象……\n不过就快想起来了呀～",
      "EUde": "Moment mal... Ich erinnere mich\nnicht, etwas verloren zu haben. Aber\nwenn das einem passiert, dann mir...",
      "EUen": "Gimme a second here...I really don't\nremember losing anything. But it\nsounds like something I'd do...",
      "EUes": "Esto... Yo no recuerdo haber perdido\nnada... pero puede ser que sí...",
      "EUfr": "Ah, c'est tout moi, ça ! J'oublie\ntoujours à quel point je suis\nétourdi ! Ha HA !",
      "EUit": "Ah... Dammi un attimo di tempo, che\nnon mi ricordo. Sarà la vecchiaia...\nAnzi no. Io sono sempre giovane!",
      "EUnl": "Wacht eens even... Volgens mij was\nik niks kwijt, hoor. Maar het klinkt\nwel als iets voor mij...",
      "EUru": "Секундочку... Не припоминаю,\nчтобы я что-то терял...\nНо если бы я что-то потерял, я бы\nпотерял как раз вот эту вещь...",
      "JPja": "えっと、少し時間をくれるかな・・・\nボクの記憶にも　なくて・・・\nここまで　出かかってるんだけど～",
      "KRko": "으음, 잠시 시간을 주겠어...?\n내 기억 속에도 없어서 말이야...\n생각이 날 듯 말 듯한데～",
      "TWzh": "呃，嗯……可以給我一點時間嗎……\n我實在是沒有印象……\n感覺應該快要想起來了～",
      "USen": "Gimme a second here...I really don't\nremember losing anything. But it\nsounds like something I'd do...",
      "USes": "Este... Yo no recuerdo haber perdido\nnada... pero puede ser que sí...",
      "USfr": "Ah, c'est tout moi, ça! J'oublie\ntoujours à quel point je suis\nétourdi! Ha HA!"
    }
  },
  {
    "label": "203",
    "attribute": "0x0000000000000000",
    "locale": {
      "CNzh": "咦？莫非是……\n我的？\n我还当是弄丢了，\n已经买了新的呢～\n虽然我完全忘记了，\n但\n有在珍惜地使用呢。",
      "EUde": "Das gibt's doch nicht...\nKann das wirklich \n sein?\nIch hatte  verloren geglaubt und\n gekauft. Dabei hatte \n die ganze Zeit!",
      "EUen": "No way... You actually, truly have my\nold !\nI thought it was lost, so I bought a\nnew one. But  has\nhad it the whole time!",
      "EUes": "¡Imposible! ¿De dónde has sacado mi\nviej ?\n¡L creía perdid para siempre!\nHasta me había comprado un nuev\nya... ¡Y resulta que todo este tiempo\nl ha tenido !",
      "EUfr": "Quoi ? C'est vraiment mon ancien\n ?\nJ'avais fait une croix dessus. J'en ai\nmême acheté un autre. Et en fait,\nc'est  qui l'avait !",
      "EUit": "Non ci credo...  !\nOrmai ci avevo messo una croce\nsopra, perciò ne avevo comprat\n.\nInvece ce l'aveva  per tutto questo tempo!",
      "EUnl": "Ik geloof mijn eigen ogen niet... Mijn\noude !\nIk wist echt zeker dat ik  kwijt\nwas, dus heb ik een nieuwe gekocht.\nMaar  had  al die tijd!",
      "EUru": "Ничего себе... Это же мой старый\n!\nЭх, я уже купил себе другой.\nА он все это время был\nу ...",
      "JPja": "あれ？　もしかして・・・\nマイ　かい？\nてっきり　無くしたと思って\n新しいのを　買っちゃったよ～\nすっかり　忘れていたけど、\nは\n大切に　持っていてくれたんだね",
      "KRko": "어라? 혹시...\n마이 ?\n잃어버린 줄만 알고\n새로 사버렸지 뭐야～\n완전히 잊고 있었는데\n군은\n소중히 보관해줬나 보네",
      "TWzh": "啊，該不會是……\nMy？\n我還以為弄丟了，\n所以買了新的一個啊～\n雖然我自己都完全忘記了，\n但還是\n很小心地幫我保管著呢。",
      "USen": "No way... You actually, truly have my\nold !\nI thought it was lost, so I bought a\nnew one. But  has\nhad it the whole time!",
      "USes": "¡Imposible! ¿De dónde sacaste mi\nviej ?\n¡L creía perdid para siempre!\nHasta me había comprado un nuev\nya... ¡Y resulta que todo este tiempo\nl tenía !",
      "USfr": "Quoi? C'est vraiment mon ancien\n?\nJ'avais fait une croix dessus. J'en ai\nmême acheté un autre. Et en fait,\nc'est  qui l'avait!"
    }
  },
  {
    "label": "204",
    "attribute": "0x0000000000000000",
    "locale": {
      "CNzh": "趁此机会，\n这个就送给你吧。",
      "EUde": "Hast du jemals überlegt, als Geheim-\nagent zu arbeiten? Denn diese\nÜbergabe war absolut professionell.",
      "EUen": "You ever think about working as an\nagent? Because the way you're\nhandling this transaction is flawless.",
      "EUes": "Tu manera de llevar a cabo la\ntransacción es impecable, así que\ntoma esto como agradecimiento.",
      "EUfr": "Tu as déjà songé à te reconvertir en\nimpresario ? Parce que tu gères\ncette transaction de patte de maître.",
      "EUit": "Hai mai pensato di diventare una\nspia? La consegna che stai facendo\nè muy professionale!",
      "EUnl": "Heb je weleens overwogen om\nimpresario te worden? Je hebt deze\ntransactie echt perfect afgehandeld.",
      "EUru": "Может, тебе попробовать стать\nпрофессиональным курьером?\nУ тебя хорошо получается.",
      "JPja": "せっかくだから、コレ\nに　あげるよ",
      "KRko": "모처럼이니까 이거\n군에게 줄게",
      "TWzh": "既然你都拿來了，那這個……\n就送你啦，！",
      "USen": "You ever think about working as an\nagent? Because the way you're\nhandling this transaction is flawless.",
      "USes": "Tu manera de llevar a cabo la\ntransacción es impecable, así que\ntoma esto como agradecimiento.",
      "USfr": "T'as déjà songé à te reconvertir en\nimpresario? Parce que tu gères\ncette transaction de patte de maître."
    }
  },
  {
    "label": "205",
    "attribute": "0x0000000000000000",
    "locale": {
      "CNzh": "因为你担起责任，\n好好送到了我手上……\n就当是我的回礼吧。。",
      "EUde": "Und du verdienst eine Belohnung für\ndeine Mühen. Vielleicht nicht gerade\nein Agentengehalt, aber immerhin!",
      "EUen": "And I think you deserve a little\nsomething for the trouble. Maybe\nnot a full agent's cut, but something!",
      "EUes": "Te mereces una recompensa por\nla entrega. ¡Podrías ganarte la vida\ncomo repartidor profesional!",
      "EUfr": "D'ailleurs, tu as bien mérité quelque\nchose pour cette remarquable\nprestation.\nÇa vaut pas une prime d'impresario,\nmais c'est déjà ça !",
      "EUit": "Ti meriti una ricompensa per il\ndisturbo. Anche se non posso darti\nla paga di una spia!",
      "EUnl": "En je verdient ook iets voor de\nmoeite. Misschien niet wat een echte\nimpresario verdient, maar toch!",
      "EUru": "Мне кажется, за это ты заслужил\nнебольшое вознаграждение...\nНебольшое, но хорошее!",
      "JPja": "キミは、最後まで　責任を持って\nボクの所に　届けてくれた・・・\nそのお礼さ、",
      "KRko": "그대는 끝까지 책임감을 가지고\n내게 전달해줬지...\n그 보답이야, !",
      "TWzh": "你如此認真負責，\n最終成功把它送回我身邊……\n這就當作是給你的謝禮吧，。",
      "USen": "And I think you deserve a little\nsomething for the trouble. Maybe\nnot a full agent's cut, but something!",
      "USes": "Te mereces una recompensa por\nla entrega. ¡Podrías ganarte la vida\ncomo repartidor profesional!",
      "USfr": "D'ailleurs, tu as bien mérité quelque\nchose pour cette remarquable\nprestation.\nÇa vaut pas une prime d'impresario,\nmais c'est déjà ça!"
    }
  },
  {
    "label": "301",
    "attribute": "0x0000000000000000",
    "locale": {
      "CNzh": "那么，会是什么呢？",
      "EUde": "Moment mal, worum ging es noch\ngleich?",
      "EUen": "Wait, what's this again?",
      "EUes": "¿Qué me traes aquí?",
      "EUfr": "Hein ? Qu'est-ce encore que cela ?",
      "EUit": "Ma... cos'era?",
      "EUnl": "Wacht, wat is dit?",
      "EUru": "Что это там?",
      "JPja": "さて、何だったかな？",
      "KRko": "으음, 그래서 뭐였지?",
      "TWzh": "哦，是什麼東西呢？",
      "USen": "Wait, what's this again?",
      "USes": "¿Qué me traes?",
      "USfr": "Hein? Qu'est-ce encore que cela?"
    }
  },
  {
    "label": "302",
    "attribute": "0x0000000000000000",
    "locale": {
      "CNzh": "我想起来了！\n是吧。\n是吗，送到那边去了……\n这个啊，\n其实是我之前网购\n下单的东西啦！",
      "EUde": "Oh, richtig!   hatte ich online bestellt.\nUnd  wurde an  geliefert?! Wie konnte das Internet mich nur so enttäuschen...",
      "EUen": "Oh yeah! I totally ordered this\n online.\nAnd you're saying it was delivered\nto ? I can't believe\nthe internet would betray me...",
      "EUes": "¡Ah, sí! Recuerdo haber encargado\nest  por internet hace tiempo...\n¿Y se l habían entregado por error\na ? Las tiendas «online» ya no son lo que eran...",
      "EUfr": " que j'avais commandé en ligne ! Mais oui, je l reconnais !\n a été livré par erreur chez  ? Pff, si on peut plus se fier à Internet, où va-t-on ?",
      "EUit": "Ah, sì! Ho ordinato online .\nVuoi dire che l'hanno consegnat  ?\nNon riesco a credere che un servizio\nonline mi abbia mai tradito...",
      "EUnl": "O ja! Ik heb   online besteld.\nEn je zegt dat het pakje was bezorgd bij ? Je kunt ook niks vertrouwen online...",
      "EUru": "Ах, да! Я уже давно заказывал\n\nна одном модном сайте...\nЕго доставили ?!\nНе может быть!!! Ну и сервис...",
      "JPja": "思い出した！\nだね\nそうか、の所に・・・\n実はコレ、先日\nネットショッピングで\nオーダーしたものなんだ！",
      "KRko": "생각났다!\n이었지\n그랬군, 군 집으로...\n실은 이거 얼마 전에\n인터넷 쇼핑으로\n오더했던 거거든!",
      "TWzh": "我想起來了！\n是吧？\n這樣啊，原來是送到那了……\n其實，這是我前陣子\n在網路上訂購的東西喔！",
      "USen": "Oh yeah! I totally ordered this\n online.\nAnd you're saying it was delivered\nto ? I can't believe\nthe internet would betray me...",
      "USes": "¡Ah, sí! Recuerdo haber comprado\nest  en internet hace tiempo...\n¿Y se l habían entregado por error\na ? Las tiendas \"online\" ya no son lo que eran...",
      "USfr": " que j'avais commandé en ligne! Mais oui, je l reconnais!\n a été livré par erreur chez ? Pfff, si on peut plus se fier à Internet, où va-t-on?"
    }
  },
  {
    "label": "303",
    "attribute": "0x0000000000000000",
    "locale": {
      "CNzh": "唔，稍等一下哦……\n我就快想起来了，还差那么一点点……",
      "EUde": "Einen Moment... Ich glaube mich da\nvage an etwas zu erinnern...",
      "EUen": "Hold on...I think I vaguely remember\nsomething about something...",
      "EUes": "Espera... Ahora que lo pienso...\nme empieza a sonar familiar...",
      "EUfr": "Attends... Je crois me souvenir d'un\nvague bidule à propos d'une sorte\nde machin...",
      "EUit": "Aspetta... Ricordo vagamente\nqualcosa...",
      "EUnl": "Wacht even... Volgens mij herinner ik\nme nog vaag iets...",
      "EUru": "Погоди-ка... Я что-то припоминаю...",
      "JPja": "えっと、ちょっと待ってね・・・\n思い出せそうで　思い出せない・・・",
      "KRko": "으음, 잠시 기다려주겠나...\n생각 날 듯하면서 안 나는군...",
      "TWzh": "呃，嗯……等我一下喔……\n好像快想起來了，可是卻想不起來……",
      "USen": "Hold on...I think I vaguely remember\nsomething about something...",
      "USes": "Espera... Ahora que lo pienso...\nme empieza a sonar familiar...",
      "USfr": "Attends... Je crois me souvenir d'un\nvague bidule à propos d'une sorte\nde machin..."
    }
  },
  {
    "label": "304",
    "attribute": "0x0000000000000000",
    "locale": {
      "CNzh": "“哪会有这种偶然？”\n或许你会这么想吧……\n可别取笑我呀。。\n其实这个……\n是我当做礼物买下来的，\n只为送给你。",
      "EUde": "Okay, okay, du wirst mir das nicht\nglauben, aber es ist wahr,\n(Floskel).\nIch habe das als Geschenk für\njemanden gekauft. Und zwar für\nniemand anderen als... DICH!",
      "EUen": "OK, OK, OK... You're not gonna\nbelieve this, but it's true...\nI bought this as a gift for someone.\nAnd that someone is...YOU!",
      "EUes": "¡Ahora caigo!... No lo vas a creer\ncuando te lo cuente, ¡pero te juro\nque es la verdad!\nEsto era un regalo que compré para\nalguien... ¡y ese alguien eres TÚ!",
      "EUfr": "Alors... Tu vas pas me croire, et c'est\npourtant la stricte vérité...\nJ'ai acheté ce cadeau pour une\npersonne particulière. Et cette\npersonne... c'est toi !",
      "EUit": "Senti... non ci crederai, ma è proprio\ncosì...\nHo comprato questo come regalito\nper qualcuno di muy speciale.\nE quel qualcuno speciale... sei TU!",
      "EUnl": "Oké, oké... Dit ga je niet geloven,\nmaar het is echt waar...\nIk heb dit cadeau voor iemand\ngekocht, en diegene ben... jij!",
      "EUru": "Я просто не могу в это поверить...\nЯ заказал эту вещь сто лет назад\nна одном сайте...\nКакой конфуз... Я же заказывал\nее в подарок тебе!!!",
      "JPja": "まさか　こんな偶然？\nって　思うだろうけど・・・\n笑わないでくれよ、\n実は　コレ・・・\nプレゼントするつもりで　買ったのさ\nキミのために",
      "KRko": "설마 그런 우연이?\n라고 생각하겠지만...\n웃지 말고 들어달라구, ～\n사실 이건...\n선물할 생각으로 산 물건이야\n바로 그대를 위해서!",
      "TWzh": "雖然你應該會覺得\n「怎麼可能這麼巧」……\n但還是請你不要笑我，。\n其實這個……\n我是買來想當成禮物送出去的。\n送到你的手上。",
      "USen": "OK, OK, OK... You're not gonna\nbelieve this, but it's true...\nI bought this as a gift for someone.\nAnd that someone is...YOU!",
      "USes": "¡Ahora caigo!... Cuando te cuente\nno lo vas a poder creer,\n¡pero te juro que es la verdad!\nEsto era un regalo que compré para\nalguien... ¡y ese alguien eras TÚ!",
      "USfr": "Alors... Tu vas pas me croire, et c'est\npourtant la stricte vérité...\nJ'ai acheté ce cadeau pour une\npersonne particulière. Et cette\npersonne... c'est toi!"
    }
  },
  {
    "label": "305",
    "attribute": "0x0000020000001800",
    "locale": {
      "CNzh": "现在就打开？",
      "EUde": "Ob ich es aufmachen sollte?",
      "EUen": "Should I open it now?",
      "EUes": "¿Lo abro ahora?",
      "EUfr": "Je l'ouvre tout de suite ?",
      "EUit": "Lo apro adesso?",
      "EUnl": "Wil je het openmaken?",
      "EUru": "Открыть коробку?",
      "JPja": "今、開けちゃう？",
      "KRko": "지금, 열어볼래?",
      "TWzh": "要現在打開嗎？",
      "USen": "Should I open it now?",
      "USes": "¿Lo abro ahora?",
      "USfr": "Je l'ouvre tout de suite?"
    }
  },
  {
    "label": "305_a",
    "attribute": "0x0000000000000000",
    "locale": {
      "CNzh": "打开！",
      "EUde": "Ich öffne es jetzt!",
      "EUen": "Let me open it!",
      "EUes": "¡Por supuesto!",
      "EUfr": "Je veux l'ouvrir !",
      "EUit": "Lo apro!",
      "EUnl": "Ik maak het open!",
      "EUru": "Открою!",
      "JPja": "開けちゃう！",
      "KRko": "열어볼래!",
      "TWzh": "現在就打開！",
      "USen": "Let me open it!",
      "USes": "¡Por supuesto!",
      "USfr": "Je veux l'ouvrir!"
    }
  },
  {
    "label": "305_b",
    "attribute": "0x0000000000000000",
    "locale": {
      "CNzh": "暂时不打开……",
      "EUde": "Seh ich mir später an.",
      "EUen": "I'll save it for later.",
      "EUes": "Ya lo abriré luego...",
      "EUfr": "Je l'ouvrirai plus tard.",
      "EUit": "Lo aprirò più tardi.",
      "EUnl": "Ik bewaar het voor later.",
      "EUru": "Открою попозже.",
      "JPja": "まだ　開けない・・・",
      "KRko": "다음에 열어볼래...",
      "TWzh": "暫時先不要打開……",
      "USen": "I'll save it for later.",
      "USes": "Lo abriré más tarde...",
      "USfr": "Je l'ouvrirai plus tard."
    }
  },
  {
    "label": "306",
    "attribute": "0x0000000000000000",
    "locale": {
      "CNzh": "等回家之后打开看看吧。\n等待的时间越长，\n乐趣也就越多吧？。",
      "EUde": "Oh, gute Idee. Die hohe Kunst der\nVorfreude! Aber schraube deine\nErwartungen nicht ZU hoch...",
      "EUen": "Yeah, yeah, good idea. Take it home\nand anticipate it more. Just don't\nget your hopes TOO high...",
      "EUes": "Bien pensado. Llévatelo a casa y ve\npensando durante todo el camino\nqué puede ser.\n¡Llegarás con la emoción por\nlas nubes! Pero tampoco te\npases con las expectativas...",
      "EUfr": "Oui, emporte-le chez toi et profite de\nla montée d'adrénaline. Évite juste\nde placer la barre trop haut !",
      "EUit": "Sì, sì, buona idea. Portalo a casa e\nrimani ancora un pochito con la\nsuspense. Ma non aspettarti troppo!",
      "EUnl": "Ja, goed idee. Neem het mee naar\nhuis, dan heb je wat leuks voor later.\nMaar het is maar iets kleins hoor...",
      "EUru": "Хорошая мысль! Откроешь дома!\nТам ничего особенного,\nтак, мелочь...",
      "JPja": "家に帰ったら　開けてみなよ\n待つ時間が　長い方が\n楽しみが　増すだろう？　",
      "KRko": "그러면 집에 가서 열어보라구\n기다리는 시간이 길수록\n즐거움도 커지겠지? ?",
      "TWzh": "回到家以後，再打開來看吧！\n等得越久，開啟時的喜悅\n也會越多，對吧？。",
      "USen": "Yeah, yeah, good idea. Take it home\nand anticipate it more. Just don't\nget your hopes TOO high...",
      "USes": "Bien pensado. Llévatelo a tu casa y\nve pensando durante todo el camino\nqué podrá ser.\n¡Llegarás con la ansiedad por\nlas nubes! Pero tampoco te\npases con las expectativas...",
      "USfr": "Oui, emporte-le chez toi et profite de\nla montée d'adrénaline. Évite juste\nde placer la barre trop haut!"
    }
  },
  {
    "label": "307",
    "attribute": "0x0000000000000000",
    "locale": {
      "CNzh": "这是我想着你准备的衣服哦。\n……你喜欢吗？。",
      "EUde": "Ta-daaa! Na, was sagst du?\nDas habe ich extra für dich\nausgesucht. Perfekt, oder?",
      "EUen": "Ta-daaa! What do you think?\nI picked it out specifically for you.\nYou like?",
      "EUes": "¡Tacháaan! ¿Qué te parece?\nHa sido una elección personalizada,\npensando exclusivamente en ti.",
      "EUfr": "Ta-daaa ! Alors, ça te plaît ?\nJ'ai choisi ce cadeau spécialement\npour toi !",
      "EUit": "Ta-daaa! Che ne pensi? L'ho scelto\nsolo per te! Te gusta?",
      "EUnl": "Ta-daaa! Wat vind je ervan? Ik heb\nhet speciaal voor jou uitgekozen.\nVind je het wat?",
      "EUru": "Ну как?! Что скажешь? Выбирал\nспециально для тебя.\nТебе нравится?",
      "JPja": "キミのことを思って　用意した服だよ\n・・・気に入って　もらえたかな？　",
      "KRko": "그대를 위해 준비한 옷이야\n...마음에 들려나? ?",
      "TWzh": "這是我特地為你準備的衣服喔，\n……你還喜歡嗎？。",
      "USen": "Ta-daaa! What do you think?\nI picked it out specifically for you.\nYou like?",
      "USes": "¡Tarááán! ¿Qué te parece?\nFue una elección personalizada,\npensando exclusivamente en ti.",
      "USfr": "Ta-daaa! Alors, ça te plaît?\nJ'ai choisi ce cadeau spécialement\npour toi!"
    }
  },
  {
    "label": "308",
    "attribute": "0x0000000000000000",
    "locale": {
      "CNzh": "是呀！",
      "EUde": "(Floskel)! Deine Augen trügen\nnicht, ich habe da \n für dich!",
      "EUen": "(catchphrase)! Your eyes do not\ndeceive you. I got you a real\n!",
      "EUes": "¿Qué me dices? ¡No estás soñando,\n(catchphrase)! ¡Es  !",
      "EUfr": "(expression) ! Non, tes yeux ne te jouent pas des tours. Je t'offre  !",
      "EUit": "Allora, (catchphrase)? Gli occhi non t'ingannano. Hai ricevuto proprio !",
      "EUnl": "(catchphrase)! Je ogen bedriegen je niet.  !",
      "EUru": "(catchphrase)! Держи, это тебе!\nНе поверишь! Это настоящий\n!",
      "JPja": "さ！",
      "KRko": "이야!",
      "TWzh": "是！",
      "USen": "(catchphrase)! Your eyes do not\ndeceive you. I got you a real\n!",
      "USes": "¿Qué me dices? ¡No estás soñando,\n(catchphrase)! ¡Es  !",
      "USfr": "(expression)! Non, tes yeux ne te jouent pas des tours. Je t'offre !"
    }
  },
  {
    "label": "309",
    "attribute": "0x0000000000000000",
    "locale": {
      "CNzh": "其实，我造访你家的时候，\n觉得你的房间里还缺了点什么。。\n不介意的话，就装饰在你房间里吧。\n这样应该就能补全缺少的那一点不完美了。",
      "EUde": "Weißt du noch, wie ich bei dir zu\nHause war? Ich hatte den Eindruck,\ndass dort noch etwas fehlt...\nAlso habe ich dir etwas besorgt,\ndas sich harmonisch in deinen Style\neinfügen sollte, (Floskel).",
      "EUen": "Remember when I was checking out\nyour place? I just thought there\nwas something missing...\nSo I got you this! I think it'll be just\nthe thing to complete the theme\nyou've got going on.",
      "EUes": "¿Recuerdas cuando visité tu casa?\nPues lo cierto es que eché algo\nen falta en ella...\n¡Y tengo algo para ti que le dará el\ntoque final al tema de tu decoración!",
      "EUfr": "Tu te souviens quand j'ai visité ton\npalace ? Il m'a semblé qu'il manquait\nquelque chose...\nAlors je t'ai acheté ça ! La touche\nfinale de ta déco thématique !",
      "EUit": "Ti ricordi quando ero a casa tua?\nPensavo che ci fosse qualcosa che\nmancava...\nCosì ho preso questa cosuccia!\nCredo che si adatterà al tuo stile\ncome una maglietta sui miei muscoli!",
      "EUnl": "Weet je nog toen ik bij je thuis kwam\nkijken? Ik dacht dat er iets ontbrak...\nDus heb ik dit voor je gekocht! \nVolgens mij is dit precies wat je\nnodig hebt om je design af te maken.",
      "EUru": "Знаешь, однажды я зашел к тебе\nдомой и почувствовал, что там\nчего-то не хватает...\nИ тут меня осенило! Вот, держи!\nТеперь у тебя будет интерьер\nс обложки глянцевого журнала!",
      "JPja": "実は、キミの家に　お邪魔した時\n何かが足りないと　思ってたんだ、\nよかったら、キミの部屋に　飾ってほしい\nこれで　欠けたピースが　埋まるはずさ",
      "KRko": "실은 그대 집에 방문했던 날\n뭔가 부족한 듯한 느낌이 들었거든...\n괜찮다면 그대 방에 장식해보는 게 어때?\n이걸로 빠진 퍼즐 조각이 채워질 거야",
      "TWzh": "其實，我之前到你家去打擾的時候，\n就覺得好像少了什麼東西，。\n如果不嫌棄的話，希望你能擺進房間。\n這樣應該就能把最後那點不完美補齊！",
      "USen": "Remember when I was checking out\nyour place? I just thought there\nwas something missing...\nSo I got you this! I think it'll be just\nthe thing to complete the theme\nyou've got going on.",
      "USes": "¿Recuerdas cuando visité tu casa?\nPues en ese momento noté que había algo que faltaba...\n¡Seguro que esto le dará el toque\nfinal al tema de tu decoración!",
      "USfr": "Tu te souviens quand j'ai visité ton\npalace? Il m'a semblé qu'il manquait\nquelque chose...\nAlors je t'ai acheté ça! La touche\nfinale de ta déco thématique!"
    }
  },
  {
    "label": "313",
    "attribute": "0x0000000000000000",
    "locale": {
      "CNzh": "可能只是我的主观印象啦，\n总觉得\n应该会喜欢这一类的……\n一旦有了这种想法，\n不知怎么就忍不住买了呢。。",
      "EUde": "Ich war zwar noch nie bei dir zu\nHause, aber ich hatte einen Traum,\nin dem ich dich besucht habe.\nUnd in diesem Traum habe ich das\nperfekte Accessoire für dich ausge-\nsucht! Ganz sicher kein Albtraum!",
      "EUen": "I know I've never been to your place\nyet, but I had a dream about what\nit might look like...\nAnd in that dream, fevered though\nit may have been, I picked out that\nperfect accessory!",
      "EUes": "Nunca he visitado tu casa aún,\npero he soñado con ella en más\nde una ocasión...\nSi es como me la imagino en mis\nsueños, ¡este es el accesorio que\nmejor encajará en ella!",
      "EUfr": "Je sais que je ne suis jamais venu\nchez toi, mais j'ai eu une crise de\nclairvoyance dans un rêve récent...\n... et j'ai vu comment tu avais décoré\nton palace. Du coup, je t'ai trouvé\nl'accessoire parfait !",
      "EUit": "So che non sono mai stato a casa\ntua, ma ho sognato come potrebbe\nessere...\nE in quel sogno, per quanto fosse\nagitato, ho scelto questo accessorio\nassolutamente perfecto!",
      "EUnl": "Ik weet dat ik nog nooit bij je thuis\nben geweest, maar ik had een droom\nover hoe het eruitzag...\nEn in die droom, die ik me duidelijk\nherinner, koos ik het perfecte\naccessoire voor je uit!",
      "EUru": "Я еще не был у тебя в гостях, но\nмне однажды приснился твой\nдом...\nИ в моем сне — странный, надо\nсказать, был сон — у меня\nбыла эта вещь!",
      "JPja": "ボクの　勝手なイメージなんだけど、\n\nそういうの　好きなんじゃないかなって・・・\nそう思ったら　なんだか\n買わずには　いられなかったんだ、",
      "KRko": "내가 마음대로 추측한 거긴 하지만\n군\n혹시 그런 거 좋아하려나 싶어서...\n일단 그런 생각이 들었더니 왠지\n안 사곤 못 배기겠지 뭐야, ～",
      "TWzh": "雖然只是出自於我自己的想像，\n但我覺得\n應該會喜歡那種風格……\n這麼一想，就忍不住出手\n把它買下來了，。",
      "USen": "I know I've never been to your place\nyet, but I had a dream about what\nit might look like...\nAnd in that dream, fevered though\nit may have been, I picked out that\nperfect accessory!",
      "USes": "Nunca visité tu casa, pero la he visto\nen uno de mis sueños reveladores...\nSi es como me la imagino,\n¡este accesorio le quedará como\nanillo vintage al dedo!",
      "USfr": "Je sais que je suis jamais venu\nchez toi, mais j'ai eu une crise de\nclairvoyance dans un rêve récent...\n... et j'ai vu comment tu avais décoré\nton palace. Du coup, je t'ai trouvé\nl'accessoire parfait!"
    }
  },
  {
    "label": "400",
    "attribute": "0x0000000000000000",
    "locale": {
      "CNzh": "……赶快打开看看吧。",
      "EUde": "Nun gut, ich sollte mir wohl einmal\nansehen, was drin ist... Der Form\nhalber.",
      "EUen": "Alright, I guess I should see\nwhat's inside...not that it makes\na difference.",
      "EUes": "Pues nada, si hay que abrirlo,\nse abre...",
      "EUfr": "Bon ! Ça a beau être l'intention qui\ncompte, je vais quand même jeter un\ncoup d'œil à l'intérieur.",
      "EUit": "Muy bien, mi sa che devo vedere\ncosa c'è dentro... giusto per essere\ncortese...",
      "EUnl": "Oké, laat ik eens kijken wat erin zit...\nNiet dat het wat uitmaakt.",
      "EUru": "Хм... Интересно, что это там...\nНадеюсь, не какой-нибудь\nржавый гвоздь...",
      "JPja": "・・・さっそく　開けてみよう",
      "KRko": "...지금 바로 열어보도록 하지",
      "TWzh": "……趕快打開來看看吧。",
      "USen": "Alright, I guess I should see\nwhat's inside...not that it makes\na difference.",
      "USes": "Pues si hay que abrirlo, se abre...",
      "USfr": "Bon! Ça a beau être l'intention qui\ncompte, je vais quand même jeter un\ncoup d'œil à l'intérieur."
    }
  },
  {
    "label": "401",
    "attribute": "0x0000000000000000",
    "locale": {
      "CNzh": "吗！\n这种的，我很喜欢呢～",
      "EUde": "Hey! Das ist ja   in meiner Lieblingsfarbe!",
      "EUen": "Yo! This is an actual\n in my\nfavorite color!",
      "EUes": "¡Anda! ¡Esto no me lo esperaba!\n¡ de mi color favorito!",
      "EUfr": " ! Et de ma couleur préférée, en plus !",
      "EUit": "Incredibile!  del mio colore preferito!",
      "EUnl": "Yo! Dit   in mijn favoriete kleur!",
      "EUru": "Ух ты!  последней модели! Да еще мой\nлюбимый цвет!",
      "JPja": "か！\nこういうの、好きだな～",
      "KRko": "인가!\n이런 거 좋아한다구～",
      "TWzh": "是！\n我很喜歡這種風格呢～",
      "USen": "Yo! This is an actual\n in my\nfavorite color!",
      "USes": "¡Oye! ¡Esto no me lo esperaba!\n¡ de mi color favorito!",
      "USfr": "! Et de ma couleur préférée, en plus!"
    }
  },
  {
    "label": "402",
    "attribute": "0x0000000000000000",
    "locale": {
      "CNzh": "是呀！\n这个品位，我倒是不讨厌哦。",
      "EUde": "Hach, das ist ja total mein Stil.\n\n!",
      "EUen": "Ooh, it's just my style.\nA real !",
      "EUes": "¡!\n¡Es muy de mi estilo!",
      "EUfr": " ! Et qui s'accorde parfaitement à mon style empreint de coolitude !",
      "EUit": "Sorbole! È proprio nel mio stile.\n!",
      "EUnl": "O, precies mijn stijl.  !",
      "EUru": "Ух ты! !\nВсегда хотел себе такое!",
      "JPja": "だね！\nこのセンス、キライじゃないかな",
      "KRko": "이네!\n꽤 센스가 좋은걸",
      "TWzh": "是！\n我並不討厭這種品味喔。",
      "USen": "Ooh, it's just my style.\nA real !",
      "USes": "¡!\n¡Es muy de mi estilo!",
      "USfr": "! Et qui s'accorde parfaitement à mon style empreint de coolitude!"
    }
  },
  {
    "label": "403",
    "attribute": "0x0000000000000000",
    "locale": {
      "CNzh": "太好了！\n是呀！\n我就想要一件这样的呢～！",
      "EUde": "Das gibt's doch nicht!   hatte ich mir schon immer gewünscht!",
      "EUen": "No way! I've been wanting \n forever!",
      "EUes": "¡Oh! ¡Siempre he soñado con tener\n!",
      "EUfr": " ! Toute ma vie, j'ai rêvé d'avoir  !",
      "EUit": "Che tosto! Ho sempre voluto !",
      "EUnl": "Dat meen je niet! Ik wil al zo lang\n!",
      "EUru": "Ничего себе!!! Я всегда хотел себе\n!",
      "JPja": "やった！\nだね！\nこういうの　欲しかったんだ～！",
      "KRko": "오!\n이로군!\n평소에 갖고 싶었던 거라구～!",
      "TWzh": "好耶！\n是！\n我一直很想要這種風格的服裝～！",
      "USen": "No way! I've been wanting \n forever!",
      "USes": "¡Oh! ¡Siempre soñé con tener\n!",
      "USfr": "! Toute ma vie, j'ai rêvé d'avoir !"
    }
  },
  {
    "label": "404",
    "attribute": "0x0000000000000000",
    "locale": {
      "CNzh": "谢谢你特意送过来给我！\n！\n等我见了，\n也会表达感谢的。。",
      "EUde": "Danke, dass du dir so viel Mühe\ndamit gemacht hast, mir das zu\nbringen, (Spitzname).\nUnd wenn du  einmal siehst, grüß  von mir, (Floskel)!",
      "EUen": "Hey, thanks for going out\nof your way to bring this\nto me, (nickname).\nAnd if you see ,\ngive  a shout-out too!",
      "EUes": "Te agradezco que me hayas traído\nel paquete, (nickname).\n¡Dale también recuerdos de mi parte\na  cuando l veas!",
      "EUfr": "Merci d'avoir parcouru tout ce\nchemin pour m'apporter ça,\n(surnom) !\nSi tu tombes sur , pense à l'informer de la gratitude de ma modeste personne.",
      "EUit": "Ehi, gracias di aver fatto uno sforzo per portarmi questa cosa, (nickname).\nSe vedi , ringrazia da parte mia!",
      "EUnl": "Hé, bedankt dat je zoveel moeite hebt gedaan hiervoor, (nickname).\nEn bedank  ook als je  ziet!",
      "EUru": "Большущее спасибо, что принес\nмне эту вещицу, (nickname).\nПередавай привет !",
      "JPja": "わざわざ　届けてくれて　ありがとう！　\n！\nにも会って\n感謝の気持ちを　伝えておくよ、",
      "KRko": "여기까지 전하러 와줘서 고마워!\n군!\n군에게도 만나서\n감사를 표해야겠는걸, ～",
      "TWzh": "謝謝你特地把東西送來給我，　\n！\n晚點我也會去見，\n把我的感謝傳達給他！。",
      "USen": "Hey, thanks for going out\nof your way to bring this\nto me, (nickname).\nAnd if you see ,\ngive  a shout-out too!",
      "USes": "Te agradezco que me hayas traído\nel paquete, (nickname).\n¡Mándale saludos de mi parte\na  cuando l veas!",
      "USfr": "Merci d'avoir parcouru tout ce\nchemin pour m'apporter ça,\n(surnom)!\nSi tu tombes sur , pense à l'informer de la gratitude de ma modeste personne."
    }
  },
  {
    "label": "405",
    "attribute": "0x0000000000000000",
    "locale": {
      "CNzh": "把你卷进我们这一摊事里\n真是抱歉啊……\n。\n感觉多亏有你，\n我才能和\n重归于好。。",
      "EUde": "Tja, es tut mir leid, dass du in diese\nganze Sache verwickelt wurdest,\naber ich danke dir für die Hilfe.\nIch bin jetzt zuversichtlich, dass\n und ich uns bald wieder vertragen werden.",
      "EUen": "Well, I'm sorry you got all wrapped\nup in my squabble, but I appreciate\nthe delivery.\nAnd this whole thing gives me hope\nthat  and I are\ngonna make up soon.",
      "EUes": "Siento que te hayamos implicado\nen este asunto, y muchas gracias\npor haberme traído el paquete.\nDespués de esto, no creo que\n y yo tardemos\nen reconciliarnos.",
      "EUfr": "Navré que tu te sois fait embarquer\ndans cet invraisemblable imbroglio,\nmais merci pour la livraison.\n et moi, on va pas tarder à se rabibocher grâce à toi.",
      "EUit": "Beh, mi dispiace mucho che ti sia\nimpelagato in questa storia, ma sono\nmuy contento per la consegna.\nE tutta questa situazione mi fa sperare che io   faremo pace.",
      "EUnl": "Sorry dat je betrokken bent geraakt\nbij ons probleem, maar ik waardeer\nhet dat je dit hebt bezorgd.\n en ik gaan het binnenkort vast bijleggen.",
      "EUru": "Прости, что ввязали тебя в нашу\nссору. Но кажется, \nуже готов мириться!..",
      "JPja": "ボクらの　ゴタゴタに巻き込んで\nすまなかったね・・・\n\nキミの　おかげで\nと\n仲直りできそうな　気がするよ、",
      "KRko": "우리 싸움에 말려들게 해서\n미안했어...\n군\n그대 덕분에\n군과\n화해할 수 있겠다구, !",
      "TWzh": "……\n抱歉，把你捲入了我們之間的爭執。\n多虧有你幫忙，\n我覺得應該能和\n和好如初了！。",
      "USen": "Well, I'm sorry you got all wrapped\nup in my squabble, but I appreciate\nthe delivery.\nAnd this whole thing gives me hope\nthat  and I are\ngonna make up soon.",
      "USes": "Lamento que te hayamos implicado\nen este asunto, y muchas gracias\npor haberme traído el paquete.\nDespués de esto, no creo que\n y yo tardemos\nmucho en reconciliarnos.",
      "USfr": "Navré que tu te sois fait embarquer\ndans cet invraisemblable imbroglio,\nmais merci pour la livraison.\n et moi, on va pas tarder à se rabibocher grâce à toi."
    }
  },
  {
    "label": "411",
    "attribute": "0x0000000000000000",
    "locale": {
      "CNzh": "感受到风格的\n不着痕迹的体贴，\n总感觉很叫人高兴呢～",
      "EUde": "Ich wusste, dass  mir etwas schenken würde, das sorgfältig ausgewählt und stilvoll ist.",
      "EUen": "I knew I could count on getting\nsomething thoughtful and classy\nfrom .",
      "EUes": "No me extraña para nada que\n haya elegido algo de un gusto tan exquisito.",
      "EUfr": "Je savais que  choisirait quelque chose d'aussi chic que moi.",
      "EUit": "Ero seguro che avrei ricevuto qualcosa di elegante da .",
      "EUnl": "Ik had wel verwacht dat  iets attents en stijlvols zou uitkiezen.",
      "EUru": "Конечно, чувствуется, что\nу  отменное\nчувство стиля!",
      "JPja": "らしい\nさりげない気づかいが　感じられて\nなんだか　嬉しいよ～",
      "KRko": "양의\n타고난 배려심이 느껴져서\n왠지 기쁜걸～",
      "TWzh": "這種不著痕跡的細心體貼，\n的確很像的作風，\n讓收到的人很開心呢～",
      "USen": "I knew I could count on getting\nsomething thoughtful and classy\nfrom .",
      "USes": "No me extraña para nada que\n haya elegido algo de un gusto tan exquisito.",
      "USfr": "Je savais que ⁠ choisirait quelque chose d'aussi chic que moi."
    }
  },
  {
    "label": "412",
    "attribute": "0x0000000000000000",
    "locale": {
      "CNzh": "\n只是看起来很忙的样子，\n其实有好好关注着我呢。",
      "EUde": "Ich hätte wissen sollen, dass es von\n kommt. Genauso energiegeladen wie sie selbst!",
      "EUen": "I should have known it was\nfrom . It's a\nhigh-energy gift!",
      "EUes": "No se puede dudar que viene\nde . ¡Rebosa\nenergía por todos los lados!",
      "EUfr": "Un cadeau débordant d'énergie\ncomme celui-là, ça ne peut venir\nque de  !",
      "EUit": "Avrei dovuto capire che era da parte di . È un regalito muy energetico!",
      "EUnl": "Ik had wel kunnen weten dat het van  afkomstig was. Een krachtig gebaar!",
      "EUru": "Вот это да, чувствуется, что вещь от\n! Она прямо\nзаряжена энергией!",
      "JPja": "って\n忙しいフリをしてるだけで\nボクのこと　見てくれてたんだね",
      "KRko": "양은\n평소에 바쁜 척 하는 일이 많지만\n실은 날 신경 써주고 있던 거네",
      "TWzh": "應該\n只是假裝很忙，\n其實一直都在關注我吧？",
      "USen": "I should have known it was\nfrom . It's a\nhigh-energy gift!",
      "USes": "No se puede dudar que viene\nde . ¡Desprende\nenergía por todos los lados!",
      "USfr": "Un cadeau débordant d'énergie\ncomme celui-là, ça ne peut venir\nque de ⁠!"
    }
  },
  {
    "label": "413",
    "attribute": "0x0000000000000000",
    "locale": {
      "CNzh": "不愧是，\n她的高超品位\n仿佛也体现在礼物上了呢。",
      "EUde": "Das ist  wieder einmal gelungen. Ein wirklich zeitloses Geschenk.",
      "EUen": "The great  does it\nagain. Such a classy gift.",
      "EUes": " no decepciona\nnunca. ¡Qué nivel de regalo!",
      "EUfr": "-la-classieuse a encore frappé ! Quel cadeau !",
      "EUit": "Tipico di ! Un regalito molto sciccoso!",
      "EUnl": "De grote  slaat opnieuw toe. Wat een stijlvol cadeau.",
      "EUru": " всегда выбирает\nотменные вещи! Надо отдать\nей должное...",
      "JPja": "さすが　\nカノジョの　品格の高さが\nプレゼントにも　表れている気がするよ",
      "KRko": "역시 양이야\n높은 품격이\n선물에서도 드러난다구",
      "TWzh": "真不愧是，\n她的禮物完全表現出了\n這個人的格調有多高啊。",
      "USen": "The great  does it\nagain. Such a classy gift.",
      "USes": " no decepciona\nnunca. ¡Qué regalo más elegante!",
      "USfr": "-la-classieuse a encore frappé! Quel cadeau!"
    }
  },
  {
    "label": "414",
    "attribute": "0x0000000000000000",
    "locale": {
      "CNzh": "出乎意料地为他人着想，\n也是的魅力呢。\n这份礼物就说明了一切。",
      "EUde": " kann wirklich charmant sein, wenn sie will. Ich erkenne ihre Handschrift.",
      "EUen": "That  can really\ncharm when she wants to. This is\nright out of her playbook.",
      "EUes": "Cuando quiere, \nsabe ser encantadora, y este regalo\nlo demuestra.",
      "EUfr": " est tout à fait charmante quand elle veut. Ce cadeau en est la preuve emballée.",
      "EUit": "Quando vuole,  affascina tutti. Questo regalito ne è la prova!",
      "EUnl": " kan heel charmant zijn als ze wil. Dat is echt typisch iets voor haar.",
      "EUru": "Надо же,  выбрала\nмне просто идеальный подарок!\nА она молодец!",
      "JPja": "意外と　気配り上手な所も\nの魅力だよね\nこのプレゼントが　全てを物語っているよ",
      "KRko": "의외로 배려에 능한 점이\n양의 매력이지\n이 선물이 전부 말해주고 있다구",
      "TWzh": "意外地很擅長察言觀色，\n這也是的魅力呢。\n這個禮物完全顯示出了這一點！",
      "USen": "That  can really\ncharm when she wants to. This is\nright out of her playbook.",
      "USes": "Cuando quiere, \npuede ser encantadora, y este regalo\nlo demuestra.",
      "USfr": " est tout à fait charmante quand elle veut. Ce cadeau en est la preuve emballée."
    }
  },
  {
    "label": "415",
    "attribute": "0x0000000000000000",
    "locale": {
      "CNzh": "最重要的是，\n为了我费尽心思去挑选，\n一想到这个就叫人开心～",
      "EUde": "Ich kann mir  richtig vorstellen, wie er ganz besorgt ein Geschenk aussucht.\nEr ist wirklich ein ganz Lieber.",
      "EUen": "I can just imagine \nsweating with anxiety trying\nto pick this out. He's adorable.",
      "EUes": "Me imagino lo que habrá sudado\n para elegir este\nregalo. ¡Es tan entrañable!",
      "EUfr": "Je vois d'ici  suer à grosses gouttes en choisissant ce cadeau. Il a si grand cœur...",
      "EUit": "Immagino quanto abbia sudato  per scegliere questo regalito. È adorabile.",
      "EUnl": "Geweldig, ik zie het zo voor me,  die dit uitzoekt met het zweet op zijn voorhoofd.",
      "EUru": "Представляю, как \nвыбирал мне подарок... Он\nтакой славный малый!",
      "JPja": "何より　が\nボクのために　一生けんめい\n選んでくれたと思うと　嬉しいよ～",
      "KRko": "무엇보다 군이\n날 위해서 열심히\n골라줬다는 게 기쁘다구～",
      "TWzh": "只要想到是\n為了我努力挑選的，\n就覺得很開心～",
      "USen": "I can just imagine \nsweating with anxiety trying\nto pick this out. He's adorable.",
      "USes": "Me imagino lo que habrá sudado\n para elegir este\nregalo. ¡Es tan entrañable!",
      "USfr": "Je vois d'ici  suer à grosses gouttes en choisissant ce cadeau. Il a si grand cœur..."
    }
  },
  {
    "label": "416",
    "attribute": "0x0000000000000000",
    "locale": {
      "CNzh": "只是，送的，\n难免叫人怀疑这个的出处呢……\n不过就相信他吧，我收下啦。",
      "EUde": "Hat  das für mich ausgesucht?! Seine Trefferquote bei Geschenken ist meist eher niedrig.\nHabe ich die Sportmetapher auch\nrichtig eingesetzt?",
      "EUen": "Did  really pick\nthis out for me? His batting average\non gifts is usually pretty low.\nDid I do the sports reference right?",
      "EUes": "¿Y dices que  ha elegido esto para mí? Pues es una\nmarca bastante buena para él...\nMe refiero a la marca deportiva,\nclaro, no al fabricante del producto.",
      "EUfr": " a vraiment choisi ça pour moi ? Niveau cadeaux, son goal average est pourtant assez bas.\nEt une référence sportive, une !",
      "EUit": "L'ha  veramente pensando a me, ? La sua media gol con i regali è bella bassa.\nEra giusto il riferimento sportivo?",
      "EUnl": "Heeft  dit echt voor me uitgezocht? Dat is nog strakker van hem dan zijn sweatshirt.\nSweatshirt, HaHA!",
      "EUru": "С такими подарками \nдаст фору любому! Я прямо как он\nзаговорил!",
      "JPja": "でも、からだと\n出所を　色々　疑ってしまうなぁ・・・\nまあ、カレを信じて　頂くことにするよ",
      "KRko": "그치만, 군이 준 거라면\n여러모로 출처가 의심스럽단 말이야...\n뭐, 일단 믿고 받아보도록 하지",
      "TWzh": "不過，送的東西\n總是會讓我不禁懷疑一下出處……\n嗯，我還是相信他，把東西收下吧。",
      "USen": "Did  really pick\nthis out for me? His batting average\non gifts is usually pretty low.\nDid I do the sports reference right?",
      "USes": "¿Dices que \neligió esto para mí? Pues lamento\ndecir que la pelota no pasó la red...\nSupongo que entiendes la referencia\ndeportiva...",
      "USfr": " a vraiment choisi ça pour moi? Niveau cadeaux, ses stats sont pourtant pas fameuses.\nEt une référence sportive, une!"
    }
  },
  {
    "label": "417",
    "attribute": "0x0000000000000000",
    "locale": {
      "CNzh": "呵呵呵，风格的\n雅致的礼物呢。",
      "EUde": "Man weiß nie, ob  einem etwas Cooles oder etwas aus der Abstellkammer schenkt.",
      "EUen": "You never know if \nis going to give you something\ncool or something from his garage.",
      "EUes": "Viniendo de ,\nno me extraña que haya elegido algo\nrebuscado y lleno de retranca...",
      "EUfr": "Avec , on ne sait jamais si on recevra une perle ou une vieillerie tout droit sortie du grenier.",
      "EUit": "Non sai mai se  ti darà qualcosa di bello o qualcosa che ha trovato nel suo garage!",
      "EUnl": "Je weet nooit of  je iets cools gaat geven of iets dat hij nog in zijn kelder had liggen.",
      "EUru": " может подарить\nстарье из своего гаража — и это\nвсе равно будет высший класс!",
      "JPja": "フフフ、らしい\n粋なプレゼントだね",
      "KRko": "후후후, 군다운\n세련된 선물이네, ～",
      "TWzh": "呵呵，這的確很像是\n會送的雅致禮物呢。",
      "USen": "You never know if \nis going to give you something\ncool or something from his garage.",
      "USes": "Viniendo de , no\nme extrañaría que haya \"reciclado\" un regalo que le hicieron a él...",
      "USfr": "Avec , on sait jamais si on recevra un trésor ou une vieillerie tout droit sortie du grenier."
    }
  },
  {
    "label": "418",
    "attribute": "0x0000000000000000",
    "locale": {
      "CNzh": "虽然他的性格飘忽不定，\n但我们兴趣相投，\n完全不觉得有隔阂呢。",
      "EUde": "Dieser  hat es faustdick hinter den sorgfältig gestylten Ohren.",
      "EUen": "That  is an enigma\nwrapped in a designer top.",
      "EUes": "Ese  es todo un\nartista incomprendido con gustos\nde edición limitada.",
      "EUfr": "Ce , c'est un bijou mystérieux déposé dans un délicat écrin en édition limitée.",
      "EUit": "Beh,  è un vero enigma! Però abbiamo lo stesso corazón da artista!",
      "EUnl": "Die  is een mysterie gehuld in een designertop.",
      "EUru": "Подарки от  всегда\nтак хороши, что кажется, будто\nя сам их выбирал...",
      "JPja": "カレは　つかみどころがないんだけど、\n趣味が　合うというか\n他人の気が　しないんだよね",
      "KRko": "은 가끔\n뜬구름 잡는 것 같을 때도 있지만\n취향도 잘 맞고 남 같지가 않다니깐",
      "TWzh": "雖然他有些讓人捉摸不定，\n不過可能是因為興趣相似吧，\n總覺得有種親近感呢。",
      "USen": "That  is an enigma\nwrapped in a designer top.",
      "USes": "Ese  es todo un\nartista incomprendido con gustos\nde edición limitada.",
      "USfr": "Ce , c'est un bijou mystérieux déposé dans un délicat écrin en édition limitée."
    }
  }
]