﻿[
  {
    "label": "001",
    "attribute": "0x0000000000000000",
    "locale": {
      "CNzh": "打扰了。。",
      "EUde": "Da wären wir!",
      "EUen": "We made it!",
      "EUes": "¡Ya estamos aquí!",
      "EUfr": "Nous y voilà !",
      "EUit": "Eccoci qui!",
      "EUnl": "We zijn er!",
      "EUru": "Ну, вот мы и здесь.",
      "JPja": "失礼するよ、",
      "KRko": "들어갈게, ",
      "TWzh": "打擾了，。",
      "USen": "We made it!",
      "USes": "¡Ya estamos aquí!",
      "USfr": "Nous y voilà!"
    }
  },
  {
    "label": "002",
    "attribute": "0x0000000000000000",
    "locale": {
      "CNzh": "打扰一下……。",
      "EUde": "Ähem... Nun, da sind wir!",
      "EUen": "Ahem... Well, here we are.",
      "EUes": "Bueno... Ya hemos llegado.",
      "EUfr": "Hem... C'est donc ici !",
      "EUit": "Ahem... Beh, siamo arrivati.",
      "EUnl": "Ahem... Nou, daar zijn we dan.",
      "EUru": "Ну что... Вот мы и пришли.",
      "JPja": "おじゃまするね・・・、",
      "KRko": "실례할게... !",
      "TWzh": "打擾囉……。",
      "USen": "Ahem... Well, here we are.",
      "USes": "Bueno... Ya llegamos.",
      "USfr": "Hem... C'est donc ici!"
    }
  },
  {
    "label": "003",
    "attribute": "0x0000000000000000",
    "locale": {
      "CNzh": "可以进去吗？。",
      "EUde": "Ich fühl mich hier direkt wohl.",
      "EUen": "I'm already getting good vibes.",
      "EUes": "¡Ese hogar de (nickname)! ¡Aquí estamos!",
      "EUfr": "Je peux entrer ?",
      "EUit": "Avverto già vibraciones positive.",
      "EUnl": "Ik krijg er al een prettig gevoel bij.",
      "EUru": "Мне уже нравится!",
      "JPja": "入ってもいいかな？　",
      "KRko": "들어가도 되지? ?",
      "TWzh": "我可以進去嗎？。",
      "USen": "I'm already getting good vibes.",
      "USes": "¡El hogar de (nickname)! ¡Aquí estamos!",
      "USfr": "Ça pulse? Je peux entrer?"
    }
  },
  {
    "label": "004",
    "attribute": "0x0000000000000000",
    "locale": {
      "CNzh": "是(resident name)哦……\n(resident name)来啦～！。",
      "EUde": "Die Spannung hat ein Ende!\n(Einwohnername) ist endlich da!",
      "EUen": "Well, the anticipation is finally over!\n(resident name) has arrived.",
      "EUes": "Soy yo, (resident name).\n¡En visita oficial a tu casa!",
      "EUfr": "Ça y est, ton insupportable attente\npeut prendre fin. (nom du résident) est arrivé.",
      "EUit": "Soy yo, (resident name)! Ripeto, (resident name) è qui!",
      "EUnl": "Ik ben het, de (resident name)! Ik herhaal, (resident name) staat voor je deur.",
      "EUru": "Тук-тук, это (resident name)!\nСобственной персоной!",
      "JPja": "(resident name)だよ・・・\n(resident name)が　来たよ～！　",
      "KRko": "(resident name)님이야...\n(resident name)님이 왔다구～! !",
      "TWzh": "我是(resident name)……\n(resident name)來囉～！。",
      "USen": "Well, the anticipation is finally over!\n(resident name) has arrived.",
      "USes": "Soy yo, (resident name).\n¡En visita oficial a tu casa!",
      "USfr": "Ça y est, ton insupportable attente\npeut prendre fin. (nom du résident) est arrivé."
    }
  },
  {
    "label": "005",
    "attribute": "0x0000000000000000",
    "locale": {
      "CNzh": "，\n久等啦～是(resident name)哦！。",
      "EUde": "Genug gewartet, (Einwohnername) steht vor deiner Tür! Darf man reinkommen?",
      "EUen": "I'm here! Let me in, OK? You know\nit's (resident name), right?",
      "EUes": "Siento haberte hecho esperar.\n¡Aquí me tienes por fin!",
      "EUfr": "Je suis là ! Tu me fais entrer ?\nAu fait... C'est (nom du résident).",
      "EUit": "Sono qua, mi fai entrare? Non aver\npaura, sono io, (resident name)!",
      "EUnl": "Hé, (player name)! Drie keer raden waar ik ben!",
      "EUru": "Это я! Открывай! Ну, это же я, (resident name)!",
      "JPja": "\nお待たせ、(resident name)だよ！　",
      "KRko": "군, 기다렸지?\n(resident name)님이야! !",
      "TWzh": "，\n久等了～我是(resident name)！。",
      "USen": "I'm here! Let me in, OK? You know\nit's (resident name), right?",
      "USes": "Lamento haberte hecho esperar.\n¡Aquí me tienes por fin!",
      "USfr": "J'suis là! Tu me fais entrer?\nAu fait... C'est (nom du résident)."
    }
  },
  {
    "label": "006",
    "attribute": "0x0000000000000000",
    "locale": {
      "CNzh": "哈罗！\n(resident name)来见\n啦～！。",
      "EUde": "Da bin ich! Das gemütliche\nAbhängen mit (Einwohnername) kann nun endlich beginnen!",
      "EUen": "Here I am! Your hang sesh with\n(resident name) starts...now.",
      "EUes": "Ya he llegado, (nickname).\nSoy (resident name). ¿Se puede?",
      "EUfr": "Me voilà ! Ton moment privilégié avec\n(nom du résident) commence... tout de suite !",
      "EUit": "Ehi, (nickname)! Mi senti? Soy (resident name)! Fammi entrare!",
      "EUnl": "(nickname)! (nickname)! Ik ben er! Laat me erin!",
      "EUru": "А вот и я! (resident name) пришел...\nк тебе в гости!",
      "JPja": "ハロー！　(resident name)が、\nに\n会いに来たよ～！　",
      "KRko": "헬로～! (resident name)님이\n군을\n만나러 왔어～! !",
      "TWzh": "Hello！\n(resident name)\n來見囉～！。",
      "USen": "Here I am! Your hang sesh with\n(resident name) starts...now.",
      "USes": "Ya llegué, (nickname).\nSoy (resident name). ¿Se puede?",
      "USfr": "Me voilà! Ton moment privilégié avec\n(nom du résident) commence... tout de suite!"
    }
  },
  {
    "label": "007",
    "attribute": "0x0000000000000000",
    "locale": {
      "CNzh": "！\n你在的吧？\n快到门口来！。",
      "EUde": "Halloooooo! Ist jemand zu Hause?\nBitte komm doch zur Haustür!",
      "EUen": "Helloooooo! Is anyone home?\nSomeone come to the front door!",
      "EUes": "¿Hooola? ¿Hay alguien en casa?\n¡Estoy en la puerta!",
      "EUfr": "Salut ! Y a quelqu'un ?\nQuelqu'un qui pourrait m'ouvrir ?",
      "EUit": "Hooolaaaaa! C'è nessuno in casa?\nQualcuno venga ad aprire!",
      "EUnl": "Halloooooo! Is daar iemand? Doe\nnou open!",
      "EUru": "Тук-тук! Есть кто?\nОткрывайте, я пришел!",
      "JPja": "！\nいるんだろう？\n玄関まで　来てほしい！　",
      "KRko": "군!\n안에 있지?\n현관까지 나와주겠어, ?",
      "TWzh": "！\n你在家吧？\n可以到玄關來嗎？。",
      "USen": "Helloooooo! Is anyone home?\nSomeone come to the front door!",
      "USes": "¿Hooola? ¿Hay alguien en casa?\n¡Estoy en la puerta!",
      "USfr": "Salut! Y'a quelqu'un?\nQuelqu'un qui pourrait m'ouvrir?"
    }
  },
  {
    "label": "008",
    "attribute": "0x0000000000000000",
    "locale": {
      "CNzh": "！\n……你不在吗？。",
      "EUde": "(Spitzname)! Bist du da?",
      "EUen": "(nickname)! Are you here?!",
      "EUes": "¿Estás por ahí, (nickname)?",
      "EUfr": "(surnom) ! T'es là ?",
      "EUit": "Ci sei, (nickname)?!",
      "EUnl": "(nickname)! Ben je thuis?!",
      "EUru": "(nickname)! Ты дома?!",
      "JPja": "！\n・・・いないのかい？　",
      "KRko": "군!\n...부재중인 거야? ?",
      "TWzh": "！\n嗯……不在家嗎？。",
      "USen": "(nickname)! Are you here?!",
      "USes": "¿Estás por ahí, (nickname)?",
      "USfr": "(surnom)! T'es là?"
    }
  },
  {
    "label": "009",
    "attribute": "0x0000000000000000",
    "locale": {
      "CNzh": "……是不是出门了呀？。",
      "EUde": "Hmm... Niemand zu Hause?",
      "EUen": "Uhh... Did they leave?",
      "EUes": "Hum... Debe de haber salido.",
      "EUfr": "Bah... Y a plus personne ou quoi ?",
      "EUit": "Uh... ma non c'è nessuno?",
      "EUnl": "Ehh... Is hij niet thuis?",
      "EUru": "Хм-м-м... Ушли все, что ли?",
      "JPja": "・・・出かけてるのかな？　",
      "KRko": "...외출한 건가, ?",
      "TWzh": "嗯……是出門了嗎？。",
      "USen": "Uhh... Did they leave?",
      "USes": "Eh... Debe haber salido.",
      "USfr": "Bah... Y'a plus personne ou quoi?"
    }
  },
  {
    "label": "010",
    "attribute": "0x0000000000000000",
    "locale": {
      "CNzh": "没办法……\n既然不在，\n我还是回去吧……。",
      "EUde": "Es ist wohl niemand da. Nun, dann\nsollte ich den Rückweg antreten...",
      "EUen": "I guess no one's home. I suppose\nthat's my cue to skedaddle...",
      "EUes": "Si no está, pues nada, me vuelvo\npara casa...",
      "EUfr": "Bon, ben si personne n'est là,\nautant mettre les voiles...",
      "EUit": "Direi che non c'è ninguno in casa. \nMi sa che è il caso di andarsene...",
      "EUnl": "Volgens mij is er niemand thuis. Tijd\nom ervandoor te gaan...",
      "EUru": "Похоже, никого нет дома...\nТогда я пойду...",
      "JPja": "仕方ない・・・\nが留守なら\n帰らせてもらおうかな・・・、",
      "KRko": "어쩔 수 없지...\n군이 집에 없으니까\n돌아가야겠군, ...",
      "TWzh": "沒辦法……\n既然不在，\n那我就回家吧……。",
      "USen": "I guess no one's home. I suppose\nthat's my cue to skedaddle...",
      "USes": "Si no está, pues bueno, me vuelvo\na mi casa...",
      "USfr": "Bon, ben si personne est là,\nautant mettre les voiles..."
    }
  },
  {
    "label": "011",
    "attribute": "0x0000000000000000",
    "locale": {
      "CNzh": "早上好！\n！\n抱歉，我实在等不及……\n结果这么早就来啦！。",
      "EUde": "Guten Morgen, (Spitzname)!\nVerzeih mir mein frühes Erscheinen.\nIch war wohl ein wenig zu eifrig...",
      "EUen": "Good morning, (nickname)!\nSorry I'm here so early. I just got\na little excited...",
      "EUes": "Buenos días, (nickname).\nPerdona que me presente aquí tan\ntemprano, pero no podía aguantar\nmás...",
      "EUfr": "Salut, (surnom) !\nPardon si j'arrive trop tôt.\nTu sais, comme je suis hyper busy...",
      "EUit": "Hola, (nickname)!\nScusami se sono venuto così presto,\nè che non sono riuscito\na trattenermi...",
      "EUnl": "Goedemorgen, (nickname)!\nSorry dat ik zo vroeg ben. Ik kon\nmijn enthousiasme niet langer\nin toom houden...",
      "EUru": "Добрейшего утречка,\n(nickname)!\nНичего, что я рано?\nНе мог дождаться...",
      "JPja": "おはよう！\n！\nごめん、待ちきれなくて・・・\nこんなに早く　来ちゃった！　",
      "KRko": "굿 모닝!\n군!\n미안, 도저히 못 기다리겠어서...\n이렇게 빨리 와버렸어! !",
      "TWzh": "早安！\n！\n抱歉，我實在是等不及了……\n所以一大早就跑來找你！。",
      "USen": "Good morning, (nickname)!\nSorry I'm here so early. I just got\na little excited...",
      "USes": "Buenos días, (nickname).\nPerdona que me presente aquí tan\ntemprano, pero no podía aguantar\nmás...",
      "USfr": "Salut, (surnom)!\nPardon si j'arrive trop tôt.\nTu sais, comme je suis hyper busy..."
    }
  },
  {
    "label": "012",
    "attribute": "0x0000000000000000",
    "locale": {
      "CNzh": "打扰一下咯！\n按照约定，我来找你玩啦，\n！",
      "EUde": "Hallo! Wie versprochen bin ich\ngekommen, um dein bescheidenes\nHeim mit meiner Präsenz zu zieren!",
      "EUen": "Hello! As promised, I have arrived\nto grace your humble home with my\nfabulous presence!",
      "EUes": "¡Buenas! Aquí estoy, dispuesto\na hacerte la visita que te prometí.",
      "EUfr": "Salut ! Comme promis, je me suis\ndéplacé pour irradier ton humble\ndemeure de mon illustre présence !",
      "EUit": "Hola! Come ti ho promesso, eccomi\nqui a portare un bel po' di estilo\nalla tua umile dimora!",
      "EUnl": "Hallo! Zoals beloofd kom ik langs om\njouw stulpje te eren met mijn\nfantastische aanwezigheid!",
      "EUru": "Привет-привет! А вот и я! Пришел\nукрасить твой дом своим\nприсутствием!",
      "JPja": "おじゃまするね！\n約束どおり　遊びに来たよ\n！",
      "KRko": "들어갈게! !\n약속대로 놀러왔어,\n군!",
      "TWzh": "打擾囉！\n，\n我依照約定來你家玩了！",
      "USen": "Hello! As promised, I have arrived\nto grace your humble home with my\nfabulous presence!",
      "USes": "¡Buenas! Aquí estoy, dispuesto\na hacerte la visita que te prometí.",
      "USfr": "Salut! Comme promis, j'me suis\ndéplacé pour irradier ton humble\ndemeure de mon illustre présence!"
    }
  },
  {
    "label": "013",
    "attribute": "0x0000000000000000",
    "locale": {
      "CNzh": "晚上好！\n按照约定，我来找你玩啦！\n来得有点晚，抱歉呀。。",
      "EUde": "Technisch gesehen bin ich nicht zu\nspät, sondern füge mich nur der\naktuellen Mode.\nOh, und ich wünsche dir einen\nschönen guten Abend!",
      "EUen": "Technically, I'm not late. Oh, and\ngood evening!",
      "EUes": "Hola. Perdona que no haya venido\nantes... Buenas noches, por cierto.",
      "EUfr": "Alors, j'avais dit que je passerais\naujourd'hui, et on est aujourd'hui.\nAlors bonsoir !",
      "EUit": "In verdad, non sono in ritardo.\nOh, e comunque buenas tardes!",
      "EUnl": "Technisch gezien ben ik niet laat.\nO, fijne avond trouwens!",
      "EUru": "Я как всегда вовремя!\nКак поживаешь?",
      "JPja": "こんばんは！\n約束どおり　遊びに来たよ！\n遅くなって　ごめんね、",
      "KRko": "굿 이브닝!\n약속대로 놀러왔어!\n늦어서 미안하군, ",
      "TWzh": "你好！\n我依照約定來你家玩了！\n抱歉，拖到這麼晚才來，。",
      "USen": "Technically, I'm not late. Oh, and\ngood evening!",
      "USes": "Hola. Perdona que no haya venido\nantes... Buenas noches, por cierto.",
      "USfr": "Alors, j'avais dit que je passerais\naujourd'hui, et on est aujourd'hui.\nAlors bonsoir!"
    }
  },
  {
    "label": "014",
    "attribute": "0x0000000000000000",
    "locale": {
      "CNzh": "晚、晚上好……\n你还在等我呀！。\n我好开心哦～！\n！",
      "EUde": "...Oh, du bist wirklich aufgeblieben –\nnur für mich?\nIch wollte der aktuellen Mode\nentsprechend zu spät kommen, aber\ndann lief alles aus dem Ruder...",
      "EUen": "...Oh, you actually stayed up to\nwait for me?\nI was just going to be fashionably\nlate, then things got out of hand...",
      "EUes": "No me digas que... ¡¿te has quedado\nlevantado esperando a que viniera?!\nPerdona, solo quería que esperaras\nun poco para hacerme el interesante,\npero se me ha ido de las manos...",
      "EUfr": "Tu as veillé pour m'attendre ?\nJ'étais trop busy aujourd'hui,\nentre les tournages, les photos,\nles podiums et les promos...",
      "EUit": "Sorbole, non dirmi che sei rimasto\nin piedi ad aspettarmi?\nIo volevo solo farmi attendere come\nfa la gente con estilo, ma devo avere\nesagerato un poquito...",
      "EUnl": "Ben je opgebleven om op me te\nwachten?\nIk moest nog wat handtekeningen\nuitdelen, maar dat duurde langer\ndan verwacht...",
      "EUru": "Ты все еще ждешь меня?\nПардон, немного замотался,\nстолько дел...",
      "JPja": "こ、こんばんは～・・・\n起きててくれたんだね！　\nボクは　うれしいよ～！\n！",
      "KRko": "아, 안녕...\n아직 안 자고 있었던 거야, ?\n너무 기뻐～!\n군!",
      "TWzh": "你、你好……\n你還醒著等我啊！。\n真是太令我高興了～！\n！",
      "USen": "...Oh, you actually stayed up to\nwait for me?\nI was just going to be fashionably\nlate, then things got out of hand...",
      "USes": "No me digas que... ¡¿te quedaste\nlevantado esperando que viniera?!\nPerdona, solo quería que esperaras\nun poco para hacerme el interesante,\npero me pasé de listo...",
      "USfr": "Tu as veillé pour m'attendre?\nJ'étais trop busy aujourd'hui, entre\nles tournages, les photoshoots,\nles podiums et les promos..."
    }
  },
  {
    "label": "015",
    "attribute": "0x0000000000000000",
    "locale": {
      "CNzh": "打扰了……\n啊！这里竟然有蟑螂？！\n呃，虽然我也难得来一次，\n不过既然已经有客人先到了，\n那我就回去啦！。",
      "EUde": "Mooooment... War das etwa eine\nechte Kakerlake?\nIch habe beim Dreh zu „Die Kakerlake  ⁠“ schon mit Plastik-Kakerlaken gearbeitet, aber...\nIn echt sind mir die zu viel. Tut mir\nleid, aber ich muss weg.",
      "EUen": "Whoa, whoa, whoa...was that a\nreal cockroach?\nI worked with prop cockroaches on\nthe set of the horror film \"A Roach\nIn Your ,\" but...\nThis is too real. Sorry, but I think I\nhave somewhere else to be...",
      "EUes": "¡Agh! ¿Eso es una cucaracha\nde verdad?\nTrabajé con actores disfrazados de\ncucaracha cuando rodé «Horror en\ntu », pero...\nnunca vi una tan grande al natural.\nLo siento, pero creo que no me voy\na quedar aquí, .",
      "EUfr": "Hop là, attends une seconde... c'est\nun vrai cafard que je viens de voir\npasser ?\nIl y avait des cafards en plastique sur le tournage de « Le canard a le\ncafard », mais...\nÇa, c'est trop réel. Désolé, je viens\nde me rappeler que j'ai un rôle de\nfuyard à préparer, pour un casting...",
      "EUit": "Sorbole! Ma quello era un verdadero\nscarafaggio?\nAvevo visto un film che si intitolava\n\"Aiuto, ho perso uno scarafaggio nel\nmio piatto di \"...\nPerò lì era todo finto! Scusami, ma\ncredo di aver sentito qualcuno che\nmi sta chiamando...",
      "EUnl": "Wacht even... was dat een échte\nkakkerlak?\nOp de set van \"Kakkerlakken in je \" werkte ik met nepkakkerlakken, maar...\n...de kakkerlak die ik net zag, is niet\nnep. Sorry, maar ik denk dat ik\ndringend ergens anders moet zijn...",
      "EUru": "Ой-ей-ей... Неужели это настоящий\nживой таракан?\nЯ уже работал с бутафорскими\nмонстрами в фильме ужасов\n« и таракан»...\nНо к реальности я не готов. Извини,\nменя ждут... в другом месте.",
      "JPja": "失礼するよ・・・\nって、ゴキブリがいるじゃないかー？！\nえっと、せっかくだけど\n先約のお客さんが　いるみたいだから\nボクは　帰らせてもらうね、",
      "KRko": "실례할게...\n헛, 바퀴벌레가 있잖아～?!\n크흠, 모처럼의 기회지만\n먼저 온 손님이 있는 것 같으니까\n나는 돌아가기로 할게, ",
      "TWzh": "打擾了……\n呃，怎麼有蟑螂啊～！？\n那個，雖然難得來這裡一趟，\n但是這裡似乎還有其他客人在，\n我就先告辭了，。",
      "USen": "Whoa, whoa, whoa...was that a\nreal cockroach?\nI worked with prop cockroaches on\nthe set of the horror film \"A Roach\nIn Your ,\" but...\nThis is too real. Sorry, but I think I\nhave somewhere else to be...",
      "USes": "¡Epa, epa! ¿Eso es una cucaracha\nde verdad?\nTrabajé con actores disfrazados de\ncucaracha cuando rodé \"Horror en\ntu \", pero...\nnunca vi una tan grande en vivo.\nLo siento, pero creo que no me voy\na quedar mucho aquí, .",
      "USfr": "Hop là, attends une seconde... c'est\nun vrai cafard, que j'viens de voir\npasser?\nY'avait d'faux cafards sur le tournage de « Le canard a le\ncafard », mais...\nÇa, c'est trop réel. Désolé, j'viens\nd'me rappeler que j'ai un rôle de\nfuyard à préparer, pour un casting..."
    }
  },
  {
    "label": "100",
    "attribute": "0x0000000000000000",
    "locale": {
      "CNzh": "啊，对了对了……\n不是什么大不了的东西，\n这个希望你能收下。",
      "EUde": "Oh, das hätte ich beinahe vergessen.\nIch habe hier ein kleines Mitbringsel\nfür dich!",
      "EUen": "Oh, I almost forgot. I brought a little\nsomething for you!",
      "EUes": "¡Ah, casi se me olvida! Te traigo un\ndetallito.",
      "EUfr": "Oh, avant que j'oublie...\nJe t'ai apporté un truc !",
      "EUit": "Sorbole, dimenticavo! Ti ho portato\nun pensiero pequeño.",
      "EUnl": "O, bijna vergeten. Ik heb nog wat\nvoor je meegebracht!",
      "EUru": "Чуть не забыл, я тебе\nкое-что принес!",
      "JPja": "あ、そうそう・・・\n大したものじゃないけど、\nコレを　受け取ってほしい",
      "KRko": "아, 참...\n별건 아니지만\n이걸 받아주겠어?",
      "TWzh": "啊，對了……\n雖然不是什麼大禮，\n但還是希望你能收下。",
      "USen": "Oh, I almost forgot. I brought a little\nsomething for you!",
      "USes": "¡Ah, casi se me olvida! Te traigo un\nregalito.",
      "USfr": "Oh, avant que j'oublie...\nJ't'ai apporté un truc!"
    }
  },
  {
    "label": "101",
    "attribute": "0x0000000000000000",
    "locale": {
      "CNzh": "啊，还有……\n虽然只是一点点而已，\n你愿意收下我的心意吗？",
      "EUde": "Es ist zwar nicht viel, aber ich\ndachte mir, ich bringe dir ein\nkleines Gastgeschenk mit...",
      "EUen": "It isn't much, but I brought a little\nsomething for you...",
      "EUes": "Te traigo un modesto regalito...",
      "EUfr": "Alors c'est rien de transcendant,\nmais tiens, c'est pour toi...",
      "EUit": "No es muy, ma ti ho portato\nun regalito...",
      "EUnl": "Het is niet veel, maar ik heb iets\nkleins voor je...",
      "EUru": "У меня кое-что есть для тебя.\nТак, мелочь, но, надеюсь,\nтебе понравится...",
      "JPja": "あ、それと・・・\nささやかではあるけど、\nボクの気持ち　受け取ってくれるかな？",
      "KRko": "아, 그리고...\n소소한 거지만\n내 마음이니까 받아줘!",
      "TWzh": "啊，還有這個……\n這只是點小心意，\n不知道你願不願意收下呢？",
      "USen": "It isn't much, but I brought a little\nsomething for you...",
      "USes": "Te traigo un modesto regalito...",
      "USfr": "Alors c'est rien de transcendant,\nmais tiens, c'est pour toi..."
    }
  },
  {
    "label": "102",
    "attribute": "0x0000000000000000",
    "locale": {
      "CNzh": "那个，你愿意收下这个吗……",
      "EUde": "Oh, richtig!\nIch habe da etwas für dich.",
      "EUen": "Oh yeah! I got something for you.",
      "EUes": "¡Ah! Por cierto, te he traído algo...",
      "EUfr": "Oh, tiens ! J'ai apporté ça pour toi.",
      "EUit": "Oh, sorbole! Ho qualcosa per te.",
      "EUnl": "O, ja! Ik heb iets voor je.",
      "EUru": "Да, чуть не забыл! У меня\nкое-что есть для тебя.",
      "JPja": "あのさ、コレ　もらってくれるかな・・・",
      "KRko": "저기, 이거 받아줬으면 하는데...",
      "TWzh": "那個，你能收下這個嗎……",
      "USen": "Oh yeah! I got something for you.",
      "USes": "¡Ah! Por cierto, te traje algo...",
      "USfr": "Oh, tiens! J'ai apporté ça pour toi."
    }
  },
  {
    "label": "103",
    "attribute": "0x0000000000000000",
    "locale": {
      "CNzh": "是哦。\n你\n应该很喜欢这一类的吧……。",
      "EUde": "Es ist nichts Großes, nur \n.\nHoffentlich sagt  dir zu!",
      "EUen": "It's no big deal at all. It's just\n.\nHope you like it!",
      "EUes": "No es gran cosa, pero aquí tienes:\n.\n¡Espero que te guste!",
      "EUfr": "C'est rien de fou hein, juste\n. Mais de rien, quoi !",
      "EUit": "Non è molto, davvero... solo\n.\nSpero che te gusta!",
      "EUnl": "Graag gedaan, hoor. Ik heb  voor je.\nHopelijk ben je er blij mee!",
      "EUru": "Ничего особенного... Просто\n.\nНадеюсь, в твоем вкусе!",
      "JPja": "だよ\n、\nこういうの　スキかと思って・・・、",
      "KRko": "이야\n군은\n이런 걸 좋아할 것 같아서, ...",
      "TWzh": "這是喔。\n我覺得\n應該會喜歡這種東西……。",
      "USen": "It's no big deal at all. It's just\n.\nHope you like it!",
      "USes": "No es gran cosa, pero aquí tienes:\n.\n¡Espero que te guste!",
      "USfr": "C'est rien de fou, hein, juste\n. Mais de rien, quoi!"
    }
  },
  {
    "label": "104",
    "attribute": "0x0000000000000000",
    "locale": {
      "CNzh": "我为了，\n带了来哦。\n。",
      "EUde": " !",
      "EUen": "It's what I like to call\n!",
      "EUes": "Lo he elegido expresamente para ti:\n¡!\nEspero que te sirva.",
      "EUfr": "Voilà !  !",
      "EUit": "Eccoti !",
      "EUnl": "Het is !",
      "EUru": "Смотри... ! Тебе в подарок!",
      "JPja": "のために\nを\n持ってきたんだ、",
      "KRko": "군을 위해서\n을\n가져왔다구, ～",
      "TWzh": "我為了\n帶來\n，。",
      "USen": "It's what I like to call\n!",
      "USes": "Lo elegí especialmente para ti:\n¡!\nEspero que te sirva.",
      "USfr": "Voilà! !"
    }
  },
  {
    "label": "105",
    "attribute": "0x0000000000000000",
    "locale": {
      "CNzh": "锵锵——！\n是！\n这一类的，你很喜欢吧？。",
      "EUde": " !\nIch wünsche dir viel Vergnügen\ndamit!",
      "EUen": "!\nEnjoy...",
      "EUes": "¡! Que l disfrutes.",
      "EUfr": "Suspense suspense... Et voici\n ! De rien !",
      "EUit": "!\nSpero che te gusta...",
      "EUnl": "! Veel plezier ermee...",
      "EUru": "Сюрприз!!! ! Подарок что надо!",
      "JPja": "じゃじゃーん！\nさ！\nスキだろう？　こういうの、",
      "KRko": "짜자잔!\n!\n이런 거 좋아하지? ?",
      "TWzh": "你看！\n這是！\n你喜歡這種的吧？。",
      "USen": "!\nEnjoy...",
      "USes": "¡! Que l disfrutes.",
      "USfr": "Suspense suspense... Et voici\n! De rien!"
    }
  },
  {
    "label": "200",
    "attribute": "0x0000020000000000",
    "locale": {
      "CNzh": "那么，\n先来玩游戏吧？。",
      "EUde": "So, was wollen wir denn machen?\nMöchtest du ein Spiel spielen?",
      "EUen": "So, what should we do? Do you want\nto play a game?",
      "EUes": "Estaba pensando... ¿Y si jugamos\na un juego?",
      "EUfr": "Qu'est-ce que tu veux faire ? \nUn jeu, ça te dit ?",
      "EUit": "Allora che facciamo? Giochiamo\na qualcosa?",
      "EUnl": "Wat gaan we doen? Wil je een spel\nspelen?",
      "EUru": "Ну, чем займемся? Может, сыграем?",
      "JPja": "じゃあ、とりあえず\nゲームでもして　遊ばないか？　",
      "KRko": "그럼 일단\n게임이라도 하면서 놀까? ?",
      "TWzh": "那麼，總而言之，\n要不要先來玩個遊戲啊？。",
      "USen": "So, what should we do? Do you want\nto play a game?",
      "USes": "Estaba pensando... ¿Y si jugamos\nun juego?",
      "USfr": "Qu'est-ce que tu veux faire? \nUn jeu, ça te dit?"
    }
  },
  {
    "label": "200_a",
    "attribute": "0x0000000000000000",
    "locale": {
      "CNzh": "玩",
      "EUde": "Unbedingt!",
      "EUen": "Sounds good!",
      "EUes": "¡Juguemos!",
      "EUfr": "Carrément !",
      "EUit": "Va bene!",
      "EUnl": "Klinkt goed!",
      "EUru": "Давай!",
      "JPja": "遊ぶ",
      "KRko": "놀자",
      "TWzh": "我要玩",
      "USen": "Sounds good!",
      "USes": "¡Juguemos!",
      "USfr": "Carrément!"
    }
  },
  {
    "label": "200_b",
    "attribute": "0x0000000000000000",
    "locale": {
      "CNzh": "不了",
      "EUde": "Eigentlich nicht.",
      "EUen": "Not really.",
      "EUes": "No me apetece",
      "EUfr": "Surtout pas !",
      "EUit": "Non mi va.",
      "EUnl": "Niet echt, nee.",
      "EUru": "Нет, не хочу.",
      "JPja": "やめとく",
      "KRko": "싫어",
      "TWzh": "不要好了",
      "USen": "Not really.",
      "USes": "No tengo ganas",
      "USfr": "Surtout pas!"
    }
  },
  {
    "label": "201",
    "attribute": "0x0000020000000000",
    "locale": {
      "CNzh": "有一个很有趣的游戏，\n要不要一起\n玩玩看？。",
      "EUde": "Lass es uns etwas interessanter\nmachen und ein Spiel spielen. Was\nmeinst du? Ich kenne da ein gutes...",
      "EUen": "Let's spice things up with a game.\nWhaddaya say? I know a pretty\ngood one...",
      "EUes": "¿Por qué no jugamos a algo?\n¿Te apetece? Conozco un juego\nde lo más emocionante.",
      "EUfr": "On va faire un jeu, pour s'amuser.\nJ'en connais un qui vaut le coup...",
      "EUit": "Ho un'idea! Aggiungiamo un po'\ndi estilo alla giornata con un juego.\nTi va? Ne conosco giusto uno...",
      "EUnl": "Hé, ik weet iets leuks. Zin in een\nspelletje? Deze is echt goed...",
      "EUru": "Предлагаю сыграть в игру!\nЧто скажешь? Я знаю одну\nочень интересную...",
      "JPja": "あのさ、面白いゲームがあるんだけど\nよかったら　一緒に\nプレイしてみない？　",
      "KRko": "저기 말이지, 재미있는 게임을 아는데\n그대가 원한다면\n함께 플레이하지 않겠어? ?",
      "TWzh": "對了，我知道一種很有趣的遊戲，\n如果你不嫌棄的話，\n要不要一起玩？。",
      "USen": "Let's spice things up with a game.\nWhaddaya say? I know a pretty\ngood one...",
      "USes": "¿Por qué no jugamos a algo?\n¿Tienes ganas? Conozco un juego\nde lo más emocionante.",
      "USfr": "On va faire un jeu, pour s'amuser.\nJ'en connais un super..."
    }
  },
  {
    "label": "201_a",
    "attribute": "0x0000000000000000",
    "locale": {
      "CNzh": "玩",
      "EUde": "Spielen wir!",
      "EUen": "Let's play!",
      "EUes": "¡Vamos allá!",
      "EUfr": "OK !",
      "EUit": "Va bene!",
      "EUnl": "Kom maar op!",
      "EUru": "Согласен!",
      "JPja": "遊ぶ",
      "KRko": "좋아",
      "TWzh": "我要玩",
      "USen": "Let's play!",
      "USes": "¡Dale!",
      "USfr": "OK!"
    }
  },
  {
    "label": "201_b",
    "attribute": "0x0000000000000000",
    "locale": {
      "CNzh": "不了",
      "EUde": "Ich mag nicht.",
      "EUen": "No, thanks.",
      "EUes": "Creo que no",
      "EUfr": "Oh que non !",
      "EUit": "No, grazie.",
      "EUnl": "Nee, bedankt.",
      "EUru": "Что-то неохота.",
      "JPja": "やめとく",
      "KRko": "싫어",
      "TWzh": "不要好了",
      "USen": "No, thanks.",
      "USes": "Creo que no",
      "USfr": "Oh que non!"
    }
  },
  {
    "label": "202",
    "attribute": "0x0000020000000000",
    "locale": {
      "CNzh": "啊，对了！\n正好机会难得，\n要不要来玩游戏？。",
      "EUde": "Oh, das ist die perfekte Gelegenheit\nfür ein Spiel! Hättest du Interesse?",
      "EUen": "Hey, this is the perfect time to play a\ngame! You interested?",
      "EUes": "Esta puede ser la ocasión ideal para\njugar a un juego. ¿Te gusta la idea?",
      "EUfr": "C'est le moment rêvé pour jouer\nà un jeu ! Alors, t'es d'la partie ?",
      "EUit": "Escucha, è il momento giusto per\nfare un juego! Ti interessa?",
      "EUnl": "Hé, dit is een uitgelezen moment om\neen spel te doen! Heb je interesse?",
      "EUru": "Самое время поиграть\nво что-нибудь! Что скажешь?",
      "JPja": "あ、そうだ！\nせっかくの機会だし、\n今から　ゲームでもしないか？　",
      "KRko": "아, 그렇지!\n모처럼의 기회니까\n같이 게임을 하고 놀까? ?",
      "TWzh": "啊，對了！\n既然機會難得，\n接下來要不要玩個遊戲？。",
      "USen": "Hey, this is the perfect time to play a\ngame! You interested?",
      "USes": "Este puede ser el momento ideal\npara jugar a un juego.\n¿Te gusta la idea?",
      "USfr": "C'est le moment rêvé pour jouer\nà un jeu! Alors, t'es d'la partie?"
    }
  },
  {
    "label": "202_a",
    "attribute": "0x0000000000000000",
    "locale": {
      "CNzh": "玩",
      "EUde": "Ja klar!",
      "EUen": "Obviously!",
      "EUes": "¡Sí, juguemos!",
      "EUfr": "Trop !",
      "EUit": "Sì, certo!",
      "EUnl": "Natuurlijk!",
      "EUru": "Конечно!",
      "JPja": "遊ぶ",
      "KRko": "좋아",
      "TWzh": "我要玩",
      "USen": "Obviously!",
      "USes": "¡Sí, juguemos!",
      "USfr": "Trop!"
    }
  },
  {
    "label": "202_b",
    "attribute": "0x0000000000000000",
    "locale": {
      "CNzh": "不了",
      "EUde": "Nein, danke.",
      "EUen": "Maybe another time.",
      "EUes": "Más bien no",
      "EUfr": "Trop pas !",
      "EUit": "Direi di no...",
      "EUnl": "Een andere keer.",
      "EUru": "Не сегодня...",
      "JPja": "やめとく",
      "KRko": "싫어",
      "TWzh": "不要好了",
      "USen": "Maybe another time.",
      "USes": "Creo que no",
      "USfr": "Trop pas!"
    }
  },
  {
    "label": "203",
    "attribute": "0x0000000000000000",
    "locale": {
      "CNzh": "OK！\n那就让我好好欣赏一下\n你的房间吧。。",
      "EUde": "Kein Grund zur Sorge! Dann bleibt\nmir mehr Zeit, dein Haus zu\nerkunden.",
      "EUen": "No worries! More time for me to\nsnoop around your place.",
      "EUes": "Vale, no pasa nada. Así puedo\ndedicar más tiempo a curiosear\npor tu casa.",
      "EUfr": "T'inquiète, basket ! J'ai plus qu'à\nfouiller dans tes affaires, alors.",
      "EUit": "Está bien! Così avrò più tiempo per\nficcanasare a casa tua. Ma sempre\ncon estilo, eh!",
      "EUnl": "Geen probleem, hoor! Kan ik lekker\nnog wat meer rondsnuffelen hier.",
      "EUru": "Ну ладно! Я тогда тут все\nхорошенько осмотрю!",
      "JPja": "オーケー！\nじゃあ、キミの部屋を\nじっくり　見させてもらうよ、",
      "KRko": "오케이～!\n그럼, 그대의 집을\n천천히 둘러보도록 하지, ",
      "TWzh": "OK！\n那我就慢慢欣賞\n你的房間吧！。",
      "USen": "No worries! More time for me to\nsnoop around your place.",
      "USes": "Bien, no pasa nada. Así puedo\ndedicar más tiempo a curiosear\npor tu casa.",
      "USfr": "Tant pis, paparazzi! J'ai plus qu'à\nfouiller dans tes affaires, alors."
    }
  },
  {
    "label": "204",
    "attribute": "0x0000000000000000",
    "locale": {
      "CNzh": "当然，这也没关系。\n那么，就让我好好享受一下\n你的房间吧……。",
      "EUde": "Ach, kein Problem. Einfach nur mit\ndir hier zu sein, fühlt sich schon an\nwie der VIP-Bereich des Lebens.",
      "EUen": "Hey, no problem. Just hanging out\nhere is like being in the VIP section\nof life.",
      "EUes": "Sin problema. Estar aquí de visita\nya satisface suficientemente mis\ninquietudes.",
      "EUfr": "No problemo. J'vais regarder\nta déco, pour pouvoir te juger.",
      "EUit": "Ningún problema. A casa tua, mi\nsento come se fossi nell'area VIP\ndi un hotel di gran lusso.",
      "EUnl": "Hé, geen punt. Gewoon hier\nrondhangen voelt al alsof ik\nbackstage ben.",
      "EUru": "Хорошо-хорошо. Мне на самом\nделе и так есть чем заняться.",
      "JPja": "もちろん　それでも構わないよ\nじゃあ、キミの部屋を\n堪能させてもらおうかな・・・、",
      "KRko": "물론 안 해도 돼!\n그럼, 그대의 집을\n구석구석 탐방해볼까, ...",
      "TWzh": "沒關係喔。\n那我就好好享受\n你房間的溫暖吧……。",
      "USen": "Hey, no problem. Just hanging out\nhere is like being in the VIP section\nof life.",
      "USes": "No hay problema. Estar aquí de visita\nya satisface mis inquietudes.",
      "USfr": "No problemo. J'vais regarder\nta déco, pour pouvoir te juger."
    }
  },
  {
    "label": "205",
    "attribute": "0x0000000000000000",
    "locale": {
      "CNzh": "呵呵呵，看来比起游戏，\n你还是更喜欢聊聊天？\n无论哪一种，我都很欢迎哦！。",
      "EUde": "Oh, du möchtest reden, anstatt zu\nspielen? Ausgezeichnet. Ich bin ein\nwahres Konversationsgenie!",
      "EUen": "Oh, you'd rather talk than play\ngames? No problem at all. I'm a\nconversation machine, (catchphrase)!",
      "EUes": "Bueno. ¿Entiendo que prefieres que\nsimplemente charlemos? ¡Porque en\neso también soy un experto!",
      "EUfr": "Tu préfères parler, c'est ça ? \nMais no soucy, quoi ! Discuter,\nc'est l'pied, (expression) !",
      "EUit": "Ah, preferisci hablar invece che\ngiocare? No hay problema, io sono\nun conversatore stilosissimo!",
      "EUnl": "O, praat je liever dan dat je\nspelletjes speelt? Dat maakt niks uit,\nhoor.\nPraten kan ik als de beste, (catchphrase)!",
      "EUru": "Ладно, у меня все равно было мало\nвремени. Как всегда, куча дел...\n(catchphrase)!",
      "JPja": "フフフ、キミは　ゲームよりも\n語り合う方が　お好みかな？\nボクは、どちらでも　大歓迎だよ！　",
      "KRko": "후후후, 그대는 게임보다\n깊은 대화를 원하는 건가?\n나는 다 환영이야, !",
      "TWzh": "呵呵呵，看來比起遊戲，\n你更喜歡聊天吧？\n不管哪一種，我都OK喔！。",
      "USen": "Oh, you'd rather talk than play\ngames? No problem at all. I'm a\nconversation machine, (catchphrase)!",
      "USes": "Bueno. ¿Prefieres que simplemente\ncharlemos? ¡Porque en eso\ntambién soy un experto!",
      "USfr": "Tu préfères jaser, c'est ça? \nNo problemo! Discuter, c'est\nl'pied, (expression)!"
    }
  }
]