﻿[
  {
    "label": "001",
    "attribute": "0x00000000",
    "locale": {
      "CNzh": "这就是我们的别墅啊～\n看到这栋别墅的大小的确\n够我和粒狸两个人一起住，我就放心了！",
      "EUde": "Ui, unser neues Ferienhaus!\nUnd sooo geräumig! Schön viel\nPlatz für mich und Schlepp!",
      "EUen": "So this is our new vacation home!\nHow nice to see there's enough\nroom for me and Tommy!",
      "EUes": "¿Así que esta va a ser nuestra casa\nde vacaciones?\n¡Tiene espacio de sobra para Nendo\ny para mí! ¡Qué bien!",
      "EUfr": "Voici donc notre nouvelle villa de\nvacances ! Et elle est suffisamment\nspacieuse pour Mélo et moi-même !",
      "EUit": "Ecco la nostra casa vacanze! Meno\nmale che c'è spazio sia per me sia\nper Marco!",
      "EUnl": "Dus dit is ons nieuwe vakantiehuis!\nWat fijn dat er genoeg ruimte is voor\nmij en Tommy!",
      "EUru": "Так вот она какая, наша новая дача!\nЗдесь достаточно места и для меня,\nи для Томми! Как замечательно!",
      "JPja": "ここが　ボクらの別荘なんですねー\nつぶきちと　ふたりで暮らすのにも\n十分な大きさがあって　安心しましたー！",
      "KRko": "여기가 저희 별장이군요－\n밤돌이하고 둘이서 살아도\n여유로울 만큼 넓어서 안심했어요－!",
      "TWzh": "這裡就是我們的別墅啊\n而且這裡看起來也足夠讓我跟粒狸一起住，\n讓我覺得很放心喔！",
      "USen": "So this is our new vacation home!\nHow nice to see there's enough\nroom for me and Tommy!",
      "USes": "¿Así que esta va a ser nuestra casa\nde vacaciones?\n¡Tiene espacio de sobra para Nendo\ny para mí! ¡Qué bien!",
      "USfr": "Voici donc notre nouvelle maison de\nvacances! Et elle est suffisamment\nspacieuse pour Mélo et moi-même!"
    }
  },
  {
    "label": "001_01",
    "attribute": "0x00000000",
    "locale": {
      "CNzh": "那么，接下来的事情要麻烦你了，\n还请你多多关照！",
      "EUde": "Vielen Dank für deine Mühe!",
      "EUen": "Thanks for all of your help!",
      "EUes": "¡Gracias por ayudarnos con esto!",
      "EUfr": "Merci pour ton aide !",
      "EUit": "Grazie dell'aiuto!",
      "EUnl": "Bedankt voor alle hulp!",
      "EUru": "Благодарим за помощь!",
      "JPja": "それでは　お世話になりますが\nなにとぞ　よろしくお願いしまーす！",
      "KRko": "그럼 수고스러우시겠지만\n잘 부탁드립니다－!",
      "TWzh": "那麼，雖然得給您添麻煩，\n但還是要請您多多關照了！",
      "USen": "Thanks for all of your help!",
      "USes": "¡Gracias por ayudarnos con esto!",
      "USfr": "Merci pour ton aide!"
    }
  },
  {
    "label": "002",
    "attribute": "0x02000000",
    "locale": {
      "CNzh": "我在我在！\n工程的进展如何？",
      "EUde": "Hallo, hallo! Wie weit bist du denn\nmit dem Ferienhaus?",
      "EUen": "Hello, hello! How is the vacation\nhome coming along? Is it ready?",
      "EUes": "¡Buenas! ¿Cómo marcha la casa?\n¿Está lista ya?",
      "EUfr": "Bien le bonjour ! Tout se passe\ncomme tu veux ? La maison de\nvacances est prête ?",
      "EUit": "Ciao, ciao! Sta filando tutto liscio?\nÈ pronta la casa vacanze?",
      "EUnl": "Hallo, hallo! Wil het een beetje\nlukken met het vakantiehuis?\nIs het al klaar?",
      "EUru": "Привет, привет! Как идут дела со\nстроительством дачи? Все готово?",
      "JPja": "はいはーい！\n作業の方は　いかがでございますかー？",
      "KRko": "네－에!\n작업은 잘돼 가시나요－?",
      "TWzh": "好的好的！\n請問作業方面還順利嗎ー？",
      "USen": "Hello, hello! How is the vacation\nhome coming along? Is it ready?",
      "USes": "¡Buenas! ¿Cómo va la casa?\n¿Ya está lista?",
      "USfr": "Bien le bonjour! Tout se passe\ncomme tu veux? La maison de\nvacances est prête?"
    }
  },
  {
    "label": "002_01",
    "attribute": "0x04000000",
    "locale": {
      "CNzh": "我在我在！\n工程的进展如何？",
      "EUde": "Hallo, hallo! Wie weit bist du denn\nmit dem Ferienhaus?",
      "EUen": "Hello, hello! How is the vacation\nhome coming along? Is it ready?",
      "EUes": "¡Buenas! ¿Cómo marcha la casa?\n¿Está lista ya?",
      "EUfr": "Bien le bonjour ! Tout se passe\ncomme tu veux ? La maison de\nvacances est prête ?",
      "EUit": "Ciao, ciao! Sta filando tutto liscio?\nÈ pronta la casa vacanze?",
      "EUnl": "Hallo, hallo! Wil het een beetje\nlukken met het vakantiehuis?\nIs het al klaar?",
      "EUru": "Привет, привет! Как идут дела со\nстроительством дачи? Все готово?",
      "JPja": "はいはーい！\n作業の方は　いかがでございますかー？",
      "KRko": "네－에!\n작업은 잘돼 가시나요－?",
      "TWzh": "好的好的！\n請問作業方面還順利嗎ー？",
      "USen": "Hello, hello! How is the vacation\nhome coming along? Is it ready?",
      "USes": "¡Buenas! ¿Cómo va la casa?\n¿Ya está lista?",
      "USfr": "Bien le bonjour! Tout se passe\ncomme tu veux? La maison de\nvacances est prête?"
    }
  },
  {
    "label": "002_01_a",
    "attribute": "0x00000000",
    "locale": {
      "CNzh": "完成了！",
      "EUde": "Es ist fertig!",
      "EUen": "It's ready!",
      "EUes": "¡La casa está lista!",
      "EUfr": "Tout est prêt !",
      "EUit": "È pronta!",
      "EUnl": "Het is klaar!",
      "EUru": "Готово!",
      "JPja": "完成しました！",
      "KRko": "완성했어!",
      "TWzh": "完成了！",
      "USen": "It's ready!",
      "USes": "¡La casa está lista!",
      "USfr": "Tout est prêt!"
    }
  },
  {
    "label": "002_01_b",
    "attribute": "0x00000000",
    "locale": {
      "CNzh": "来建造2楼吧？",
      "EUde": "2. Etage gefällig?",
      "EUen": "Let's add an upstairs.",
      "EUes": "Añadamos una planta",
      "EUfr": "Ajoutons un étage.",
      "EUit": "Aggiungiamo un piano!",
      "EUnl": "Wil je nog een verdieping?",
      "EUru": "Добавим этаж!",
      "JPja": "2階をつくりませんか？",
      "KRko": "2층을 만드는 건 어때?",
      "TWzh": "要打造二樓嗎？",
      "USen": "Let's add an upstairs.",
      "USes": "Añadamos otro piso",
      "USfr": "Ajoutons un étage."
    }
  },
  {
    "label": "002_01_c",
    "attribute": "0x00000000",
    "locale": {
      "CNzh": "请稍等一下",
      "EUde": "Benötige noch Zeit...",
      "EUen": "Not quite yet.",
      "EUes": "Todavía falta un poco",
      "EUfr": "J'ai pas encore fini.",
      "EUit": "Ancora non è pronta...",
      "EUnl": "Nog niet helemaal klaar.",
      "EUru": "Еще чуть-чуть.",
      "JPja": "もう少し　お待ちください",
      "KRko": "조금만 더 기다려",
      "TWzh": "請再稍等一下",
      "USen": "Not quite yet.",
      "USes": "Todavía falta un poco",
      "USfr": "J'ai pas encore fini."
    }
  },
  {
    "label": "002_a",
    "attribute": "0x00000000",
    "locale": {
      "CNzh": "完成了！",
      "EUde": "Es ist fertig!",
      "EUen": "It's ready!",
      "EUes": "¡La casa está lista!",
      "EUfr": "Tout est prêt !",
      "EUit": "È pronta!",
      "EUnl": "Het is klaar!",
      "EUru": "Готово!",
      "JPja": "完成しました！",
      "KRko": "완성했어!",
      "TWzh": "完成了！",
      "USen": "It's ready!",
      "USes": "¡La casa está lista!",
      "USfr": "Tout est prêt!"
    }
  },
  {
    "label": "002_b",
    "attribute": "0x00000000",
    "locale": {
      "CNzh": "请稍等一下",
      "EUde": "Benötige noch Zeit...",
      "EUen": "Not quite yet.",
      "EUes": "Todavía falta un poco",
      "EUfr": "J'ai pas encore fini.",
      "EUit": "Ancora non è pronta...",
      "EUnl": "Nog niet helemaal klaar.",
      "EUru": "Еще чуть-чуть.",
      "JPja": "もう少し　お待ちください",
      "KRko": "조금만 더 기다려",
      "TWzh": "請再稍等一下",
      "USen": "Not quite yet.",
      "USes": "Todavía falta un poco",
      "USfr": "J'ai pas encore fini."
    }
  },
  {
    "label": "003_01",
    "attribute": "0x00000000",
    "locale": {
      "CNzh": "……不好意思！\n你好像还没\n进别墅里看过呢……",
      "EUde": "Ui! Momentchen mal, du warst ja\nüberhaupt nicht im Haus drin, oder?",
      "EUen": "Oh my! Pardon me, but have you\nbeen inside the home yet?",
      "EUes": "Perdona, pero ¿has mirado la casa\npor dentro? Me da la impresión\nde que no...",
      "EUfr": "Oh ! Excuse-moi mais... es-tu\ndéjà entré dans la maison ?",
      "EUit": "Aspetta... ma sei entrato in casa?",
      "EUnl": "O jee! Pardon, maar heb je al een\nkijkje genomen in het huis?",
      "EUru": "Ой! Неужели ты еще даже в дом не\nзаходил?",
      "JPja": "・・・申し訳ございませーん！\nまだ　家の中にも\n入っていないのですが・・・",
      "KRko": "...정말 죄송한데요－!\n아직 집 안에도\n안 들어가신 것 같은데...",
      "TWzh": "不……不好意思！\n但您似乎還沒進別墅裡看過呢……",
      "USen": "Oh my! Pardon me, but have you\nbeen inside the home yet?",
      "USes": "Perdona, pero ¿miraste la casa\npor adentro? Me da la impresión\nde que no...",
      "USfr": "Oh! Excuse-moi mais... es-tu\ndéjà entré dans la maison?"
    }
  },
  {
    "label": "003_02",
    "attribute": "0x00000000",
    "locale": {
      "CNzh": "……不好意思！\n这间房间里的东西是不是太多了？\n要让两个人一起住的话，可能有些拥挤。\n难得能拥有别墅，\n希望你能再稍微帮我们\n整理一下！",
      "EUde": "Tut mir leid, aber hier stehen viel zu\nviele Sachen rum. So eingeengt kann\nich mich unmöglich entspannen!\nBitte sei doch so lieb und räum\nein bisschen für mich auf, ja?",
      "EUen": "Sorry! But I feel like there's too\nmuch clutter for comfort.\nI'd very much appreciate it if you\ncould tidy up a little more!",
      "EUes": "Vaya, aquí hay muchísimas cosas.\nPiensa que seremos dos en la casa;\nnecesitamos más espacio.\n¿Podrías quitar algunos muebles?",
      "EUfr": "Désolé ! Niveau confort, il y a\nencore beaucoup à faire ! C'est\ntrop encombré !\nTu veux bien ranger un peu ? Je t'en\nserais très reconnaissant !",
      "EUit": "Scusa! Ma mi sembra ci sia un po'\ntroppo disordine per i nostri gusti!\nSarebbe fantastico se potessi\nmettere un po' in ordine!",
      "EUnl": "Sorry! Maar ik vind dat er te veel\nrommel ligt om hier fijn te kunnen\nverblijven!\nIk zou het prettig vinden als je het\neen en ander kon weghalen!",
      "EUru": "Не хочу надоедать, но... Тут все\nзаставлено вещами. Находиться\nздесь будет неуютно.\nМожешь немного убрать,\nпожалуйста?",
      "JPja": "・・・申し訳ございませーん！\nこのお部屋　物が多すぎないでしょうか？\nふたりで暮らすには　せまいかもしれません\nせっかくですが\nもう少し　片付けてもらえると\n助かりまーす！",
      "KRko": "...정말 죄송해요－!\n근데 이 방에 물건이 너무 많지 않나요?\n둘이 살기에는 좁을 것 같아서요...\n기껏 꾸며주셨지만\n조금 더 정리해주셨으면 합니다－!",
      "TWzh": "不……不好意思！\n這個房間裡的東西會不會太多了？\n感覺這樣會沒空間給兩個人住呢。\n難得有這個機會，\n如果您願意稍微整理一下，\n我會很感激的！",
      "USen": "Sorry! But I feel like there's too\nmuch clutter for comfort.\nI'd very much appreciate it if you\ncould tidy up a little more!",
      "USes": "Vaya, aquí hay muchísimas cosas.\nPiensa que seremos dos en la casa;\nnecesitamos más espacio.\n¿Podrías quitar algunos muebles?",
      "USfr": "Désolé! Niveau confort, il y a\nencore beaucoup à faire!\nC'est trop encombré!\nTu veux bien ranger un peu?\nJe t'en serais très reconnaissant!"
    }
  },
  {
    "label": "003_03",
    "attribute": "0x00000000",
    "locale": {
      "CNzh": "……不好意思！\n房间里的东西似乎太多了。\n因为我们要兄弟俩一起住，\n需要一些空间来安置行李和休息放松，\n所以希望你能帮我们再空出点儿位置来！",
      "EUde": "Oje! Nein, drinnen steht einfach viel\nzu viel Zeug rum! Tut mir leid...\nIch will doch mit meinem Bruderherz\nhier Urlaub machen, da braucht jeder\nein bisschen Platz für sich!",
      "EUen": "Sorry! But I feel like there's too\nmuch clutter in there.\nI'm going to be staying here\nwith my brother, so I'd love some\nspace for us to spread out!",
      "EUes": "Me parece que la casa está\ndemasiado abarrotada...\n¿Te importa hacer algo de sitio?\nMi hermano y yo preferiríamos poder\nmovernos con comodidad...",
      "EUfr": "Désolé, mais je trouve la maison\nbeaucoup trop encombrée !\nSi je veux habiter ici avec mon frère\nsans nous marcher sur les pattes, il\nva nous falloir plus de place !",
      "EUit": "Scusa, sai! Mi sembra ci sia troppo\ndisordine in casa!\nDovrò starci con mio fratello, per cui\nun po' di spazio libero ci farebbe\nveramente comodo!",
      "EUnl": "Sorry! Maar ik vind dat er te veel\nrommel ligt!\nIk ben van plan om hier samen met\nmijn broertje vakantie te houden, dus\nik zou graag meer ruimte willen!",
      "EUru": "Извини, что беспокою, но здесь все\nзаставлено вещами.\nДля нас с братом будет маловато\nместа, поэтому нужно освободить\nдом от лишнего!",
      "JPja": "・・・申し訳ございませーん！\nお部屋の中　物が多すぎるみたいです\nふたり暮らしになりますので\n荷物や　くつろぐ空間など\nもう少し　スペースがあると　助かりまーす！",
      "KRko": "...말씀드리기 죄송하지만\n방 안에 물건이 너무 많은 것 같아요\n둘이서 사용하게 될 테니까\n짐을 둘 곳이나 여유 공간이\n조금 더 있었으면 좋겠어요－!",
      "TWzh": "不……不好意思！\n房間裡的東西好像放太多了。\n我們要兩個人一起住，\n如果有夠大的空間能放包包或好好休息，\n我會很感激的！",
      "USen": "Sorry! But I feel like there's too\nmuch clutter in there.\nI'm going to be staying here\nwith my brother, so I'd love some\nspace for us to spread out!",
      "USes": "Me parece que la casa está\ndemasiado atiborrada...\n¿Podrías hacer un poco de lugar?\nMi hermano y yo preferiríamos poder\nmovernos con comodidad...",
      "USfr": "Désolé, mais je trouve la maison\nbeaucoup trop encombrée!\nSi je veux habiter ici avec mon frère\nsans nous marcher sur les pattes, il\nva nous falloir plus de place!"
    }
  },
  {
    "label": "003_04",
    "attribute": "0x00000000",
    "locale": {
      "CNzh": "……不好意思！\n另一间房间里的东西好像太多了。\n因为我们兄弟俩都好动，总喜欢跑来跑去……\n所以希望你能再帮我们整理一下，\n好让我们不会在房间里被绊倒！",
      "EUde": "Oje! Nein, nebenan steht einfach viel\nzu viel Zeug rum! Tut mir leid...\nWir sind zwar lieb und artig, aber\nzu Hause wird auch mal getobt,\nund wenn dann einer stolpert...\nKönntest du nicht vielleicht nur\nein kleines bisschen aufräumen,\ndamit sich niemand den Zeh stößt?",
      "EUen": "Sorry! But I feel like there's too\nmuch clutter in there!\nUs brothers like to bustle about...\nCould you organize the place\nso we won't trip?",
      "EUes": "Creo que en la otra habitación hay\ndemasiadas cosas...\nMi hermano y yo estamos muy\nunidos, pero no tanto como para\nvivir tan apretados.\n¿Podrías hacer un poco de espacio?",
      "EUfr": "Désolé, mais l'autre pièce est\nbeaucoup trop pleine !\nAvec mon frère, on court sans arrêt\ndans tous les sens... C'est l'habitude\nde ne pas faire attendre le client...\nAlors pourrais-tu faire en sorte\nque nous ne trébuchions pas\nconstamment ?",
      "EUit": "Aspetta! Mi sembra un po' troppo\ndisordinata, la casa!\nSai, noi siamo un po' irruenti...\nPotresti fare un po' di spazio?",
      "EUnl": "Sorry! Maar ik vind dat er te veel\nrommel ligt!\nWe zijn graag in de weer met z'n\ntweetjes... Kun je de boel een beetje\nopruimen, zodat we niet struikelen?",
      "EUru": "Не хочу придираться... но здесь\nвсе заставлено вещами!\nНам с братом негде будет\nразвернуться... Можешь немного\nосвободить пространство?",
      "JPja": "・・・申し訳ございませーん！\nもうひとつのお部屋　物が多すぎるみたいです\nボクら兄弟、どちらも　ちょこまかと\n動き回る性分でして・・・転ばないように\n整理してもらえると　助かりまーす！",
      "KRko": "...저기, 죄송한데요－!\n또 다른 방이 물건으로 가득한 것 같아요\n저희 형제는 둘 다 쫄랑쫄랑\n돌아다니는 걸 좋아해서...\n넘어지지 않게 정리해주셨으면 좋겠네요－!",
      "TWzh": "不……不好意思！\n另一個房間裡的東西好像放太多了。\n其實我們兄弟都很喜歡四處走動……\n如果您願意整理一下，讓我們不會被東西絆倒，\n我會很感激的！",
      "USen": "Sorry! But I feel like there's too\nmuch clutter in there!\nUs brothers like to bustle about...\nCould you organize the place\nso we won't trip?",
      "USes": "Creo que en la otra habitación hay\ndemasiadas cosas...\nMi hermano y yo estamos muy\nunidos, pero no tanto como para\nvivir tan apretados.\n¿Podrías hacer un poco de espacio?",
      "USfr": "Désolé, mais l'autre pièce est\nbeaucoup trop pleine!\nAvec mon frère, on court sans arrêt\ndans tous les sens... C'est l'habitude\nde ne pas faire attendre le client...\nAlors pourrais-tu faire en sorte\nque nous ne trébuchions pas\nconstamment?"
    }
  },
  {
    "label": "004",
    "attribute": "0x00000000",
    "locale": {
      "CNzh": "哇，我就等着这句话呢～！",
      "EUde": "Hurra! Ich bin schon ganz kribbelig\nvor lauter Spannung!",
      "EUen": "Hooray! I've been waiting!",
      "EUes": "¡Bieeen! ¡Qué nervios!",
      "EUfr": "Ouais ! Enfin !",
      "EUit": "Evviva! Non stavo più nella pelliccia!",
      "EUnl": "Hoera! Ik was al aan het wachten!",
      "EUru": "Ура! Наконец-то!",
      "JPja": "わっ、お待ちしておりましたー！",
      "KRko": "우와, 드디어 완성됐군요－!",
      "TWzh": "哇，我等好久了！",
      "USen": "Hooray! I've been waiting!",
      "USes": "¡Bieeen! ¡Qué nervios!",
      "USfr": "Ouais! Enfin!"
    }
  },
  {
    "label": "005",
    "attribute": "0x00000000",
    "locale": {
      "CNzh": "这样啊！\n那么，剩下的事情就麻烦你了！",
      "EUde": "Okay! Ich werd auch ganz geduldig\nsein!",
      "EUen": "OK! I'll be waiting!",
      "EUes": "Ningún problema. Me esperaré.",
      "EUfr": "D'accord ! Je vais attendre !",
      "EUit": "OK! Non c'è fretta!",
      "EUnl": "Oké! Ik blijf wel wachten!",
      "EUru": "Ладно! Я подожду!",
      "JPja": "さようでございますかー！\nでは　引き続き　よろしくお願いしまーす！",
      "KRko": "그러시군요－!\n그럼 계속해서 잘 부탁드립니다－!",
      "TWzh": "這樣啊！\n那麼接下來的工作就請您多多關照了！",
      "USen": "OK! I'll be waiting!",
      "USes": "Ningún problema. Esperaré.",
      "USfr": "D'accord! Je vais attendre!"
    }
  },
  {
    "label": "006",
    "attribute": "0x02000000",
    "locale": {
      "CNzh": "2楼啊……\n我是和弟弟一起住，建成2楼建筑正合适。\n那么这件事可以拜托你吗？",
      "EUde": "Ein zweites Stockwerk?\nHey, dann hätten ja ich und mein\nBruder jeder einen Stock für sich!\nJa, ja! Zweiten Stock bitte!\nUnd vielen Dank!",
      "EUen": "A second story? Me and my brother\nwill have one story each! Yes, yes,\nlet's do that!",
      "EUes": "¿Otra planta? Mmm... Es cierto que\nasí mi hermano y yo podríamos tener\nuna planta para cada uno...\n¡Venga, sí, hagámoslo!",
      "EUfr": "Rajouter un étage ? Ça nous ferait\nun étage chacun ! Oui, oui, c'est\nentendu !",
      "EUit": "Un altro piano? Significherebbe un\npiano per me e uno per mio fratello!\nSì, sì!",
      "EUnl": "Een tweede verdieping? Dan hebben\nmijn broertje en ik ieder een etage!\nJa, ja, dat lijkt me wel wat!",
      "EUru": "Второй этаж? По этажу на брата!\nДа! Я за!",
      "JPja": "2階でございますか・・・\n弟と　ふたり暮らしだし　ちょうどいいですね\nお願いしても　よろしいでしょうかー？",
      "KRko": "2층이요...?\n동생하고 둘이 살기엔 딱 좋겠네요\n그렇게 부탁드려도 될까요－?",
      "TWzh": "您說二樓啊……\n正好我要跟弟弟兩個人一起住，\n那麼請問這件事可以拜託你嗎？",
      "USen": "A second story? Me and my brother\nwill have one story each! Yes, yes,\nlet's do that!",
      "USes": "¿Otro piso? Mmm... Es cierto que así\nmi hermano y yo podríamos tener\nun piso para cada uno...\n¡Bueno, sí, adelante!",
      "USfr": "Rajouter un étage? Ça nous ferait\nun étage chacun! Oui, oui, c'est\nentendu!"
    }
  },
  {
    "label": "006_a",
    "attribute": "0x00000000",
    "locale": {
      "CNzh": "请交给我吧！",
      "EUde": "Überlass alles mir!",
      "EUen": "Leave it all to me!",
      "EUes": "¡Yo me encargo!",
      "EUfr": "Je m'occupe de tout !",
      "EUit": "Lascia fare a me!",
      "EUnl": "Laat alles maar aan mij over!",
      "EUru": "Предоставь это мне!",
      "JPja": "お任せください！",
      "KRko": "맡겨만 줘!",
      "TWzh": "請交給我吧！",
      "USen": "Leave it all to me!",
      "USes": "¡Yo me encargo!",
      "USfr": "Je m'occupe de tout!"
    }
  },
  {
    "label": "006_b",
    "attribute": "0x00000000",
    "locale": {
      "CNzh": "还是算了吧",
      "EUde": "Ach, lassen wir das...",
      "EUen": "Actually, never mind.",
      "EUes": "Mejor lo dejamos estar",
      "EUfr": "Laissons tomber.",
      "EUit": "Meglio lasciar stare...",
      "EUnl": "Weet je, laat maar zitten...",
      "EUru": "Забудь.",
      "JPja": "やっぱりやめましょう",
      "KRko": "역시 그만두자",
      "TWzh": "還是算了吧",
      "USen": "Actually, never mind.",
      "USes": "Mejor olvídalo",
      "USfr": "Laissons tomber."
    }
  },
  {
    "label": "007",
    "attribute": "0x00000000",
    "locale": {
      "CNzh": "非常感谢！",
      "EUde": "Schönen Dank!",
      "EUen": "Thank you!",
      "EUes": "¡Gracias!",
      "EUfr": "Merci !",
      "EUit": "Grazie mille!",
      "EUnl": "Bedankt!",
      "EUru": "Спасибо!",
      "JPja": "ありがとうございまーす！",
      "KRko": "감사합니다－!",
      "TWzh": "非常謝謝您！",
      "USen": "Thank you!",
      "USes": "¡Gracias!",
      "USfr": "Merci!"
    }
  },
  {
    "label": "008",
    "attribute": "0x00000000",
    "locale": {
      "CNzh": "啊？这样啊……\n那么，等以后有机会的时候，\n我再拜托你吧！",
      "EUde": "Oh! Okay, wie du willst...\nVielleicht ein andermal, ja?",
      "EUen": "Oh, OK... Perhaps another time!",
      "EUes": "Ah, bueno. Entonces mejor\nlo dejamos para otro momento.",
      "EUfr": "Oh, d'accord... Peut-être une autre\nfois dans ce cas !",
      "EUit": "Oh, OK... Sarà per un'altra volta!",
      "EUnl": "O, oké... Misschien een andere\nkeer!",
      "EUru": "А, ну хорошо... Тогда в другой раз!",
      "JPja": "あれ？　そうですか・・・\nでは、また　チャンスがあれば\nよろしくお願いしまーす！",
      "KRko": "앗, 그렇군요...\n그럼 다음 기회가 있다면\n꼭 부탁드릴게요－!",
      "TWzh": "咦？這樣啊……\n那麼如果以後還有機會，\n再請您多多關照了！",
      "USen": "Oh, OK... Perhaps another time!",
      "USes": "Ah, bueno. Entonces mejor\nlo dejamos para otro momento.",
      "USfr": "Oh, d'accord... Peut-être une autre\nfois dans ce cas!"
    }
  },
  {
    "label": "011",
    "attribute": "0x00000000",
    "locale": {
      "CNzh": "你为我们花了这么长时间，\n认真把控每一个细节！\n真的非常感谢！",
      "EUde": "Ui, da hast du dir ja wirklich viel\nMühe gegeben! Vielen Dank!",
      "EUen": "Wow, you were so careful and so\nvery thorough! Thank you!",
      "EUes": "¡Me encanta! Se nota que has puesto\ntodo tu empeño. ¡Muchas gracias!",
      "EUfr": "Ouah, tu t'es vraiment appliqué !\nRien ne t'échappe ! Merci !",
      "EUit": "Wow, hai pensato proprio a tutto!\nGrazie!",
      "EUnl": "Wauw, wat ben je grondig te werk\ngegaan! Bedankt!",
      "EUru": "Ого! Ты так постарался, столько\nсил приложил! Спасибо!",
      "JPja": "ボクらのために　時間をかけて　\n細部まで　こだわってくださったんですね！\n感謝の気持ちで　いっぱいでーす！",
      "KRko": "저희를 위해 시간을 들여서\n세세한 곳까지 신경 써주셨군요!\n진심으로 감사드립니다－!",
      "TWzh": "您居然為了我們花這麼多時間用心打造，\n連細節都這麼講究啊！\n真的非常感謝您！",
      "USen": "Wow, you were so careful and so\nvery thorough! Thank you!",
      "USes": "¡Me encanta! Se nota que pusiste\nmucho esmero. ¡Muchas gracias!",
      "USfr": "Ouah, tu t'es vraiment appliqué!\nRien ne t'échappe! Merci!"
    }
  },
  {
    "label": "013",
    "attribute": "0x00000000",
    "locale": {
      "CNzh": "这就完成了吗！\n真的非常感谢！\n不愧是能工巧匠，速度就是快啊！",
      "EUde": "Hui, so schnell ging das?! Wow,\ndir liegt die Ferienhausdesignerei\nja richtig im Blut! Danke dir!",
      "EUen": "Wow, already?! How professional to\nbe finished so quickly! Thank you!\nVery much!",
      "EUes": "Hala, ¿ya? Es superprofesional de\ntu parte haber acabado tan rápido.\n¡Muchísimas gracias!",
      "EUfr": "Ouah, tu as déjà terminé ?!\nTa rapidité est digne d'un vrai\npro ! Merci beaucoup ! Vraiment !",
      "EUit": "Wow, di già?! Però, che\nprofessionalità! Grazie ancora!",
      "EUnl": "Wauw, ben je nu al klaar?! Wat\nprofessioneel van je om zo snel te\nwerken! Ontzettend bedankt!",
      "EUru": "Ух ты, ты уже закончил?! Видна\nработа профессионала! Спасибо!\nОгромное!",
      "JPja": "さようでございますか！\nどうも　ありがとうございますー！\nさすが　腕利きのお仕事は　早いですね！",
      "KRko": "그러시군요!\n정말 감사합니다－!\n역시 전문가는 일 처리도 빠르네요!",
      "TWzh": "這樣啊！\n真的非常謝謝您！\n果然手腕高超的人做事都特別快啊！",
      "USen": "Wow, already?! How professional to\nbe finished so quickly! Thank you!\nVery much!",
      "USes": "Uy, ¿ya? Es sorprendente lo rápido\nque terminaste. ¡Muchísimas gracias!",
      "USfr": "Wouah, tu as déjà terminé?!\nTa rapidité est digne d'un vrai\npro! Merci beaucoup! Vraiment!"
    }
  },
  {
    "label": "016",
    "attribute": "0x00000000",
    "locale": {
      "CNzh": "",
      "EUde": "",
      "EUen": "",
      "EUes": "",
      "EUfr": "",
      "EUit": "",
      "EUnl": "",
      "EUru": "",
      "JPja": "",
      "KRko": "",
      "TWzh": "",
      "USen": "",
      "USes": "",
      "USfr": ""
    }
  },
  {
    "label": "016_01",
    "attribute": "0x00000000",
    "locale": {
      "CNzh": "(player name)，\n今天你帮了我们这么多，\n真的非常感谢！",
      "EUde": "Einen Riesendank für all die Arbeit\nheute, (Spielername)!",
      "EUen": "Thank you for all of your help\ntoday, (player name)!",
      "EUes": "¡Montones de gracias por tu trabajo\nde hoy, (player name)!",
      "EUfr": "Merci beaucoup pour toute l'aide\nque tu nous as apportée aujourd'hui,\n(nom du joueur) !",
      "EUit": "Grazie per tutto il lavoro che hai\nfatto, (player name)!",
      "EUnl": "Enorm bedankt voor je hulp vandaag,\n(player name)!",
      "EUru": "Спасибо за помощь, (player name)!",
      "JPja": "(player name)さん、\n今日は　大変　お世話になり\nありがとうございましたー！",
      "KRko": "(player name)님!\n오늘은 하나부터 열까지\n정말 감사했습니다－!",
      "TWzh": "(player name)，\n今天受了您的關照，\n真的非常謝謝您！",
      "USen": "Thank you for all of your help\ntoday, (player name)!",
      "USes": "¡Muchas gracias por el trabajo\nde hoy, (player name)!",
      "USfr": "Merci beaucoup pour toute l'aide\nque tu nous as apportée aujourd'hui,\n(nom du joueur)!"
    }
  },
  {
    "label": "017",
    "attribute": "0x02000000",
    "locale": {
      "CNzh": "你为我们打造的这栋别墅，\n我一定会和弟弟一起好好珍惜的！",
      "EUde": "Mein Bruder und ich werden uns\ngut um das Haus kümmern, das\ndu uns gebaut hast.",
      "EUen": "My brother and I will take good\ncare of the home you've built us.",
      "EUes": "Mi hermano y yo vamos a cuidar\nmuy bien de esta casa.",
      "EUfr": "Mon frère et moi prendrons soin\nde cette villa que tu nous as\nconstruite !",
      "EUit": "Stai tranquillo. Io e mio fratello\nci prenderemo cura della casa\nche ci hai costruito!",
      "EUnl": "Mijn broertje en ik zullen goed\nzorgen voor het huis dat je voor ons\nhebt gebouwd.",
      "EUru": "Мы с братом будем как следует\nзаботиться о даче, которую ты для\nнас построил.",
      "JPja": "つくっていただいた別荘は、弟とふたりで\n大切に使っていきたいと思いますー！",
      "KRko": "만들어주신 별장은 동생과 둘이서\n소중하게 사용할게요－!",
      "TWzh": "我和我弟弟兩人會好好珍惜\n您為我們所蓋的別墅！",
      "USen": "My brother and I will take good\ncare of the home you've built us.",
      "USes": "Mi hermano y yo vamos a cuidar\nmuy bien de esta casa.",
      "USfr": "Mon frère et moi prendrons soin\nde cette villa que tu nous as\nconstruite!"
    }
  },
  {
    "label": "017_01",
    "attribute": "0x00000000",
    "locale": {
      "CNzh": "这样啊！\n那么，你回去的时候路上小心！\n欢迎下次再来哦！",
      "EUde": "Oh! Na, dann mal gute Reise!\nKomm auf jeden Fall bald\nvorbei und besuche uns, ja?",
      "EUen": "Oh! Well then, please travel safe!\nAnd come visit us again!",
      "EUes": "¡Vaya! Bueno, pues en ese \ncaso, ¡cuídate! ¡Y ven a\nvernos cuando quieras!",
      "EUfr": "Oh ! Très bien, fais bon voyage\nalors ! Et passe nous rendre visite\nà l'occasion !",
      "EUit": "Oh! Allora buon viaggio!\nTorna a trovarci!",
      "EUnl": "O! Nou, goede reis, dan! En kom nog\neens langs!",
      "EUru": "Ах! Тогда счастливого пути! Заходи\nк нам в гости!",
      "JPja": "さようでございますかー！\nでは　お帰りの際も　お気をつけて！\nまたの　お越しを　お待ちしておりまーす！",
      "KRko": "그러시군요－!\n그럼 돌아가시는 길도 잘 살펴 가세요!\n또 와주시길 기다리고 있을게요－!",
      "TWzh": "這樣啊！\n那麼您要回去時請小心一點喔！\n歡迎您下次再來！",
      "USen": "Oh! Well then, please travel safe!\nAnd come visit us again!",
      "USes": "¡Vaya! Bueno, pues en ese caso,\n¡cuídate! ¡Y ven a vernos cuando quieras!",
      "USfr": "Oh! Très bien, fais bon voyage\nalors! Et passe nous rendre visite\nà l'occasion!"
    }
  },
  {
    "label": "017_02",
    "attribute": "0x00000000",
    "locale": {
      "CNzh": "当然没问题！\n你尽情地拍吧！",
      "EUde": "Klar doch! Du kannst knipsen,\nbis der Finger glüht!",
      "EUen": "Of course! Take as many as\nyou'd like!",
      "EUes": "¡Desde luego! ¡Puedes hacer tantas\nfotos como te plazca!",
      "EUfr": "Bien sûr ! Prends-en autant que\ntu veux !",
      "EUit": "Tranquillo! Fai tutte le foto che vuoi!",
      "EUnl": "Natuurlijk, natuurlijk! Neem er zoveel\nje wilt!",
      "EUru": "Конечно! Фотографируй в свое\nудовольствие!",
      "JPja": "もちろんでございまーす！\nお好きなだけ　お撮りくださいねー！",
      "KRko": "당연히 좋습니다－!\n마음껏 찍으세요－!",
      "TWzh": "當然可以了！\n請您盡情地拍吧！",
      "USen": "Of course! Take as many as\nyou'd like!",
      "USes": "¡Desde luego! ¡Puedes tomar tantas\nfotos como te plazca!",
      "USfr": "Bien sûr! Prends-en autant que\ntu veux!"
    }
  },
  {
    "label": "017_04",
    "attribute": "0x02000000",
    "locale": {
      "CNzh": "那个……\n可以的话，你要不要在回去之前\n为这栋别墅拍一两张照片呢？",
      "EUde": "Wenn du magst, darfst du ruhig\nFotos von deinem Werk machen,\nehe du gehst. Falls du möchtest!",
      "EUen": "I'd like to offer you the opportunity\nto take photos of the home before\nyou leave. If you're interested!",
      "EUes": "Me gustaría proponerte que hagas\nalgunas fotos de la casa antes de\nmarcharte. ¡Si te interesa, claro!",
      "EUfr": "Je me disais que tu voudrais sans\ndoute prendre quelques photos avant\nde partir. Enfin, si ça t'intéresse !",
      "EUit": "Ti offro l'opportunità di scattare\nqualche foto della casa, prima\ndi andare. Sempre che ti interessi!",
      "EUnl": "Ik wil je de gelegenheid aanbieden\nom foto's te nemen van het huis\nvoor je gaat. Als je wilt!",
      "EUru": "Пока ты не ушел, я бы хотел\nпредложить тебе сделать пару\nснимков. Если хочется!",
      "JPja": "あの・・・\nもし　良ければ、お帰りになる前に\n別荘の写真を　お撮りになりませんか？",
      "KRko": "저기...\n혹시 괜찮으시면 돌아가시기 전에\n별장 사진을 찍으시면 어떨까요?",
      "TWzh": "那個……\n如果方便的話，可以請您在回去之前，\n先拍張別墅的照片嗎？",
      "USen": "I'd like to offer you the opportunity\nto take photos of the home before\nyou leave. If you're interested!",
      "USes": "Me gustaría proponerte que tomes\nalgunas fotos de la casa antes de\nirte. ¡Si te interesa, claro!",
      "USfr": "Je me disais que tu voudrais sans\ndoute prendre quelques photos avant\nde partir. Enfin, si ça t'intéresse!"
    }
  },
  {
    "label": "017_04_a",
    "attribute": "0x00000000",
    "locale": {
      "CNzh": "好的，请让我拍照",
      "EUde": "Ja, ich mache  Fotos.",
      "EUen": "Yes, I'll take photos.",
      "EUes": " Sí, haré fotos",
      "EUfr": "Oui, des  photos !",
      "EUit": "Sì, grazie!",
      "EUnl": "Ja, doe ik.",
      "EUru": "Да, сделаю  снимки.",
      "JPja": "はい、撮らせてください",
      "KRko": "응, 찍을래!",
      "TWzh": "是的，請讓我拍張照",
      "USen": "Yes, I'll take photos.",
      "USes": " Sí, tomaré fotos",
      "USfr": "Oui, des  photos!"
    }
  },
  {
    "label": "017_04_b",
    "attribute": "0x00000000",
    "locale": {
      "CNzh": "抱歉，我要先走了",
      "EUde": "Ich muss zurück...",
      "EUen": "I need to head back.",
      "EUes": "No, tengo que irme",
      "EUfr": "Je dois repartir.",
      "EUit": "Devo proprio andare.",
      "EUnl": "Ik moet weer gaan.",
      "EUru": "Мне пора.",
      "JPja": "いえ、失礼します",
      "KRko": "아니, 됐어",
      "TWzh": "不了，我先走了",
      "USen": "I need to head back.",
      "USes": "No, me tengo que ir",
      "USfr": "Je dois repartir."
    }
  },
  {
    "label": "017_05",
    "attribute": "0x00000000",
    "locale": {
      "CNzh": "好的！\n请你尽情地拍吧！\n那么，结束后请来告诉我一声！",
      "EUde": "Klar doch! Dann knips mal, bis der\nFinger glüht! Wenn du fertig bist,\nsag mir einfach Bescheid!",
      "EUen": "OK! Feel free to take as many as\nyou'd like. Please tell me when\nyou're done!",
      "EUes": "¡Estupendo! ¡Haz todas las fotos que\nquieras! Solo avísame cuando hayas\nterminado, por favor.",
      "EUfr": "D'accord ! Prends-en autant que\ntu veux ! Et fais-moi signe quand\ntu as fini !",
      "EUit": "OK! Fai tutte le foto che vuoi!\nQuando hai finito, torna da me!",
      "EUnl": "Oké! Neem er zoveel je wilt! Zeg het\nmaar als je klaar bent!",
      "EUru": "Хорошо! Фотографируй сколько\nдуше угодно. Только скажи,\nкак закончишь!",
      "JPja": "かしこまりましたー！\nお好きなだけ　お撮りくださいねー！\nでは　また後程　お声がけくださーい！",
      "KRko": "알겠습니다－!\n마음껏 찍으세요－!\n그럼 나중에 다시 말을 걸어주세요－!",
      "TWzh": "我明白了！\n請您盡情地拍吧！\n之後再請您來找我喔！",
      "USen": "OK! Feel free to take as many as\nyou'd like. Please tell me when\nyou're done!",
      "USes": "¡Estupendo! ¡Toma todas las fotos\nque quieras! Solo avísame cuando\nhayas terminado, por favor.",
      "USfr": "D'accord! Prends-en autant que\ntu veux! Et fais-moi signe quand\ntu as fini!"
    }
  },
  {
    "label": "017_06",
    "attribute": "0x00000000",
    "locale": {
      "CNzh": "啊，这样啊……\n那么，你回去的时候路上小心！\n欢迎下次再来哦！",
      "EUde": "Oh! Na, dann mal einen sicheren\nHeimweg! Komm auf jeden Fall\nbald vorbei und besuche uns, ja?",
      "EUen": "Oh! OK... Then please get home safe!\nAnd come visit again!",
      "EUes": "¡Ah! Bueno, vale... Ve con cuidado.\n¡Y pásate a visitarme otra vez cuando quieras!",
      "EUfr": "Oh ! Je vois... Dans ce cas, rentre\nbien ! Et passe nous voir à l'occasion !",
      "EUit": "Oh! OK... Allora, ciao!\nTorna a trovarci, naturalmente!",
      "EUnl": "O! Oké... Veilig thuis, dan! En kom\nnog eens langs!",
      "EUru": "Ой! Ладно... Тогда хорошей\nдороги! И заходи еще!",
      "JPja": "あっ、さようでございますか・・・\nでは　お帰りの際も　お気をつけて！\nまたの　お越しを　お待ちしておりまーす！",
      "KRko": "앗, 그렇군요...\n그럼 가시는 길도 살펴 가세요!\n또 와주시길 기다리고 있겠습니다－!",
      "TWzh": "啊，這樣啊……\n那麼您要回去時請小心一點喔！\n歡迎您下次再來！",
      "USen": "Oh! OK... Then please get home safe!\nAnd come visit again!",
      "USes": "¡Ah! Bueno, bien... Ve con cuidado.\n¡Y pasa a visitarme otra vez cuando quieras!",
      "USfr": "Oh! Je vois... Dans ce cas, rentre\nbien! Et passe nous voir à l'occasion!"
    }
  },
  {
    "label": "017_a",
    "attribute": "0x00000000",
    "locale": {
      "CNzh": "请让我拍张照",
      "EUde": "Darf ich  Fotos machen?",
      "EUen": "May I take photos?",
      "EUes": " ¿Puedo sacar fotos?",
      "EUfr": "Je peux faire des  photos ?",
      "EUit": "Posso fare delle  foto?",
      "EUnl": "Mag ik  foto's maken?",
      "EUru": "Можно делать  снимки?",
      "JPja": "写真を撮らせてください",
      "KRko": "사진 좀 찍을게",
      "TWzh": "請讓我拍張照",
      "USen": "May I take photos?",
      "USes": " ¿Puedo tomar fotos?",
      "USfr": "Je peux faire des  photos?"
    }
  },
  {
    "label": "017_b",
    "attribute": "0x00000000",
    "locale": {
      "CNzh": "差不多该回去了",
      "EUde": "Ich geh dann mal.",
      "EUen": "I'm leaving.",
      "EUes": "Me tengo que ir",
      "EUfr": "Je dois rentrer.",
      "EUit": "Devo andare via.",
      "EUnl": "Ik ga ervandoor.",
      "EUru": "Я уже пойду.",
      "JPja": "それでは失礼します",
      "KRko": "그럼 이만 가볼게",
      "TWzh": "那麼我先告辭了",
      "USen": "I'm leaving.",
      "USes": "Me tengo que ir",
      "USfr": "Je dois rentrer."
    }
  },
  {
    "label": "018",
    "attribute": "0x02000000",
    "locale": {
      "CNzh": "辛苦了！\n有什么事吗？",
      "EUde": "Ich bin ganz begeistert von deiner\nArbeit heute! Kann ich denn auch\nirgendwas für dich tun?",
      "EUen": "Splendid work today! Can I help you\nwith something?",
      "EUes": "¡Has hecho un trabajo excelente hoy!\n¿Te puedo yo ayudar con algo?",
      "EUfr": "Tu as fait du travail remarquable\naujourd'hui ! Je peux faire quelque\nchose pour toi ?",
      "EUit": "Hai fatto un ottimo lavoro!\nHai bisogno di qualcosa?",
      "EUnl": "Je hebt fantastisch werk geleverd\nvandaag! Kan ik je ergens mee\nhelpen?",
      "EUru": "Ты сегодня хорошо потрудился!\nМогу я тебе чем-то помочь?",
      "JPja": "お疲れ様でございまーす！\nいかがされましたか？",
      "KRko": "수고 많으셨습니다－!\n어쩐 일이세요?",
      "TWzh": "辛苦您了！\n請問有什麼事嗎？",
      "USen": "Splendid work today! Can I help you\nwith something?",
      "USes": "¡Has hecho un trabajo excelente hoy!\n¿Te puedo ayudar con algo yo?",
      "USfr": "Tu as fait du travail remarquable\naujourd'hui! Je peux faire quelque\nchose pour toi?"
    }
  },
  {
    "label": "018_a",
    "attribute": "0x00000000",
    "locale": {
      "CNzh": "要回去了",
      "EUde": "Schluss für heute.",
      "EUen": "I'm heading back.",
      "EUes": "Me vuelvo a la agencia",
      "EUfr": "Bon, je m'en vais.",
      "EUit": "Me ne vado.",
      "EUnl": "Ik ga er weer vandoor.",
      "EUru": "Вернусь обратно.",
      "JPja": "帰ります",
      "KRko": "돌아갈게",
      "TWzh": "我要回去了",
      "USen": "I'm heading back.",
      "USes": "Vuelvo a la agencia",
      "USfr": "Bon, je m'en vais."
    }
  },
  {
    "label": "018_b",
    "attribute": "0x00000000",
    "locale": {
      "CNzh": "没什么",
      "EUde": "Ach, nichts weiter.",
      "EUen": "I'm all good!",
      "EUes": "No, nada...",
      "EUfr": "Tout va bien !",
      "EUit": "È tutto OK.",
      "EUnl": "Alles is in orde!",
      "EUru": "Все хорошо!",
      "JPja": "なんでもないです",
      "KRko": "아무것도 아니야",
      "TWzh": "沒什麼事",
      "USen": "I'm all good!",
      "USes": "No, nada...",
      "USfr": "Tout va bien!"
    }
  },
  {
    "label": "020",
    "attribute": "0x00000000",
    "locale": {
      "CNzh": "这样啊！\n那请你在这里多待一会儿吧，\n直到休息好为止！",
      "EUde": "Ist gut! Bleib hier, solange du willst!",
      "EUen": "OK! You're welcome to stay here\nfor as long as you'd like!",
      "EUes": "¡Vale! Bueno, puedes quedarte aquí\ntodo el tiempo que te apetezca.",
      "EUfr": "Très bien ! Tu peux rester ici aussi\nlongtemps que tu le désires !",
      "EUit": "OK! Fermati pure quanto vuoi!",
      "EUnl": "Oké! Blijf zolang je wilt!",
      "EUru": "Хорошо! Можешь оставаться здесь\nстолько, сколько пожелаешь!",
      "JPja": "さようでございますかー！\nどうぞ　気の済むまで\nごゆっくり　どうぞー！",
      "KRko": "그러시군요－!\n얼마든지 원하시는 만큼\n편히 쉬다 가세요－!",
      "TWzh": "這樣啊！\n那麼請您在這休息吧，\n想待多久都可以喔！",
      "USen": "OK! You're welcome to stay here\nfor as long as you'd like!",
      "USes": "Bueno, puedes quedarte aquí\ntodo el tiempo que quieras.",
      "USfr": "Très bien! Tu peux rester ici aussi\nlongtemps que tu le désires!"
    }
  },
  {
    "label": "021",
    "attribute": "0x00000000",
    "locale": {
      "CNzh": "好的！\n回去的时候路上小心哦！",
      "EUde": "Alles klar! Bis bald dann.\nGuten Heimweg!",
      "EUen": "OK! See you soon. Safe travels!",
      "EUes": "¡De acuerdo! Pues nos vemos pronto,\nespero. ¡Ve con cuidado!",
      "EUfr": "D'accord ! À bientôt, et rentre bien !",
      "EUit": "OK! A presto, allora. Ciao ciao!",
      "EUnl": "Oké! Tot ziens. Pas goed op jezelf!",
      "EUru": "Ладно! До встречи. Хорошо\nдобраться!",
      "JPja": "かしこましたー！\nどうぞ　気をつけて　お帰りくださーい！",
      "KRko": "알겠습니다－!\n조심해서 돌아가세요－!",
      "TWzh": "我明白了！\n那麼您要回去時請小心一點喔！",
      "USen": "OK! See you soon. Safe travels!",
      "USes": "¡De acuerdo! Pues nos vemos pronto,\nespero. ¡Cuídate!",
      "USfr": "D'accord! À bientôt, et rentre bien!"
    }
  },
  {
    "label": "022",
    "attribute": "0x00000000",
    "locale": {
      "CNzh": "对了，关于这栋别墅，\n为了方便其他人了解别墅的主题，\n可以请你为这栋别墅的主题命名吗？",
      "EUde": "Dürfte ich dich um einen Gefallen\nbitten? Ich bräuchte einen Konzept-\nnamen für dieses Ferienhaus.\nKönntest du mir da helfen?\nDas würde mich richtig freuen!",
      "EUen": "Could I bother you for a theme name\nfor this vacation home? It would be\nincredibly helpful!",
      "EUes": "¿Te puedo preguntar... cuál es el\ntema de esta casa? ¡Me gustaría\nsaber su nombre!",
      "EUfr": "Si ça ne te dérange pas, tu voudrais\nbien me dire quel est le thème de\ncette villa ? Ça m'aiderait beaucoup !",
      "EUit": "Posso chiederti il nome del tema\ndi questa casa? Mi interessa proprio!",
      "EUnl": "Mag ik je vragen om een thema te\nbedenken voor dit vakantiehuis? Dat\nzou fijn zijn!",
      "EUru": "Можешь сказать мне название темы\nдля этой дачи? Было бы очень\nкстати!",
      "JPja": "それで　この別荘なのですが、\nどんなテーマか　わかるように、テーマ名を\nつけていただいても　よろしいでしょうかー？",
      "KRko": "아, 이 별장 말인데요\n어떤 테마로 만들어진 건지 알 수 있게\n테마 이름을 붙여주실 수 있나요－?",
      "TWzh": "話說這棟別墅，\n可以請您為這裡命名主題名稱，\n好方便其他人理解這棟別墅的主題嗎？",
      "USen": "Could I bother you for a theme name\nfor this vacation home? It would be\nincredibly helpful!",
      "USes": "¿Te puedo preguntar... cuál es el\ntema de esta casa? ¡Me gustaría\nsaberlo!",
      "USfr": "Si ça ne te dérange pas, tu voudrais\nbien me dire quel est le thème de\nla maison? Ça m'aiderait beaucoup!"
    }
  },
  {
    "label": "023",
    "attribute": "0x02000000",
    "locale": {
      "CNzh": "啊！对了，我记得上次的主题名称是\n来着，\n这次要更改主题名称吗？",
      "EUde": "Ui, super! Der bisherige Name war\n.\nPasst der dir noch?",
      "EUen": "Oh, yes! The theme before was\n.\nIs that still correct?",
      "EUes": "¡Ah, sí! Hasta ahora lo llamábamos\n«»... ¿Sigue siendo así?",
      "EUfr": "Au fait ! Jusqu'à présent, le thème\nétait .\nEst-ce qu'il te convient toujours ?",
      "EUit": "Oh, già! Finora il tema era\n.\nVa ancora bene questo nome?",
      "EUnl": "O ja! Het thema was eerder \"⁠⁠\".\nKlopt dat nog?",
      "EUru": "Ах да! Сейчас у нас тема\n«».\nМожет, хочешь ее изменить?",
      "JPja": "あっ！　あと、前回のテーマ名は\nでしたが\n今回は　テーマ名を　変更なさいますかー？",
      "KRko": "앗! 그리고 지난번 테마 이름은\n이었는데\n이번 테마 이름은 바꾸시겠어요－?",
      "TWzh": "啊！對了，之前的主題名稱\n叫做，\n請問您這次要更改主題名稱嗎？",
      "USen": "Oh, yes! The theme before was\n.\nIs that still correct?",
      "USes": "¡Ah, sí! Hasta ahora era\n\"⁠⁠\"... ¿El nombre sigue siendo el mismo?",
      "USfr": "Au fait! Jusqu'à présent, le thème\nétait .\nEst-ce qu'il te convient toujours?"
    }
  },
  {
    "label": "023_a",
    "attribute": "0x00000000",
    "locale": {
      "CNzh": "更改吧",
      "EUde": "Ein neuer Name!",
      "EUen": "I'll pick a new name.",
      "EUes": "Le pongo otro nombre",
      "EUfr": "Je veux changer le nom.",
      "EUit": "Scelgo un altro nome.",
      "EUnl": "Ik kies een nieuw thema.",
      "EUru": "Лучше новое название!",
      "JPja": "変えましょう",
      "KRko": "바꾸자",
      "TWzh": "更改吧",
      "USen": "I'll pick a new name.",
      "USes": "Elijo otro tema",
      "USfr": "Je veux changer le nom."
    }
  },
  {
    "label": "023_b",
    "attribute": "0x00000000",
    "locale": {
      "CNzh": "保持现状",
      "EUde": "Mir gefällt der Name!",
      "EUen": "I like the name as is.",
      "EUes": "Así está bien",
      "EUfr": "Ce nom me convient.",
      "EUit": "Va bene questo nome.",
      "EUnl": "Het thema is prima zo.",
      "EUru": "Мне и так нравится.",
      "JPja": "そのままで",
      "KRko": "그대로 하자",
      "TWzh": "保持現狀",
      "USen": "I like the name as is.",
      "USes": "Así está bien",
      "USfr": "Ce nom me convient."
    }
  },
  {
    "label": "024",
    "attribute": "0x00000000",
    "locale": {
      "CNzh": "这样啊！\n那就请你告诉我新的主题名称是什么吧！",
      "EUde": "Alles klar! Was soll denn der neue\nKonzeptname werden?",
      "EUen": "OK! What's the new theme?",
      "EUes": "¡Muy bien! ¿Y cuál será el nombre\na partir de ahora?",
      "EUfr": "Compris ! Quel est le nouveau nom ?",
      "EUit": "OK! Qual è il nuovo nome?",
      "EUnl": "Oké! Wat gaat het nieuwe thema\nworden?",
      "EUru": "Хорошо! Какое новое название\nвыберешь?",
      "JPja": "さようでございますかー！\nでは　新しいテーマ名を　教えてくださーい！",
      "KRko": "네, 알겠습니다－!\n그럼 새로운 테마 이름을 알려주세요－!",
      "TWzh": "這樣啊！\n那麼請告訴我新的主題名稱吧！",
      "USen": "OK! What's the new theme?",
      "USes": "¡Muy bien! ¿Y cuál será el nombre\na partir de ahora?",
      "USfr": "Compris! Quel est le nouveau nom?"
    }
  },
  {
    "label": "025",
    "attribute": "0x00000000",
    "locale": {
      "CNzh": "那么，这次的主题名称不做改动，\n还是和上次的一样。\n我明白了！",
      "EUde": "Dann soll alles bleiben wie zuvor, ja?\nAlles klar!",
      "EUen": "So you wish to keep the same theme\nas before. Understood!",
      "EUes": "¡Entiendo! Si quieres dejar el nombre\ncomo está, perfecto.",
      "EUfr": "Tu souhaites garder le même nom\nqu'avant ? Aucun problème !",
      "EUit": "Quindi vuoi tenere il nome di prima?\nTutto chiaro!",
      "EUnl": "Dus je wilt het thema hetzelfde\nhouden. Begrepen!",
      "EUru": "То есть ты не хочешь менять эту\nтему на что-то другое? Понятно!",
      "JPja": "では　テーマ名は\n前回から　変更なしということで\nかしこまりましたー！",
      "KRko": "그럼 테마 이름은\n지난번과 똑같은 것으로\n알겠습니다－!",
      "TWzh": "那麼主題名稱就跟上次一樣，\n不會特地更改，\n我明白了！",
      "USen": "So you wish to keep the same theme\nas before. Understood!",
      "USes": "¡Entiendo! Si quieres dejar el nombre\ncomo está, perfecto.",
      "USfr": "Tu souhaites garder le même nom\nqu'avant? Aucun problème!"
    }
  },
  {
    "label": "026",
    "attribute": "0x02000000",
    "locale": {
      "CNzh": "咦？\n意思是还是沿用\n之前的主题名称吗？",
      "EUde": "Hm? Dann soll der Name einfach\nso bleiben, wie er ist?",
      "EUen": "Hm? So you'd like to keep the same\ntheme as before?",
      "EUes": "¿Eh? ¿Nos quedamos entonces con\nel mismo nombre de antes?",
      "EUfr": "Pardon ? Tu veux donc garder\nle même nom qu'avant ?",
      "EUit": "Eh? Alla fine hai deciso di non\ncambiare nulla?",
      "EUnl": "Hm? Dus je wilt het thema gewoon\nhetzelfde houden?",
      "EUru": "Получается, не будем менять\nназвание темы, да?",
      "JPja": "あれ？\nやっぱり　テーマ名は　前回と同じで\nよろしかったでしょうかー？",
      "KRko": "어라?\n역시 테마 이름은 예전 걸 바꾸지 않고\n그대로 두실 건가요－?",
      "TWzh": "咦？果然還是要使用\n跟之前一樣的主題名稱比較好嗎？",
      "USen": "Hm? So you'd like to keep the same\ntheme as before?",
      "USes": "¿Eh? ¿Nos quedamos entonces con\nel mismo nombre de antes?",
      "USfr": "Pardon? Tu veux donc garder\nle même nom qu'avant?"
    }
  },
  {
    "label": "026_a",
    "attribute": "0x00000000",
    "locale": {
      "CNzh": "还是保持现状吧",
      "EUde": "Namen behalten.",
      "EUen": "Let's keep the name.",
      "EUes": "Dejemos el mismo",
      "EUfr": "Gardons le nom.",
      "EUit": "Teniamo lo stesso.",
      "EUnl": "We laten het bij het oude.",
      "EUru": "Оставим название.",
      "JPja": "やっぱり　そのままで",
      "KRko": "역시 그대로 하자",
      "TWzh": "還是保持現狀吧",
      "USen": "Let's keep the name.",
      "USes": "Dejemos el mismo",
      "USfr": "Gardons le nom."
    }
  },
  {
    "label": "026_b",
    "attribute": "0x00000000",
    "locale": {
      "CNzh": "更改主题名称",
      "EUde": "Lieber einen anderen.",
      "EUen": "Let's use a new name.",
      "EUes": "Pongámosle otro",
      "EUfr": "Trouvons un nouveau nom.",
      "EUit": "Usiamo un nuovo nome.",
      "EUnl": "Een nieuw thema is beter.",
      "EUru": "Лучше другое название.",
      "JPja": "テーマ名は　変えます",
      "KRko": "다른 이름으로 바꿀래",
      "TWzh": "更改主題名稱吧",
      "USen": "Let's use a new name.",
      "USes": "Elijamos otro",
      "USfr": "Trouvons un nouveau nom."
    }
  },
  {
    "label": "027",
    "attribute": "0x00000000",
    "locale": {
      "CNzh": "这样啊！\n那么，请你再次告诉我\n新的主题名称是什么吧！",
      "EUde": "Okay! Wie soll denn der neue\nName lauten?",
      "EUen": "OK! What's the new theme name?",
      "EUes": "¡Me parece estupendo! ¿Cuál será\nel nuevo nombre, a ver?",
      "EUfr": "D'accord ! Et quel sera le nouveau\nnom ?",
      "EUit": "D'accordo! Che nome hai scelto?",
      "EUnl": "Oké! Wat is het nieuwe thema?",
      "EUru": "Хорошо! Каким будет новое\nназвание?",
      "JPja": "さようでございますかー！\nでは　改めて　新しいテーマ名を\n教えてくださーい！",
      "KRko": "그러시군요－!\n그럼 다시 한번 새로운 테마 이름을\n알려주세요－!",
      "TWzh": "這樣啊！\n那麼請再次告訴我\n新的主題名稱吧！",
      "USen": "OK! What's the new theme name?",
      "USes": "¡Me parece estupendo! ¿Cuál será\nel nuevo nombre, a ver?",
      "USfr": "D'accord! Et quel sera le nouveau\nnom?"
    }
  },
  {
    "label": "028",
    "attribute": "0x00000000",
    "locale": {
      "CNzh": "啊！\n谢谢你为我们的别墅取了一个\n这么好的主题名称！",
      "EUde": "!\nJa, ja! Danke für diesen supertollen\nNamen!",
      "EUen": ", hm!\nYes, yes! Thank you for thinking up\nsuch a wonderful theme!",
      "EUes": "¡«»! ¡Me gusta, me gusta! ¡Gracias por pensar un nombre tan especial!",
      "EUfr": " !\nOui, oui ! Merci ! Voilà un nom de\nthème tout à fait remarquable !",
      "EUit": "!\nSì, sì! Devo dire che hai scelto\nun nome meraviglioso!",
      "EUnl": "\"\"!\nJa, ja! Bedankt dat je zo'n mooi\nthema hebt bedacht!",
      "EUru": "«»!\nПрекрасно! Какое замечательное\nназвание!",
      "JPja": "ですね！\nステキなお名前を　考えていただき\nありがとうございまーす！",
      "KRko": "이군요!\n근사한 이름을 생각해주셔서\n감사합니다－!",
      "TWzh": "要叫啊！\n謝謝您特地想了一個\n這麼棒的主題名稱！",
      "USen": ", hm!\nYes, yes! Thank you for thinking up\nsuch a wonderful theme!",
      "USes": "¡\"⁠⁠\"! ¡Me gusta, me gusta! ¡Gracias por pensar un nombre tan especial!",
      "USfr": "!\nOui, oui! Merci! Voilà un nom de\nthème tout à fait remarquable!"
    }
  },
  {
    "label": "101",
    "attribute": "0x06000000",
    "locale": {
      "CNzh": "你好！我是豆狸！\n找我有什么事吗？",
      "EUde": "Hallihallo! Ich bin's, Nepp! \nKann ich was für dich tun?",
      "EUen": "Hello, hello! It's me, Timmy! Can I\nhelp you with something?",
      "EUes": "¡Hola, hola! ¡Soy yo, Tendo! ¿Puedo\nayudarte con alguna cosa?",
      "EUfr": "Bien le bonjour ! C'est moi, Méli !\nJe peux faire quelque chose\npour toi ?",
      "EUit": "Ciao ciao! Sono Mirco! Posso fare\nqualcosa per te?",
      "EUnl": "Hallo, hallo! Ik ben het, Timmy!\nWaar kan ik je mee helpen?",
      "EUru": "Привет, привет! Это я, Тимми! Могу\nтебе чем-то помочь?",
      "JPja": "どうも！　まめきちです！\nいかがされましたかー？",
      "KRko": "안녕하세요! 콩돌이입니다!\n어쩐 일이신가요－?",
      "TWzh": "你好！我是豆狸！\n請問有什麼事嗎？",
      "USen": "Hello, hello! It's me, Timmy! Can I\nhelp you with something?",
      "USes": "¡Hola, hola! ¡Soy yo, Tendo! ¿Puedo\nayudarte con alguna cosa?",
      "USfr": "Bien le bonjour! C'est moi, Méli!\nJe peux faire quelque chose\npour toi?"
    }
  },
  {
    "label": "101_01",
    "attribute": "0x06000000",
    "locale": {
      "CNzh": "嗯嗯，我的别墅\n有什么问题吗？",
      "EUde": "Alles bestens! Wieso? Hast du\nirgendwas Tolles damit vor?",
      "EUen": "About our vacation home? Yes?\nWhat is it?",
      "EUes": "¿De mi casa de vacaciones, dices?\n¿Qué ocurre con ella?",
      "EUfr": "Notre maison de vacances ?\nOui, oui... De quoi s'agit-il ?",
      "EUit": "La casa vacanze? Bene... Perché?",
      "EUnl": "Over ons vakantiehuis? Ja? Wat is\ndaarmee?",
      "EUru": "Ты имеешь в виду нашу дачу? Да?\nА что конкретно тебя интересует?",
      "JPja": "はーい、ボクたちの別荘が\nどうされたのでしょうかー？",
      "KRko": "네－에! 저희 별장에\n무슨 문제라도 있나요－?",
      "TWzh": "好的，我們的別墅\n有什麼問題嗎？",
      "USen": "About our vacation home? Yes?\nWhat is it?",
      "USes": "¿De mi casa de vacaciones, dices?\n¿Qué sucede?",
      "USfr": "Notre maison de vacances?\nOui, oui... De quoi s'agit-il?"
    }
  },
  {
    "label": "101_01_a",
    "attribute": "0x00000000",
    "locale": {
      "CNzh": "关于装修",
      "EUde": "Umbau!",
      "EUen": "Let's talk remodeling.",
      "EUes": "¿Hacemos reforma?",
      "EUfr": "Parlons rénovations.",
      "EUit": "Parliamo di ristrutturare.",
      "EUnl": "Wat dacht je van verbouwen?",
      "EUru": "Обсудим новый дизайн?",
      "JPja": "リフォームしませんか",
      "KRko": "리폼 안 할래?",
      "TWzh": "關於裝修",
      "USen": "Let's talk remodeling.",
      "USes": "¿Remodelamos la casa?",
      "USfr": "Parlons rénovations."
    }
  },
  {
    "label": "101_01_b",
    "attribute": "0x00000000",
    "locale": {
      "CNzh": "关于搬家",
      "EUde": "Umzug!",
      "EUen": "Let's talk moving.",
      "EUes": "¿La trasladamos?",
      "EUfr": "Parlons déménagement.",
      "EUit": "Parliamo di trasloco.",
      "EUnl": "Wat dacht je van verhuizen?",
      "EUru": "Поговорим о переезде.",
      "JPja": "引越ししませんか",
      "KRko": "이사 어때?",
      "TWzh": "關於搬家",
      "USen": "Let's talk moving.",
      "USes": "¿La trasladamos?",
      "USfr": "Parlons déménagement."
    }
  },
  {
    "label": "101_01_c",
    "attribute": "0x00000000",
    "locale": {
      "CNzh": "关于合住",
      "EUde": "Mitbewohner!",
      "EUen": "Let's talk roommates.",
      "EUes": "Hablemos de compas",
      "EUfr": "Parlons colocation.",
      "EUit": "Parliamo di coinquilini.",
      "EUnl": "Wil je een huisgenoot?",
      "EUru": "Поговорим о соседях.",
      "JPja": "ハウスシェアのことで…",
      "KRko": "하우스 셰어 말인데…",
      "TWzh": "關於同住",
      "USen": "Let's talk roommates.",
      "USes": "¿Qué tal compartir casa?",
      "USfr": "Parlons colocation."
    }
  },
  {
    "label": "101_01_d",
    "attribute": "0x00000000",
    "locale": {
      "CNzh": "没什么",
      "EUde": "Hat sich erledigt.",
      "EUen": "Never mind.",
      "EUes": "Nada, es igual",
      "EUfr": "Laisse tomber.",
      "EUit": "Niente, lascia stare.",
      "EUnl": "Laat maar...",
      "EUru": "Я так, просто.",
      "JPja": "なんでもないです",
      "KRko": "아무것도 아니야",
      "TWzh": "沒什麼事",
      "USen": "Never mind.",
      "USes": "Olvídalo",
      "USfr": "Laisse tomber."
    }
  },
  {
    "label": "101_a",
    "attribute": "0x00000000",
    "locale": {
      "CNzh": "过得怎么样？",
      "EUde": "Wie geht's denn so?",
      "EUen": "How are things?",
      "EUes": "¿Qué te cuentas?",
      "EUfr": "Tout se passe bien ?",
      "EUit": "Come va?",
      "EUnl": "Hoe gaat het ermee?",
      "EUru": "Как жизнь?",
      "JPja": "いかがお過ごしですか？",
      "KRko": "어떻게 지내?",
      "TWzh": "最近過得怎麼樣呢？",
      "USen": "How are things?",
      "USes": "¿Qué cuentas?",
      "USfr": "Tout se passe bien?"
    }
  },
  {
    "label": "101_b",
    "attribute": "0x00000000",
    "locale": {
      "CNzh": "关于别墅",
      "EUde": "Was macht dein Haus?",
      "EUen": "How's your home?",
      "EUes": "Hablemos de tu casa",
      "EUfr": "Ta villa te plaît ?",
      "EUit": "Come va con la casa?",
      "EUnl": "Alles oké met je vakantiehuis?",
      "EUru": "Как твой дом?",
      "JPja": "別荘のことなのですが",
      "KRko": "별장에 대해서",
      "TWzh": "關於別墅",
      "USen": "How's your home?",
      "USes": "Hablemos de tu casa",
      "USfr": "Ta maison te plaît?"
    }
  },
  {
    "label": "101_c",
    "attribute": "0x00000000",
    "locale": {
      "CNzh": "要回去了",
      "EUde": "Ich gehe wieder.",
      "EUen": "I'm heading back.",
      "EUes": "Me vuelvo a la agencia",
      "EUfr": "Bon, je m'en vais.",
      "EUit": "Me ne vado.",
      "EUnl": "Ik ga er weer vandoor.",
      "EUru": "Вернусь обратно.",
      "JPja": "帰ります",
      "KRko": "이만 갈게",
      "TWzh": "我要回去了",
      "USen": "I'm heading back.",
      "USes": "Vuelvo a la agencia",
      "USfr": "Bon, je m'en vais."
    }
  },
  {
    "label": "101_d",
    "attribute": "0x00000000",
    "locale": {
      "CNzh": "只是打个招呼",
      "EUde": "Wollte nur Hallo sagen!",
      "EUen": "Just saying hi!",
      "EUes": "Solo saludaba...",
      "EUfr": "Je passe juste dire bonjour.",
      "EUit": "Volevo solo salutarti.",
      "EUnl": "Ik wilde alleen hoi zeggen!",
      "EUru": "Привет-привет!",
      "JPja": "ごあいさつだけ",
      "KRko": "그냥 인사하려고!",
      "TWzh": "只是打聲招呼",
      "USen": "Just saying hi!",
      "USes": "Solo quería saludar...",
      "USfr": "Je passe juste dire bonjour."
    }
  },
  {
    "label": "102_01",
    "attribute": "0x02000000",
    "locale": {
      "CNzh": "给别墅装修啊！\n我很感兴趣！\n那就全都交给你了，请务必帮我们装修！",
      "EUde": "Ein Umbau! Klingt ja lustig!\nDann nur zu, tu dir keinen Zwang an!",
      "EUen": "Remodeling! That sounds fun!\nYes, please, take it away!",
      "EUes": "¿Una reforma? ¡Eso suena divertido!\n¡Tienes mi aprobación para empezar\ncuando quieras!",
      "EUfr": "Une rénovation ! C'est une idée\ngéniale ! Tu commences quand\ntu veux !",
      "EUit": "Ma pensa! Che idea interessante!\nVa bene, dai, facciamolo!",
      "EUnl": "Verbouwen! Dat klinkt leuk! Ja,\ngraag. Ga je gang!",
      "EUru": "Новый дизайн?! Звучит интересно!\nДа, конечно, можешь приниматься\nза дело!",
      "JPja": "別荘のリフォームでございますか！\nそれは　興味深いですね！\nお任せしますので　ぜひ　お願いしまーす！",
      "KRko": "별장 리폼이요!\n굉장히 솔깃한 말씀이네요!\n모두 맡길 테니 부디 잘 부탁드립니다－!",
      "TWzh": "您說要給別墅做裝修啊！\n我很感興趣喔！\n那麼這件事就交給您了，請您多多關照！",
      "USen": "Remodeling! That sounds fun!\nYes, please, take it away!",
      "USes": "¿Una remodelación? ¡Eso suena\ndivertido! ¡Tienes mi aprobación\npara empezar cuando quieras!",
      "USfr": "Une rénovation! C'est une idée\ngéniale! Tu commences quand\ntu veux!"
    }
  },
  {
    "label": "102_01_a",
    "attribute": "0x00000000",
    "locale": {
      "CNzh": "请交给我吧！",
      "EUde": "Überlass alles mir!",
      "EUen": "Leave it all to me!",
      "EUes": "¡Yo me encargo!",
      "EUfr": "Je m'occupe de tout !",
      "EUit": "Lascia fare a me!",
      "EUnl": "Laat alles maar aan mij over!",
      "EUru": "Предоставь это мне!",
      "JPja": "お任せください！",
      "KRko": "맡겨만 줘!",
      "TWzh": "請交給我吧！",
      "USen": "Leave it all to me!",
      "USes": "¡Yo me encargo!",
      "USfr": "Je m'occupe de tout!"
    }
  },
  {
    "label": "102_01_b",
    "attribute": "0x00000000",
    "locale": {
      "CNzh": "还是算了吧",
      "EUde": "Hat sich erledigt.",
      "EUen": "Never mind.",
      "EUes": "Mejor lo dejamos estar",
      "EUfr": "Laisse tomber.",
      "EUit": "Niente, lascia stare.",
      "EUnl": "Laat maar zitten...",
      "EUru": "Я так, просто.",
      "JPja": "やっぱりやめましょう",
      "KRko": "역시 그만두자",
      "TWzh": "還是算了吧",
      "USen": "Never mind.",
      "USes": "Mejor nada",
      "USfr": "Laisse tomber."
    }
  },
  {
    "label": "104_01",
    "attribute": "0x00000000",
    "locale": {
      "CNzh": "我很期待见证住惯了的场所\n焕然一新的瞬间！\n那就麻烦你了！",
      "EUde": "Wir hatten uns so sehr an das Haus\ngewöhnt... Das wird ein super\nTapetenwechsel!",
      "EUen": "We've gotten quite used to this\nliving space. I can't wait to see\nhow it will transform!",
      "EUes": "Será interesante ver qué clase de\ntransformación sufre nuestra casa...",
      "EUfr": "Nous avons maintenant nos petites\nhabitudes ici.\nJ'ai hâte de voir le résultat\nde la transformation !",
      "EUit": "Ormai siamo abituati alla casa. Ma\nnon sto nella pelliccia... di assistere\nalla trasformazione!",
      "EUnl": "Wat verandering kan geen kwaad. Ik\nsta te trappelen om te zien hoe het\nwordt!",
      "EUru": "Мы так привыкли к этому месту.\nТак не терпится посмотреть, как\nоно изменится!",
      "JPja": "暮らし慣れたスペースが　どんな風に\n様変わりするのか　楽しみにしています！\nでは　よろしくお願いしまーす！",
      "KRko": "익숙했던 생활 공간이 어떤 모습으로\n변할지 무척 기대되네요!\n그럼 잘 부탁드립니다－!",
      "TWzh": "平時住慣的空間究竟會變成什麼樣子，\n真的讓人非常期待呢！\n那麼就麻煩您了！",
      "USen": "We've gotten quite used to this\nliving space. I can't wait to see\nhow it will transform!",
      "USes": "Será interesante ver cómo\ntransformas nuestra casa...",
      "USfr": "Nous avons maintenant nos petites\nhabitudes ici.\nJ'ai hâte de voir le résultat\nde la transformation!"
    }
  },
  {
    "label": "107",
    "attribute": "0x00000000",
    "locale": {
      "CNzh": "啊……还是算了？\n那么，以后有机会的时候\n再麻烦你吧！",
      "EUde": "Oh! Du willst nicht mehr?\nÜberhaupt kein Problem.\nDann vielleicht ein andermal, ja?",
      "EUen": "Oh! Did you change your mind?\nThat's OK! Maybe another time!",
      "EUes": "¡Vaya! ¿Has cambiado de idea?\nPues nada... ¡Ya habrá otra ocasión!",
      "EUfr": "Oh ! Tu as changé d'avis ? C'est pas\ngrave ! Peut-être une autre fois !",
      "EUit": "Ah! Hai cambiato idea?\nNon preoccuparti! Sarà per la\nprossima volta!",
      "EUnl": "O! Ben je van gedachten veranderd?\nGeen probleem! Misschien een\nandere keer!",
      "EUru": "Ой! Ты передумал? Ничего\nстрашного! Займешься этим\nв другой раз!",
      "JPja": "あれ・・・おやめになるんですねー？\nでは　また機会がありましたら\nよろしくお願いしまーす！",
      "KRko": "어라... 관두시는 거군요－?\n그럼 다음 기회가 있다면\n부탁드리겠습니다－!",
      "TWzh": "咦……果然還是算了嗎？\n那如果還有機會，\n再請您多多關照了！",
      "USen": "Oh! Did you change your mind?\nThat's OK! Maybe another time!",
      "USes": "¡Vaya! ¿Cambiaste de idea?\nEntendido... ¡Ya habrá otra ocasión!",
      "USfr": "Oh! Tu as changé d'avis? C'est pas\ngrave! Peut-être une autre fois!"
    }
  },
  {
    "label": "108",
    "attribute": "0x02000000",
    "locale": {
      "CNzh": "什么？搬家？\n要搬到其他地方去住啊……\n虽然这话有些突然，吓了我一跳，\n但既然(player name)你如此提议，\n那就拜托你了！",
      "EUde": "Ein Umzug?\nHmmm...\nIst ja irgendwie sehr plötzlich, aber...\nWenn es deine Idee ist, dann wird es\nsicher klasse, (Spielername)!",
      "EUen": "Moving? Hmm...\nThis is all quite sudden...but I am\nquite interested since it's your\nidea, (player name)!",
      "EUes": "¿Te refieres a cambiarla de sitio?\nMmm...\nEs muy repentino... pero, si tú crees\nque es buena idea, ¡cuenta con\nmi aprobación, (player name)!",
      "EUfr": "Un déménagement ? Hmm...\nTu me prends un peu de court... mais\nvu que cette idée vient de toi, ça\nm'intéresse, (nom du joueur) !",
      "EUit": "Cambiare casa?\nUhm...\nCerto che così su due zampe... Ma\nperché no? In fondo è una tua idea,\n(player name)!",
      "EUnl": "Verhuizen? Hmm...\nDaar had ik niet op gerekend... maar\nik ben geïnteresseerd, omdat het\njouw idee is, (player name)!",
      "EUru": "Переезд? Хм...\nЭто как-то неожиданно... Но раз уж\nэто твоя идея, (player name), я готов!",
      "JPja": "えっ、引越しですか？\nそうですねー・・・\n急なお話で　驚きましたが\n(player name)さんの　ご提案なら\nお願いしたいと思いまーす！",
      "KRko": "앗, 이사 말인가요?\n글쎄요...\n상상도 못 했던 말씀이라 놀라긴 했지만\n(player name)님이 제안하시는 거니까\n그렇게 부탁드릴게요－!",
      "TWzh": "咦，您說搬家？\n這樣啊……\n雖然這提議很突然，讓我嚇了一跳，\n但既然是(player name)的提案，\n那我想拜託您動工！",
      "USen": "Moving? Hmm...\nThis is all quite sudden...but I am\nquite interested since it's your\nidea, (player name)!",
      "USes": "¿Te refieres a cambiarla de lugar?\nMmm...\nEs muy repentino... pero, si tú crees\nque es buena idea, ¡cuenta con\nmi aprobación, (player name)!",
      "USfr": "Un déménagement? Hmm...\nTu me prends un peu de court... mais\nvu que cette idée vient de toi, ça\nm'intéresse, (nom du joueur)!"
    }
  },
  {
    "label": "108_01",
    "attribute": "0x00000000",
    "locale": {
      "CNzh": "那就承你的美意，\n麻烦你了！\n还请你多多关照！",
      "EUde": "Dann danke schön schon mal\nfür deine Hilfe!",
      "EUen": "I'll leave it all up to you, then!",
      "EUes": "Muy bien, pues todo queda en tus\nmanos entonces.",
      "EUfr": "C'est entendu, je te laisse t'occuper\nde tout !",
      "EUit": "Lascio fare a te, allora!",
      "EUnl": "Dan laat ik het aan jou over!",
      "EUru": "Хорошо, передаю это в твои руки!",
      "JPja": "それでは　お言葉に甘えて\nお世話になります！\nよろしくお願いしまーす！",
      "KRko": "그럼 기쁜 마음으로\n(player name)님께 맡길게요!\n잘 부탁드리겠습니다－!",
      "TWzh": "那就恭敬不如從意，\n這件事就拜託您了！\n還請您多多關照！",
      "USen": "I'll leave it all up to you, then!",
      "USes": "Muy bien, pues queda todo en tus\nmanos entonces.",
      "USfr": "C'est entendu, je te laisse t'occuper\nde tout!"
    }
  },
  {
    "label": "108_a",
    "attribute": "0x00000000",
    "locale": {
      "CNzh": "请交给我吧！",
      "EUde": "Überlass alles mir!",
      "EUen": "Leave it all to me!",
      "EUes": "¡Yo me encargo!",
      "EUfr": "Je m'occupe de tout !",
      "EUit": "Lascia fare a me!",
      "EUnl": "Laat alles maar aan mij over!",
      "EUru": "Предоставь это мне!",
      "JPja": "お任せください！",
      "KRko": "맡겨만 줘!",
      "TWzh": "請交給我吧！",
      "USen": "Leave it all to me!",
      "USes": "¡Yo me encargo!",
      "USfr": "Je m'occupe de tout!"
    }
  },
  {
    "label": "108_b",
    "attribute": "0x00000000",
    "locale": {
      "CNzh": "还是算了吧",
      "EUde": "Ach, lassen wir das...",
      "EUen": "Actually, never mind.",
      "EUes": "Mejor lo dejamos estar",
      "EUfr": "Laissons tomber.",
      "EUit": "Meglio lasciar stare...",
      "EUnl": "Weet je, laat maar zitten...",
      "EUru": "Забудь.",
      "JPja": "やっぱりやめましょう",
      "KRko": "역시 그만두자",
      "TWzh": "還是算了吧",
      "USen": "Actually, never mind.",
      "USes": "Mejor olvídalo",
      "USfr": "Laissons tomber."
    }
  },
  {
    "label": "109",
    "attribute": "0x00000000",
    "locale": {
      "CNzh": "啊？！\n你说合住吗。\n和别人一起住啊……\n可是，我们一直都是兄弟俩一起住的。\n难得你特地前来提议，不好意思……\n这件事请恕我拒绝！",
      "EUde": "Hm?! Noch jemand, der hier wohnen\nwürde? Hmmm... Ich weiß ja nicht...\nIch hab ja eigentlich schon einen\nMitbewohner, nämlich meinen Bruder.\nVerzeihung, aber lieber nicht. Okay?",
      "EUen": "Huh?! A roommate? Hmm...\nI don't know...\nI live with my brother, so that's a bit\nlike a roommate already. Sorry, but\nI have to pass!",
      "EUes": "¡¿Eh?!... ¿Te refieres a compartir\ncasa con alguien más? Pues lo veo\nun poco complicado...\nNo olvides que ya vivo con mi\nhermano... y eso cuenta como\ncompañero. Lo siento, no acepto.",
      "EUfr": "Comment ?! Une colocation ? Hmm...\nJe ne sais pas trop...\nMon frère est un peu le seul\ncolocataire dont j'ai jamais eu\nbesoin. Alors désolé, mais c'est non !",
      "EUit": "Come, scusa?! Un coinquilino?\nBeh... Non saprei...\nVivo già con mio fratello. Che poi\nè come avere un coinquilino. No,\nmi spiace, non posso accettare!",
      "EUnl": "Huh?! Een huisgenoot? Hmm...\nIk weet het niet...\nIk woon al samen met mijn broertje. Bedankt voor het aanbod, maar ik\nmoet het toch afslaan!",
      "EUru": "Что?! Соседи? Хм... Даже не знаю...\nЯ живу с братом, так что его уже\nможно считать соседом. Я пас!",
      "JPja": "えっ？！\nハウスシェアでございますか\nそうですねー・・・\nボクたち、すでに　ふたり暮らしですし\nせっかくですが　辞退させてください・・・\n申し訳ありませーん！",
      "KRko": "네?!\n하우스 셰어 말씀이세요?\n글쎄요...\n저희는 이미 둘이 살고 있어서\n아무래도 어려울 것 같아요...\n정말 죄송합니다－!",
      "TWzh": "咦！？\n您說合住啊。\n這個嘛……\n我們已經過著兩人同住的生活了，\n雖然這機會很難得，但還是恕我拒絕吧……\n真的非常抱歉！",
      "USen": "Huh?! A roommate? Hmm...\nI don't know...\nI live with my brother, so that's a bit\nlike a roommate already. Sorry, but\nI have to pass!",
      "USes": "¡¿Eh?!... ¿Te refieres a compartir\ncasa con alguien más? Pues lo veo\nun poco complicado...\nNo olvides que ya vivo con mi\nhermano... y eso cuenta como\ncompañero. Lo siento, no acepto.",
      "USfr": "Comment?! Une colocation? Hmm...\nJe ne sais pas trop...\nMon frère est un peu le seul\ncoloc dont j'ai jamais eu besoin.\nAlors désolé, mais c'est non!"
    }
  },
  {
    "label": "110",
    "attribute": "0x00000000",
    "locale": {
      "CNzh": "谢谢你特意过来打招呼！\n能被你这么挂念，真让人开心。\n那么，请你在这儿多待一会儿吧！",
      "EUde": "Freut mich sehr, dass du hier bist.\nBleib bitte, solange du willst!",
      "EUen": "I appreciate you stopping by. Please\nstay as long as you'd like!",
      "EUes": "Es muy amable de tu parte que te\npases a saludar. ¡Puedes quedarte\naquí todo el tiempo que quieras!",
      "EUfr": "C'est gentil d'être passé me rendre\nvisite. Je t'en prie, reste aussi\nlongtemps qu'il te plaira !",
      "EUit": "Mi fa piacere averti qui. Fermati\npure quanto vuoi!",
      "EUnl": "Leuk dat je even langskomt. Blijf\nzolang je wilt!",
      "EUru": "Я рад, что ты зашел. Оставайся\nстолько, сколько пожелаешь!",
      "JPja": "わざわざ　ありがとうございまーす！\nそんな風に　気にかけてもらえて　嬉しいです\nでは、この後も　ごゆっくり　どうぞー！",
      "KRko": "일부러 와주셔서 감사합니다－!\n그렇게 신경을 써주시니까 기뻐요\n그럼 편하게 쉬다 가세요－!",
      "TWzh": "非常謝謝您特地跑這一趟！\n我很高興您這麼在乎我。\n那麼接下來也請您在這好好休息吧！",
      "USen": "I appreciate you stopping by. Please\nstay as long as you'd like!",
      "USes": "Es muy amable de tu parte que pases\na saludar. ¡Puedes quedarte aquí\ntodo el tiempo que quieras!",
      "USfr": "C'est gentil d'être passé me rendre\nvisite. Je t'en prie, reste aussi\nlongtemps qu'il te plaira!"
    }
  },
  {
    "label": "110_01",
    "attribute": "0x00000000",
    "locale": {
      "CNzh": "啊？这样啊……\n那么，如果还有什么事，\n请你随时叫我一声！",
      "EUde": "Hm? Oh, okay... Dann sag einfach,\nwenn ich was für dich tun kann, ja?",
      "EUen": "Huh? Oh, OK... Please don't hesitate\nto let me know if you need anything!",
      "EUes": "Vale, no te preocupes. ¡Avísame\nsi necesitas algo!",
      "EUfr": "Vraiment ? Oh, d'accord... Mais\nn'hésite pas à venir me trouver\nsi tu as besoin de quoi que ce soit !",
      "EUit": "Eh? Ah, OK... Se hai bisogno di\nqualcosa, dimmi pure!",
      "EUnl": "Huh? O, oké... Laat het gerust weten\nals je iets nodig hebt!",
      "EUru": "А? Ну ладно... Если тебе что-то\nпонадобится, не стесняйся —\nобращайся ко мне!",
      "JPja": "あれ？　さようでございますかー・・・\nでは　また何か　ございましたら\nいつでも　お声がけくださーい！",
      "KRko": "어라? 그러시군요...\n그럼 무슨 일이 있으시면\n언제든지 말씀해주세요－!",
      "TWzh": "咦？這樣啊……\n那麼如果還有什麼事，\n請隨時跟我說！",
      "USen": "Huh? Oh, OK... Please don't hesitate\nto let me know if you need anything!",
      "USes": "Bien, no te preocupes. ¡Avísame\nsi necesitas algo!",
      "USfr": "Vraiment? Oh, d'accord... Mais\nn'hésite pas à venir me trouver\nsi tu as besoin de quoi que ce soit!"
    }
  },
  {
    "label": "111",
    "attribute": "0x00000000",
    "locale": {
      "CNzh": "",
      "EUde": "",
      "EUen": "",
      "EUes": "",
      "EUfr": "",
      "EUit": "",
      "EUnl": "",
      "EUru": "",
      "JPja": "",
      "KRko": "",
      "TWzh": "",
      "USen": "",
      "USes": "",
      "USfr": ""
    }
  },
  {
    "label": "111_01",
    "attribute": "0x00000000",
    "locale": {
      "CNzh": "以前，我和弟弟常常为了\n在房间里坐自己想坐的位置\n而吵得不可开交。\n不过，别墅里有很多舒适的地方，\n自从搬到别墅里来以后，\n我们也不再为此吵架了！\n能在自己中意的地方打发时间，\n确实是一件很幸福的事情啊！",
      "EUde": "Früher haben mein Bruder und\nich uns immer um die besten\nSitzgelegenheiten gestritten.\nAber in diesem Ferienhaus gibt es so\nviele gemütliche Ecken, dass man\nwegen so was nicht streiten muss.",
      "EUen": "My brother and I used to fight over\nour favorite spots to sit...\nBut this vacation home has plenty of\ncozy spots, so we don't have to fight\nanymore!",
      "EUes": "Mi hermano y yo solíamos pelearnos\npara ver quién se quedaba con el\nsitio más cómodo de la casa...\nEs un alivio pensar que eso no\nserá un problema en esta nueva\ncasa de vacaciones.",
      "EUfr": "Avant, mon frère et moi, on se battait\nsouvent pour avoir la meilleure place\npour s'asseoir...\nEt asseoir notre autorité sur l'autre\nau passage.\nMais dans cette villa, les bons\nendroits ne manquent pas, alors\nplus besoin de se battre !",
      "EUit": "Io e mio fratello litigavamo su tutto:\npersino su dove sederci...\nPer fortuna, questa casa vacanze è\npiena di posti comodi dove sedersi.\nOra non litighiamo più!",
      "EUnl": "Mijn broertje en ik ruzieden vroeger\nvaak om onze favoriete zitplek...\nMaar dit vakantiehuis heeft meer dan\ngenoeg knusse plekjes, dus daar is\ngeen onenigheid meer over!",
      "EUru": "Раньше мы с братом ссорились из-\nза самого удобного места. Борьба за\nместо под солнцем, но под крышей.\nНо на этой даче так много уютных\nместечек, что теперь у каждого есть\nсвой любимый уголок!",
      "JPja": "以前は　部屋の中のどこに座るかで\n弟と　場所の取り合いになっちゃって\nよくケンカしてたんです\nでも　この別荘は\n居心地のいい所が　たくさんあるので\nケンカに　ならないんですよー！\nお気に入りの場所を見つけて\nゴロゴロできるのは　幸せですねー！",
      "KRko": "전에는 방에 앉을 때\n서로 좋은 자리를 차지하려고\n동생하고 자주 다투곤 했어요\n하지만 이 별장은\n좋은 자리가 여기저기에 많아서\n싸울 일이 없답니다－!\n마음에 드는 장소에서\n뒹굴거릴 수 있다는 게 행복해요－!",
      "TWzh": "以前為了在房間裡坐自己想坐的位置，\n我和弟弟會互相爭奪位置，\n並常常為此吵架。\n但是這棟別墅\n有非常多舒適的地方，\n所以我跟弟弟都不會吵架喔！\n能夠找到自己喜歡的地方，\n並躺在上面打滾，可是件很幸福的事喔！",
      "USen": "My brother and I used to fight over\nour favorite spots to sit...\nBut this vacation home has plenty of\ncozy spots, so we don't have to fight\nanymore!",
      "USes": "Mi hermano y yo solíamos pelearnos\npara ver quién se quedaba con el\nlugar más cómodo de la casa...\nEs un alivio pensar que eso no va\na ser un problema en esta nueva\ncasa de vacaciones.",
      "USfr": "Avant, mon frère et moi, on se battait\nsouvent pour avoir la meilleure place\npour s'asseoir...\nEt asseoir notre autorité sur l'autre\nau passage.\nMais dans cette maison, les bons\nendroits ne manquent pas, alors\nplus besoin de se battre!"
    }
  },
  {
    "label": "111_02",
    "attribute": "0x00000000",
    "locale": {
      "CNzh": "其实我在别的地方开了一家店，\n所以回家后也要忙于学习经营与推销的知识，\n还要为准备考证而学习，常常没法休息……\n不过相对的，休息天我就会悠悠闲闲地度过。\n因为狸克社长曾经说过，\n不管做什么事，张弛有度是最重要的！",
      "EUde": "Wenn man ein Geschäft führen muss,\nhat man keine Zeit! Jeden Abend\nBuchhalten, Wirtschaft büffeln...\nTom Nook meint ja, man muss auch\nmal Pause machen... Also arbeite ich\nmanchmal nur den halben Tag. Easy!",
      "EUen": "I run a shop, so I spend my evenings\nat home studying economics and\nwhatnot with no time to rest...\nTom Nook told me that it's important\nto relax when you can... So on my\ndays off, I only work half the day!",
      "EUes": "Como durante el día tengo que\nencargarme del negocio, solo\npuedo estudiar por las noches...\nEl señor Nook siempre me dice\nque hay que descansar también...\nPor eso, en mis días libres, ¡solo\ntrabajo media jornada!",
      "EUfr": "Afin de faire du bon travail à la\nboutique, j'étudie la gestion et\nl'économie sur mon temps libre.\nDu coup, mon temps libre ne l'est\npas vraiment...\nM. Nook m'a un jour dit que c'était\ntrès important de bien se reposer...\nAlors pendant mes jours de congé, je\nne travaille que la moitié du temps...\nMais je dois prendre sur moi !",
      "EUit": "Di giorno gestisco il negozio\ne la sera studio economia.\nNon ho un attimo di riposo...\nTom Nook dice che anche il riposo\nè importante... Quindi nei giorni\nliberi lavoro a orario ridotto!",
      "EUnl": "Omdat ik een winkel heb, lees ik elke\navond economieboeken, waardoor ik\ngeen tijd heb voor ontspanning...\nMeneer Nook zegt dat het belangrijk\nis om te ontspannen... Dus op mijn\nvrije dagen werk ik alleen overdag!",
      "EUru": "Для магазина столько нужно знать:\nфинансы, маркетинг, даже историю.\nНет времени отдыхать...\nНо Том Нук сказал мне, что отдых\nочень важен... Так что на выходных\nя работаю всего лишь полдня!",
      "JPja": "ボク、別の場所で　お店をやっているので\nお家に帰ってからは　経営術や話術、\n資格の勉強にと　休めなくって・・・\nその分、お休みの日は　のんびりですー\n何事にも　メリハリが大事って\nたぬきち社長が　言ってたんですよ！",
      "KRko": "저는 다른 곳에서 가게를 하기 때문에\n집에 돌아간 후에는 경영 기술이나 말하는 법,\n자격증 공부를 하느라 쉴 틈이 없답니다...\n그만큼 쉬는 날에는 더 푹 쉬고 있어요－\n뭐든지 맺고 끊는 걸 잘해야 한다고\n너굴 사장님이 그러셨거든요!",
      "TWzh": "其實我有在別的地方開一間店，\n所以回家之後也要學經營和話術的知識，\n還要忙著準備考取證照，根本沒時間休息……\n相對的，我會悠閒地度過假日。\n畢竟狸克社長也說過，\n適度休息可是非常重要的！",
      "USen": "I run a shop, so I spend my evenings\nat home studying economics and\nwhatnot with no time to rest...\nTom Nook told me that it's important\nto relax when you can... So on my\ndays off, I only work half the day!",
      "USes": "Como durante el día tengo que\nencargarme del negocio, solo\npuedo estudiar por las noches...\nEl señor Nook siempre me dice\nque hay que descansar también...\nPor eso, en mis días libres, ¡solo\ntrabajo media jornada!",
      "USfr": "Afin de faire du bon travail à la\nboutique, j'étudie la gestion et\nl'économie dans mes temps libres.\nDu coup, mes temps libres ne le\nsont pas vraiment...\nM. Nook m'a un jour dit que c'était\ntrès important de bien se reposer...\nAlors pendant mes jours de congé, je\nne travaille que la moitié du temps...\nMais je dois prendre sur moi!"
    }
  },
  {
    "label": "111_03",
    "attribute": "0x00000000",
    "locale": {
      "CNzh": "虽然我觉得狸克社长平时应该很忙，\n但真想能在某一天邀请他\n到这栋别墅里来坐坐啊。\n即便我们还不足以独当一面，\n也想让社长见证一下我们的成长，\n以此回报他对我们的恩情。",
      "EUde": "Tom Nook hat ja immer schrecklich\nviel zu tun, aber hoffentlich kommt\ner trotzdem mal zu Besuch.\nEr wäre sicher ganz begeistert,\ndas Haus zu sehen, und das würde\ngute Laune verbreiten!",
      "EUen": "I know Tom Nook is a busy fellow,\nbut I do hope he can visit this home\none day.\nI think it would impress him, and he\nis always so fun to impress.",
      "EUes": "Sé que el señor Nook siempre está\nmuy ocupado, pero espero que algún\ndía pueda venir a ver esta casa...\n¡Creo que se llevaría una grata\nsorpresa!",
      "EUfr": "M. Nook est quelqu'un de très\noccupé, mais j'espère pouvoir\nl'inviter à passer ici, un jour.\nJe pense qu'il sera très\nimpressionné, et moi, j'aime bien\nl'impressionner.",
      "EUit": "So che Tom Nook ha sempre mille\nimpegni, ma vorrei andare a trovarlo.\nGli farei una sorpresa... E lui ama le\nsorprese!",
      "EUnl": "Ik weet dat meneer Nook het druk\nheeft, maar ik hoop dat hij hier een\nkeer langskomt.\nHij zou vast onder de indruk zijn van\nhet huis, en het is altijd leuk om\nindruk op hem te maken.",
      "EUru": "У Тома Нука всегда много дел, но\nя все же надеюсь, что когда-нибудь\nон посетит эту дачу.\nЕму она точно понравится, а когда\nон доволен, довольны все вокруг.",
      "JPja": "たぬきち社長も　お忙しいとは思いますが\nいつか　この別荘にも\n遊びに来てもらいたいですねー\nボクたち　まだまだ半人前かもしれませんが\nそれでも　お世話になった　お礼として\n成長した姿を見せたいと　思ってるんですよ",
      "KRko": "너굴 사장님도 바쁘시겠지만\n언젠가 이 별장에\n놀러와주셨으면 좋겠어요－\n저희는 아직 제 몫을 하려면 멀었지만\n그래도 감사의 마음을 담아서\n성장한 모습을 보여드리고 싶거든요",
      "TWzh": "雖說狸克社長也是個大忙人，\n但我還是希望\n某天他能一起來這間別墅裡玩呢。\n雖然我們可能還無法獨當一面，\n但我也想讓社長見識一下\n我們有所成長的樣子喔。",
      "USen": "I know Tom Nook is a busy fellow,\nbut I do hope he can visit this home\none day.\nI think it would impress him, and he\nis always so fun to impress.",
      "USes": "Sé que el señor Nook siempre está\nmuy ocupado, pero espero que algún\ndía pueda venir a ver esta casa...\n¡Creo que se llevaría una grata\nsorpresa!",
      "USfr": "M. Nook est quelqu'un de très\noccupé, mais j'espère pouvoir\nl'inviter à passer ici, un jour.\nJe pense qu'il sera très\nimpressionné, et moi, j'aime bien\nl'impressionner."
    }
  },
  {
    "label": "111_04",
    "attribute": "0x00000000",
    "locale": {
      "CNzh": "在打造这栋别墅的过程中，我见识到了\n(player name)你接待客人的态度。\n同为生意人，我感觉学到了很多……\n尤其是让我切身体会到，站在顾客的立场上，\n能被秉持着“顾客至上”精神的员工服务，\n是一件多么令人喜悦的事情！\n身为经营者，就要时刻应对新的挑战。\n我想先和粒狸交换一下意见，\n然后也来实践这样的服务态度！",
      "EUde": "Ich hab in dieser ganzen Sache\nmit dem Ferienhaus unheimlich viel\nvon dir gelernt, weißt du?\nWeil du dich so fürsorglich um deine\nKunden kümmerst! So einen Service\nwollen Schlepp und ich auch bieten.",
      "EUen": "Studying how you've handled this\nvacation-home business has been\nincredibly helpful...\nYour customer service is amazing!\nTommy and I have been taking notes.",
      "EUes": "Nendo y yo hemos aprendido\nmuchísimo de tu trabajo en el\nnegocio de las casas de vacaciones.\n¡La atención al cliente es estupenda!\nLos dos hemos tomado apuntes\ny cogido algunas ideas.",
      "EUfr": "Après examen de tes techniques\ncommerciales, je suis arrivé à\nune conclusion...\nTon service client est exceptionnel !\nTu es une grande source\nd'inspiration pour Mélo et moi-même.\nAprès M. Nook, bien sûr.",
      "EUit": "Sai, ho osservato come gestite la\nvostra attività e ho imparato molto...\nAvete un servizio clienti di qualità!\nIo e Marco prenderemo spunto\nda voi.",
      "EUnl": "Het is ontzettend leerzaam om te\nzien hoe jij je vakantiehuizen\nbeheert...\nJe klantenservice is fantastisch!\nTommy en ik hebben heel wat\naantekeningen gemaakt.",
      "EUru": "Мне как бизнесмену было очень\nинтересно следить за твоей\nработой над дачей...\nТы умеешь понять, что нужно\nклиенту! Мы с Томми многому\nу тебя научились.",
      "JPja": "この別荘の件で　(player name)さんの\n接客を受けてみて、ボクも　商売人として\n大変　勉強になったんですよね・・・\nお客様ファーストの視点で　受けるサービスが\nこんなに嬉しいものなんだなって\n実感しましたー！\n経営は　いつだって　挑戦の連続ですからね\n今一度　つぶきちとも　話し合って\nボクらも　じっせんしたいと思いまーす！",
      "KRko": "이 별장을 만들 때, (player name)님의\n서비스 정신에 똑같이 장사하는 입장에서\n굉장히 많이 참고가 됐답니다...\n오로지 저를 위해서 제공되는 서비스가\n이렇게 기쁜 일이라는 걸\n실감할 수 있었거든요－!\n경영은 끊임없는 도전의 연속이니까요\n밤돌이하고도 잘 이야기해서\n저희도 실천해보려고 해요－!",
      "TWzh": "透過這件別墅的事，我也親自體驗到了\n(player name)的接客方式。\n我覺得我從中學到了不少呢……\n尤其我還實際地感受到，\n原來被擁有「顧客優先」精神的店員服務，\n真的是件非常令人高興的事喔！\n所謂的經營就是連續不斷的挑戰，\n下次我想跟粒狸一起聊聊，\n然後要試著實踐這種服務態度！",
      "USen": "Studying how you've handled this\nvacation-home business has been\nincredibly helpful...\nYour customer service is amazing!\nTommy and I have been taking notes.",
      "USes": "Nendo y yo aprendimos muchísimo\nde tu trabajo en el negocio de las\ncasas de vacaciones.\n¡La atención al cliente es estupenda!\nLos dos hemos tomado apuntes y\nrecolectado algunas ideas.",
      "USfr": "Après examen de tes techniques\ncommerciales, je suis arrivé à\nune conclusion...\nTon service client est exceptionnel!\nTu es une grande source\nd'inspiration pour Mélo et moi-même.\nAprès M. Nook, bien sûr."
    }
  },
  {
    "label": "119",
    "attribute": "0x00000000",
    "locale": {
      "CNzh": "",
      "EUde": "",
      "EUen": "",
      "EUes": "",
      "EUfr": "",
      "EUit": "",
      "EUnl": "",
      "EUru": "",
      "JPja": "",
      "KRko": "",
      "TWzh": "",
      "USen": "",
      "USes": "",
      "USfr": ""
    }
  },
  {
    "label": "119_01",
    "attribute": "0x00000000",
    "locale": {
      "CNzh": "我在打扫庭院的时候，\n偶尔有人会跟我搭话，\n说“粒狸，你好啊”。\n进家里一问，似乎弟弟也经常被人错认成我。\n于是我们干脆将计就计，决定互换情报，\n这样别人叫谁的名字我们都能继续攀谈！\n结果反而被周围的人抱怨说，\n“再这样下去，我越来越分不清谁是谁了”。",
      "EUde": "Manchmal beim Gärtnern kommt\nirgendwer hier vorbeigelaufen und\nruft mir zu: „Hallo, Schlepp!“\nIrgendwie sind wir wohl schwierig\nauseinanderzuhalten. Also spielen\nwir einfach mit, wenn einer sich irrt!\nUnd inzwischen gibt es kaum mehr\neinen, der uns wirklich erkennt!",
      "EUen": "Sometimes when I'm doing yard\nwork, folks greet me with,\n\"Hello, Tommy!\"\nThey seem to have a hard time telling\nus brothers apart. So we've decided\nto play along!\nIt's becoming rare that anyone knows\nwhich of us is which!",
      "EUes": "A veces, cuando estoy en el jardín, \nlos vecinos me saludan con un \n«¡Hola, Nendo!».\nComo parece que les cuesta\ndistinguirnos, hemos decidido\nseguirles la corriente.\n¡Y rara es la vez que se dan cuenta!",
      "EUfr": "Quand je suis dehors en train de\ntravailler, on me salue parfois en\nm'appelant Mélo.\nApparemment, c'est difficile de nous\ndifférencier. Alors on répond aux\ndeux noms !\nSi bien que les gens savent de moins\nen moins qui est qui !",
      "EUit": "Quando sono in giardino, a volte c'è\nchi mi saluta con un: \"Ehi, Marco!\"\nFanno fatica a distinguere me da mio\nfratello. Ormai ci ho fatto l'abitudine\ne lo prendiamo come un gioco!\nÈ raro che azzecchino il nome giusto!",
      "EUnl": "Als ik in de tuin werk, roepen\nvoorbijgangers soms \"Hallo, Tommy!\"\nnaar me.\nBlijkbaar vinden ze het moeilijk om\nons te onderscheiden. Dus wij spelen\nmaar gewoon mee!\nTegenwoordig komt het nog maar\nzelden voor dat iemand ons uit elkaar\nkan houden.",
      "EUru": "Когда я работаю в саду, проходящие\nмимо знакомые здороваются так:\n«Привет, Томми! Как дела?»\nОстровитянам, видимо, сложно нас\nс братом различать. И мы решили\nне обращать на это внимание!\nТак что теперь редко кто называет\nменя моим именем!",
      "JPja": "庭を　掃除してたりすると\n「つぶきちさん　こんにちは」って\n言われちゃうことが　あるんです\n弟も　よく間違われるみたいなんで\n開き直って　どっちでも通用するように\n弟と　情報共有し始めました！\n周りからは「ますます判別できないよ」って\n迷惑がられちゃってますー",
      "KRko": "정원을 청소하고 있으면\n'밤돌이 안녕～' 하고\n인사를 하는 분들이 계세요\n동생도 그런 일이 자주 있는 모양이라\n그냥 이렇게 된 거 어느 쪽이라도 괜찮도록\n동생하고 정보를 주고받기로 했답니다!\n주변에서는 전보다 더 구별하기 힘들다고\n불평하시기도 하지만요－",
      "TWzh": "當我在打掃庭園時，\n常常會有路過的人向我打招呼說\n「粒狸你好」啊。\n而且聽說弟弟他也常常被人認錯，\n所以我們就乾脆開始交換資訊，這樣一來\n不管對方把我們認成誰，我們都能順利回答！\n結果給其他人添了不少麻煩，還讓他們表示\n「這樣我們更分不出誰是誰了」呢。",
      "USen": "Sometimes when I'm doing yard\nwork, folks greet me with,\n\"Hello, Tommy!\"\nThey seem to have a hard time telling\nus brothers apart. So we've decided\nto play along!\nIt's becoming rare that anyone knows\nwhich of us is which!",
      "USes": "A veces, cuando estoy en el jardín, \nlos vecinos me saludan con un \n\"¡Hola, Nendo!\".\nComo parece que les cuesta\ndistinguirnos, hemos decidido\nseguirles la corriente.\n¡Y rara vez se dan cuenta!",
      "USfr": "Quand je suis dehors en train de\ntravailler, on me salue parfois en\nm'appelant Mélo.\nApparemment, c'est difficile de nous\ndifférencier. Alors on répond aux\ndeux noms!\nSi bien que les gens savent de moins\nen moins qui est qui!"
    }
  },
  {
    "label": "119_02",
    "attribute": "0x00000000",
    "locale": {
      "CNzh": "“要把客人的需求放在第一位！”\n……狸克社长以前\n曾说过这样的话。\n见识到(player name)的工作态度后，\n我再次体会到了重视客人需求的必要性，\n我们也得向你看齐！",
      "EUde": "Tom Nook meinte mal zu mir: \n„An erster Stelle kommt immer\nder Kunde!“\nUnd wenn man dir so zusieht,\nweiß man direkt, wie so was\nin der Praxis ausschaut... Ja, ja!",
      "EUen": "Tom Nook told me a long time ago\nto \"always think of the customers\nneeds first and foremost\"!\nWatching you work has given me a\nbetter idea of what he meant...\nYes, yes!",
      "EUes": "El señor Nook me dijo hace tiempo\nque el cliente siempre es lo primero.\nY, después de verte trabajar,\nentiendo aún mejor a qué se\nrefería... ¡Ya lo creo que sí!",
      "EUfr": "Un jour, M. Nook était de très bonne\nhumeur et il m'a confié que son\nsecret tenait en six mots...\n« ⁠Le client est roi, oui, oui. ⁠»\nEt quand je vois le mal que tu t'es\ndonné pour aménager notre villa,\nl'expression prend tout son sens !",
      "EUit": "Tom Nook mi ha insegnato una\nlezione importante. \"Il cliente viene\nprima di tutto!\"\nHo capito a fondo questa massima,\nsolo osservandoti al lavoro... Sì, sì!",
      "EUnl": "Meneer Nook zei ooit tegen mij:\n\"Zorg dat je de behoeften van de\nklant altijd vooropstelt!\"\nAls ik jou zie werken, krijg ik een\nbeter idee van wat hij bedoelde...\nJa, ja!",
      "EUru": "Том Нук как-то сказал мне: «Ставь\nпотребности клиента на первое\nместо!»\nИ твоя работа помогла мне лучше\nпонять, что он имел в виду...\nПравда-правда!",
      "JPja": "たぬきち社長は　昔、\n「お客様のニーズを　第一に考えるんだも！」\n・・・って　おっしゃってたんです\n(player name)さんのお仕事を拝見して\nその大切さを　改めて感じましたー\nボクらも　がんばらないと！",
      "KRko": "너굴 사장님은 예전에\n'손님이 원하시는 걸 가장 우선해야 해구리!'\n...라고 하셨어요\n(player name)님의 일 처리를 보고\n그게 얼마나 중요한지 다시 알게 됐답니다－\n저희도 그 마음을 잊지 않고 힘낼게요!",
      "TWzh": "狸克社長他以前曾經說過……\n「要把客人的需求擺第一狸！」這樣的話。\n在看了(player name)的工作成果後，\n我再次體會到這句話的重要性了。\n我們也得繼續精進自己才行！",
      "USen": "Tom Nook told me a long time ago\nto \"always think of the customers\nneeds first and foremost\"!\nWatching you work has given me a\nbetter idea of what he meant...\nYes, yes!",
      "USes": "El señor Nook me dijo hace tiempo\nque el cliente siempre es lo primero.\nY, después de verte trabajar,\nentiendo aún mejor a qué se\nrefería... ¡Así es!",
      "USfr": "Un jour, M. Nook était de très bonne\nhumeur et il m'a confié que son\nsecret tenait en six mots...\n« ⁠Le client est roi, oui, oui. ⁠»\nEt quand je vois le mal que tu t'es\ndonné pour aménager notre maison,\nl'expression prend tout son sens!"
    }
  },
  {
    "label": "119_03",
    "attribute": "0x00000000",
    "locale": {
      "CNzh": "趁手头没什么事情，\n可以窝在家里仔细思考经营战略，\n但偶尔到庭院里放松心情也是很重要的。\n毕竟好点子\n只会诞生于身心健康的土壤！\n这也是狸克社长的教导！",
      "EUde": "Zu Hause neue Geschäftsstrategien\naushecken ist ja nett, aber raus\nmuss man auch manchmal!\nAn der frischen Luft kommen einem\nfrische Ideen! Das hat Tom Nook\nmir mal gesagt!",
      "EUen": "Staying in and thinking up business\nstrategies is good, but getting\noutside is important too!\nYou need to take care of your mind\nto have good ideas. That's something\nTom Nook taught me!",
      "EUes": "Está bien pensar en nuevas\nestrategias para el negocio, \n¡pero también hay que relajarse!\nLas mejores ideas surgen de una\nmente bien descansada. ¡Eso es\nalgo que me enseñó el señor Nook!",
      "EUfr": "Bien sûr, c'est important de bien\ntravailler et de réfléchir à des\nstratégies commerciales...\nMais il ne faut pas non plus oublier\nde prendre l'air. C'est tout aussi\nimportant !\nPour avoir de bonnes idées, il faut\nque ton esprit soit en bonne santé !\nC'est de M. Nook que je tiens\ncet enseignement capital, alors\nfais-en bon usage !",
      "EUit": "Stare in casa e studiare nuove\nstrategie di mercato è utile, ma\nfa bene anche uscire a svagarsi!\nUn po' di riposo aiuta a schiarire le\nidee! Me lo ha insegnato Tom Nook!",
      "EUnl": "Het is prima om binnen te zitten\nen bedrijfsstrategieën te bedenken,\nmaar soms moet je ook naar buiten!\nAls je goed voor je verstand zorgt,\nkom je vanzelf op goede ideeën! Dat\nheb ik van meneer Nook geleerd!",
      "EUru": "Проводить время дома за изучением\nбизнес-стратегий важно, но быть\nна свежем воздухе тоже нужно!\nГолове надо давать отдыхать, чтобы\nв ней появлялись новые идеи!\nЭтому меня Том Нук научил.",
      "JPja": "自由時間があるうちに　家にこもって\nゆっくり　経営戦略を考えるのも　いいですが\n適度に庭に出たりして　気分転換も大事ですよ\n心身が健康でなきゃ、いいアイデアは\n生まれませんからね！\nこれも　たぬきち社長から　教わりましたー！",
      "KRko": "자유 시간이 있을 때 집에 들어앉아서\n차분하게 경영 전략을 짜는 것도 좋지만\n이따금 밖에 나와서 기분 전환도 해줘야 해요\n몸과 마음이 건강하지 않으면\n좋은 아이디어가 떠오르지 않으니까요!\n이것도 너굴 사장님께 배웠답니다－!",
      "TWzh": "雖然趁自己還有自由時間時，\n待在家裡認真琢磨經營戰略也不錯，\n但適度地到庭園裡轉換心情也很重要喔。\n因為不讓身心保持健康的話，\n是無法想出好主意的！\n這點也是狸克社長教我們的喔！",
      "USen": "Staying in and thinking up business\nstrategies is good, but getting\noutside is important too!\nYou need to take care of your mind\nto have good ideas. That's something\nTom Nook taught me!",
      "USes": "Está bien pensar en nuevas\nestrategias para el negocio, \n¡pero también hay que relajarse!\nLas mejores ideas surgen de una\nmente bien descansada. ¡Eso es\nalgo que me enseñó el señor Nook!",
      "USfr": "Bien sûr, c'est important de bien\ntravailler et de réfléchir à des\nstratégies commerciales...\nMais il ne faut pas non plus oublier\nde prendre l'air. C'est tout aussi\nimportant!\nPour avoir de bonnes idées, il faut\nque ton esprit soit en bonne santé!\nC'est de M. Nook que je tiens\ncet enseignement capital, alors\nfais en bon usage!"
    }
  },
  {
    "label": "119_04",
    "attribute": "0x00000000",
    "locale": {
      "CNzh": "前几天，因为夕阳西下实在是太美了，\n我就和弟弟粒狸一起\n看了好一会儿黄昏景色。\n看着看着，我就想起来，\n自己平时不是忙工作就是忙学习，\n没能好好地把时间分给家人……\n在这座的自然风光中，\n我们兄弟俩的关系也更加亲密了。\n让我不禁觉得来到这里真是太好了！",
      "EUde": "Ich und Schlepp haben mal einen\nsuperschönen Sonnenuntergang\ngesehen. Ganz ruhig und entspannt!\nUnd da dachte ich mir, dass bei\nall der Arbeit die Familie vielleicht\nbei uns etwas zu kurz kommt...\nDoch hier auf dieser Insel sind wir\nuns sogar noch näher gekommen.\nIch bin so froh, hier zu sein!",
      "EUen": "Me and Tommy saw the loveliest\nsunset. We stood and watched it\nfor quite a while!\nAnd it occurred to me how little\nfamily time we've been having\nbecause of how busy we are...\nThis island has allowed us brothers\nto strengthen our bond. I'm so glad\nI came here!",
      "EUes": "El otro día Nendo y yo contemplamos\nuno de los atardeceres más\nespectaculares que haya visto...\nEsto me hizo pensar en el poco\ntiempo que pasamos juntos, porque\nsiempre estamos muy ocupados.\nAunque gracias a esta isla estamos\nmás unidos que nunca. ¡Cuánto me\nalegro de haber venido!",
      "EUfr": "L'autre jour, Mélo et moi sommes\nrestés un long moment à admirer le\nsoleil se coucher. C'était magique !\nJ'ai réalisé à ce moment-là que nous\navions négligé notre vie de famille\nparce que nous étions trop occupés.\nCette île nous a permis de nous\nretrouver, mon frère et moi. Je suis\nbien content de pouvoir en profiter !",
      "EUit": "Io e Marco abbiamo visto un\ntramonto mozzafiato. Siamo rimasti\nincantati a lungo!\nFa riflettere. Di solito non abbiamo\nmolto tempo per queste cose...\nMa qui, su quest'isola, possiamo\ncoltivare il nostro legame. Abbiamo\nfatto proprio bene a venire!",
      "EUnl": "Tommy en ik zagen een prachtige\nzonsondergang. We hebben er heel\nlang naar zitten staren!\nEn ik besefte opeens hoe weinig tijd\nwe met elkaar hebben doorgebracht\nomdat we het zo druk hebben...\nOp dit eiland is onze band als\nbroertjes hechter geworden. Ik ben\nblij dat we hierheen zijn gekomen!",
      "EUru": "Мы с Томми видели такой закат! От\nнего сложно было отвести взгляд,\nмы долго стояли и любовались им.\nИ тут я задумался. До переезда на\nостров мы с братом редко вот так\nпроводили время... Все дела, дела.\nА этот остров нас очень сплотил.\nЯ так рад, что приехал сюда!",
      "JPja": "こないだ、あまりにもキレイな夕日が\n見えたので　弟のつぶきちと一緒に\n眺めていたんですー\nそういえば　やれ仕事だ勉強だって\n忙しさにかまけて、ちゃんと家族の時間を\n過ごせてなかったなと　思い出して・・・\nこのの自然が　ボクら兄弟のキズナを\nさらに強めてくれました\nボク、ここに来られて　良かったでーす！",
      "KRko": "요전에 저녁노을이 너무 예쁘길래\n제 동생 밤돌이하고 같이\n한참을 쳐다봤답니다－\n그러다가 내내 일이나 공부 때문에\n바쁘다는 핑계로 가족 간의 시간을\n보내지 못했다는 걸 깨달았죠...\n이 의 자연이 저희 형제의 우애를\n더 끈끈하게 만들어줬어요\n저는 이곳에 오게 돼서 정말 행복해요－!",
      "TWzh": "之前我看到了非常美麗的夕陽，\n所以我就跟我弟弟粒狸，\n一起眺望夕陽下山喔。\n然後我就想起來，\n我們好像都在忙著去工作或是讀書，\n並沒有好好度過跟家人相處的時光……\n幸好這座島的大自然\n加深了我們兄弟倆之間的情誼。\n我有來到這裡真是太好了！",
      "USen": "Me and Tommy saw the loveliest\nsunset. We stood and watched it\nfor quite a while!\nAnd it occurred to me how little\nfamily time we've been having\nbecause of how busy we are...\nThis island has allowed us brothers\nto strengthen our bond. I'm so glad\nI came here!",
      "USes": "El otro día Nendo y yo contemplamos\nuno de los atardeceres más\nespectaculares que se haya visto...\nEsto me hizo pensar en el poco\ntiempo que pasamos juntos, porque\nsiempre estamos muy ocupados.\nAunque gracias a esta isla estamos\nmás unidos que nunca. ¡Cuánto me\nalegro de haber venido!",
      "USfr": "L'autre jour, Mélo et moi sommes\nrestés un long moment à admirer le\nsoleil se coucher. C'était magique!\nJ'ai réalisé à ce moment-là que nous\navions négligé notre vie de famille\nparce que nous étions trop occupés.\nCette île nous a permis de nous\nretrouver, mon frère et moi. Je suis\nbien content de pouvoir en profiter!"
    }
  },
  {
    "label": "124",
    "attribute": "0x00000000",
    "locale": {
      "CNzh": "这里真是个无可挑剔的好地方！\n我和粒狸两个人一定能在这儿过得很愉快，\n我对这里非常满意！",
      "EUde": "Wie schön es hier ist!\nDas wird echt ein Riesenspaß hier\nfür Schlepp und mich, ganz klar!",
      "EUen": "What a lovely place! Tommy and I will\nhave so much fun here!",
      "EUes": "¡Este sitio es perfecto! ¡Nendo y yo\nnos lo vamos a pasar en grande!",
      "EUfr": "Quel endroit magnifique ! Mélo et\nmoi allons bien nous amuser ici !",
      "EUit": "Che posto incantevole! Io e Marco\nci divertiremo tantissimo!",
      "EUnl": "Wat een mooi plekje! Hier gaan\nTommy en ik heel wat plezier\nbeleven!",
      "EUru": "Какое замечательное место! Нам\nс Томми будет здесь очень хорошо!",
      "JPja": "申し分ない　ステキな場所ですね！\nここなら　つぶきちと　ふたり暮らしでも\n快適に過ごせそうで　気に入りましたー！",
      "KRko": "더할 나위 없이 멋진 장소네요!\n여기라면 밤돌이와 둘이 살아도\n쾌적하게 지낼 수 있을 것 같아서 좋아요－!",
      "TWzh": "這個地方真是美得無可挑剔啊！\n我想我跟粒狸兩人應該能舒適地住在這裡，\n所以我很喜歡這個地方喔！",
      "USen": "What a lovely place! Tommy and I will\nhave so much fun here!",
      "USes": "¡Este lugar es perfecto! ¡Nendo y yo\nla vamos a pasar de maravillas!",
      "USfr": "Quel endroit magnifique! Mélo et\nmoi allons bien nous amuser ici!"
    }
  },
  {
    "label": "124_01",
    "attribute": "0x00000000",
    "locale": {
      "CNzh": "那么，装修的事情\n也一并麻烦你了！",
      "EUde": "Vielen Dank fürs Arbeiten und fürs\nAbändern und fürs Umbauen und...\nirgendwie für alles!",
      "EUen": "Thank you for taking care of\nremodeling and...everything!",
      "EUes": "Gracias por encargarte de la\nreforma... ¡y de todo lo demás!",
      "EUfr": "Merci de t'occuper de la rénovation...\net du reste !",
      "EUit": "Grazie ancora... di tutto!",
      "EUnl": "Bedankt voor de verbouwing en...\nalles!",
      "EUru": "Спасибо тебе за новый дизайн!\nДа и вообще... за все!",
      "JPja": "では　リフォームなども合わせて\n引き続き　よろしくお願いしまーす！",
      "KRko": "그럼 리폼 작업까지\n계속해서 잘 부탁드립니다－!",
      "TWzh": "那麼包括裝修在內的工作\n也繼續請您多多關照了！",
      "USen": "Thank you for taking care of\nremodeling and...everything!",
      "USes": "Gracias por encargarte de la\nremodelación... ¡y de todo lo demás!",
      "USfr": "Merci de t'occuper de la rénovation...\net du reste!"
    }
  },
  {
    "label": "129_06",
    "attribute": "0x00000000",
    "locale": {
      "CNzh": "哇，2楼看起来也很舒适啊！\n当初接受了(player name)你的提议\n真是太好了！",
      "EUde": "Huiii! Das zweite Stockwerk ist echt\nein Knaller! Vielen Dank noch mal\nfür die Empfehlung!",
      "EUen": "Oh my! The second floor is great!\nThank you so much for the\nrecommendation!",
      "EUes": "¡Vaya! ¡Esta nueva planta es\nincreíble! ¡Muchas gracias por\nla recomendación!",
      "EUfr": "Ouah ! Un étage, ça vous change\nune maison ! Merci de me l'avoir\nconseillé !",
      "EUit": "Caspitina! Il nuovo piano è da urlo!\nGrazie mille per il suggerimento!",
      "EUnl": "Gossie! De nieuwe verdieping is\nfantastisch! Bedankt voor je\naanbeveling!",
      "EUru": "Ох! Как же здорово, когда есть\nвторой этаж! Спасибо большое\nза идею!",
      "JPja": "わぁ、2階も　居心地が良さそうですねー！\n(player name)さんから\n提案していただいて　本当に良かったでーす！",
      "KRko": "우와, 2층도 정말 편할 것 같네요－!\n(player name)님이 해주신\n제안을 따르길 정말 잘했어요－!",
      "TWzh": "哇，二樓看起來也非常舒適呢！\n幸好(player name)您當初\n有提出要蓋二樓的提案！",
      "USen": "Oh my! The second floor is great!\nThank you so much for the\nrecommendation!",
      "USes": "¡Vaya! ¡Este nuevo piso es\nincreíble! ¡Muchas gracias por\nla recomendación!",
      "USfr": "Ouah! Un étage, ça vous change\nune maison! Merci de me l'avoir\nconseillé!"
    }
  },
  {
    "label": "129_07",
    "attribute": "0x00000000",
    "locale": {
      "CNzh": "那么，这间房间的布置\n也麻烦你了！",
      "EUde": "Ich bin schon total gespannt,\nwas du mit diesem Zimmer hier\nso Schönes anstellst.",
      "EUen": "I'm looking forward to seeing what\nyou do with this room!",
      "EUes": "¡Estoy deseando ver lo que tienes\npensado para esta habitación!",
      "EUfr": "J'ai hâte de voir ce que tu vas faire\nde cette pièce !",
      "EUit": "Scommetto che questa stanza verrà\nbenissimo! Sì, sì!",
      "EUnl": "Ik ben razendbenieuwd wat je met\ndeze ruimte gaat doen!",
      "EUru": "Как же преобразится эта комната,\nкогда ты над ней поработаешь?\nТак интересно!",
      "JPja": "では、引き続き　こちらの　お部屋も\nよろしくお願いしまーす！",
      "KRko": "그럼 계속해서 이 방도\n잘 부탁드립니다－!",
      "TWzh": "那麼接下來，這個房間的工作\n也請您多多關照了！",
      "USen": "I'm looking forward to seeing what\nyou do with this room!",
      "USes": "¡Estoy deseando ver lo que tienes\npensado para esta habitación!",
      "USfr": "J'ai hâte de voir ce que tu vas faire\nde cette pièce!"
    }
  },
  {
    "label": "148",
    "attribute": "0x00000000",
    "locale": {
      "CNzh": "这样啊！\n那么你回去的时候路上小心！\n欢迎下次再来哦！",
      "EUde": "OK! Dann mal guten Heimweg!\nUnd komm auf jeden Fall bald\nmal wieder. Ja, ja!",
      "EUen": "OK! Please get home safe. And come\nvisit again!",
      "EUes": "¡Vale, cuídate! ¡Y pásate por aquí\ncuando quieras!",
      "EUfr": "Compris ! Surtout rentre bien.\nEt n'oublie pas de venir nous\nrendre visite !",
      "EUit": "OK! Buon rientro. E torna a trovarci!\nCiao, ciao!",
      "EUnl": "Oké! Veilig thuis. En tot de volgende\nkeer!",
      "EUru": "Ладно! Хорошей дороги.\nВозвращайся, когда захочешь!",
      "JPja": "さようでございますかー！\nそれでは　気をつけて　お帰りください！\nまたの　お越しを　お待ちしておりまーす！",
      "KRko": "그러신가요－!\n그럼 돌아가시는 길도 살펴 가세요!\n또 와주시길 기다리고 있을게요－!",
      "TWzh": "這樣啊！\n那麼您要回去時請小心一點喔！\n歡迎您下次再來！",
      "USen": "OK! Please get home safe. And come\nvisit again!",
      "USes": "¡Bien, cuídate! ¡Y pasa por aquí\ncuando quieras!",
      "USfr": "Compris! Surtout rentre bien.\nEt n'oublie pas de venir nous\nrendre visite!"
    }
  }
]