﻿[
  {
    "label": "002",
    "attribute": "0x00000000",
    "locale": {
      "CNzh": "(player name)！\n别墅的事情，真的是承蒙你的关照了！\n多亏了你，我们生活得非常舒适！\n其实，我和弟弟商量过后，\n给(player name)\n准备了一份谢礼。请收下吧！",
      "EUde": "Vielen Dank für deine beherzte\nArbeit an unserem Ferienhaus,\n(Spielername)!\nMein Bruder und ich haben hier jede\nMenge Spaß! Es ist schön, auch die\nFreizeit gemeinsam zu verbringen.\nDeshalb möchten wir dir zum Dank\nein kleines Geschenk überreichen.\nHoffentlich gefällt es dir!",
      "EUen": "Thanks for all your help with our\nvacation home, (player name)!\nMe and my brother are having a lot\nof fun here. It's nice to spend some\ntime together!\nWe picked out a gift as a way to say\nthanks for your help. We hope you\nenjoy it!",
      "EUes": "¡Muchas gracias por tu ayuda con\nnuestra genial casa de vacaciones,\n(player name)!\nMi hermano y yo lo pasamos genial\nen ella. ¡Nos encanta pasar tiempo\nlos dos juntos!\nY tenemos un regalito para ti como\nagradecimiento. ¡A ver si hemos\nacertado y te gusta!",
      "EUfr": "J'adore ma maison de vacances !\nQuel bonheur d'avoir un lieu où me\nressourcer !\nEt j'espère que ce petit cadeau saura\nexprimer ma reconnaissance !",
      "EUit": "Grazie del tuo aiuto con la nostra\ncasa vacanze, (player name)!\nIo e mio fratello ci divertiamo\nun sacco. Fa piacere trascorrere\ndel tempo insieme!\nPer ringraziarti ti abbiamo preso\nun regalo. Speriamo che ti piaccia!",
      "EUnl": "Bedankt voor al je hulp met ons\nvakantiehuis, (player name)!\nWe hebben hier zo'n lol. Wat fijn\nom hier onze vrije tijd te kunnen\ndoorbrengen!\nWe hebben een cadeautje voor je\nuitgezocht om je te bedanken. We\nhopen dat je het leuk vindt!",
      "EUru": "Спасибо за помощь с дачей,\n(player name)!\nНам с братом тут так хорошо\nотдыхается! Иногда хочется побыть\nвместе, и не в рабочей обстановке.\nМы оба выбирали этот подарок.\nНадеюсь, он тебе понравится!",
      "JPja": "(player name)さん！\n別荘の件では　大変　お世話になりましたー！\nおかげさまで　とても快適に過ごしてまーす！\n実は　弟と相談して\nお礼の品を　用意しましたので、\nぜひ　もらってくださーい！",
      "KRko": "(player name)님!\n별장 건으로 신세 많이 졌습니다－!\n덕분에 정말 쾌적하게 지내고 있어요－!\n사실은 동생이랑 이야기해서\n답례품을 준비했거든요\n부디 받아주세요－!",
      "TWzh": "(player name)！\n別墅的事情真的受到您很多關照！\n多虧有您，我們才能住得這麼舒適！\n其實我跟弟弟商量過之後，\n決定要送一份謝禮給(player name)，\n請您收下吧！",
      "USen": "Thanks for all your help with our\nvacation home, (player name)!\nMe and my brother are having a lot\nof fun here. It's nice to spend some\ntime together!\nWe picked out a gift as a way to say\nthanks for your help. We hope you\nenjoy it!",
      "USes": "¡Muchas gracias por tu ayuda con\nnuestra genial casa de vacaciones,\n(player name)!\nMi hermano y yo la pasamos genial\naquí. ¡Nos encanta pasar tiempo\nlos dos juntos!\nY tenemos un regalito para ti como\nagradecimiento. ¡A ver si acertamos\ncon tu estilo y te gusta!",
      "USfr": "J'adore ma maison de vacances!\nQuel bonheur d'avoir un lieu où me\nressourcer!\nEt j'espère que ce petit cadeau saura\nexprimer ma reconnaissance!"
    }
  },
  {
    "label": "002_001",
    "attribute": "0x00000000",
    "locale": {
      "CNzh": "\n是我们也在使用的，非常推荐哦！\n如果你能喜欢的话那就再好不过了！",
      "EUde": "!\n in unserem Ferienhaus gefällt\nuns richtig gut und wir dachten, dass\ndu vielleicht auch so  magst!",
      "EUen": "My brother and I really love our\n, so we\nhope you'll enjoy yours too!",
      "EUes": "Es  como  que tenemos mi hermano y yo. ¡A disfrutarl!",
      "EUfr": " ! C'est un article qui a beaucoup de succès en ce moment... je crois.",
      "EUit": "Io e mio fratello adoriamo  , quindi speriamo che l adorerai anche tu!",
      "EUnl": "Mijn broertje en ik zijn gek op  , hopelijk jij ook op  van jou!",
      "EUru": "Мы с братом просто в восторге от\nнашего , и надеемся, ты тоже его полюбишь!",
      "JPja": "は\nボクらも使っていて　オススメなんですよー！\n気に入っていただけると　嬉しいです！",
      "KRko": "은\n저희도 쓰고 있어서 추천드려요－!\n마음에 드시면 좋겠습니다!",
      "TWzh": "這個\n我們也有在用，非常推薦喔！\n如果您喜歡就太好了！",
      "USen": "My brother and I really love our\n, so we\nhope you'll enjoy yours too!",
      "USes": "Es  como  que tenemos mi hermano y yo. ¡A disfrutarl!",
      "USfr": "! C'est un article qui a beaucoup de succès en ce moment... je crois."
    }
  },
  {
    "label": "002_002",
    "attribute": "0x00000000",
    "locale": {
      "CNzh": "啊，但你的持有物已经满了呢。\n那么，能请你先整理一下吗？\n在那之前我会先保管着！",
      "EUde": "Oh! Du scheinst schon ziemlich viele\nDinge mit dir herumzutragen!\nKomm bitte wieder, wenn du mehr\nPlatz in deiner Tasche hast!\nNa so was, ich höre mich ja an wie\nim Laden! Dabei wollen wir dir doch\ndieses Mal gar nichts verkaufen!",
      "EUen": "Whoa! You're already carrying so\nmany things!\nMaybe you can come back after you\nmake room in your pockets.\nHeh. I sound like I'm at work. But I\nreally would like to give you this gift!",
      "EUes": "¡Pero bueno! ¿Tienes el catálogo de\ncosas completo? Entonces avísame\ncuando tengas hueco para otra más.\nJe, je. Perdona que hable como\nsi hiciéramos negocios. ¡Esto será\nun regalo y no te costará nada!",
      "EUfr": "Oh ! Mais tes poches sont pleines !\nAh, c'est toujours une tragédie\nquand ça arrive au magasin...\nReviens quand tu auras fait de la\nplace, d'accord ?",
      "EUit": "Uau! Hai già tantissime cose con te!\nForse puoi tornare dopo aver fatto\nspazio nelle tasche.\nEh. Sentimi, parlo come se fossi\nal lavoro. Ma voglio davvero darti\nquesto regalo!",
      "EUnl": "Je hebt veel te veel dingen bij je!\nMisschien kun je terugkomen als je je\nzakken wat leger hebt gemaakt.\nHaha. Het is net alsof ik op mijn werk\nben. Maar we willen je wel heel graag\nnog je cadeautje geven!",
      "EUru": "Ой! У тебя уже столько всего\nс собой!\nТы не мог бы освободить место\nв карманах? А потом возвращайся!\nИзвини, это мой рабочий тон.\nПросто я очень хочу, чтобы ты\nполучил этот подарок!",
      "JPja": "でも、もちものが　いっぱいなんですね\nいったん　整理してきてもらえますか？\nそれまで　お預かりしておきますねー！",
      "KRko": "그런데 주머니가 가득하신 모양이네요\n일단 짐을 정리하고 와주시겠어요?\n그때까지 맡아 두고 있겠습니다－!",
      "TWzh": "啊，不過您的持有物品已經滿了。\n可以先請您整理一下嗎？\n我會幫忙保管好禮物的！",
      "USen": "Whoa! You're already carrying so\nmany things!\nMaybe you can come back after you\nmake room in your pockets.\nHeh. I sound like I'm at work. But I\nreally would like to give you this gift!",
      "USes": "¡Pero bueno! ¿Tienes los bolsillos\nal máximo? Entonces avísame cuando\ntengas lugar para otra cosa más.\nJe, je. Perdona que hable como\nsi hiciéramos negocios. ¡Esto será\nun regalo y no te costará nada!",
      "USfr": "Oh! Mais tes poches sont pleines!\nAh, c'est toujours une tragédie\nquand ça arrive au magasin...\nReviens quand tu auras fait de la\nplace, d'accord?"
    }
  },
  {
    "label": "002_003",
    "attribute": "0x00000000",
    "locale": {
      "CNzh": "持有物已经整理好了吗？\n那么这一次，\n请收下我们的感激之情吧！",
      "EUde": "Oh ja, du hast genug Platz in deiner\nTasche. Dann können wir dir dein\nGeschenk jetzt geben. Hier, nimm!",
      "EUen": "Did you make some pocket space?\nIn that case, here's your gift!",
      "EUes": "¿Ya has hecho sitio en tus bolsillos?\nMuy bien, aquí tienes entonces el\nartículo en cuestión.",
      "EUfr": "Oh, te revoilà avec de la place dans\ntes poches ! Voici ton cadeau, je l'ai\ngardé de côté pour toi !",
      "EUit": "Allora, hai svuotato le tasche?\nIn tal caso, ecco il regalo!",
      "EUnl": "Heb je plek gemaakt? Zo ja, dan is\nhier ons cadeautje!",
      "EUru": "Ну что, освободил место?\nВ таком случае держи!",
      "JPja": "もちものの整理は　できましたかー？\nそれでは　改めて、\nボクたちの　感謝の気持ちでーす！",
      "KRko": "주머니는 정리하고 오셨나요－?\n그럼 여기,\n저희가 드리는 감사 표시를 받아주세요－!",
      "TWzh": "持有物品已經整理好了嗎？\n那麼這一次\n就請收下我們的感謝心意吧！",
      "USen": "Did you make some pocket space?\nIn that case, here's your gift!",
      "USes": "¿Ya hiciste lugar en tus bolsillos?\nMuy bien, aquí tienes entonces\nel artículo en cuestión.",
      "USfr": "Oh, te revoilà avec de la place dans\ntes poches! Voici ton cadeau, je l'ai\ngardé de côté pour toi!"
    }
  }
]