﻿[
  {
    "label": "001",
    "attribute": "0x0000000000000000",
    "locale": {
      "CNzh": "啊……\n穿上它是挺不错的，但会不会让别人以为\n我太得意忘形了啊？。",
      "EUde": "...\nPasst zu jeder Jahreszeit, sofern es\nFrühling ist, gra ha ha!",
      "EUen": "...\nSeems seasonable, assumin'\nthe season I'd be wearin' it\nin was spring, (catchphrase).",
      "EUes": "...\nParece apropiado para la temporada.\nSuponiendo que la temporada sea\nprimavera, (catchphrase).",
      "EUfr": "...\nÇa me paraît pas complètement\ndéraisonnable de porter ce genre de\ntruc au printemps, (expression).",
      "EUit": "...\nDirei che è  a tutte le\nstagioni. A parte l'inverno, l'estate e\nl'autunno, (catchphrase)! AHAHAH!",
      "EUnl": "...\nMooi kledingstuk, hoor. Nou ja, mooi\nvoor de lente, (catchphrase).",
      "EUru": "...\nВроде по сезону. Если, конечно,\nу нас сейчас весна. (catchphrase)!",
      "JPja": "ねぇ・・・\nこいつでキメるのも　悪くねぇけど\n浮かれたヤツって　思われるか？　",
      "KRko": " 말이지...\n내 눈엔 딱 좋아 보이는데\n나만 그렇게 생각하는 건 아니겠지? ?",
      "TWzh": "啊……\n雖然穿它來一決勝負也不錯，\n可是會不會被人認為我太得意忘形了？。",
      "USen": "...\nSeems seasonable, assumin'\nthe season I'd be wearin' it\nin was spring, (catchphrase).",
      "USes": "...\nParece apropiado para la temporada.\nSuponiendo que la temporada sea\nprimavera, (catchphrase).",
      "USfr": "...\nÇa me paraît pas complètement\ndéraisonnable de porter ce genre de\ntruc au printemps, (expression)."
    }
  },
  {
    "label": "002",
    "attribute": "0x0000000000000000",
    "locale": {
      "CNzh": "有了，\n感觉就能顺利挨过\n夏天明晃晃的太阳和酷热了。。",
      "EUde": "!\nVielleicht nicht schlecht bei diesem\nfurchtbaren Wetter im Sommer,\n(Floskel)!",
      "EUen": "Seein' that it's summer,\n\nseems sensible.\nIf I wasn't such a cheapskate,\nI'd probably invest in lots more\nseasonable duds, (catchphrase)...",
      "EUes": "¡!\nMe ayudará a sobrevivir en el\nterrible tiempo veraniego, (catchphrase).",
      "EUfr": " !\nVoilà qui pourrait m'aider à passer\nun été en toute sérénité, (expression).",
      "EUit": "!\nDavvero  per quando è\nestate, (catchphrase).",
      "EUnl": "Het is zomer, dus komt  vast wel van pas.\nAls ik niet zo'n krent was, kocht ik\nheel wat meer kleren, (catchphrase)...",
      "EUru": "А что, на дворе лето, так что  в самый раз будет.\nЭх, не был бы я таким скупердяем,\nмог бы покупать себе тряпки по\nсезону. (catchphrase)...",
      "JPja": "なら、\n夏の　ギラギラした暑さを\n乗りこえられそうな　気がするな、",
      "KRko": "이라면\n여름의 이글거리는 더위를\n극복할 수 있을 것 같은 기분이야, ",
      "TWzh": "如果是，\n感覺就能伴我度過\n夏天的毒辣陽光和酷熱啦，。",
      "USen": "Seein' that it's summer,\n\nseems sensible.\nIf I wasn't such a cheapskate,\nI'd probably invest in lots more\nseasonable duds, (catchphrase)...",
      "USes": "¡!\nMe ayudará a sobrevivir en el\nterrible clima del verano, (catchphrase).",
      "USfr": "!\nVoilà qui pourrait m'aider à passer\nun été en toute sérénité, (expression)."
    }
  },
  {
    "label": "003",
    "attribute": "0x0000000000000000",
    "locale": {
      "CNzh": "雅致的……\n真不错啊……\n拿季节打比方的话，就是秋天吧。。",
      "EUde": "...\nKann nicht behaupten, viel über\nMode zu wissen, aber das sieht mir\nnach „Herbst“ aus, (Floskel).",
      "EUen": "So I guess everyone's wearin' \n now?\nDon't claim to know much about\nfashion, but I do reckon that's\na \"fall\" look, (catchphrase).",
      "EUes": "...\nNo tengo mucha idea de moda, pero\nno cabe duda de que es ideal para\notoño, .",
      "EUfr": "...\nJ'y connais pas grand-chose en\nmode, mais c'est bien un truc\nd'automne, non ?",
      "EUit": "...\nNon sono un grande esperto di\nmoda, ma suppongo che sia un abito\nda portare in autunno, giusto?",
      "EUnl": "...\nVan mode heb ik weinig verstand,\nmaar volgens mij  wel\neen \"herfststijl\", (catchphrase).",
      "EUru": "...\nНе знаю, наверное, сейчас все\nтакое носят.\nЯ-то в этой вашей моде не\nразбираюсь, но вроде на осень\nсойдет.  (catchphrase)!",
      "JPja": "の\nこの渋み・・・　いいねぇ・・・\n季節で言うと　秋って感じだな、",
      "KRko": "의\n중후함... 아주 좋아...\n계절로 말하자면 가을 느낌이랄까, ?",
      "TWzh": "\n真是雅致……很不錯……\n以季節來比喻，就是秋天的感覺啊，。",
      "USen": "So I guess everyone's wearin' \n now?\nDon't claim to know much about\nfashion, but I do reckon that's\na \"fall\" look, (catchphrase).",
      "USes": "...\nNo sé mucho de modas, pero sin\nduda que es ideal para\notoño, .",
      "USfr": "...\nJ'y connais pas grand-chose en\nmode, mais c'est bien un truc\nd'automne, non?"
    }
  },
  {
    "label": "004",
    "attribute": "0x0000000000000000",
    "locale": {
      "CNzh": "对抗寒冷，\n感觉还是靠\n最合适……。",
      "EUde": "!\nKönnte genau richtig sein für das\nWetter im Winter. Wirkt halbwegs\ndurchdacht, (Floskel).",
      "EUen": "I like to be prepared for the weather,\nand there's a kinda practical feel to\n.\nMight be just the thing for winter\nweather. Not bad, (catchphrase).",
      "EUes": "¡!\nDiría que en invierno se puede\nllevar perfectamente, (catchphrase).",
      "EUfr": " !\nJ'imagine que c'est pratique pour\nl'hiver, (expression).",
      "EUit": "!\n per l'inverno. E non è\nneanche . AHAHAH!",
      "EUnl": "!\n wel iets voor in de winter.\nNiet slecht, (catchphrase).",
      "EUru": "Одеваться надо по погоде. Ну что,\n — вещь,\nпохоже, добротная.\nНа зиму можно взять. (catchphrase)!",
      "JPja": "寒さ対策には\nやっぱ　が\n一番な気がするんだよな～・・・、",
      "KRko": "추위를 대비하기에는\n역시 이\n최고라니까... ",
      "TWzh": "要做好保暖，我覺得果然還是用\n\n最適合了……。",
      "USen": "I like to be prepared for the weather,\nand there's a kinda practical feel to\n.\nMight be just the thing for winter\nweather. Not bad, (catchphrase).",
      "USes": "¡!\nCreo que no está mal para llevar\nen invierno, (catchphrase).",
      "USfr": "!\nJ'imagine que c'est pratique pour\nl'hiver, (expression)."
    }
  },
  {
    "label": "005",
    "attribute": "0x0000000000000000",
    "locale": {
      "CNzh": "偶尔改换心情，\n挑战穿一下\n也不错吧……？。",
      "EUde": "!\nIst wohl mal so langsam an der Zeit\nfür etwas Neues. Soll ich es wagen,\n(Floskel)?",
      "EUen": "Kinda like the looks of \n here.\nReckon it could be time for a change.\nShould I go for it, (catchphrase)?",
      "EUes": "¡!\nSupongo que es hora de cambiar...\n¿Me  pongo, (catchphrase)?",
      "EUfr": " !\nÇa me changera un peu de ce que j'ai\nl'habitude de porter. Est-ce que je\nfranchis le pas, (expression) ?",
      "EUit": "!\nNon sarebbe male provare a\ncambiare un po' look.\nChe faccio?  prendo?",
      "EUnl": "!\nMisschien is het ook wel tijd voor iets anders. Wat zeg jij, (catchphrase)?",
      "EUru": "!\nМожет, надеть-таки что-нибудь\nновое... Рискнуть? (catchphrase)?",
      "JPja": "たまには　気分を変えて、\nに\n挑戦してみるのも　アリか・・・？　",
      "KRko": "가끔은 기분을 전환해서\n에\n도전해보는 것도 좋지 않겠냐...? ",
      "TWzh": "偶爾換個心情，\n挑戰穿穿\n也還不錯……？。",
      "USen": "Kinda like the looks of \n here.\nReckon it could be time for a change.\nShould I go for it, (catchphrase)?",
      "USes": "¡!\nSupongo que es hora de cambiar...\n¿Me  pongo, (catchphrase)?",
      "USfr": "!\nÇa me changera un peu de ce que j'ai\nl'habitude de porter. Est-ce que je\nfranchis le pas, (expression)?"
    }
  },
  {
    "label": "006",
    "attribute": "0x0000000000000000",
    "locale": {
      "CNzh": "啊……\n像这种勒着肚子的服装，\n我很不爱穿的。。",
      "EUde": "...\nIch bin mir ja nicht sicher, ob mir so\nwas bequem genug ist, (Floskel).",
      "EUen": "Dunno how comfy I'd be\nwearin' somethin' like \n...\nI'm really more of a fresh-air fella, so\ncrammin' my lower half into anythin'\nseems constrictin', (catchphrase).",
      "EUes": "...\nNo sé si será muy cómodo llevar\nalgo así, (catchphrase).",
      "EUfr": "...\nC'est pas exagérément confortable,\nj'ai l'impression, (expression)...",
      "EUit": "...\nA me non pare molto ,\n(catchphrase). A te?",
      "EUnl": "...\nIk weet niet of ik me daar zo prettig\nin zou voelen, (catchphrase).",
      "EUru": "...\nНе-е-е, такие выкрутасы уже\nне для меня. (catchphrase)!",
      "JPja": "ねぇ・・・\n腹が　しめつけられる服ってのは\nオレぁ　どうも苦手なんだ、",
      "KRko": " 말이군...\n배를 조이는 옷은\n내가 좀 안 좋아하거든, ",
      "TWzh": "啊……\n這種要把肚子勒得緊緊的衣服\n我還真穿不慣啊，。",
      "USen": "Dunno how comfy I'd be\nwearin' somethin' like \n...\nI'm really more of a fresh-air fella, so\ncrammin' my lower half into anythin'\nseems constrictin', (catchphrase).",
      "USes": "...\nNo sé si será muy cómodo llevar\nalgo así, (catchphrase).",
      "USfr": "...\nC'est pas exagérément confortable,\nj'ai l'impression, (expression)..."
    }
  },
  {
    "label": "007",
    "attribute": "0x0000000000000000",
    "locale": {
      "CNzh": "啊……\n要是穿了它，腿上凉飕飕的，\n很让人静不下心啊。。",
      "EUde": "?\nDas ist nicht so ganz mein Stil,\n(Floskel).",
      "EUen": "?\nAin't really my style, (catchphrase).",
      "EUes": "¿?\n¿Te parece que es de mi estilo, (catchphrase)?",
      "EUfr": " ?\nC'est pas mon style, (expression).",
      "EUit": "? Non è proprio nel mio stile, (catchphrase).",
      "EUnl": "?\nNiks voor mij, (catchphrase).",
      "EUru": "?\nНе, не мой стиль. (catchphrase)!",
      "JPja": "ねぇ・・・\nこういうの　はいたら　脚がスースーして\n落ち着かねぇんだろうな、",
      "KRko": " 말이지...\n이런 걸 입었다간 다리에 바람이 숭숭\n들어와서 기분이 이상할 것 같아, ",
      "TWzh": "啊……\n要是穿上這種衣服，腿會不會涼颼颼的，\n讓人坐立難安啊？。",
      "USen": "?\nAin't really my style, (catchphrase).",
      "USes": "¿?\n¿Te parece que es mi estilo, (catchphrase)?",
      "USfr": "?\nC'est pas mon style, (expression)."
    }
  },
  {
    "label": "008",
    "attribute": "0x0000000000000000",
    "locale": {
      "CNzh": "啊……\n真想成为能把它\n穿好看的男人啊～。",
      "EUde": "Hm, (Floskel)... Ob mir \nwohl stehen würde, so \n?",
      "EUen": "I wonder, (catchphrase)... Am I really\nthe type that could pull off wearin'\n?",
      "EUes": "¿De verdad soy el tipo de jubilado\nal que le puede quedar bien\n?",
      "EUfr": "Hmm... Est-ce qu'\ndans mon genre porterait  ?",
      "EUit": "Non saprei, (catchphrase)... ? Non mi ci vedo molto. Né poco. AHAHAH!",
      "EUnl": "Ik weet het niet, (catchphrase)...\n  mij wel staan?",
      "EUru": "Хм! (catchphrase)... Если я надену\n, мне\nпойдет?",
      "JPja": "ねぇ・・・\nこういう服を　着こなせる男に\nなりてぇもんだな～、",
      "KRko": " 말이군...\n이런 옷을 소화할 수 있는 남자가\n될 수 있었으면 좋겠네～ ",
      "TWzh": "啊……\n真想成為一個\n能駕馭這種衣服的男人啊～。",
      "USen": "I wonder, (catchphrase)... Am I really\nthe type that could pull off wearin'\n?",
      "USes": "¿De verdad soy el tipo de jubilado\nal que le puede quedar bien\n?",
      "USfr": "Hmm... Est-ce qu'\ndans mon genre porterait ?"
    }
  },
  {
    "label": "009",
    "attribute": "0x0000000000000000",
    "locale": {
      "CNzh": "……\n这种可爱的东西，\n实在不觉得会衬我啊。。",
      "EUde": "Danke nein, (Floskel). Ich bin\nschon süß genug, ich brauch\n ...",
      "EUen": "No thanks, (catchphrase). Ain't one\nfor wearin' cutesy stuff like \n...",
      "EUes": "La verdad es que no me veo\nllevando algo tan mono como\n...",
      "EUfr": " ?\nOuais, non. Je touche pas à ce genre\nde truc, .",
      "EUit": "? Ma ti sembro il tipo? No, grazie!",
      "EUnl": "Alsjeblieft niet, (catchphrase).\nSchattig spul, zoals  , is helemaal niets voor mij...",
      "EUru": "Э, ну нет, спасибо! (catchphrase)!\nЯ  ни\nза какие коврижки не надену...",
      "JPja": "・・・\nこんな　可愛らしいモン、オレには\n到底　似合う気がしねぇや、",
      "KRko": "...\n이렇게 귀여운 건\n나한테 절대 안 어울린다고, ",
      "TWzh": "……\n總覺得這麼可愛的東西\n實在不適合我啊，。",
      "USen": "No thanks, (catchphrase). Ain't one\nfor wearin' cutesy stuff like \n...",
      "USes": "La verdad es que no me veo\nllevando algo tan cursi como\n...",
      "USfr": "?\nOuais, non. Je touche pas à ce genre\nde truc, ."
    }
  },
  {
    "label": "010",
    "attribute": "0x0000000000000000",
    "locale": {
      "CNzh": "啊……\n这一件的话，就算是不擅长穿搭的我，\n应该也能把它穿好吧。。",
      "EUde": "Das gibt's ja nicht, (Floskel)...\nSogar ein Trampel wie ich muss mit\n  einfach stilvoll aussehen!",
      "EUen": "Just look at that, (catchphrase)...\nEven an awkward galoot like me\nmight look classy wearin' \n!",
      "EUes": "¡Hasta un vejete sin estilo como\nyo puede verse elegante con\n!",
      "EUfr": "Tu vois ça, gamin ? ,  !\nJe parie que même  de mon âge peut avoir la classe en portant ça !",
      "EUit": "! Che storia, (catchphrase)!\nScommetto che mi darebbe\nun'aria da intellettualone!",
      "EUnl": "Moet je dat zien, (catchphrase)...\nZelfs een klungel als ik ziet er\nmisschien wel aardig uit in \n!",
      "EUru": "Ух, ну надо же! (catchphrase)...\nМожет, даже старый тапок вроде\nменя преобразится, если на нем\n?",
      "JPja": "か・・・\nこれなら　不器用なオレでも\nうまく　着られそうだな、",
      "KRko": "인가...\n이거라면 제아무리 나라도\n잘 소화할 수 있을 것 같군, ",
      "TWzh": "嗎……\n如果是它，感覺就算是笨拙的我\n也能穿得很好看啊，。",
      "USen": "Just look at that, (catchphrase)...\nEven an awkward galoot like me\nmight look classy wearin' \n!",
      "USes": "¡Hasta un anciano sin estilo como\nyo puede verse elegante con\n!",
      "USfr": "Tu vois ça, le jeune? , !\nJe parie que même  de mon âge peut avoir de la classe en portant ça!"
    }
  },
  {
    "label": "011",
    "attribute": "0x0000000000000000",
    "locale": {
      "CNzh": "啊……\n往头上一套就能穿好，\n真是方便啊。。",
      "EUde": "...\nScheint leicht anzuziehen, wenn erst\nmal der Kopf durch ist, (Floskel).",
      "EUen": "Seems easy enough to put on\n.\nWonder how that'd look on my\ngoofy noggin, (catchphrase)...",
      "EUes": "...\nParece ... Espero que no me\nsiente como un saco de patatas, (catchphrase).",
      "EUfr": "...\nÇa a l'air facile à mettre. C'est tout\nce qui m'importe, (expression).",
      "EUit": "!\nSembra ... E facile da\nindossare, (catchphrase).",
      "EUnl": "...\n makkelijk om aan te doen.\nOver je hoofd trekken en klaar,\n(catchphrase).",
      "EUru": "...\nПоди, надевать легко. Напялил через голову, и все. (catchphrase)!",
      "JPja": "か・・・\n頭から　すっぽりと　かぶっちまうだけで\n着られるなんざ　楽でいいねぇ、",
      "KRko": "인가...\n머리부터 쏙 뒤집어쓰면 끝이니\n참 편하고 좋겠네, ",
      "TWzh": "嗎……\n只要從頭套下去就能穿了，\n挺省事的，不錯耶，。",
      "USen": "Seems easy enough to put on\n.\nWonder how that'd look on my\ngoofy noggin, (catchphrase)...",
      "USes": "...\nParece ... Espero que no me\nquede como un saco de papas, (catchphrase).",
      "USfr": "...\nÇa a l'air facile à mettre. C'est tout\nce qui m'importe, (expression)."
    }
  },
  {
    "label": "012",
    "attribute": "0x0000000000000000",
    "locale": {
      "CNzh": "啊……\n设计是很完美，\n但问题在于脑袋合不合尺寸……。",
      "EUde": "Muss schon sagen... Gefällt mir,\n ...\nIst nicht leicht, was zu finden,\ndas auf meine Riesenrübe passt,\n(Floskel).",
      "EUen": "I really like the look of \n...\nIt's hard to find stuff that fits on\nmy great big melon, (catchphrase).",
      "EUes": " es realmente ...\nEs difícil encontrar algo que cubra\nbien mi cabezón, (catchphrase).",
      "EUfr": "Ça c'est  qui a bien belle allure...\nEt crois-moi, c'est pas quelque chose\nque je dis tous les jours, (expression).",
      "EUit": "Mi piace un sacco  ...\nOltretutto è così difficile trovare\nun copricapo abbastanza grande\nper il mio testone. AHAHAH!",
      "EUnl": "De stijl van   vind ik wel wat...\nHet is niet makkelijk om iets te\nvinden dat op die grote bol van mij\npast, (catchphrase).",
      "EUru": "Чего только сейчас не делают!\n...\nНа мою репу и не налезет,\nнаверное... (catchphrase)!",
      "JPja": "ねぇ・・・\nデザインは　バッチリだが、\n問題は　頭が入るかどうかだ・・・、",
      "KRko": " 말이군...\n디자인은 딱 좋지만 문제는\n머리가 들어가느냐 마느냐야... ",
      "TWzh": "啊……\n它的設計是很完美啦，\n但問題是我的頭套不套得進去……。",
      "USen": "I really like the look of \n...\nIt's hard to find stuff that fits on\nmy great big melon, (catchphrase).",
      "USes": "Est  es realmente ...\nEs difícil encontrar algo que cubra\nbien mi cabezota, (catchphrase).",
      "USfr": "Ça c'est  qui a bien belle allure...\nEt crois-moi, c'est pas quelque chose\nque je dis tous les jours, (expression)."
    }
  },
  {
    "label": "013",
    "attribute": "0x0000000000000000",
    "locale": {
      "CNzh": "……\n这种设计的话，\n也会比较适合我吧……？。",
      "EUde": "...\nWeiß nicht, ob mir der Stil zusagt,\n(Floskel).",
      "EUen": "Not sure what to make of the style of\n...\nBut maybe I ain't the one intended to\nwear this sorta thing, (catchphrase).",
      "EUes": "...\nNo sé si el estilo me termina de\nconvencer, (catchphrase).",
      "EUfr": "...\nFranchement, je sais pas trop si ça\nm'irait, (expression)...",
      "EUit": "...\nNo, dai. Meglio lasciar perdere,\n(catchphrase).",
      "EUnl": "...\nDie stijl... Ik twijfel, (catchphrase).",
      "EUru": "...\nЧто-то не уверен я насчет\nэтого стиля... (catchphrase).",
      "JPja": "・・・\nこういうデザインなら、\nオレにも　似合うか・・・？　",
      "KRko": "...\n이런 디자인이라면\n나한테도 어울릴까...? ",
      "TWzh": "……\n如果是這種設計，\n我戴起來也合適嗎……？。",
      "USen": "Not sure what to make of the style of\n...\nBut maybe I ain't the one intended to\nwear this sorta thing, (catchphrase).",
      "USes": "...\nNo sé si el estilo me acaba\nde convencer, (catchphrase).",
      "USfr": "...\nFranchement, je sais pas trop si ça\nm'irait, (expression)..."
    }
  },
  {
    "label": "014",
    "attribute": "0x0000000000000000",
    "locale": {
      "CNzh": "？\n现在的年轻人之间\n很流行这种吗？。",
      "EUde": "?\nTrägt man das heute als Jungspund\nvon Welt, (Floskel)?",
      "EUen": "So how'm I supposed to react to\n?\nIs this the kinda thing that kiddos\nwear nowadays, (catchphrase)?",
      "EUes": "¿?\n¿Esto es lo que lleváis los jóvenes\nhoy en día, (catchphrase)?",
      "EUfr": " ?\nC'est ça, la nouvelle mode chez les\njeunes, (expression) ?",
      "EUit": "?\nSbaglio o va molto di moda al\ngiorno d'oggi?",
      "EUnl": "?\nDraagt de jeugd van tegenwoordig\ndit soort dingen, (catchphrase)?",
      "EUru": "?\nТак вот, значит, что молодежь\nтеперь носит... (catchphrase)...",
      "JPja": "？\n今時の若いモンには　こういうのが\n流行ってるのか？　",
      "KRko": "?\n요즘 어린 녀석들한테는\n이런 게 유행인가 보지? ",
      "TWzh": "？\n難道現在的年輕人\n都流行戴這種東西嗎？。",
      "USen": "So how'm I supposed to react to\n?\nIs this the kinda thing that kiddos\nwear nowadays, (catchphrase)?",
      "USes": "¿?\n¿Esto es lo que llevan los jóvenes\nhoy en día, (catchphrase)?",
      "USfr": "?\nC'est ça, la nouvelle mode chez les\njeunes, (expression)?"
    }
  },
  {
    "label": "015",
    "attribute": "0x0000000000000000",
    "locale": {
      "CNzh": "戴上这，\n我是不是也能成为\n知识分子啊……。",
      "EUde": ".\nWürde ich damit vielleicht intellenter\naussehen, (Floskel)? Bwa ha ha!",
      "EUen": "No one around here ever takes\nme seriously, (catchphrase)...\nMaybe I'd get listened to if I put on\n.",
      "EUes": "...\n¿Quedaré muy ridículo si me pongo\nesto, (catchphrase)?",
      "EUfr": ".\nTu penses que j'aurais quel air si je\nportais ça, (expression) ?",
      "EUit": ".\nNon rovinerà il mio look da duro,\n(catchphrase)?",
      "EUnl": ".\nZie ik er daarmee uit als een echte\nbolleboos, (catchphrase)?",
      "EUru": "Хм, .\nИнтересно, если я надену, меня\nвсе сразу умным считать будут?\n(catchphrase)...",
      "JPja": "を　かけたら\nオレも　インテリ男子に\nなれるのかねぇ・・・、",
      "KRko": "을 쓰면\n나도 지적인 남자로\n보일 수 있을까... ",
      "TWzh": "只要戴上，\n我是不是也能變成\n知性男子啊……。",
      "USen": "No one around here ever takes\nme seriously, (catchphrase)...\nMaybe I'd get listened to if I put on\n.",
      "USes": "...\n¿Quedaré muy ridículo si me pongo\nesto, (catchphrase)?",
      "USfr": ".\nTu penses que j'aurais quel air si je\nportais ça, (expression)?"
    }
  },
  {
    "label": "016",
    "attribute": "0x0000000000000000",
    "locale": {
      "CNzh": "这，\n我完全不知道应该拿来\n和什么衣服搭配啊。。",
      "EUde": ".\nKeine Ahnung, was dazu passen\nsoll, (Floskel).",
      "EUen": "I feel kinda lost in here. I mean,\nI'm hopeless when it comes to\nfashion stuff, (catchphrase).\nWhaddaya even wear with \n?",
      "EUes": ".\nNo sé con qué podría combinar\nesto, (catchphrase).",
      "EUfr": ". Je vois pas du tout ce que je pourrais porter avec ça, (expression).",
      "EUit": ". Decisamente troppo appariscente per i miei gusti, (catchphrase).",
      "EUnl": ".\nIk zou echt niet weten waar ik \nbij kan dragen, (catchphrase).",
      "EUru": ".\nЭто с чем такое надевать-то\nвообще? (catchphrase)!",
      "JPja": "この　、\nどんな服と　組み合わせりゃいいのか\nオレには　サッパリわかんねぇや、",
      "KRko": "이 ,\n어떤 옷이랑 매치하는 게 좋을지\n나는 도저히 감이 안 와, ",
      "TWzh": "這個\n要搭配什麼樣的衣服才好？\n我完全沒有概念啊，。",
      "USen": "I feel kinda lost in here. I mean,\nI'm hopeless when it comes to\nfashion stuff, (catchphrase).\nWhaddaya even wear with \n?",
      "USes": ".\nNo sé con qué podría combinar\nesto, (catchphrase).",
      "USfr": ". Je vois pas du tout ce que je pourrais porter avec ça, (expression)."
    }
  },
  {
    "label": "018",
    "attribute": "0x0000000000000000",
    "locale": {
      "CNzh": "虽然我从来不穿鞋子，\n不过看到，\n我倒是有些想买下了。。",
      "EUde": "Tja, fast schade, dass ich mich aus\nmoralischen Gründen weigere, so\netwas an meine Füße zu lassen...\nDenn ich muss zugeben,  \n ist schon fesch, (Floskel).",
      "EUen": "Too bad I got a no-shoes policy.\nThese \nare neat, (catchphrase).",
      "EUes": "Lástima que mi política de calzado\nsea tan restrictiva...\nPorque, aunque no es de mi estilo,\n  es una maravilla, (catchphrase).",
      "EUfr": " me donnerait presque envie de me remettre aux chaussures...",
      "EUit": "  sta facendo vacillare le mie convinzioni in fatto di scarpe...\nO, per la precisione, della loro\ntotale inutilità! AHAHAH!",
      "EUnl": "Jammer dat ik geen schoenen draag.\n  zijn niet slecht, (catchphrase).",
      "EUru": "Жаль, что я зарекся обувь носить.\nА то эти \nочень даже ничего... (catchphrase)!",
      "JPja": "くつは　はかねぇ主義だが、\nを見てると、\nちょっと　買いたくなっちまうな、",
      "KRko": "신발은 신지 않는 주의인데\n을 보면\n살짝 사고 싶어진다니까, ",
      "TWzh": "雖然我平常都打赤腳，\n但看到，\n都讓我有點想買啦，。",
      "USen": "Too bad I got a no-shoes policy.\nThese \nare neat, (catchphrase).",
      "USes": "Lástima que mi política de zapatos\nsea tan restrictiva...\nporque aunque no es de mi estilo,\n  es una maravilla, (catchphrase).",
      "USfr": " me donnerait presque envie de me remettre aux souliers..."
    }
  },
  {
    "label": "020",
    "attribute": "0x0000000000000000",
    "locale": {
      "CNzh": "！\n嘿嘿……我就戴上它\n来吓大家一跳吧。。",
      "EUde": "Ich wette, niemand würde es\nkommen sehen, wenn ich so \n trage...",
      "EUen": "Bet no one'd expect me to wear\n...",
      "EUes": "Creo que nadie esperaría verme con\n...",
      "EUfr": "Je parie que personne s'attendrait\nà me voir porter ...",
      "EUit": "Ti immagini che facce farebbero tutti se iniziassi a portare ...",
      "EUnl": "Wat zou iedereen staan te kijken als\nik   zou dragen...",
      "EUru": "А вот просто взять и надеть\n...\nТо-то все удивятся!",
      "JPja": "！\nへへっ・・・　コイツを使って\nみんなを　驚かしてやろうかな、",
      "KRko": "!\n헤헷... 이걸 써서\n모두를 놀라게 해볼까, ",
      "TWzh": "！\n嘿嘿……我就用這東西\n來嚇嚇大家好了？。",
      "USen": "Bet no one'd expect me to wear\n...",
      "USes": "Creo que nadie esperaría verme con\n...",
      "USfr": "Je parie que personne s'attendrait\nà me voir porter ..."
    }
  },
  {
    "label": "051",
    "attribute": "0x0000000000000000",
    "locale": {
      "CNzh": "我说，(nickname)，\n这是你设计的吧？\n你的品位很不错嘛。。",
      "EUde": "Ist das Design wirklich von dir,\n(Spitzname)?\nSieht gar nicht schlecht aus... Ich bin\nrichtig beeindruckt, (Floskel)!",
      "EUen": "Am I really lookin' at one of your\ndesigns here, (nickname)?\n'Cause I gotta say, I'm pretty darn\nimpressed, (catchphrase)!",
      "EUes": "¿Esto es uno de tus diseños,\n(nickname)?\nPorque debo decir que... ¡me ha\ndejado impresionado, (catchphrase)!",
      "EUfr": "C'est vraiment toi qui as créé ça, gamin ? Je suis impressionné, (expression) !",
      "EUit": "Sbaglio o questa è una delle\ntue creazioni, (nickname)?\nSai, ad essere sincero devo dire\nche... è davvero sorprendente,\n!",
      "EUnl": "Zie ik hier nou een ontwerp van jou,\n(nickname)?\nEerlijk gezegd ben ik er best van\nonder de indruk, (catchphrase)!",
      "EUru": "Неужели передо мной творение\nтвоих рук, (nickname)?\nДолжен признать, что я в полном\nвосторге! (catchphrase)!",
      "JPja": "なぁ、(nickname)\nこれ　オメェがデザインしたんだろ？\nいいセンス　してるじゃねぇか、",
      "KRko": "저기, (nickname)\n이거, 니가 디자인한 거지?\n꽤 센스 있는데? ",
      "TWzh": "喂，(nickname)，\n這是你設計的對吧？\n你品味不錯嘛，。",
      "USen": "Am I really lookin' at one of your\ndesigns here, (nickname)?\n'Cause I gotta say, I'm pretty darn\nimpressed, (catchphrase)!",
      "USes": "¿Esto es uno de tus diseños,\n(nickname)?\nPorque debo decir que... ¡me ha\ndejado impresionado, (catchphrase)!",
      "USfr": "C'est vraiment toi qui as créé ça, le jeune? Je suis impressionné, (expression)!"
    }
  },
  {
    "label": "052",
    "attribute": "0x0000000000000000",
    "locale": {
      "CNzh": "听说这是的\n原创设计！\n真是令人吃惊啊。。",
      "EUde": "Das soll ein Original-Design von\n sein...\nMacht schon was her, (Floskel).",
      "EUen": "Heard this is an original design\nthat  did...\nAin't it somethin', (catchphrase)?",
      "EUes": "Me han dicho que esto es un diseño\noriginal de ...\nNo está nada mal, ¿verdad, (catchphrase)?",
      "EUfr": "Paraît que c'est une création de ...  se débrouille bien, (expression) !",
      "EUit": "Se non sbaglio, questa è\nuna creazione originale\ndi ...\nNiente male, eh, ?",
      "EUnl": "Ik hoorde dat dit een origineel\nontwerp is van ...\nHet is me wat, (catchphrase)!",
      "EUru": "Поговаривают, что эту вещь сам\n смоделировал...\nНадо отдать ему должное: вышло\nвесьма недурно! (catchphrase)!",
      "JPja": "これ、の\nオリジナルデザインらしいぜ！\nたまげたもんだよなぁ、",
      "KRko": "이거, 의\n오리지널 디자인인 모양이야!\n대단하다니까 정말, ",
      "TWzh": "這好像是\n自己的原創設計咧！\n真是讓人驚呆啦，。",
      "USen": "Heard this is an original design\nthat  did...\nAin't it somethin', (catchphrase)?",
      "USes": "Me dijeron que esto es un diseño\noriginal de ...\nNo está nada mal, ¿verdad, (catchphrase)?",
      "USfr": "Paraît que c'est une création de ⁠...  se débrouille bien, (expression)!"
    }
  },
  {
    "label": "053",
    "attribute": "0x0000000000000000",
    "locale": {
      "CNzh": "听说这设计，是的\n想出来的。\n能构思出这样的东西可真厉害啊。。",
      "EUde": "Dieses Design ist von .\nVon , (Floskel)!",
      "EUen": "This design's by .\nSo it came here all the way from\n, (catchphrase)!",
      "EUes": "Esto es un diseño típico de .\nLo cual significa que es un artículo\nimportado de .\n¡(catchphrase)!",
      "EUfr": "Ça, c'est une création\nde .\nOn sent bien l'esprit de , (expression) !",
      "EUit": "Questa è una creazione di\n.\nHai capito bene, viene direttamente\nda , (catchphrase)!",
      "EUnl": "Dit is een ontwerp van .\nDus het komt helemaal van , (catchphrase)!",
      "EUru": "К этому наряду сам  свои руки приложил.\nИмпортная, так сказать, вещица\nс острова ! (catchphrase)!",
      "JPja": "このデザイン、の\nが　考えたらしいぜ\nこんなの思いつくなんて　すげぇよな、",
      "KRko": "이 디자인, 의\n이 고안했다고 해\n이런 걸 생각하다니 정말 대단해, ",
      "TWzh": "這個設計好像是的\n想出來的咧！\n竟然想得出這種設計，真厲害啊，。",
      "USen": "This design's by .\nSo it came here all the way from\n, (catchphrase)!",
      "USes": "Esto es un diseño típico de .\nLo cual significa que es un artículo\nimportado de .\n¡(catchphrase)!",
      "USfr": "Ça, c'est une création\nde ⁠.\nOn sent bien l'esprit de ⁠, (expression)!"
    }
  }
]