﻿[
  {
    "label": "001",
    "attribute": "0x0000000000000000",
    "locale": {
      "CNzh": "(nickname)？！\n我们已经差不多年没见了吧……\n关于你的传闻可是满天飞哦？\n听说你在其他上\n和地痞流氓大打了一架是吗？\n看不出来，\n你还挺有血性的嘛，\n我都有点对你刮目相看啦。\n不过啊，胡闹也要适可而止哦？\n如果你不在的话，\n我实在是提不起劲啊。。",
      "EUde": "Hast du sie also wahrhaftig abgehängt, (Spitzname)? Hat ja nur   gedauert...\nJa, hier auf der Insel heißt es, dass\ndu Ärger mit dubiosen Gestalten\nhattest und auf der Flucht warst.\nDu hast Mumm, Jungspund, aber\nsolche Sorgen kann ich nicht noch\nmal gebrauchen. Sei brav, ja?",
      "EUen": "So you gave 'em the slip, eh\n(nickname)? It's gotta be\ngoin' on about   now...\nRumor was you got into it with some\nruffian off-islander, and you been on\nthe lam ever since.\nYou got guts, kiddo, but don't bring\nnone of that roughhousing 'round\nhere, alright? Now, go be good.",
      "EUes": "¡Pero bueno! ¡Tanto tiempo,\n(nickname)! ¿Cuánto hace\nque no nos vemos? ¿ ?\nDecían que te fuiste con malas\ncompañías, gente que está todo\nel día en las redes sociales...\nIncluso se rumoreaba que había una\norden de busca y captura sobre ti.\nBueno, a mí no me importa, pero\npor favor no traigas a tus secuaces\npor aquí. Anda, regenérate.",
      "EUfr": "Tiens, te revoilà, (surnom).\nÇa fait quoi...?   qu'on t'a\nplus revu ?\nIl paraît que t'étais en cavale après\nt'être associé à des malfrats et\ncommis un casse sur une autre île.\nT'as du cran de te repointer ici si\nc'est vrai. Et j'espère pour toi que\ntu as décidé de te ranger.",
      "EUit": "Ah, ti sei dato alla macchia eh, (nickname)? Non ci si vede\nda almeno  , ormai...\nGirava voce che fossi sparito\na gozzovigliare con gentaglia\ndi altre isole, .\nDevo ammettere che hai del fegato,\nma non ti azzardare a portare a casa\nmia tipacci del genere, intesi?\nComunque, vedi di rigare dritto ora.\nE se ti serve un righello, chiedi pure\na me. AHAHAH!",
      "EUnl": "Dus je hebt ze weten af te schudden, (nickname)? Eindelijk, na  jaar... \nHet gerucht ging dat je het aan de\nstok had gekregen met een louche\nniet-eilander en op de vlucht was.\nJe hebt wel lef, jochie, maar op\nzulke schimmige praktijken zitten we\nhier niet te wachten. Dus, gedraag je.",
      "EUru": "Что, (nickname), смылся от\nнас?   тебя не было...\nХодили слухи, что ты связался\nсо шпаной с соседнего острова\nи сбежал с ними неизвестно куда.\nЛично я в это не верю. Ты хоть\nи сорвиголова, но с головой у тебя\nвсе в порядке. Рад тебя видеть!",
      "JPja": "(nickname)？！\n顔を合わせるのは　年振りか・・・\nいろいろウワサは　きいてるぜ？\n別のの　あらくれ者と\nやり合ってたらしいじゃねぇか\nオメェ、見かけによらず\n血の気の多いヤツなんだな\nちょっと　見る目が変わったぜ\nでもよ　ヤンチャするのも　ほどほどにな？\nオメェがいねぇと\nこちとら、調子が　でねぇんだよ、",
      "KRko": "(nickname)?!\n마지막으로 본 게 년 전인가...\n소문은 들었어\n다른  불량배들이랑\n한판 거하게 붙었다며?\n보기랑 다르게\n혈기 왕성한 녀석이구나\n살짝 보는 눈이 달라졌어\n그래도 말썽은 적당히 부려야 된다?\n니가 없어서\n뭘 할 의욕이 안 났다고, ",
      "TWzh": "(nickname)！？\n我們年沒見啦……\n我聽到很多傳聞喔？\n你是不是\n跟別座島的流氓吵架啊？\n看不出來你這麼有種，還真厲害啊。\n我有點對你刮目相看了。\n不過，\n你也別鬧得太誇張喔？\n要是你不在，感覺挺沒勁的啊，。",
      "USen": "So you gave 'em the slip, eh\n(nickname)? It's gotta be\ngoin' on about   now...\nRumor was you got into it with some\nruffian off-islander, and you been on\nthe lam ever since.\nYou got guts, kiddo, but don't bring\nnone of that roughhousing 'round\nhere, alright? Now, go be good.",
      "USes": "¡Pero bueno! ¡Tanto tiempo,\n(nickname)! ¿Cuánto hace\nque no nos vemos? ¿ ?\nSegún las malas lenguas andabas\ncon malas compañías, y te estabas\nescondiendo...\nBueno, a mí no me importa, pero\npor favor no traigas a tus secuaces\npor aquí. Anda, endereza el camino.",
      "USfr": "Tiens, te revoilà, (surnom).\nÇa fait quoi...?   qu'on t'a\nplus revu?\nIl paraît que t'étais en cavale après\nt'être associé à des malfrats et\ncommis un vol sur une autre île.\nT'as du cran de te repointer ici si\nc'est vrai. Et j'espère pour toi que\ntu as décidé de te ranger."
    }
  },
  {
    "label": "002",
    "attribute": "0x0000000000000000",
    "locale": {
      "CNzh": "咦？！\n…………真的假的？\n你不会是(nickname)吧？！\n混球——！让我这么担心！！\n你这年个月\n到底都跑到哪里去闲逛了啊？！\n………………\n我还以为你已经……\n不，没什么。\n突然朝你大喊大叫，真是抱歉啦。\n欢迎回家，(nickname)！\n看到你回来了真是令人高兴啊，\n让我们今后也好好相处吧！。",
      "EUde": "Oh, sieh an! (Spitzname)!\nHaben wir uns ungelogen  \nund   nicht gesehen?\nHab schon gedacht, ich hätt mir dich\nnur eingebildet... Äh... Aber du bist\nes schon leibhaftig, oder?\nNa ja, so oder so ist's ganz nett,\ndich wieder mal zu sehen,\n(Floskel)!",
      "EUen": "Lookie here! It's (nickname).\nI ain't seen you in, what... \nand  ? Whew!\nYou know, I was beginnin' to think\nyou were just a figment of my addled\nimagination! Um... You ain't, right?\nWell, real or not, it's good to have\nyou back. Take care, now!",
      "EUes": "¡No me lo puedo creer! ¡Tanto\ntiempo ausente, (nickname)!\nNo nos hemos visto en...\n¿  y  ?\n¡Una eternidad!\nHabía empezado a pensar que eras\nun recuerdo ficticio en mi mente,\nque realmente no existías...\nPero existes, ¿no?\nBueno, seas real o un producto\nde mi imaginación, ¡me alegra\nmucho volver a verte!",
      "EUfr": "Ça alors ! Ça serait pas (surnom) ?! Ça fait quoi...   et  mois au moins !\nJe commençais à me dire que tu\nétais le fruit de mon imagination !\nC'est... C'est faux, pas vrai ?\nEn tout cas, ça me fait plaisir de te\nrevoir, depuis tout ce temps. Même\nsi tu n'existes que dans ma tête !",
      "EUit": "Ma guarda un po' chi si rivede: (nickname)! Non ci vediamo da quanto...   e  ?\nIniziavo quasi a pensare che fossi\nsolo frutto della mia immaginazione.\nUhm, ma non lo sei, vero?\nBeh, che tu sia reale o no, è bello\nrivederti, cara la mia visione.\nAHAHAH!",
      "EUnl": "Nee maar! Het is (nickname). Jou heb ik al in geen, wat...  jaar en   gezien? Zo, zo!\nIk begon al bijna te denken dat je\neen van mijn verwrongen hersen-\nspinsels was! Eh... nee toch, hè?\nNou, of je nou bestaat of niet, goed\ndat je terug bent. Tot kijk!",
      "EUru": "Смотрите-ка! Какие люди,\n(nickname)! Не видел тебя\nуже   и  ! Тьфу ты!\nЯ уж начал думать, что тебя и нет\nвовсе, а так — померещилось!\nЭ... Ведь не померещилось?\nВ общем, настоящий ты или нет,\nрад тебя снова видеть, козявка!",
      "JPja": "えっ？！\n・・・・・・ウソだろ？\nオメェ　(nickname)なのか？！\nバカヤロー！　心配かけやがって！！\n年か月も\nどこ　ほっつき歩いてたんだ？！\n・・・・・・・・・\nオレぁ　てっきり　オメェはもう・・・\nいや、なんでもねぇ\nいきなり　怒鳴って　悪かったな\nおかえり、(nickname)！\nオメェが　戻ってきてくれて　嬉しいぜ\nまた　楽しくやろうな！　",
      "KRko": "헉?!\n......말도 안 돼\n너 (nickname) 맞냐?!\n멍청아! 걱정했잖냐!!\n년 개월 동안이나\n어딜 싸돌아다닌 거야?!\n.........\n난 철석같이 니가 이미...\n아니, 아무것도 아니야\n갑자기 소리 질러서 미안하다\n어서 와, (nickname)!\n니가 돌아와줘서 정말 기쁘다\n다시 즐겁게 지내자고! !",
      "TWzh": "什麼！？\n…………不會吧？\n你是(nickname)嗎！？\n可惡──！害我這麼擔心你！！\n這年又個月來\n你跑去哪裡閒晃了！？\n……………………\n我還以為你已經……\n沒、沒事。\n抱歉突然對你大聲說話。\n歡迎回來，(nickname)！\n你能回來我很高興，\n以後再一起玩吧！。",
      "USen": "Lookie here! It's (nickname).\nI ain't seen you in, what... \nand  ? Whew!\nYou know, I was beginnin' to think\nyou were just a figment of my addled\nimagination! Um... You ain't, right?\nWell, real or not, it's good to have\nyou back. Take care, now!",
      "USes": "¡No lo puedo creer! ¡Tanto\ntiempo ausente, (nickname)!\nNo nos hemos visto en...\n¿  y  ?\n¡Una eternidad!\nHabía empezado a pensar que eras\nun recuerdo ficticio en mi mente,\nque realmente no existías...\nPero existes, ¿verdad?\nBueno, seas real o un producto\nde mi imaginación, ¡me alegra\nmucho volver a verte!",
      "USfr": "Ça alors! Ça serait pas (surnom)?! Ça fait quoi...   et  mois au moins!\nJe commençais à me dire que tu\nétais le fruit de mon imagination!\nC'est... C'est faux, pas vrai?\nEn tout cas, ça me fait plaisir de te\nrevoir, depuis tout ce temps. Même\nsi tu n'existes que dans ma tête!"
    }
  },
  {
    "label": "003",
    "attribute": "0x0000000000000000",
    "locale": {
      "CNzh": "",
      "EUde": "",
      "EUen": "",
      "EUes": "",
      "EUfr": "",
      "EUit": "",
      "EUnl": "",
      "EUru": "",
      "JPja": "",
      "KRko": "",
      "TWzh": "",
      "USen": "",
      "USes": "",
      "USfr": ""
    }
  },
  {
    "label": "003_01",
    "attribute": "0x0000000000000000",
    "locale": {
      "CNzh": "有、有鬼啊——！！\n噫！那时候的事情，\n我已经道过歉了不是吗！！\n现在变成鬼来找我，也太纠缠不清了吧？！\n……嗯？\n什么啊，原来你还活着吗？！\n已经一年多时间没见到你了，我还以为……\n算了，不管怎么说，很高兴能与你再会啊！\n……不过，变成鬼来吓唬我这种事，\n还请你千万不要做哦？。",
      "EUde": "Na toll. Jetzt seh ich schon Geister.\nWar wohl nur eine Frage der Zeit...\nHalt, Moment... Diese jugendliche\nAusstrahlung kenn ich doch...\nOh! Du bist's, (Spitzname)!\nDu warst so lange weg, ich hab dich\nwahrhaftig nicht erkannt! Gra ha ha!\nWillkommen zurück, (Floskel)!",
      "EUen": "Well, great. Now I'm seein' ghosts...\nSuppose it was only a matter\nof time, (catchphrase).\nHang on, now... Your youthful\nvigor seems awfully familiar...\nOh! (nickname)?!\nWell, ain't you a sight! You were\ngone so long, we didn't know what\nto think! Gahaha! Welcome back!",
      "EUes": "Nooo... Lo que me faltaba: ahora\nveo fantasmas. En fin, era cuestión\nde tiempo, (catchphrase).\nUn momento. ¿No estás demasiado\nsólido para ser un espectro?\nVamos, que no te veo transparente.\n¡Ah, pero si eres (nickname)!\n¡Bienvenido! Celebro que no vengas\ndel más allá, ¡ja, ja, ja!",
      "EUfr": "Super... Voilà que je me mets à voir\ndes fantômes, (expression)...\nAttends voir... T'as l'air drôlement\nsouriant pour un spectre...\nOh ! C'est toi, (surnom) !\nOù t'étais passé, gamin ?!\nJ'imagine que ça doit être une\nlongue histoire !",
      "EUit": "Alla grande, ora vedo anche i\nfantasmi. Beh, credo che fosse\nsolo una questione di tempo.\nMmmh, ma tu non mi sembri molto\netereo... e hai un'aria piuttosto\nfamiliare...\nMa tu sei (nickname)! Ah, bentornato! Eri via da così tanto che\nnon sapevamo che fine avessi fatto!\nAllora non sei un fantasma! Al limite\nun miraggio? AHAHAH!",
      "EUnl": "Ook dat nog. Nou zie ik ook nog\nspoken. Tja, daar kon je op\nwachten, (catchphrase).\nMaar wacht even... Die jeugdige\nvitaliteit komt me akelig bekend\nvoor... O! (nickname)!\nKrijg nou wat! Je was zo lang weg,\ndat we niet wisten wat we moesten\ndenken! Bwahaha! Welkom terug!",
      "EUru": "Начинается... На старости лет стал\nвидеть привидения... Чего-чего,\nа этого я уж никак не ожидал!\nПодожди-ка... (nickname),\nты, что ли?! Ну и дела...\nТы не привидение!\nТебя так давно не было. Мы уже не\nзнали, что думать! С возвращением\nна остров, козявка! Бу-га-га!",
      "JPja": "で、でたーーっ！！\nひいいーっ！　あの時のことなら\nもう謝っただろ！！\n今更　バケて出るなんて　しつけぇぞ？！\n・・・ん？\nなんだ、オメェ　生きてんの？！\n一年以上も　姿　現さねぇから　てっきり・・・\nま、なんにせよ　また　会えて嬉しいぜ\n・・・けど、バケて出るのは\nマジで　カンベンしてくれよ？　",
      "KRko": "으, 으악――!!\n히이익! 그때 그건 사과했잖아!!\n언제 적 일인데 이제 와서 귀신이 돼 갖고\n나타나다니 너무한 거 아니냐?!\n...응?\n뭐야, 너 살아 있었냐?!\n1년이 넘도록 나타나질 않길래 난 니가...\n뭐, 그런 건 됐고! 다시 만나서 기쁘다!\n...그래도 진짜 귀신이 돼서\n나타나진 마라? !",
      "TWzh": "出、出現了！！\n天啊！如果你是為那件事生氣，\n我不是道歉過了嗎！？\n現在才變成鬼來找我，你也太纏人了吧！？\n……嗯？\n什麼嘛，你還活著啊！？\n因為你都超過一年沒出現了，我還以為……\n算了，那不重要！能夠再見面，我很開心喔！\n……不過還是拜託你，\n以後千萬別變成鬼來找我啊？。",
      "USen": "Well, great. Now I'm seein' ghosts...\nSuppose it was only a matter\nof time, (catchphrase).\nHang on, now... Your youthful\nvigor seems awfully familiar...\nOh! (nickname)?!\nWell, ain't you a sight! You were\ngone so long, we didn't know what\nto think! Gahaha! Welcome back!",
      "USes": "Nooo... Lo que me faltaba: ahora\nveo fantasmas. En fin, era cuestión\nde tiempo, (catchphrase).\nUn momento...\n¿No estás demasiado sólido para\nser un espectro? Tampoco estás muy\ntransparente que digamos...\n¡Ah, pero si eres (nickname)!\n¡Bienvenido! Me alegra que no\nvengas del más allá, ¡ja, ja, ja!",
      "USfr": "Super... Voilà que je me mets à voir\ndes fantômes, (expression)...\nAttends voir... T'as l'air drôlement\nsouriant pour un spectre...\nOh! C'est toi, (surnom)!\nOù t'étais passé, le jeune?!\nJ'imagine que ça doit être une\nlongue histoire!"
    }
  },
  {
    "label": "003_02",
    "attribute": "0x0000000000000000",
    "locale": {
      "CNzh": "看着你就让我想起一个\n每天都一脸傻气的\n在这座上跑来跑去的人……\n我记得……\n那家伙好像叫做(nickname)。\n回过神来才发现已经好长时间不见其踪影了。\n话说，你跟那家伙还真有几分神似啊。\n那种行为举止、身材……\n还有穿搭的品位之类的。\n…………嗯？\n不对，仔细一看的话\n你不就是(nickname)吗？！\n真是的，吓我一大跳……\n原来你还过得好好的啊？！\n我一开始都没认出来呢。。",
      "EUde": "Weißt du, du erinnerst mich an so\neinen Jungspund, der hier ständig\nfür Wirbel gesorgt hat.\n(Spitzname) oder so...\nIst aber 'ne Weile her, dass ich\nden gesehen hab, (Floskel).\nSiehst ihm aber sehr ähnlich...\nDas ist schon fast unheimlich.\n...Du bist (Spitzname), oder?\nWie geht's dir, alte Wursthaut?\nHab dich glatt nicht erkannt!",
      "EUen": "You know, you remind me of a kiddo\nwho used to go 'round here stirrin'\nup all sorts of trouble.\nI think their name went something\nlike (nickname)... Ain't seen\n'em in quite a spell.\nYou really do look like 'em, though.\nIt's borderin' on uncanny...\n...You're (nickname), ain't\nyou? Well, how you been, you old\nboot? Really had me turned around!",
      "EUes": "¿Sabes qué? Me recuerdas a un\njoven que solía andar por aquí,\nsiempre muy activo.\n¿Cómo se llamaba? Algo así como\n(nickname)... No sé si lo\nestaré pronunciando bien.\nTe le pareces tanto que resulta\nalgo inquietante...\nPorque no serás (nickname),\n¿verdad? ¿Qué tal, qué ha sido\nde tu vida? ¡Qué bonita sorpresa!",
      "EUfr": "Tiens, tu ressembles à un gamin\nqui vivait ici fut un temps. Il a\ndisparu d'un coup, sale affaire...\nJe crois qu'il s'appelait quelque\nchose comme (surnom), si je ne fais pas erreur...\nC'est bizarre... Plus je t'observe,\nplus je trouve que la ressemblance\nest frappante...\nAttends, mais c'est bien toi !\nQu'est-ce qui t'est arrivé, gamin ?\nOn se faisait un sang d'encre !",
      "EUit": "Ma lo sai che mi ricordi moltissimo\nqualcuno che conoscevo? Un gran\ncombinaguai, te lo assicuro!\nMi pare che si chiamasse (nickname)... Eh già! Ed è da un bel pezzo che non lo vedo in giro.\nPerò tu gli assomigli molto...\nMa che dico, sei proprio tu!\nVero, (nickname)?\nCome te la passi, vecchio mio?",
      "EUnl": "Weet je, jij doet me denken aan een\nkereltje dat hier ooit voor aardig\nwat onrust zorgde.\nWas dat niet (nickname) of zo? Ah... Die heb ik al lang niet gezien, zeg.\nJe lijkt trouwens precies op hem.\nHet is bijna eng...\nJe bént (nickname)! Waar heb jij uitgehangen? Nou, daar was ik me toch even goed in de war, zeg!",
      "EUru": "Хм, ты напоминаешь мне одну\nкозявку, с которой вечно тут\nвсякие приключения случались...\nЗвали вроде (nickname)...\nДавненько этой козявки здесь\nне было.\nПоразительное сходство,\nжуть просто...\nА ты, случайно, не... Тьфу ты!\n(nickname), это же ты!\nСколько лет, сколько зим!",
      "JPja": "オメェを見てると　毎日　元気に\nこのを　かけ回ってたヤツのことを\n思い出すぜ・・・\n確か・・・ソイツの名前は、\n(nickname)\n気がつきゃ　もう長いこと　姿を見てねぇや\nていうか、オメェ　ホントよく似てるなぁ\nその　立ち居振る舞いや、\n背格好・・・服のシュミ、とかよ\n・・・・・・ん？\nつーか、よく見りゃ\n(nickname)じゃねぇか？！\nったく　ビックリしたぜぇ・・・\nオメェ　元気にしてたのかよ？！\n一瞬　気がつかなかったぜ、",
      "KRko": "널 보면 매일 멍청한 얼굴로\n이 을 쏘다니던 한 녀석이 떠올라...\n그러니까... 그 녀석 이름이\n아마 (nickname)이었지\n언제부터인가 모습을 보지 못했어\n너 진짜 그 녀석이랑 비슷하구나\n행동 하나하나부터\n체격도... 옷 센스까지...\n......응?\n뭐야, 다시 보니까\n(nickname) 맞잖아?!\n나 참, 깜짝 놀랐네...\n멀쩡히 살아 있었구만!\n몰라볼 뻔했잖냐, !",
      "TWzh": "我看到你就會想起\n以前在這島上有個人\n老是精神十足地到處活動啊……\n我記得……那個人的名字\n是(nickname)。\n這麼說來，有一段時間沒見到他了。\n話說，你們真的很像。\n你的動作、\n身材……還有穿衣服的品味之類的。\n…………嗯？\n話說，仔細一看，\n你不是(nickname)嗎！？\n真是的，嚇我一跳……\n原來你還好好的啊！？\n我一時之間沒發現是你啊，。",
      "USen": "You know, you remind me of a kiddo\nwho used to go 'round here stirrin'\nup all sorts of trouble.\nI think their name went something\nlike (nickname)... Ain't seen\n'em in quite a spell.\nYou really do look like 'em, though.\nIt's borderin' on uncanny...\n...You're (nickname), ain't\nyou? Well, how you been, you old\nboot? Really had me turned around!",
      "USes": "¿Sabes qué? Me recuerdas a un\njovencito que solía andar por aquí,\nsiempre muy activo.\n¿Cómo se llamaba? Algo así como\n(nickname)... No sé si lo\nestaré pronunciando bien.\nTe le pareces tanto que resulta\nalgo inquietante...\nPorque no serás (nickname),\n¿verdad? ¿Qué tal, qué ha sido\nde tu vida? ¡Qué bonita sorpresa!",
      "USfr": "Tiens, tu ressembles à un jeune\nqui vivait ici il fut un temps. Il a\ndisparu d'un coup, sale affaire...\nJe crois qu'il s'appelait quelque\nchose comme (surnom), si je ne fais pas erreur...\nC'est bizarre... Plus je t'observe,\nplus je trouve que la ressemblance\nest de plus en plus frappante...\nAttends, mais c'est bien toi!\nQu'est-ce qui t'est arrivé, le jeune?\nOn se faisait un sang d'encre!"
    }
  },
  {
    "label": "004",
    "attribute": "0x0000000000000000",
    "locale": {
      "CNzh": "",
      "EUde": "",
      "EUen": "",
      "EUes": "",
      "EUfr": "",
      "EUit": "",
      "EUnl": "",
      "EUru": "",
      "JPja": "",
      "KRko": "",
      "TWzh": "",
      "USen": "",
      "USes": "",
      "USfr": ""
    }
  },
  {
    "label": "004_01",
    "attribute": "0x0000000000000000",
    "locale": {
      "CNzh": "噢！(nickname)！\n因为最近都没见到你，\n我还在想你怎么了呢。\n……难道说，\n你被卷入了什么\n不可告人的大事件里吗？！\n我觉得你看起来，\n和个月前有些不同啊，\n不过我也说不上来具体有什么变化就是了。\n虽然不知道究竟发生了什么事情，\n但是看到你平安归来，真是再好不过啦！\n欢迎回家，(nickname)！",
      "EUde": "Heda, (Spitzname)! Wir haben uns hier schon langsam gefragt, wo du abgeblieben bist! Alles gut?\nDas war schon verdächtig, wie du\nvor   einfach abgetaucht\nbist. Wie war's so im Untergrund?\nJa, ich weiß, wie man ein Geheimnis\nfür sich behält. So wie damals, als...\nHa, fast hättest du mich gehabt!\nNa, ist jedenfalls nett, dich zu sehen.",
      "EUen": "Hey, now! (nickname)! A few\nof us were startin' to wonder where\nyou'd got to! How you been?\nThe way you just disappeared \n ago, we figured it was all\nsome kinda hush-hush thing.\nI know a thing or two about keeping\na secret, let me tell you! Like this\none time that... Ha! Almost had me!\nAh, well! Good to see you! Don't be\na stranger!",
      "EUes": "¡(nickname)! Aquí nos\npreguntábamos adónde te habrías\nido. ¿Qué ha sido de tu vida?\nPor la manera en que te largaste\nhace  , pensábamos que\nandarías en asuntos turbios.\nNo pasa nada. Por lo menos yo\nno te voy a entregar a la justicia...\nBueno, cuenta, ¿de qué se trataba?\n¡Es broma! Sé que eres un joven\ndecente. ¡Me alegro de verte!",
      "EUfr": "Dis donc, (surnom) !\nOn commençait à se demander\noù tu étais passé !\nÇa fait bien  mois que tu as\ndisparu sans rien dire... C'est pas\nrien, quand même !\nJe dis ça, je dis rien... Mais si t'as\nenvie d'en parler, je sais garder\nun secret...",
      "EUit": "Cavoli, (nickname)! Ci chiedevamo tutti che fine avessi fatto!\nDal modo in cui sei sparito  \nfa, abbiamo sospettato che fosse\nsuccesso qualcosa di inaspettato.\nSai, io di segreti me ne intendo...\nCome quella volta che... Ah! C'è\nmancato poco!\nBeh, comunque è bello rivederti.\nFatti sentire ogni tanto, OK?",
      "EUnl": "Hé, kijk nou! (nickname)! We begonnen ons al af te vragen waar je gebleven was! Alles goed?\nJe was zo pardoes van de radar\nverdwenen   geleden, dat\nwe dachten dat er meer achter zat.\nOver geheime operaties kan ik je ook\nwel het een en ander vertellen!\nZoals toen... Nee, mondje dicht!\nAfijn, goed je te zien! En kom nog\neens langs!",
      "EUru": "Ну здрасьте! (nickname)!\nИ года не прошло! Как жизнь\nмолодая?\nТы куда-то пропал  \nназад. Мы решили, что на тайное\nзадание...\nМне ты можешь рассказать все как\nесть, я умею хранить секреты! Вот\nодин приятель рассказал мне, что...\nХа! Думала, я растреплю его\nсекрет?! А вот и нет!\nВ общем, рад тебя снова видеть.\nЗахочешь почесать языком, заходи\nв гости, козявка!",
      "JPja": "おっ！　(nickname)！\nあんまり　見かけねぇから\nどうしたのかと　思ってたところだ\n・・・もしかして\nここでは言えねぇような　大事件に\n巻き込まれてたんじゃねぇか？！\nか月前に　オメェと話したときと、\n顔つきが　どことなく\n違う気が　するんだよなぁ\n何があったかは　知らねぇが\nよくぞ　たくましくなって　帰って来たな！\nおかえり、(nickname)！",
      "KRko": "엇! (nickname)!\n하도 안 보여서\n무슨 일 생긴 줄 알았잖냐\n...혹시\n여기선 말 못할 어떤 거대한 사건에\n휘말리고 그런 건 아니겠지?!\n개월 전에 봤을 때랑\n왠지 얼굴이 좀\n달라진 것 같기도 하고\n무슨 일이 있었던 건진 모르겠지만\n제법 듬직해졌어!\n잘 돌아왔다, (nickname)!",
      "TWzh": "哦！(nickname)！\n最近很少看到你，\n我還以為你遇到什麼事了。\n……該不會，\n被捲進不方便在這裡說的\n重大事件吧！？\n我總覺得你的表情\n跟個月前我和你說話的時候相比，\n好像不太一樣啊。\n雖然不清楚發生什麼事，\n但你變得更堅強啦！\n歡迎你回來，(nickname)！",
      "USen": "Hey, now! (nickname)! A few\nof us were startin' to wonder where\nyou'd got to! How you been?\nThe way you just disappeared \n ago, we figured it was all\nsome kinda hush-hush thing.\nI know a thing or two about keeping\na secret, let me tell you! Like this\none time that... Ha! Almost had me!\nAh, well! Good to see you! Don't be\na stranger!",
      "USes": "¡(nickname)! Aquí nos\npreguntábamos adónde te habrías\nido. ¿Qué ha sido de tu vida?\nPor la manera en que desapareciste\nhace  , pensábamos que\nandarías en asuntos turbios.\nNo pasa nada. Por lo menos yo\nno te voy a entregar a la justicia...\nDe cualquier forma, ¡confiesa!\n¡Es broma! Sé que eres un\njovencito decente. ¡Me alegro de\nverte!",
      "USfr": "Dis donc, (surnom)!\nOn commençait à se demander\noù tu étais passé!\nÇa fait bien  mois que tu as\ndisparu sans rien dire... C'est pas\nrien, quand même!\nJe dis ça, je dis rien... Mais si t'as\nenvie d'en parler, je sais garder\nun secret..."
    }
  },
  {
    "label": "004_02",
    "attribute": "0x0000000000000000",
    "locale": {
      "CNzh": "啊……(nickname)？！\n你这家伙——！到底在搞什么啊！！\n也太见外了吧！！\n竟然一声不响就突然消失不见了！\n真是的！我还以为出了什么事情，\n担心得不得了呢？！\n……不过，你应该也是事出有因吧。\n虽然还有很多话想说，\n总之能再见到你，我很高兴啦！。",
      "EUde": "(Spitzname)! Denkst du, du kannst hier einfach so wieder angetanzt kommen?!\nNa gut, kannst du ja auch...\nMir scheint, hier kann jeder kommen\nund gehen, wie er will, (Floskel)!\nWie geht's dir? Alles gut?\nAlso dann, pass auf dich auf\nund bau keinen Unfug!",
      "EUen": "(nickname)! How dare you!\nIf you think you can just jitterbug up\nto me after disappearing like that...\nWell, you can! Folks on this island're\nfree to come and go all willy-nilly,\njust as they please.\nHow you been? Good, I hope.\nYou look healthy! Take care, alright!",
      "EUes": "Ah, muy bonito, (nickname).\nUn buen día desapareces, y ahora\nvuelves así, como si nada...\nEstás en tu derecho. En esta isla\ntodo el mundo es libre de ir y venir\nsin dar explicaciones.\n¿Cómo estás? Espero que bien,\n¡se te ve muy lozano! Pues nada,\na seguir así.",
      "EUfr": "(surnom) ! Tu manques pas d'air, à te repointer comme ça, comme si de rien n'était...\nEnfin tu as bien raison. C'est une\nîle libre, chacun peut faire comme\nbon lui semble.\nComment tu vas, depuis le temps ?\nBien, j'espère ?",
      "EUit": "Ma come osi risbucare così, (nickname), dopo essere sparito per tutto questo tempo?\nBeh, in realtà puoi eccome! Chiunque\nè libero di andare e venire dall'isola\na suo piacimento.\nMa come stai? Spero bene, hai una\nbella cera! Quindi non esporti troppo\nal caldo, OK? AHAHAH!",
      "EUnl": "(nickname)! Hoe durf je! Dacht je dat je hier na al die tijd doodleuk kon komen aanwandelen?\nNou, dat heb je dan goed gedacht!\nHier kan iedereen altijd naar harten-\nlust komen en gaan zoveel ze willen.\nHoe gaat het? Goed, hoop ik. Je ziet\ner gezond uit! Pas goed op jezelf,\nwil je?",
      "EUru": "(nickname)!!! Где тебя\nносило?! Пропал куда-то, никому\nничего не сказал...\nМог бы и предупредить! Хотя,\nладно, сейчас такие нравы...\nЧто хотим, то и творим!\nРассказывай, как жизнь молодая!\nНадеюсь, все идет как надо.",
      "JPja": "あっ・・・　(nickname)？！\nオメェー！　コノヤロー！！\nみずくせぇじゃねぇか！！\n何も言わずに　どこかへ消えちまうなんてよ！\nったく！　何かあったのかと思って\n心配してたんだぜ？！\n・・・ま、オメェにも　事情があんだよな\n言いてぇことは　いっぱいあるけど\nとりあえず　また会えて　嬉しいぜ、",
      "KRko": "앗... (nickname)?!\n너! 이 녀석!!\n섭섭했잖냐!!\n왜 아무 말도 없이 사라진 건데!\n나 참! 무슨 일 생겼나 하고\n얼마나 걱정했는 줄 아냐?!\n...뭐, 너도 나름대로 사정이 있었겠지\n하고 싶은 말은 많지만\n아무튼 다시 만나서 기쁘다, ",
      "TWzh": "啊……(nickname)？！\n啊──！你這傢伙──！！\n你也太見外了吧！！\n什麼都沒說就消失，你是跑去哪了啊！？\n受不了！還以為你發生什麼事，\n搞得我很擔心喔！？\n……算了，你這麼做是有什麼原因吧。\n雖然有很多話想跟你說，\n總之我很高興還能見到你啦，。",
      "USen": "(nickname)! How dare you!\nIf you think you can just jitterbug up\nto me after disappearing like that...\nWell, you can! Folks on this island're\nfree to come and go all willy-nilly,\njust as they please.\nHow you been? Good, I hope.\nYou look healthy! Take care, alright!",
      "USes": "Ah, muy bonito, (nickname).\nUn buen día desapareces, y ahora\nvuelves así, como si nada...\nEstás en tu derecho. En esta isla\ntodo el mundo es libre de ir y venir\nsin dar explicaciones.\n¿Cómo estás? Espero que bien,\n¡te ves muy sano! Pues bueno,\nsigue así.",
      "USfr": "(surnom)! Tu manques pas d'air, à te repointer comme ça, comme si de rien n'était...\nEnfin tu as bien raison. C'est une\nîle libre, chacun peut faire comme\nbon lui semble.\nComment tu vas, depuis le temps?\nBien, j'espère?"
    }
  },
  {
    "label": "004_03",
    "attribute": "0x0000000000000000",
    "locale": {
      "CNzh": "啊——！！(nickname)！\n原来你这家伙还住在这座上啊？！\n因为你最近完全没有露面，\n我还和他们探讨呢。\n我们都以为你乘夜逃跑了。\n看来事情并非如此啊。\n真是的！你可别让我们\n太担心啊！。",
      "EUde": "(Spitzname)! Na, hat man\nWorte?! Ich hab gedacht, du bist\nfür immer durchgebrannt!\nDu bist also wieder da, hm?\nTja, ohne dich war das hier auch\neinfach nicht dasselbe...\nAber ich will dich nicht aufhalten.\nMein nächstes Nickerchen hält\nsich nicht von alleine!",
      "EUen": "(nickname)!\nWell, now! We all thought you\nup and did a runner on us!\nYou back, then? Ain't that a relief!\nIt hasn't been quite the same 'round\nhere without you.\nAnyway, I'll let you wander. I got a\npretty important nap scheduled later\nI gotta get ready for.",
      "EUes": "¡Anda, (nickname)! Creíamos\nque te habías cansado de nosotros\ny no querías vernos ni en pintura.\nEs un alivio ver que no es así (por\nlo menos la parte de no querer\nvernos). Esto no es lo mismo sin ti.\nPero no puedo entretenerme ahora,\ntengo que echarme una siesta muy\nimportante.",
      "EUfr": "(surnom) ! Je pensais que t'en avais eu marre de nous et que tu t'étais fait la malle pour de bon !\nContent de te voir de retour, en tout\ncas, peu importe ce qui t'a poussé\nà partir tout ce temps.\nEnfin, on rattrapera le temps perdu\nune autre fois si tu le veux bien.\nLà, c'est l'heure de ma sieste.",
      "EUit": "Capperi, (nickname)! Che sorpresona! Credevamo tutti che fossi sparito definitivamente, ormai!\nPerché, sai... questo posto non\nè lo stesso senza di te, e si nota!\nMa adesso devo proprio lasciarti.\nHo un appuntamento urgente con\nil mio amico cuscino. AHAHAH!",
      "EUnl": "(nickname)! Krijg nou wat! We dachten dat je hem voorgoed gesmeerd was!\nDus je bent terug? Gelukkig! Zonder\njou is het toch niet hetzelfde hier.\nNou, ik zal je niet verder ophouden.\nIk heb zo meteen nog een belangrijk\ndutje op mijn programma staan.",
      "EUru": "(nickname)! Вот ты где! Мы\nуже думали, ты улизнул от нас\nс концами!..\nА ты вот он! Что ж, рад тебя снова\nвидеть! Без тебя на острове все\nсовсем по-другому...\nНу, ты погуляй тут, а у меня дела.\nЯ запланировал вздремнуть,\nа такое нельзя откладывать.",
      "JPja": "あーっ！！　(nickname)！\nオメェ　このに住んでたんだな？！\nオメェが　最近　顔を出さねぇもんだから\n達と　話題にしてたんだよ\nもしかして　夜逃げしたんじゃねぇかって\nけど、違ったみたいだな\nったく！　あんまし、オレらに　\n変な心配　かけさせんじゃねぇぞ！　",
      "KRko": "어엇!! (nickname)!\n너 이 에 아직 살고 있었냐?!\n요즘 도통 니가 보이질 않아서\n우리가 얼마나 걱정했는데\n혹시 야간도주한 건 아닌가 하고...\n그래도 그런 건 아니었나 보네\n어휴! 아무튼\n걱정 좀 시키지 마라! !",
      "TWzh": "啊──！！(nickname)！\n原來你住在這座島上啊！？\n因為你最近都沒露臉，\n所以有跟聊到你，\n還說你搞不好是連夜跑路了。\n不過，看這樣子大概不是吧。\n受不了！\n別老讓我替你擔奇怪的心啊！。",
      "USen": "(nickname)!\nWell, now! We all thought you\nup and did a runner on us!\nYou back, then? Ain't that a relief!\nIt hasn't been quite the same 'round\nhere without you.\nAnyway, I'll let you wander. I got a\npretty important nap scheduled later\nI gotta get ready for.",
      "USes": "¡Anda, (nickname)! Creíamos\nque te habías cansado de nosotros\ny no querías vernos ni en pintura.\nEs un alivio ver que no es así (por\nlo menos la parte de no querer\nvernos). Esto no es lo mismo sin ti.\nPero no puedo entretenerme ahora,\ntengo que echarme una siesta muy\nimportante.",
      "USfr": "(surnom)! Je pensais que t'en avais eu assez de nous et que tu étais parti pour de bon!\nContent de te voir de retour, en tout\ncas, peu importe ce qui t'a poussé\nà partir tout ce temps.\nEnfin, on rattrapera le temps perdu\nune autre fois si tu le veux bien.\nLà, c'est l'heure de ma sieste."
    }
  },
  {
    "label": "005",
    "attribute": "0x0000000000000000",
    "locale": {
      "CNzh": "",
      "EUde": "",
      "EUen": "",
      "EUes": "",
      "EUfr": "",
      "EUit": "",
      "EUnl": "",
      "EUru": "",
      "JPja": "",
      "KRko": "",
      "TWzh": "",
      "USen": "",
      "USes": "",
      "USfr": ""
    }
  },
  {
    "label": "005_01",
    "attribute": "0x0000000000000000",
    "locale": {
      "CNzh": "……喂，(nickname)！\n你莫非是在躲着我吗？！\n之前有一次我们明明视线都对上了，\n结果你竟然招呼都不打一声就走掉了！\n你可别装傻说是看错了哦？\n像你这么有特点的家伙，\n我可不会认错啊！\n而且你也完全不来找我说话。\n如果你对我有什么意见，就直接跟我说！\n我可是很想和你做好朋友的啊。。",
      "EUde": "(Spitzname)! Bist du deinem\nalten Kumpel (Einwohnername)\netwa aus dem Weg gegangen?\nHab dir neulich noch wie verrückt\ngewunken, bis mein Rücken nicht\nmehr mitgemacht hat...\nDann hab ich dir mal zugerufen, bis\nmeine Stimme weg war. Hab sie zum\nGlück gleich drauf wiedergefunden...\nAber jetzt habe ich dich ja endlich\nmal erwischt. Wollt dir eh nur sagen,\ndass es mir gut geht!",
      "EUen": "(nickname)!\nBeen dodgin' your ol'\npal (resident name)?\nThe other day I was waving my arms\nto get your attention, but my back\nstarted hurtin', so I stopped.\nThen there was that other time I was\ncallin' out to you until I went hoarse.\nBit of tea fixed THAT, (catchphrase).\nWell, glad I finally caught you!\nJust wanted you to know I'm doin'\npretty good. Take care now!",
      "EUes": "Ah, si eres tú, (nickname).\n¿Por qué has evitado la presencia\ndel viejo (resident name)?\n¿Te cansan mis batallitas y quejas\nsobre la tecnología moderna y lo\nmal que se construye hoy en día?\nIntentaré darle un enfoque positivo:\nlos juegos de 8 bits eran mejores,\ny las casas antes eran más sólidas.\n¿A que así soy menos gruñón?\nBueno, ¡me alegro de volver a verte!\nLa vida es bella, y espero que la tuya\ntambién. ¡Nos vemos!",
      "EUfr": "(surnom) ! Ben alors ?\nTu m'évitais ou quoi ?\nJe t'ai fait signe l'autre jour,\net t'as même pas regardé dans\nma direction, (expression) !\nSi t'as un problème avec moi,\nj'aimerais que tu m'en parles\nen face à face, d'accord ?",
      "EUit": "Senti un po', (nickname)... Non dirmi che volevi evitare il tuo buon amico (resident name)?!\nL'altro giorno ho agitato le braccia\nper attirare la tua attenzione finché\nnon si sono indolenzite...\nE un'altra volta mi sono sgolato per\nchiamarti, ma invano. E ora ti ho\nbeccato, finalmente, !\nComunque volevo solo dirti che sto\nbene. AHAHAH! Ci si vede in giro!",
      "EUnl": "(nickname)! Je probeert je ouwe maat (resident name) toch niet te ontlopen?\nLaatst stond ik naar je te zwaaien,\nmaar toen schoot het in mijn rug,\ndus ben ik ermee opgehouden.\nEn pas probeerde ik je ook nog te\nroepen, maar toen viel mijn stem uit.\nEen kop thee deed wonderen.\nNou, fijn dat ik je eindelijk te pakken\nheb! Met mij gaat het goed, dat je\ndat weet. Tot kijk maar weer!",
      "EUru": "(nickname)! Ты что это,\nизбегаешь старину (resident name)?\nЯ недавно видел тебя на улице,\nхотел помахать рукой, но спину\nприхватило, тьфу ты!\nВ другой раз я так кричал тебе, что\nохрип. Потом чаем отпаивался.\n(catchphrase)!\nРад тебя наконец-то видеть. Я же\nпросто хотел сказать, что у меня\nвсе отлично! И ты тоже не хворай!",
      "JPja": "・・・おい、(nickname)！\nオメェ　オレのこと　避けてんのか？！\nこの間　目が合ったのに\nアイサツもせず　どっか行っちまっただろ！\n見間違いだって　すっとぼけても　ムダだぜ\nオメェみたいな　トクチョー的なヤツを\nオレが　見間違うワケねぇからな！\n全然　口も聞いてくれねぇしよ\nなんかあるなら　今みてぇに　直接来い！\nオレぁ　オメェと仲良くしてぇんだ、",
      "KRko": "...야, (nickname)!\n너, 나 피해다니는 거냐?!\n저번에 눈 마주쳤는데\n인사도 안 하고 도망갔지!\n잘못 본 거라고 잡아뗄 생각 마라?\n너처럼 튀는 녀석을\n내가 잘못 볼 것 같아?!\n요즘 통 얘기도 안 하고 말야...\n불만 있으면 이렇게 직접 찾아오라고!\n난 너랑 잘 지내고 싶으니까! !",
      "TWzh": "……喂，(nickname)！\n你是不是在躲我啊！？\n之前我們明明有對到眼，\n結果你沒打招呼就走掉了吧？\n就算你想裝做認錯人也沒用，\n像你這麼有特色的人，\n我怎麼可能看錯啊！\n而且你也都不來找我聊天……\n要是有什麼不滿，就像現在這樣直接說啊！\n我很想跟你好好相處啊！。",
      "USen": "(nickname)!\nBeen dodgin' your ol'\npal (resident name)?\nThe other day I was waving my arms\nto get your attention, but my back\nstarted hurtin', so I stopped.\nThen there was that other time I was\ncallin' out to you until I went hoarse.\nBit of tea fixed THAT, (catchphrase).\nWell, glad I finally caught you!\nJust wanted you to know I'm doin'\npretty good. Take care now!",
      "USes": "Ah, si eres tú, (nickname).\n¿Por qué has evitado la presencia\ndel viejo (resident name)?\n¿Te cansan mis historias y quejas\nsobre la tecnología moderna y lo\nmal que se construye hoy en día?\nIntentaré darle un enfoque positivo:\nlos juegos de 8 bits eran mejores,\ny las casas antes eran más sólidas.\nAsí soy menos gruñón, ¿no?\nBueno, ¡me alegro de volver a verte!\nLa vida es bella, y espero que la tuya\ntambién. ¡Nos vemos!",
      "USfr": "(surnom)! Ben alors?\nTu m'évitais ou quoi?\nJe t'ai fait signe l'autre jour,\net t'as même pas regardé dans\nma direction, (expression)!\nSi t'as un problème avec moi,\nj'aimerais que tu m'en parles\nen face à face, d'accord?"
    }
  },
  {
    "label": "005_02",
    "attribute": "0x0000000000000000",
    "locale": {
      "CNzh": "嘿，(nickname)！\n我们已经挺久没聊天了吧？\n我记得我们应该\n也没有吵架吧……\n难道说只是我忘记了吗？！\n不过反正理由大概也就是\n“上完厕所之后要把马桶圈放下来！”\n这种不值一提的小事吧。\n过去的事情就一笔勾销，\n我们还是一如既往地好好相处吧！\n啊哈哈哈！",
      "EUde": "Ist ja ein bisschen her, dass wir\nmiteinander palavert haben,\n(Spitzname)!\nBist du mir aus dem Weg gegangen?\nHat's daran gelegen, dass ich letztes\nMal länger nicht gebadet hatte?\nDa kann ich dich beruhigen, heut bin\nich picobello sauber von Kopf bis\nFuß, sogar hinter den Ohren!\nSo! Da das nun geklärt wär, mach ich\nmich gleich wieder auf den Weg.\nMan riecht sich, gra ha ha ha!",
      "EUen": "Well now, (nickname)!\nBeen a while since we had us a\nchinwag! You been avoiding me?\nThought maybe it was something I'd\ndone. I know I forgot my bath\nnearabout when last we spoke...\nWell, don't you worry, I'm on the\nstraight and narrow now! I'm\nsqueaky clean, even behind the ears!\nWhew! Glad I cleared that up for\nyou. See you around!",
      "EUes": "Anda, (nickname)...\nHacía mucho que no hablábamos.\n¿Te caigo mal o algo?\n¿Te has cansado de mis quejas\ny anécdotas del siglo pasado?\nA ver, si después de todo son como\nmensajitos en las redes sociales...\npero sin móvil, ¡ja, ja, ja!\nBueno, no te preocupes, que ahora\nno tengo tiempo. ¡Me alegro\nde verte, hasta otra!",
      "EUfr": "Tiens, (surnom) ! J'ai cru que tu ne voulais plus me parler, depuis le temps !\nJe me suis dit que c'était peut-être\nparce que je sentais un peu trop\nle renfermé pour toi...\nAlors depuis, je m'assure de prendre\nl'air au moins deux fois par jour, peu\nimporte le temps !\nEt je suis content de voir que cette\ndécision a l'air de faire effet.",
      "EUit": "Ma guarda, (nickname)! È passato un po' di tempo dall'ultima volta che ci siamo visti!\nTe lo confesso, ho temuto che fosse\nper qualcosa che avevo fatto... o che\nnon avevo fatto, tipo la doccia...\nBeh ma adesso non ti devi\npreoccupare, sono pulito e\nprofumato!\nPersino dietro le orecchie! Non sai\nmai quando ti capita di dover stare\nad ascoltare qualcuno. AHAHAH!",
      "EUnl": "Nou, nou, (nickname)! Dat is lang geleden dat wij gebabbeld hebben! Je ontloopt me toch niet?\nIk dacht dat ik wat verkeerd had\ngedaan. Omdat ik laatst ook al een\ntijdje was vergeten in bad te gaan...\nNou, geen zorgen wat dat betreft! Ik\nheb mijn leven gebeterd. Ik ben\nbrandschoon, zelfs achter mijn oren!\nPoeh! Blij dat ik dat even heb\nkunnen rechtzetten. Tot kijk!",
      "EUru": "Вот ты где, (nickname)!\nСто лет тебя на видел!\nПрячешься от меня?\nЯ уже начал думать, что это оттого,\nчто я в прошлый раз не помылся...\nНо это в прошлом! Теперь я всегда\nчист как стеклышко, даже\nза ушами!\nХорошо, что мы это прояснили.\nЛадно, я уже пойду. А ты больше\nне теряйся!",
      "JPja": "よぉ、(nickname)！\nオレら　久しぶりに会話するよな？\n別に　ケンカしてたわけじゃ\nなかったと思うが・・・\nもしかして　オレが忘れてるだけか？！\nまっ、どうせ　用をたしたあとは\n便座はさげろ？！　とか\nそういう　くだらねぇ理由だろうよ\nジャーッと　水に流して\n今までどおり　仲良くやろうぜ？\nがーっはっは！",
      "KRko": "여어, (nickname)!\n우리 되게 오랜만에 얘기한다?\n딱히 우리 싸운 적은\n없는 것 같은데...\n혹시 내가 잊어버린 건가?!\n싸웠다고 해봤자 어차피 볼일 보고\n변기 커버를 내리네 마네\n그런 사소한 이유였겠지\n그런 건 변기 물이랑 같이 싹～\n흘려버리고 계속 친하게 지내자고!\n으－하하핫!",
      "TWzh": "喲，(nickname)！\n我們有陣子沒聊天了吧？\n不過我們應該\n沒什麼不愉快吧……\n還是說，只是我自己忘記了！？\n唉，反正只是上完廁所\n要蓋馬桶蓋之類的\n無聊小事吧。\n我們就別計較了，\n像以前一樣好好相處吧？\n哇～哈哈！",
      "USen": "Well now, (nickname)!\nBeen a while since we had us a\nchinwag! You been avoiding me?\nThought maybe it was something I'd\ndone. I know I forgot my bath\nnearabout when last we spoke...\nWell, don't you worry, I'm on the\nstraight and narrow now! I'm\nsqueaky clean, even behind the ears!\nWhew! Glad I cleared that up for\nyou. See you around!",
      "USes": "Anda, (nickname)...\nHacía mucho que no hablábamos.\n¿Te caigo mal o algo? ¿O es que\nte cansaste de mis quejas y\nanécdotas del siglo pasado?\nBueno, no te preocupes, que ahora\nno tengo tiempo. ¡Me alegro\nde verte, hasta la próxima!",
      "USfr": "Tiens, (surnom)! J'ai cru que tu ne voulais plus me parler, depuis le temps!\nJe me suis dit que c'était peut-être\nparce que je sentais un peu trop\nle renfermé pour toi...\nAlors depuis, je m'assure de prendre\nl'air au moins deux fois par jour,\npeu importe le temps!\nEt je suis content de voir que cette\ndécision a l'air de faire effet."
    }
  },
  {
    "label": "005_03",
    "attribute": "0x0000000000000000",
    "locale": {
      "CNzh": "…………\n不好意思啊，\n你是叫什么名字来着？\n啊，对了！\n你叫(nickname)啊！\n……喂喂，别用那种眼神看我啊！\n这么长时间没说话，\n就算把名字给忘了\n也很正常吧！\n如果想让我记住你的名字，\n要不就改个有冲击性的名字，\n要不就多多向我搭话吧！。",
      "EUde": "Ah, du bist's! Wie war noch mal dein\nName? (Spitzname), oder?\nLang nicht gesehen!\nMeine alte Rübe ist voller Namen\nund Gesichter, da kommt eben mal\nwas durcheinander!\nNett, dass du mal wieder da bist.\nWir sollten uns öfter unterhalten.\nAber nicht zu oft, (Floskel)!",
      "EUen": "It's you, with the shirt! What was\nthe name again? (nickname),\nwas it? Been a while!\nSorry about that. I got a noggin full\nof names and faces. Those get kinda\nfoggy after a while, (catchphrase).\nWell, glad you came by to chat.\nWe oughta do this more often!",
      "EUes": "¡Anda, si vuelves en forma de chapa!\n¿Cómo te llamabas? (nickname), ¿no?\n¡Cuánto tiempo! Disculpa que no\nme acordara. Hay demasiadas caras\ny nombres en mi vida, (catchphrase).\nMe alegro de volver a verte,\n¡ojalá podamos charlar más\na menudo!",
      "EUfr": "Hé ! Ça fait un bail, dis donc !\nTu te décides enfin à me reparler ?\nEuh... c'est quoi ton nom, déjà ?\nAh, (surnom) ! Voilà !\nEh, le prends pas mal, c'est normal\nque j'oublie ça après tout ce temps.\nSi tu veux qu'on se souvienne de toi,\nc'est aussi à toi de faire en sorte\nqu'on ne t'oublie pas, (expression) !",
      "EUit": "Ehi tu! Sì, tu! Ti chiami (nickname), vero?\nDevi scusarmi, ma la mia testa è\ntutto un vortice di musi e nomi che\ntendo a dimenticare, .\nEd è da un po' che non ci vediamo!\nBeh, sono felice che tu sia ripassato\nprima che potessi dimenticarmi di te.\nSempre ammesso che fosse un\nmale... AHAHAH!",
      "EUnl": "Hé jij, met dat shirt! Hoe heette je ook alweer? (nickname), toch? Dat is even geleden!\nSorry, mijn kop zit tot de nok vol met\nnamen en gezichten. Die raken door\nelkaar als ik ze te weinig gebruik.\nNou, goed dat je langskwam voor\neen babbeltje. Dat zouden we vaker\nmoeten doen, (catchphrase)!",
      "EUru": "О, привет! Как тебя звать...\n(nickname), кажется, да?\nДавно тебя не было видно, однако!\nНе обижайся, что я подзабыл твое\nимя, память уже совсем никуда...\n(catchphrase)!\nВ общем, рад тебя видеть!\nЗаходи почаще!",
      "JPja": "・・・・・・\n悪ぃんだけどよぉ、\nオメェの名前って　なんて言ったっけ？\nあぁ、そうだった！\n(nickname)って　名前だったな！\n・・・おいおい、なんだよ　その目は！\nこんだけ　話してなかったら\n名前の　ひとつや　ふたつくらい\n忘れちまうっつーの！\nオレに　名前を　覚えててもらいたかったら\nインパクトある　名前にするか\nもっと　話しかけてこいよな！　",
      "KRko": "......\n미안한데, \n니 이름이 뭐였더라?\n아, 맞다!\n(nickname)이었지!\n...뭐야, 그렇게 쳐다보지 마\n우리가 얘기한 지 얼마나 됐는 줄 아냐?\n이름 같은 거 잊어버릴 수도 있지!\n내가 이름 잊어버리는 게 싫으면\n강렬한 이름으로 바꾸든가\n좀 더 자주 말을 걸어! !",
      "TWzh": "…………\n雖然很失禮，\n不過你叫什麼來著？\n喔喔，我想起來了！\n你叫(nickname)吧！\n……喂喂，你那是什麼眼神啊。\n我們這麼久沒聊天，\n忘掉名字\n也是挺正常的啊！\n要是希望我記住你的名字，\n就想個有特色的名字，\n不然就多來找我聊天吧！。",
      "USen": "It's you, with the shirt! What was\nthe name again? (nickname),\nwas it? Been a while!\nSorry about that. I got a noggin full\nof names and faces. Those get kinda\nfoggy after a while, (catchphrase).\nWell, glad you came by to chat.\nWe oughta do this more often!",
      "USes": "¡Anda, si eres tú! ¿Cómo te llamabas? (nickname), ¿no?\n¡Cuánto tiempo! Disculpa que no\nme acordara. Hay demasiadas caras\ny nombres en mi vida, (catchphrase).\nMe alegro de volver a verte,\n¡ojalá podamos charlar más\na menudo!",
      "USfr": "Hé! Ça fait un bail, dis donc!\nTu te décides enfin à me reparler?\nEuh... c'est quoi ton nom, déjà?\nAh, (surnom)! Voilà!\nEh, le prends pas mal, c'est normal\nque j'oublie ça après tout ce temps.\nSi tu veux qu'on se souvienne de toi,\nc'est aussi à toi de faire en sorte\nqu'on ne t'oublie pas, (expression)!"
    }
  }
]