﻿[
  {
    "label": "100",
    "attribute": "0x0000000000000000",
    "locale": {
      "CNzh": "这家伙，\n竟然说什么因为有我在，\n所以才能安心住在上。\n这么依赖我，真令人头疼啊！\n啊哈哈哈！",
      "EUde": " hat gesagt, \nfühlt sich auf \nsicher, weil ich hier wohne!\nHoffe nur, ihr Tröten setzt\nnicht allesamt solch überhöhte\nHoffnungen in mich... Gra ha ha ha!",
      "EUen": "Did you hear what \nhas been sayin'?\nHe said he's thankful that I live\nhere on , 'cause\nit'll never be dull with me around.\nSounds like he's never spent an\nafternoon  with\nme. Gahaha!",
      "EUes": "¿Sabes lo que ha dicho\n?\nDice que está muy contento de\nque yo viva en \nporque así nunca se aburrirá.\n¡Pues todavía no sabe lo que\nes  conmigo!\n¡Ja, ja, ja!",
      "EUfr": "Dis voir... T'as entendu ce que  a été dire, dernièrement ?\nQu' d'habiter à  parce qu'on ne s'ennuie jamais avec moi !\nJ'suis prêt à parier qu' changera\nd'avis après une après-midi à\n avec moi !",
      "EUit": "Hai sentito che ha detto\n?\nÈ molto felice che anch'io viva\n , perché\ncosì non si annoia mai.\nMa dice così solo perché non\nabbiamo mai passato un pomeriggio\ninsieme  ...\nAHAHAH!",
      "EUnl": "Heb je toevallig gehoord wat  heeft gezegd?\nHij zei dat hij zo blij is dat ik op  woon, omdat het hier anders zo saai zou zijn.\nZo te horen is hij nooit bij mij\ngeweest terwijl ik bezig was met\n. Bwahaha!",
      "EUru": "Слыхал? \nтакое говорит, бу-га-га!\nРаз на острове \nживу я, тут ему никогда не будет\nскучно!\nПопробовал бы хотя бы  вместо того, чтобы жаловаться! Бу-га-га!",
      "JPja": "のヤツ、\nオレがいるから　は\n安心して暮らせる　とか言いやがるんだ\nそんなに頼られても　困っちまうけどな！\nがーっはっは！",
      "KRko": " 녀석\n나 덕분에 에서\n마음 놓고 살 수 있다나 뭐라나\n난 너무 믿음직스러워서 탈이라니까!\n으－하하핫!",
      "TWzh": "那傢伙，\n說什麼因為有我在，\n才能安心住在。\n他這麼依賴我，真令我頭痛啊！\n哇～哈哈！",
      "USen": "Did you hear what \nhas been sayin'?\nHe said he's thankful that I live\nhere on , 'cause\nit'll never be dull with me around.\nSounds like he's never spent an\nafternoon  with\nme. Gahaha!",
      "USes": "¿Sabes lo que dijo\n?\nDijo que está muy contento de\nque yo viva en \nporque así nunca se aburrirá.\n¡Pues todavía no sabe lo que es\n conmigo!\n¡Ja, ja, ja!",
      "USfr": "Dis voir... T'as entendu ce que ⁠ a été dire, dernièrement?\nQu' d'habiter à  parce qu'on ne s'ennuie jamais avec moi!\nJ'suis prêt à parier qu' changera\nd'avis après une après-midi à\n avec moi!"
    }
  },
  {
    "label": "101",
    "attribute": "0x0000000000000000",
    "locale": {
      "CNzh": "之前说过，\n这座上能够靠得住的，\n就只有我和你了哦！\n喂喂，怎么没把狸克算进去啊？\n啊哈哈哈！",
      "EUde": " meinte eben, die\nzwei verlässlichsten Bewohner hier\nwären du und ich.\nIch unterstelle einfach mal, dass\nunser erlauchter Tom Nook dabei\naußer Konkurrenz läuft. Bwa ha ha!",
      "EUen": "So, accordin' to ,\nthe two most reliable folks\nhere are you and me.\nReckon he forgot about Tom Nook!\nGahaha!",
      "EUes": "Entonces, según , los dos habitantes más fiables de la isla somos tú y yo.\nNo te digo que no, pero también\nincluiría a Tom Nook en la lista.\n¡Ja, ja, ja!",
      "EUfr": "D'après , les personnes les plus fiables du coin sont toi et moi.\nJ'sais pas pourquoi, mais  a\noublié de citer ce cher Tom Nook !\nLe pauvre !",
      "EUit": "Secondo , i due abitanti dell'isola più affidabili siamo io e te.\nSono d'accordo, però anche\nTom Nook andava aggiunto!\nScegli tu l'ordine degli addendi,\ntanto il risultato non cambia.\nAHAHAH!",
      "EUnl": "Weet je, volgens  zijn wij tweetjes de meest betrouwbare lui die hij kent.\nVolgens mij is hij Tom Nook\nvergeten! Bwahaha!",
      "EUru": "Если верить , на этом\nострове больше всего заслуживают\nдоверия только два жителя: я и ты.\nА как же Том Нук?! Бу-га-га!",
      "JPja": "に言わせると、\nこので　頼りになるのは\nオレと　オメェだってよ！\nおいおい、たぬきちは　どこ行った？\nがーっはっは！",
      "KRko": " 녀석이 그러는데\n이 에서 가장 믿음직스러운 게\n나랑 너라더라!\n근데 너굴은 왜 빠졌지?\n으－하하핫!",
      "TWzh": "說過，\n在這座島上值得信賴的人，\n就只有我跟你了！\n喂喂，怎麼沒把狸克算進去啊？\n哇～哈哈！",
      "USen": "So, accordin' to ,\nthe two most reliable folks\nhere are you and me.\nReckon he forgot about Tom Nook!\nGahaha!",
      "USes": "Entonces, según , los dos habitantes más fiables de la isla somos tú y yo.\nY estoy de acuerdo, pero también\nincluiría a Tom Nook en la lista.\n¡Ja, ja, ja!",
      "USfr": "D'après , les personnes les plus fiables du coin sont toi et moi.\nJ'sais pas pourquoi, mais  a\noublié de citer ce cher Tom Nook!\nLe pauvre!"
    }
  },
  {
    "label": "102",
    "attribute": "0x0000000000000000",
    "locale": {
      "CNzh": "这家伙，\n说我始终如一这一点\n很值得尊敬，这可是原话！\n啊～心里痒痒的！\n真令人害羞啊！啊哈哈哈！",
      "EUde": " meinte vorhin, \nfindet bemerkenswert, wie ich mir\n„immer selbst treu bleibe“.\nHab das einfach mal als Kompliment\naufgefasst. Gra ha ha!",
      "EUen": "Ooh, that  is one\nrascally son of \n!\nHe said he really respects how\nI'm so consistent. Like, I never\nchange up my routine at all!\nI'm gonna have to have breakfast\nfor dinner one of these days just\nto show him what's what!",
      "EUes": "¡Qué rabia me da \ncuando me suelta puyitas con\nsu cara de !\nDice que admira mi constancia, pero\ncon eso insinúa que soy un abuelo\nque nunca se sale de la rutina.\nMañana lo voy a invitar a desayunar\na medianoche en el tejado.\n¡Se va a enterar!",
      "EUfr": "Ah... Des comme , y en a pas deux !\n a dit que ce qu' préfère chez\nmoi, c'est ma constance. Que c'était\ncomme si j'étais figé dans le temps !\nC'est la plus belle chose qu'on m'ait\ndite depuis longtemps !",
      "EUit": "Capperi, non posso credere alle\nparole di !\nDice che apprezza molto il mio\nstile di vita sempre uguale...\nIn altre parole sarei noioso!\nUno di questi giorni mangerò la mia\nsolita colazione a cena e vedremo\nchi è noioso! AHAHAH!",
      "EUnl": "O, die over   getilde !\nHij zei dat hij zo waardeert hoe\nconsistent ik ben. Dat ik mijn routine\nnooit verander, zeg maar.\nEen van deze dagen zal ik als ontbijt\navondeten moeten eten, zodat hij\nziet hoe fout hij het had!",
      "EUru": "Ну,  и выдал!\nСказал, что ему нравится, что\nу меня все по распорядку. Будто\nя ничего не делаю экспромтом!\nВот возьму и... поужинаю\nзавтраком! То-то он удивится!",
      "JPja": "のヤツ、\nオレの　一本スジが通ったところが\n尊敬できる、だってよ！\nあ～、くすぐってぇ！\n照れちまうぜ！　がーっはっは！",
      "KRko": " 녀석\n항상 흔들리지 않는 신념을 가진\n내가 존경스럽다고 그러지 뭐냐!\n아～ 이거 간질간질하구만!\n사람 쑥스럽게 말야! 으－하하핫!",
      "TWzh": "那傢伙，\n說什麼我的意志堅定，\n值得尊敬！\n啊～感覺好不自在！\n真令人害臊！哇～哈哈！",
      "USen": "Ooh, that  is one\nrascally son of \n!\nHe said he really respects how\nI'm so consistent. Like, I never\nchange up my routine at all!\nI'm gonna have to have breakfast\nfor dinner one of these days just\nto show him what's what!",
      "USes": "¡Qué rabia me da \ncuando me lanza indirectas con\nsu cara de !\nDice que admira mi constancia, pero\ncon eso insinúa que soy un abuelo\nque nunca se sale de la rutina.\nMañana lo voy a invitar a desayunar\na medianoche en el tejado.\n¡A ver si aprende!",
      "USfr": "Ah... Des comme , on n'en fait pas deux!\n a dit que ce qu' préfère chez\nmoi, c'est ma constance. Que c'était\ncomme si j'étais figé dans le temps!\nC'est la plus belle chose qu'on m'ait\ndite depuis longtemps!"
    }
  },
  {
    "label": "200",
    "attribute": "0x0000000000000000",
    "locale": {
      "CNzh": "若只是徒有其表的泛泛之交，\n根本走不长远，\n或者说根本无法深入理解对方啊。\n(nickname)，我们之间的交情\n好像越来越深了啊。。",
      "EUde": "Viele Leute meint man so halbwegs\nzu kennen, aber in Wahrheit hat man\nkeine Ahnung.\nBei uns ist das was anderes,\n(Spitzname). Wir sind Seelenverwandte durch und durch!",
      "EUen": "Y'know, if you get to really know just\na handful of people in your whole\nlife, then you're pretty lucky.\nI mean REALLY know 'em, like what\nkinda snack they eat when they\nwatch their favorite movie, see.\nAnyhow, I guess I'm tryin' to say\nthat I think we got a real nice\nfriendship goin', kiddo.",
      "EUes": "¿Sabes? Si en la vida llegas\na conocer cuatro o cinco personas,\nte puedes sentir afortunado.\nMe refiero a conocer realmente\na alguien: qué películas le gustan,\nsus secretos más vergonzosos...\nBueno, lo que quiero decir es que\nme siento feliz de que tú y yo\nseamos tan buenos amigos.",
      "EUfr": "Dans la vie, on peut s'estimer\nheureux de bien connaître une\npoignée de personnes.\nEt par « bien connaître », je veux\ndire « VRAIMENT bien connaître ».\nComme savoir quel est leur fruit\nou leur film préféré. T'es pas de\ncet avis ?",
      "EUit": "Penso che per essere felici non\nservano tanti amici. Ne bastano\npochi, ma bisogna conoscerli bene.\nMa veramente bene... Per esempio,\nsapendo i loro spuntini preferiti\nmentre guardano un film, cose così...\nIn parole povere, sto cercando di\ndire che la nostra amicizia è proprio\nbella!\nLe parole ricche costano troppo.\nAHAHAH!",
      "EUnl": "Weet je, je hebt veel geluk als het je\nlukt om tijdens je leven een\nhandvol anderen te leren kennen.\nIk bedoel écht kennen, weten wat\nhun favoriete eten is tijdens hun\nfavoriete film en zo.\nNou ja, ik probeer dus te zeggen\ndat ik blij ben met onze vriendschap,\njochie.",
      "EUru": "Знаешь, я тут размышлял...\nМне кажется, что это хорошо,\nкогда кого-то хорошо знаешь.\nВплоть до того, какие вкусности\nони любят есть, когда смотрят\nлюбимое кино.\nСтоп. К чему я это вообще?..\nА! В общем, я очень ценю\nнашу дружбу, козявка.",
      "JPja": "表面的な　付き合いだけじゃ\n高が知れてるっつーか、\nなーんも　わかんねぇんだよな\n(nickname)、オメェとは\nずいぶん　わかり合えた　気がするぜ、",
      "KRko": "형식적인 교류만 해서는\n결과가 뻔하다고 해야 할까\n상대에 대해 아무것도 알 수 없잖냐\n그래도 (nickname)\n너랑은 꽤 깊이 친해진 것 같아, ",
      "TWzh": "如果只是做做樣子，\n那頂多也就是泛泛之交吧。\n對彼此根本不會有多少了解。\n不過，(nickname)啊，\n我覺得我們已經相當了解彼此囉，。",
      "USen": "Y'know, if you get to really know just\na handful of people in your whole\nlife, then you're pretty lucky.\nI mean REALLY know 'em, like what\nkinda snack they eat when they\nwatch their favorite movie, see.\nAnyhow, I guess I'm tryin' to say\nthat I think we got a real nice\nfriendship goin', kiddo.",
      "USes": "¿Sabes? Si en la vida llegas\na conocer cuatro o cinco personas,\nte puedes sentir afortunado.\nMe refiero a conocer realmente\na alguien: qué películas le gustan,\nsus secretos más vergonzosos...\nBueno, lo que quiero decir es que\nme siento feliz de que tú y yo\nseamos tan buenos amigos.",
      "USfr": "Dans la vie, on peut s'estimer\nheureux de bien connaître une\npoignée de personnes.\nEt par « bien connaître », je veux\ndire « ⁠VRAIMENT bien connaître ».\nComme savoir quel est leur fruit\nou leur film préféré. T'es pas de\ncet avis?"
    }
  },
  {
    "label": "201",
    "attribute": "0x0000000000000000",
    "locale": {
      "CNzh": "有些时候只有说出内心的真实想法，\n才能做到相互理解啊……\n今后也请多指教啦，\n(nickname)！",
      "EUde": "Hoffe, dir ist klar, dass du mit mir\nüber alles palavern kannst. Egal,\nwelches Thema, (Floskel)!\nUmgekehrt halt ich mich ja auch\nnicht zurück! Gra ha ha ha!",
      "EUen": "So, I hope you feel like you can\nsay anything to me, kiddo. No filter,\nright? Is that what they say?\nBecause I sure feel like I can tell\nyou anything! And for once I'm not\njokin' around. Gahaha!",
      "EUes": "Sabes que a mí me puedes contar\nlo que sea, ¿no? Puedes confiar\ntotalmente en mí.\nPorque yo siento que puedo\nconfiarte todos mis secretos, y esta\nvez no estoy de broma, ¡ja, ja, ja!",
      "EUfr": "J'espère que tu sais qu'avec moi,\ntu peux parler franchement, gamin.\nPas de chichis entre nous, d'accord ?\nY a que comme ça qu'on peut établir\nune relation de confiance. Ha ha !",
      "EUit": "Sai che con me puoi parlare di tutto\napertamente, vero?\nPuoi andare \"dritto al nocciolo\"...\nSi dice così? E che avrà mai di così\ngustoso questo nocciolo... AHAHAH!\nPerché per me è proprio così.\nE per una volta, non scherzo,\n!",
      "EUnl": "Ik hoop dat je weet dat je me alles\nkunt vertellen, jochie. Geen filter,\noké? Dat zegt de jeugd toch?\nWant ik weet zeker dat ik jou alles\nkan vertellen! En ik meen het, het is\ngeen grap. Bwahaha!",
      "EUru": "Козявка, я тут хотел сказать... Ты\nсо мной всегда можешь поговорить\nпо душам, если что? Ладно?\nМежду нами никаких секретов!\nРазве что если я что-то позабуду!\nБу-га-га!",
      "JPja": "本音で　ぶつかり合ってこそ\nわかり合えることって　あるんだよな・・・\nこれからも　よろしく頼むぜ、\n(nickname)！",
      "KRko": "진심을 갖고 대해야\n서로를 제대로 이해하게 되는 법이지...\n앞으로도 잘 부탁한다\n(nickname)!",
      "TWzh": "有時候要勇於向對方說出真心話，\n才算互相理解吧……\n(nickname)，\n以後也請你多多關照啦！",
      "USen": "So, I hope you feel like you can\nsay anything to me, kiddo. No filter,\nright? Is that what they say?\nBecause I sure feel like I can tell\nyou anything! And for once I'm not\njokin' around. Gahaha!",
      "USes": "Sabes que a mí me puedes contar\nlo que sea, ¿no? Puedes confiar\ntotalmente en mí.\nPorque yo siento que puedo contarte\ntodos mis secretos, bueno, solo los\nque ya saben todos, ¡ja, ja, ja!",
      "USfr": "J'espère que tu sais qu'avec moi,\ntu peux parler franchement, le jeune.\nPas de façons entre nous, d'accord?\nY'a que comme ça qu'on peut établir\nune relation de confiance. Ha ha!"
    }
  },
  {
    "label": "202",
    "attribute": "0x0000000000000000",
    "locale": {
      "CNzh": "总觉得和你之间的距离\n又拉近了一些啊……。",
      "EUde": "Zwischen uns passt kein Blatt Papier,\n(Spitzname).\nDu erwartest jetzt sicher einen\naltklugen Witz, aber da kommt keiner.\nDu bist ein guter Freund für mich!",
      "EUen": "I consider you a true friend,\n(nickname). No snark, no\nsarcasm...just me bein' real.",
      "EUes": "Eres un verdadero amigo,\n(nickname). Y, como ves,\nlo digo totalmente en serio.",
      "EUfr": "J'te considère vraiment comme\nquelqu'un sur qui on peut compter,\n(surnom).\nEt je dis ça sans aucun sarcasme.\nC'est le cœur qui parle.",
      "EUit": "La mia amicizia per te è sincera,\n(nickname). E non sono\nsarcastico... È la pura verità.",
      "EUnl": "Jij bent een echte vriend, (nickname). Niet sarcastisch bedoeld... Ik meen het.",
      "EUru": "(nickname), ты настоящий\nдруг! Я не шучу, если что... А то\nмало ли...",
      "JPja": "なんか　オメェとの距離が\n一歩縮まった　気がするぜ・・・、",
      "KRko": "왠지 너와의 거리가\n한 걸음 가까워진 느낌이 들어... ...",
      "TWzh": "總覺得我們之間的距離，\n好像又縮短了一點……。",
      "USen": "I consider you a true friend,\n(nickname). No snark, no\nsarcasm...just me bein' real.",
      "USes": "Eres un verdadero amigo,\n(nickname). Y, como ves,\nlo digo totalmente en serio.",
      "USfr": "J'te considère vraiment comme\nquelqu'un sur qui on peut compter,\n(surnom).\nEt je dis ça sans aucun sarcasme.\nC'est le cœur qui parle."
    }
  }
]