﻿[
  {
    "label": "001",
    "attribute": "0x0000000000000000",
    "locale": {
      "CNzh": "今天～我有一份特别准备的礼物\n要送给你呢～\n这个～请收下～",
      "EUde": "Hallihallo, (Spitzname)!\nRate mal, was ich hier habe!\nEin Geschenk für dich! Nimm!",
      "EUen": "Hey, (nickname), guess what!\nI've got something special for you\ntoday! It's a present! Here, take it.",
      "EUes": "¡Ah, (nickname)! Tengo una sorpresa para ti... ¡Ni te lo imaginas! ¡Es un regalo! Toma, para ti.",
      "EUfr": "Tu sais quoi, (surnom) ?\nAujourd'hui, j'ai un cadeau pour toi !\nTiens, j'espère que ça te plaira !",
      "EUit": "Ehilà, (nickname)! Indovina! Oggi ho qualcosa di speciale per te! È un regalo! Ecco, prendi.",
      "EUnl": "Hoi, (nickname), raad eens! Ik heb iets speciaals voor je! Het is een cadeautje! Hier, alsjeblieft!",
      "EUru": "Слушай, (nickname)! Сегодня\nя хочу тебя чем-то порадовать!\nДержи — это тебе.",
      "JPja": "今日は　に\nとっておきの　プレゼントがあるんだぁ～\nコレ、うけとってぇ～",
      "KRko": "오늘은 한테 줄\n비장의 선물을 준비했어～\n이걸 받아줘어～",
      "TWzh": "今天我有個神祕小禮物\n要送給喔～\n這個，請你收下吧～",
      "USen": "Hey, (nickname), guess what!\nI've got something special for you\ntoday! It's a present! Here, take it.",
      "USes": "¡Adivina qué, (nickname)!\nTengo algo ultraespecial.\n¡Es un regalo! De mí para ti.",
      "USfr": "Tu sais quoi, (surnom)?\nAujourd'hui, j'ai un cadeau pour toi!\nTiens, j'espère que ça te plaira!"
    }
  },
  {
    "label": "002",
    "attribute": "0x0000000000000000",
    "locale": {
      "CNzh": "我有一个请求……\n希望你可以收下\n这！",
      "EUde": "Hey! Ich würd dir gern was schenken.\n!",
      "EUen": "Hey! I want ya to have this here\n!",
      "EUes": "Oye, ¿te importaría quedarte con  que tengo aquí?",
      "EUfr": "Tiens ! C'est  pour toi !",
      "EUit": "Ehilà, vorrei darti una cosa. Ecco\n!",
      "EUnl": "Hé! Ik heb iets voor je! Alsjeblieft,\n!",
      "EUru": "Слушай! Хочу отдать тебе\n!",
      "JPja": "ボク、おねがいがあるんだけど・・・\nこの　、\nキミに　もらってほしいんだぁ！",
      "KRko": "나, 너한테 부탁이 있는데에～...\n이 을\n너가 받아줬으면 좋겠어～",
      "TWzh": "其實我有事情想拜託你……\n這是，\n希望你可以收下！",
      "USen": "Hey! I want ya to have this here\n!",
      "USes": "Oye, ¿te puedes quedar con  que tengo aquí?",
      "USfr": "Tiens! C'est  pour toi!"
    }
  },
  {
    "label": "003",
    "attribute": "0x0000010000000000",
    "locale": {
      "CNzh": "啊～！～！\n太好了，能在这里遇到你～\n你一直在找的\n，\n我终于找到了～。",
      "EUde": "Wie gut, dass ich dich treffe! \nIch suche dich schon ewig.\nGefühlt zumindest! Wenn ich nicht\nein Schläfchen halte, scheint die\nZeit stillzustehen...\nÄh, he he he. Jedenfalls hab ich\ngefunden, wonach du gesucht hast. \n !",
      "EUen": "Oh! I'm glad I ran into you! Feels like\nI've been looking for you forever.\nBuuuut...any time off my couch feels\nlike forever, so it mighta only been\na few minutes...\nAnyway, I found that thing you were\nlooking for. Ya know...the, um...\nthe ?",
      "EUes": "¡Ah! ¡Qué bien haberte encontrado!\nMe da la impresión de que llevo\ntoda la vida buscándote.\nEs que... todo el tiempo que estoy\nlejos del sofá me parece una\neternidad... aunque sea solo un rato.\nBueno, quería darte algo que\nquerías. Ya sabes,\n.",
      "EUfr": "Ah ! Te voilà, (surnom) !\nÇa fait des heures que je te cherche.\nOu des secondes... Dès que je me\nlève de mon canapé, le temps semble\npasser au ralenti...\nEnfin bref, j'ai enfin trouvé  que tu cherchais,  !",
      "EUit": "Oh! Sono felice di essermi imbattuto\nin te! Mi sembra di cercarti da una\nvita, .\nMa ogni secondo lontano dal mio\ndivano mi pare un'eternità, quindi\npotrebbe essere solo da poco...\nAd ogni modo, ho sentito che stavi\ncercando una cosa... Insomma, avrei\n...",
      "EUnl": "O! Ik ben blij dat ik je tegenkom!\nVoor mijn gevoel ben ik al eeuwen\nnaar je op zoek.\nOf... waren het een paar minuten?\nHet voelt altijd als een eeuwigheid\nals ik niet op de bank zit...\nMaar goed, ik wilde zeggen dat ik\nwat voor je heb. Jij wilt toch graag\n?",
      "EUru": "О! Хорошо, что я тебя встретил!\nЯ тебя уже сто лет ищу.\nХотя... любое время вдали от моего\nдивана мне кажется вечностью, так\nчто могло пройти всего пару минут.\nВ общем, я нашел то, что ты искал.\nНу это, как его? Сейчас скажу. О!\n!",
      "JPja": "あ！　！\n会えて　よかったよぉ～\nキミの　さがしてた\n、\nやっと　見つけたんだぁ～、",
      "KRko": "앗! 아～!\n마침 잘 만났다아～\n너가 찾아다니던\n,\n드디어 구했거드은～ !",
      "TWzh": "啊！～！\n這時候遇見你，真是太巧了～\n這是你一直在找的\n，\n我終於找到它了～。",
      "USen": "Oh! I'm glad I ran into you! Feels like\nI've been looking for you forever.\nBuuuut...any time off my couch feels\nlike forever, so it mighta only been\na few minutes...\nAnyway, I found that thing you were\nlooking for. Ya know...the, um...\nthe ?",
      "USes": "¡Ah! ¡Qué bueno que te encuentro!\nSiento que llevo medio siglo\nbuscándote. Pasa que...\nCada minuto que paso fuera\nde mi sofá parece una eternidad...\nComo sea, quería darte algo que\nsé que querías. Ya sabes...\n.",
      "USfr": "Ah! Te voilà, (surnom)!\nÇa fait des heures que je te cherche.\nOu des secondes... Dès que je me\nlève de mon canapé, le temps semble\npasser au ralenti...\nEnfin bref, j'ai enfin trouvé\n que tu cherchais, !"
    }
  },
  {
    "label": "003_a",
    "attribute": "0x0000000000000000",
    "locale": {
      "CNzh": "我没有在找这个呢",
      "EUde": "Ich? Gesucht?",
      "EUen": "Was I looking for that?",
      "EUes": "¿Quería yo eso?",
      "EUfr": "Je cherchais pas ça.",
      "EUit": "Non mi pare.",
      "EUnl": "Wil ik dat?",
      "EUru": "Разве я это искал?",
      "JPja": "探してないよ",
      "KRko": "찾은 적 없는데?",
      "TWzh": "我沒在找這個耶",
      "USen": "Was I looking for that?",
      "USes": "¿Eso quería?",
      "USfr": "Je cherchais pas ça."
    }
  },
  {
    "label": "003_b",
    "attribute": "0x0000000000000000",
    "locale": {
      "CNzh": "你指的是什么？",
      "EUde": "Äh... wie bitte?",
      "EUen": "Umm... What?",
      "EUes": "Eh... ¿qué?",
      "EUfr": "De quoi tu parles ?",
      "EUit": "Ehm... Di che parli?",
      "EUnl": "Eh... wat?",
      "EUru": "Э... Ты о чем?",
      "JPja": "なんのこと？",
      "KRko": "무슨 말이야?",
      "TWzh": "什麼意思？",
      "USen": "Umm... What?",
      "USes": "¿De qué hablas?",
      "USfr": "De quoi tu parles?"
    }
  },
  {
    "label": "004",
    "attribute": "0x0000000000000000",
    "locale": {
      "CNzh": "我呀～\n一不小心，\n买了两个～\n该怎么办呢～？\n一次也用不了两个……\n对了～！！\n给你一个吧，好不好？",
      "EUde": "Ich hab ein bisschen gepennt und\nmir aus Versehen \n besorgt.\nDamit kann ich eigentlich gar nichts\nanfangen! So was braucht man ja\nnicht doppelt.\nBrauchst du nicht vielleicht \n?",
      "EUen": "I, um, spaced out and I bought a\nsecond .\nI dunno what to do! I mean, it's not\nlike I'm gonna be using two of these\nthings at once...\nOh, I know! Do you want one of 'em?",
      "EUes": "Resulta que quería comprarme\n, pero me despisté y compré dos.\nAhora tengo  de más que\nno me sirve para nada...\n¿Quieres  que me sobra?",
      "EUfr": "Je sais pas où j'avais la tête,\nmais j'ai acheté un deuxième\n...\nJe sais pas trop quoi faire, c'est\npas comme si j'allais en utiliser deux\nen même temps, ...\nAh, je sais ! Tu voudrais pas en\nprendre un, (surnom) ?",
      "EUit": "Mi sono distratto più del solito e\nho comprato un doppio esemplare\ndi .\nNon so proprio che farmene!\nE non ho più spazio in casa,\no io o quell'affare...\nCi sono! Non è che vuoi tu \ndi troppo, ?",
      "EUnl": "Ik ben dom geweest. Ik heb  te veel gekocht bij het boodschappen doen.\nIk weet niet wat ik ermee moet,\nwant ik heb er zelf niks aan...\nO, ik weet wat! Wil jij  hebben?",
      "EUru": "Знаешь, я отвлекся и еще раз купил\n.\nТеперь не знаю, как быть.\nЗачем мне сразу два?\nПридумал! Ты не заберешь\nу меня один? А то лишнего\nи так хватает...",
      "JPja": "ボク　うっかりしてて\nを\nふたつも　買っちゃったんだよねぇ～\nどうしようかなぁ\nいちどに　ふたつも　つかわないし・・・\nそうだ　！\nキミ　もらってくれない～？",
      "KRko": "나, 실수로 그만\n을\n두 개나 사버렸지 뭐야아～\n어떡하지～\n두 개까진 필요 없는데에...\n그래, 아!\n너가 가져라～!",
      "TWzh": "我買東西的時候啊～\n不小心買了兩個一樣的\n～\n該怎麼辦啊～？\n一次又用不到兩個……\n對了，！\n你願不願意收下這個啊～？",
      "USen": "I, um, spaced out and I bought a\nsecond .\nI dunno what to do! I mean, it's not\nlike I'm gonna be using two of these\nthings at once...\nOh, I know! Do you want one of 'em?",
      "USes": "Resulta que quería comprar\n,\n¡pero sin querer compré el doble!\nAhora ya no sé qué hacer...\n¡Ya sé! ¿Y si te comparto\nlo que me sobra?",
      "USfr": "Je sais pas où j'avais la tête,\nmais j'ai acheté un deuxième\n...\nJe sais pas trop quoi faire, c'est\npas comme si j'allais en utiliser deux\nen même temps, ...\nAh, je sais! Tu voudrais pas en\nprendre un, (surnom)?"
    }
  },
  {
    "label": "100",
    "attribute": "0x0000000000000000",
    "locale": {
      "CNzh": "是哦～\n希望你能喜欢呢～。",
      "EUde": "!\nIch hab  gesehen und gleich an\ndich gedacht!\nHoffentlich gefällt  dir.",
      "EUen": "!\nI saw it and thought of you!\nI hope ya like it!",
      "EUes": "Es . Al verl, me he acordado de ti al instante.",
      "EUfr": "C'est  !\nQuand je l'ai vu, j'ai tout de suite\npensé à toi. J'espère qu' te plaît.",
      "EUit": "È ! Quando l'ho  ho pensato subito a te, perciò spero che ti piaccia.",
      "EUnl": "Ik zag tijdens het winkelen   en  me echt iets voor jou.",
      "EUru": "Это !\nЯ его увидел, вспомнил о тебе\nи решил купить. Надеюсь, ты рад.",
      "JPja": "だよぉ\n気に入ってくれると　うれしいなぁ、",
      "KRko": "이야!\n니 마음에 들면 좋겠다아～ !",
      "TWzh": "這是唷。\n希望你喜歡～。",
      "USen": "!\nI saw it and thought of you!\nI hope ya like it!",
      "USes": "¡Se trata de !\nAl verl, me acordé de ti.",
      "USfr": "C'est !\nQuand je l'ai vu, j'ai tout de suite\npensé à toi. J'espère qu' te plaît."
    }
  },
  {
    "label": "101",
    "attribute": "0x0000000000000000",
    "locale": {
      "CNzh": "这个，\n要是能帮上你的忙，那就太好了！。",
      "EUde": " !\nSo was hast du doch hoffentlich\nnoch nicht...",
      "EUen": "!\nI hope you don't got one already!",
      "EUes": "¡!\nAy, a lo mejor ya  tienes...",
      "EUfr": "C'est  !\nJ'espère que tu en as pas déjà un...",
      "EUit": "È ! Spero solo che tu non ce l'abbia già, .",
      "EUnl": "Ik heb voor jou  ! Hopelijk heb je zoiets nog niet!",
      "EUru": "Это !\nНадеюсь, у тебя его еще нет.",
      "JPja": "その　が、\nキミの　やくに立つと　いいなぁ！　",
      "KRko": "이 ,\n너가 잘 써주면 좋겠어～ !",
      "TWzh": "如果\n能派得上用場，我也會很開心的～。",
      "USen": "!\nI hope you don't got one already!",
      "USes": "¡!\nAy, a lo mejor ya tenías...",
      "USfr": "C'est !\nJ'espère que tu en as pas déjà un..."
    }
  },
  {
    "label": "200",
    "attribute": "0x0000000000000000",
    "locale": {
      "CNzh": "因为一直没用过，\n还像新的一样呢～\n～\n我猜～你会喜欢这个的吧～。",
      "EUde": "Ich hab mir das Ding besorgt,\nweil ich dachte, ich würde es\nbestimmt dauernd benutzen.\nAber da hab ich mich wohl total\nverschätzt, (Floskel)...\nNa ja... Vielleicht gefällt's dir ja!",
      "EUen": "I got it 'cause I thought I'd use it,\nI dunno...all of the time? Probably?\nBut I've barely touched it!\nIt's in real good shape, and seems\nlike the kinda thing you'd enjoy.\nSo it's all yours if ya want it!",
      "EUes": "Pensaba que me serviría para algo,\npero... al final, nada de nada.\n¡Si es que estoy en la parra!\nSeguro que tú le das mejor uso\nque yo, (nickname).",
      "EUfr": "Je pensais que j'en aurais l'utilité,\nmais en fait je m'en suis jamais servi,\nil faut juste l'épousseter un peu...\nJe me suis dit que c'était le\ngenre de chose qui te plairait,\n(surnom).",
      "EUit": "Contrariamente alle previsioni, non\nci ho fatto niente di niente... quindi\nè una novità assoluta!\nE mi pare il genere di cosa che piace\na te, di solito. Ho indovinato i tuoi\ngusti, (nickname)?",
      "EUnl": "Ik dacht dat ik er wel vaak gebruik\nvan zou maken, maar... ik heb er\nnauwelijks aangezeten!\n nog helemaal gloednieuw! \n me wel iets voor jou, dus\nals je wilt mag je  hebben.",
      "EUru": "Я думал, что мне это обязательно\nнадо, но... почти не пользовался.\nВ отличном состоянии! Мне\nкажется, ты такое любишь. Так что,\nесли хочешь, бери!",
      "JPja": "ずっと　つかってなかったから\nとっても　キレイだよぉ～\n\nこういうの、スキかなと思ってぇ～、",
      "KRko": "여태껏 안 쓰던 거라\n새것처럼 깨끗해～\n\n너 이런 걸 좋아할 거 같아서어～ !",
      "TWzh": "我完全沒用過，\n所以保存狀況非常好唷～\n不知道\n會不會喜歡這個～。",
      "USen": "I got it 'cause I thought I'd use it,\nI dunno...all of the time? Probably?\nBut I've barely touched it!\nIt's in real good shape, and seems\nlike the kinda thing you'd enjoy.\nSo it's all yours if ya want it!",
      "USes": "Pensaba que me serviría para algo,\npero... al final, nada de nada.\nSeguramente tú le das mejor uso\nque yo, (nickname).",
      "USfr": "Je pensais que j'en aurais l'utilité,\nmais en fait je m'en suis jamais servi.\nIl faut juste l'épousseter un peu...\nJe me suis dit que c'était le\ngenre de chose qui te plairait,\n(surnom)."
    }
  },
  {
    "label": "201",
    "attribute": "0x0000000000000000",
    "locale": {
      "CNzh": "我希望～\n能一直和你关系这么好～\n这个就当作我们是好朋友的证明！。",
      "EUde": "Das Ding ist toll und du bist es\nauch... Sieh es als Zeichen unserer\nFreundschaft, (Floskel)!",
      "EUen": "I thought it was awesome, and I think\nyou're awesome—so it seemed like\na real perfect symbol of buddyship!",
      "EUes": "A mí tú me pareces la repanocha,\nasí que quería darte algo a la altura\ncomo símbolo de amistad.",
      "EUfr": "Un super cadeau pour un super\ncopain ! Ce sera le symbole de\nnotre amitié,  !",
      "EUit": "Ero sicuro che non ci fosse niente\ndi meglio al mondo... e poi me ne\nsono dimenticato fino a ora...\n... quando ho capito che sarebbe\nstato il perfetto pegno della nostra\namicizia, !",
      "EUnl": "Ik vind  geweldig en jij bent\ngeweldig, dus het leek me een\nperfect vriendschapsgeschenk!",
      "EUru": "Классные вещи — классным\nсоседям! Ведь это отличный знак\nнашей дружбы!",
      "JPja": "キミとは　ずっと\nなかよしで　いたいんだぁ～\nおともだちのシルシだよぉ、",
      "KRko": "너랑 앞으로도 쭉\n사이좋게 지내고 싶어～\n우정의 증표야아, ～",
      "TWzh": "我希望\n能永遠跟你當朋友～\n這個是我們之間友情的證明唷，。",
      "USen": "I thought it was awesome, and I think\nyou're awesome—so it seemed like\na real perfect symbol of buddyship!",
      "USes": "Eres la persona más increíble que conozco, por eso quería darte algo\ncomo símbolo de nuestra amistad.",
      "USfr": "Un super cadeau pour un super\ncopain! Ce sera le symbole de\nnotre amitié, !"
    }
  },
  {
    "label": "202",
    "attribute": "0x0000000000000000",
    "locale": {
      "CNzh": "前不久～我抽奖抽中了这个～\n不过我已经有一个一样的了～\n扔掉又太可惜了，\n要是你能收下的话，那就最好啦～\n也算是分享我的好运吧～。",
      "EUde": "Ich, äh, hab das letztens gewonnen,\naber ich hab so was leider schon\ndaheim, (Floskel).\nHmmm... Einfach so wegwerfen\nwollt ich's aber auch nicht...\nJedenfalls hab ich mir gestern beim\nChipsknabbern überlegt, dass du's\nhaben solltest!",
      "EUen": "I won this thing in a giveaway,\nbut I already had one.\nThe bugs living in my floor said\nya might like it, so here ya go!\nThose bugs are usually right too!",
      "EUes": "El otro día gané un premio en una\nrifa, pero... era algo que ya tenía.\nLa basura me pareció una opción\nun pelín drástica, así que\n¡para ti para siempre!",
      "EUfr": "J'ai gagné ça à une tombola l'autre\njour, mais j'avais déjà exactement le\nmême modèle à la maison.\nEt je ne voudrais pas jeter quelque\nchose de tout neuf, alors je me suis\ndit que ça t'intéresserait peut-être.",
      "EUit": "Ho vinto questo affare a una lotteria\ndi una sagra... però ce l'ho già.\nMa siccome non si butta via niente,\nmi sono chiesto... Chissà che non\nlo voglia (nickname)!",
      "EUnl": "Ik, eh, heb  zomaar\ngewonnen, maar... ik had al zoiets.\nWeggooien is zonde, en de beestjes\nin de muur dachten dat het wel iets\nvoor jou was!",
      "EUru": "Я как-то выиграл кое-что, но...\nтакое у меня уже есть.\nЖалко же просто выбросить. Мои\nжуки мне посоветовали отдать\nэто тебе.",
      "JPja": "この前、くじ引きで当たったんだけど、\nボク　同じの　もってるんだよねぇ～\nすてちゃうのも　もったいないし、\nもらってくれると　たすかるんだぁ\nこううんの　おすそわけだよぉ～、",
      "KRko": "저번에 경품 추첨에 당첨됐는데\n난 똑같은 걸 벌써 갖고 있거든～\n그렇다고 버리기도 아까우니까\n너가 받아주면 좋겠어!\n좋은 건 서로 나눠야지이～ !",
      "TWzh": "這是我之前抽獎抽中的，\n但是我有個一模一樣的了～\n要是丟掉的話感覺有點浪費，\n希望你願意收下～\n讓我把幸運分享給你吧～。",
      "USen": "I won this thing in a giveaway,\nbut I already had one.\nThe bugs living in my floor said\nya might like it, so here ya go!\nThose bugs are usually right too!",
      "USes": "El otro día gané un premio\nen una rifa, pero... era algo\nque ya tenía.\nTirarlo a la basura era una opción\nmuy extrema, así que ¡toma!",
      "USfr": "J'ai gagné ça dans un tirage l'autre\njour, mais j'avais déjà exactement le\nmême modèle à la maison.\nEt je ne voudrais pas jeter quelque\nchose de tout neuf, alors je me suis\ndit que ça t'intéresserait peut-être."
    }
  },
  {
    "label": "300",
    "attribute": "0x0000000000000000",
    "locale": {
      "CNzh": "诶～？！\n是我搞错了吗～？\n唉～算了～\n总之你先收下吧～！",
      "EUde": "Nicht? Vielleicht hab ich das ja nur\ngeträumt... Ich komme da manchmal\ndurcheinander.\nNa ja! Ist ja auch egal, wie ich\ndrauf gekommen bin... Jetzt\ngehört's jedenfalls dir!",
      "EUen": "Huh? Maybe it was a dream I had?\nSometimes it's kinda hard to tell\ndreams and, um, not-dreams apart...\nOh well! Ain't important, 'cause it's\nyours now, (catchphrase)!",
      "EUes": "Anda... A ver si lo he soñado...\nEntre siesta y siesta, me sonaba\nhaber oído algo así...\n¡Bueno, no importa! ¡Es un regalito,\nasí que no me hagas el feo de no\naceptarlo!",
      "EUfr": "Hein ?! Est-ce que j'aurais rêvé ?\nParfois, j'ai du mal à faire la\ndifférence entre rêve et réalité...\nBah, peu importe ! C'est à toi,\nmaintenant,  !",
      "EUit": "Oh, allora mi sono sognato tutto\nquanto, ?\nSai, a volte confondo sogni e realtà...\nMa ora non importa! Prendi pure e\nbuon pro ti faccia!",
      "EUnl": "Huh? Misschien was het een droom...\nHet kan lastig zijn om dromen en het\nechte leven uit elkaar te houden...\nMaar goed, het maakt niet uit hoe\nik het wist. Veel plezier ermee!",
      "EUru": "Разве нет? Может, мне это только\nприснилось... Иногда мне сложно\nразобраться, где сон, а где... нет.\nНу ничего! Неважно, с чего я взял,\nчто тебе это надо. Держи, это твое.",
      "JPja": "ええっ？！\nボクの　かんちがいだったのぉ？\nまぁ、いっかぁ～\nとにかく　うけとってぇ～！",
      "KRko": "에엥～?!\n내가 착각한 거야아?\n뭐, 괜찮아～\n암튼 받아줘어～!",
      "TWzh": "什麼！？\n原來是我誤會了嗎？\n不過，沒關係啦～\n總之你就收下吧～！",
      "USen": "Huh? Maybe it was a dream I had?\nSometimes it's kinda hard to tell\ndreams and, um, not-dreams apart...\nOh well! Ain't important, 'cause it's\nyours now, (catchphrase)!",
      "USes": "Ayyy... Quizá lo soñé...\nSeguro te metiste en mi sueño\ny me dijiste... ¡Bueno, no importa!\n¡Quiero que aceptes mi regalo!",
      "USfr": "Hein?! Est-ce que j'aurais rêvé?\nParfois, j'ai du mal à faire la\ndifférence entre rêve et réalité...\nBah, peu importe! C'est à toi,\nmaintenant, !"
    }
  },
  {
    "label": "301",
    "attribute": "0x0000000000000000",
    "locale": {
      "CNzh": "咦～？是我搞错了吗～？\n……唉～算了～\n总之你先收下吧～\n我以为这就是你要找的东西，\n所以才买下来的～\n你就别客气啦～",
      "EUde": "Wie meinst du das? Willst du das\nTeil etwa nicht haben? Dafür ist es\njetzt aber zu spät! Gehört schon dir!\nIRGENDWIE hab ich im Kopf, dass du\nnach genau so was gesucht hast!\nDu kannst's also nicht NICHT\nannehmen! (Floskel)!",
      "EUen": "Whaddaya mean, \"what\"?\nYa don't want it? For real?\nSomehow I got it in my head you\nwere looking for that, sooo...\nya can't, um, NOT take it!",
      "EUes": "¿Qué quiere decir eso de «qué»?\nNo me digas que no te hace ilusión\nel detalle... ¡Da igual, para ti!\nMe había hecho a la idea de que\nte haría falta, así que ahora no me\nhagas el feo. ¿Vale?",
      "EUfr": "Comment ça, de quoi je parle ?\nTu en veux pas ? Eh ben, trop tard !\nC'est à toi, maintenant !\nJe m'étais mis dans la tête que\nc'était ce que tu voulais, alors\ntu peux pas refuser ! C'est cadeau !",
      "EUit": "Come sarebbe, \"Di che parli?\". Vuoi\ndire che mi sono sbagliato? Beh, ora\nè tardi per riavere le stelline indietro.\nDai, fa lo stesso, no? Dopotutto,\nera qualcosa di pensato apposta\nper te, !",
      "EUnl": "Hoezo \"wat\"? Doe ik je er geen\nplezier mee? Het is nu al te laat,\ndus veel plezier ermee!\nOp de een of andere manier wist ik\nzeker dat je dit wilde, dus dan is het\nal van jou! !",
      "EUru": "Что значит «Ты о чем?» Тебе это\nразве не надо? Ой! Теперь поздно.\nПридется все-таки взять.\nЯ с чего-то взял, что оно тебе\nнужно, поэтому ты не можешь\nотказаться. !",
      "JPja": "あれぇ？　ちがったぁ？\n・・・ま、いいやぁ！\nとりあえず　うけとってぇ～\nキミが　さがしてるモノだと思って\n買っちゃったんだから、\nエンリョは　いらないよぉ～",
      "KRko": "어라? 아닌가아?\n...뭐, 됐어!\n일단 받아줘～\n어차피\n너한테 주려고 산 거니까\n사양할 필요 없어～ !",
      "TWzh": "什麼？我弄錯了嗎？\n……沒關係，不用想這麼多啦！\n總之你先收下吧～\n我以為你在找這個，\n所以一開始就是為了你買下來的，\n不用客氣啦～",
      "USen": "Whaddaya mean, \"what\"?\nYa don't want it? For real?\nSomehow I got it in my head you\nwere looking for that, sooo...\nya can't, um, NOT take it!",
      "USes": "¿Cómo que \"de qué hablo\"?\nNo me vayas a salir con que no\nquieres aceptar el obsequio.\nEn mi mente pensé que te hacía\nfalta, así que tienes prohibido\nhacerme el feo. ¡Toma!",
      "USfr": "Comment ça, de quoi je parle?\nTu en veux pas? Eh ben, trop tard!\nC'est à toi, maintenant!\nJe m'étais mis dans la tête que\nc'était ce que tu voulais, alors\ntu peux pas refuser! C'est cadeau!"
    }
  },
  {
    "label": "302",
    "attribute": "0x0000000000000000",
    "locale": {
      "CNzh": "有机会的话，你记得用用看～\n这可是我的一片心意呢～。",
      "EUde": "Viel Spaß damit!",
      "EUen": "Anyway, if I was dreamin' or not,\nI hope ya like it, (catchphrase).",
      "EUes": "Espero que te guste y que te traiga\nfelices sueños a ti también.",
      "EUfr": "En tout cas, j'espère que ça\nte plaît. Peut-être que ça te\nfera rêver de moi.",
      "EUit": "Potrebbe anche non piacerti, però\nmagari ti farà fare sogni belli come\ni miei, .",
      "EUnl": "Hopelijk heb je er wat aan. Misschien\nkrijg je er ook wel mooie dromen van!",
      "EUru": "Надеюсь, ты все равно рад. Пусть\nтебе тоже снятся хорошие сны.",
      "JPja": "よかったら　つかってみてよぉ～\nボクの　キモチだからねぇ、",
      "KRko": "괜찮으면 한번 써봐아～\n내 마음이야, ～",
      "TWzh": "如果你不嫌棄的話，就用用看吧～\n畢竟這是我的心意呀，。",
      "USen": "Anyway, if I was dreamin' or not,\nI hope ya like it, (catchphrase).",
      "USes": "¡Espero que te guste!",
      "USfr": "En tout cas, j'espère que ça\nte plaît. Peut-être que ça te\nfera rêver de moi."
    }
  },
  {
    "label": "303",
    "attribute": "0x0000000000000000",
    "locale": {
      "CNzh": "希望你\n能够喜欢这个礼物～。",
      "EUde": "Ich hoffe, dir gefällt's... Auch wenn\ndu selbst gar nicht danach gesucht\nhast! Oder es überhaupt wolltest...",
      "EUen": "Hope you like it...even if it wasn't\nsomething you were looking for!\nOr wanted...",
      "EUes": "Decidido: para ti y te dejo, que voy\na echarme una cabezadita.",
      "EUfr": "J'espère que ça te plaît, même\nsi c'est pas quelque chose que\ntu cherchais !",
      "EUit": "Spero che ti piaccia lo stesso, anche\nse non te l'aspettavi, ecco.",
      "EUnl": "Hopelijk heb je er wat aan... ook al\nwas je er niet echt naar op zoek! En\nwil je het ook niet echt...",
      "EUru": "Надеюсь, ты рад... даже если тебе\nэта вещь совсем ни к чему.",
      "JPja": "が\n気に入ってくれると　うれしいなぁ、",
      "KRko": "아,\n니 마음에 들면 좋겠다아～ !",
      "TWzh": "希望會喜歡～。",
      "USen": "Hope you like it...even if it wasn't\nsomething you were looking for!\nOr wanted...",
      "USes": "Si era algo que no querías,\nno importa... en algún momento\nte gustará y me agradecerás.",
      "USfr": "J'espère que ça te plaît, même\nsi c'est pas quelque chose que\ntu cherchais!"
    }
  },
  {
    "label": "400",
    "attribute": "0x0000000000000000",
    "locale": {
      "CNzh": "诶嘿嘿～这样，\n我们就可以凑一对了呢～。",
      "EUde": "Jetzt hast du was, was ich auch\nhab! Vielleicht werden wir noch\nZwillinge! Äh, he he he!",
      "EUen": "Now we've got matching stuff!\nA huh huh huh!",
      "EUes": "Ya tenemos cosas iguales, así que\n«teoríficamente» estamos más cerca\nde ser gemelos... ¡Je, je, je!",
      "EUfr": "Maintenant, on est assorti !\nOn est presque des jumeaux,\nhé hé hé !",
      "EUit": "Un po' alla volta avremo anche\nle stesse cose... Un altro passo\nsulla via per diventare gemelli!",
      "EUnl": "Nu hebben we dezelfde dingen!\nMisschien denken de anderen nu...\ndat we een tweeling zijn! Gheghe!",
      "EUru": "Теперь у нас одинаковые вещи.\nЕще чуть-чуть, и мы станем\nблизнецами... У-ху-ху-ху!",
      "JPja": "うふふ、ボクたち\nおそろいってことだねぇ～、",
      "KRko": "우후훗, 마치 우정의 아이템을\n나눠 가진 것 같다아～ ～",
      "TWzh": "呵呵，這樣一來\n我們就湊成一對了呢～。",
      "USen": "Now we've got matching stuff!\nA huh huh huh!",
      "USes": "Ya tenemos cosas iguales, así que\n\"teofóricamente\" estamos más cerca\nde ser gemelos...  ¡Je, je, je!",
      "USfr": "Maintenant, on est assortis!\nOn est presque des jumeaux,\nhé hé hé!"
    }
  }
]