﻿[
  {
    "label": "001",
    "attribute": "0x0000020000000000",
    "locale": {
      "CNzh": "哈罗～我是(resident name)哟～！\n你最近好吗～？。\n啊！\n又说了“(catchphrase)”……\n呐～你觉得\n我的这个口头禅怎么样？。",
      "EUde": "Huhu, (Spitzname)!\nWie geht's, (Floskel)?\nUps, da ist mir schon wieder ein\n„(Floskel)“ rausgerutscht.\nDabei wollte ich das ja lassen.\nIrgendwie hab ich das Gefühl, der\nSpruch ist ausgelutscht...\nWas sagst du denn dazu,\n(Spitzname)?",
      "EUen": "How's stuff, ?\nAw... I said \"(catchphrase)\" again.\nI've been tryin' not to do that.\nFeels like it's gettin' old.\nWhaddaya think, ?",
      "EUes": "¿Cómo vas, (nickname)?\n¿Todo en orden, ?\nAy, ya lo he vuelto a decir...\nTípico de mí.\nOye, ahora que lo pienso, \n¿qué te parece a ti mi muletilla,\n(nickname)?",
      "EUfr": "Coucou, (surnom) !\nQuoi de neuf,  ?\nAh, je l'ai encore dit... Et « ⁠(expression) ⁠» par-ci, et « ⁠(expression) ⁠» par-là...\nEt toi, (surnom), qu'est-ce que tu en penses de mes « ⁠(expression) ⁠» ?",
      "EUit": "Ehi! Che si dice, (nickname)? Come te la passi, ?\nCaspitina, l'ho rifatto... In tipico stile (resident name), ho ripetuto \"⁠(catchphrase)\".\nEhi, perché non mi suggerisci\ntu un intercalare nuovo, (nickname)?",
      "EUnl": "Hé, (nickname)! Alles goed, ?\nOeps... Ik zei alweer \"⁠(catchphrase)⁠\". Ik probeer het minder te zeggen. Het wordt een beetje saai.\nWat vind jij, ?",
      "EUru": "Привет! Как дела? .\nОй! Опять я за свое... Я же пытаюсь\nизбавиться от привычки говорить\n«(catchphrase)».\nКаждый раз забываю. Кстати, а как\nтебе моя присказка? !",
      "JPja": "やっほぉ、(resident name)だよぉ～！\n元気～？　\nあっ、また「(catchphrase)」って\n言っちゃったぁ～・・・\nねぇ、は\nこの口ぐせ　どう思う～？　",
      "KRko": "얏호～ (resident name)이다아～!\n잘 지내～? ?\n앗, 또 '(catchphrase)' 하고\n말해버렸네에～...\n있지이, 아!\n내 말버릇 어때～? ?",
      "TWzh": "哈囉，我是(resident name)喔～！\n你好嗎～？。\n啊！我不小心又說了「(catchphrase)」……\n那個，覺得\n我現在的口頭禪怎麼樣啊～？。",
      "USen": "How's stuff, ?\nAw... I said \"(catchphrase)\" again.\nI've been tryin' not to do that.\nFeels like it's gettin' old.\nWhaddaya think, ?",
      "USes": "¿Cómo estás, (nickname)?\n¿Todo bien, ?\nAy, lo dije otra vez...\nNo sé por qué no puedo parar\nde decir \"\".\nEn fin, a todo esto, ¿qué opinas de\nmi muletilla, (nickname)?",
      "USfr": "Coucou, (surnom)!\nQuoi de neuf, ?\nAh, je l'ai encore dit... Et « ⁠(expression) ⁠» par-ci, et « ⁠(expression) ⁠» par-là...\nEt toi, (surnom), qu'est-ce que tu en penses de mes « ⁠(expression) ⁠»?"
    }
  },
  {
    "label": "001_a",
    "attribute": "0x0000000000000000",
    "locale": {
      "CNzh": "换一个吧？",
      "EUde": "Zeit für einen neuen!",
      "EUen": "Time to mix it up.",
      "EUes": "¿Y si la cambias?",
      "EUfr": "Il faut changer ça.",
      "EUit": "D'accordo.",
      "EUnl": "Tijd voor iets nieuws!",
      "EUru": "Я бы ее заменил.",
      "JPja": "変えちゃえば？",
      "KRko": "바꾸는 게 어때?",
      "TWzh": "還是換一個吧？",
      "USen": "Time to mix it up.",
      "USes": "¿Y si la cambias?",
      "USfr": "Il faut changer ça."
    }
  },
  {
    "label": "001_b",
    "attribute": "0x0000000000000000",
    "locale": {
      "CNzh": "我觉得不错",
      "EUde": "Passt doch zu dir.",
      "EUen": "It works for you.",
      "EUes": "Bien, ¿no?",
      "EUfr": "Moi, j'aime bien.",
      "EUit": "Per me ti dona.",
      "EUnl": "Het past bij je.",
      "EUru": "Тебе подходит.",
      "JPja": "いいと思うよ",
      "KRko": "좋은 것 같아",
      "TWzh": "我覺得不錯喔",
      "USen": "It works for you.",
      "USes": "¡Te queda bien!",
      "USfr": "Moi, j'aime bien."
    }
  },
  {
    "label": "002",
    "attribute": "0x0000020000000000",
    "locale": {
      "CNzh": "我的“(catchphrase)”这句口头禅，\n如果换一种感觉会怎么样呢～？\n你觉得呢？。",
      "EUde": "Sag mal, sollten wir unser\n„(Floskel)“ vielleicht mal\nauffrischen?\nIn einen schlaueren Spruch?",
      "EUen": "I need a new catchphrase. Somethin'\nmore...sophisticational than\n\"(catchphrase),\" ya know?",
      "EUes": "Ya llevo tiempo pensando...\nque a lo mejor me hace falta\nuna muletilla nueva.\n¿Se te ocurre alguna que sea\nun poco más... «sofistificada»?",
      "EUfr": "Je crois que le temps des « ⁠(expression) ⁠» à tout bout de champ est révolu...\nQu'est-ce que tu en dis, (surnom) ?",
      "EUit": "Mi chiedevo... Non sarà il caso che\ntrovi un nuovo, frizzante intercalare?\nQualcosa di più... filosofeducativo?",
      "EUnl": "Ik denk... dat ik toe ben aan een\nlijfspreuk met meer stijl. Iets, eh,\nmet... meer stijl?",
      "EUru": "(catchphrase)! У меня сомнения...\nНе пора ли мне придумать новую\nприсказку... повзрослее?",
      "JPja": "「(catchphrase)」っていう　ボクの口ぐせ、\nちがうカンジにかえたら　どうなるかな？\nキミは、どう思う～？　",
      "KRko": "'(catchphrase)', 이게 내 말버릇인데\n다른 걸로 바꾸면 어떨까아～?\n니 생각은 어때～? ?",
      "TWzh": "「(catchphrase)」是我的口頭禪，\n不知道如果換成別的，會是什麼感覺呢？\n你覺得呢～？。",
      "USen": "I need a new catchphrase. Somethin'\nmore...sophisticational than\n\"(catchphrase),\" ya know?",
      "USes": "He estado pensando...\nque a lo mejor tendría que renovar\nmi muletilla \"(catchphrase)\".\n¿Se te ocurre alguna que sea\nun poco más... \"sofuisticada\"?",
      "USfr": "Je crois que le temps des « ⁠(expression) ⁠» à tout bout de champ est révolu...\nQu'est-ce que tu en dis, (surnom)?"
    }
  },
  {
    "label": "002_a",
    "attribute": "0x0000000000000000",
    "locale": {
      "CNzh": "那就换一个吧？",
      "EUde": "Ja, höchste Zeit!",
      "EUen": "Yeah, it's time.",
      "EUes": "Va siendo hora, sí",
      "EUfr": "Oui, il l'est.",
      "EUit": "Sì, è proprio il caso.",
      "EUnl": "Ja, hoog tijd.",
      "EUru": "Да, пора.",
      "JPja": "変えちゃえば？",
      "KRko": "바꿔!",
      "TWzh": "換一個看看吧？",
      "USen": "Yeah, it's time.",
      "USes": "Ya era hora, sí...",
      "USfr": "Oui, en effet."
    }
  },
  {
    "label": "002_b",
    "attribute": "0x0000000000000000",
    "locale": {
      "CNzh": "保持这样就好",
      "EUde": "Doof ist er doch nicht.",
      "EUen": "I think it fits just fine.",
      "EUes": "Yo creo que te pega",
      "EUfr": "Non, ça te va bien.",
      "EUit": "No, è così adatto a te.",
      "EUnl": "Hij heeft al stijl.",
      "EUru": "И так все прекрасно.",
      "JPja": "そのままでいい",
      "KRko": "지금 그대로가 좋아",
      "TWzh": "維持現狀比較好",
      "USen": "I think it fits just fine.",
      "USes": "No es necesario...",
      "USfr": "Non, ça te va bien."
    }
  },
  {
    "label": "003",
    "attribute": "0x0000020000000000",
    "locale": {
      "CNzh": "啊～～\n你能听我说件事吗？\n刚才，说，\n我的“(catchphrase)”这句口头禅\n和我的一贯风格不太符合呢～。",
      "EUde": "Hallöchen, (Spitzname).\nHast du kurz Zeit?\n findet, dass\nmein „(Floskel)“ langweilig ist.\nWas meinst du denn dazu?\nFindest du „(Floskel)“ auch öde?",
      "EUen": "The other day, \nsaid my catchphrase is boring!\nWhaddaya think about that?\nIs \"(catchphrase)\" boring?",
      "EUes": "Oye, (nickname),\n¿tienes un momentito?\nEl otro día  dijo\nque mi muletilla está desfasada...\n¿A ti qué te parece?\n¿Debería jubilar mi «(catchphrase)»?",
      "EUfr": "Dis, (surnom), tu aurais une seconde ?\nL'autre jour,  m'a dit qu'il trouvait que dire « ⁠(expression) ⁠», c'était ringard...\nQu'est-ce que tu en penses ?\nTu crois que je devrais arrêter\nde le dire ?",
      "EUit": "Ehi, (nickname). Hai mica un secondo?\nL'altro giorno  ha detto che secondo  il mio intercalare è fuori moda...\nTu che ne pensi? È giunta l'ora che\n\"⁠(catchphrase)\" vada in pensione?",
      "EUnl": "Hoi, (nickname).\n zei laatst dat  mijn lijfspreuk saai vindt!\nWat vind jij? Is \"⁠(catchphrase)⁠\" ook saai?",
      "EUru": "Слушай, (nickname)!\nТут на днях  сказал,\nчто моя присказка скучная!\nА ты как считаешь? (catchphrase)!\nСкучная присказка или нет?",
      "JPja": "あ、\nちょっと　聞いてくれるぅ？\nさっき、に\nボクの　「(catchphrase)」っていう　口ぐせが\n合ってないって　言われたんだぁ～、",
      "KRko": "앗, 아!\n잠깐 얘기 좀 들어줄래?\n아까 한테\n내 말버릇 '(catchphrase)' 이게 나랑 안 어울린단\n소리를 들었지 뭐야아～ !",
      "TWzh": "啊，～\n你能聽我說嗎～？\n剛才說\n「(catchphrase)」這個口頭禪\n不適合我～。",
      "USen": "The other day, \nsaid my catchphrase is boring!\nWhaddaya think about that?\nIs \"(catchphrase)\" boring?",
      "USes": "Oye, (nickname),\n¿tienes un momentito?\nEl otro día  me\ndijo que mi muletilla \"(catchphrase)\"\nnecesita una renovación...\n¿A ti qué te parece? ¿Debería\ncambiarla, (catchphrase)?",
      "USfr": "Dis, (surnom), tu aurais une seconde?\nL'autre jour,  m'a dit qu'il trouvait que dire « ⁠(expression) ⁠», c'était dépassé...\nQu'est-ce que tu en penses?\nTu crois que je devrais arrêter\nde le dire?"
    }
  },
  {
    "label": "003_a",
    "attribute": "0x0000000000000000",
    "locale": {
      "CNzh": "那就换一个吧？",
      "EUde": "Ja, schon irgendwie.",
      "EUen": "It's pretty dull, yeah.",
      "EUes": "Yo creo que sí...",
      "EUfr": "Oui, il faut changer.",
      "EUit": "Direi di sì...",
      "EUnl": "Die is wel saai, ja.",
      "EUru": "Да, скучноватая.",
      "JPja": "変えちゃえば？",
      "KRko": "바꾸는 게 어때?",
      "TWzh": "那就換一個吧？",
      "USen": "It's pretty dull, yeah.",
      "USes": "Yo creo que sí...",
      "USfr": "Oui, il faut changer."
    }
  },
  {
    "label": "003_b",
    "attribute": "0x0000000000000000",
    "locale": {
      "CNzh": "没有的事",
      "EUde": "Nee, überhaupt nicht!",
      "EUen": "No way! I love it!",
      "EUes": "¡Ni se te ocurra!",
      "EUfr": "Pas question !",
      "EUit": "Giammai!",
      "EUnl": "Echt niet! Hij is leuk!",
      "EUru": "Отличная присказка!",
      "JPja": "そんなことない",
      "KRko": "잘 어울려",
      "TWzh": "不會啊",
      "USen": "No way! I love it!",
      "USes": "¡Ni se te ocurra!",
      "USfr": "Pas question!"
    }
  },
  {
    "label": "004",
    "attribute": "0x0000020000000000",
    "locale": {
      "CNzh": "(catchphrase)……\n(catchphrase)……\n为了能变得更有大人的感觉，\n“(catchphrase)”这句口头禅\n是不是应该改一下～？。",
      "EUde": "Hmm... (Floskel)...\n(Floskel)!\n(Floskel)?\nNa, (Spitzname)?\nIst mein Spruch vielleicht nicht...\nerwachsen genug?",
      "EUen": "Hmm... (catchphrase)...\n(catchphrase)!\n(catchphrase)?\nWhaddaya think, (nickname)?\nDoes my catchphrase sound a\nlittle too, I dunno...bleh?",
      "EUes": "Mmm... (catchphrase)...\n¡(catchphrase)! ¿(catchphrase)?\n¿Qué te parece, (nickname)?\n¿No te suena esta muletilla\nun poco... infantil?",
      "EUfr": "Hmm... (expression).\n(expression) ! (expression)...\nQu'est-ce que tu en penses,\n(surnom) ? Ça fait pas trop gamin, quand je dis ça ?",
      "EUit": "Mmmh... (catchphrase)...\nEhi, (catchphrase)! Oh, (catchphrase)?\nChe ne pensi, (nickname)?\nNon è che il mio intercalare suona\ntroppo, non so... infantile?",
      "EUnl": "Hm... (catchphrase)... (catchphrase)! (catchphrase)?\nWat vind je, (nickname)? Klinkt mijn lijfspreuk niet een beetje te... kinderachtig?",
      "EUru": "Гм... (catchphrase)...\n(catchphrase)! (catchphrase)?\nКак думаешь, (nickname)?\nМоя присказка не звучит... немного\nпо-детски?",
      "JPja": "(catchphrase)・・・\n(catchphrase)・・・\nボクが　オトナっぽくなるためには、\n「(catchphrase)」っていう　口ぐせを\nかえたほうがいいのかなぁ～？　",
      "KRko": "(catchphrase)...\n(catchphrase)...\n더 어른스러워지려면\n'(catchphrase)' 같은 말버릇 말고\n다른 걸로 바꾸는 게 좋을까아～? ?",
      "TWzh": "(catchphrase)……\n(catchphrase)……\n為了讓自己更成熟一點，\n我是不是該把「(catchphrase)」這個口頭禪\n改掉比較好呢～？。",
      "USen": "Hmm... (catchphrase)...\n(catchphrase)!\n(catchphrase)?\nWhaddaya think, (nickname)?\nDoes my catchphrase sound a\nlittle too, I dunno...bleh?",
      "USes": "Mmm... (catchphrase)...\n¡(catchphrase)! ¿(catchphrase)?\n¿Qué opinas, (nickname)?\n¿Crees que mi muletilla suena\nun poco... infantil?",
      "USfr": "Hmm... (expression).\n(expression)! (expression)...\nQu'est-ce que tu en penses,\n(surnom)? Ça fait pas trop bébé, quand je dis ça?"
    }
  },
  {
    "label": "004_a",
    "attribute": "0x0000000000000000",
    "locale": {
      "CNzh": "那就换一个吧？",
      "EUde": "Änder ihn doch!",
      "EUen": "Why not change it up?",
      "EUes": "¿Y si la cambias?",
      "EUfr": "Si, un peu.",
      "EUit": "Beh, allora cambialo.",
      "EUnl": "Zeg dan iets anders...",
      "EUru": "Так смени ее.",
      "JPja": "変えちゃえば？",
      "KRko": "바꾸는 게 어때?",
      "TWzh": "那就換一個吧？",
      "USen": "Why not change it up?",
      "USes": "Podrías cambiarla...",
      "USfr": "Oui, un peu..."
    }
  },
  {
    "label": "004_b",
    "attribute": "0x0000000000000000",
    "locale": {
      "CNzh": "还是用这个就好",
      "EUde": "Klingt einwandfrei!",
      "EUen": "I think it's great!",
      "EUes": "¡Yo creo que mola!",
      "EUfr": "Non, c'est la classe !",
      "EUit": "Ma no, va benone!",
      "EUnl": "Nee, hij is geweldig!",
      "EUru": "Мне нравится!",
      "JPja": "そのままがいい",
      "KRko": "지금 그대로가 좋아",
      "TWzh": "維持現狀就好",
      "USen": "I think it's great!",
      "USes": "¡Es perfecta!",
      "USfr": "Non, c'est parfait!"
    }
  },
  {
    "label": "005",
    "attribute": "0x0000000000000000",
    "locale": {
      "CNzh": "诶，真的吗？\n要是你觉得好的话，\n那就保持这样好了～。",
      "EUde": "Findest du? Wenn DU ihn magst,\nändere ich ihn auf keinen Fall,\n(Floskel)!",
      "EUen": "Oh yeah? Ya think so? If you like it,\nthere's no way I'm gonna change it!",
      "EUes": "¿Ah, sí? ¿De verdad? Pues si a ti\nte gusta, ¡no la cambio ni loco,\n!",
      "EUfr": "Hein ? Vraiment ? Eh ben, si\nça te plaît, je vois pas pourquoi\nje changerais,  !",
      "EUit": "Oh, davvero? Ne sei sicuro?\nBeh, se piace a te, allora per me\nè perfetto, !",
      "EUnl": "O, echt? Meen je dat? Nou, als jij\nhem leuk vindt, dan hou ik mijn\nlijfspreuk zoals hij is, !",
      "EUru": "Ой! Правда? Честно? Если она\nнравится тебе, то я не стану ее\nни за что менять, .",
      "JPja": "え、ほんとにぃ？\nキミが　気に入ってくれてるなら\n今のままで　いいやぁ～、",
      "KRko": "앗, 진짜루우?\n너가 맘에 든다니\n그냥 이대로 밀고나갈래, ～",
      "TWzh": "嗯？真的嗎？\n如果你覺得不錯的話，\n那我就不改了～。",
      "USen": "Oh yeah? Ya think so? If you like it,\nthere's no way I'm gonna change it!",
      "USes": "¿En serio? Pues si eso crees,\n¡no la cambio ni loco, !",
      "USfr": "Ah oui? Vraiment? Eh ben, si\nça te plaît, je vois pas pourquoi\nje changerais, !"
    }
  },
  {
    "label": "006",
    "attribute": "0x0000000000000000",
    "locale": {
      "CNzh": "这样啊～\n既然你这么说了～\n那我就继续用这个口头禅好了～。",
      "EUde": "Na, wenn du es sagst, werde ich\nbei meinem „(Floskel)“ bleiben.\n(Floskel)! Äh, he he he!",
      "EUen": "Huh... Well, if ya say so, I'll just keep\non saying \"(catchphrase)\" forever!",
      "EUes": "Ah... Si tú lo dices, seguiré usando\n«(catchphrase)» como si tal cosa.\n¡(catchphrase)! ¡Mola!",
      "EUfr": "Si tu le dis, alors je continuerai\nà dire « (expression) ».\n(expression) !!!",
      "EUit": "Oh... Se la pensi così, continuerò\na esclamare \"⁠(catchphrase)\", allora.\nCosì, (catchphrase)! Ah ah ah ah ah!",
      "EUnl": "Huh... Nou, als jij het zegt zal ik \"⁠(catchphrase)⁠\" blijven zeggen. (catchphrase)! Gheghe!",
      "EUru": "Ух ты... Раз ты так думаешь, буду\nи дальше так говорить. У-ху-ху!",
      "JPja": "そっかぁ～\nキミが　そう言うなら\nこのまま　つかうことにするよぉ～、",
      "KRko": "그렇구나아～\n너가 그렇다면 이대로 쓸게에～ !",
      "TWzh": "這樣啊～\n既然你都這麼說了，\n那我就繼續用這個口頭禪吧～。",
      "USen": "Huh... Well, if ya say so, I'll just keep\non saying \"(catchphrase)\" forever!",
      "USes": "Ah... Pues si tú lo dices, me quedo\ncon mi \"(catchphrase)\".\n¡(catchphrase)!",
      "USfr": "Si tu le dis, alors je continuerai\nà dire « (expression) ».\n(expression)!!!"
    }
  },
  {
    "label": "007",
    "attribute": "0x0000000000000000",
    "locale": {
      "CNzh": "既然你\n这么认为的话～\n那就应该没问题～\n我不太懂这些，\n之前有点担心呢～。",
      "EUde": "Hm, dann ist ja alles wunderbärchen.\nWenn du den Spruch gut findest,\ndann behalte ich ihn auch!\nIch wollte unbedingt eine zweite\nMeinung haben, weil ich selbst\neinfach viel zu nah dran bin...\nNicht, dass ich am Ende noch mit\nSchielen anfange, (Floskel)!",
      "EUen": "Cool. Real cool. If you like\n(catchphrase), then I'll keep it!",
      "EUes": "Parece que no todo el mundo opina\nlo mismo, ¿no te parece? Aunque,\nsi a ti te mola, ¡a mí me vale!\nQuería tu opinión experta e imparcial\npara estar seguro de que era la mejor\nopción. ¡Confirmado, (catchphrase)!",
      "EUfr": "J'imagine que tout le monde n'a pas\nla même opinion. Si ça te plaît, c'est\nle principal, je continuerai à le dire.\nJ'arrive pas bien à me rendre\ncompte, alors ça m'aide d'avoir un\nautre avis, .",
      "EUit": "Ognuno ha la sua opinione, eh?\nPerò se tu credi che vada ancora\nbene, non vedo perché cambiare.\nMi serviva un altro parere perché\na forza di studiare la cosa da vicino\nmi stavo accecando, .",
      "EUnl": "Cool, maatje. Als jij hem goed vindt,\ndan laat ik hem zo!\nIk wilde het even checken, want zelf\nwist ik niet zeker of hij nog leuk was.\nSnap je, (catchphrase)?",
      "EUru": "Вот здорово! Если ты считаешь, что\nвсе прекрасно, не буду ничего\nменять!\nЯ хотел услышать другое мнение,\nпотому что самому сложно оценить\nто, что говоришь. (catchphrase).",
      "JPja": "が\nそう言ってくれるんだったら\nダイジョウブだよねぇ～\n自分じゃ　わからないから\nシンパイだったんだぁ～、",
      "KRko": "이\n괜찮다고 하면\n괜찮은 거겠지이～\n나는 잘 모르겠어서\n걱정했거든, ～",
      "TWzh": "既然\n這樣說，\n那應該就沒問題了～\n因為自己搞不太清楚，\n所以一直好擔心～。",
      "USen": "Cool. Real cool. If you like\n(catchphrase), then I'll keep it!",
      "USes": "Supongo que cada quien opina\nde forma diferente, ¿no te parece?\nPero si te gusta, ¡así la dejo!\nA mí me gusta mucho así como está,\npero quería que me dieras tu\nopinión... \"impuarcial\".",
      "USfr": "J'imagine que tout le monde n'a pas\nla même opinion. Si ça te plaît, c'est\nle principal, je continuerai à le dire.\nJ'arrive pas bien à me rendre\ncompte, alors ça m'aide d'avoir un\nautre avis, ."
    }
  },
  {
    "label": "008",
    "attribute": "0x0000000000000000",
    "locale": {
      "CNzh": "诶～真的吗～？\n，你说的\n一定没错的～\n我会更加自信地继续说\n“(catchphrase)”这句口头禅的～！。",
      "EUde": "Wow! Nichts dran auszusetzen?\nOh Mann, das beruhigt mich jetzt\ntotal! Danke, (Spitzname)!\nDu würdest ihn also nicht ändern...\nDann bleibt's bei „(Floskel)“!\nAlle Zweifel sind gegessen!",
      "EUen": "Oh, wow! You think it's GREAT?\nMan, ya put my fears to bed AND\nya tucked 'em in!\nSince ya dig it, (nickname),\nI'll just keep saying \"(catchphrase)\"!",
      "EUes": "¡Vaya! ¿Crees que mola?\nCon esa respuesta, has disipado\nmis temores y resuelto mi dilema.\nSi lo tienes así de claro,\n¡seguiré diciendo «(catchphrase)»\ncon la cabeza bien alta!\n¡Gracias por ayudarme con el tema!",
      "EUfr": "Vraiment ? Tu trouves que c'est la\nclasse ? Carrément ? Eh bien, voilà\nqui me rassure.\nPuisque ça te plaît tant que ça, je\ncontinuerai à crier « (expression) »\nhaut et fort !",
      "EUit": "Oh, uau! Hai detto \"benone\"? Hai sgominato le mie paure come un supereroe, (nickname)!\nSe ne sei così convinto, esclamerò ancora \"⁠(catchphrase)\" con orgoglio. Grazie per l'iniezione di autostima!",
      "EUnl": "O, wauw! Vind je mijn lijfspreuk\ngewéldig? Daar kikker ik helemaal\nvan op, (nickname)!\nAls je hem zo leuk vindt, blijf ik mooi \"⁠(catchphrase)⁠\" zeggen!\nDank je dat je me meer\nzelfvertrouwen geeft!",
      "EUru": "Ух ты! Тебе нравится? Ты меня\nуспокоил, (nickname).\nРаз ты так считаешь, буду и дальше\nговорить «(catchphrase)». Спасибо\nза моральную поддержку!",
      "JPja": "え、ホント？\nが言うなら\nまちがいないよねぇ～\nボク、ジシンをもって　これからも\n「(catchphrase)」って　言うよぉ～！　",
      "KRko": "앗, 진짜?\n이 그렇다면\n틀림없겠지이～\n나, 앞으로도 당당히\n'(catchphrase)'이라고 말할게에～! !",
      "TWzh": "咦，真的嗎？\n既然這麼說，\n那應該就沒有錯了～\n我會對自己有信心點，\n繼續用「(catchphrase)」這個口頭禪～！。",
      "USen": "Oh, wow! You think it's GREAT?\nMan, ya put my fears to bed AND\nya tucked 'em in!\nSince ya dig it, (nickname),\nI'll just keep saying \"(catchphrase)\"!",
      "USes": "¡Guauuu! ¿Crees que es perfecta?\nPues entonces seguiré diciendo\nmi \"(catchphrase)\" sin parar.\n¡Gracias por tu ayuda!",
      "USfr": "Vraiment? Tu trouves que c'est\ngénial? Parfait? Eh bien, voilà\nqui me rassure.\nPuisque ça te plaît tant que ça, je\ncontinuerai à crier « (expression) »\nhaut et fort!"
    }
  },
  {
    "label": "100",
    "attribute": "0x0000000000000000",
    "locale": {
      "CNzh": "那么～能麻烦你\n帮我想一个新的口头禅吗～？\n希望是很适合我的哦～。",
      "EUde": "Hilfst du mir, einen neuen Spruch\nzu finden? Er soll gut zu mir passen\nund cooler als der alte ein.",
      "EUen": "Can ya help me make up a new one?\nI want one that's ME, but um...\na smarter, cooler version of me!",
      "EUes": "¿Y tú no me ayudarías a buscar una\nnueva? Quiero una que me pegue.\nY, cuanto más mole, mejor.",
      "EUfr": "Alors tu crois que tu pourrais m'aider\nà trouver une nouvelle expression\nfétiche, (surnom) ?\nIl me faudrait quelque chose qui\nme ressemble et qui me donne\nl'air intelligent.",
      "EUit": "In tal caso, mi aiuteresti a trovarne\nuno nuovo? Dev'essere tipico del\nsottoscritto... ma più sveglio e furbo.",
      "EUnl": "Kun jij iets nieuws verzinnen?\nIk wil iets wat bij me past, maar dan\neen slimmere en coolere versie.",
      "EUru": "Ты не поможешь мне с новой\nприсказкой? Придумай мне что-\nнибудь подходящее и остроумное.",
      "JPja": "じゃあ　、\n新しい口ぐせを　考えてくれない？\nボクに　ピッタリなのを　おねがい～、",
      "KRko": "그럼 아,\n너가 새로운 말버릇을 지어주라아～\n나한테 어울리는 걸로 부탁해～ !",
      "TWzh": "那能不能\n幫我想新的口頭禪呢？\n要想一個超級適合我的喔～拜託你～。",
      "USen": "Can ya help me make up a new one?\nI want one that's ME, but um...\na smarter, cooler version of me!",
      "USes": "¿Y tú no me puedes ayudar a buscar\nuna nueva? Quiero una muy épica\nque le guste a todo el mundo.",
      "USfr": "Alors tu crois que tu pourrais m'aider\nà trouver une nouvelle expression\nfétiche, (surnom)?\nIl me faudrait quelque chose qui\nme ressemble et qui me donne\nl'air intelligent."
    }
  },
  {
    "label": "101",
    "attribute": "0x0000020000000000",
    "locale": {
      "CNzh": "那个……\n只要说“(catchphrase)”这个就好了对吧？",
      "EUde": "Okay, kleiner Test! Ähm...\n(Floskel)! Na, was sagst du?",
      "EUen": "OK, let's try it out!\nUmm... (catchphrase)!\nSo? Whaddaya think?",
      "EUes": "Pues venga, ¡voy a probarla!\nEeeh... ¡(catchphrase)!\n¿Qué te parece?",
      "EUfr": "Bien, essayons ! Hem, hem...\n(expression) ! Comme ça ?\nC'était bien ?",
      "EUit": "OK, proviamo! Ehm... (catchphrase)? Ecco, che te ne pare?",
      "EUnl": "Oké, eens zien! Eh... (catchphrase)? En? Wat denk je ervan?",
      "EUru": "Сейчас попробуем!\nЭ... (catchphrase)?\nНу как тебе?",
      "JPja": "え～っと・・・\n「(catchphrase)」って　言えばいいんだねぇ？",
      "KRko": "으음～...\n'(catchphrase)'\n이렇게 말하면 될까아?",
      "TWzh": "我想想……\n改成「(catchphrase)」就可以了嗎？",
      "USen": "OK, let's try it out!\nUmm... (catchphrase)!\nSo? Whaddaya think?",
      "USes": "Veamos qué tal queda...\nEeeh... ¿(catchphrase)?\n¿Qué te parece?",
      "USfr": "Bien, essayons! Hem, hem...\n(expression)! Comme ça?\nC'était bien?"
    }
  },
  {
    "label": "101_a",
    "attribute": "0x0000000000000000",
    "locale": {
      "CNzh": "OK",
      "EUde": "Kann so bleiben!",
      "EUen": "It's nice!",
      "EUes": "¡Es molona!",
      "EUfr": "Ça sonne bien !",
      "EUit": "Bello!",
      "EUnl": "Leuk!",
      "EUru": "Здорово!",
      "JPja": "オッケー",
      "KRko": "오케이～",
      "TWzh": "OK",
      "USen": "It's nice!",
      "USes": "¡Perfecta!",
      "USfr": "Ça sonne bien!"
    }
  },
  {
    "label": "101_b",
    "attribute": "0x0000000000000000",
    "locale": {
      "CNzh": "不对哦",
      "EUde": "Nee, durchgefallen!",
      "EUen": "Let's try another one.",
      "EUes": "¡Vamos a probar otra!",
      "EUfr": "Essayons autre chose.",
      "EUit": "Proviamone un altro.",
      "EUnl": "Misschien iets anders?",
      "EUru": "Попробуем другое.",
      "JPja": "ちがうよ",
      "KRko": "그게 아니야",
      "TWzh": "不是啦",
      "USen": "Let's try another one.",
      "USes": "¡Mejor otra!",
      "USfr": "Essayons autre chose."
    }
  },
  {
    "label": "102",
    "attribute": "0x0000020000000000",
    "locale": {
      "CNzh": "“(catchphrase)”……？\n咦～？这不是和之前的一样吗～？\n是说我可以不用改了吗～？",
      "EUde": "„(Floskel)“! Jawoll, das klingt...\nMoment! Das ist doch mein alter\nSpruch! Soll ich ihn doch so lassen?",
      "EUen": "\"(catchphrase)\"? I like the sound\nof tha— Wait! I already say that!\nSo...I don't need to change it?",
      "EUes": "¿«(catchphrase)»? Ah, pues me\ngusta cómo sue... ¡Oye! ¡Esa es la\nque ya tenía! ¿Me la quedo, pues?",
      "EUfr": "« (expression) »...? Oui, ça sonne\nb... Hé, mais c'est déjà ce que je dis !\nTu veux dire que j'ai pas à changer ?",
      "EUit": "Allora \"⁠(catchphrase)\"? Mi pare noto. Ma è il mio intercalare classico! Volevo rilanciare la mia immagine...",
      "EUnl": "Eh... \"(catchphrase)\"? Dat klinkt niet sle... Wacht! Dat zeg ik al! Dus je vindt mijn lijfspreuk al leuk?",
      "EUru": "«(catchphrase)»? Хорошо зву...\nСтоп! Это же моя старая присказка!\nЗначит, не нужно ее менять?",
      "JPja": "「(catchphrase)」・・・？\nあれぇ、今までのと　同じだねぇ\nかえなくて　いいってことぉ～？",
      "KRko": "'(catchphrase)'...?\n어라? 지금이랑 똑같은데～\n안 바꿔도 된다는 거야아～?",
      "TWzh": "「(catchphrase)」……？\n咦？這個跟之前的一樣吧？\n你的意思是不用換沒關係嗎～？",
      "USen": "\"(catchphrase)\"? I like the sound\nof tha— Wait! I already say that!\nSo...I don't need to change it?",
      "USes": "¿\"(catchphrase)\"? Ah, pues me\ngusta cómo sue... ¡Oye! ¡Esa es la\nque ya tenía! ¿Me la quedo?",
      "USfr": "« (expression) »...? Oui, ça sonne\nb... Hé, mais c'est déjà ce que je dis!\nTu veux dire que j'ai pas à changer?"
    }
  },
  {
    "label": "102_a",
    "attribute": "0x0000000000000000",
    "locale": {
      "CNzh": "是哦",
      "EUde": "Ich finde schon.",
      "EUen": "Yeah, you're good.",
      "EUes": "¡Quédatela, sí!",
      "EUfr": "En effet.",
      "EUit": "Squadra che vince...",
      "EUnl": "Ja, hij is prima.",
      "EUru": "Да, оставь как есть.",
      "JPja": "そうだよ",
      "KRko": "그래, 맞아",
      "TWzh": "沒錯",
      "USen": "Yeah, you're good.",
      "USes": "¡Quédatela, sí!",
      "USfr": "En effet."
    }
  },
  {
    "label": "102_b",
    "attribute": "0x0000000000000000",
    "locale": {
      "CNzh": "不对哦",
      "EUde": "Nein, warte...",
      "EUen": "Hm. Actually...",
      "EUes": "Espera...",
      "EUfr": "Eh ben, en fait...",
      "EUit": "Ehm, in effetti...",
      "EUnl": "Hm... Eigenlijk...",
      "EUru": "Как бы тебе сказать...",
      "JPja": "ちがうよ",
      "KRko": "그게 아니야",
      "TWzh": "不是啦",
      "USen": "Hm. Actually...",
      "USes": "Espera...",
      "USfr": "Eh ben, en fait..."
    }
  },
  {
    "label": "103",
    "attribute": "0x0000000000000000",
    "locale": {
      "CNzh": "搞错了啊……\n那麻烦你，再告诉我一次～？",
      "EUde": "Oh! Hab ich dich doch falsch\nverstanden? Kannst du's noch\nmal sagen, aber langsamer?",
      "EUen": "Aw, dang. Did I get it wrong? Can ya\nspell it out again? Slower this time?",
      "EUes": "Ay, seguro que no lo he pillado bien.\n¿Me la repites, porfa?",
      "EUfr": "Ah, zut. C'est pas bien ?... Ou je me\nsuis trompé ? Tu veux bien répéter ?",
      "EUit": "Caspitina, l'ho forse pronunciato\nmale? Ti spiacerebbe sillabarmelo?",
      "EUnl": "O, dropjes. Heb ik het verkeerd\nbegrepen? Kun je het me nog eens\nvertellen? En ietsje langzamer?",
      "EUru": "Ох. Нехорошо?\nПовтори еще раз, пожалуйста.\nПомедленнее.",
      "JPja": "まちがえちゃった・・・\nもう一回　教えてくれるぅ～？",
      "KRko": "실수했나 봐...\n다시 한번 알려줄래～?",
      "TWzh": "我弄錯了……\n你可以再跟我說一次嗎～？",
      "USen": "Aw, dang. Did I get it wrong? Can ya\nspell it out again? Slower this time?",
      "USes": "Ay, seguro que no te entendí bien.\n¿Me la repites, porfa?",
      "USfr": "Ah, zut. C'est pas bien?... Ou je me\nsuis trompé? Tu veux bien répéter?"
    }
  },
  {
    "label": "104",
    "attribute": "0x0000000000000000",
    "locale": {
      "CNzh": "诶？！\n你就别吊我胃口，\n快告诉我吧～",
      "EUde": "Wie jetzt?! Komm, zieh mich nicht so\nauf! Sag schon!",
      "EUen": "Huh?! C'mon, don't tease! Tell me!",
      "EUes": "¿Huy? No seas malo y dímelo...",
      "EUfr": "Eh ben alors ? Allez, dis, dis, dis !",
      "EUit": "Eh?! Dai, non tenermi sulle spine!\nDimmelo!",
      "EUnl": "Huh?! Kom op, hou me niet in\nspanning! Vertel, vertel!",
      "EUru": "Что?! Ну почему? Так не честно!",
      "JPja": "あれぇ？！\nもぉ～、じらさないで\n早く　教えて～",
      "KRko": "어라?!\n왜 그래애～ 애타게 하지 말고\n얼른 알려줘어～",
      "TWzh": "咦！？\n真是的～不要吊我胃口，\n快說啦～",
      "USen": "Huh?! C'mon, don't tease! Tell me!",
      "USes": "¿Eh? No seas malo y dímelo...",
      "USfr": "Eh ben alors? Allez, dis, dis, dis!"
    }
  },
  {
    "label": "200",
    "attribute": "0x0000000000000000",
    "locale": {
      "CNzh": "……！\n哇～！好帅啊～！",
      "EUde": "(Floskel)!\nWow, perfekt!",
      "EUen": "Let's try it... !\nWow, it's perfect!",
      "EUes": "¡(catchphrase)!\n¡Vaya, es perfecta!",
      "EUfr": "...! Oui, c'est parfait !",
      "EUit": "Provo... (catchphrase)!\nUau, pura perfezione!",
      "EUnl": "Eh... ! Wauw, dit is perfect!",
      "EUru": "!\nУх ты, здорово!",
      "JPja": "・・・！\nうわぁ～　カッコイイ～！",
      "KRko": "...!\n우와～ 멋있다아～!",
      "TWzh": "……！\n哇～好酷喔～！",
      "USen": "Let's try it... !\nWow, it's perfect!",
      "USes": "¡(catchphrase)!\n¡Guauuu, es perfecta!",
      "USfr": "...! Oui, c'est parfait!"
    }
  },
  {
    "label": "201",
    "attribute": "0x0000000000000000",
    "locale": {
      "CNzh": "、。\n嗯！确实很适合我呢～！",
      "EUde": "(Floskel)!\nJa, passt doch gut zu mir!",
      "EUen": "OK, I'm gonna try it out...\n(catchphrase)! I like it! I like it!",
      "EUes": "¡(catchphrase)!\n¡Me encanta como suena!",
      "EUfr": ",  !\nOui, c'est tout moi !",
      "EUit": "Provo... (catchphrase)! Mi calza a pennello come un costume da supereroe, oserei dire!",
      "EUnl": "Eh... (catchphrase)! Dit past helemaal bij mij, vind ik!",
      "EUru": "(catchphrase)!\nОчень мне подходит, по-моему.",
      "JPja": "、\nボクに　ピッタリかもぉ～",
      "KRko": "! !\n나한테 딱인 것 같애～",
      "TWzh": "，。\n感覺很適合我耶～",
      "USen": "OK, I'm gonna try it out...\n(catchphrase)! I like it! I like it!",
      "USes": "¡(catchphrase)!\n¡Es perfecta para mí!",
      "USfr": ", !\nOui, c'est tout moi!"
    }
  },
  {
    "label": "202",
    "attribute": "0x0000000000000000",
    "locale": {
      "CNzh": "我非常喜欢哦～！\n我会经常用的～！。",
      "EUde": "Danke, (Spitzname)!\nIch werde den Spruch ab jetzt immer\nverwenden. IMMER, (Floskel)!",
      "EUen": "Thanks! I'm gonna say it all the\ntime! I mean it. ALL the time.\n! A huh huh huh...",
      "EUes": "¡Muchas gracias, (nickname)!\nNo dejaré de decirlo... ¡ni cuando\nesté durmiendo! ¡(catchphrase)!",
      "EUfr": "Merci beaucoup, (surnom) !\nJe vais l'utiliser tout le temps,\n !  ! Hi hi !",
      "EUit": "Grazie davvero, (nickname)! Ora lo dirò tutto il tempo... Lo dirò di continuo, ! Ah ah ah!",
      "EUnl": "Dank je wel, (nickname)! Ik zal dit nu altijd zeggen... Echt, de hele tijd, ! Gheghe!",
      "EUru": "Спасибо, (nickname)! Буду\nговорить так все время. Все время!\n! У-ху-ху!",
      "JPja": "すっごく　気に入っちゃったぁ！\nいっぱい　つかうぞぉ～、",
      "KRko": "아주 마음에 들어!\n많이 많이 써야지이, ～",
      "TWzh": "我非常喜歡這個！\n我會常常使用的～。",
      "USen": "Thanks! I'm gonna say it all the\ntime! I mean it. ALL the time.\n! A huh huh huh...",
      "USes": "¡Muchas gracias, (nickname)!\nDiré mi nueva muletilla... ¡hasta\nen mis sueños! ¡(catchphrase)!",
      "USfr": "Merci beaucoup, (surnom)!\nJe vais l'utiliser tout le temps,\n! ! Hi hi!"
    }
  },
  {
    "label": "203",
    "attribute": "0x0000000000000000",
    "locale": {
      "CNzh": "谢谢你～！\n那我就马上试一下吧～！。",
      "EUde": "Danke für deine Hilfe, (Floskel)!\nWunderbärchen, muss ich gleich\nausprobieren... (Floskel)!",
      "EUen": "Thanks for the help, !",
      "EUes": "¡Gracias por echarme un cable,\n(nickname)! Voy a usarla ya: \n¡(catchphrase), (catchphrase)!",
      "EUfr": "Merci pour ton aide,  !\nT'as vu, je le dis déjà sans m'en\nrendre compte,  !",
      "EUit": "Grazie mille dell'aiuto, ! So già che mi abituerò presto al retrogusto di questo... !",
      "EUnl": "Bedankt voor je hulp, ! Ik ga nog wat oefenen! (catchphrase)! (catchphrase)!",
      "EUru": "Спасибо за помощь. !\nБуду пробовать. (catchphrase)!\n(catchphrase)! (catchphrase)!",
      "JPja": "どうも　ありがとぉ～！\nさっそく　つかっちゃお～っと！　",
      "KRko": "정말 고마워어～!\n그럼 바로 써볼게～! !",
      "TWzh": "真的很謝謝你～！\n我馬上就來試試看～！。",
      "USen": "Thanks for the help, !",
      "USes": "¡Gracias, (nickname)!\n¡Voy a usarla todo lo que pueda, (catchphrase)!",
      "USfr": "Merci pour ton aide, !\nT'as vu, je le dis déjà sans m'en\nrendre compte, !"
    }
  },
  {
    "label": "204",
    "attribute": "0x0000000000000000",
    "locale": {
      "CNzh": "诶嘿嘿～好期待～\n今后就说“(catchphrase)”\n这个口头禅了～！。",
      "EUde": "Der Spruch ist phänofantastisch!\n(Floskel)! Könnte ich dauernd\nsagen. (Floskel)! (Floskel)!",
      "EUen": "Ain't nothin' like having a\nbrand-new catchphrase!\nI can't wait to start saying\n\"(catchphrase)\" all the time!",
      "EUes": "¡No hay nada como estrenar\nmuletilla! ¡Ahora, a usar\n«(catchphrase)» como un descosido!",
      "EUfr": "Il n'y a rien de tel que d'avoir\nune nouvelle expression fétiche,\n !\nJ'ai hâte de pouvoir l'utiliser\ndans toutes sortes de situations,\n.",
      "EUit": "Non vedo l'ora di usare il mio nuovo\nintercalare tutto il tempo... Proviamo:\n(catchphrase), (catchphrase)!",
      "EUnl": "Er is niks beters dan een nieuwe lijfspreuk! Ik ga \"⁠(catchphrase)⁠\" constant gebruiken! !",
      "EUru": "Новая присказка — это так здорово!\nЖду не дождусь, как буду все\nвремя говорить «(catchphrase)»...\n!",
      "JPja": "えへへ、これから\n「(catchphrase)」って言うのが\n楽しみだぁ～！　",
      "KRko": "에헤헤, 앞으로 '(catchphrase)'이라고\n말할 생각을 하니까\n신난다아～! !",
      "TWzh": "欸嘿嘿，\n以後就可以改說「(catchphrase)」了，\n好期待呢，。",
      "USen": "Ain't nothin' like having a\nbrand-new catchphrase!\nI can't wait to start saying\n\"(catchphrase)\" all the time!",
      "USes": "¡Estrenar muletilla es como estrenar\ntenis de lucecitas! ¡Ahora, a decir\n\"(catchphrase)\" hasta por los codos!",
      "USfr": "Il n'y a rien de tel que d'avoir\nune nouvelle expression fétiche,\n!\nJ'ai hâte de pouvoir l'utiliser\ndans toutes sortes de situations,\n."
    }
  },
  {
    "label": "300",
    "attribute": "0x0000000000000000",
    "locale": {
      "CNzh": "既然你\n这么说的话～\n我也觉得保持这样挺好的～\n今后，我也会继续用“(catchphrase)”\n这个口头禅的～。",
      "EUde": "Ach so! Wenn du dir sicher bist, \nwird schon alles so passen, wie\nes ist!\nAlso, du weißt ja, woran du mich\nauch weiterhin erkennst...\n(Floskel)!",
      "EUen": "I'm way down for just saying my\nusual thing!\nIf ya need me, just listen for\nmy \"(catchphrase).\"\n!",
      "EUes": "Bueno, si tanto te gusta mi muletilla,\ntampoco voy a ser yo quien discuta\neso contigo...\nSi me necesitas, solo tienes que\nseguir el sonido de «(catchphrase)»\npara encontrarme.",
      "EUfr": "C'est pas moi qui me plaindrai si tu\nveux pas que je change !\nSi tu me cherches, tends l'oreille et\nsuis les « (expression) » !",
      "EUit": "Beh, se vuoi che vada avanti come\nsempre, non mi metterò a discutere.\nSe avrai bisogno di me, continua a\nseguire il richiamo di \"⁠(catchphrase)\"!",
      "EUnl": "Nou, ik heb niks te klagen als jij wilt\ndat ik mijn ding blijf doen!\nAls je me zoekt, kun je me herkennen\naan mijn \"(catchphrase)\". !",
      "EUru": "Хорошо, не буду спорить, если ты\nхочешь, чтобы я сохранил свою\nстарую присказку!\nЕсли я тебе понадоблюсь, где\n«(catchphrase)», там и я.\n!",
      "JPja": "が\nそう言ってくれるんだったら、\nボク　このままでいいやぁ～\nこれからも　「(catchphrase)」を\nつかいつづけるよぉ～、",
      "KRko": "이\n괜찮다고 하면\n나는 이대로도 좋아～\n앞으로도 '(catchphrase)'!\n계속 이렇게 말할래, ～",
      "TWzh": "既然\n都這麼說了，\n那我還是別改吧～\n以後我也會繼續說\n「(catchphrase)」的～。",
      "USen": "I'm way down for just saying my\nusual thing!\nIf ya need me, just listen for\nmy \"(catchphrase).\"\n!",
      "USes": "Bueno, si crees que mi muletilla\nes perfecta, no te lo voy a discutir...\nSi alguna vez me necesitas,\npara bien la oreja y sigue mi\n\"(catchphrase)\" para encontrarme.",
      "USfr": "C'est pas moi qui me plaindrai si tu\nveux pas que je change!\nSi tu me cherches, tends l'oreille et\nsuis les « (expression) »!"
    }
  },
  {
    "label": "301",
    "attribute": "0x0000000000000000",
    "locale": {
      "CNzh": "这样啊～！\n那么～今后我也会继续用“(catchphrase)”\n这个口头禅的～\n其实～我还是挺喜欢\n这个口头禅的～。",
      "EUde": "Echt? Auf fein! Dann bleib ich doch\nglatt bei meinem „(Floskel)“!\nEIGENTLICH wollte ich eh nix ändern.\nIch wollte es nur nicht zugeben,\n(Floskel)! Äh, he he he!",
      "EUen": "Ya think so? Then I'll keep saying\n\"(catchphrase)\"! Easy!\nI secretly didn't wanna change it up\nanyway, .",
      "EUes": "¿De verdad piensas eso?\nPues entonces, ¡a seguir diciendo\n«(catchphrase)»! ¡Qué fácil ha sido!\nY, si te digo la verdad, tampoco\ntenía tantas ganas de cambiarla.\n¡(catchphrase)!",
      "EUfr": "Vrai de vrai ? Alors, je continuerai\nà dire « (expression) », c'est décidé !\nPour tout te dire, j'avais pas\nvraiment envie de changer, en fait,\n. Hé hé !",
      "EUit": "Ne sei proprio sicuro? Continuerò a esclamare \"⁠(catchphrase),\" allora. Più facile di così!\nTi confesso un segreto... Sotto sotto,\nnon avevo poi tutta questa fame di\ncambiamento, !",
      "EUnl": "Meen je dat echt? Dan hou ik het bij\n\"(catchphrase)\"! Lekker makkelijk!\nStiekem wilde ik hem toch niet\nveranderen, . Gheghe.",
      "EUru": "Ты не шутишь? Тогда я буду дальше\nговорить «(catchphrase)»!\nПостоянно!\nЧестно говоря, я вовсе не хотел\nничего менять. .\nУ-ху-ху!",
      "JPja": "そっかぁ～！\nじゃあ、このまま「(catchphrase)」って口ぐせを\nつかっていくよぉ～\nホントは　この口ぐせ、けっこう\n気に入ってたんだよねぇ～、",
      "KRko": "그렇구나아～!\n그럼 계속 '(catchphrase)',\n이 말버릇을 계속 쓸게에～\n솔직히 말하면...\n꽤 마음에 들거든, ～",
      "TWzh": "我明白了～！\n那我就繼續用「(catchphrase)」\n這個口頭禪囉～\n其實我也滿喜歡\n這個口頭禪的，。",
      "USen": "Ya think so? Then I'll keep saying\n\"(catchphrase)\"! Easy!\nI secretly didn't wanna change it up\nanyway, .",
      "USes": "¿De verdad eso piensas?\nPues entonces, ¡seguiré diciendo\n\"(catchphrase)\" sin parar!\nAdemás, si te soy sincero, no tenía\ntantas ganas de cambiarla.\n¡!",
      "USfr": "Vrai de vrai? Alors, je continuerai\nà dire « (expression) », c'est décidé!\nPour tout te dire, j'avais pas\nvraiment envie de changer, en fait,\n. Hé hé!"
    }
  },
  {
    "label": "302",
    "attribute": "0x0000000000000000",
    "locale": {
      "CNzh": "这样啊～能听到你这么说～\n我好像也开始觉得“(catchphrase)”\n这个口头禅挺好的呢～\n从今往后～\n我会更自信地说它的！。",
      "EUde": "Na gut. Ich fand eh schon die ganze\nZeit, dass „(Floskel)“ eigentlich\nganz nett klingt.\nEs macht einfach total Spaß, es zu\nsagen! (Floskel), (Floskel),\n(Floskel)!\nJetzt kriegt mich niemand mehr dazu,\nes nicht laut und deutlich in die Welt\nzu rufen, äh, he he he!",
      "EUen": "Cool, cool. I kinda always thought\n\"(catchphrase)\" was nice anyway...\nGood luck to anyone who wants stop\nme from saying \"\" now!",
      "EUes": "Vale, «(catchphrase)» suena\nestupendamente de todos modos...\n¡y es divertidísimo decirlo!\n¡El que quiera que yo deje de decir\n«(catchphrase)» lo lleva claro!",
      "EUfr": "Tant mieux ! J'ai toujours trouvé que dire « (expression) ⁠», ça sonnait bien... Et puis c'est rigolo !\nMaintenant, plus personne\nne pourra m'empêcher de crier\n« (expression) » haut et fort !",
      "EUit": "E va bene. Dopotutto, ho sempre pensato anch'io che \"⁠(catchphrase)\" suonasse bene...\nÈ così divertente da dire! Ora voglio\nvedere chi riuscirà a impedirmi di\nusarlo sempre, !",
      "EUnl": "Prima. Ik vond toch al dat \"⁠(catchphrase)⁠\" niet slecht klinkt... Het is gewoon leuk om te zeggen!\nNiemand houdt me tegen als ik\n\"⁠⁠\" zeg!",
      "EUru": "Классно. Я всегда считал, что\n«(catchphrase)» здорово звучит...\nМне нравится это говорить!\nМеня теперь никто не остановит!\n«(catchphrase)» и никаких гвоздей!",
      "JPja": "そっかぁ～、そう言われたら\nなんだか「(catchphrase)」って口ぐせが\nすごく　いいカンジに　思えてきたよぉ～\nこれからは　ムネをはって\nつかうことにするねぇ、",
      "KRko": "그렇구나아～\n듣고 보니 왠지 '(catchphrase)',\n이 말버릇이 아주 좋게 느껴져～\n앞으로는 당당하게\n쓰도록 할게에, ～",
      "TWzh": "這樣啊～聽你這麼說，\n讓我開始覺得「(catchphrase)」這個口頭禪\n似乎很不錯呢～\n以後我會自豪地\n說出口的，。",
      "USen": "Cool, cool. I kinda always thought\n\"(catchphrase)\" was nice anyway...\nGood luck to anyone who wants stop\nme from saying \"\" now!",
      "USes": "Bueno. Como sea, mi \"(catchphrase)\"\nsuena muy épico...\n¡Es divertidísimo decirlo!\n¡El que quiera que deje de decir\n\"(catchphrase)\", que se aguante!",
      "USfr": "Tant mieux! J'ai toujours trouvé que\ndire « (expression) », ça sonnait bien... Et puis c'est rigolo!\nMaintenant, plus personne\nne pourra m'empêcher de crier\n« (expression) » haut et fort!"
    }
  }
]