﻿[
  {
    "label": "001",
    "locale": {
      "CNzh": "给我重要的",
      "EUde": "Hallöchen, (Spitzname)!",
      "EUen": "Dear (nickname),",
      "EUes": "Para (nickname):",
      "EUfr": "Cher (surnom),",
      "EUit": "Caro (nickname)...",
      "EUnl": "Beste (player name),",
      "EUru": "Дорогой (nickname)!",
      "JPja": "たいせつな　へ",
      "KRko": "친절한 님께",
      "TWzh": "給我重要的",
      "USen": "Dear (nickname),",
      "USes": "Para (nickname):",
      "USfr": "Cher (surnom),"
    }
  },
  {
    "label": "002",
    "locale": {
      "CNzh": "你好，",
      "EUde": "Hallo, (Spitzname)!",
      "EUen": "Hi, (nickname)!",
      "EUes": "¡Hola, bichín!",
      "EUfr": "Salut, (surnom).",
      "EUit": "Salut, (nickname)!",
      "EUnl": "Hoi (nickname),",
      "EUru": "Привет, (nickname)!",
      "JPja": "こんにちは　",
      "KRko": "안녕하세요, 님!",
      "TWzh": "你好，",
      "USen": "Hi, (nickname)!",
      "USes": "¡Holita, (nickname)!",
      "USfr": "Salut (surnom),"
    }
  },
  {
    "label": "003",
    "locale": {
      "CNzh": "给挚友",
      "EUde": "Für dich, (Spitzname)!",
      "EUen": "Here you go, (nickname)!",
      "EUes": "Para el cumpleañero:",
      "EUfr": "Et voilà, (surnom) !",
      "EUit": "Ecco a te, (nickname)!",
      "EUnl": "Alsjeblieft, (nickname)!",
      "EUru": "Привет, (nickname)!",
      "JPja": "なかよしの　へ",
      "KRko": "친한 친구 님께",
      "TWzh": "給我的好朋友",
      "USen": "Here you go, (nickname)!",
      "USes": "Para el cumpleañero:",
      "USfr": "Et voilà, (surnom)!"
    }
  },
  {
    "label": "004",
    "locale": {
      "CNzh": "，辛苦了",
      "EUde": "Geschenk für (Spitzname)",
      "EUen": "Dear (nickname),",
      "EUes": "A mi adorado (nickname):",
      "EUfr": "Mon cher (surnom),",
      "EUit": "Carissimissimo (nickname)...",
      "EUnl": "Beste (player name),",
      "EUru": "Здравствуй, (nickname)!",
      "JPja": "おつかれさま、",
      "KRko": "수고하셨어요, 님",
      "TWzh": "辛苦了，",
      "USen": "Dear (nickname),",
      "USes": "Queridísimo (nickname):",
      "USfr": "Mon cher (surnom),"
    }
  },
  {
    "label": "005",
    "locale": {
      "CNzh": "给主角",
      "EUde": "An (Spitzname)",
      "EUen": "To (nickname), life of the party!",
      "EUes": "¡Hola, cumpleañero!",
      "EUfr": "À ce sacré (surnom),",
      "EUit": "A (nickname), anima della festa!",
      "EUnl": "(nickname), feestbeest!",
      "EUru": "(nickname)!",
      "JPja": "しゅやくの　へ",
      "KRko": "주인공 님께",
      "TWzh": "給主角",
      "USen": "To (nickname), life of the party!",
      "USes": "¡Hola, cumpleañerín!",
      "USfr": "À ce sacré (surnom),"
    }
  },
  {
    "label": "006",
    "locale": {
      "CNzh": "给乐观的",
      "EUde": "Nun, (Spitzname)...",
      "EUen": "So, (nickname),",
      "EUes": "¡Sorpresa, (nickname)!",
      "EUfr": "Bon, (surnom)...",
      "EUit": "Sorpresa, (nickname)!",
      "EUnl": "Nou (nickname),",
      "EUru": "Как дела, (nickname)?",
      "JPja": "ハッピーな　へ",
      "KRko": "행복 가득한 님께",
      "TWzh": "給常保愉悅的",
      "USen": "So, (nickname),",
      "USes": "¡Sorpresa, (nickname)!",
      "USfr": "Bon, (surnom)..."
    }
  },
  {
    "label": "007",
    "locale": {
      "CNzh": "谢谢你，",
      "EUde": "Hallo noch einmal, (Spitzname)!",
      "EUen": "Hi again, (nickname)!",
      "EUes": "Hola, (nickname):",
      "EUfr": "Re-bonjour, (surnom) !",
      "EUit": "Salut di nuovo, (nickname)!",
      "EUnl": "Daar ben ik weer, (nickname)!",
      "EUru": "Милый (nickname)!",
      "JPja": "ありがとう、",
      "KRko": "감사합니다, 님!",
      "TWzh": "謝謝你，",
      "USen": "Hi again, (nickname)!",
      "USes": "Hola, (nickname):",
      "USfr": "Rebonjour, (surnom)!"
    }
  },
  {
    "label": "008",
    "locale": {
      "CNzh": "亲爱的",
      "EUde": "Werter (Spitzname)!",
      "EUen": "Dear (nickname),",
      "EUes": "Estimado (nickname):",
      "EUfr": "Mon cher (surnom),",
      "EUit": "Caro (nickname)...",
      "EUnl": "Beste (player name),",
      "EUru": "Милейший (nickname)!",
      "JPja": "しんあいなる　",
      "KRko": "친애하는 님",
      "TWzh": "親愛的",
      "USen": "Dear (nickname),",
      "USes": "Estimado (nickname):",
      "USfr": "Cher (surnom),"
    }
  },
  {
    "label": "009",
    "locale": {
      "CNzh": "给魅力十足的",
      "EUde": "An meinen lieben (Spitzname)!",
      "EUen": "To my sweet friend (nickname),",
      "EUes": "Querido (nickname):",
      "EUfr": "À mon cher ami (surnom),",
      "EUit": "Al dolce (nickname)...",
      "EUnl": "(nickname), lieve vriend!",
      "EUru": "Дорогой (nickname)!",
      "JPja": "すてきな　へ",
      "KRko": "멋진 님께",
      "TWzh": "給有魅力的",
      "USen": "To my sweet friend (nickname),",
      "USes": "Querido (nickname):",
      "USfr": "À mon cher ami (surnom),"
    }
  },
  {
    "label": "101",
    "locale": {
      "CNzh": "我把之前没交给你的\n生日礼物寄过去哦。\n虽然不知道符不符合你的喜好，\n不过这是我用心准备的。\n我相信新的1年中，\n一定会发生许多好事的！",
      "EUde": "Hier ist noch das Geschenk, das\ndu von der Party nicht mit nach\nHause nehmen konntest. Wir haben\nuns sehr bemüht, etwas Nettes für\ndich auszuwählen – hoffentlich\ntrifft es deinen Geschmack.",
      "EUen": "I'm sending you the gift that you\ncouldn't carry home from the party.\nWe had a hard time deciding what\nwe should get for you, so here's\nhoping we chose well and you like\nit. Best wishes for your next year!",
      "EUes": "Te mando el regalo que no pudiste\nllevarte en la fiesta. Nos costó\nmucho decidir qué regalarte,\nespero que tomáramos la decisión\ncorrecta y que te guste.",
      "EUfr": "N'ayant pas réussi à t'offrir ce\ncadeau pour ton anniversaire, j'ai\npréféré te l'envoyer par la poste.\nNous avons eu bien du mal à nous\ndécider et j'espère que nous avons\nfait le bon choix !",
      "EUit": "Ti mando il regalo che non hai\npotuto portare a casa dalla festa.\nÈ stato difficile decidere cosa\nprenderti, ma speriamo di aver\nfatto la scelta giusta e che ti\npiaccia. Tantissimissimi auguri!",
      "EUnl": "Hier het cadeautje dat je na het\nfeestje niet mee naar huis kon\nnemen. Het was best moeilijk iets\nvoor je te vinden, dus ik hoop dat\nhet naar je zin is. Het allerbeste\nvoor het komende jaar!",
      "EUru": "Высылаю подарок, который\nты не смог забрать на\nвечеринке! Я долго ломала\nголову над тем, что тебе\nподарить. Надеюсь, тебе\nпонравится!",
      "JPja": "このまえ　わたせなかった\nたんじょうびの　おいわいを　おくります。\nきにいってくれるか　わからないけど、\nココロをこめて　よういしました。\nきっと　これからの1ねんは\nステキなできごとが　たくさんありますよ。",
      "KRko": "저번에는 드리지 못했던\n생일 축하 선물을 보내드려요.\n마음에 드실지 잘 모르겠지만\n진심을 다해서 준비해봤답니다.\n분명 앞으로의 나날도\n멋진 일들이 가득하실 거예요!",
      "TWzh": "我把之前沒能拿給你的\n生日禮物送來囉。\n雖然不知道你會不會喜歡，\n但這是我用心準備的。\n我相信接下來的一整年，\n一定會有很多好事發生的喔。",
      "USen": "I'm sending you the gift that you\ncouldn't carry home from the party.\nWe had a hard time deciding what\nwe should get for you, so here's\nhoping we chose well and you like\nit. Best wishes for your next year!",
      "USes": "Aquí te mando el regalo que no te\npudiste llevar. Espero que hayamos\nelegido algo que te dé muchas\nalegrías. Te mandamos nuestros\nmejores deseos en el inicio de esta\nnueva etapa.",
      "USfr": "N'ayant pas réussi à t'offrir ce\ncadeau pour ta fête, j'ai\npréféré te l'envoyer par la poste.\nNous avons eu bien du mal à nous\ndécider et j'espère que nous avons\nbien choisi!"
    }
  },
  {
    "label": "102",
    "locale": {
      "CNzh": "我把前几天没交给你的\n生日礼物寄过去哦。\n顺便重新和你说一声\n祝你生日快乐！\n虽然只是一点小东西，\n就请你收下我的这份心意吧。",
      "EUde": "Dies ist das Geschenk, das du von\nder Party vorhin nicht mit nach\nHause nehmen konntest. Hoffent-\nlich gefällt es dir! Und lass mich\ndie Gelegenheit für einen weiteren\nGeburtstagsgruß nutzen!",
      "EUen": "Here's that gift that you weren't\nable to carry home with you earlier.\nHope you like it! While I've got\nyour attention, can I sneak in one\nlast happy-birthday wish? It was\ngreat to celebrate with you!",
      "EUes": "Aquí tienes tu regalo, como te\nprometí. Aprovecho para volver\na felicitarte y para decirte que\nme hace muy feliz compartir estos\nmomentos tan importantes contigo.\n¡Gracias por tu amistad!",
      "EUfr": "Voici le cadeau que tu n'as pas pu\nemporter lors de ton anniversaire.\nJ'espère qu'il te fera plaisir, et\nque ta fête t'a plu. En tout cas,\nmoi, je me suis vraiment amusée !",
      "EUit": "Ecco il regalo che non hai potuto\nportare via con te in precedenza.\nSpero ti piaccia! Ora che ho la tua\nattenzione, posso permettermi\nun ultimo \"augurissimissimi\"?\nÈ stato sublime festeggiare con te!",
      "EUnl": "Hier het cadeautje dat je eerder\nniet mee naar huis kon nemen. Ik\nhoop dat je het leuk vindt! En nu ik\nje toch spreek, wil ik je nog één\nkeer een mooi jaar toewensen. Fijn\ndat ik erbij mocht zijn op je feestje!",
      "EUru": "Шлю подарок, который тебе\nне удалось раньше забрать.\nНадеюсь, он будет кстати!\nПользуясь случаем, хочу еще\nраз поздравить тебя!",
      "JPja": "せんじつ、わたしそびれてしまった\nバースデープレゼントを　おくりますね。\nあらためて、たんじょうび\nおめでとうございます。\nたいしたものじゃ　ないんですけど、\nわたしのキモチ、うけとってください。",
      "KRko": "저번에 미처 드리지 못했던\n생일 선물을 보내드려요.\n다시 한번 생일을\n진심으로 축하드려요!\n대단한 물건은 아니지만\n제 마음을 담았으니 받아주세요!",
      "TWzh": "我把前幾天沒能拿給你的\n生日禮物送過來囉。\n趁著這個機會，\n再次祝你生日快樂。\n我準備了一點小東西給你，\n不成敬意，希望你能收下我的心意喔。",
      "USen": "Here's that gift that you weren't\nable to carry home with you earlier.\nHope you like it! While I've got\nyour attention, can I sneak in one\nlast happy-birthday wish? It was\ngreat to celebrate with you!",
      "USes": "Aquí tienes tu regalo, como te\nprometí. Aprovecho para volver\na felicitarte y para decirte que\nme hace muy feliz compartir estos\nmomentos tan importantes contigo.\n¡Gracias por tu amistad!",
      "USfr": "Voici le cadeau que tu n'as pas\npu emporter lors de ta fête.\nJ'espère qu'il te fera plaisir, et\nque ta fête t'a plu. En tout cas,\nmoi, je me suis vraiment amusée!"
    }
  },
  {
    "label": "103",
    "locale": {
      "CNzh": "生日快乐，\n！\n让你久等了，我把礼物给你寄过去哦。\n这是我用心准备的，\n希望它能带给你一份快乐。\n不嫌弃的话就请拿去用吧。",
      "EUde": "Herzlichen Glückwunsch,\n(Spitzname)! Hier ist noch\ndein Geschenk, das du nicht\nmitnehmen konntest. Wir alle\nhoffen, dass du einen wunderbaren\nGeburtstag verbracht hast!",
      "EUen": "Happy birthday, (nickname)!\nHere's that present you've been\nwaiting for, the one you couldn't\ntake home from the party. I know\nI speak for everyone when I say\nI hope you had a really great day!",
      "EUes": "¡Feliz cumpleaños, flor! Aquí te\nmando el regalo que no pudiste\nllevarte a casa. Deseamos que\nte guste y que podamos volver\na celebrarlo el año que viene.",
      "EUfr": "Je t'envoie le cadeau que tu n'as\npas pu rapporter lors de ta fête\nd'anniversaire. Ouvre-le sans plus\ntarder, tu dois vraiment mourir\nd'impatience ! J'espère qu'il\négaiera ta journée !",
      "EUit": "Tanti auguri! Ecco il cadeau che\naspettavi e che non hai potuto\nportare con te. So di parlare per\ntutti quando dico che spero che la\nfesta sia stata di tuo gradimento!",
      "EUnl": "Gefeliciteerd, (nickname)!\nHier is het cadeautje dat je nog\ntegoed had; het pakje dat je na het\nfeestje niet mee naar huis kon\nnemen. We hopen allemaal dat het\neen fantastische dag voor je was!",
      "EUru": "С днем рождения! Шлю тебе\nподарок, который тебе не\nудалось забрать в тот раз.\nЯ и все, кто был на твоей\nвечеринке, надеемся, что\nпраздник тебе понравился!",
      "JPja": "ハッピーバースデー、\n！\nおまちかねの　プレゼントを　おくります。\nあなたの　しあわせを　ねがって、\nわたしなりに　かんがえてみました。\nよかったら、つかってください。",
      "KRko": "해피 버스데이,\n님!\n기다리셨을 선물을 보내드려요.\n당신이 행복하길 바라면서\n저 나름대로 고심해서 준비했어요!\n부디 잘 사용해주세요.",
      "TWzh": "，\n祝你生日快樂！\n久等了，我把生日禮物送來囉。\n我懷抱著對你的祝福，\n試著想了個你會喜歡的禮物喔。\n如果不嫌棄的話，請拿去用吧。",
      "USen": "Happy birthday, (nickname)!\nHere's that present you've been\nwaiting for, the one you couldn't\ntake home from the party. I know\nI speak for everyone when I say\nI hope you had a really great day!",
      "USes": "¡Feliz cumpleaños, flor! Aquí te\nmando el regalo que no pudiste\nllevarte a casa. Deseamos que\nte guste. Ojalá podamos volver\na celebrar muchos cumpleaños\nmás contigo.",
      "USfr": "Je t'envoie le cadeau que tu n'as\npas pu emporter lors de ta fête\nd'anniversaire. Ouvre-le sans plus\ntarder, tu dois vraiment mourir\nd'impatience! J'espère qu'il\négaiera ta journée!"
    }
  },
  {
    "label": "104",
    "locale": {
      "CNzh": "这场生日派对玩得真是尽兴呢！\n感觉拖久了不太好，\n所以我抓紧时间把纸杯蛋糕寄过去哦。\n因为还有很多，\n也可以分给朋友一起吃！\n明年再一起庆祝吧。",
      "EUde": "Welch gelungene Geburtstagsfeier!\nIch wollte dir schnell noch die\nCupcakes schicken, die du nicht\nmitnehmen konntest. Es sind so\nviele, dass du sie sogar noch mit\nFreunden teilen kannst.",
      "EUen": "What a fun birthday party! I wanted\nto make sure your cupcakes got to\nyou as soon as possible, since you\nweren't able to take them with you.\nThere are a lot, so you may want\nto share them around with friends.",
      "EUes": "¡Qué bien nos lo pasamos en tu\nfiesta! He enviado los pastelitos\ntan pronto como he podido para\nque tengas tiempo de compartirlos\ncon tus amigos y vecinos.",
      "EUfr": "Je me suis tellement amusée à ton\nanniversaire ! Voici les cupcakes\nque tu n'as pas pu emporter, je\ntenais à ce que tu les reçoives le\nplus vite possible. J'en ai mis plein\npour que tu puisses les partager !",
      "EUit": "Che festa di compleanno fantastica\nla tua! Ho voluto inviarti i cupcake\nil prima possibile, affinché tu possa\navere il tempo di condividerli con\ni tuoi amici e i vicini.",
      "EUnl": "Wat was dat een leuk verjaardags-\nfeestje! Hier zijn de cupcakejes die\nje niet mee kon nemen, hopelijk\nzijn ze nog op tijd. Het zijn er heel\nwat, dus eet ze niet allemaal zelf\nop!",
      "EUru": "Твоя вечеринка удалась на\nславу! Шлю твои кексики,\nкоторые не удалось отдать\nтебе на празднике. Сам ты\nвсе не съешь — можешь\nподелиться с друзьями.",
      "JPja": "たのしい　バースデーパーティーでしたね！\nおそくならないほうが　いいとおもったので\nいそぎで　カップケーキを　おくります。\nたくさん　ありますから、おともだちに\nプレゼントされては　いかがですか？\nまた　らいねんも　おいわいしましょうね。",
      "KRko": "정말 즐거운 생일 파티였어요!\n최대한 빨리 보내는 게 좋을 것 같아\n컵케이크를 바로 보내드려요.\n양은 아주 넉넉하니까 친구분들께\n선물해보는 건 어떠세요?\n내년에도 다 같이 생일 파티를 해요!",
      "TWzh": "這次的慶生會真開心呢！\n我覺得紙杯蛋糕還是趁早給你比較好，\n所以就趕緊送來了。\n紙杯蛋糕有很多，\n不妨送給朋友一起吃如何呢？\n明年我們也再一起慶祝吧。",
      "USen": "What a fun birthday party! I wanted\nto make sure your cupcakes got to\nyou as soon as possible, since you\nweren't able to take them with you.\nThere are a lot, so you may want\nto share them around with friends.",
      "USes": "¡Qué bien la pasamos en tu\nfiesta! Te mandé los pastelitos\ntan pronto como pude para que\npuedas compartirlos con tus\namigos y vecinos.",
      "USfr": "Je me suis tellement amusée\nà ta fête! Voici les cupcakes\nque tu n'as pas pu emporter, je\ntenais à ce que tu les reçoives le\nplus vite possible. J'en ai mis plein\npour que tu puisses les partager!"
    }
  },
  {
    "label": "105",
    "locale": {
      "CNzh": "生日派对上玩得开心吗？\n很高兴能够聚在一起\n为你庆祝生日！\n你没能把从皮纳塔里得到的纸杯蛋糕带走，\n我这就给你寄过去，\n请你收下吧。",
      "EUde": "Hat dir deine Party gefallen? Ich\nbin so froh, dass ich da war, um mit\ndir zu feiern! Hiermit sende ich dir\nnoch die Cupcakes aus der Piñata,\ndie du nicht mitnehmen konntest.\nTeile sie, wenn du magst!",
      "EUen": "Did you have fun at your party?\nI'm so glad I was there to celebrate\nwith you! I'm sending along those\nbirthday cupcakes from the piñata,\nthe ones you couldn't carry home.\nShare them while they're fresh!",
      "EUes": "¿Disfrutaste de tu fiesta, flor?\n¡Yo me lo pasé genial en vuestra\ncompañía! Te envío los pastelitos\nque sacaste de la piñata. Son\ntuyos para que los compartas o\nte pegues un atracón, ¡tú verás!",
      "EUfr": "Est-ce que tu t'es bien amusé\nà ta fête ? En tout cas, j'ai été\nravie de pouvoir en profiter avec\ntoi. Voici les cupcakes que tu n'as\npas pu emporter. Partage-les tant\nqu'ils sont encore bons !",
      "EUit": "Ti sei divertito alla festa? Sono\nfelice di essere stata presente!\nTi mando i cupcake che hai tirato\nfuori dalla pignatta e che non hai\npotuto portare con te. Condividili\nmentre sono ancora freschi!",
      "EUnl": "Heb je genoten van je feestje? Ik\nben zo blij dat ik erbij mocht zijn!\nHierbij je verjaardagscakejes uit de\npiñata die je niet mee naar huis\nkon nemen. Deel maar uit, ze zijn\nnu nog vers!",
      "EUru": "Тебе понравилось на своем\nдне рождения? Я рада, что\nмне довелось побывать на\nвечеринке! Шлю кексики,\nкоторые ты не забрал.\nИх много — угости друзей!",
      "JPja": "バースデーパーティー、たのしめましたか？\nあなたの　たんじょうびを　いっしょに\nおいわいできて、うれしかったです。\nさっき　もってかえれなかった\nピニャータわりの　カップケーキを\nおくるので、うけとってくださいね。",
      "KRko": "생일 파티는 즐거우셨나요?\n당신의 생일을 다 함께 축하해서\n저는 그게 제일 기뻤답니다!\n아까 전에 가져가시지 못한\n피냐타 속 컵케이크를 보내드려요.\n맛있게 드세요!",
      "TWzh": "這次的慶生會玩得開心嗎？\n能一起幫你慶祝生日，\n我真的很開心喔！\n我把剛才你敲皮納塔後\n卻帶不回來的紙杯蛋糕送來了，\n請收下吧。",
      "USen": "Did you have fun at your party?\nI'm so glad I was there to celebrate\nwith you! I'm sending along those\nbirthday cupcakes from the piñata,\nthe ones you couldn't carry home.\nShare them while they're fresh!",
      "USes": "¿Te la pasaste bien en tu fiesta\nde cumpleaños? ¡Porque yo sí!\nTe mando aquí los pastelitos\nque quedé en mandarte. ¡Son\nmuchos! Recuerda que compartir\ntrae muchas alegrías...",
      "USfr": "Est-ce que tu t'es bien amusé\nà ta fête? En tout cas, j'ai été\nravie de pouvoir en profiter avec\ntoi. Voici les cupcakes que tu\nn'as pas pu emporter. Partage-les\npendant qu'ils sont encore bons!"
    }
  },
  {
    "label": "106",
    "locale": {
      "CNzh": "生日派对上辛苦了！\n趁着现在还没忘记，\n我把刚才没交给你的纸杯蛋糕寄过去哦。\n这个蛋糕还挺好吃的呢。\n分给周遭的其他人一起吃，\n他们一定会很开心的。",
      "EUde": "War das nicht eine wundervolle\nFeier? Bevor ich es vergesse,\nschicke ich dir noch deine\nCupcakes. Sehen sie nicht zum\nAnbeißen aus? Teile sie doch\neinfach mit deinen Freunden.",
      "EUen": "Wasn't that a great birthday party?\nI'm sending along these cupcakes\nnow before I forget. I think they\ncame out pretty tasty—hope you\nagree! I bet you'd make even more\nfriends if you shared these around.",
      "EUes": "¡Tu fiesta de cumpleaños fue\nla repanocha! Al final no se me ha\nolvidado enviarte los pastelitos,\n¿ves? Están deliciosos... seguro\nque al resto de tus amigos les\nencantaría probarlos.",
      "EUfr": "Qu'as-tu pensé de ta fête\nd'anniversaire ? Je t'envoie tout\nde suite ces cupcakes, sinon je\nrisque d'oublier. Je les trouve\nassez réussis et j'espère qu'ils\nseront à ton goût. Partage-les !",
      "EUit": "La tua festa di compleanno è stata\nmagnifica! Prima che mi dimentichi,\nti mando i cupcake. Pour moi sono\ndeliziosi e scommetto che anche\nil resto dei tuoi amici li troverà\nirresistibili!",
      "EUnl": "Als dat geen mooi verjaardags-\npartijtje was! Voor ik het vergeet,\nhier heb je ook wat cupcakes. Zelf\nvind ik ze best goed gelukt! Deel\nmaar lekker uit, dan maak je vast\nnóg meer vrienden.",
      "EUru": "Праздник удался на славу!\nПока не забыла, высылаю\nкексики, которые тебе не\nудалось забрать. Они очень\nвкусные и их много! Так\nчто угости друзей!",
      "JPja": "おたんじょうびかい、おつかれさまでした。\nさっき　わたせなかった　カップケーキ、\nわすれないうちに　おくっちゃいますね。\nこのケーキ、けっこう　おいしいんですよ。\nまわりのみんなに　おすそわけしたら、\nよろこばれるんじゃないかと　おもいます。",
      "KRko": "생일 축하 파티, 즐거우셨나요?\n아까 드리지 못한 컵케이크를\n깜빡하기 전에 미리 보내드려요.\n이 케이크는 생각보다 맛있답니다!\n주변 이웃분들께 나눠드리면\n분명히 좋아하실 거예요.",
      "TWzh": "慶生會辛苦了。\n我趁我還記得的時候，\n把剛才沒能拿給你的紙杯蛋糕送來囉。\n這蛋糕非常美味喔！\n如果分送給你周遭的朋友們，\n他們應該會很開心喔。",
      "USen": "Wasn't that a great birthday party?\nI'm sending along these cupcakes\nnow before I forget. I think they\ncame out pretty tasty—hope you\nagree! I bet you'd make even more\nfriends if you shared these around.",
      "USes": "¡Creo que jamás había asistido\na una fiesta de cumpleaños tan\nmágica! Aquí te mando los\npastelitos que quedé en mandarte.\n¡Son deliciosos! Recuerda que\ncompartir nutre el alma...",
      "USfr": "Qu'as-tu pensé de ta fête\nd'anniversaire? Je t'envoie tout\nde suite ces cupcakes, sinon\nje risque d'oublier. Je les trouve\nassez réussis et j'espère qu'ils\nseront à ton goût. Partage-les!"
    }
  },
  {
    "label": "107",
    "locale": {
      "CNzh": "谢谢你前几天把纸杯蛋糕分给我，\n我真的很开心。\n为了庆祝你又增长了一岁，\n我今天把当时没交给你的\n生日礼物寄过去哦！\n然后再次祝贺你生日快乐！",
      "EUde": "Danke, dass du einen Cupcake\nmit mir geteilt hast. Ich möchte\ndir noch das Geschenk zukommen\nlassen, das du neulich nicht\nmitnehmen konntest. Ich hoffe, du\nhattest einen tollen Geburtstag!",
      "EUen": "Thanks for sharing one of your\ncupcakes with me. I wanted to\nmake sure you got this present\nthat I couldn't give you before.\nI said this already, but I hope\nyou had a very happy birthday!",
      "EUes": "Gracias por darme ese pastelito\ntan rico. Quería asegurarme de\nque recibieras el regalo que no\npude darte el otro día, así que\naquí lo tienes. ¡Feliz cumpleaños!",
      "EUfr": "Ce cupcake que tu m'as donné\nétait succulent, merci ! J'en profite\npour t'envoyer ce cadeau que je\nn'ai pu t'offrir auparavant.\nEncore joyeux anniversaire !",
      "EUit": "Merci di aver condiviso uno dei\ntuoi cupcake con me. Volevo\nassicurarmi che ricevessi il\nregalo che non avevo potuto\ndarti l'altro giorno. So di averlo\ngià detto, ma... Buon compleanno!",
      "EUnl": "Wat aardig dat je me een cupcakeje\nhebt gegeven. Hier is het cadeau\ndat ik je nog wilde geven. Ik had\nhet natuurlijk al gezegd, maar ik\nhoop dat je een heel fijne\nverjaardag hebt gehad!",
      "EUru": "Спасибо, что поделился\nкексиками! Пока не поздно,\nхочу отблагодарить тебя\nподарком. И еще раз хочу\nпожелать тебе всего\nсамого-самого лучшего!",
      "JPja": "せんじつは　カップケーキを\nわけてくださり　うれしかったです。\nまたひとつ　オトナになった　あなたへ、\nきょうは、あのとき　わたせなかった\nバースデープレゼントを　おくりますね！\nあらためて、おめでとうございます。",
      "KRko": "저번에는 컵케이크를\n나눠주셔서 정말 감사했어요!\n오늘은 한 살 더 어른이 된 당신께\n그때 드리지 못한\n생일 선물을 보내드리려구요.\n다시 한번, 생일 축하드려요!",
      "TWzh": "前幾天你分給我紙杯蛋糕，\n我覺得好高興！\n今天我要把那時沒送成的\n生日禮物送給你。\n獻給又變得更加成熟的你！\n再次跟你說聲，生日快樂。",
      "USen": "Thanks for sharing one of your\ncupcakes with me. I wanted to\nmake sure you got this present\nthat I couldn't give you before.\nI said this already, but I hope\nyou had a very happy birthday!",
      "USes": "Gracias por compartir conmigo uno\nde tus pastelitos. ¡Espero que\nhayas pasado un muy feliz cumple!\nAquí te mando el regalito que\nte prometí. Te deseo una nueva\netapa llena de buenas vibras.",
      "USfr": "Ce cupcake que tu m'as donné\nétait succulent, merci! J'en profite\npour t'envoyer ce cadeau que je\nn'ai pu t'offrir auparavant.\nEncore bonne fête!"
    }
  },
  {
    "label": "108",
    "locale": {
      "CNzh": "你准备的惊喜实在是令我太开心了，\n所以我把你送给我纸杯蛋糕这件事\n向朋友们炫耀了一番呢。\n我今天把之前没交给你的\n生日礼物寄过去哦，\n请你务必收下。",
      "EUde": "Es war so eine nette Geste von dir,\neinen Cupcake mit mir zu teilen. Ich\nwollte dir da schon ein Geschenk\ngeben, doch du konntest es nicht\nmitnehmen. Hoffentlich gefällt es\ndir. Herzlichen Glückwunsch!",
      "EUen": "It was a really nice gesture for you\nto share one of your cupcakes with\nme. I wanted to give you this gift\nthen, but you weren't able to carry\nit home. I hope you like it, and that\nyou had a really great birthday!",
      "EUes": "Fuiste muy amable al compartir\nuno de tus pastelitos conmigo.\nAquí te mando el regalo que no\npudiste llevarte. Ojalá te guste\ny te alegre el día.\n¡Feliz cumpleaños!",
      "EUfr": "J'ai vraiment apprécié que tu\nm'offres un de tes cupcakes.\nJe voulais te donner ce cadeau,\nmais tu n'as malheureusement pas\npu le prendre. J'espère qu'il te\nfera plaisir !",
      "EUit": "Che gesto splendido da parte tua\ncondividere uno dei tuoi cupcake\ncon me. Ecco il regalo che non hai\npotuto prendere con te. Spero ti\npiaccia e che tu abbia trascorso\nun compleanno eccezionale!",
      "EUnl": "Ik vond het zo aardig dat je me een\ncupcake hebt gegeven. Ik had nog\neen cadeau voor je, maar je kon\nhet toen niet meenemen. Hopelijk\nben je er blij mee en heb je een\nleuke verjaardag gehad!",
      "EUru": "Так было мило с твоей стороны\nподелиться со мной кексиками!\nЯ хотела тебе свой подарок\nпрямо на вечеринке отдать, но\nты не cмог унести его домой.\nТак что высылаю его сейчас!",
      "JPja": "サプライズみたいで　うれしかったから、\nあなたに　カップケーキをもらったことを\nおともだちに　ジマンしちゃいました。\nきょうは、このまえ　わたせなかった\nバースデープレゼントを　おくりますね。\nぜひ　うけとってください。",
      "KRko": "서프라이즈 같아서 얼마나 기쁘던지\n당신께 컵케이크를 받았던 일을\n친구에게 자랑하고 말았지 뭐예요.\n오늘은 저번에 드리지 못한\n생일 선물을 보내드려요.\n부디 받아주세요.",
      "TWzh": "收到你的紙杯蛋糕讓我好驚喜，\n因為實在太高興，\n於是我忍不住向朋友們炫耀了呢。\n今天我要把先前沒能拿給你的\n生日禮物送給你，\n希望你一定要收下喔！",
      "USen": "It was a really nice gesture for you\nto share one of your cupcakes with\nme. I wanted to give you this gift\nthen, but you weren't able to carry\nit home. I hope you like it, and that\nyou had a really great birthday!",
      "USes": "Te agradezco de todo corazón que\ncompartieras uno de tus pastelitos\nconmigo. Te mando el regalo que\nno te pudiste llevar. ¡Disfrútalo!",
      "USfr": "J'ai vraiment aimé que tu m'offres\nun de tes cupcakes.\nJe voulais te donner ce cadeau,\nmais tu n'as malheureusement pas\npu le prendre. J'espère qu'il te\nfera plaisir!"
    }
  },
  {
    "label": "109",
    "locale": {
      "CNzh": "谢谢你之前\n把纸杯蛋糕分给我。\n我给你寄了一点生日礼物，\n不嫌弃的话就请收下吧。\n虽然我们年年都在成长，\n不过我相信友谊一定能够长存的。",
      "EUde": "Wie lieb von dir, dass du einen\ndeiner Cupcakes mit mir geteilt\nhast. Du konntest dein Geschenk\nnicht mitnehmen, daher schicke ich\nes dir nun. Ein Geburtstagskind\nbraucht schließlich ein Geschenk!",
      "EUen": "Thank you so much for sharing one\nof your cupcakes with me recently.\nYou couldn't take this gift home\nwith you at the time, but I wanted\nto make sure you got something\nfrom me for your birthday. Enjoy!",
      "EUes": "No podía dejar que te fueras\ncon las manos vacías después\nde darme ese pastelito tan rico...\nSiento que te llegue con retraso,\npero espero que te guste mi\nregalo de cumple.",
      "EUfr": "Merci beaucoup pour le cupcake !\nComme tu avais trop d'affaires\npour recevoir mon cadeau, je te\nl'envoie en express car je veux\nque tu en profites pour ton\nanniversaire.",
      "EUit": "Non potevo lasciarti a zampe vuote\ndopo aver condiviso uno dei tuoi\ncupcake di compleanno con me...\nMi spiace per il ritardo, ma spero\nti piaccia il mio regalo per il tuo\ngiorno speciale!",
      "EUnl": "Enorm bedankt voor het cupcakeje\ndat je me laatst hebt gegeven. Je\ncadeautje kon je toen niet mee\nnaar huis nemen, maar ik wilde je\ntoch iets voor je verjaardag geven.\nGeniet ervan!",
      "EUru": "Хочу сказать спасибо за\nкексики! Высылаю твой\nподарок, который мне не\nудалось отдать тогда.\nЕще раз от всей души\nпоздравляю! Всех благ!",
      "JPja": "このまえは、カップケーキのおすそわけを\nどうもありがとうございました。\nバースデープレゼントを　おくりますので、\nよかったら、もらってください。\nまいとし、オトナに　なっていきますけど\nこれからさきも　なかよしでいましょうね。",
      "KRko": "저번에 컵케이크를 나눠주신 거,\n정말 감사했어요!\n늦었지만 생일 선물을 보내드리니\n부디 받아주세요.\n한 살, 한 살 어른이 되어가더라도\n앞으로도 사이좋게 지내요.",
      "TWzh": "非常感謝你\n先前把紙杯蛋糕分送給我。\n我準備了生日禮物要給你，\n如果不嫌棄的話，就請你收下吧。\n雖然我們會一年一年慢慢變成大人，\n但希望我們今後都能一直當好朋友喔。",
      "USen": "Thank you so much for sharing one\nof your cupcakes with me recently.\nYou couldn't take this gift home\nwith you at the time, but I wanted\nto make sure you got something\nfrom me for your birthday. Enjoy!",
      "USes": "Tenía que agradecerte por\ncompartir conmigo un pastelito\ntan rico, así que aquí te mando\nun regalito... ¡Espero que te guste!\nY felicidades otra vez.",
      "USfr": "Merci beaucoup pour le cupcake!\nComme tu avais trop d'affaires\npour emporter mon cadeau, je te\nl'envoie en express, car je veux\nque tu en profites pour ta fête."
    }
  },
  {
    "label": "201",
    "locale": {
      "CNzh": "我有这种预感。(resident name)",
      "EUde": "Freue mich für dich! (Einwohnername)",
      "EUen": "Happy birthday! –(resident name)",
      "EUes": "¡Feliz cumpleaños! (resident name)",
      "EUfr": "Joyeux anniversaire, (nom du résident)",
      "EUit": "Buon compleanno! (resident name)",
      "EUnl": "Gefeliciteerd! (resident name)",
      "EUru": "Поздравляю! (resident name)",
      "JPja": "そんなきが　するんです、(resident name)",
      "KRko": "그럴 거예요! (resident name) 드림",
      "TWzh": "我有那種感覺呢，(resident name)　筆",
      "USen": "Happy birthday! –(resident name)",
      "USes": "¡Feliz cumpleaños, (resident name)!",
      "USfr": "Bonne fête, (nom du résident)"
    }
  },
  {
    "label": "202",
    "locale": {
      "CNzh": "请多关照。(resident name)",
      "EUde": "Herzlichst, (Einwohnername)",
      "EUen": "Glad to know you, (resident name)",
      "EUes": "Muchos besos, (resident name)",
      "EUfr": "Sincèrement, (nom du résident)",
      "EUit": "Sei un tesoro, (resident name)",
      "EUnl": "Blij dat ik je ken, (resident name)",
      "EUru": "Рада нашей дружбе! (resident name)",
      "JPja": "よろしくおねがいします　(resident name)",
      "KRko": "잘 부탁드려요! (resident name) 드림",
      "TWzh": "還請你多多指教，(resident name)",
      "USen": "Glad to know you, (resident name)",
      "USes": "No cambies, (resident name)",
      "USfr": "Sincèrement, (nom du résident)"
    }
  },
  {
    "label": "203",
    "locale": {
      "CNzh": "今天就写到这里吧。(resident name)",
      "EUde": "Schreib mal, (Einwohnername)",
      "EUen": "Until next time, (resident name)",
      "EUes": "Hasta la próxima, (resident name)",
      "EUfr": "À bientôt j'espère, (nom du résident)",
      "EUit": "Alla prossima, (resident name)",
      "EUnl": "Tot gauw, (resident name)",
      "EUru": "До скорого! (resident name)",
      "JPja": "きょうはこれにて　(resident name)",
      "KRko": "오늘은 이만! (resident name) 드림",
      "TWzh": "今天先寫到這裡，(resident name)",
      "USen": "Until next time, (resident name)",
      "USes": "Nos vemos pronto, (resident name)",
      "USfr": "À bientôt j'espère, (nom du résident)"
    }
  },
  {
    "label": "204",
    "locale": {
      "CNzh": "那就再见啦。(resident name)",
      "EUde": "Guten Appetit! (Einwohnername)",
      "EUen": "Enjoy them! –(resident name)",
      "EUes": "¡Disfrútalos! (resident name)",
      "EUfr": "Bon appétit ! (nom du résident)",
      "EUit": "Goditeli! (resident name)",
      "EUnl": "Geniet ervan! (resident name)",
      "EUru": "Будь здоров! (resident name)",
      "JPja": "それでは　また、(resident name)",
      "KRko": "또 쓸게요! (resident name)",
      "TWzh": "那就再會囉，(resident name)",
      "USen": "Enjoy them! –(resident name)",
      "USes": "¡Disfrútalos! (resident name)",
      "USfr": "Bon appétit! (nom du résident)"
    }
  },
  {
    "label": "205",
    "locale": {
      "CNzh": "(resident name)敬上",
      "EUde": "Es grüßt, (Einwohnername)",
      "EUen": "Sincerely, (resident name)",
      "EUes": "Con cariño, (resident name)",
      "EUfr": "Cordialement, (nom du résident)",
      "EUit": "Cordialmente, (resident name)",
      "EUnl": "Hartelijke groet, (resident name)",
      "EUru": "Обнимаю! (resident name)",
      "JPja": "(resident name)より",
      "KRko": "(resident name) 드림",
      "TWzh": "(resident name)　筆",
      "USen": "Sincerely, (resident name)",
      "USes": "Con cariñito, (resident name)",
      "USfr": "Cordialement, (nom du résident)"
    }
  },
  {
    "label": "206",
    "locale": {
      "CNzh": "请问你觉得怎么样？(resident name)",
      "EUde": "Viel Spaß! (Einwohnername)",
      "EUen": "Dig in and enjoy! –(resident name)",
      "EUes": "Con amor, (resident name)",
      "EUfr": "Sers-toi bien ! (nom du résident)",
      "EUit": "Bon appétit! (resident name)",
      "EUnl": "Eet smakelijk! (resident name)",
      "EUru": "Всех благ! (resident name)",
      "JPja": "いかがでしょうか？　(resident name)",
      "KRko": "어떠신가요? (resident name) 드림",
      "TWzh": "不知你覺得如何呢？(resident name)",
      "USen": "Dig in and enjoy! –(resident name)",
      "USes": "Con amor, (resident name)",
      "USfr": "Sers-toi bien! (nom du résident)"
    }
  },
  {
    "label": "207",
    "locale": {
      "CNzh": "(resident name)敬上♪",
      "EUde": "Schöne Grüße, (Einwohnername)",
      "EUen": "Yours truly, (resident name)",
      "EUes": "De tu vecina, (resident name)",
      "EUfr": "Affectueusement, (nom du résident)",
      "EUit": "Cordiali saluti, (resident name)",
      "EUnl": "Groetjes, (resident name)",
      "EUru": "Твоя подруга (resident name)",
      "JPja": "(resident name)でした♪",
      "KRko": "(resident name)이랍니다♪",
      "TWzh": "(resident name)　敬上♪",
      "USen": "Yours truly, (resident name)",
      "USes": "De tu vecina, (resident name)",
      "USfr": "Affectueusement, (nom du résident)"
    }
  },
  {
    "label": "208",
    "locale": {
      "CNzh": "诚挚的(resident name)敬上",
      "EUde": "Nur das Beste, (Einwohnername)",
      "EUen": "Warmest wishes, (resident name)",
      "EUes": "Besitos, (resident name)",
      "EUfr": "Tous mes vœux, (nom du résident)",
      "EUit": "Calorosi auguri, (resident name)",
      "EUnl": "Een lieve groet van (resident name)",
      "EUru": "Обнимаю! (resident name)",
      "JPja": "(resident name)より　こころをこめて",
      "KRko": "(resident name)이 마음을 담아",
      "TWzh": "誠摯的(resident name)　筆",
      "USen": "Warmest wishes, (resident name)",
      "USes": "Besitos, (resident name)",
      "USfr": "Tous mes vœux, (nom du résident)"
    }
  },
  {
    "label": "209",
    "locale": {
      "CNzh": "我们约好了哦。(resident name)",
      "EUde": "Ganz liebe Grüße, (Einwohnername)",
      "EUen": "Best wishes, (resident name)",
      "EUes": "Abrazos, (resident name)",
      "EUfr": "Meilleurs vœux, (nom du résident)",
      "EUit": "Ancora auguri, (resident name)",
      "EUnl": "Veel liefs, (resident name)",
      "EUru": "Целую! (resident name)",
      "JPja": "やくそくですよ、(resident name)",
      "KRko": "약속이에요! (resident name) 드림",
      "TWzh": "我們約好囉，(resident name)",
      "USen": "Best wishes, (resident name)",
      "USes": "Abrazos, (resident name)",
      "USfr": "Meilleurs vœux, (nom du résident)"
    }
  }
]