﻿[
  {
    "label": "001",
    "attribute": "0x0000000100000000",
    "locale": {
      "CNzh": "……哦？抱歉！\n我应该是找你有事来着，\n不过不小心忘记啦！哈哈！",
      "EUde": "Hey! Ich muss dir was sagen, aber\nich hab vergessen, was es war. Hm...\n(Floskel)?",
      "EUen": "Yo! I totally have something\nto tell you, but I can't remember\nwhat it is. So...(catchphrase)?",
      "EUes": "¡Anda! Precisamente contigo quería\nyo hablar de un asunto, pero ahora...\nno me acuerdo.",
      "EUfr": "Salut ! Je voulais te parler d'un sujet\npassionnant, mais j'ai oublié lequel...\nDu coup, je te dis « (expression) ».",
      "EUit": "Ehilà! Capiti a fagiolo... Dovevo dirti\nassolutamente una cosa, solo che...\nOra non me la ricordo, (catchphrase)!",
      "EUnl": "Gegroet! Er is iets dat ik je wilde\nvertellen, maar ik ben compleet\nvergeten wat het was.\nDus... (catchphrase)?",
      "EUru": "Йо! Я тебе сейчас такую штуку\nрасскажу, обомлеешь! Только\nя забыл. Так что... (catchphrase)?",
      "JPja": "・・・あれ？　ごめん！\nキミに　用があったはずなんだけど、\n忘れちゃったよ！　ハッハー！",
      "KRko": "...어라? 미안!\n그대에게 볼일이 있었는데 말이지,\n뭐였는지 잊어버렸네! 하핫～!",
      "TWzh": "……啊？抱歉抱歉！\n明明有事要找你，\n卻忘得一乾二淨！哈哈！",
      "USen": "Yo! I totally have something\nto tell you, but I can't remember\nwhat it is. So...(catchphrase)?",
      "USes": "¡Ahí estás! Justo quería hablar algo contigo, pero ahora no me acuerdo\nqué era...",
      "USfr": "Salut! Je voulais te parler d'un sujet\npassionnant, mais j'ai oublié lequel...\nAlors, je te dis « (expression) »."
    }
  },
  {
    "label": "002",
    "attribute": "0x0000000100000000",
    "locale": {
      "CNzh": "……咦？呼唤你的理由？\n非常在意的人经过了我面前……\n这样还不够吗？。",
      "EUde": "Hey! Brauchst du was?\nNein? Es schien nur eben so, als\nbräuchtest du Hilfe, (Floskel)!",
      "EUen": "Heya! You need something?\nWhat—you looked like you needed\nsomething, (catchphrase)!",
      "EUes": "¿Qué tal, (nickname)?\nTranqui, no voy a pedirte nada.\n¡Me alegro de verte, (catchphrase)!",
      "EUfr": "Salut, (surnom) ! Je peux t'aider ? Ah... J'aurais juré que t'avais besoin de quelque chose !",
      "EUit": "Hola! No, non mi serve nada,\ntranquillo. Volevo solo intrattenerti\ncon la mia voce virile, (catchphrase)!",
      "EUnl": "Hallo! Zoek je iets? Eh... Je keek\nalsof je ergens naar op zoek was,\n(catchphrase)!",
      "EUru": "Привет! Ты что-то ищешь?\nА, да нет... просто показалось, что\nты что-то ищешь. (catchphrase)!",
      "JPja": "・・・えっ？　キミを呼んだ理由？\n目の前を　気になる人が、通り過ぎた・・・\nそれだけじゃ　ダメかい？　",
      "KRko": "...으응? 그대를 부른 이유?\n관심 있는 사람이 내 앞을 지나갔다...\n이걸로 충분하지 않나, ?",
      "TWzh": "……咦？你問我找你做什麼？\n因為喜歡的人從我面前經過……\n這樣的理由不夠嗎？。",
      "USen": "Heya! You need something?\nWhat—you looked like you needed\nsomething, (catchphrase)!",
      "USes": "¿Qué tal, (nickname)?\nTranqui, no necesito pedirte nada.\n¡Me alegra verte, (catchphrase)!",
      "USfr": "Hola, (surnom)! Je peux t'aider? Ah... J'aurais juré que t'avais besoin de quelque chose!"
    }
  },
  {
    "label": "003",
    "attribute": "0x0000000100000000",
    "locale": {
      "CNzh": "咦……？一看见你的脸，\n我就忘记自己\n究竟是为何而烦恼了呢～！。\n谢谢你呀，！",
      "EUde": "Wow! Als ich dich jetzt gesehen\nhabe, habe ich all meine Sorgen\nvergessen!\nDafür habe ich jetzt voll Lust auf ein\nkaltes Gläschen .\nWie schräg!",
      "EUen": "Whoa! When I saw your face just\nnow, I forgot all of my problems!\nI also developed an immediate and\nintense craving for a cold glass\nof . Weird!",
      "EUes": "¡Ostras! Ha sido verte y se me han\nolvidado todos los líos con los que\nando ocupado.\nTanto es así, que hasta tengo ganas\nde tomarme un vaso de . ¡Qué cosas!",
      "EUfr": "Ouah ! Le simple fait d'apercevoir ta\ntrombine au détour du chemin m'a\nfait oublier tous mes soucis !\nEt ça me donne aussi une envie\npressante de . Va comprendre !",
      "EUit": "Uah! Al solo vederti, tutte le mie\npreoccupazioni si sono sciolte\ncome neve al sole, (catchphrase)!\nE mi è pure venuta una irrefrenabile\nvoglia di . Da paura!",
      "EUnl": "Wauw! Jou zien doet me al mijn\nzorgen vergeten!\nEn ik heb ook opeens ontzettend\nveel zin in . Vreemd!",
      "EUru": "Ого! Как тебя увидел, сразу обо\nвсех проблемах позабыл!\nИ очень захотел .\nКак-то чудесато...",
      "JPja": "あれ・・・？　キミの顔を見たら、\n何について　悩んでたのか\n忘れちゃったよ～！　\nありがとね、！",
      "KRko": "어라...? 그대의 얼굴을 보니\n뭐 때문에 고민하고 있었는지\n기억이 나질 않는군～! !\n고마워, 군!",
      "TWzh": "咦……？看到你的臉之後，\n我都忘記自己剛才\n到底在煩惱些什麼了呢～！。\n謝謝你，！",
      "USen": "Whoa! When I saw your face just\nnow, I forgot all of my problems!\nI also developed an immediate and\nintense craving for a cold glass\nof . Weird!",
      "USes": "¡Vaya! Basta con verte y me olvido\nde todos los problemas que aquejan\na mi mente brillante.\nTambién me dan ganas de tomarme  .\n¡Qué extraño soy!",
      "USfr": "Waouh! Rien que de voir ta bine\nm'a fait oublier tous mes soucis!\nÇa m'a aussi donné une envie\npressante de ⁠. Va comprendre!"
    }
  },
  {
    "label": "004",
    "attribute": "0x0000000100000000",
    "locale": {
      "CNzh": "呵呵呵……谢谢！\n！\n一看见你，我的烦恼\n就显得是那么可笑呢。。",
      "EUde": "Hey, (Spitzname)! Ich freue mich so, dich zu sehen! Du lässt mich meinen Schuldenberg vergessen!",
      "EUen": "Yo! I'm super glad to see you.\nYou make it easy to forget about\nmy crushing debts!",
      "EUes": "¿Tú por aquí, (nickname)?\nNo sabes qué alegrón me da verte.\n¡Hasta se me olvidan mis deudas!",
      "EUfr": "Salut, (surnom) ! Ça fait plaisir de te croiser. Quand je vois ta face, mes soucis s'effacent.",
      "EUit": "Ehi, (nickname)! Sono troppo\nfelice di vederti. Il tuo bel musetto è\nun toccasana per i miei problemi!",
      "EUnl": "Hé, (nickname)! Wat geweldig om je te zien! Ik ben totaal vergeten waar ik over liep te tobben.",
      "EUru": "Йо, (nickname)! Как здорово\nтебя встретить! Я аж о своих долгах\nпозабыл!",
      "JPja": "フフフ・・・ありがとう！\n！\nキミの顔を見たら、悩んでるのが\nバカらしくなったよ、",
      "KRko": "후후후... 고마워!\n군!\n그대 얼굴을 봤더니 왜 고민했는지\n바보같이 느껴졌어, !",
      "TWzh": "呵呵呵……謝謝你！\n！\n看到你的臉之後，\n我就覺得煩惱都煙消雲散啦，。",
      "USen": "Yo! I'm super glad to see you.\nYou make it easy to forget about\nmy crushing debts!",
      "USes": "\"Bonchorno\", (nickname).\nQué alegrón verte.\n¡Hasta me olvido de mis deudas, je!",
      "USfr": "Salut, (surnom)! Ça fait plaisir de te croiser. Quand je vois ta face, mes soucis s'effacent."
    }
  }
]